{
  "result" : {
    "recipe" : {
      "cook_time" : "",
      "vu" : "",
      "rrps" : [

      ],
      "comments_count" : 2,
      "levelid" : 3,
      "mid_mdsp" : [

      ],
      "rpt" : "",
      "dishes" : [

      ],
      "ipci" : "",
      "create_time" : "2015-10-30 17:08:36",
      "top_mdsp" : [

      ],
      "ph" : 1067,
      "sr" : "",
      "cookstep" : [
        {
          "content" : "鲅鱼去刺去皮，弄的越碎越好！（不喜欢鲅鱼，用别的鱼也可以，我家冰箱只找到鲅鱼）",
          "image" : "https:\/\/i1.douguo.com\/upload\/caiku\/8\/6\/1\/863150069ef9ee8534a07e6627909d91.jpg",
          "image_width" : 1080,
          "thumb" : "https:\/\/i1.douguo.com\/upload\/caiku\/8\/6\/1\/140_863150069ef9ee8534a07e6627909d91.jpg",
          "frame" : "-1",
          "position" : 1,
          "image_height" : 1440
        },
        {
          "thumb" : "https:\/\/i1.douguo.com\/upload\/caiku\/8\/5\/b\/140_85257a58c68615e06e0da48cd9e543cb.jpg",
          "image_height" : 810,
          "frame" : "-1",
          "image_width" : 1080,
          "position" : 2,
          "content" : "鱼肉内加蛋清2个，料酒少许，盐，味精，淀粉，搅拌，一个方向搅拌，用力努力的搅拌，时间久一些！",
          "image" : "https:\/\/i1.douguo.com\/upload\/caiku\/8\/5\/b\/85257a58c68615e06e0da48cd9e543cb.jpg"
        },
        {
          "image_width" : 1080,
          "image" : "https:\/\/i1.douguo.com\/upload\/caiku\/d\/c\/7\/dc6deea3b4bd1e0c9a8d5163a8631637.jpg",
          "image_height" : 1440,
          "thumb" : "https:\/\/i1.douguo.com\/upload\/caiku\/d\/c\/7\/140_dc6deea3b4bd1e0c9a8d5163a8631637.jpg",
          "content" : "锅内加水，加入葱姜，大料，盐少许，烧开！",
          "position" : 3,
          "frame" : "-1"
        },
        {
          "frame" : "-1",
          "content" : "调成小火，用虎口挤出鱼肉，用勺子舀出来，放入汤水中，鱼丸都下入后，调成大火！",
          "image" : "https:\/\/i1.douguo.com\/upload\/caiku\/0\/8\/d\/08b7175350ad0595b62146f34ca335dd.jpg",
          "image_width" : 1080,
          "image_height" : 1440,
          "position" : 4,
          "thumb" : "https:\/\/i1.douguo.com\/upload\/caiku\/0\/8\/d\/140_08b7175350ad0595b62146f34ca335dd.jpg"
        },
        {
          "image_width" : 1080,
          "content" : "鱼丸熟了后，加入小白菜，继续煮！",
          "image_height" : 1440,
          "position" : 5,
          "image" : "https:\/\/i1.douguo.com\/upload\/caiku\/b\/3\/7\/b3c774346d90facecc3a711b3f275167.jpg",
          "frame" : "-1",
          "thumb" : "https:\/\/i1.douguo.com\/upload\/caiku\/b\/3\/7\/140_b3c774346d90facecc3a711b3f275167.jpg"
        },
        {
          "content" : "出锅前加味精，即可！",
          "image" : "https:\/\/i1.douguo.com\/upload\/caiku\/1\/f\/c\/1fd637d96e5746902909e8120e6d63ac.jpg",
          "frame" : "-1",
          "image_height" : 1440,
          "image_width" : 1080,
          "thumb" : "https:\/\/i1.douguo.com\/upload\/caiku\/1\/f\/c\/140_1fd637d96e5746902909e8120e6d63ac.jpg",
          "position" : 6
        },
        {
          "position" : 7,
          "frame" : "-1",
          "content" : "出锅啦！\n",
          "image_width" : 1080,
          "thumb" : "https:\/\/i1.douguo.com\/upload\/caiku\/3\/4\/e\/140_341f16e3dec5fef026798ad730174e0e.jpg",
          "image_height" : 1440,
          "image" : "https:\/\/i1.douguo.com\/upload\/caiku\/3\/4\/e\/341f16e3dec5fef026798ad730174e0e.jpg"
        }
      ],
      "vc" : "141903",
      "ipurl" : "",
      "clicks" : "136716",
      "cookwares" : [

      ],
      "original_photo_path" : "http:\/\/i1.douguo.net\/upload\/caiku\/6\/e\/c\/yuan_6e0b5bf58dbc766c4cddefd5cb9c007c.jpg",
      "image" : "http:\/\/i1.douguo.net\/upload\/caiku\/6\/e\/c\/300_6e0b5bf58dbc766c4cddefd5cb9c007c.jpg",
      "recommendation_tag" : "",
      "tips" : "",
      "author_verified" : 0,
      "views_count_text" : "14.2万",
      "minor" : [
        "{\n    note = \"\";\n    title = \"\\U8471\";\n    tu = \"https:\/\/https:\/\/m.douguo.com\/ingredients\/\\U8471\/detailmaterial\";\n}",
        "{\n    note = \"\";\n    title = \"\\U59dc\";\n    tu = \"https:\/\/https:\/\/m.douguo.com\/ingredients\/\\U59dc\/detailmaterial\";\n}",
        "{\n    note = \"\";\n    title = \"\\U5927\\U6599\";\n}",
        "{\n    note = \"\";\n    title = \"\\U76d0\";\n    tu = \"https:\/\/https:\/\/m.douguo.com\/ingredients\/\\U76d0\/detailmaterial\";\n}",
        "{\n    note = \"\";\n    title = \"\\U5473\\U7cbe\";\n    tu = \"https:\/\/https:\/\/m.douguo.com\/ingredients\/\\U5473\\U7cbe\/detailmaterial\";\n}",
        "{\n    note = \"\";\n    title = \"\\U6599\\U9152\";\n    tu = \"https:\/\/https:\/\/m.douguo.com\/ingredients\/\\U6599\\U9152\/detailmaterial\";\n}"
      ],
      "vfurl" : "",
      "advice" : {
        "has" : [
          {
            "url" : "recipes:\/\/www.douguo.com\/simplerecipelist?t=低脂&id=低脂",
            "t" : "低脂"
          },
          {
            "t" : "高盐",
            "url" : "recipes:\/\/www.douguo.com\/simplerecipelist?t=高盐&id=高盐"
          }
        ],
        "da" : {
          "url" : "https:\/\/m.douguo.com\/recipe\/nutrient_self\/1279769",
          "iu" : "https:\/\/i1.douguo.com\/upload\/banner\/f\/4\/d\/f48877e53c37759bc12ac494be82ec8d.png",
          "t" : "查看详细分析"
        },
        "at" : "健身人群可以吃～"
      },
      "brand_day_dsp" : [

      ],
      "cook_id" : "1279769",
      "author_photo" : "http:\/\/tx1.douguo.net\/upload\/photo\/0\/7\/d\/70_u36608568550349111757.jpg",
      "rdsps" : [

      ],
      "old_comments" : [

      ],
      "tags" : [

      ],
      "act_des" : "",
      "title_ad" : [

      ],
      "ipt" : "",
      "btm_dsp" : [

      ],
      "hq" : 0,
      "display_ingredient" : 1,
      "cook_time_image" : "",
      "recent_comments" : [

      ],
      "first_level_comment_count" : 2,
      "thumb_height" : 0,
      "title" : "自制鱼滑丸子白菜汤（家常）",
      "author" : "笨米欧尼de家常菜",
      "sc" : 0,
      "event" : {
        "id" : 0
      },
      "rcs" : [

      ],
      "comments" : [
        "{\n    ac = \"#999999\";\n    at = \"\";\n    ccc = 0;\n    \"child_comments\" =     (\n    );\n    city = \"\";\n    cmc = 2;\n    content =     (\n                {\n            c = \"2\\Uff0c\\U597d\\U998b\\U4eba\\U3002\";\n        }\n    );\n    ia = 0;\n    id = 3040454;\n    \"ip_address_location\" = \"\";\n    like = 0;\n    \"like_count\" = 0;\n    \"reply_id\" = 0;\n    \"sticker_icon\" =     (\n    );\n    time = \"2016-01-21 23:22:54\";\n    u =     {\n        \"followers_count_text\" = \"\";\n        id = 2322762;\n        \"is_prime\" = 0;\n        lv = 0;\n        lvl = 6;\n        n = \"\\U7eb3\\U6728\\U63aa\\U7554\\U7684\\U66fc\\U9640\\U7f57\";\n        p = \"http:\/\/tx1.douguo.net\/upload\/photo\/e\/0\/f\/70_u56265815604254220409.jpg\";\n        \"progress_image\" = \"\";\n        \"recipes_count_text\" = \"\";\n        relationship = \"-1\";\n        title = \"\";\n        v = 1;\n        \"verified_image\" = \"\";\n    };\n}",
        "{\n    ac = \"#999999\";\n    at = \"\";\n    ccc = 0;\n    \"child_comments\" =     (\n    );\n    city = \"\";\n    cmc = 2;\n    content =     (\n                {\n            c = \"\\U8fd9\\U83dc\\U770b\\U5230\\U5f88\\U6709\\U98df\\U6b32\";\n        }\n    );\n    ia = 0;\n    id = 2962778;\n    \"ip_address_location\" = \"\";\n    like = 0;\n    \"like_count\" = 0;\n    \"reply_id\" = 0;\n    \"sticker_icon\" =     (\n    );\n    time = \"2015-12-21 22:16:25\";\n    u =     {\n        \"followers_count_text\" = \"\";\n        id = 11956448;\n        \"is_prime\" = 0;\n        lv = 0;\n        lvl = 1;\n        n = \"\\U7231\\U5bb6oakm\";\n        p = \"\";\n        \"progress_image\" = \"\";\n        \"recipes_count_text\" = \"\";\n        relationship = \"-1\";\n        title = \"\";\n        v = 0;\n        \"verified_image\" = \"\";\n    };\n}"
      ],
      "recommended" : 0,
      "story_dsp" : [

      ],
      "ss" : [

      ],
      "thumb_path" : "https:\/\/i1.douguo.com\/upload\/caiku\/6\/e\/c\/300_6e0b5bf58dbc766c4cddefd5cb9c007c.jpg",
      "ipia" : [

      ],
      "rate_count" : 0,
      "favo_counts_text" : "1563",
      "cook_difficulty" : "",
      "photo_path" : "https:\/\/i1.douguo.com\/upload\/caiku\/6\/e\/c\/600_6e0b5bf58dbc766c4cddefd5cb9c007c.jpg",
      "ssu" : "",
      "favo_counts" : 1563,
      "pw" : 800,
      "packages_id" : [

      ],
      "dish_count" : 1,
      "dish_count_text" : "1",
      "rsm" : "该功能暂停使用",
      "author_id" : 10320445,
      "v_u" : "",
      "share_info" : {
        "s_d" : "自制鱼滑丸子白菜汤（家常）-会做饭很酷!",
        "qr_image" : "",
        "s_u" : "http:\/\/m.douguo.com\/cookbook\/1279769.html",
        "image" : "https:\/\/cp1.douguo.com\/upload\/caiku\/6\/e\/c\/6e0b5bf58dbc766c4cddefd5cb9c007c.jpg",
        "object_id" : "1279769",
        "infos" : [
          {
            "object_id" : "1279769",
            "channel" : "1",
            "qr_image" : "",
            "s_u" : "",
            "s_d" : "#学做饭用豆果美食# 会做饭真是太酷了！我在@豆果美食 分享了【自制鱼滑丸子白菜汤（家常）-会做饭很酷!】，这道菜真的神仙美味！喜欢的一定要试试绝对不会错的！～查看图片了解菜谱（快来点击https:\/\/m.weibo.cn\/p\/100404i33631和我一起修炼厨艺吧）",
            "name" : "自制鱼滑丸子白菜汤（家常）-会做饭很酷!",
            "image" : "https:\/\/cp1.douguo.com\/upload\/caiku\/6\/e\/c\/6e0b5bf58dbc766c4cddefd5cb9c007c.jpg",
            "mini_program" : [

            ]
          },
          {
            "object_id" : "1279769",
            "image" : "https:\/\/cp1.douguo.com\/upload\/caiku\/6\/e\/c\/6e0b5bf58dbc766c4cddefd5cb9c007c.jpg",
            "mini_program" : [

            ],
            "channel" : "7",
            "qr_image" : "",
            "s_u" : "http:\/\/m.douguo.com\/cookbook\/1279769.html",
            "s_d" : "自制鱼滑丸子白菜汤（家常）-会做饭很酷!",
            "name" : "自制鱼滑丸子白菜汤（家常）-会做饭很酷!"
          },
          {
            "s_u" : "http:\/\/m.douguo.com\/cookbook\/1279769.html",
            "s_d" : "自制鱼滑丸子白菜汤（家常）-会做饭很酷!",
            "name" : "自制鱼滑丸子白菜汤（家常）-会做饭很酷!",
            "mini_program" : [

            ],
            "channel" : "8",
            "image" : "https:\/\/cp1.douguo.com\/upload\/caiku\/6\/e\/c\/6e0b5bf58dbc766c4cddefd5cb9c007c.jpg",
            "qr_image" : "",
            "object_id" : "1279769"
          }
        ],
        "name" : "自制鱼滑丸子白菜汤（家常）-会做饭很酷!",
        "mini_program" : [

        ]
      },
      "eu" : "recipes:\/\/www.douguo.com\/postdetail?id=242016",
      "related_ads" : [

      ],
      "ipit" : 0,
      "rpid" : 0,
      "rate_show" : 0,
      "guide_image" : "",
      "purl" : "",
      "cook_difficulty_image" : "",
      "release_time" : "",
      "su" : "",
      "hqu" : "recipes:\/\/www.douguo.com\/notedetail?id=21162253",
      "recommend_label" : "1人学做",
      "collect_status" : 0,
      "notes" : [

      ],
      "ecs" : 0,
      "user" : {
        "following_count" : 0,
        "qzone_nick" : "",
        "regist_time" : "",
        "subscription" : 0,
        "point" : 0,
        "dishes_count" : 0,
        "gender" : 2,
        "user_id" : "10320445",
        "subscription_article_count" : 0,
        "birthday" : "",
        "user_photo" : "http:\/\/tx1.douguo.net\/upload\/photo\/0\/7\/d\/70_u36608568550349111757.jpg",
        "verified_image" : "",
        "is_prime" : 0,
        "user_large_photo" : "http:\/\/tx1.douguo.net\/upload\/photo\/0\/7\/d\/yuan_u36608568550349111757.jpg",
        "location" : 0,
        "followers_count" : 0,
        "favor_diaries_count" : 0,
        "userid" : "10320445",
        "mobile" : "",
        "verified" : 0,
        "lvl" : 6,
        "user_cover" : "",
        "sign" : "",
        "recipes_count" : 0,
        "avatar_medium" : "http:\/\/tx1.douguo.net\/upload\/photo\/0\/7\/d\/140_u36608568550349111757.jpg",
        "diaries_count" : 0,
        "nick" : "笨米欧尼de家常菜",
        "fc" : 0,
        "progress_image" : "",
        "weibo_nick" : "",
        "qq_weibo_nick" : "",
        "pc" : 0,
        "favorites_count" : 0,
        "setted_email" : 0,
        "lv" : 0,
        "introduction" : "",
        "verified_url" : "https:\/\/m.douguo.com\/user\/prodesc",
        "email" : "",
        "age" : "",
        "coursecount" : 0
      },
      "rate" : 0,
      "bs" : [

      ],
      "major" : [
        {
          "tu" : "https:\/\/m.douguo.com\/ingredients\/鲅鱼\/detailmaterial",
          "note" : "（别的鱼也可以）",
          "title" : "鲅鱼"
        },
        {
          "title" : "鸡蛋",
          "note" : "",
          "tu" : "https:\/\/m.douguo.com\/ingredients\/鸡蛋\/detailmaterial"
        },
        {
          "note" : "",
          "title" : "小白菜",
          "tu" : "https:\/\/m.douguo.com\/ingredients\/小白菜\/detailmaterial"
        }
      ],
      "rpst" : "",
      "cookstorys" : [
        {
          "c" : "简单.美味！",
          "type" : 0,
          "u" : "",
          "icon" : "",
          "id" : 0,
          "color" : ""
        }
      ],
      "ipoi" : "",
      "rrpt" : "",
      "comments_count_text" : "2",
      "rips" : 0,
      "recipe_tags" : [

      ],
      "recipe_list_tags" : [
        {
          "background_border_color" : "",
          "text" : "关注的人",
          "background_end_color" : "#F4F5F5",
          "text_color" : "#141515",
          "right_image" : "",
          "jump_url" : "",
          "background_start_color" : "#F4F5F5"
        }
      ],
      "rewarded_video_dsp" : [

      ],
      "cookstory" : "简单.美味！"
    }
  },
  "status" : 0,
  "state" : "success"
}