{
  "state" : "success",
  "status" : 0,
  "result" : {
    "recipe" : {
      "recipe_list_tags" : [
        {
          "text_color" : "#141515",
          "right_image" : "",
          "jump_url" : "",
          "background_end_color" : "#F4F5F5",
          "text" : "关注的人",
          "background_border_color" : "",
          "background_start_color" : "#F4F5F5"
        }
      ],
      "ipurl" : "",
      "ecs" : 1,
      "ssu" : "",
      "vfurl" : "https:\/\/vplay.douguo.com\/lusTimhImPH8oYGKvpcKETqXLn72__362x640.mp4",
      "related_ads" : [

      ],
      "thumb_path" : "https:\/\/i1.douguo.com\/upload\/caiku\/2\/4\/4\/300_24388cc4cb7b0bb7f3e4db886afac5b4.jpg",
      "cookwares" : [

      ],
      "comments" : [

      ],
      "rrpt" : "",
      "sc" : 0,
      "recommend_label" : "3863人看过",
      "views_count_text" : "3863",
      "purl" : "",
      "rewarded_video_dsp" : [

      ],
      "collect_status" : 0,
      "share_info" : {
        "name" : "世界杯之日式料理-会做饭很酷!",
        "mini_program" : [

        ],
        "s_d" : "世界杯之日式料理-会做饭很酷!",
        "s_u" : "http:\/\/m.douguo.com\/cookbook\/3229994.html",
        "infos" : [
          {
            "mini_program" : [

            ],
            "qr_image" : "",
            "object_id" : "3229994",
            "s_d" : "#学做饭用豆果美食# 我在@豆果美食 分享了【世界杯之日式料理-会做饭很酷!】，帅哥美眉们～你们喜欢的美食来咯！快来跟我一起做吧～查看图片了解菜谱（想要获取更多美食就看这https:\/\/m.weibo.cn\/p\/100404i33631）#会做饭很酷#",
            "image" : "https:\/\/cp1.douguo.com\/upload\/caiku\/2\/4\/4\/24388cc4cb7b0bb7f3e4db886afac5b4.jpg",
            "s_u" : "",
            "name" : "世界杯之日式料理-会做饭很酷!",
            "channel" : "1"
          },
          {
            "name" : "世界杯之日式料理-会做饭很酷!",
            "object_id" : "3229994",
            "s_u" : "http:\/\/m.douguo.com\/cookbook\/3229994.html",
            "mini_program" : [

            ],
            "image" : "https:\/\/cp1.douguo.com\/upload\/caiku\/2\/4\/4\/24388cc4cb7b0bb7f3e4db886afac5b4.jpg",
            "s_d" : "世界杯之日式料理-会做饭很酷!",
            "channel" : "7",
            "qr_image" : ""
          },
          {
            "s_d" : "世界杯之日式料理-会做饭很酷!",
            "qr_image" : "",
            "image" : "https:\/\/cp1.douguo.com\/upload\/caiku\/2\/4\/4\/24388cc4cb7b0bb7f3e4db886afac5b4.jpg",
            "s_u" : "http:\/\/m.douguo.com\/cookbook\/3229994.html",
            "mini_program" : [

            ],
            "object_id" : "3229994",
            "channel" : "8",
            "name" : "世界杯之日式料理-会做饭很酷!"
          }
        ],
        "object_id" : "3229994",
        "qr_image" : "",
        "image" : "https:\/\/cp1.douguo.com\/upload\/caiku\/2\/4\/4\/24388cc4cb7b0bb7f3e4db886afac5b4.jpg"
      },
      "dishes" : [

      ],
      "rpst" : "",
      "rpid" : 0,
      "sr" : "",
      "cook_difficulty" : "",
      "top_mdsp" : [

      ],
      "author_photo" : "http:\/\/tx1.douguo.net\/upload\/photo\/b\/b\/7\/70_u80676437907629211148.jpg",
      "create_time" : "2022-12-16 23:10:51",
      "cookstorys" : [
        {
          "u" : "",
          "type" : 0,
          "color" : "",
          "c" : "世界杯日本踢球的时候老公早上提醒了我说有日本队想我就get到他啥意思了，下午去了市场买来了食材，没想到一桌还挺像样",
          "id" : 0,
          "icon" : ""
        }
      ],
      "author_id" : 19160200,
      "cookstep" : [
        {
          "thumb" : "https:\/\/i1.douguo.com\/upload\/caiku\/c\/d\/a\/140_cdce3960643ae399f5fcfb33730f8dba.jpg",
          "position" : 1,
          "frame" : "-1",
          "image_width" : 1280,
          "content" : "视频里有制作寿司的手法，很简单，喜欢吃芥末的可以在一片上抹一点在放到饭团上\n鱼生随便怎么切都行，摆盘就好啦！",
          "image" : "https:\/\/i1.douguo.com\/upload\/caiku\/c\/d\/a\/cdce3960643ae399f5fcfb33730f8dba.jpg",
          "image_height" : 1707
        },
        {
          "image_width" : 1280,
          "thumb" : "https:\/\/i1.douguo.com\/upload\/caiku\/e\/0\/4\/140_e07d31a142bd20937046df4e661687f4.jpg",
          "frame" : "-1",
          "content" : "蟹肉棒每个劈成两半，放到饭团上，用紫菜卷起来",
          "image" : "https:\/\/i1.douguo.com\/upload\/caiku\/e\/0\/4\/e07d31a142bd20937046df4e661687f4.jpg",
          "image_height" : 960,
          "position" : 2
        },
        {
          "frame" : "-1",
          "content" : "生蚝撬开壳，放上蒜蓉酱，或者奶酪碎，如烤箱200度5分钟\n为了凑齐这日料，我要去了趟711，买了日式烧烤串，章鱼小丸子，海菜丝，火腿片，蟹肉棒，这样就很像样啦！家里有自己酿的梅子酒，兑是气泡水，好搭！",
          "position" : 3,
          "thumb" : "https:\/\/i1.douguo.com\/upload\/caiku\/a\/0\/a\/140_a0007bcbba8659f2db8b4547cdba3e2a.jpg",
          "image" : "https:\/\/i1.douguo.com\/upload\/caiku\/a\/0\/a\/a0007bcbba8659f2db8b4547cdba3e2a.jpg",
          "image_height" : 960,
          "image_width" : 1280
        }
      ],
      "rdsps" : [

      ],
      "ipoi" : "",
      "favo_counts" : 34,
      "rcs" : [

      ],
      "btm_dsp" : [

      ],
      "story_dsp" : [

      ],
      "favo_counts_text" : "34",
      "rate" : 0,
      "rpt" : "",
      "recommendation_tag" : "",
      "su" : "",
      "ipci" : "",
      "rate_count" : 0,
      "dish_count_text" : "",
      "thumb_height" : 0,
      "title_ad" : [

      ],
      "rsm" : "该功能暂停使用",
      "guide_image" : "",
      "cook_difficulty_image" : "",
      "brand_day_dsp" : [

      ],
      "pw" : 1280,
      "minor" : [

      ],
      "recommended" : 0,
      "photo_path" : "https:\/\/i1.douguo.com\/upload\/caiku\/2\/4\/4\/600_24388cc4cb7b0bb7f3e4db886afac5b4.jpg",
      "tips" : "纯粹是为了配合老公看球的心境做了一桌日料，如果时间充裕还可以做的更丰盛些，但这些已经让他乐开花了 看球赛都不重要了",
      "bs" : [

      ],
      "hq" : 0,
      "levelid" : 3,
      "ss" : [

      ],
      "eu" : "recipes:\/\/www.douguo.com\/postdetail?id=242016",
      "recipe_tags" : [

      ],
      "hqu" : "recipes:\/\/www.douguo.com\/notedetail?id=21162253",
      "notes" : [

      ],
      "v_u" : "",
      "tags" : [

      ],
      "rate_show" : 0,
      "cook_id" : "3229994",
      "old_comments" : [

      ],
      "cook_time" : "",
      "user" : {
        "progress_image" : "",
        "weibo_nick" : "",
        "pc" : 0,
        "user_id" : "19160200",
        "subscription_article_count" : 0,
        "setted_email" : 0,
        "regist_time" : "",
        "favor_diaries_count" : 0,
        "qzone_nick" : "",
        "nick" : "GinnySun",
        "following_count" : 0,
        "gender" : 2,
        "subscription" : 0,
        "birthday" : "",
        "coursecount" : 0,
        "introduction" : "",
        "age" : "",
        "user_large_photo" : "http:\/\/tx1.douguo.net\/upload\/photo\/b\/b\/7\/yuan_u80676437907629211148.jpg",
        "userid" : "19160200",
        "mobile" : "",
        "location" : 0,
        "verified_image" : "",
        "is_prime" : 0,
        "diaries_count" : 0,
        "email" : "",
        "lv" : 0,
        "user_photo" : "http:\/\/tx1.douguo.net\/upload\/photo\/b\/b\/7\/70_u80676437907629211148.jpg",
        "qq_weibo_nick" : "",
        "followers_count" : 0,
        "dishes_count" : 0,
        "recipes_count" : 0,
        "avatar_medium" : "http:\/\/tx1.douguo.net\/upload\/photo\/b\/b\/7\/140_u80676437907629211148.jpg",
        "user_cover" : "",
        "sign" : "",
        "verified_url" : "https:\/\/m.douguo.com\/user\/prodesc",
        "verified" : 0,
        "favorites_count" : 0,
        "lvl" : 6,
        "fc" : 0,
        "point" : 0
      },
      "ipia" : [

      ],
      "author" : "GinnySun",
      "author_verified" : 0,
      "vc" : "3863",
      "display_ingredient" : 1,
      "major" : [
        {
          "note" : "200克",
          "title" : "五常大米"
        },
        {
          "title" : "三文鱼",
          "note" : "半条",
          "tu" : "https:\/\/m.douguo.com\/ingredients\/三文鱼\/detailmaterial"
        },
        {
          "title" : "紫菜",
          "note" : "两张"
        },
        {
          "note" : "两片",
          "title" : "火腿片"
        },
        {
          "note" : "两个",
          "title" : "蟹肉棒"
        },
        {
          "title" : "日式烤串",
          "note" : "若干"
        },
        {
          "note" : "一杯",
          "title" : "梅子酒"
        },
        {
          "tu" : "https:\/\/m.douguo.com\/ingredients\/生蚝\/detailmaterial",
          "note" : "10只",
          "title" : "生蚝"
        }
      ],
      "cook_time_image" : "",
      "image" : "http:\/\/i1.douguo.net\/upload\/caiku\/2\/4\/4\/300_24388cc4cb7b0bb7f3e4db886afac5b4.jpg",
      "rrps" : [

      ],
      "rips" : 0,
      "act_des" : "",
      "release_time" : "",
      "ph" : 960,
      "clicks" : "1",
      "comments_count_text" : "",
      "packages_id" : [

      ],
      "dish_count" : 0,
      "vu" : "https:\/\/vplay.douguo.com\/lusTimhImPH8oYGKvpcKETqXLn72",
      "comments_count" : 0,
      "ipt" : "",
      "mid_mdsp" : [

      ],
      "cookstory" : "世界杯日本踢球的时候老公早上提醒了我说有日本队想我就get到他啥意思了，下午去了市场买来了食材，没想到一桌还挺像样",
      "first_level_comment_count" : 0,
      "original_photo_path" : "http:\/\/i1.douguo.net\/upload\/caiku\/2\/4\/4\/yuan_24388cc4cb7b0bb7f3e4db886afac5b4.jpg",
      "title" : "世界杯之日式料理",
      "ipit" : 0,
      "recent_comments" : [

      ]
    }
  }
}