{
  "status" : 0,
  "state" : "success",
  "result" : {
    "recipe" : {
      "release_time" : "",
      "comments" : [
        "{\n    ac = \"#999999\";\n    at = \"\";\n    ccc = 6;\n    \"child_comments\" =     (\n                {\n            ac = \"#999999\";\n            at = \"\";\n            ccc = 0;\n            city = \"\";\n            cmc = 2;\n            content =             (\n                                {\n                    c = \" \\U597d\\U50cf\\U4e0d\\U653e\\U554a\\U3002\\U86ee\\U6e05\\U6de1\\U7684\";\n                }\n            );\n            ia = 0;\n            id = 2452393;\n            \"ip_address_location\" = \"\";\n            like = 0;\n            \"like_count\" = 0;\n            \"reply_id\" = 2452247;\n            \"reply_user\" =             {\n                \"followers_count_text\" = \"\";\n                id = 7796155;\n                \"is_prime\" = 0;\n                lv = 0;\n                lvl = 6;\n                n = \"\\U5c0f\\U9678\\U7d14\\U5b50\";\n                p = \"http:\/\/tx1.douguo.net\/upload\/photo\/c\/1\/8\/70_u21062901888411162654.jpeg\";\n                \"progress_image\" = \"\";\n                \"recipes_count_text\" = \"\";\n                relationship = \"-1\";\n                title = \"\";\n                v = 0;\n                \"verified_image\" = \"\";\n            };\n            \"sticker_icon\" =             (\n            );\n            time = \"2015-07-21 08:55:25\";\n            u =             {\n                \"followers_count_text\" = \"\";\n                id = 3407944;\n                \"is_prime\" = 0;\n                lv = 0;\n                lvl = 1;\n                n = zsheepy;\n                p = \"\";\n                \"progress_image\" = \"\";\n                \"recipes_count_text\" = \"\";\n                relationship = \"-1\";\n                title = \"\";\n                v = 0;\n                \"verified_image\" = \"\";\n            };\n        },\n                {\n            ac = \"#999999\";\n            at = \"\";\n            ccc = 0;\n            city = \"\";\n            cmc = 2;\n            content =             (\n                                {\n                    c = \" \\U4e3a\\U4f55\\U70b9\\U626c\\U5dde\\U7092\\U996d\\U5fc5\\U5b9a\\U662f\\U9171\\U6cb9\\U7092\\U8bef\\U5bfc\\U8bef\\U5bfc\";\n                }\n            );\n            ia = 0;\n            id = 2452951;\n            \"ip_address_location\" = \"\";\n            like = 0;\n            \"like_count\" = 0;\n            \"reply_id\" = 2452393;\n            \"reply_user\" =             {\n                \"followers_count_text\" = \"\";\n                id = 3407944;\n                \"is_prime\" = 0;\n                lv = 0;\n                lvl = 1;\n                n = zsheepy;\n                p = \"\";\n                \"progress_image\" = \"\";\n                \"recipes_count_text\" = \"\";\n                relationship = \"-1\";\n                title = \"\";\n                v = 0;\n                \"verified_image\" = \"\";\n            };\n            \"sticker_icon\" =             (\n            );\n            time = \"2015-07-21 12:12:40\";\n            u =             {\n                \"followers_count_text\" = \"\";\n                id = 7796155;\n                \"is_prime\" = 0;\n                lv = 0;\n                lvl = 6;\n                n = \"\\U5c0f\\U9678\\U7d14\\U5b50\";\n                p = \"http:\/\/tx1.douguo.net\/upload\/photo\/c\/1\/8\/70_u21062901888411162654.jpeg\";\n                \"progress_image\" = \"\";\n                \"recipes_count_text\" = \"\";\n                relationship = \"-1\";\n                title = \"\";\n                v = 0;\n                \"verified_image\" = \"\";\n            };\n        }\n    );\n    city = \"\";\n    cmc = 2;\n    content =     (\n                {\n            c = \"\\U771f\\U6f02\\U4eae\\U626c\\U5dde\\U7092\\U996d\\U4e3b\\U8981\\U7279\\U8272\\U662f\\U8981\\U653e\\U9171\\U6cb9\\U7684\\Uff0c\\U4e0d\\U77e5\\U9053\\U626c\\U5dde\\U4eba\\Uff0c\\U6211\\U8bf4\\U7684\\U5bf9\\U4e0d\\U5bf9\";\n        }\n    );\n    ia = 0;\n    id = 2452247;\n    \"ip_address_location\" = \"\";\n    like = 0;\n    \"like_count\" = 1;\n    \"reply_id\" = 0;\n    \"sticker_icon\" =     (\n    );\n    time = \"2015-07-21 08:11:28\";\n    u =     {\n        \"followers_count_text\" = \"\";\n        id = 7796155;\n        \"is_prime\" = 0;\n        lv = 0;\n        lvl = 6;\n        n = \"\\U5c0f\\U9678\\U7d14\\U5b50\";\n        p = \"http:\/\/tx1.douguo.net\/upload\/photo\/c\/1\/8\/70_u21062901888411162654.jpeg\";\n        \"progress_image\" = \"\";\n        \"recipes_count_text\" = \"\";\n        relationship = \"-1\";\n        title = \"\";\n        v = 0;\n        \"verified_image\" = \"\";\n    };\n}",
        "{\n    ac = \"#999999\";\n    at = \"\";\n    ccc = 5;\n    \"child_comments\" =     (\n                {\n            ac = \"#999999\";\n            at = \"\";\n            ccc = 0;\n            city = \"\";\n            cmc = 2;\n            content =             (\n                                {\n                    c = \"  \\U6709\\U521b\\U610f\\Uff0c\\U8bd5\\U8bd5\\U770b\\Uff0c\\U4e0d\\U8fc7\\U6211\\U7b2c\\U4e00\\U6b21\\U505a\\U86cb\\U7092\\U996d\\U4e0d\\U4f1a\\U505a\\Uff0c\\U9e21\\U86cb\\U5c31\\U662f\\U8fd9\\U6837\\U5b50\\U52a0\\U5230\\U7c73\\U996d\\U91cc\\U7092\\U7684\";\n                }\n            );\n            ia = 0;\n            id = 2278605;\n            \"ip_address_location\" = \"\";\n            like = 0;\n            \"like_count\" = 0;\n            \"reply_id\" = 2278585;\n            \"reply_user\" =             {\n                \"followers_count_text\" = \"\";\n                id = 4884932;\n                \"is_prime\" = 0;\n                lv = 0;\n                lvl = 4;\n                n = \"\\U5c0f\\U82b1\\U8c93\";\n                p = \"http:\/\/tx1.douguo.net\/upload\/photo\/5\/f\/5\/70_u05835703788176135505.jpg\";\n                \"progress_image\" = \"\";\n                \"recipes_count_text\" = \"\";\n                relationship = \"-1\";\n                title = \"\";\n                v = 0;\n                \"verified_image\" = \"\";\n            };\n            \"sticker_icon\" =             (\n            );\n            time = \"2015-05-19 21:27:54\";\n            u =             {\n                \"followers_count_text\" = \"\";\n                id = 9031311;\n                \"is_prime\" = 0;\n                lv = 0;\n                lvl = 3;\n                n = \"\\U9752\\U5b50\\U887f\";\n                p = \"http:\/\/tx1.douguo.net\/upload\/photo\/a\/6\/5\/70_u29442325344767110325.jpg\";\n                \"progress_image\" = \"\";\n                \"recipes_count_text\" = \"\";\n                relationship = \"-1\";\n                title = \"\";\n                v = 0;\n                \"verified_image\" = \"\";\n            };\n        },\n                {\n            ac = \"#999999\";\n            at = \"\";\n            ccc = 0;\n            city = \"\";\n            cmc = 2;\n            content =             (\n                                {\n                    c = \" \\U86cb\\U7092\\U996d\\U4e0d\\U96be\\U7684\\U54c8\\Uff0c\\U81ea\\U5df1\\U505a\\U7684\\U600e\\U4e48\\U90fd\\U597d\\U5403\\Uff0c\\U51b7\\U996d\\U5148\\U7092\\U6563\\Uff0c\\U518d\\U4e0b\\U86cb\\U6db2\\Uff0c\\U9002\\U91cf\\U6dfb\\U52a0\\U6cb9\\U3001\\U8c03\\U6599\\U3001\\U6700\\U540e\\U4e0b\\U9884\\U5148\\U7092\\U719f\\U7684\\U914d\\U83dc\\U7092\\U5747\\U5c31\\U53ef\\U4ee5\\U4e86\";\n                }\n            );\n            ia = 0;\n            id = 2278969;\n            \"ip_address_location\" = \"\";\n            like = 0;\n            \"like_count\" = 0;\n            \"reply_id\" = 2278605;\n            \"reply_user\" =             {\n                \"followers_count_text\" = \"\";\n                id = 9031311;\n                \"is_prime\" = 0;\n                lv = 0;\n                lvl = 3;\n                n = \"\\U9752\\U5b50\\U887f\";\n                p = \"http:\/\/tx1.douguo.net\/upload\/photo\/a\/6\/5\/70_u29442325344767110325.jpg\";\n                \"progress_image\" = \"\";\n                \"recipes_count_text\" = \"\";\n                relationship = \"-1\";\n                title = \"\";\n                v = 0;\n                \"verified_image\" = \"\";\n            };\n            \"sticker_icon\" =             (\n            );\n            time = \"2015-05-20 00:57:23\";\n            u =             {\n                \"followers_count_text\" = \"\";\n                id = 4884932;\n                \"is_prime\" = 0;\n                lv = 0;\n                lvl = 4;\n                n = \"\\U5c0f\\U82b1\\U8c93\";\n                p = \"http:\/\/tx1.douguo.net\/upload\/photo\/5\/f\/5\/70_u05835703788176135505.jpg\";\n                \"progress_image\" = \"\";\n                \"recipes_count_text\" = \"\";\n                relationship = \"-1\";\n                title = \"\";\n                v = 0;\n                \"verified_image\" = \"\";\n            };\n        }\n    );\n    city = \"\";\n    cmc = 2;\n    content =     (\n                {\n            c = \"\\U8fd9\\U996d\\U611f\\U89c9\\U770b\\U7740\\U5e72\\U5e72\\U7684\\Uff0c\\U6c92\\U4ec0\\U4e48\\U6cb9\\U6c14\\U54c8\\Uff0c\\U6211\\U4e60\\U60ef\\U5148\\U7092\\U996d\\Uff0c\\U518d\\U7de9\\U7de9\\U5012\\U5165\\U86cb\\U6db2\\U7ffb\\U7092\\Uff0c\\U8ba9\\U7c73\\U7c92\\U90fd\\U5c3d\\U91cf\\U5168\\U90e8\\U88f9\\U4e0a\\U86cb\\U6db2\\Uff0c\\U597d\\U770b\\U53c8\\U597d\\U5403\";\n        }\n    );\n    ia = 0;\n    id = 2278585;\n    \"ip_address_location\" = \"\";\n    like = 0;\n    \"like_count\" = 1;\n    \"reply_id\" = 0;\n    \"sticker_icon\" =     (\n    );\n    time = \"2015-05-19 20:10:14\";\n    u =     {\n        \"followers_count_text\" = \"\";\n        id = 4884932;\n        \"is_prime\" = 0;\n        lv = 0;\n        lvl = 4;\n        n = \"\\U5c0f\\U82b1\\U8c93\";\n        p = \"http:\/\/tx1.douguo.net\/upload\/photo\/5\/f\/5\/70_u05835703788176135505.jpg\";\n        \"progress_image\" = \"\";\n        \"recipes_count_text\" = \"\";\n        relationship = \"-1\";\n        title = \"\";\n        v = 0;\n        \"verified_image\" = \"\";\n    };\n}",
        "{\n    ac = \"#999999\";\n    at = \"\";\n    ccc = 4;\n    \"child_comments\" =     (\n                {\n            ac = \"#999999\";\n            at = \"\";\n            ccc = 0;\n            city = \"\";\n            cmc = 2;\n            content =             (\n                                {\n                    c = \" \\U505a\\U51fa\\U6765\\U5f88\\U597d\\U5403\";\n                }\n            );\n            ia = 0;\n            id = 4704703;\n            \"ip_address_location\" = \"\";\n            like = 0;\n            \"like_count\" = 0;\n            \"reply_id\" = 4677812;\n            \"reply_user\" =             {\n                \"followers_count_text\" = \"\";\n                id = 2858547;\n                \"is_prime\" = 0;\n                lv = 0;\n                lvl = 6;\n                n = \"\\U963f\\U68a6227\";\n                p = \"http:\/\/tx1.douguo.net\/upload\/photo\/4\/e\/9\/70_u71115943373556185000.jpg\";\n                \"progress_image\" = \"\";\n                \"recipes_count_text\" = \"\";\n                relationship = \"-1\";\n                title = \"\";\n                v = 0;\n                \"verified_image\" = \"\";\n            };\n            \"sticker_icon\" =             (\n            );\n            time = \"2017-05-04 04:06:12\";\n            u =             {\n                \"followers_count_text\" = \"\";\n                id = 18979832;\n                \"is_prime\" = 0;\n                lv = 0;\n                lvl = 1;\n                n = \"\\U5218\\U65ed\\U5cf0123\";\n                p = \"http:\/\/tx1.douguo.net\/upload\/photo\/b\/b\/d\/70_u78261485433283135025.jpeg\";\n                \"progress_image\" = \"\";\n                \"recipes_count_text\" = \"\";\n                relationship = \"-1\";\n                title = \"\";\n                v = 0;\n                \"verified_image\" = \"\";\n            };\n        },\n                {\n            ac = \"#999999\";\n            at = \"\";\n            ccc = 0;\n            city = \"\";\n            cmc = 2;\n            content =             (\n                                {\n                    c = \" \\U771f\\U7f8e\\U5473\\Uff0c\\U8fd8\\U60f3\\U505a\\U4e00\\U6b21\";\n                }\n            );\n            ia = 0;\n            id = 4704764;\n            \"ip_address_location\" = \"\";\n            like = 0;\n            \"like_count\" = 0;\n            \"reply_id\" = 4677812;\n            \"reply_user\" =             {\n                \"followers_count_text\" = \"\";\n                id = 2858547;\n                \"is_prime\" = 0;\n                lv = 0;\n                lvl = 6;\n                n = \"\\U963f\\U68a6227\";\n                p = \"http:\/\/tx1.douguo.net\/upload\/photo\/4\/e\/9\/70_u71115943373556185000.jpg\";\n                \"progress_image\" = \"\";\n                \"recipes_count_text\" = \"\";\n                relationship = \"-1\";\n                title = \"\";\n                v = 0;\n                \"verified_image\" = \"\";\n            };\n            \"sticker_icon\" =             (\n            );\n            time = \"2017-05-04 04:13:32\";\n            u =             {\n                \"followers_count_text\" = \"\";\n                id = 18979832;\n                \"is_prime\" = 0;\n                lv = 0;\n                lvl = 1;\n                n = \"\\U5218\\U65ed\\U5cf0123\";\n                p = \"http:\/\/tx1.douguo.net\/upload\/photo\/b\/b\/d\/70_u78261485433283135025.jpeg\";\n                \"progress_image\" = \"\";\n                \"recipes_count_text\" = \"\";\n                relationship = \"-1\";\n                title = \"\";\n                v = 0;\n                \"verified_image\" = \"\";\n            };\n        }\n    );\n    city = \"\";\n    cmc = 2;\n    content =     (\n                {\n            c = \"\\U8d5e\";\n        }\n    );\n    ia = 0;\n    id = 4677812;\n    \"ip_address_location\" = \"\";\n    like = 0;\n    \"like_count\" = 2;\n    \"reply_id\" = 0;\n    \"sticker_icon\" =     (\n    );\n    time = \"2017-04-26 10:19:13\";\n    u =     {\n        \"followers_count_text\" = \"\";\n        id = 2858547;\n        \"is_prime\" = 0;\n        lv = 0;\n        lvl = 6;\n        n = \"\\U963f\\U68a6227\";\n        p = \"http:\/\/tx1.douguo.net\/upload\/photo\/4\/e\/9\/70_u71115943373556185000.jpg\";\n        \"progress_image\" = \"\";\n        \"recipes_count_text\" = \"\";\n        relationship = \"-1\";\n        title = \"\";\n        v = 0;\n        \"verified_image\" = \"\";\n    };\n}"
      ],
      "recent_comments" : [

      ],
      "first_level_comment_count" : 257,
      "levelid" : 2,
      "su" : "",
      "old_comments" : [

      ],
      "ph" : 533,
      "comments_count_text" : "313",
      "rpt" : "",
      "display_ingredient" : 1,
      "ssu" : "",
      "rrps" : [

      ],
      "act_des" : "",
      "packages_id" : [

      ],
      "ipurl" : "",
      "original_photo_path" : "http:\/\/i1.douguo.net\/upload\/caiku\/8\/2\/9\/yuan_82aba9cfb8cc83efc9286bd95716ba29.jpg",
      "ipia" : [

      ],
      "cookstep" : [
        {
          "thumb" : "https:\/\/i1.douguo.com\/upload\/caiku\/6\/3\/4\/140_639e3de4cb32e745c5ef03be9332e314.jpg",
          "frame" : "-1",
          "image_height" : 533,
          "image_width" : 800,
          "position" : 1,
          "content" : "准备食材。泰国香米300克、胡萝卜丁适量、青豆适量、玉米粒适量、黄瓜适量、鸡蛋两个、香肠适量、虾仁适量、香葱适量。",
          "image" : "https:\/\/i1.douguo.com\/upload\/caiku\/6\/3\/4\/639e3de4cb32e745c5ef03be9332e314.jpg"
        },
        {
          "image_width" : 800,
          "image" : "https:\/\/i1.douguo.com\/upload\/caiku\/7\/c\/6\/7c09a95ea65e496046e3f7cd8feb8286.jpg",
          "image_height" : 533,
          "thumb" : "https:\/\/i1.douguo.com\/upload\/caiku\/7\/c\/6\/140_7c09a95ea65e496046e3f7cd8feb8286.jpg",
          "content" : "将香米淘洗干净，然后放到电饭煲中，加适量的清水开始煮饭，饭煮好后，晾凉备用。",
          "position" : 2,
          "frame" : "-1"
        },
        {
          "image_height" : 533,
          "content" : "黄瓜切丁、香肠切丁、鸡蛋打散、香葱切碎备用。",
          "image_width" : 800,
          "position" : 3,
          "frame" : "-1",
          "image" : "https:\/\/i1.douguo.com\/upload\/caiku\/7\/1\/2\/713f80247c75b7412201943a8bbdf6b2.jpg",
          "thumb" : "https:\/\/i1.douguo.com\/upload\/caiku\/7\/1\/2\/140_713f80247c75b7412201943a8bbdf6b2.jpg"
        },
        {
          "image_width" : 800,
          "frame" : "-1",
          "content" : "虾仁中加半只蛋清、一小勺淀粉抓均后腌制10分钟备用。",
          "image" : "https:\/\/i1.douguo.com\/upload\/caiku\/3\/5\/7\/35878dc463942c828292c93938b21dd7.jpg",
          "position" : 4,
          "thumb" : "https:\/\/i1.douguo.com\/upload\/caiku\/3\/5\/7\/140_35878dc463942c828292c93938b21dd7.jpg",
          "image_height" : 533
        },
        {
          "content" : "锅中加适量清水，水烧开后加将玉米、青豆、胡萝卜倒入锅中焯水备用。",
          "image" : "https:\/\/i1.douguo.com\/upload\/caiku\/c\/b\/2\/cbd68af2ffb6887c6c1d468019c40732.jpg",
          "position" : 5,
          "image_width" : 800,
          "thumb" : "https:\/\/i1.douguo.com\/upload\/caiku\/c\/b\/2\/140_cbd68af2ffb6887c6c1d468019c40732.jpg",
          "frame" : "-1",
          "image_height" : 533
        },
        {
          "frame" : "-1",
          "image_width" : 800,
          "image" : "https:\/\/i1.douguo.com\/upload\/caiku\/8\/7\/4\/87e3b4cb7b9a558d16a55eb60da5c994.jpg",
          "image_height" : 533,
          "content" : "锅中加少许油，油热后倒入虾仁滑炒。虾仁变白成熟即可盛出备用。",
          "position" : 6,
          "thumb" : "https:\/\/i1.douguo.com\/upload\/caiku\/8\/7\/4\/140_87e3b4cb7b9a558d16a55eb60da5c994.jpg"
        },
        {
          "position" : 7,
          "frame" : "-1",
          "thumb" : "https:\/\/i1.douguo.com\/upload\/caiku\/3\/d\/f\/140_3dc585c2b60fa3edfae3813bcd4c8d3f.jpg",
          "image_height" : 533,
          "image_width" : 800,
          "image" : "https:\/\/i1.douguo.com\/upload\/caiku\/3\/d\/f\/3dc585c2b60fa3edfae3813bcd4c8d3f.jpg",
          "content" : "锅中加少许油，油热后将玉米、青豆、胡萝卜、黄瓜、香肠倒入锅中，加入少许盐煸炒匀后盛出备用。"
        },
        {
          "image" : "https:\/\/i1.douguo.com\/upload\/caiku\/f\/f\/8\/ffd38b574bda7bc9d02a67b6a21d34e8.jpg",
          "image_height" : 533,
          "frame" : "-1",
          "position" : 8,
          "content" : "锅中加少许油，油热之后倒入蛋液，边炒边将鸡蛋打散。",
          "image_width" : 800,
          "thumb" : "https:\/\/i1.douguo.com\/upload\/caiku\/f\/f\/8\/140_ffd38b574bda7bc9d02a67b6a21d34e8.jpg"
        },
        {
          "frame" : "-1",
          "position" : 9,
          "image_width" : 800,
          "thumb" : "https:\/\/i1.douguo.com\/upload\/caiku\/9\/8\/1\/140_98d7bd42f22cdbeafe05b03299a72311.jpg",
          "image" : "https:\/\/i1.douguo.com\/upload\/caiku\/9\/8\/1\/98d7bd42f22cdbeafe05b03299a72311.jpg",
          "image_height" : 533,
          "content" : "将米饭倒入锅中翻炒匀均。"
        },
        {
          "frame" : "-1",
          "thumb" : "https:\/\/i1.douguo.com\/upload\/caiku\/5\/3\/7\/140_53e850ea525350645aa08e54245c47c7.jpg",
          "position" : 10,
          "image" : "https:\/\/i1.douguo.com\/upload\/caiku\/5\/3\/7\/53e850ea525350645aa08e54245c47c7.jpg",
          "content" : "将各种蔬菜倒入锅中翻炒匀均。",
          "image_height" : 533,
          "image_width" : 800
        },
        {
          "frame" : "-1",
          "image_height" : 533,
          "position" : 11,
          "content" : "将虾仁倒入锅中，然后滴少许香油翻炒匀均后即可出锅。",
          "image_width" : 800,
          "image" : "https:\/\/i1.douguo.com\/upload\/caiku\/2\/4\/6\/2471447494be686a021ae46be5d87886.jpg",
          "thumb" : "https:\/\/i1.douguo.com\/upload\/caiku\/2\/4\/6\/140_2471447494be686a021ae46be5d87886.jpg"
        }
      ],
      "title" : "扬州炒饭",
      "minor" : [
        "{\n    note = \"\";\n    title = \"\\U80e1\\U841d\\U535c\\U4e01\";\n}",
        "{\n    note = \"\\U9002\\U91cf\";\n    title = \"\\U7389\\U7c73\\U7c92\";\n    tu = \"https:\/\/https:\/\/m.douguo.com\/ingredients\/\\U7389\\U7c73\\U7c92\/detailmaterial\";\n}",
        "{\n    note = \"2\\U4e2a\";\n    title = \"\\U9e21\\U86cb\";\n    tu = \"https:\/\/https:\/\/m.douguo.com\/ingredients\/\\U9e21\\U86cb\/detailmaterial\";\n}",
        "{\n    note = \"\\U9002\\U91cf\";\n    title = \"\\U9999\\U8471\";\n    tu = \"https:\/\/https:\/\/m.douguo.com\/ingredients\/\\U9999\\U8471\/detailmaterial\";\n}"
      ],
      "guide_image" : "",
      "share_info" : {
        "s_d" : "扬州炒饭-会做饭很酷!",
        "qr_image" : "",
        "s_u" : "http:\/\/m.douguo.com\/cookbook\/1180703.html",
        "mini_program" : [

        ],
        "object_id" : "1180703",
        "name" : "扬州炒饭-会做饭很酷!",
        "image" : "https:\/\/cp1.douguo.com\/upload\/caiku\/8\/2\/9\/82aba9cfb8cc83efc9286bd95716ba29.jpg",
        "infos" : [
          {
            "mini_program" : [

            ],
            "name" : "扬州炒饭-会做饭很酷!",
            "image" : "https:\/\/cp1.douguo.com\/upload\/caiku\/8\/2\/9\/82aba9cfb8cc83efc9286bd95716ba29.jpg",
            "channel" : "1",
            "qr_image" : "",
            "s_u" : "",
            "object_id" : "1180703",
            "s_d" : "#学做饭用豆果美食#  我在@豆果美食 分享了【扬州炒饭-会做饭很酷!】，制作美食的过程承载了我生活中的热情，和我一起感受这份小确幸吧！查看图片了解菜谱（你喜欢的美食都在这里！https:\/\/m.weibo.cn\/p\/100404i33631）#会做饭很酷# "
          },
          {
            "mini_program" : [

            ],
            "s_d" : "扬州炒饭-会做饭很酷!",
            "s_u" : "http:\/\/m.douguo.com\/cookbook\/1180703.html",
            "object_id" : "1180703",
            "name" : "扬州炒饭-会做饭很酷!",
            "image" : "https:\/\/cp1.douguo.com\/upload\/caiku\/8\/2\/9\/82aba9cfb8cc83efc9286bd95716ba29.jpg",
            "channel" : "7",
            "qr_image" : ""
          },
          {
            "mini_program" : [

            ],
            "qr_image" : "",
            "s_u" : "http:\/\/m.douguo.com\/cookbook\/1180703.html",
            "object_id" : "1180703",
            "channel" : "8",
            "s_d" : "扬州炒饭-会做饭很酷!",
            "name" : "扬州炒饭-会做饭很酷!",
            "image" : "https:\/\/cp1.douguo.com\/upload\/caiku\/8\/2\/9\/82aba9cfb8cc83efc9286bd95716ba29.jpg"
          }
        ]
      },
      "comments_count" : 313,
      "dishes" : [

      ],
      "tips" : "1、 米饭一定要在晾凉后再炒。\n2、 胡萝卜、玉米、青豆短时间不容易炒熟，所以要先焯一下水。\n3、 鸡蛋不要炒得太过，而且边炒要边滑成小块。",
      "favo_counts_text" : "8.7万",
      "views_count_text" : "786.2万",
      "cook_difficulty_image" : "",
      "vfurl" : "",
      "photo_path" : "https:\/\/i1.douguo.com\/upload\/caiku\/8\/2\/9\/600_82aba9cfb8cc83efc9286bd95716ba29.jpg",
      "rrpt" : "",
      "recipe_tags" : [
        "{\n    \"background_border_color\" = \"\";\n    \"background_end_color\" = \"#F5D39F\";\n    \"background_start_color\" = \"#FAE9CD\";\n    index = 628;\n    \"jump_url\" = \"https:\/\/m.douguo.com\/activity\/page\/xuezuo?isapp=1&type=honor\";\n    \"right_image\" = \"https:\/\/i1.douguo.com\/upload\/caiku\/0\/a\/b\/0a317d98c713e7e7d0d47ed003f2d93b.png\";\n    text = \"\\U8363\\U8a89\\U6bbf\\U5802\";\n    \"text_color\" = \"#413C32\";\n}"
      ],
      "cook_id" : "1180703",
      "pw" : 800,
      "thumb_path" : "https:\/\/i1.douguo.com\/upload\/caiku\/8\/2\/9\/300_82aba9cfb8cc83efc9286bd95716ba29.jpg",
      "vu" : "",
      "rips" : 0,
      "rewarded_video_dsp" : [

      ],
      "cookstorys" : [
        {
          "c" : "相传隋朝越国公杨素爱吃的碎金饭，即蛋炒饭。隋炀帝巡视江都（今扬州）时，随之也将蛋炒饭传入扬州，后经历代厨艺高手逐步创新，即发展成风味独特,小有名气的主食之一。其配料丰富、色泽漂亮、米粒分明、入口清香、回味悠长。",
          "type" : 0,
          "id" : 0,
          "color" : "",
          "u" : "",
          "icon" : ""
        }
      ],
      "create_time" : "2015-05-18 20:04:38",
      "rsm" : "该功能暂停使用",
      "rate_count" : 299,
      "ipit" : 0,
      "rpst" : "",
      "image" : "http:\/\/i1.douguo.net\/upload\/caiku\/8\/2\/9\/300_82aba9cfb8cc83efc9286bd95716ba29.jpg",
      "tags" : [
        "{\n    text = \"\\U4e3b\\U98df\";\n}",
        "{\n    text = \"\\U7092\\U996d\";\n}",
        "{\n    text = \"\\U7535\\U996d\\U7172\\U7f8e\\U98df\";\n}",
        "{\n    text = \"\\U7092\";\n}",
        "{\n    text = \"\\U9999\";\n}",
        "{\n    text = \"\\U9c9c\";\n}",
        "{\n    text = \"\\U665a\\U9910\";\n}",
        "{\n    text = \"\\U7116\";\n}",
        "{\n    text = \"\\U62cc\";\n}",
        "{\n    text = \"\\U54b8\";\n}",
        "{\n    text = \"\\U6dee\\U626c\\U83dc\";\n}"
      ],
      "author_photo" : "http:\/\/tx1.douguo.net\/upload\/photo\/b\/d\/7\/70_u02369349224948172948.jpeg",
      "cook_time" : "",
      "sc" : 0,
      "notes" : [

      ],
      "hq" : 1,
      "author_id" : 4568726,
      "favo_counts" : 87247,
      "purl" : "",
      "ecs" : 0,
      "rate" : 4,
      "author" : "乐悠厨房",
      "cookstory" : "相传隋朝越国公杨素爱吃的碎金饭，即蛋炒饭。隋炀帝巡视江都（今扬州）时，随之也将蛋炒饭传入扬州，后经历代厨艺高手逐步创新，即发展成风味独特,小有名气的主食之一。其配料丰富、色泽漂亮、米粒分明、入口清香、回味悠长。",
      "recipe_list_tags" : [
        {
          "right_image" : "https:\/\/i1.douguo.com\/upload\/caiku\/0\/a\/b\/0a317d98c713e7e7d0d47ed003f2d93b.png",
          "background_end_color" : "#F5D39F",
          "text_color" : "#413C32",
          "text" : "荣誉殿堂",
          "background_start_color" : "#FAE9CD",
          "jump_url" : "",
          "background_border_color" : ""
        },
        {
          "right_image" : "",
          "text_color" : "#141515",
          "background_border_color" : "",
          "jump_url" : "",
          "text" : "关注的人",
          "background_end_color" : "#F4F5F5",
          "background_start_color" : "#F4F5F5"
        },
        {
          "text" : "内容详细",
          "background_start_color" : "#F4F5F5",
          "right_image" : "",
          "background_end_color" : "#F4F5F5",
          "text_color" : "#141515",
          "background_border_color" : "",
          "jump_url" : ""
        }
      ],
      "mid_mdsp" : [

      ],
      "hqu" : "recipes:\/\/www.douguo.com\/notedetail?id=21162253",
      "dish_count_text" : "666",
      "rate_show" : 1,
      "recommend_label" : "666人学做",
      "cook_difficulty" : "",
      "brand_day_dsp" : [

      ],
      "major" : [
        {
          "title" : "泰国香米",
          "note" : "300克"
        },
        {
          "note" : "适量",
          "tu" : "https:\/\/m.douguo.com\/ingredients\/青豆\/detailmaterial",
          "title" : "青豆"
        },
        {
          "tu" : "https:\/\/m.douguo.com\/ingredients\/黄瓜\/detailmaterial",
          "note" : "适量",
          "title" : "黄瓜"
        },
        {
          "note" : "适量",
          "tu" : "https:\/\/m.douguo.com\/ingredients\/香肠\/detailmaterial",
          "title" : "香肠"
        },
        {
          "title" : "虾仁",
          "tu" : "https:\/\/m.douguo.com\/ingredients\/虾仁\/detailmaterial",
          "note" : "适量"
        }
      ],
      "eu" : "recipes:\/\/www.douguo.com\/postdetail?id=242016",
      "sr" : "",
      "bs" : [

      ],
      "cookwares" : [

      ],
      "story_dsp" : [

      ],
      "ss" : [

      ],
      "rdsps" : [

      ],
      "author_verified" : 1,
      "rpid" : 0,
      "title_ad" : [

      ],
      "advice" : {
        "has" : [
          {
            "url" : "recipes:\/\/www.douguo.com\/simplerecipelist?t=富含蛋白质&id=富含蛋白质",
            "t" : "富含蛋白质"
          }
        ],
        "at" : "可以提供多种氨基酸～",
        "da" : {
          "t" : "查看详细分析",
          "url" : "https:\/\/m.douguo.com\/recipe\/nutrient_self\/1180703",
          "iu" : "https:\/\/i1.douguo.com\/upload\/banner\/f\/4\/d\/f48877e53c37759bc12ac494be82ec8d.png"
        }
      },
      "ipt" : "",
      "user" : {
        "favorites_count" : 0,
        "point" : 0,
        "verified_image" : "https:\/\/i1.douguo.com\/upload\/note\/d\/a\/a\/da84247847aebe48d9dd0fcdac88862a.png",
        "nick" : "乐悠厨房",
        "dishes_count" : 0,
        "gender" : 2,
        "lvl" : 6,
        "regist_time" : "",
        "recipes_count" : 0,
        "introduction" : "",
        "avatar_medium" : "http:\/\/tx1.douguo.net\/upload\/photo\/b\/d\/7\/140_u02369349224948172948.jpeg",
        "age" : "",
        "user_photo" : "http:\/\/tx1.douguo.net\/upload\/photo\/b\/d\/7\/70_u02369349224948172948.jpeg",
        "is_prime" : 0,
        "qq_weibo_nick" : "",
        "user_cover" : "",
        "diaries_count" : 0,
        "email" : "",
        "subscription" : 0,
        "setted_email" : 0,
        "sign" : "",
        "weibo_nick" : "",
        "birthday" : "",
        "userid" : "4568726",
        "following_count" : 0,
        "fc" : 0,
        "user_large_photo" : "http:\/\/tx1.douguo.net\/upload\/photo\/b\/d\/7\/yuan_u02369349224948172948.jpeg",
        "qzone_nick" : "",
        "coursecount" : 0,
        "lv" : 0,
        "location" : 0,
        "pc" : 0,
        "user_id" : "4568726",
        "progress_image" : "",
        "subscription_article_count" : 0,
        "favor_diaries_count" : 0,
        "verified" : 1,
        "mobile" : "",
        "verified_url" : "https:\/\/m.douguo.com\/user\/prodesc",
        "followers_count" : 0
      },
      "recommended" : 0,
      "rcs" : [

      ],
      "dish_count" : 666,
      "related_ads" : [

      ],
      "recommendation_tag" : "",
      "cook_time_image" : "",
      "v_u" : "",
      "ipci" : "",
      "vc" : "7862362",
      "top_mdsp" : [

      ],
      "thumb_height" : 0,
      "ipoi" : "",
      "collect_status" : 0,
      "btm_dsp" : [

      ],
      "clicks" : "7541340"
    }
  }
}