{
  "status" : 0,
  "result" : {
    "recipe" : {
      "rate_count" : 0,
      "rpt" : "",
      "recent_comments" : [

      ],
      "tags" : [
        "{\n    text = \"\\U5bb6\\U5e38\\U83dc\";\n}",
        "{\n    text = \"\\U6c34\\U4ea7\";\n}",
        "{\n    text = \"\\U4e91\\U5357\\U83dc\";\n}",
        "{\n    text = \"\\U84b8\";\n}",
        "{\n    text = \"\\U9c9c\";\n}",
        "{\n    text = \"\\U5348\\U9910\";\n}",
        "{\n    text = \"\\U4e0b\\U5348\\U8336\";\n}"
      ],
      "comments" : [
        "{\n    ac = \"#999999\";\n    at = \"\";\n    ccc = 0;\n    \"child_comments\" =     (\n    );\n    city = \"\";\n    cmc = 2;\n    content =     (\n                {\n            c = \"\\U6bcf\\U5929\\U90fd\\U80fd\\U5403\\U5230\\U8fd9\\U4e48\\U7f8e\\U5473\\U7684\\U83dc\\U5c31\\U597d\\U4e86\";\n        }\n    );\n    ia = 0;\n    id = 5759978;\n    \"ip_address_location\" = \"\";\n    like = 0;\n    \"like_count\" = 0;\n    \"reply_id\" = 0;\n    \"sticker_icon\" =     (\n    );\n    time = \"2018-06-10 17:59:57\";\n    u =     {\n        \"followers_count_text\" = \"\";\n        id = 18519142;\n        \"is_prime\" = 0;\n        lv = 0;\n        lvl = 4;\n        n = \"Doris~Vision\";\n        p = \"http:\/\/tx1.douguo.net\/upload\/photo\/2\/f\/d\/70_u17678998478940408193604.jpg\";\n        \"progress_image\" = \"\";\n        \"recipes_count_text\" = \"\";\n        relationship = \"-1\";\n        title = \"\";\n        v = 0;\n        \"verified_image\" = \"\";\n    };\n}",
        "{\n    ac = \"#999999\";\n    at = \"\";\n    ccc = 0;\n    \"child_comments\" =     (\n    );\n    city = \"\";\n    cmc = 2;\n    content =     (\n                {\n            c = \"\\U5403\\U5269\\U4e0b\\U7684\\U6c64\\U6c41\\U62cc\\U9762\\U7edd\\U4f73\";\n        }\n    );\n    ia = 1;\n    id = 2147256;\n    \"ip_address_location\" = \"\";\n    like = 0;\n    \"like_count\" = 0;\n    \"reply_id\" = 0;\n    \"sticker_icon\" =     (\n    );\n    time = \"2015-04-01 16:03:03\";\n    u =     {\n        \"followers_count_text\" = \"\";\n        id = 4540169;\n        \"is_prime\" = 0;\n        lv = 0;\n        lvl = 6;\n        n = \"\\U4ffa\\U54bf\\U5440\";\n        p = \"http:\/\/tx1.douguo.net\/upload\/photo\/a\/3\/f\/70_a300afe2c9c9da73823573e79c9b689f.jpeg\";\n        \"progress_image\" = \"\";\n        \"recipes_count_text\" = \"\";\n        relationship = \"-1\";\n        title = \"\";\n        v = 0;\n        \"verified_image\" = \"\";\n    };\n}"
      ],
      "cook_difficulty_image" : "",
      "ipt" : "",
      "rcs" : [

      ],
      "user" : {
        "verified_url" : "https:\/\/m.douguo.com\/user\/prodesc",
        "verified" : 0,
        "user_id" : "4540169",
        "userid" : "4540169",
        "following_count" : 0,
        "qq_weibo_nick" : "",
        "nick" : "俺咿呀",
        "avatar_medium" : "http:\/\/tx1.douguo.net\/upload\/photo\/a\/3\/f\/140_a300afe2c9c9da73823573e79c9b689f.jpeg",
        "followers_count" : 0,
        "birthday" : "",
        "regist_time" : "",
        "point" : 0,
        "age" : "",
        "diaries_count" : 0,
        "setted_email" : 0,
        "lvl" : 6,
        "fc" : 0,
        "location" : 0,
        "coursecount" : 0,
        "weibo_nick" : "",
        "gender" : 2,
        "is_prime" : 0,
        "subscription" : 0,
        "progress_image" : "",
        "user_photo" : "http:\/\/tx1.douguo.net\/upload\/photo\/a\/3\/f\/70_a300afe2c9c9da73823573e79c9b689f.jpeg",
        "subscription_article_count" : 0,
        "mobile" : "",
        "user_cover" : "",
        "sign" : "",
        "qzone_nick" : "",
        "favor_diaries_count" : 0,
        "favorites_count" : 0,
        "introduction" : "",
        "user_large_photo" : "http:\/\/tx1.douguo.net\/upload\/photo\/a\/3\/f\/yuan_a300afe2c9c9da73823573e79c9b689f.jpeg",
        "recipes_count" : 0,
        "dishes_count" : 0,
        "email" : "",
        "lv" : 0,
        "pc" : 0,
        "verified_image" : ""
      },
      "major" : [
        {
          "title" : "鳜鱼",
          "tu" : "https:\/\/m.douguo.com\/ingredients\/鳜鱼\/detailmaterial",
          "note" : "1条（600g)"
        },
        {
          "title" : "糟辣椒（泡椒切碎）",
          "note" : "20g"
        },
        {
          "note" : "20g",
          "title" : "葱花",
          "tu" : "https:\/\/m.douguo.com\/ingredients\/葱花\/detailmaterial"
        },
        {
          "note" : "20g",
          "title" : "葱丝"
        },
        {
          "note" : "10g",
          "tu" : "https:\/\/m.douguo.com\/ingredients\/姜丝\/detailmaterial",
          "title" : "姜丝"
        },
        {
          "title" : "蒜蓉",
          "note" : "20g"
        },
        {
          "note" : "20ml",
          "title" : "李锦记蒸鱼豉油"
        }
      ],
      "rate" : 0,
      "vc" : "40435",
      "dish_count_text" : "",
      "recipe_list_tags" : [
        {
          "background_border_color" : "",
          "background_end_color" : "#F4F5F5",
          "text_color" : "#141515",
          "right_image" : "",
          "jump_url" : "",
          "background_start_color" : "#F4F5F5",
          "text" : "关注的人"
        }
      ],
      "related_ads" : [

      ],
      "recipe_tags" : [

      ],
      "original_photo_path" : "http:\/\/i1.douguo.net\/upload\/caiku\/8\/f\/e\/yuan_8f28c88d0984bbe36a0cb9aff6d74dfe.jpg",
      "su" : "",
      "cook_id" : "1146910",
      "rrps" : [

      ],
      "ecs" : 0,
      "title_ad" : [

      ],
      "recommended" : 0,
      "pw" : 800,
      "dishes" : [

      ],
      "share_info" : {
        "mini_program" : [

        ],
        "object_id" : "1146910",
        "qr_image" : "",
        "s_d" : "云南菜之蒸鳜鱼-会做饭很酷!",
        "image" : "https:\/\/cp1.douguo.com\/upload\/caiku\/8\/f\/e\/8f28c88d0984bbe36a0cb9aff6d74dfe.jpg",
        "infos" : [
          {
            "channel" : "1",
            "name" : "云南菜之蒸鳜鱼-会做饭很酷!",
            "s_u" : "",
            "object_id" : "1146910",
            "s_d" : "#学做饭用豆果美食# 会做饭真是太酷了！我在@豆果美食 分享了【云南菜之蒸鳜鱼-会做饭很酷!】，这道菜真的神仙美味！喜欢的一定要试试绝对不会错的！～查看图片了解菜谱（快来点击https:\/\/m.weibo.cn\/p\/100404i33631和我一起修炼厨艺吧）",
            "mini_program" : [

            ],
            "qr_image" : "",
            "image" : "https:\/\/cp1.douguo.com\/upload\/caiku\/8\/f\/e\/8f28c88d0984bbe36a0cb9aff6d74dfe.jpg"
          },
          {
            "channel" : "7",
            "name" : "云南菜之蒸鳜鱼-会做饭很酷!",
            "image" : "https:\/\/cp1.douguo.com\/upload\/caiku\/8\/f\/e\/8f28c88d0984bbe36a0cb9aff6d74dfe.jpg",
            "s_u" : "http:\/\/m.douguo.com\/cookbook\/1146910.html",
            "mini_program" : [

            ],
            "qr_image" : "",
            "object_id" : "1146910",
            "s_d" : "云南菜之蒸鳜鱼-会做饭很酷!"
          },
          {
            "s_d" : "云南菜之蒸鳜鱼-会做饭很酷!",
            "qr_image" : "",
            "image" : "https:\/\/cp1.douguo.com\/upload\/caiku\/8\/f\/e\/8f28c88d0984bbe36a0cb9aff6d74dfe.jpg",
            "object_id" : "1146910",
            "channel" : "8",
            "s_u" : "http:\/\/m.douguo.com\/cookbook\/1146910.html",
            "mini_program" : [

            ],
            "name" : "云南菜之蒸鳜鱼-会做饭很酷!"
          }
        ],
        "name" : "云南菜之蒸鳜鱼-会做饭很酷!",
        "s_u" : "http:\/\/m.douguo.com\/cookbook\/1146910.html"
      },
      "favo_counts" : 301,
      "rewarded_video_dsp" : [

      ],
      "notes" : [

      ],
      "rdsps" : [

      ],
      "rate_show" : 0,
      "display_ingredient" : 1,
      "minor" : [

      ],
      "title" : "云南菜之蒸鳜鱼",
      "guide_image" : "",
      "create_time" : "2015-04-02 00:02:08",
      "author_photo" : "http:\/\/tx1.douguo.net\/upload\/photo\/a\/3\/f\/70_a300afe2c9c9da73823573e79c9b689f.jpeg",
      "advice" : {
        "at" : "对血管有保护作用～",
        "has" : [
          {
            "t" : "低饱和脂肪",
            "url" : "recipes:\/\/www.douguo.com\/simplerecipelist?t=低饱和脂肪&id=低饱和脂肪"
          },
          {
            "url" : "recipes:\/\/www.douguo.com\/simplerecipelist?t=富含烟酸&id=富含烟酸",
            "t" : "富含烟酸"
          }
        ],
        "da" : {
          "t" : "查看详细分析",
          "iu" : "https:\/\/i1.douguo.com\/upload\/banner\/f\/4\/d\/f48877e53c37759bc12ac494be82ec8d.png",
          "url" : "https:\/\/m.douguo.com\/recipe\/nutrient_self\/1146910"
        }
      },
      "hq" : 0,
      "ipurl" : "",
      "cook_difficulty" : "",
      "cookstorys" : [

      ],
      "author" : "俺咿呀",
      "clicks" : "32224",
      "thumb_height" : 0,
      "v_u" : "",
      "ph" : 600,
      "ss" : [

      ],
      "purl" : "",
      "story_dsp" : [

      ],
      "act_des" : "",
      "comments_count" : 2,
      "brand_day_dsp" : [

      ],
      "vfurl" : "",
      "tips" : "",
      "views_count_text" : "4.0万",
      "cook_time_image" : "",
      "ipit" : 0,
      "ipoi" : "",
      "thumb_path" : "https:\/\/i1.douguo.com\/upload\/caiku\/8\/f\/e\/300_8f28c88d0984bbe36a0cb9aff6d74dfe.jpg",
      "sc" : 0,
      "recommendation_tag" : "",
      "old_comments" : [

      ],
      "rsm" : "该功能暂停使用",
      "eu" : "recipes:\/\/www.douguo.com\/postdetail?id=242016",
      "author_verified" : 0,
      "levelid" : 3,
      "favo_counts_text" : "301",
      "author_id" : 4540169,
      "ssu" : "",
      "collect_status" : 0,
      "comments_count_text" : "2",
      "top_mdsp" : [

      ],
      "photo_path" : "https:\/\/i1.douguo.com\/upload\/caiku\/8\/f\/e\/600_8f28c88d0984bbe36a0cb9aff6d74dfe.jpg",
      "packages_id" : [

      ],
      "cookstory" : "",
      "image" : "http:\/\/i1.douguo.net\/upload\/caiku\/8\/f\/e\/300_8f28c88d0984bbe36a0cb9aff6d74dfe.jpg",
      "vu" : "",
      "ipci" : "",
      "sr" : "",
      "btm_dsp" : [

      ],
      "bs" : [

      ],
      "rips" : 0,
      "dish_count" : 0,
      "rrpt" : "",
      "recommend_label" : "4.0万人看过",
      "first_level_comment_count" : 2,
      "rpid" : 0,
      "cookstep" : [
        {
          "image_width" : 800,
          "frame" : "-1",
          "position" : 1,
          "image" : "https:\/\/i1.douguo.com\/upload\/caiku\/a\/d\/a\/ada47abe2cf0b3422c1840be1bd814ca.jpg",
          "content" : "鳜鱼切花刀，用少量盐抹匀在鱼身上，腌制20分钟",
          "image_height" : 1067,
          "thumb" : "https:\/\/i1.douguo.com\/upload\/caiku\/a\/d\/a\/140_ada47abe2cf0b3422c1840be1bd814ca.jpg"
        },
        {
          "image_height" : 1067,
          "image" : "https:\/\/i1.douguo.com\/upload\/caiku\/2\/d\/1\/2d8274d061d222e09391868f7fb9e411.jpg",
          "frame" : "-1",
          "thumb" : "https:\/\/i1.douguo.com\/upload\/caiku\/2\/d\/1\/140_2d8274d061d222e09391868f7fb9e411.jpg",
          "content" : "如图配制葱、姜、蒜和糟辣椒",
          "image_width" : 800,
          "position" : 2
        },
        {
          "position" : 3,
          "image" : "https:\/\/i1.douguo.com\/upload\/caiku\/c\/b\/9\/cba0f74811ec3b6a8a576c04a3b47cd9.jpg",
          "image_height" : 1067,
          "content" : "李锦记豉油",
          "thumb" : "https:\/\/i1.douguo.com\/upload\/caiku\/c\/b\/9\/140_cba0f74811ec3b6a8a576c04a3b47cd9.jpg",
          "image_width" : 800,
          "frame" : "-1"
        },
        {
          "frame" : "-1",
          "content" : "大火开水蒸10分钟",
          "thumb" : "https:\/\/i1.douguo.com\/upload\/caiku\/0\/6\/5\/140_06f135f3572cb1c28650ad6f5af203f5.jpg",
          "position" : 4,
          "image" : "https:\/\/i1.douguo.com\/upload\/caiku\/0\/6\/5\/06f135f3572cb1c28650ad6f5af203f5.jpg",
          "image_height" : 600,
          "image_width" : 800
        },
        {
          "position" : 5,
          "image_width" : 800,
          "content" : "蒸鱼时，20ml 色拉油炒香蒜蓉，加入糟辣椒炒香",
          "image" : "https:\/\/i1.douguo.com\/upload\/caiku\/3\/3\/8\/3394a785f8a5262d13f879d76a685138.jpg",
          "frame" : "-1",
          "thumb" : "https:\/\/i1.douguo.com\/upload\/caiku\/3\/3\/8\/140_3394a785f8a5262d13f879d76a685138.jpg",
          "image_height" : 600
        },
        {
          "position" : 6,
          "thumb" : "https:\/\/i1.douguo.com\/upload\/caiku\/8\/5\/8\/140_8506af32fe4d567b1f1c6b0b44dd1ba8.jpg",
          "content" : "加入李锦记蒸鱼豉油和姜丝炒香",
          "image_height" : 600,
          "image" : "https:\/\/i1.douguo.com\/upload\/caiku\/8\/5\/8\/8506af32fe4d567b1f1c6b0b44dd1ba8.jpg",
          "image_width" : 800,
          "frame" : "-1"
        },
        {
          "image_height" : 1067,
          "thumb" : "https:\/\/i1.douguo.com\/upload\/caiku\/e\/2\/9\/140_e28449fe885becf7b6efcc2dc3a25ed9.jpg",
          "image_width" : 800,
          "content" : "蒸好的鱼",
          "frame" : "-1",
          "image" : "https:\/\/i1.douguo.com\/upload\/caiku\/e\/2\/9\/e28449fe885becf7b6efcc2dc3a25ed9.jpg",
          "position" : 7
        },
        {
          "content" : "鱼装盘",
          "thumb" : "https:\/\/i1.douguo.com\/upload\/caiku\/2\/8\/2\/140_2878e1a7f122594a58c19345ddb33342.jpg",
          "image_width" : 800,
          "image_height" : 1067,
          "image" : "https:\/\/i1.douguo.com\/upload\/caiku\/2\/8\/2\/2878e1a7f122594a58c19345ddb33342.jpg",
          "frame" : "-1",
          "position" : 8
        },
        {
          "image_height" : 600,
          "content" : "撒葱花在鱼身上，鱼的热量会把葱喷熟",
          "position" : 9,
          "thumb" : "https:\/\/i1.douguo.com\/upload\/caiku\/e\/9\/a\/140_e919ef6cc1a763f99ca8e37132e723ca.jpg",
          "image_width" : 800,
          "frame" : "-1",
          "image" : "https:\/\/i1.douguo.com\/upload\/caiku\/e\/9\/a\/e919ef6cc1a763f99ca8e37132e723ca.jpg"
        },
        {
          "position" : 10,
          "content" : "乘热浇上炒香的汁水，葱花完全会熟，还能保持绿色",
          "frame" : "-1",
          "image_height" : 600,
          "image" : "https:\/\/i1.douguo.com\/upload\/caiku\/c\/9\/4\/c9ec40eaeb6399c07c16437b7acf11d4.jpg",
          "thumb" : "https:\/\/i1.douguo.com\/upload\/caiku\/c\/9\/4\/140_c9ec40eaeb6399c07c16437b7acf11d4.jpg",
          "image_width" : 800
        }
      ],
      "rpst" : "",
      "ipia" : [

      ],
      "cookwares" : [

      ],
      "cook_time" : "",
      "mid_mdsp" : [

      ],
      "release_time" : "",
      "hqu" : "recipes:\/\/www.douguo.com\/notedetail?id=21162253"
    }
  },
  "state" : "success"
}