{
  "state" : "success",
  "result" : {
    "recipe" : {
      "ecs" : 1,
      "hqu" : "recipes:\/\/www.douguo.com\/notedetail?id=21162253",
      "story_dsp" : [

      ],
      "dish_count_text" : "",
      "rpt" : "",
      "display_ingredient" : 1,
      "cook_time_image" : "https:\/\/i1.douguo.com\/upload\/banner\/1551424341.png",
      "sr" : "",
      "guide_image" : "",
      "major" : [
        {
          "note" : "10只",
          "tu" : "https:\/\/m.douguo.com\/ingredients\/鲍鱼\/detailmaterial",
          "title" : "鲍鱼"
        },
        {
          "note" : "80克",
          "title" : "泡菜",
          "tu" : "https:\/\/m.douguo.com\/ingredients\/泡菜\/detailmaterial"
        },
        {
          "note" : "70毫升",
          "title" : "牛奶",
          "tu" : "https:\/\/m.douguo.com\/ingredients\/牛奶\/detailmaterial"
        },
        {
          "note" : "1块",
          "tu" : "https:\/\/m.douguo.com\/ingredients\/生姜\/detailmaterial",
          "title" : "生姜"
        },
        {
          "note" : "半个",
          "title" : "洋葱",
          "tu" : "https:\/\/m.douguo.com\/ingredients\/洋葱\/detailmaterial"
        },
        {
          "note" : "1根",
          "tu" : "https:\/\/m.douguo.com\/ingredients\/小葱\/detailmaterial",
          "title" : "小葱"
        },
        {
          "tu" : "https:\/\/m.douguo.com\/ingredients\/白糖\/detailmaterial",
          "note" : "2克",
          "title" : "白糖"
        },
        {
          "note" : "5克",
          "title" : "橄榄油",
          "tu" : "https:\/\/m.douguo.com\/ingredients\/橄榄油\/detailmaterial"
        },
        {
          "note" : "1勺",
          "title" : "东古番茄酱"
        },
        {
          "title" : "东古辣椒酱",
          "note" : "1勺"
        }
      ],
      "sc" : 0,
      "old_comments" : [

      ],
      "clicks" : "1",
      "v_u" : "",
      "rpst" : "",
      "act_des" : "",
      "recommendation_tag" : "",
      "notes" : [

      ],
      "btm_dsp" : [

      ],
      "comments_count" : 0,
      "eu" : "recipes:\/\/www.douguo.com\/postdetail?id=242016",
      "rsm" : "该功能暂停使用",
      "cook_id" : "3253526",
      "su" : "",
      "ph" : 960,
      "top_mdsp" : [

      ],
      "ipit" : 0,
      "related_ads" : [

      ],
      "rrps" : [

      ],
      "recipe_list_tags" : [
        {
          "text" : "关注的人",
          "background_end_color" : "#F4F5F5",
          "jump_url" : "",
          "background_start_color" : "#F4F5F5",
          "text_color" : "#141515",
          "right_image" : "",
          "background_border_color" : ""
        },
        {
          "background_end_color" : "#F4F5F5",
          "right_image" : "",
          "text_color" : "#141515",
          "jump_url" : "",
          "background_border_color" : "",
          "background_start_color" : "#F4F5F5",
          "text" : "内容详细"
        }
      ],
      "hq" : 1,
      "author_photo" : "http:\/\/tx1.douguo.net\/upload\/photo\/7\/9\/5\/70_79c7e12572bea87ce2b8d430e4f10605.jpg",
      "thumb_height" : 0,
      "share_info" : {
        "object_id" : "3253526",
        "s_u" : "http:\/\/m.douguo.com\/cookbook\/3253526.html",
        "qr_image" : "",
        "name" : "#东古525掌勺节#泡菜牛奶炖鲍鱼-会做饭很酷!",
        "s_d" : "#东古525掌勺节#泡菜牛奶炖鲍鱼-会做饭很酷!",
        "mini_program" : [

        ],
        "infos" : [
          {
            "mini_program" : [

            ],
            "channel" : "1",
            "object_id" : "3253526",
            "s_u" : "",
            "qr_image" : "",
            "name" : "#东古525掌勺节#泡菜牛奶炖鲍鱼-会做饭很酷!",
            "s_d" : "#学做饭用豆果美食# 我在@豆果美食 分享了【#东古525掌勺节#泡菜牛奶炖鲍鱼-会做饭很酷!】，哟，集美们～你看这是神仙美味～快跟着我做一份，做一份！查看图片了解菜谱（更多美食秘籍点击https:\/\/m.weibo.cn\/p\/100404i33631获取）#会做饭很酷# ",
            "image" : "https:\/\/cp1.douguo.com\/upload\/caiku\/7\/4\/5\/1685072587799.jpg"
          },
          {
            "image" : "https:\/\/cp1.douguo.com\/upload\/caiku\/7\/4\/5\/1685072587799.jpg",
            "name" : "#东古525掌勺节#泡菜牛奶炖鲍鱼-会做饭很酷!",
            "s_u" : "http:\/\/m.douguo.com\/cookbook\/3253526.html",
            "object_id" : "3253526",
            "channel" : "7",
            "mini_program" : [

            ],
            "qr_image" : "",
            "s_d" : "#东古525掌勺节#泡菜牛奶炖鲍鱼-会做饭很酷!"
          },
          {
            "name" : "#东古525掌勺节#泡菜牛奶炖鲍鱼-会做饭很酷!",
            "s_d" : "#东古525掌勺节#泡菜牛奶炖鲍鱼-会做饭很酷!",
            "s_u" : "http:\/\/m.douguo.com\/cookbook\/3253526.html",
            "object_id" : "3253526",
            "mini_program" : [

            ],
            "channel" : "8",
            "image" : "https:\/\/cp1.douguo.com\/upload\/caiku\/7\/4\/5\/1685072587799.jpg",
            "qr_image" : ""
          }
        ],
        "image" : "https:\/\/cp1.douguo.com\/upload\/caiku\/7\/4\/5\/1685072587799.jpg"
      },
      "comments_count_text" : "",
      "bs" : [

      ],
      "release_time" : "",
      "photo_path" : "https:\/\/i1.douguo.com\/upload\/caiku\/7\/4\/5\/600_1685072587799.jpg",
      "ipurl" : "",
      "ipoi" : "",
      "minor" : [

      ],
      "recommend_label" : "4550人刚刚收藏过",
      "levelid" : 2,
      "image" : "http:\/\/i1.douguo.net\/upload\/caiku\/7\/4\/5\/300_1685072587799.jpg",
      "cookstorys" : [
        {
          "type" : 0,
          "icon" : "",
          "c" : " 一屋三餐四季，用健康的调味品守护家人的味蕾！\n创意融合菜--泡菜牛奶炖鲍鱼，这道菜中酥软的鲍鱼，提供优质的蛋白质，配上风味泡菜提香，加上东古辣椒酱调味，味道别有一番滋味！是一款老少皆宜，能惊艳餐桌的健康菜！ ",
          "id" : 0,
          "u" : "",
          "color" : ""
        },
        {
          "color" : "",
          "c" : "\n参与活动:",
          "id" : 0,
          "icon" : "",
          "type" : 0,
          "u" : ""
        },
        {
          "icon" : "",
          "type" : 0,
          "u" : "https:\/\/m.douguo.com\/activity\/ncpzj\/detail\/3784?isapp=1&open=0&_vs=1000300&&dg_refreshkey=publishnote",
          "id" : 0,
          "c" : "#东古525掌勺节 致敬了不起的掌勺人#"
        }
      ],
      "brand_day_dsp" : [

      ],
      "favo_counts" : 4550,
      "tips" : "鲍鱼刷干净后，再划上几刀，容易入味。",
      "create_time" : "2023-05-26 12:02:05",
      "title_ad" : [

      ],
      "author" : "阿紫郡主",
      "recipe_tags" : [

      ],
      "collect_status" : 0,
      "favo_counts_text" : "4550",
      "vu" : "https:\/\/vplay.douguo.com\/lmwU1_MhGONs_mNHE2BR53KaSv6G",
      "cook_difficulty_image" : "https:\/\/i1.douguo.com\/upload\/banner\/1551424413.png",
      "pw" : 540,
      "author_id" : 10963170,
      "cookstory" : " 一屋三餐四季，用健康的调味品守护家人的味蕾！\n创意融合菜--泡菜牛奶炖鲍鱼，这道菜中酥软的鲍鱼，提供优质的蛋白质，配上风味泡菜提香，加上东古辣椒酱调味，味道别有一番滋味！是一款老少皆宜，能惊艳餐桌的健康菜！ ",
      "views_count_text" : "13.1万",
      "recent_comments" : [

      ],
      "rate_count" : 0,
      "rips" : 0,
      "cook_difficulty" : "配菜(中级)",
      "event" : {
        "name" : "东古525掌勺节 致敬了不起的掌勺人",
        "id" : 3784,
        "url" : "https:\/\/m.douguo.com\/activity\/ncpzj\/detail\/3784?isapp=1&open=0&_vs=1000300&&dg_refreshkey=publishnote"
      },
      "purl" : "",
      "original_photo_path" : "http:\/\/i1.douguo.net\/upload\/caiku\/7\/4\/5\/yuan_1685072587799.jpg",
      "recommended" : 0,
      "tags" : [

      ],
      "ssu" : "",
      "cookstep" : [
        {
          "thumb" : "https:\/\/i1.douguo.com\/upload\/caiku\/9\/e\/f\/140_9e560ff65b42d0f6ccb3c21383c70a6f.jpg",
          "image" : "https:\/\/i1.douguo.com\/upload\/caiku\/9\/e\/f\/9e560ff65b42d0f6ccb3c21383c70a6f.jpg",
          "image_width" : 800,
          "frame" : "-1",
          "image_height" : 1067,
          "position" : 1,
          "content" : "泡菜牛奶炖鲍鱼，是一道创意融合菜，味道鲜美"
        },
        {
          "position" : 2,
          "frame" : "-1",
          "image_height" : 800,
          "image" : "https:\/\/i1.douguo.com\/upload\/caiku\/9\/c\/0\/9c816bbe7f65560499949006bf144340.jpg",
          "image_width" : 1067,
          "thumb" : "https:\/\/i1.douguo.com\/upload\/caiku\/9\/c\/0\/140_9c816bbe7f65560499949006bf144340.jpg",
          "content" : "食材准备"
        },
        {
          "position" : 3,
          "frame" : "-1",
          "thumb" : "https:\/\/i1.douguo.com\/upload\/caiku\/e\/7\/5\/140_e71ef619c4047660a0071d720f388d65.jpg",
          "image" : "https:\/\/i1.douguo.com\/upload\/caiku\/e\/7\/5\/e71ef619c4047660a0071d720f388d65.jpg",
          "image_height" : 959,
          "image_width" : 1280,
          "content" : "洋葱，生姜放入油锅中（5克橄榄油），放入泡菜，东古番茄酱"
        },
        {
          "content" : "倒入牛奶，翻炒均匀",
          "image_height" : 959,
          "image" : "https:\/\/i1.douguo.com\/upload\/caiku\/0\/d\/7\/0dda8ecfd297bd5f12311056fd6126d7.jpg",
          "image_width" : 1280,
          "thumb" : "https:\/\/i1.douguo.com\/upload\/caiku\/0\/d\/7\/140_0dda8ecfd297bd5f12311056fd6126d7.jpg",
          "position" : 4,
          "frame" : "-1"
        },
        {
          "image_width" : 1280,
          "content" : "挤入东古辣椒酱，翻炒均匀",
          "image_height" : 959,
          "image" : "https:\/\/i1.douguo.com\/upload\/caiku\/9\/f\/8\/9f30d159830e7f7424fce6b70c21f868.jpg",
          "frame" : "-1",
          "thumb" : "https:\/\/i1.douguo.com\/upload\/caiku\/9\/f\/8\/140_9f30d159830e7f7424fce6b70c21f868.jpg",
          "position" : 5
        },
        {
          "image_height" : 959,
          "image_width" : 1280,
          "thumb" : "https:\/\/i1.douguo.com\/upload\/caiku\/a\/0\/d\/140_a074be47b0ea4627c7c557863298d22d.jpg",
          "content" : "加入2克白糖提鲜",
          "image" : "https:\/\/i1.douguo.com\/upload\/caiku\/a\/0\/d\/a074be47b0ea4627c7c557863298d22d.jpg",
          "position" : 6,
          "frame" : "-1"
        },
        {
          "image" : "https:\/\/i1.douguo.com\/upload\/caiku\/5\/8\/f\/5852859d746e57e213f02db89b410c2f.jpg",
          "frame" : "-1",
          "position" : 7,
          "image_width" : 1280,
          "content" : "放入鲍鱼，烧开改中火烧制8-10分钟",
          "thumb" : "https:\/\/i1.douguo.com\/upload\/caiku\/5\/8\/f\/140_5852859d746e57e213f02db89b410c2f.jpg",
          "image_height" : 959
        },
        {
          "content" : "泡菜牛奶鲍鱼大火收汁即可出锅装盘",
          "image" : "https:\/\/i1.douguo.com\/upload\/caiku\/f\/9\/6\/f9014ae4e1292a0d4b5c17c4118f9b86.jpg",
          "frame" : "-1",
          "thumb" : "https:\/\/i1.douguo.com\/upload\/caiku\/f\/9\/6\/140_f9014ae4e1292a0d4b5c17c4118f9b86.jpg",
          "image_width" : 1280,
          "position" : 8,
          "image_height" : 959
        },
        {
          "image_height" : 1067,
          "image" : "https:\/\/i1.douguo.com\/upload\/caiku\/f\/6\/1\/f6c2b90c02a46a802bd7407bf2a9e101.jpg",
          "image_width" : 800,
          "content" : "泡菜牛奶炖鲍鱼，撒上葱花即可",
          "thumb" : "https:\/\/i1.douguo.com\/upload\/caiku\/f\/6\/1\/140_f6c2b90c02a46a802bd7407bf2a9e101.jpg",
          "frame" : "-1",
          "position" : 9
        },
        {
          "position" : 10,
          "frame" : "-1",
          "image_height" : 800,
          "image_width" : 1067,
          "content" : "别有一番风味的泡菜牛奶炖鲍鱼，巨好吃",
          "thumb" : "https:\/\/i1.douguo.com\/upload\/caiku\/2\/c\/5\/140_2c0f7bab104cbf9cf4609f92c1068cc5.jpg",
          "image" : "https:\/\/i1.douguo.com\/upload\/caiku\/2\/c\/5\/2c0f7bab104cbf9cf4609f92c1068cc5.jpg"
        }
      ],
      "ipci" : "",
      "author_verified" : 1,
      "packages_id" : [

      ],
      "cook_time" : "10~30分钟",
      "advice" : {
        "at" : "健身人群可以吃～",
        "has" : [
          {
            "t" : "低脂",
            "url" : "recipes:\/\/www.douguo.com\/simplerecipelist?t=低脂&id=低脂"
          },
          {
            "t" : "低饱和脂肪",
            "url" : "recipes:\/\/www.douguo.com\/simplerecipelist?t=低饱和脂肪&id=低饱和脂肪"
          }
        ],
        "da" : {
          "url" : "https:\/\/m.douguo.com\/recipe\/nutrient_self\/3253526",
          "t" : "查看详细分析",
          "iu" : "https:\/\/i1.douguo.com\/upload\/banner\/f\/4\/d\/f48877e53c37759bc12ac494be82ec8d.png"
        }
      },
      "rcs" : [

      ],
      "vfurl" : "https:\/\/vplay.douguo.com\/lmwU1_MhGONs_mNHE2BR53KaSv6G__362x640.mp4",
      "ss" : [

      ],
      "dishes" : [

      ],
      "mid_mdsp" : [

      ],
      "vc" : "130716",
      "rrpt" : "",
      "user" : {
        "following_count" : 0,
        "mobile" : "",
        "avatar_medium" : "http:\/\/tx1.douguo.net\/upload\/photo\/7\/9\/5\/140_79c7e12572bea87ce2b8d430e4f10605.jpg",
        "lvl" : 7,
        "is_prime" : 0,
        "user_cover" : "",
        "verified_image" : "https:\/\/i1.douguo.com\/upload\/note\/d\/a\/a\/da84247847aebe48d9dd0fcdac88862a.png",
        "nick" : "阿紫郡主",
        "lv" : 0,
        "favor_diaries_count" : 0,
        "user_photo" : "http:\/\/tx1.douguo.net\/upload\/photo\/7\/9\/5\/70_79c7e12572bea87ce2b8d430e4f10605.jpg",
        "weibo_nick" : "",
        "birthday" : "",
        "qzone_nick" : "",
        "introduction" : "",
        "sign" : "",
        "point" : 0,
        "coursecount" : 0,
        "user_large_photo" : "http:\/\/tx1.douguo.net\/upload\/photo\/7\/9\/5\/yuan_79c7e12572bea87ce2b8d430e4f10605.jpg",
        "verified_url" : "https:\/\/m.douguo.com\/user\/prodesc",
        "user_id" : "10963170",
        "qq_weibo_nick" : "",
        "fc" : 0,
        "dishes_count" : 0,
        "progress_image" : "",
        "age" : "",
        "verified" : 1,
        "favorites_count" : 0,
        "location" : 0,
        "pc" : 0,
        "gender" : 2,
        "email" : "",
        "recipes_count" : 0,
        "regist_time" : "",
        "userid" : "10963170",
        "setted_email" : 0,
        "followers_count" : 0,
        "diaries_count" : 0,
        "subscription_article_count" : 0,
        "subscription" : 0
      },
      "dish_count" : 0,
      "rewarded_video_dsp" : [

      ],
      "ipia" : [

      ],
      "rdsps" : [

      ],
      "cookwares" : [

      ],
      "rpid" : 0,
      "rate" : 0,
      "thumb_path" : "https:\/\/i1.douguo.com\/upload\/caiku\/7\/4\/5\/300_1685072587799.jpg",
      "first_level_comment_count" : 0,
      "rate_show" : 0,
      "title" : "泡菜牛奶炖鲍鱼",
      "comments" : [

      ],
      "ipt" : ""
    }
  },
  "status" : 0
}