{
  "result" : {
    "recipe" : {
      "sc" : 0,
      "tags" : [

      ],
      "ecs" : 1,
      "mid_mdsp" : [

      ],
      "rate_show" : 0,
      "ipia" : [

      ],
      "rsm" : "该功能暂停使用",
      "eu" : "recipes:\/\/www.douguo.com\/postdetail?id=242016",
      "rpid" : 0,
      "notes" : [

      ],
      "sr" : "",
      "dish_count_text" : "1",
      "old_comments" : [

      ],
      "cook_difficulty_image" : "https:\/\/i1.douguo.com\/upload\/banner\/1551424390.png",
      "views_count_text" : "2.3万",
      "recommended" : 0,
      "ph" : 721,
      "cookstep" : [
        {
          "image_height" : 721,
          "thumb" : "https:\/\/i1.douguo.com\/upload\/caiku\/9\/c\/1\/140_9cc7a934fe6da7848e9d0fe6632ed901.jpg",
          "content" : "锅里加水大火烧开，把木耳和瓜片扔里烫个一两分钟",
          "position" : 1,
          "frame" : "-1",
          "image" : "https:\/\/i1.douguo.com\/upload\/caiku\/9\/c\/1\/9cc7a934fe6da7848e9d0fe6632ed901.jpg",
          "image_width" : 1280
        },
        {
          "image_height" : 721,
          "content" : "估摸着木耳差不多能吃了就成，关火想办法把水滤掉再开大火稍微烘一下",
          "position" : 2,
          "thumb" : "https:\/\/i1.douguo.com\/upload\/caiku\/c\/2\/f\/140_c2b5648e91a505fd6803b79d80fdd61f.jpg",
          "frame" : "-1",
          "image_width" : 1280,
          "image" : "https:\/\/i1.douguo.com\/upload\/caiku\/c\/2\/f\/c2b5648e91a505fd6803b79d80fdd61f.jpg"
        },
        {
          "image_width" : 1280,
          "image" : "https:\/\/i1.douguo.com\/upload\/caiku\/c\/0\/a\/c0530e8b0e3a5895a8f44ca2abb1cb3a.jpg",
          "thumb" : "https:\/\/i1.douguo.com\/upload\/caiku\/c\/0\/a\/140_c0530e8b0e3a5895a8f44ca2abb1cb3a.jpg",
          "position" : 3,
          "frame" : "-1",
          "image_height" : 721,
          "content" : "中间扒个坑看心情补油扔洋葱，不方便的话蒜片也行"
        },
        {
          "image" : "https:\/\/i1.douguo.com\/upload\/caiku\/9\/5\/2\/95a0055ba3b3d261e03e146173fd64c2.jpg",
          "image_width" : 1280,
          "position" : 4,
          "thumb" : "https:\/\/i1.douguo.com\/upload\/caiku\/9\/5\/2\/140_95a0055ba3b3d261e03e146173fd64c2.jpg",
          "content" : "火调小些随便划拉两下，根据瓜量和自己扛辣程度往里擓辣酱",
          "image_height" : 721,
          "frame" : "-1"
        },
        {
          "thumb" : "https:\/\/i1.douguo.com\/upload\/caiku\/6\/5\/f\/140_652e1f7191e6a00f3e753289b1036e8f.jpg",
          "image_height" : 721,
          "image" : "https:\/\/i1.douguo.com\/upload\/caiku\/6\/5\/f\/652e1f7191e6a00f3e753289b1036e8f.jpg",
          "content" : "加点点水划拉匀倒上提前切好的彩椒们，不扛辣灯笼椒能吃辣就尖椒螺丝椒啥的随便搁",
          "image_width" : 1280,
          "frame" : "-1",
          "position" : 5
        },
        {
          "position" : 6,
          "image_width" : 1280,
          "image" : "https:\/\/i1.douguo.com\/upload\/caiku\/0\/6\/5\/06de51d6ab295f1e0bab81b46cc7fa25.jpg",
          "frame" : "-1",
          "thumb" : "https:\/\/i1.douguo.com\/upload\/caiku\/0\/6\/5\/140_06de51d6ab295f1e0bab81b46cc7fa25.jpg",
          "image_height" : 721,
          "content" : "努力翻匀揪片瓜尝尝小心烫，随便加些糖醋生抽盐进去找补下味道"
        },
        {
          "position" : 7,
          "image_height" : 721,
          "image_width" : 1280,
          "content" : "咸辣酸辣看心情，完事儿淋两圈水淀粉进去勾个小薄芡就好了",
          "image" : "https:\/\/i1.douguo.com\/upload\/caiku\/e\/1\/c\/e11db6c2aca5dd3a741e7b3f7c99606c.jpg",
          "frame" : "-1",
          "thumb" : "https:\/\/i1.douguo.com\/upload\/caiku\/e\/1\/c\/140_e11db6c2aca5dd3a741e7b3f7c99606c.jpg"
        },
        {
          "frame" : "-1",
          "content" : "确认味道啥的都合适了关火找盘往外挪随便瞅两眼爱咋吃咋吃",
          "image_height" : 721,
          "position" : 8,
          "image" : "https:\/\/i1.douguo.com\/upload\/caiku\/6\/e\/e\/6eb80ff50c41bada7a8b10faebf849ce.jpg",
          "thumb" : "https:\/\/i1.douguo.com\/upload\/caiku\/6\/e\/e\/140_6eb80ff50c41bada7a8b10faebf849ce.jpg",
          "image_width" : 1280
        },
        {
          "content" : "走了哟，明天见~",
          "thumb" : "https:\/\/i1.douguo.com\/upload\/caiku\/1\/c\/4\/140_1cf07a33b20593e1d514c630efd2b1a4.jpg",
          "image_width" : 1280,
          "frame" : "-1",
          "position" : 9,
          "image" : "https:\/\/i1.douguo.com\/upload\/caiku\/1\/c\/4\/1cf07a33b20593e1d514c630efd2b1a4.jpg",
          "image_height" : 721
        }
      ],
      "guide_image" : "",
      "rpt" : "",
      "image" : "http:\/\/i1.douguo.net\/upload\/caiku\/0\/8\/5\/300_08a5281aeb781141a430464dcb3dc2e5.jpg",
      "photo_path" : "https:\/\/i1.douguo.com\/upload\/caiku\/0\/8\/5\/600_08a5281aeb781141a430464dcb3dc2e5.jpg",
      "btm_dsp" : [

      ],
      "rrps" : [

      ],
      "rcs" : [

      ],
      "title" : "红油葱椒佛手瓜",
      "v_u" : "",
      "related_ads" : [

      ],
      "user" : {
        "dishes_count" : 0,
        "verified" : 1,
        "lvl" : 8,
        "gender" : 2,
        "recipes_count" : 0,
        "location" : 0,
        "age" : "",
        "favor_diaries_count" : 0,
        "email" : "",
        "sign" : "",
        "favorites_count" : 0,
        "diaries_count" : 0,
        "coursecount" : 0,
        "user_large_photo" : "http:\/\/tx1.douguo.net\/upload\/photo\/6\/2\/8\/yuan_u66631823200625014715.jpg",
        "weibo_nick" : "",
        "avatar_medium" : "http:\/\/tx1.douguo.net\/upload\/photo\/6\/2\/8\/140_u66631823200625014715.jpg",
        "nick" : "sure汪",
        "point" : 0,
        "user_photo" : "http:\/\/tx1.douguo.net\/upload\/photo\/6\/2\/8\/70_u66631823200625014715.jpg",
        "introduction" : "",
        "userid" : "17794329",
        "fc" : 0,
        "setted_email" : 0,
        "pc" : 0,
        "mobile" : "",
        "user_id" : "17794329",
        "is_prime" : 0,
        "subscription" : 0,
        "verified_url" : "https:\/\/m.douguo.com\/user\/prodesc",
        "progress_image" : "",
        "subscription_article_count" : 0,
        "qq_weibo_nick" : "",
        "qzone_nick" : "",
        "following_count" : 0,
        "verified_image" : "https:\/\/i1.douguo.com\/upload\/note\/d\/a\/a\/da84247847aebe48d9dd0fcdac88862a.png",
        "birthday" : "",
        "user_cover" : "",
        "lv" : 0,
        "followers_count" : 0,
        "regist_time" : ""
      },
      "ipt" : "",
      "brand_day_dsp" : [

      ],
      "thumb_path" : "https:\/\/i1.douguo.com\/upload\/caiku\/0\/8\/5\/300_08a5281aeb781141a430464dcb3dc2e5.jpg",
      "share_info" : {
        "qr_image" : "",
        "mini_program" : [

        ],
        "name" : "红油葱椒佛手瓜-会做饭很酷!",
        "s_u" : "http:\/\/m.douguo.com\/cookbook\/3128920.html",
        "infos" : [
          {
            "image" : "https:\/\/cp1.douguo.com\/upload\/caiku\/0\/8\/5\/08a5281aeb781141a430464dcb3dc2e5.jpg",
            "object_id" : "3128920",
            "s_u" : "",
            "mini_program" : [

            ],
            "channel" : "1",
            "qr_image" : "",
            "s_d" : "#学做饭用豆果美食#  我在@豆果美食 分享了【红油葱椒佛手瓜-会做饭很酷!】，制作美食的过程承载了我生活中的热情，和我一起感受这份小确幸吧！查看图片了解菜谱（你喜欢的美食都在这里！https:\/\/m.weibo.cn\/p\/100404i33631）#会做饭很酷# ",
            "name" : "红油葱椒佛手瓜-会做饭很酷!"
          },
          {
            "s_u" : "http:\/\/m.douguo.com\/cookbook\/3128920.html",
            "mini_program" : [

            ],
            "qr_image" : "",
            "s_d" : "红油葱椒佛手瓜-会做饭很酷!",
            "channel" : "7",
            "image" : "https:\/\/cp1.douguo.com\/upload\/caiku\/0\/8\/5\/08a5281aeb781141a430464dcb3dc2e5.jpg",
            "object_id" : "3128920",
            "name" : "红油葱椒佛手瓜-会做饭很酷!"
          },
          {
            "mini_program" : [

            ],
            "image" : "https:\/\/cp1.douguo.com\/upload\/caiku\/0\/8\/5\/08a5281aeb781141a430464dcb3dc2e5.jpg",
            "qr_image" : "",
            "name" : "红油葱椒佛手瓜-会做饭很酷!",
            "s_u" : "http:\/\/m.douguo.com\/cookbook\/3128920.html",
            "s_d" : "红油葱椒佛手瓜-会做饭很酷!",
            "channel" : "8",
            "object_id" : "3128920"
          }
        ],
        "image" : "https:\/\/cp1.douguo.com\/upload\/caiku\/0\/8\/5\/08a5281aeb781141a430464dcb3dc2e5.jpg",
        "object_id" : "3128920",
        "s_d" : "红油葱椒佛手瓜-会做饭很酷!"
      },
      "cookstorys" : [
        {
          "id" : 0,
          "u" : "",
          "c" : "【6-079】    这是一个无甚大事补觉来着编不出来就不编了的故事……\n                        \n                                           ----- 2021.09.09",
          "icon" : "",
          "type" : 0,
          "color" : ""
        }
      ],
      "favo_counts_text" : "793",
      "vc" : "22604",
      "packages_id" : [

      ],
      "original_photo_path" : "http:\/\/i1.douguo.net\/upload\/caiku\/0\/8\/5\/yuan_08a5281aeb781141a430464dcb3dc2e5.jpg",
      "comments_count" : 3,
      "major" : [
        {
          "title" : "佛手瓜",
          "note" : "一大个",
          "tu" : "https:\/\/m.douguo.com\/ingredients\/佛手瓜\/detailmaterial"
        },
        {
          "tu" : "https:\/\/m.douguo.com\/ingredients\/红椒\/detailmaterial",
          "title" : "红椒",
          "note" : "半个"
        },
        {
          "note" : "半个",
          "title" : "尖椒"
        },
        {
          "tu" : "https:\/\/m.douguo.com\/ingredients\/洋葱\/detailmaterial",
          "note" : "小半个",
          "title" : "洋葱"
        },
        {
          "tu" : "https:\/\/m.douguo.com\/ingredients\/木耳\/detailmaterial",
          "note" : "一小把",
          "title" : "木耳"
        },
        {
          "title" : "红油豆瓣",
          "note" : "适量"
        },
        {
          "note" : "一点",
          "tu" : "https:\/\/m.douguo.com\/ingredients\/生抽\/detailmaterial",
          "title" : "生抽"
        },
        {
          "note" : "可",
          "tu" : "https:\/\/m.douguo.com\/ingredients\/白醋\/detailmaterial",
          "title" : "白醋"
        },
        {
          "title" : "淀粉",
          "note" : "选"
        },
        {
          "note" : "自选",
          "tu" : "https:\/\/m.douguo.com\/ingredients\/油\/detailmaterial",
          "title" : "油"
        }
      ],
      "author_photo" : "http:\/\/tx1.douguo.net\/upload\/photo\/6\/2\/8\/70_u66631823200625014715.jpg",
      "thumb_height" : 0,
      "create_time" : "2021-09-09 23:57:18",
      "ipit" : 0,
      "hq" : 1,
      "recent_comments" : [

      ],
      "recommend_label" : "1人学做",
      "rdsps" : [

      ],
      "cookwares" : [

      ],
      "ipci" : "",
      "ssu" : "",
      "act_des" : "",
      "dishes" : [

      ],
      "tips" : "",
      "rrpt" : "",
      "vu" : "",
      "favo_counts" : 793,
      "su" : "",
      "vfurl" : "",
      "bs" : [

      ],
      "display_ingredient" : 1,
      "recommendation_tag" : "",
      "recipe_tags" : [

      ],
      "comments" : [
        "{\n    ac = \"#999999\";\n    at = \"\\U6cf0\\U5b89\\U5e02\";\n    ccc = 2;\n    \"child_comments\" =     (\n                {\n            ac = \"#999999\";\n            at = \"\\U6cf0\\U5b89\\U5e02\";\n            ccc = 0;\n            city = \"\\U6cf0\\U5b89\\U5e02\";\n            cmc = 2;\n            content =             (\n                                {\n                    c = \" \\U4ea7\\U91cf\\U8d3c\\U9ad8\\U5403\\U4e0d\\U5b8c\\U7684\\U611f\\U89c9\";\n                }\n            );\n            ia = 1;\n            id = 8781296;\n            \"ip_address_location\" = \"\";\n            like = 0;\n            \"like_count\" = 0;\n            \"reply_id\" = 8781295;\n            \"reply_user\" =             {\n                \"followers_count_text\" = \"\";\n                id = 17794329;\n                \"is_prime\" = 0;\n                lv = 0;\n                lvl = 8;\n                n = \"sure\\U6c6a\";\n                p = \"http:\/\/tx1.douguo.net\/upload\/photo\/6\/2\/8\/70_u66631823200625014715.jpg\";\n                \"progress_image\" = \"\";\n                \"recipes_count_text\" = \"\";\n                relationship = \"-1\";\n                title = \"\";\n                v = 1;\n                \"verified_image\" = \"\";\n            };\n            \"sticker_icon\" =             (\n            );\n            time = \"2021-09-10 00:01:06\";\n            u =             {\n                \"followers_count_text\" = \"\";\n                id = 17794329;\n                \"is_prime\" = 0;\n                lv = 0;\n                lvl = 8;\n                n = \"sure\\U6c6a\";\n                p = \"http:\/\/tx1.douguo.net\/upload\/photo\/6\/2\/8\/70_u66631823200625014715.jpg\";\n                \"progress_image\" = \"\";\n                \"recipes_count_text\" = \"\";\n                relationship = \"-1\";\n                title = \"\";\n                v = 1;\n                \"verified_image\" = \"\";\n            };\n        },\n                {\n            ac = \"#999999\";\n            at = \"\\U6d4e\\U5357\\U5e02\";\n            ccc = 0;\n            city = \"\\U6d4e\\U5357\\U5e02\";\n            cmc = 2;\n            content =             (\n                                {\n                    c = \" \\U5c31\\U559c\\U6b22\\U8fd9\\U79cd\\U989c\\U8272\\U597d\\U770b\\U7684\\U83dc\\Ud83c\\Udf39\";\n                }\n            );\n            ia = 0;\n            id = 8781792;\n            \"ip_address_location\" = \"\";\n            like = 0;\n            \"like_count\" = 0;\n            \"reply_id\" = 8781295;\n            \"reply_user\" =             {\n                \"followers_count_text\" = \"\";\n                id = 17794329;\n                \"is_prime\" = 0;\n                lv = 0;\n                lvl = 8;\n                n = \"sure\\U6c6a\";\n                p = \"http:\/\/tx1.douguo.net\/upload\/photo\/6\/2\/8\/70_u66631823200625014715.jpg\";\n                \"progress_image\" = \"\";\n                \"recipes_count_text\" = \"\";\n                relationship = \"-1\";\n                title = \"\";\n                v = 1;\n                \"verified_image\" = \"\";\n            };\n            \"sticker_icon\" =             (\n            );\n            time = \"2021-09-10 16:40:22\";\n            u =             {\n                \"followers_count_text\" = \"\";\n                id = 15703874;\n                \"is_prime\" = 0;\n                lv = 0;\n                lvl = 5;\n                n = \"\\U6d41\\U62c9\\U62c9\";\n                p = \"http:\/\/tx1.douguo.net\/upload\/photo\/0\/4\/6\/70_u49135727967077192524.jpeg\";\n                \"progress_image\" = \"\";\n                \"recipes_count_text\" = \"\";\n                relationship = \"-1\";\n                title = \"\";\n                v = 0;\n                \"verified_image\" = \"\";\n            };\n        }\n    );\n    city = \"\\U6cf0\\U5b89\\U5e02\";\n    cmc = 2;\n    content =     (\n                {\n            c = \"\\U4f5b\\U624b\\U74dc\\U771f\\U7684\\U597d\\U80fd\\U63a5\";\n        }\n    );\n    ia = 1;\n    id = 8781295;\n    \"ip_address_location\" = \"\";\n    like = 0;\n    \"like_count\" = 0;\n    \"reply_id\" = 0;\n    \"sticker_icon\" =     (\n    );\n    time = \"2021-09-10 00:00:13\";\n    u =     {\n        \"followers_count_text\" = \"\";\n        id = 17794329;\n        \"is_prime\" = 0;\n        lv = 0;\n        lvl = 8;\n        n = \"sure\\U6c6a\";\n        p = \"http:\/\/tx1.douguo.net\/upload\/photo\/6\/2\/8\/70_u66631823200625014715.jpg\";\n        \"progress_image\" = \"\";\n        \"recipes_count_text\" = \"\";\n        relationship = \"-1\";\n        title = \"\";\n        v = 1;\n        \"verified_image\" = \"\";\n    };\n}"
      ],
      "first_level_comment_count" : 1,
      "rips" : 0,
      "story_dsp" : [

      ],
      "rate_count" : 1,
      "rate" : 5,
      "rewarded_video_dsp" : [

      ],
      "release_time" : "",
      "pw" : 1280,
      "top_mdsp" : [

      ],
      "cook_difficulty" : "切墩(初级)",
      "author_verified" : 1,
      "recipe_list_tags" : [
        {
          "jump_url" : "",
          "text_color" : "#141515",
          "right_image" : "",
          "background_end_color" : "#F4F5F5",
          "text" : "关注的人",
          "background_border_color" : "",
          "background_start_color" : "#F4F5F5"
        }
      ],
      "author_id" : 17794329,
      "comments_count_text" : "3",
      "dish_count" : 1,
      "purl" : "",
      "hqu" : "recipes:\/\/www.douguo.com\/notedetail?id=21162253",
      "clicks" : "18591",
      "ipoi" : "",
      "minor" : [

      ],
      "cook_time" : "10分钟左右",
      "cook_id" : "3128920",
      "cook_time_image" : "https:\/\/i1.douguo.com\/upload\/banner\/1551424358.png",
      "ss" : [

      ],
      "author" : "sure汪",
      "rpst" : "",
      "title_ad" : [

      ],
      "cookstory" : "【6-079】    这是一个无甚大事补觉来着编不出来就不编了的故事……\n                        \n                                           ----- 2021.09.09",
      "levelid" : 2,
      "ipurl" : "",
      "collect_status" : 0
    }
  },
  "status" : 0,
  "state" : "success"
}