{
  "result" : {
    "recipe" : {
      "recent_comments" : [

      ],
      "cook_time" : "",
      "user" : {
        "is_prime" : 0,
        "user_cover" : "",
        "birthday" : "",
        "coursecount" : 0,
        "verified_url" : "https:\/\/m.douguo.com\/user\/prodesc",
        "userid" : "4254298",
        "verified" : 1,
        "fc" : 0,
        "qzone_nick" : "",
        "introduction" : "",
        "qq_weibo_nick" : "",
        "lvl" : 6,
        "lv" : 0,
        "user_large_photo" : "http:\/\/tx1.douguo.net\/upload\/photo\/1\/c\/c\/yuan_u97658995315206105522.jpg",
        "verified_image" : "https:\/\/i1.douguo.com\/upload\/note\/d\/a\/a\/da84247847aebe48d9dd0fcdac88862a.png",
        "nick" : "食期",
        "favorites_count" : 0,
        "regist_time" : "",
        "recipes_count" : 0,
        "user_photo" : "http:\/\/tx1.douguo.net\/upload\/photo\/1\/c\/c\/70_u97658995315206105522.jpg",
        "point" : 0,
        "setted_email" : 0,
        "followers_count" : 0,
        "email" : "",
        "user_id" : "4254298",
        "age" : "",
        "weibo_nick" : "",
        "gender" : 2,
        "subscription_article_count" : 0,
        "subscription" : 0,
        "diaries_count" : 0,
        "mobile" : "",
        "avatar_medium" : "http:\/\/tx1.douguo.net\/upload\/photo\/1\/c\/c\/140_u97658995315206105522.jpg",
        "location" : 0,
        "progress_image" : "",
        "following_count" : 0,
        "dishes_count" : 0,
        "sign" : "",
        "pc" : 0,
        "favor_diaries_count" : 0
      },
      "favo_counts_text" : "541",
      "ipia" : [

      ],
      "sc" : 0,
      "advice" : {
        "da" : {
          "t" : "查看详细分析",
          "iu" : "https:\/\/i1.douguo.com\/upload\/banner\/f\/4\/d\/f48877e53c37759bc12ac494be82ec8d.png",
          "url" : "https:\/\/m.douguo.com\/recipe\/nutrient_self\/3014334"
        },
        "has" : [
          {
            "url" : "recipes:\/\/www.douguo.com\/simplerecipelist?t=低饱和脂肪&id=低饱和脂肪",
            "t" : "低饱和脂肪"
          },
          {
            "url" : "recipes:\/\/www.douguo.com\/simplerecipelist?t=低胆固醇&id=低胆固醇",
            "t" : "低胆固醇"
          }
        ],
        "at" : "对血管有保护作用～"
      },
      "sr" : "",
      "thumb_path" : "https:\/\/i1.douguo.com\/upload\/caiku\/9\/b\/9\/300_9b8f9e7829f2ef93c171873be0559f49.jpg",
      "rdsps" : [

      ],
      "ipurl" : "",
      "ipit" : 0,
      "act_des" : "",
      "rrps" : [

      ],
      "views_count_text" : "11.0万",
      "title_ad" : [

      ],
      "rips" : 0,
      "ss" : [

      ],
      "vu" : "",
      "vc" : "109622",
      "recommendation_tag" : "",
      "levelid" : 2,
      "comments_count" : 5,
      "packages_id" : [

      ],
      "old_comments" : [

      ],
      "rate" : 0,
      "cook_difficulty_image" : "",
      "favo_counts" : 541,
      "btm_dsp" : [

      ],
      "hq" : 1,
      "dishes" : [

      ],
      "author_photo" : "http:\/\/tx1.douguo.net\/upload\/photo\/1\/c\/c\/70_u97658995315206105522.jpg",
      "cookstory" : "感恩节就快到了，最想感谢的就是妈妈，我妈是一个餐餐随便糊弄一口的人，一碗面条，撒上点酱油一顿饭就解决了，我想为她的每一餐都保证一些营养，根据中国膳食指南，每一餐一定要保持食物的多样性，常食十字花科类食物和深绿色蔬菜都是对身体比较好的，所以特意为我的妈妈做了这款麻辣香锅，既满足味蕾又增加营养",
      "dish_count_text" : "",
      "rrpt" : "",
      "notes" : [

      ],
      "comments_count_text" : "5",
      "top_mdsp" : [

      ],
      "ph" : 960,
      "recipe_tags" : [

      ],
      "create_time" : "2020-11-17 22:43:02",
      "vfurl" : "",
      "thumb_height" : 0,
      "author" : "食期",
      "rate_show" : 0,
      "guide_image" : "",
      "comments" : [
        "{\n    ac = \"#999999\";\n    at = \"\\U6797\\U829d\\U5e02\";\n    ccc = 2;\n    \"child_comments\" =     (\n                {\n            ac = \"#999999\";\n            at = \"\\U53a6\\U95e8\\U5e02\";\n            ccc = 0;\n            city = \"\\U53a6\\U95e8\\U5e02\";\n            cmc = 2;\n            content =             (\n                                {\n                    c = \" \\U4e0d\\U9700\\U8981\\Uff0c\\U76f4\\U63a5\\U653e\\U5728\\U4e00\\U8d77\\U7092\\U5c31\\U597d\";\n                }\n            );\n            ia = 1;\n            id = 8394918;\n            \"ip_address_location\" = \"\";\n            like = 0;\n            \"like_count\" = 0;\n            \"reply_id\" = 8393413;\n            \"reply_user\" =             {\n                \"followers_count_text\" = \"\";\n                id = 26006339;\n                \"is_prime\" = 0;\n                lv = 0;\n                lvl = 2;\n                n = \"\\U5403\\U996d\\U554a\\U554a\\U554a\\U554a\\U554a\\U554a\";\n                p = \"http:\/\/tx1.douguo.net\/upload\/photo\/0\/7\/e\/70_u02038244107129123649.jpeg\";\n                \"progress_image\" = \"\";\n                \"recipes_count_text\" = \"\";\n                relationship = \"-1\";\n                title = \"\";\n                v = 0;\n                \"verified_image\" = \"\";\n            };\n            \"sticker_icon\" =             (\n            );\n            time = \"2020-12-08 09:35:20\";\n            u =             {\n                \"followers_count_text\" = \"\";\n                id = 4254298;\n                \"is_prime\" = 0;\n                lv = 0;\n                lvl = 6;\n                n = \"\\U98df\\U671f\";\n                p = \"http:\/\/tx1.douguo.net\/upload\/photo\/1\/c\/c\/70_u97658995315206105522.jpg\";\n                \"progress_image\" = \"\";\n                \"recipes_count_text\" = \"\";\n                relationship = \"-1\";\n                title = \"\";\n                v = 1;\n                \"verified_image\" = \"\";\n            };\n        },\n                {\n            ac = \"#999999\";\n            at = \"\\U6797\\U829d\\U5e02\";\n            ccc = 0;\n            city = \"\\U6797\\U829d\\U5e02\";\n            cmc = 2;\n            content =             (\n                                {\n                    c = \" \\U597d\\U7684 \\U8c22\\U8c22\";\n                }\n            );\n            ia = 0;\n            id = 8395261;\n            \"ip_address_location\" = \"\";\n            like = 0;\n            \"like_count\" = 0;\n            \"reply_id\" = 8394918;\n            \"reply_user\" =             {\n                \"followers_count_text\" = \"\";\n                id = 4254298;\n                \"is_prime\" = 0;\n                lv = 0;\n                lvl = 6;\n                n = \"\\U98df\\U671f\";\n                p = \"http:\/\/tx1.douguo.net\/upload\/photo\/1\/c\/c\/70_u97658995315206105522.jpg\";\n                \"progress_image\" = \"\";\n                \"recipes_count_text\" = \"\";\n                relationship = \"-1\";\n                title = \"\";\n                v = 1;\n                \"verified_image\" = \"\";\n            };\n            \"sticker_icon\" =             (\n            );\n            time = \"2020-12-08 12:15:23\";\n            u =             {\n                \"followers_count_text\" = \"\";\n                id = 26006339;\n                \"is_prime\" = 0;\n                lv = 0;\n                lvl = 2;\n                n = \"\\U5403\\U996d\\U554a\\U554a\\U554a\\U554a\\U554a\\U554a\";\n                p = \"http:\/\/tx1.douguo.net\/upload\/photo\/0\/7\/e\/70_u02038244107129123649.jpeg\";\n                \"progress_image\" = \"\";\n                \"recipes_count_text\" = \"\";\n                relationship = \"-1\";\n                title = \"\";\n                v = 0;\n                \"verified_image\" = \"\";\n            };\n        }\n    );\n    city = \"\\U6797\\U829d\\U5e02\";\n    cmc = 2;\n    content =     (\n                {\n            c = \"\\U4e38\\U5b50\\Uff0c\\U5c0f\\U706b\\U817f\\U80a0\\U9700\\U8981\\U716e\\U4e00\\U4e0b\\U5417\";\n        }\n    );\n    ia = 0;\n    id = 8393413;\n    \"ip_address_location\" = \"\";\n    like = 0;\n    \"like_count\" = 0;\n    \"reply_id\" = 0;\n    \"sticker_icon\" =     (\n    );\n    time = \"2020-12-07 18:11:57\";\n    u =     {\n        \"followers_count_text\" = \"\";\n        id = 26006339;\n        \"is_prime\" = 0;\n        lv = 0;\n        lvl = 2;\n        n = \"\\U5403\\U996d\\U554a\\U554a\\U554a\\U554a\\U554a\\U554a\";\n        p = \"http:\/\/tx1.douguo.net\/upload\/photo\/0\/7\/e\/70_u02038244107129123649.jpeg\";\n        \"progress_image\" = \"\";\n        \"recipes_count_text\" = \"\";\n        relationship = \"-1\";\n        title = \"\";\n        v = 0;\n        \"verified_image\" = \"\";\n    };\n}",
        "{\n    ac = \"#999999\";\n    at = \"\";\n    ccc = 1;\n    \"child_comments\" =     (\n                {\n            ac = \"#999999\";\n            at = \"\\U53a6\\U95e8\\U5e02\";\n            ccc = 0;\n            city = \"\\U53a6\\U95e8\\U5e02\";\n            cmc = 2;\n            content =             (\n                                {\n                    c = \" \\U2764\";\n                }\n            );\n            ia = 1;\n            id = 8351155;\n            \"ip_address_location\" = \"\";\n            like = 0;\n            \"like_count\" = 0;\n            \"reply_id\" = 8350875;\n            \"reply_user\" =             {\n                \"followers_count_text\" = \"\";\n                id = 24571805;\n                \"is_prime\" = 0;\n                lv = 0;\n                lvl = 2;\n                n = \"ms\\U8717\\U725bE\";\n                p = \"http:\/\/tx1.douguo.net\/upload\/photo\/7\/d\/0\/70_u75130736316670161000.jpeg\";\n                \"progress_image\" = \"\";\n                \"recipes_count_text\" = \"\";\n                relationship = \"-1\";\n                title = \"\";\n                v = 0;\n                \"verified_image\" = \"\";\n            };\n            \"sticker_icon\" =             (\n            );\n            time = \"2020-11-18 09:46:26\";\n            u =             {\n                \"followers_count_text\" = \"\";\n                id = 4254298;\n                \"is_prime\" = 0;\n                lv = 0;\n                lvl = 6;\n                n = \"\\U98df\\U671f\";\n                p = \"http:\/\/tx1.douguo.net\/upload\/photo\/1\/c\/c\/70_u97658995315206105522.jpg\";\n                \"progress_image\" = \"\";\n                \"recipes_count_text\" = \"\";\n                relationship = \"-1\";\n                title = \"\";\n                v = 1;\n                \"verified_image\" = \"\";\n            };\n        }\n    );\n    city = \"\";\n    cmc = 2;\n    content =     (\n                {\n            c = \"\\U770b\\U7740\\U5c31\\U597d\";\n        }\n    );\n    ia = 0;\n    id = 8350875;\n    \"ip_address_location\" = \"\";\n    like = 0;\n    \"like_count\" = 0;\n    \"reply_id\" = 0;\n    \"sticker_icon\" =     (\n    );\n    time = \"2020-11-17 22:55:10\";\n    u =     {\n        \"followers_count_text\" = \"\";\n        id = 24571805;\n        \"is_prime\" = 0;\n        lv = 0;\n        lvl = 2;\n        n = \"ms\\U8717\\U725bE\";\n        p = \"http:\/\/tx1.douguo.net\/upload\/photo\/7\/d\/0\/70_u75130736316670161000.jpeg\";\n        \"progress_image\" = \"\";\n        \"recipes_count_text\" = \"\";\n        relationship = \"-1\";\n        title = \"\";\n        v = 0;\n        \"verified_image\" = \"\";\n    };\n}"
      ],
      "cookwares" : [

      ],
      "v_u" : "",
      "share_info" : {
        "image" : "https:\/\/cp1.douguo.com\/upload\/caiku\/9\/b\/9\/9b8f9e7829f2ef93c171873be0559f49.jpg",
        "name" : "麻辣锅锅-会做饭很酷!",
        "s_u" : "http:\/\/m.douguo.com\/cookbook\/3014334.html",
        "object_id" : "3014334",
        "s_d" : "麻辣锅锅-会做饭很酷!",
        "infos" : [
          {
            "s_d" : "#学做饭用豆果美食# 会做饭真是太酷了！我在@豆果美食 分享了【麻辣锅锅-会做饭很酷!】OMG！这是什么神仙美味啊~真的强烈推荐你们试一试～查看图片了解菜谱（每天限量免费课程，想跟大师学厨艺就来这https:\/\/m.weibo.cn\/p\/100404i33631）",
            "s_u" : "",
            "object_id" : "3014334",
            "mini_program" : [

            ],
            "image" : "https:\/\/cp1.douguo.com\/upload\/caiku\/9\/b\/9\/9b8f9e7829f2ef93c171873be0559f49.jpg",
            "name" : "麻辣锅锅-会做饭很酷!",
            "qr_image" : "",
            "channel" : "1"
          },
          {
            "s_d" : "麻辣锅锅-会做饭很酷!",
            "qr_image" : "",
            "object_id" : "3014334",
            "mini_program" : [

            ],
            "name" : "麻辣锅锅-会做饭很酷!",
            "s_u" : "http:\/\/m.douguo.com\/cookbook\/3014334.html",
            "channel" : "7",
            "image" : "https:\/\/cp1.douguo.com\/upload\/caiku\/9\/b\/9\/9b8f9e7829f2ef93c171873be0559f49.jpg"
          },
          {
            "image" : "https:\/\/cp1.douguo.com\/upload\/caiku\/9\/b\/9\/9b8f9e7829f2ef93c171873be0559f49.jpg",
            "s_u" : "http:\/\/m.douguo.com\/cookbook\/3014334.html",
            "object_id" : "3014334",
            "s_d" : "麻辣锅锅-会做饭很酷!",
            "channel" : "8",
            "mini_program" : [

            ],
            "name" : "麻辣锅锅-会做饭很酷!",
            "qr_image" : ""
          }
        ],
        "qr_image" : "",
        "mini_program" : [

        ]
      },
      "ecs" : 1,
      "eu" : "recipes:\/\/www.douguo.com\/postdetail?id=242016",
      "author_id" : 4254298,
      "bs" : [

      ],
      "ssu" : "",
      "recommended" : 0,
      "rsm" : "该功能暂停使用",
      "display_ingredient" : 1,
      "recommend_label" : "11.0万人看过",
      "major" : [
        {
          "note" : "一块",
          "tu" : "https:\/\/m.douguo.com\/ingredients\/鸡胸肉\/detailmaterial",
          "title" : "鸡胸肉"
        },
        {
          "tu" : "https:\/\/m.douguo.com\/ingredients\/香菜\/detailmaterial",
          "note" : "一把",
          "title" : "香菜"
        },
        {
          "title" : "洋葱",
          "tu" : "https:\/\/m.douguo.com\/ingredients\/洋葱\/detailmaterial",
          "note" : "半个"
        },
        {
          "title" : "西兰花",
          "note" : "半颗",
          "tu" : "https:\/\/m.douguo.com\/ingredients\/西兰花\/detailmaterial"
        },
        {
          "title" : "牛肉丸",
          "note" : "5个"
        },
        {
          "tu" : "https:\/\/m.douguo.com\/ingredients\/鱼丸\/detailmaterial",
          "title" : "鱼丸",
          "note" : "2个"
        },
        {
          "note" : "5个",
          "title" : "小火腿肠"
        },
        {
          "note" : "1节",
          "title" : "莲藕"
        },
        {
          "title" : "香肠",
          "tu" : "https:\/\/m.douguo.com\/ingredients\/香肠\/detailmaterial",
          "note" : "半根"
        },
        {
          "tu" : "https:\/\/m.douguo.com\/ingredients\/口蘑\/detailmaterial",
          "title" : "口蘑",
          "note" : "100克"
        },
        {
          "title" : "胡萝卜",
          "tu" : "https:\/\/m.douguo.com\/ingredients\/胡萝卜\/detailmaterial",
          "note" : "1根"
        },
        {
          "note" : "1包",
          "title" : "麻辣香锅料"
        }
      ],
      "clicks" : "103900",
      "cook_difficulty" : "",
      "tags" : [

      ],
      "rate_count" : 0,
      "mid_mdsp" : [

      ],
      "pw" : 1280,
      "collect_status" : 0,
      "rpt" : "",
      "hqu" : "recipes:\/\/www.douguo.com\/notedetail?id=21162253",
      "minor" : [

      ],
      "rcs" : [

      ],
      "title" : "麻辣锅锅",
      "original_photo_path" : "http:\/\/i1.douguo.net\/upload\/caiku\/9\/b\/9\/yuan_9b8f9e7829f2ef93c171873be0559f49.jpg",
      "release_time" : "",
      "cook_id" : "3014334",
      "ipt" : "",
      "ipci" : "",
      "su" : "",
      "rpid" : 0,
      "first_level_comment_count" : 2,
      "cookstep" : [
        {
          "content" : "将西兰花，口蘑洗净备用，准备焯水",
          "image" : "https:\/\/i1.douguo.com\/upload\/caiku\/e\/8\/5\/e8451868d2324e7664c324ad6c836805.jpg",
          "image_width" : 800,
          "thumb" : "https:\/\/i1.douguo.com\/upload\/caiku\/e\/8\/5\/140_e8451868d2324e7664c324ad6c836805.jpg",
          "frame" : "-1",
          "position" : 1,
          "image_height" : 600
        },
        {
          "thumb" : "https:\/\/i1.douguo.com\/upload\/caiku\/1\/3\/e\/140_132ad98be8211a42fff0799b6f9c439e.jpg",
          "frame" : "-1",
          "image_height" : 960,
          "image_width" : 1280,
          "position" : 2,
          "content" : "口蘑对半切开后 ，锅中烧水，水开后夏口蘑焯水",
          "image" : "https:\/\/i1.douguo.com\/upload\/caiku\/1\/3\/e\/132ad98be8211a42fff0799b6f9c439e.jpg"
        },
        {
          "image_width" : 1280,
          "image" : "https:\/\/i1.douguo.com\/upload\/caiku\/d\/b\/e\/db3642598bb8e10c725a70fc4b57a4fe.jpg",
          "image_height" : 960,
          "thumb" : "https:\/\/i1.douguo.com\/upload\/caiku\/d\/b\/e\/140_db3642598bb8e10c725a70fc4b57a4fe.jpg",
          "content" : "口蘑焯好后凉水再次冲洗干净后备用",
          "position" : 3,
          "frame" : "-1"
        },
        {
          "image_width" : 1280,
          "image_height" : 960,
          "thumb" : "https:\/\/i1.douguo.com\/upload\/caiku\/6\/f\/f\/140_6f5d84584199bf854d23c9ecf010c0cf.jpg",
          "image" : "https:\/\/i1.douguo.com\/upload\/caiku\/6\/f\/f\/6f5d84584199bf854d23c9ecf010c0cf.jpg",
          "frame" : "-1",
          "position" : 4,
          "content" : "将西兰花焯水（和口蘑步骤相同）"
        },
        {
          "position" : 5,
          "image" : "https:\/\/i1.douguo.com\/upload\/caiku\/4\/7\/6\/47d7b69fe18cbef9ce97e1d6c6aa1d76.jpg",
          "frame" : "-1",
          "content" : "藕片胡萝卜切片后备用",
          "image_height" : 960,
          "image_width" : 1280,
          "thumb" : "https:\/\/i1.douguo.com\/upload\/caiku\/4\/7\/6\/140_47d7b69fe18cbef9ce97e1d6c6aa1d76.jpg"
        },
        {
          "image_width" : 1280,
          "content" : "香菜洋葱切好备用",
          "image_height" : 960,
          "image" : "https:\/\/i1.douguo.com\/upload\/caiku\/a\/5\/c\/a5d3ae7b43e2585750f19a80e492389c.jpg",
          "position" : 6,
          "thumb" : "https:\/\/i1.douguo.com\/upload\/caiku\/a\/5\/c\/140_a5d3ae7b43e2585750f19a80e492389c.jpg",
          "frame" : "-1"
        },
        {
          "content" : "将鸡胸肉切块，锅中烧油，油开后放入鸡胸肉翻炒",
          "image" : "https:\/\/i1.douguo.com\/upload\/caiku\/a\/8\/7\/a8b3793b16a587315e3c41703690f6e7.jpg",
          "image_height" : 960,
          "position" : 7,
          "image_width" : 1280,
          "thumb" : "https:\/\/i1.douguo.com\/upload\/caiku\/a\/8\/7\/140_a8b3793b16a587315e3c41703690f6e7.jpg",
          "frame" : "-1"
        },
        {
          "image_height" : 960,
          "content" : "翻炒至变白后加入以下食材",
          "image_width" : 1280,
          "position" : 8,
          "frame" : "-1",
          "image" : "https:\/\/i1.douguo.com\/upload\/caiku\/3\/a\/c\/3a1a91d51fda858f5c31c1002071ed5c.jpg",
          "thumb" : "https:\/\/i1.douguo.com\/upload\/caiku\/3\/a\/c\/140_3a1a91d51fda858f5c31c1002071ed5c.jpg"
        },
        {
          "image_width" : 1280,
          "frame" : "-1",
          "content" : "加入丸子类和香肠后翻炒",
          "image" : "https:\/\/i1.douguo.com\/upload\/caiku\/9\/e\/2\/9e043f6fd3e562af5377f717d2f66aa2.jpg",
          "position" : 9,
          "thumb" : "https:\/\/i1.douguo.com\/upload\/caiku\/9\/e\/2\/140_9e043f6fd3e562af5377f717d2f66aa2.jpg",
          "image_height" : 960
        },
        {
          "content" : "然后加入口蘑继续翻炒",
          "image" : "https:\/\/i1.douguo.com\/upload\/caiku\/a\/7\/7\/a7bfd93c23ee75f85bb650ca0a2e93a7.jpg",
          "position" : 10,
          "image_width" : 800,
          "thumb" : "https:\/\/i1.douguo.com\/upload\/caiku\/a\/7\/7\/140_a7bfd93c23ee75f85bb650ca0a2e93a7.jpg",
          "frame" : "-1",
          "image_height" : 600
        },
        {
          "frame" : "-1",
          "image_width" : 1280,
          "image" : "https:\/\/i1.douguo.com\/upload\/caiku\/3\/8\/2\/38a216210dd1b4d986ff8c4e4aea2232.jpg",
          "image_height" : 960,
          "content" : "加入藕片继续翻炒",
          "position" : 11,
          "thumb" : "https:\/\/i1.douguo.com\/upload\/caiku\/3\/8\/2\/140_38a216210dd1b4d986ff8c4e4aea2232.jpg"
        },
        {
          "position" : 12,
          "frame" : "-1",
          "thumb" : "https:\/\/i1.douguo.com\/upload\/caiku\/6\/2\/4\/140_6213d81bb6d2637b4ff276b5aa0ec764.jpg",
          "image_height" : 960,
          "image_width" : 1280,
          "image" : "https:\/\/i1.douguo.com\/upload\/caiku\/6\/2\/4\/6213d81bb6d2637b4ff276b5aa0ec764.jpg",
          "content" : "加入麻辣香锅料继续翻炒"
        },
        {
          "image" : "https:\/\/i1.douguo.com\/upload\/caiku\/b\/d\/b\/bd76a00586c37bacc70770f9810e963b.jpg",
          "image_height" : 600,
          "frame" : "-1",
          "position" : 13,
          "content" : "翻炒均匀后加入清水，继续翻炒，然后稍微闷2分钟",
          "image_width" : 800,
          "thumb" : "https:\/\/i1.douguo.com\/upload\/caiku\/b\/d\/b\/140_bd76a00586c37bacc70770f9810e963b.jpg"
        },
        {
          "frame" : "-1",
          "position" : 14,
          "image_width" : 1280,
          "thumb" : "https:\/\/i1.douguo.com\/upload\/caiku\/c\/5\/3\/140_c5c725bd2eceacd77aa31e2e097b7573.jpg",
          "image" : "https:\/\/i1.douguo.com\/upload\/caiku\/c\/5\/3\/c5c725bd2eceacd77aa31e2e097b7573.jpg",
          "image_height" : 960,
          "content" : "水吸收一半后放入西兰花继续翻炒"
        },
        {
          "frame" : "-1",
          "thumb" : "https:\/\/i1.douguo.com\/upload\/caiku\/7\/0\/7\/140_70f189c07db7c3a64678522fca324b07.jpg",
          "position" : 15,
          "image" : "https:\/\/i1.douguo.com\/upload\/caiku\/7\/0\/7\/70f189c07db7c3a64678522fca324b07.jpg",
          "content" : "加入切好的香菜与洋葱，翻炒一分钟后关火出锅",
          "image_height" : 960,
          "image_width" : 1280
        },
        {
          "frame" : "-1",
          "image_height" : 960,
          "position" : 16,
          "content" : "香喷喷的麻辣香锅就炒好了，再配上一碗玉米饭，晚餐就给妈妈准备好了",
          "image_width" : 1280,
          "image" : "https:\/\/i1.douguo.com\/upload\/caiku\/7\/d\/c\/7dcaf579ab219da105eaae2eb37ef66c.jpg",
          "thumb" : "https:\/\/i1.douguo.com\/upload\/caiku\/7\/d\/c\/140_7dcaf579ab219da105eaae2eb37ef66c.jpg"
        },
        {
          "thumb" : "https:\/\/i1.douguo.com\/upload\/caiku\/5\/c\/3\/140_5c5a166d778a03fee7511eb03065db43.jpg",
          "image" : "https:\/\/i1.douguo.com\/upload\/caiku\/5\/c\/3\/5c5a166d778a03fee7511eb03065db43.jpg",
          "image_width" : 1280,
          "position" : 17,
          "content" : "非常下饭的菜，老妈晚上又要多吃一碗咯",
          "frame" : "-1",
          "image_height" : 960
        }
      ],
      "cookstorys" : [
        {
          "u" : "",
          "type" : 0,
          "icon" : "",
          "c" : "感恩节就快到了，最想感谢的就是妈妈，我妈是一个餐餐随便糊弄一口的人，一碗面条，撒上点酱油一顿饭就解决了，我想为她的每一餐都保证一些营养，根据中国膳食指南，每一餐一定要保持食物的多样性，常食十字花科类食物和深绿色蔬菜都是对身体比较好的，所以特意为我的妈妈做了这款麻辣香锅，既满足味蕾又增加营养",
          "id" : 0,
          "color" : ""
        }
      ],
      "recipe_list_tags" : [
        {
          "background_border_color" : "",
          "jump_url" : "",
          "text_color" : "#141515",
          "background_end_color" : "#F4F5F5",
          "text" : "关注的人",
          "background_start_color" : "#F4F5F5",
          "right_image" : ""
        },
        {
          "text_color" : "#141515",
          "background_border_color" : "",
          "background_start_color" : "#F4F5F5",
          "jump_url" : "",
          "text" : "内容详细",
          "background_end_color" : "#F4F5F5",
          "right_image" : ""
        }
      ],
      "related_ads" : [

      ],
      "purl" : "",
      "image" : "http:\/\/i1.douguo.net\/upload\/caiku\/9\/b\/9\/300_9b8f9e7829f2ef93c171873be0559f49.jpg",
      "brand_day_dsp" : [

      ],
      "tips" : "我认为能给妈妈最好的感恩方式就是让她吃好每一餐，健康每一天，说的再多不如一做\n\n主图中心构图法，俯拍90度",
      "author_verified" : 1,
      "rpst" : "",
      "dish_count" : 0,
      "photo_path" : "https:\/\/i1.douguo.com\/upload\/caiku\/9\/b\/9\/600_9b8f9e7829f2ef93c171873be0559f49.jpg",
      "story_dsp" : [

      ],
      "rewarded_video_dsp" : [

      ],
      "ipoi" : "",
      "cook_time_image" : ""
    }
  },
  "state" : "success",
  "status" : 0
}