{
  "state" : "success",
  "result" : {
    "recipe" : {
      "cook_difficulty" : "",
      "old_comments" : [

      ],
      "ipit" : 0,
      "rrps" : [

      ],
      "ipt" : "",
      "ph" : 600,
      "recent_comments" : [

      ],
      "cookstep" : [
        {
          "frame" : "-1",
          "image" : "https:\/\/i1.douguo.com\/upload\/caiku\/a\/2\/6\/a2520d05e3f7da3d7f81568a486c0ff6.jpeg",
          "position" : 1,
          "thumb" : "https:\/\/i1.douguo.com\/upload\/caiku\/a\/2\/6\/140_a2520d05e3f7da3d7f81568a486c0ff6.jpeg",
          "image_height" : 513,
          "image_width" : 799,
          "content" : "玉米粑粑摊平后两面沾上芝麻"
        },
        {
          "frame" : "-1",
          "position" : 2,
          "thumb" : "https:\/\/i1.douguo.com\/upload\/caiku\/2\/7\/1\/140_27cd05cf4ffebb7c26f7e1cfe75a1241.jpeg",
          "image" : "https:\/\/i1.douguo.com\/upload\/caiku\/2\/7\/1\/27cd05cf4ffebb7c26f7e1cfe75a1241.jpeg",
          "content" : "平底锅放油烧热 小火煎",
          "image_width" : 800,
          "image_height" : 800
        },
        {
          "thumb" : "https:\/\/i1.douguo.com\/upload\/caiku\/0\/8\/4\/140_08789b6bc1f777dc5d7c43d109e0f734.jpeg",
          "image" : "https:\/\/i1.douguo.com\/upload\/caiku\/0\/8\/4\/08789b6bc1f777dc5d7c43d109e0f734.jpeg",
          "frame" : "-1",
          "position" : 3,
          "image_width" : 800,
          "image_height" : 634,
          "content" : "至两面金黄"
        },
        {
          "position" : 4,
          "image" : "https:\/\/i1.douguo.com\/upload\/caiku\/7\/6\/e\/76c2f20783ae3cb3cd1e028ff01394ee.jpeg",
          "frame" : "-1",
          "content" : "出锅",
          "image_height" : 1067,
          "image_width" : 800,
          "thumb" : "https:\/\/i1.douguo.com\/upload\/caiku\/7\/6\/e\/140_76c2f20783ae3cb3cd1e028ff01394ee.jpeg"
        },
        {
          "position" : 5,
          "image_width" : 1920,
          "thumb" : "https:\/\/i1.douguo.com\/upload\/caiku\/e\/a\/e\/140_eaf1201397deac5f6a76f4e3bb359c1e.jpeg",
          "image" : "https:\/\/i1.douguo.com\/upload\/caiku\/e\/a\/e\/eaf1201397deac5f6a76f4e3bb359c1e.jpeg",
          "image_height" : 1440,
          "content" : "黄灿灿 糯糯的",
          "frame" : "-1"
        },
        {
          "content" : "有股自然味甜",
          "frame" : "-1",
          "thumb" : "https:\/\/i1.douguo.com\/upload\/caiku\/e\/4\/3\/140_e452d5d7f5666989b7132ee83d493123.jpeg",
          "image" : "https:\/\/i1.douguo.com\/upload\/caiku\/e\/4\/3\/e452d5d7f5666989b7132ee83d493123.jpeg",
          "image_height" : 600,
          "image_width" : 800,
          "position" : 6
        },
        {
          "position" : 7,
          "frame" : "-1",
          "image_height" : 600,
          "image" : "https:\/\/i1.douguo.com\/upload\/caiku\/a\/2\/c\/a207534ae104a647f32a3e1b5687c00c.jpeg",
          "image_width" : 800,
          "thumb" : "https:\/\/i1.douguo.com\/upload\/caiku\/a\/2\/c\/140_a207534ae104a647f32a3e1b5687c00c.jpeg",
          "content" : "很简单健康"
        }
      ],
      "recipe_list_tags" : [
        {
          "background_end_color" : "#F4F5F5",
          "jump_url" : "",
          "background_start_color" : "#F4F5F5",
          "background_border_color" : "",
          "text" : "关注的人",
          "right_image" : "",
          "text_color" : "#141515"
        },
        {
          "right_image" : "",
          "text_color" : "#141515",
          "text" : "内容详细",
          "background_end_color" : "#F4F5F5",
          "background_border_color" : "",
          "jump_url" : "",
          "background_start_color" : "#F4F5F5"
        }
      ],
      "purl" : "",
      "vfurl" : "",
      "ipurl" : "",
      "author" : "Initiation",
      "rrpt" : "",
      "recommendation_tag" : "",
      "ssu" : "",
      "top_mdsp" : [

      ],
      "thumb_height" : 0,
      "cookwares" : [

      ],
      "collect_status" : 0,
      "v_u" : "",
      "recommended" : 0,
      "dish_count" : 0,
      "cook_id" : "1572736",
      "hqu" : "recipes:\/\/www.douguo.com\/notedetail?id=21162253",
      "story_dsp" : [

      ],
      "ecs" : 0,
      "vc" : "44158",
      "tips" : "里面也可以包馅儿料",
      "advice" : {
        "da" : {
          "iu" : "https:\/\/i1.douguo.com\/upload\/banner\/f\/4\/d\/f48877e53c37759bc12ac494be82ec8d.png",
          "url" : "https:\/\/m.douguo.com\/recipe\/nutrient_self\/1572736",
          "t" : "查看详细分析"
        },
        "at" : "千万不要吃胖啊～",
        "has" : [
          {
            "t" : "高热量",
            "url" : "recipes:\/\/www.douguo.com\/simplerecipelist?t=高热量&id=高热量"
          },
          {
            "url" : "recipes:\/\/www.douguo.com\/simplerecipelist?t=高脂肪&id=高脂肪",
            "t" : "高脂肪"
          }
        ]
      },
      "rpid" : 0,
      "ipoi" : "",
      "minor" : [

      ],
      "guide_image" : "",
      "image" : "http:\/\/i1.douguo.net\/upload\/caiku\/f\/4\/a\/300_f468d40cc4d50ea8c557750896db3aaa.jpeg",
      "rate" : 0,
      "clicks" : "40649",
      "cookstory" : "家里有用玉米打好的玉米粑粑，今天换个口味，用薄油煎玉米粑粑，香甜粗粮，偶尔换一换早餐的精面主食 很不错",
      "rips" : 0,
      "ipia" : [

      ],
      "dish_count_text" : "",
      "share_info" : {
        "object_id" : "1572736",
        "image" : "https:\/\/cp1.douguo.com\/upload\/caiku\/f\/4\/a\/f468d40cc4d50ea8c557750896db3aaa.jpeg",
        "s_u" : "http:\/\/m.douguo.com\/cookbook\/1572736.html",
        "mini_program" : [

        ],
        "qr_image" : "",
        "infos" : [
          {
            "mini_program" : [

            ],
            "object_id" : "1572736",
            "image" : "https:\/\/cp1.douguo.com\/upload\/caiku\/f\/4\/a\/f468d40cc4d50ea8c557750896db3aaa.jpeg",
            "channel" : "1",
            "s_u" : "",
            "s_d" : "#学做饭用豆果美食#  我在@豆果美食 分享了【香煎玉米饼-会做饭很酷!】，制作美食的过程承载了我生活中的热情，和我一起感受这份小确幸吧！查看图片了解菜谱（你喜欢的美食都在这里！https:\/\/m.weibo.cn\/p\/100404i33631）#会做饭很酷# ",
            "qr_image" : "",
            "name" : "香煎玉米饼-会做饭很酷!"
          },
          {
            "qr_image" : "",
            "s_d" : "香煎玉米饼-会做饭很酷!",
            "image" : "https:\/\/cp1.douguo.com\/upload\/caiku\/f\/4\/a\/f468d40cc4d50ea8c557750896db3aaa.jpeg",
            "object_id" : "1572736",
            "name" : "香煎玉米饼-会做饭很酷!",
            "s_u" : "http:\/\/m.douguo.com\/cookbook\/1572736.html",
            "mini_program" : [

            ],
            "channel" : "7"
          },
          {
            "object_id" : "1572736",
            "mini_program" : [

            ],
            "name" : "香煎玉米饼-会做饭很酷!",
            "qr_image" : "",
            "s_u" : "http:\/\/m.douguo.com\/cookbook\/1572736.html",
            "image" : "https:\/\/cp1.douguo.com\/upload\/caiku\/f\/4\/a\/f468d40cc4d50ea8c557750896db3aaa.jpeg",
            "s_d" : "香煎玉米饼-会做饭很酷!",
            "channel" : "8"
          }
        ],
        "name" : "香煎玉米饼-会做饭很酷!",
        "s_d" : "香煎玉米饼-会做饭很酷!"
      },
      "major" : [
        {
          "title" : "玉米粑粑（直接用玉米打好的类似于汤圆的粑粑）",
          "note" : ""
        },
        {
          "title" : "白芝麻少许",
          "note" : ""
        },
        {
          "note" : "",
          "tu" : "https:\/\/m.douguo.com\/ingredients\/油\/detailmaterial",
          "title" : "油"
        }
      ],
      "packages_id" : [

      ],
      "sc" : 0,
      "recipe_tags" : [

      ],
      "cookstorys" : [
        {
          "type" : 0,
          "color" : "",
          "icon" : "",
          "c" : "家里有用玉米打好的玉米粑粑，今天换个口味，用薄油煎玉米粑粑，香甜粗粮，偶尔换一换早餐的精面主食 很不错",
          "id" : 0,
          "u" : ""
        }
      ],
      "related_ads" : [

      ],
      "thumb_path" : "https:\/\/i1.douguo.com\/upload\/caiku\/f\/4\/a\/300_f468d40cc4d50ea8c557750896db3aaa.jpeg",
      "rpst" : "",
      "eu" : "recipes:\/\/www.douguo.com\/postdetail?id=242016",
      "pw" : 800,
      "views_count_text" : "4.4万",
      "recommend_label" : "4.4万人看过",
      "ipci" : "",
      "favo_counts_text" : "182",
      "brand_day_dsp" : [

      ],
      "title_ad" : [

      ],
      "rewarded_video_dsp" : [

      ],
      "levelid" : 3,
      "cook_time_image" : "",
      "author_id" : 9776570,
      "tags" : [

      ],
      "comments" : [
        "{\n    ac = \"#999999\";\n    at = \"\";\n    ccc = 1;\n    \"child_comments\" =     (\n                {\n            ac = \"#999999\";\n            at = \"\";\n            ccc = 0;\n            city = \"\";\n            cmc = 2;\n            content =             (\n                                {\n                    c = \" \";\n                }\n            );\n            ia = 1;\n            id = 4877943;\n            \"ip_address_location\" = \"\";\n            like = 0;\n            \"like_count\" = 0;\n            \"reply_id\" = 4877834;\n            \"reply_user\" =             {\n                \"followers_count_text\" = \"\";\n                id = 18574274;\n                \"is_prime\" = 0;\n                lv = 0;\n                lvl = 4;\n                n = \"\\U5218\\U9093\\U667a\\U96c4\";\n                p = \"http:\/\/tx1.douguo.net\/upload\/photo\/e\/a\/2\/70_u22273740612860409002026.jpg\";\n                \"progress_image\" = \"\";\n                \"recipes_count_text\" = \"\";\n                relationship = \"-1\";\n                title = \"\";\n                v = 0;\n                \"verified_image\" = \"\";\n            };\n            \"sticker_icon\" =             (\n            );\n            time = \"2017-07-01 04:33:43\";\n            u =             {\n                \"followers_count_text\" = \"\";\n                id = 9776570;\n                \"is_prime\" = 0;\n                lv = 0;\n                lvl = 6;\n                n = Initiation;\n                p = \"http:\/\/tx1.douguo.net\/upload\/photo\/8\/b\/d\/70_u33770010802838155251.jpeg\";\n                \"progress_image\" = \"\";\n                \"recipes_count_text\" = \"\";\n                relationship = \"-1\";\n                title = \"\";\n                v = 1;\n                \"verified_image\" = \"\";\n            };\n        }\n    );\n    city = \"\";\n    cmc = 2;\n    content =     (\n                {\n            c = \"\\U505a\\U5b8c\\U4e86\\U5bb6\\U4eba\\U80af\\U5b9a\\U559c\\U6b22\";\n        }\n    );\n    ia = 0;\n    id = 4877834;\n    \"ip_address_location\" = \"\";\n    like = 0;\n    \"like_count\" = 0;\n    \"reply_id\" = 0;\n    \"sticker_icon\" =     (\n    );\n    time = \"2017-07-01 04:07:05\";\n    u =     {\n        \"followers_count_text\" = \"\";\n        id = 18574274;\n        \"is_prime\" = 0;\n        lv = 0;\n        lvl = 4;\n        n = \"\\U5218\\U9093\\U667a\\U96c4\";\n        p = \"http:\/\/tx1.douguo.net\/upload\/photo\/e\/a\/2\/70_u22273740612860409002026.jpg\";\n        \"progress_image\" = \"\";\n        \"recipes_count_text\" = \"\";\n        relationship = \"-1\";\n        title = \"\";\n        v = 0;\n        \"verified_image\" = \"\";\n    };\n}",
        "{\n    ac = \"#999999\";\n    at = \"\";\n    ccc = 0;\n    \"child_comments\" =     (\n    );\n    city = \"\";\n    cmc = 2;\n    content =     (\n                {\n            c = \"\\U6bcf\\U6b21\\U4e0b\\U53a8\\U623f\\U90fd\\U50cf\\U5728\\U5386\\U52ab\\U3002\\U3002\\U3002\\U8fd9\\U6b21\\U5b66\\U8fd9\\U9053\\U83dc\\U4e5f\\U4e0d\\U4f8b\\U5916\\U3002\\U3002\\U3002\\U6211\\U5bf9\\U4e0d\\U8d77\\U4eb2\\U7528\\U5fc3\\U7684\\U5206\\U4eab\\U83dc\\U8c31\";\n        }\n    );\n    ia = 0;\n    id = 7165350;\n    \"ip_address_location\" = \"\";\n    like = 0;\n    \"like_count\" = 0;\n    \"reply_id\" = 0;\n    \"sticker_icon\" =     (\n    );\n    time = \"2019-10-11 07:18:27\";\n    u =     {\n        \"followers_count_text\" = \"\";\n        id = 18443183;\n        \"is_prime\" = 0;\n        lv = 0;\n        lvl = 4;\n        n = lisap6;\n        p = \"http:\/\/tx1.douguo.net\/upload\/photo\/b\/b\/a\/70_u10177416737960408114239.jpg\";\n        \"progress_image\" = \"\";\n        \"recipes_count_text\" = \"\";\n        relationship = \"-1\";\n        title = \"\";\n        v = 0;\n        \"verified_image\" = \"\";\n    };\n}"
      ],
      "bs" : [

      ],
      "photo_path" : "https:\/\/i1.douguo.com\/upload\/caiku\/f\/4\/a\/600_f468d40cc4d50ea8c557750896db3aaa.jpeg",
      "rate_show" : 0,
      "notes" : [

      ],
      "release_time" : "",
      "rpt" : "",
      "sr" : "",
      "mid_mdsp" : [

      ],
      "favo_counts" : 182,
      "rcs" : [

      ],
      "vu" : "",
      "first_level_comment_count" : 2,
      "rate_count" : 0,
      "author_verified" : 1,
      "display_ingredient" : 1,
      "su" : "",
      "comments_count_text" : "3",
      "cook_difficulty_image" : "",
      "rdsps" : [

      ],
      "rsm" : "该功能暂停使用",
      "btm_dsp" : [

      ],
      "act_des" : "",
      "user" : {
        "lv" : 0,
        "coursecount" : 0,
        "user_photo" : "http:\/\/tx1.douguo.net\/upload\/photo\/8\/b\/d\/70_u33770010802838155251.jpeg",
        "userid" : "9776570",
        "age" : "",
        "birthday" : "",
        "weibo_nick" : "",
        "progress_image" : "",
        "diaries_count" : 0,
        "pc" : 0,
        "mobile" : "",
        "fc" : 0,
        "following_count" : 0,
        "point" : 0,
        "favorites_count" : 0,
        "favor_diaries_count" : 0,
        "is_prime" : 0,
        "subscription" : 0,
        "verified" : 1,
        "avatar_medium" : "http:\/\/tx1.douguo.net\/upload\/photo\/8\/b\/d\/140_u33770010802838155251.jpeg",
        "sign" : "",
        "qq_weibo_nick" : "",
        "user_large_photo" : "http:\/\/tx1.douguo.net\/upload\/photo\/8\/b\/d\/yuan_u33770010802838155251.jpeg",
        "verified_url" : "https:\/\/m.douguo.com\/user\/prodesc",
        "setted_email" : 0,
        "location" : 0,
        "user_cover" : "",
        "followers_count" : 0,
        "introduction" : "",
        "lvl" : 6,
        "gender" : 2,
        "qzone_nick" : "",
        "recipes_count" : 0,
        "nick" : "Initiation",
        "regist_time" : "",
        "email" : "",
        "subscription_article_count" : 0,
        "dishes_count" : 0,
        "verified_image" : "https:\/\/i1.douguo.com\/upload\/note\/d\/a\/a\/da84247847aebe48d9dd0fcdac88862a.png",
        "user_id" : "9776570"
      },
      "create_time" : "2017-07-01 09:55:27",
      "comments_count" : 3,
      "ss" : [

      ],
      "dishes" : [

      ],
      "title" : "香煎玉米饼",
      "hq" : 0,
      "author_photo" : "http:\/\/tx1.douguo.net\/upload\/photo\/8\/b\/d\/70_u33770010802838155251.jpeg",
      "original_photo_path" : "http:\/\/i1.douguo.net\/upload\/caiku\/f\/4\/a\/yuan_f468d40cc4d50ea8c557750896db3aaa.jpeg",
      "cook_time" : ""
    }
  },
  "status" : 0
}