{
  "result" : {
    "recipe" : {
      "rdsps" : [

      ],
      "cook_time_image" : "https:\/\/i1.douguo.com\/upload\/banner\/1551424341.png",
      "dish_count" : 2,
      "photo_path" : "https:\/\/i1.douguo.com\/upload\/caiku\/0\/d\/8\/600_0df1dc9b5f3ad53129662e0373254998.jpg",
      "levelid" : 3,
      "comments_count_text" : "2",
      "act_des" : "",
      "ipurl" : "",
      "clicks" : "20540",
      "rips" : 0,
      "rpt" : "",
      "top_mdsp" : [

      ],
      "cook_difficulty_image" : "https:\/\/i1.douguo.com\/upload\/banner\/1551424413.png",
      "hqu" : "recipes:\/\/www.douguo.com\/notedetail?id=21162253",
      "purl" : "",
      "favo_counts" : 151,
      "cookwares" : [

      ],
      "ph" : 1067,
      "packages_id" : [

      ],
      "minor" : [

      ],
      "rrps" : [

      ],
      "rsm" : "该功能暂停使用",
      "cook_difficulty" : "配菜(中级)",
      "first_level_comment_count" : 1,
      "story_dsp" : [

      ],
      "recipe_list_tags" : [

      ],
      "cook_time" : "10-30分钟",
      "btm_dsp" : [

      ],
      "pw" : 800,
      "vc" : "23111",
      "cookstory" : "连着吃了好几天，导致宝宝脸上长湿疹（还在哺乳期），今年最后一次吃了！",
      "cookstorys" : [
        {
          "c" : "连着吃了好几天，导致宝宝脸上长湿疹（还在哺乳期），今年最后一次吃了！",
          "icon" : "",
          "u" : "",
          "type" : 0,
          "color" : "",
          "id" : 0
        }
      ],
      "thumb_height" : 0,
      "thumb_path" : "https:\/\/i1.douguo.com\/upload\/caiku\/0\/d\/8\/300_0df1dc9b5f3ad53129662e0373254998.jpg",
      "author_id" : 2946486,
      "v_u" : "",
      "cookstep" : [
        {
          "image" : "https:\/\/i1.douguo.com\/upload\/caiku\/4\/4\/e\/443f847aa4110510c3430ef5f9a4cbae.jpg",
          "content" : "龙虾处理好，清洗干净，虾黄一定要留着！",
          "image_height" : 1067,
          "position" : 1,
          "frame" : "-1",
          "thumb" : "https:\/\/i1.douguo.com\/upload\/caiku\/4\/4\/e\/140_443f847aa4110510c3430ef5f9a4cbae.jpg",
          "image_width" : 800
        },
        {
          "position" : 2,
          "image_height" : 0,
          "frame" : "-1",
          "thumb" : "",
          "image_width" : 0,
          "image" : "",
          "content" : "葱姜蒜，尖椒切好，拿一个碗，放入蚝油，生抽，白酒，白糖，十三香！"
        },
        {
          "position" : 3,
          "frame" : "-1",
          "content" : "锅里放油，油热加入龙虾，炒至龙虾基本都红了，把龙虾扒开，再少加点油，油里加入葱姜蒜、尖椒、花椒，炒均匀。再把龙虾扒开加入豆瓣酱，最后加入调好的汁！加水，基本淹过龙虾，大火烧开后尝下味道，淡了就加点豆瓣酱，改小火五分钟后再大火收下汁！喜欢用汁拌饭的可以多留些汁！",
          "image" : "",
          "image_width" : 0,
          "image_height" : 0,
          "thumb" : ""
        }
      ],
      "recommendation_tag" : "",
      "author_photo" : "http:\/\/tx1.douguo.net\/upload\/photo\/5\/a\/c\/70_u73275373340695145433.jpg",
      "rate_count" : 0,
      "rate" : 0,
      "rewarded_video_dsp" : [

      ],
      "ecs" : 0,
      "ipoi" : "",
      "release_time" : "",
      "comments_count" : 2,
      "rate_show" : 0,
      "rrpt" : "",
      "display_ingredient" : 1,
      "ipci" : "",
      "old_comments" : [

      ],
      "dishes" : [

      ],
      "eu" : "recipes:\/\/www.douguo.com\/postdetail?id=242016",
      "bs" : [

      ],
      "vu" : "",
      "sr" : "",
      "author" : "天天茹奇",
      "major" : [
        {
          "tu" : "https:\/\/m.douguo.com\/ingredients\/龙虾\/detailmaterial",
          "title" : "龙虾",
          "note" : "两斤"
        },
        {
          "tu" : "https:\/\/m.douguo.com\/ingredients\/大葱\/detailmaterial",
          "note" : "适量",
          "title" : "大葱"
        },
        {
          "title" : "老姜",
          "note" : "适量"
        },
        {
          "title" : "蒜瓣",
          "tu" : "https:\/\/m.douguo.com\/ingredients\/蒜瓣\/detailmaterial",
          "note" : "五六瓣"
        },
        {
          "title" : "红尖椒",
          "note" : "少许"
        },
        {
          "tu" : "https:\/\/m.douguo.com\/ingredients\/花椒\/detailmaterial",
          "note" : "十粒左右",
          "title" : "花椒"
        },
        {
          "title" : "蚝油",
          "tu" : "https:\/\/m.douguo.com\/ingredients\/蚝油\/detailmaterial",
          "note" : "一大勺"
        },
        {
          "tu" : "https:\/\/m.douguo.com\/ingredients\/白糖\/detailmaterial",
          "note" : "少许",
          "title" : "白糖"
        },
        {
          "title" : "白酒",
          "note" : "一大勺"
        },
        {
          "title" : "老抽",
          "tu" : "https:\/\/m.douguo.com\/ingredients\/老抽\/detailmaterial",
          "note" : "少许"
        },
        {
          "note" : "一小勺",
          "tu" : "https:\/\/m.douguo.com\/ingredients\/十三香\/detailmaterial",
          "title" : "十三香"
        },
        {
          "note" : "一大勺",
          "tu" : "https:\/\/m.douguo.com\/ingredients\/豆瓣酱\/detailmaterial",
          "title" : "豆瓣酱"
        }
      ],
      "ipia" : [

      ],
      "advice" : {
        "has" : [
          {
            "t" : "低脂",
            "url" : "recipes:\/\/www.douguo.com\/simplerecipelist?t=低脂&id=低脂"
          },
          {
            "t" : "低糖",
            "url" : "recipes:\/\/www.douguo.com\/simplerecipelist?t=低糖&id=低糖"
          }
        ],
        "da" : {
          "t" : "查看详细分析",
          "iu" : "https:\/\/i1.douguo.com\/upload\/banner\/f\/4\/d\/f48877e53c37759bc12ac494be82ec8d.png",
          "url" : "https:\/\/m.douguo.com\/recipe\/nutrient_self\/1193447"
        },
        "at" : "健身人群可以吃～"
      },
      "cook_id" : "1193447",
      "mid_mdsp" : [

      ],
      "user" : {
        "weibo_nick" : "",
        "is_prime" : 0,
        "qq_weibo_nick" : "",
        "avatar_medium" : "http:\/\/tx1.douguo.net\/upload\/photo\/5\/a\/c\/140_u73275373340695145433.jpg",
        "mobile" : "",
        "sign" : "",
        "fc" : 0,
        "setted_email" : 0,
        "qzone_nick" : "",
        "email" : "",
        "nick" : "天天茹奇",
        "diaries_count" : 0,
        "dishes_count" : 0,
        "favorites_count" : 0,
        "lvl" : 2,
        "age" : "",
        "subscription_article_count" : 0,
        "coursecount" : 0,
        "subscription" : 0,
        "lv" : 0,
        "verified_url" : "https:\/\/m.douguo.com\/user\/prodesc",
        "point" : 0,
        "followers_count" : 0,
        "user_id" : "2946486",
        "recipes_count" : 0,
        "pc" : 0,
        "userid" : "2946486",
        "user_large_photo" : "http:\/\/tx1.douguo.net\/upload\/photo\/5\/a\/c\/yuan_u73275373340695145433.jpg",
        "verified" : 0,
        "verified_image" : "",
        "regist_time" : "",
        "progress_image" : "",
        "following_count" : 0,
        "location" : 0,
        "birthday" : "",
        "user_cover" : "",
        "gender" : 2,
        "user_photo" : "http:\/\/tx1.douguo.net\/upload\/photo\/5\/a\/c\/70_u73275373340695145433.jpg",
        "favor_diaries_count" : 0,
        "introduction" : ""
      },
      "recommended" : 0,
      "ipit" : 0,
      "create_time" : "2015-06-06 14:09:37",
      "guide_image" : "",
      "image" : "http:\/\/i1.douguo.net\/upload\/caiku\/0\/d\/8\/300_0df1dc9b5f3ad53129662e0373254998.jpg",
      "tips" : "此菜谱不用加盐和鸡精的哦！",
      "ssu" : "",
      "title" : "香辣龙虾",
      "title_ad" : [

      ],
      "brand_day_dsp" : [

      ],
      "rpst" : "",
      "rcs" : [

      ],
      "author_verified" : 0,
      "related_ads" : [

      ],
      "vfurl" : "",
      "ipt" : "",
      "ss" : [

      ],
      "favo_counts_text" : "151",
      "su" : "",
      "dish_count_text" : "2",
      "hq" : 0,
      "share_info" : {
        "image" : "https:\/\/cp1.douguo.com\/upload\/caiku\/0\/d\/8\/0df1dc9b5f3ad53129662e0373254998.jpg",
        "mini_program" : [

        ],
        "infos" : [
          {
            "s_d" : "#学做饭用豆果美食# 我在@豆果美食 分享了【香辣龙虾-会做饭很酷!】，色香味俱全说的就是这道菜！查看图片了解菜谱（快来点击https:\/\/m.weibo.cn\/p\/100404i33631和我一起修炼厨艺吧）#会做饭很酷# ",
            "s_u" : "",
            "image" : "https:\/\/cp1.douguo.com\/upload\/caiku\/0\/d\/8\/0df1dc9b5f3ad53129662e0373254998.jpg",
            "object_id" : "1193447",
            "mini_program" : [

            ],
            "name" : "香辣龙虾-会做饭很酷!",
            "qr_image" : "",
            "channel" : "1"
          },
          {
            "mini_program" : [

            ],
            "qr_image" : "",
            "image" : "https:\/\/cp1.douguo.com\/upload\/caiku\/0\/d\/8\/0df1dc9b5f3ad53129662e0373254998.jpg",
            "name" : "香辣龙虾-会做饭很酷!",
            "s_u" : "http:\/\/m.douguo.com\/cookbook\/1193447.html",
            "s_d" : "香辣龙虾-会做饭很酷!",
            "channel" : "7",
            "object_id" : "1193447"
          },
          {
            "channel" : "8",
            "qr_image" : "",
            "object_id" : "1193447",
            "image" : "https:\/\/cp1.douguo.com\/upload\/caiku\/0\/d\/8\/0df1dc9b5f3ad53129662e0373254998.jpg",
            "s_u" : "http:\/\/m.douguo.com\/cookbook\/1193447.html",
            "s_d" : "香辣龙虾-会做饭很酷!",
            "mini_program" : [

            ],
            "name" : "香辣龙虾-会做饭很酷!"
          }
        ],
        "qr_image" : "",
        "s_u" : "http:\/\/m.douguo.com\/cookbook\/1193447.html",
        "name" : "香辣龙虾-会做饭很酷!",
        "object_id" : "1193447",
        "s_d" : "香辣龙虾-会做饭很酷!"
      },
      "recent_comments" : [

      ],
      "recipe_tags" : [

      ],
      "tags" : [
        "{\n    text = \"\\U5bb6\\U5e38\\U83dc\";\n}",
        "{\n    text = \"\\U6c34\\U4ea7\";\n}",
        "{\n    text = \"\\U7092\";\n}",
        "{\n    text = \"\\U9999\\U8fa3\";\n}",
        "{\n    text = \"\\U5348\\U9910\";\n}",
        "{\n    text = \"\\U665a\\U9910\";\n}"
      ],
      "recommend_label" : "2人学做",
      "sc" : 0,
      "comments" : [
        "{\n    ac = \"#999999\";\n    at = \"\";\n    ccc = 1;\n    \"child_comments\" =     (\n                {\n            ac = \"#999999\";\n            at = \"\";\n            ccc = 0;\n            city = \"\";\n            cmc = 2;\n            content =             (\n                                {\n                    c = \" \\U5e94\\U8be5\\U6ca1\\U4e8b\\Uff0c\\U6211\\U6000\\U5b55\\U65f6\\U8fd8\\U5403\\U4e86\\U8783\\U87f9\\U5462\\Uff01\\U5c11\\U5403\\U70b9\\U6ca1\\U5173\\U7cfb\\Uff01\";\n                }\n            );\n            ia = 1;\n            id = 2328857;\n            \"ip_address_location\" = \"\";\n            like = 0;\n            \"like_count\" = 0;\n            \"reply_id\" = 2327242;\n            \"reply_user\" =             {\n                \"followers_count_text\" = \"\";\n                id = 8130281;\n                \"is_prime\" = 0;\n                lv = 0;\n                lvl = 2;\n                n = \"\\U5c0f\\U732b\\U54aa58\";\n                p = \"http:\/\/tx1.douguo.net\/upload\/photo\/9\/c\/1\/70_u23236410610325160302.jpeg\";\n                \"progress_image\" = \"\";\n                \"recipes_count_text\" = \"\";\n                relationship = \"-1\";\n                title = \"\";\n                v = 0;\n                \"verified_image\" = \"\";\n            };\n            \"sticker_icon\" =             (\n            );\n            time = \"2015-06-06 23:38:04\";\n            u =             {\n                \"followers_count_text\" = \"\";\n                id = 2946486;\n                \"is_prime\" = 0;\n                lv = 0;\n                lvl = 2;\n                n = \"\\U5929\\U5929\\U8339\\U5947\";\n                p = \"http:\/\/tx1.douguo.net\/upload\/photo\/5\/a\/c\/70_u73275373340695145433.jpg\";\n                \"progress_image\" = \"\";\n                \"recipes_count_text\" = \"\";\n                relationship = \"-1\";\n                title = \"\";\n                v = 0;\n                \"verified_image\" = \"\";\n            };\n        }\n    );\n    city = \"\";\n    cmc = 2;\n    content =     (\n                {\n            c = \"\\U6000\\U5b55\\U53ef\\U4ee5\\U5403\\U5417\";\n        }\n    );\n    ia = 0;\n    id = 2327242;\n    \"ip_address_location\" = \"\";\n    like = 0;\n    \"like_count\" = 0;\n    \"reply_id\" = 0;\n    \"sticker_icon\" =     (\n    );\n    time = \"2015-06-06 08:51:06\";\n    u =     {\n        \"followers_count_text\" = \"\";\n        id = 8130281;\n        \"is_prime\" = 0;\n        lv = 0;\n        lvl = 2;\n        n = \"\\U5c0f\\U732b\\U54aa58\";\n        p = \"http:\/\/tx1.douguo.net\/upload\/photo\/9\/c\/1\/70_u23236410610325160302.jpeg\";\n        \"progress_image\" = \"\";\n        \"recipes_count_text\" = \"\";\n        relationship = \"-1\";\n        title = \"\";\n        v = 0;\n        \"verified_image\" = \"\";\n    };\n}"
      ],
      "original_photo_path" : "http:\/\/i1.douguo.net\/upload\/caiku\/0\/d\/8\/yuan_0df1dc9b5f3ad53129662e0373254998.jpg",
      "notes" : [

      ],
      "views_count_text" : "2.3万",
      "rpid" : 0,
      "collect_status" : 0
    }
  },
  "status" : 0,
  "state" : "success"
}