{
  "result" : {
    "recipe" : {
      "title_ad" : [

      ],
      "tags" : [
        "{\n    text = \"\\U5bb6\\U5e38\\U83dc\";\n}",
        "{\n    text = \"\\U4e0b\\U996d\\U83dc\";\n}",
        "{\n    text = \"\\U5feb\\U624b\\U83dc\";\n}",
        "{\n    text = \"\\U7092\";\n}",
        "{\n    text = \"\\U716e\";\n}",
        "{\n    text = \"\\U7116\";\n}",
        "{\n    text = \"\\U7096\";\n}",
        "{\n    text = \"\\U54b8\";\n}",
        "{\n    text = \"\\U9999\";\n}",
        "{\n    text = \"\\U5348\\U9910\";\n}",
        "{\n    text = \"\\U5355\\U8eab\\U98df\\U8c31\";\n}",
        "{\n    text = \"\\U4e00\\U5bb6\\U4e09\\U53e3\";\n}"
      ],
      "ecs" : 0,
      "mid_mdsp" : [

      ],
      "ipia" : [

      ],
      "rate_show" : 0,
      "eu" : "recipes:\/\/www.douguo.com\/postdetail?id=242016",
      "notes" : [

      ],
      "rsm" : "该功能暂停使用",
      "rpid" : 0,
      "sr" : "",
      "dish_count_text" : "6",
      "old_comments" : [

      ],
      "cook_difficulty_image" : "https:\/\/i1.douguo.com\/upload\/banner\/1551424390.png",
      "views_count_text" : "9.6万",
      "recommended" : 0,
      "guide_image" : "",
      "cookstep" : [
        {
          "thumb" : "https:\/\/i1.douguo.com\/upload\/caiku\/5\/3\/1\/140_53a3f7009a9970985da6f18a59d1bec1.jpeg",
          "content" : "热油锅里加入八角爆香。",
          "position" : 1,
          "image" : "https:\/\/i1.douguo.com\/upload\/caiku\/5\/3\/1\/53a3f7009a9970985da6f18a59d1bec1.jpeg",
          "image_height" : 983,
          "image_width" : 800,
          "frame" : "-1"
        },
        {
          "thumb" : "https:\/\/i1.douguo.com\/upload\/caiku\/5\/b\/7\/140_5be30184c8b137a39f05231622b3a2e7.jpeg",
          "image_width" : 800,
          "image" : "https:\/\/i1.douguo.com\/upload\/caiku\/5\/b\/7\/5be30184c8b137a39f05231622b3a2e7.jpeg",
          "frame" : "-1",
          "content" : "放入茭白煸炒约8分钟。",
          "image_height" : 964,
          "position" : 2
        },
        {
          "image_height" : 1067,
          "content" : "茭白煸炒至表面微微起皱。",
          "image" : "https:\/\/i1.douguo.com\/upload\/caiku\/9\/b\/0\/9b5c4ecaaec6cd5ecbc41024319eb570.jpeg",
          "thumb" : "https:\/\/i1.douguo.com\/upload\/caiku\/9\/b\/0\/140_9b5c4ecaaec6cd5ecbc41024319eb570.jpeg",
          "position" : 3,
          "frame" : "-1",
          "image_width" : 800
        },
        {
          "position" : 4,
          "content" : "捞出八角，加入生抽糖调味后加入适量水，盖上锅盖焖炖约5分钟。",
          "image_height" : 1067,
          "frame" : "-1",
          "image_width" : 800,
          "thumb" : "https:\/\/i1.douguo.com\/upload\/caiku\/7\/d\/8\/140_7d38c881172974caa8eafa8966d37a58.jpeg",
          "image" : "https:\/\/i1.douguo.com\/upload\/caiku\/7\/d\/8\/7d38c881172974caa8eafa8966d37a58.jpeg"
        },
        {
          "image_width" : 800,
          "position" : 5,
          "image_height" : 1067,
          "image" : "https:\/\/i1.douguo.com\/upload\/caiku\/d\/3\/f\/d3f9dd49b64ae9e7e75d20326b77593f.jpeg",
          "thumb" : "https:\/\/i1.douguo.com\/upload\/caiku\/d\/3\/f\/140_d3f9dd49b64ae9e7e75d20326b77593f.jpeg",
          "content" : "收汁撒上小葱碎即可出锅。",
          "frame" : "-1"
        }
      ],
      "v_u" : "",
      "image" : "http:\/\/i1.douguo.net\/upload\/caiku\/0\/8\/6\/300_08dd38cdc0dda4193347ac406cbf5576.jpeg",
      "ph" : 600,
      "rpt" : "",
      "btm_dsp" : [

      ],
      "rrps" : [

      ],
      "title" : "油焖茭白",
      "rcs" : [

      ],
      "photo_path" : "https:\/\/i1.douguo.com\/upload\/caiku\/0\/8\/6\/600_08dd38cdc0dda4193347ac406cbf5576.jpeg",
      "related_ads" : [

      ],
      "user" : {
        "user_large_photo" : "http:\/\/tx1.douguo.net\/upload\/photo\/9\/7\/e\/yuan_u34142933693023020006.jpeg",
        "user_id" : "9842940",
        "age" : "",
        "is_prime" : 0,
        "verified_image" : "",
        "location" : 0,
        "followers_count" : 0,
        "email" : "",
        "nick" : "巨蟹的厨房",
        "favorites_count" : 0,
        "weibo_nick" : "",
        "introduction" : "",
        "recipes_count" : 0,
        "gender" : 2,
        "regist_time" : "",
        "mobile" : "",
        "following_count" : 0,
        "avatar_medium" : "http:\/\/tx1.douguo.net\/upload\/photo\/9\/7\/e\/140_u34142933693023020006.jpeg",
        "fc" : 0,
        "progress_image" : "",
        "favor_diaries_count" : 0,
        "dishes_count" : 0,
        "subscription" : 0,
        "birthday" : "",
        "user_cover" : "",
        "point" : 0,
        "lvl" : 6,
        "userid" : "9842940",
        "verified_url" : "https:\/\/m.douguo.com\/user\/prodesc",
        "sign" : "",
        "user_photo" : "http:\/\/tx1.douguo.net\/upload\/photo\/9\/7\/e\/70_u34142933693023020006.jpeg",
        "subscription_article_count" : 0,
        "qq_weibo_nick" : "",
        "pc" : 0,
        "coursecount" : 0,
        "lv" : 0,
        "setted_email" : 0,
        "verified" : 0,
        "diaries_count" : 0,
        "qzone_nick" : ""
      },
      "ipt" : "",
      "brand_day_dsp" : [

      ],
      "thumb_path" : "https:\/\/i1.douguo.com\/upload\/caiku\/0\/8\/6\/300_08dd38cdc0dda4193347ac406cbf5576.jpeg",
      "share_info" : {
        "name" : "油焖茭白-会做饭很酷!",
        "object_id" : "1376897",
        "mini_program" : [

        ],
        "image" : "https:\/\/cp1.douguo.com\/upload\/caiku\/0\/8\/6\/08dd38cdc0dda4193347ac406cbf5576.jpeg",
        "qr_image" : "",
        "infos" : [
          {
            "qr_image" : "",
            "s_d" : "#学做饭用豆果美食# 我在@豆果美食 分享了【油焖茭白-会做饭很酷!】，色香味俱全说的就是这道菜！查看图片了解菜谱（快来点击https:\/\/m.weibo.cn\/p\/100404i33631和我一起修炼厨艺吧）#会做饭很酷# ",
            "s_u" : "",
            "channel" : "1",
            "image" : "https:\/\/cp1.douguo.com\/upload\/caiku\/0\/8\/6\/08dd38cdc0dda4193347ac406cbf5576.jpeg",
            "mini_program" : [

            ],
            "object_id" : "1376897",
            "name" : "油焖茭白-会做饭很酷!"
          },
          {
            "s_d" : "油焖茭白-会做饭很酷!",
            "qr_image" : "",
            "mini_program" : [

            ],
            "s_u" : "http:\/\/m.douguo.com\/cookbook\/1376897.html",
            "channel" : "7",
            "image" : "https:\/\/cp1.douguo.com\/upload\/caiku\/0\/8\/6\/08dd38cdc0dda4193347ac406cbf5576.jpeg",
            "object_id" : "1376897",
            "name" : "油焖茭白-会做饭很酷!"
          },
          {
            "name" : "油焖茭白-会做饭很酷!",
            "qr_image" : "",
            "s_u" : "http:\/\/m.douguo.com\/cookbook\/1376897.html",
            "object_id" : "1376897",
            "mini_program" : [

            ],
            "s_d" : "油焖茭白-会做饭很酷!",
            "channel" : "8",
            "image" : "https:\/\/cp1.douguo.com\/upload\/caiku\/0\/8\/6\/08dd38cdc0dda4193347ac406cbf5576.jpeg"
          }
        ],
        "s_d" : "油焖茭白-会做饭很酷!",
        "s_u" : "http:\/\/m.douguo.com\/cookbook\/1376897.html"
      },
      "cookstorys" : [

      ],
      "vc" : "95709",
      "favo_counts_text" : "986",
      "packages_id" : [

      ],
      "original_photo_path" : "http:\/\/i1.douguo.net\/upload\/caiku\/0\/8\/6\/yuan_08dd38cdc0dda4193347ac406cbf5576.jpeg",
      "major" : [
        {
          "title" : "茭白",
          "tu" : "https:\/\/m.douguo.com\/ingredients\/茭白\/detailmaterial",
          "note" : "5个"
        },
        {
          "note" : "两粒",
          "title" : "八角",
          "tu" : "https:\/\/m.douguo.com\/ingredients\/八角\/detailmaterial"
        },
        {
          "note" : "适量",
          "title" : "生抽",
          "tu" : "https:\/\/m.douguo.com\/ingredients\/生抽\/detailmaterial"
        },
        {
          "tu" : "https:\/\/m.douguo.com\/ingredients\/糖\/detailmaterial",
          "title" : "糖",
          "note" : "少许"
        },
        {
          "title" : "小葱",
          "tu" : "https:\/\/m.douguo.com\/ingredients\/小葱\/detailmaterial",
          "note" : "少许"
        }
      ],
      "ipit" : 0,
      "author_photo" : "http:\/\/tx1.douguo.net\/upload\/photo\/9\/7\/e\/70_u34142933693023020006.jpeg",
      "thumb_height" : 0,
      "create_time" : "2016-05-13 01:21:15",
      "comments_count" : 3,
      "hq" : 1,
      "recent_comments" : [

      ],
      "recommend_label" : "6人学做",
      "rdsps" : [

      ],
      "cookwares" : [

      ],
      "ipci" : "",
      "ssu" : "",
      "dishes" : [

      ],
      "tips" : "",
      "act_des" : "",
      "rrpt" : "",
      "vu" : "",
      "advice" : {
        "da" : {
          "t" : "查看详细分析",
          "url" : "https:\/\/m.douguo.com\/recipe\/nutrient_self\/1376897",
          "iu" : "https:\/\/i1.douguo.com\/upload\/banner\/f\/4\/d\/f48877e53c37759bc12ac494be82ec8d.png"
        },
        "has" : [
          {
            "t" : "低脂",
            "url" : "recipes:\/\/www.douguo.com\/simplerecipelist?t=低脂&id=低脂"
          },
          {
            "t" : "高盐",
            "url" : "recipes:\/\/www.douguo.com\/simplerecipelist?t=高盐&id=高盐"
          }
        ],
        "at" : "能有效控制体重～"
      },
      "favo_counts" : 986,
      "su" : "",
      "bs" : [

      ],
      "vfurl" : "",
      "recommendation_tag" : "",
      "display_ingredient" : 1,
      "recipe_tags" : [

      ],
      "rips" : 0,
      "first_level_comment_count" : 1,
      "comments" : [
        "{\n    ac = \"#999999\";\n    at = \"\";\n    ccc = 2;\n    \"child_comments\" =     (\n                {\n            ac = \"#999999\";\n            at = \"\";\n            ccc = 0;\n            city = \"\";\n            cmc = 2;\n            content =             (\n                                {\n                    c = \" \\U597d\\U51e0\\U4e2a\\U83dc\\U54c1\\U90fd\\U6709\\U4f60\\U7684\\U8bc4\\U8bba\\Uff0c\\U597d\\U6367\\U573a\";\n                }\n            );\n            ia = 0;\n            id = 3458528;\n            \"ip_address_location\" = \"\";\n            like = 0;\n            \"like_count\" = 0;\n            \"reply_id\" = 3456589;\n            \"reply_user\" =             {\n                \"followers_count_text\" = \"\";\n                id = 17150353;\n                \"is_prime\" = 0;\n                lv = 0;\n                lvl = 6;\n                n = \"\\U5948\\U826f\\U5c0f\\U9e7f\";\n                p = \"http:\/\/tx1.douguo.net\/upload\/photo\/6\/a\/3\/70_u60616052496175103819.jpeg\";\n                \"progress_image\" = \"\";\n                \"recipes_count_text\" = \"\";\n                relationship = \"-1\";\n                title = \"\";\n                v = 1;\n                \"verified_image\" = \"\";\n            };\n            \"sticker_icon\" =             (\n            );\n            time = \"2016-05-13 08:48:19\";\n            u =             {\n                \"followers_count_text\" = \"\";\n                id = 11326063;\n                \"is_prime\" = 0;\n                lv = 0;\n                lvl = 1;\n                n = \"\\U4e00\\U62b9\\U5fae\\U718f\\U83ab\\U5409\\U6258\";\n                p = \"http:\/\/tx1.douguo.net\/upload\/photo\/0\/a\/6\/70_u42201323738336161216.jpeg\";\n                \"progress_image\" = \"\";\n                \"recipes_count_text\" = \"\";\n                relationship = \"-1\";\n                title = \"\";\n                v = 0;\n                \"verified_image\" = \"\";\n            };\n        },\n                {\n            ac = \"#999999\";\n            at = \"\";\n            ccc = 0;\n            city = \"\";\n            cmc = 2;\n            content =             (\n                                {\n                    c = \" \\U5fc5\\U987b\\U7684~\\U6211\\U6700\\U559c\\U6b22\\U770b\\U5927\\U5bb6\\U4e0a\\U4f20\\U7684\\U83dc\\U8c31\\U4e86~ \";\n                }\n            );\n            ia = 0;\n            id = 3479046;\n            \"ip_address_location\" = \"\";\n            like = 0;\n            \"like_count\" = 0;\n            \"reply_id\" = 3458528;\n            \"reply_user\" =             {\n                \"followers_count_text\" = \"\";\n                id = 11326063;\n                \"is_prime\" = 0;\n                lv = 0;\n                lvl = 1;\n                n = \"\\U4e00\\U62b9\\U5fae\\U718f\\U83ab\\U5409\\U6258\";\n                p = \"http:\/\/tx1.douguo.net\/upload\/photo\/0\/a\/6\/70_u42201323738336161216.jpeg\";\n                \"progress_image\" = \"\";\n                \"recipes_count_text\" = \"\";\n                relationship = \"-1\";\n                title = \"\";\n                v = 0;\n                \"verified_image\" = \"\";\n            };\n            \"sticker_icon\" =             (\n            );\n            time = \"2016-05-17 05:09:10\";\n            u =             {\n                \"followers_count_text\" = \"\";\n                id = 17150353;\n                \"is_prime\" = 0;\n                lv = 0;\n                lvl = 6;\n                n = \"\\U5948\\U826f\\U5c0f\\U9e7f\";\n                p = \"http:\/\/tx1.douguo.net\/upload\/photo\/6\/a\/3\/70_u60616052496175103819.jpeg\";\n                \"progress_image\" = \"\";\n                \"recipes_count_text\" = \"\";\n                relationship = \"-1\";\n                title = \"\";\n                v = 1;\n                \"verified_image\" = \"\";\n            };\n        }\n    );\n    city = \"\";\n    cmc = 2;\n    content =     (\n                {\n            c = \"\\U8fd8\\U4e0d\\U9519\\U54e6~ \";\n        }\n    );\n    ia = 0;\n    id = 3456589;\n    \"ip_address_location\" = \"\";\n    like = 0;\n    \"like_count\" = 0;\n    \"reply_id\" = 0;\n    \"sticker_icon\" =     (\n    );\n    time = \"2016-05-13 02:45:46\";\n    u =     {\n        \"followers_count_text\" = \"\";\n        id = 17150353;\n        \"is_prime\" = 0;\n        lv = 0;\n        lvl = 6;\n        n = \"\\U5948\\U826f\\U5c0f\\U9e7f\";\n        p = \"http:\/\/tx1.douguo.net\/upload\/photo\/6\/a\/3\/70_u60616052496175103819.jpeg\";\n        \"progress_image\" = \"\";\n        \"recipes_count_text\" = \"\";\n        relationship = \"-1\";\n        title = \"\";\n        v = 1;\n        \"verified_image\" = \"\";\n    };\n}"
      ],
      "story_dsp" : [

      ],
      "rewarded_video_dsp" : [

      ],
      "rate" : 5,
      "pw" : 800,
      "release_time" : "",
      "cook_difficulty" : "切墩(初级)",
      "top_mdsp" : [

      ],
      "recipe_list_tags" : [
        {
          "right_image" : "",
          "background_end_color" : "#F4F5F5",
          "jump_url" : "",
          "background_start_color" : "#F4F5F5",
          "text" : "关注的人",
          "text_color" : "#141515",
          "background_border_color" : ""
        }
      ],
      "rate_count" : 2,
      "author_verified" : 0,
      "hqu" : "recipes:\/\/www.douguo.com\/notedetail?id=21162253",
      "comments_count_text" : "3",
      "author_id" : 9842940,
      "purl" : "",
      "dish_count" : 6,
      "clicks" : "89936",
      "ipoi" : "",
      "minor" : [

      ],
      "cook_time" : "10~30分钟",
      "cook_id" : "1376897",
      "cook_time_image" : "https:\/\/i1.douguo.com\/upload\/banner\/1551424341.png",
      "ss" : [

      ],
      "rpst" : "",
      "author" : "巨蟹的厨房",
      "levelid" : 2,
      "sc" : 0,
      "cookstory" : "",
      "ipurl" : "",
      "collect_status" : 0
    }
  },
  "status" : 0,
  "state" : "success"
}