{
  "state" : "success",
  "result" : {
    "recipe" : {
      "ipt" : "",
      "eu" : "recipes:\/\/www.douguo.com\/postdetail?id=242016",
      "rewarded_video_dsp" : [

      ],
      "btm_dsp" : [

      ],
      "author" : "鑫淼淼食记",
      "release_time" : "",
      "create_time" : "2020-12-14 09:39:18",
      "recommend_label" : "4135人刚刚收藏过",
      "su" : "",
      "cook_time" : "10~30分钟",
      "thumb_path" : "https:\/\/i1.douguo.com\/upload\/caiku\/1\/1\/5\/300_11196b3080b260446a9f575bc94901f5.jpg",
      "original_photo_path" : "http:\/\/i1.douguo.net\/upload\/caiku\/1\/1\/5\/yuan_11196b3080b260446a9f575bc94901f5.jpg",
      "author_photo" : "http:\/\/tx1.douguo.net\/upload\/photo\/c\/9\/2\/70_u26154997664804221418.jpeg",
      "comments_count" : 1,
      "dishes" : [

      ],
      "rate" : 0,
      "title" : "韭香豆腐蒸蛋羹",
      "v_u" : "",
      "favo_counts_text" : "4135",
      "pw" : 800,
      "rpid" : 0,
      "comments_count_text" : "1",
      "title_ad" : [

      ],
      "related_ads" : [

      ],
      "clicks" : "145414",
      "rsm" : "该功能暂停使用",
      "user" : {
        "verified_url" : "https:\/\/m.douguo.com\/user\/prodesc",
        "lvl" : 6,
        "pc" : 0,
        "setted_email" : 0,
        "is_prime" : 0,
        "subscription" : 0,
        "favor_diaries_count" : 0,
        "user_cover" : "",
        "lv" : 0,
        "following_count" : 0,
        "fc" : 0,
        "subscription_article_count" : 0,
        "nick" : "鑫淼淼食记",
        "gender" : 2,
        "dishes_count" : 0,
        "favorites_count" : 0,
        "user_large_photo" : "http:\/\/tx1.douguo.net\/upload\/photo\/c\/9\/2\/yuan_u26154997664804221418.jpeg",
        "verified" : 1,
        "weibo_nick" : "",
        "qq_weibo_nick" : "",
        "progress_image" : "",
        "point" : 0,
        "sign" : "",
        "user_photo" : "http:\/\/tx1.douguo.net\/upload\/photo\/c\/9\/2\/70_u26154997664804221418.jpeg",
        "avatar_medium" : "http:\/\/tx1.douguo.net\/upload\/photo\/c\/9\/2\/140_u26154997664804221418.jpeg",
        "verified_image" : "https:\/\/i1.douguo.com\/upload\/note\/d\/a\/a\/da84247847aebe48d9dd0fcdac88862a.png",
        "mobile" : "",
        "qzone_nick" : "",
        "userid" : "8535753",
        "introduction" : "",
        "diaries_count" : 0,
        "followers_count" : 0,
        "age" : "",
        "recipes_count" : 0,
        "user_id" : "8535753",
        "email" : "",
        "coursecount" : 0,
        "regist_time" : "",
        "birthday" : "",
        "location" : 0
      },
      "image" : "http:\/\/i1.douguo.net\/upload\/caiku\/1\/1\/5\/300_11196b3080b260446a9f575bc94901f5.jpg",
      "favo_counts" : 4135,
      "thumb_height" : 0,
      "dish_count" : 0,
      "ssu" : "",
      "sc" : 0,
      "mid_mdsp" : [

      ],
      "photo_path" : "https:\/\/i1.douguo.com\/upload\/caiku\/1\/1\/5\/600_11196b3080b260446a9f575bc94901f5.jpg",
      "brand_day_dsp" : [

      ],
      "tips" : "蒸蛋羹时不要加凉水，会蒸出蜂窝。均衡的膳食对宝宝健康成长很关键哦，但要提醒饮食均衡还远远不够，日常饮食也有营养“缺口”，如维生素AD就不易从食物中获取充足。维生素AD能提高宝宝免疫力，促进骨骼发育、身高增长，预防近视和贫血。功夫在日常，每天还要记得补充一粒伊可新维生素AD滴剂哦~",
      "recipe_list_tags" : [
        {
          "background_border_color" : "",
          "text" : "关注的人",
          "background_start_color" : "#F4F5F5",
          "jump_url" : "",
          "right_image" : "",
          "background_end_color" : "#F4F5F5",
          "text_color" : "#141515"
        },
        {
          "text_color" : "#141515",
          "background_end_color" : "#F4F5F5",
          "right_image" : "",
          "background_start_color" : "#F4F5F5",
          "text" : "内容详细",
          "jump_url" : "",
          "background_border_color" : ""
        }
      ],
      "major" : [
        {
          "title" : "鸡蛋",
          "tu" : "https:\/\/m.douguo.com\/ingredients\/鸡蛋\/detailmaterial",
          "note" : "2个"
        },
        {
          "tu" : "https:\/\/m.douguo.com\/ingredients\/韭菜\/detailmaterial",
          "title" : "韭菜",
          "note" : "数根"
        },
        {
          "title" : "嫩豆腐",
          "note" : "1块"
        },
        {
          "title" : "生抽",
          "tu" : "https:\/\/m.douguo.com\/ingredients\/生抽\/detailmaterial",
          "note" : "1勺"
        },
        {
          "tu" : "https:\/\/m.douguo.com\/ingredients\/蚝油\/detailmaterial",
          "note" : "1勺",
          "title" : "蚝油"
        },
        {
          "title" : "香油",
          "tu" : "https:\/\/m.douguo.com\/ingredients\/香油\/detailmaterial",
          "note" : "1勺"
        },
        {
          "tu" : "https:\/\/m.douguo.com\/ingredients\/盐\/detailmaterial",
          "note" : "适量",
          "title" : "盐"
        }
      ],
      "cookwares" : [

      ],
      "sr" : "",
      "purl" : "",
      "hqu" : "recipes:\/\/www.douguo.com\/notedetail?id=21162253",
      "cook_difficulty_image" : "https:\/\/i1.douguo.com\/upload\/banner\/1551424390.png",
      "author_id" : 8535753,
      "ipurl" : "",
      "tags" : [

      ],
      "vu" : "",
      "story_dsp" : [

      ],
      "dish_count_text" : "",
      "rcs" : [

      ],
      "rrps" : [

      ],
      "ipit" : 0,
      "act_des" : "",
      "vfurl" : "",
      "notes" : [

      ],
      "cookstory" : "蒸蛋羹，是宝宝们最喜欢吃的菜菜之一，加上嫩豆腐增加豆质营养，韭菜所含植物纤维丰富，促进消化不积食。",
      "old_comments" : [

      ],
      "minor" : [

      ],
      "ipia" : [

      ],
      "cookstorys" : [
        {
          "id" : 0,
          "u" : "",
          "c" : "蒸蛋羹，是宝宝们最喜欢吃的菜菜之一，加上嫩豆腐增加豆质营养，韭菜所含植物纤维丰富，促进消化不积食。",
          "type" : 0,
          "color" : "",
          "icon" : ""
        },
        {
          "c" : "\n参与活动:",
          "type" : 0,
          "color" : "",
          "u" : "",
          "icon" : "",
          "id" : 0
        },
        {
          "type" : 0,
          "c" : "#管理膳食宝塔，做A+健康宝贝#",
          "id" : 0,
          "icon" : "",
          "u" : "https:\/\/m.douguo.com\/activity\/ncpzj\/detail\/2863?isapp=1&open=0&_vs=1000300&&dg_refreshkey=publishnote"
        }
      ],
      "rpt" : "",
      "rate_show" : 0,
      "author_verified" : 1,
      "display_ingredient" : 1,
      "bs" : [

      ],
      "views_count_text" : "14.8万",
      "guide_image" : "",
      "cook_difficulty" : "切墩(初级)",
      "recommended" : 0,
      "top_mdsp" : [

      ],
      "rpst" : "",
      "ph" : 600,
      "advice" : {
        "da" : {
          "iu" : "https:\/\/i1.douguo.com\/upload\/banner\/f\/4\/d\/f48877e53c37759bc12ac494be82ec8d.png",
          "t" : "查看详细分析",
          "url" : "https:\/\/m.douguo.com\/recipe\/nutrient_self\/3024432"
        },
        "at" : "能帮助你减脂、控血糖～",
        "has" : [
          {
            "t" : "低糖",
            "url" : "recipes:\/\/www.douguo.com\/simplerecipelist?t=低糖&id=低糖"
          }
        ]
      },
      "ss" : [

      ],
      "recent_comments" : [

      ],
      "ipoi" : "",
      "ipci" : "",
      "share_info" : {
        "s_u" : "http:\/\/m.douguo.com\/cookbook\/3024432.html",
        "image" : "https:\/\/cp1.douguo.com\/upload\/caiku\/1\/1\/5\/11196b3080b260446a9f575bc94901f5.jpg",
        "infos" : [
          {
            "channel" : "1",
            "s_d" : "#学做饭用豆果美食# 会做饭真是太酷了！我在@豆果美食 分享了【#一起加油，我要做A+健康宝贝#韭香豆腐蒸蛋羹-会做饭很酷!】，看着是不是馋到不行呢～快来跟我学学吧！查看图片了解菜谱，（想要获取更多美食就看这https:\/\/m.weibo.cn\/p\/100404i33631）",
            "qr_image" : "",
            "object_id" : "3024432",
            "name" : "#一起加油，我要做A+健康宝贝#韭香豆腐蒸蛋羹-会做饭很酷!",
            "s_u" : "",
            "image" : "https:\/\/cp1.douguo.com\/upload\/caiku\/1\/1\/5\/11196b3080b260446a9f575bc94901f5.jpg",
            "mini_program" : [

            ]
          },
          {
            "image" : "https:\/\/cp1.douguo.com\/upload\/caiku\/1\/1\/5\/11196b3080b260446a9f575bc94901f5.jpg",
            "s_d" : "#一起加油，我要做A+健康宝贝#韭香豆腐蒸蛋羹-会做饭很酷!",
            "channel" : "7",
            "name" : "#一起加油，我要做A+健康宝贝#韭香豆腐蒸蛋羹-会做饭很酷!",
            "s_u" : "http:\/\/m.douguo.com\/cookbook\/3024432.html",
            "object_id" : "3024432",
            "qr_image" : "",
            "mini_program" : [

            ]
          },
          {
            "object_id" : "3024432",
            "channel" : "8",
            "s_d" : "#一起加油，我要做A+健康宝贝#韭香豆腐蒸蛋羹-会做饭很酷!",
            "s_u" : "http:\/\/m.douguo.com\/cookbook\/3024432.html",
            "name" : "#一起加油，我要做A+健康宝贝#韭香豆腐蒸蛋羹-会做饭很酷!",
            "mini_program" : [

            ],
            "qr_image" : "",
            "image" : "https:\/\/cp1.douguo.com\/upload\/caiku\/1\/1\/5\/11196b3080b260446a9f575bc94901f5.jpg"
          }
        ],
        "qr_image" : "",
        "mini_program" : [

        ],
        "name" : "#一起加油，我要做A+健康宝贝#韭香豆腐蒸蛋羹-会做饭很酷!",
        "object_id" : "3024432",
        "s_d" : "#一起加油，我要做A+健康宝贝#韭香豆腐蒸蛋羹-会做饭很酷!"
      },
      "levelid" : 2,
      "cook_time_image" : "https:\/\/i1.douguo.com\/upload\/banner\/1551424341.png",
      "packages_id" : [

      ],
      "hq" : 1,
      "rdsps" : [

      ],
      "rrpt" : "",
      "rate_count" : 0,
      "rips" : 0,
      "event" : {
        "name" : "管理膳食宝塔，做A+健康宝贝",
        "id" : 2863,
        "url" : "https:\/\/m.douguo.com\/activity\/ncpzj\/detail\/2863?isapp=1&open=0&_vs=1000300&&dg_refreshkey=publishnote"
      },
      "recipe_tags" : [

      ],
      "ecs" : 0,
      "first_level_comment_count" : 1,
      "comments" : [
        "{\n    ac = \"#999999\";\n    at = \"\";\n    ccc = 0;\n    \"child_comments\" =     (\n    );\n    city = \"\";\n    cmc = 2;\n    content =     (\n                {\n            c = \"\\U5237\\U83dc\\U8c31\\U7684\\U65f6\\U5019\\U6700\\U9002\\U5408\\U5403\\U4e86~~~ \";\n        }\n    );\n    ia = 0;\n    id = 8403866;\n    \"ip_address_location\" = \"\";\n    like = 0;\n    \"like_count\" = 0;\n    \"reply_id\" = 0;\n    \"sticker_icon\" =     (\n    );\n    time = \"2020-12-14 11:13:52\";\n    u =     {\n        \"followers_count_text\" = \"\";\n        id = 24557038;\n        \"is_prime\" = 0;\n        lv = 0;\n        lvl = 2;\n        n = \"\\U9ea6\\U5b50rbsgH\";\n        p = \"http:\/\/tx1.douguo.net\/upload\/photo\/1\/e\/b\/70_u88611572997888113016.jpg\";\n        \"progress_image\" = \"\";\n        \"recipes_count_text\" = \"\";\n        relationship = \"-1\";\n        title = \"\";\n        v = 0;\n        \"verified_image\" = \"\";\n    };\n}"
      ],
      "recommendation_tag" : "",
      "vc" : "147810",
      "collect_status" : 0,
      "cook_id" : "3024432",
      "cookstep" : [
        {
          "image" : "https:\/\/i1.douguo.com\/upload\/caiku\/f\/c\/b\/fcb81f70b463ec1046975f34c80ac14b.jpg",
          "image_width" : 1280,
          "thumb" : "https:\/\/i1.douguo.com\/upload\/caiku\/f\/c\/b\/140_fcb81f70b463ec1046975f34c80ac14b.jpg",
          "image_height" : 960,
          "content" : "准备食材。",
          "frame" : "-1",
          "position" : 1
        },
        {
          "image" : "https:\/\/i1.douguo.com\/upload\/caiku\/4\/f\/e\/4fdd2f54ed1537a61bbd37199419134e.jpg",
          "image_width" : 1280,
          "image_height" : 960,
          "position" : 2,
          "content" : "豆腐装在碗中，划成小块。",
          "thumb" : "https:\/\/i1.douguo.com\/upload\/caiku\/4\/f\/e\/140_4fdd2f54ed1537a61bbd37199419134e.jpg",
          "frame" : "-1"
        },
        {
          "position" : 3,
          "content" : "倒入生抽。",
          "frame" : "-1",
          "thumb" : "https:\/\/i1.douguo.com\/upload\/caiku\/1\/8\/3\/140_184ed4555c684e7c60baa896d7d34d13.jpg",
          "image_width" : 800,
          "image_height" : 600,
          "image" : "https:\/\/i1.douguo.com\/upload\/caiku\/1\/8\/3\/184ed4555c684e7c60baa896d7d34d13.jpg"
        },
        {
          "image_width" : 1280,
          "image" : "https:\/\/i1.douguo.com\/upload\/caiku\/a\/5\/2\/a5b09c8aa3a5327b33d984b7e6d61192.jpg",
          "content" : "倒入蚝油。",
          "image_height" : 960,
          "position" : 4,
          "thumb" : "https:\/\/i1.douguo.com\/upload\/caiku\/a\/5\/2\/140_a5b09c8aa3a5327b33d984b7e6d61192.jpg",
          "frame" : "-1"
        },
        {
          "image_width" : 800,
          "thumb" : "https:\/\/i1.douguo.com\/upload\/caiku\/2\/b\/2\/140_2b2fa649d0324e79e29bea99f12a62a2.jpg",
          "content" : "鸡蛋加盐打散。",
          "frame" : "-1",
          "image_height" : 600,
          "position" : 5,
          "image" : "https:\/\/i1.douguo.com\/upload\/caiku\/2\/b\/2\/2b2fa649d0324e79e29bea99f12a62a2.jpg"
        },
        {
          "image_width" : 800,
          "position" : 6,
          "frame" : "-1",
          "image" : "https:\/\/i1.douguo.com\/upload\/caiku\/7\/a\/0\/7af17bf93bfa107203007cfbd24ef730.jpg",
          "content" : "切好韭菜碎，放蛋液里。",
          "thumb" : "https:\/\/i1.douguo.com\/upload\/caiku\/7\/a\/0\/140_7af17bf93bfa107203007cfbd24ef730.jpg",
          "image_height" : 600
        },
        {
          "frame" : "-1",
          "image_width" : 1280,
          "thumb" : "https:\/\/i1.douguo.com\/upload\/caiku\/2\/3\/3\/140_23b2083cc4f2854279c35ecc984105e3.jpg",
          "position" : 7,
          "content" : "加少量凉开水，搅拌均匀。",
          "image" : "https:\/\/i1.douguo.com\/upload\/caiku\/2\/3\/3\/23b2083cc4f2854279c35ecc984105e3.jpg",
          "image_height" : 960
        },
        {
          "frame" : "-1",
          "image" : "https:\/\/i1.douguo.com\/upload\/caiku\/1\/b\/1\/1b8cabbc6d9ccd592309c6ad8d262351.jpg",
          "content" : "将蛋液倒入豆腐。",
          "thumb" : "https:\/\/i1.douguo.com\/upload\/caiku\/1\/b\/1\/140_1b8cabbc6d9ccd592309c6ad8d262351.jpg",
          "position" : 8,
          "image_width" : 800,
          "image_height" : 600
        },
        {
          "thumb" : "https:\/\/i1.douguo.com\/upload\/caiku\/e\/0\/1\/140_e0b845783bdb4ae83a67ea45275feec1.jpg",
          "image" : "https:\/\/i1.douguo.com\/upload\/caiku\/e\/0\/1\/e0b845783bdb4ae83a67ea45275feec1.jpg",
          "image_width" : 1280,
          "position" : 9,
          "image_height" : 960,
          "frame" : "-1",
          "content" : "上锅蒸15分钟左右，具体时间根据食材多少来调理。"
        },
        {
          "thumb" : "https:\/\/i1.douguo.com\/upload\/caiku\/e\/f\/2\/140_ef3d62df655c85b4d9ad0cab28104722.jpg",
          "image" : "https:\/\/i1.douguo.com\/upload\/caiku\/e\/f\/2\/ef3d62df655c85b4d9ad0cab28104722.jpg",
          "content" : "出锅淋香油和生抽。",
          "image_height" : 540,
          "position" : 10,
          "image_width" : 720,
          "frame" : "-1"
        }
      ]
    }
  },
  "status" : 0
}