{
  "state" : "success",
  "result" : {
    "recipe" : {
      "dishes" : [

      ],
      "cook_time_image" : "https:\/\/i1.douguo.com\/upload\/banner\/1551424318.png",
      "author_verified" : 0,
      "clicks" : "93161",
      "brand_day_dsp" : [

      ],
      "ssu" : "",
      "rate_show" : 0,
      "display_ingredient" : 1,
      "story_dsp" : [

      ],
      "act_des" : "",
      "title" : "红烧黄鳝",
      "recipe_list_tags" : [
        {
          "background_border_color" : "",
          "background_end_color" : "#F4F5F5",
          "right_image" : "",
          "text_color" : "#141515",
          "jump_url" : "",
          "background_start_color" : "#F4F5F5",
          "text" : "关注的人"
        },
        {
          "right_image" : "",
          "background_border_color" : "",
          "text" : "内容详细",
          "text_color" : "#141515",
          "background_start_color" : "#F4F5F5",
          "jump_url" : "",
          "background_end_color" : "#F4F5F5"
        }
      ],
      "ipt" : "",
      "bs" : [

      ],
      "recent_comments" : [

      ],
      "recipe_tags" : [

      ],
      "notes" : [

      ],
      "author_id" : 18061881,
      "related_ads" : [

      ],
      "minor" : [

      ],
      "recommended" : 0,
      "cookwares" : [

      ],
      "rate_count" : 0,
      "rsm" : "该功能暂停使用",
      "ipoi" : "",
      "v_u" : "",
      "first_level_comment_count" : 11,
      "rrpt" : "",
      "tags" : [

      ],
      "cookstep" : [
        {
          "image_width" : 800,
          "image_height" : 600,
          "image" : "https:\/\/i1.douguo.com\/upload\/caiku\/5\/2\/f\/52ee4a14d79ae40309be4075aa35f50f.jpg",
          "frame" : "-1",
          "content" : "黄鳝处理好，切成段，切姜丝备用",
          "position" : 1,
          "thumb" : "https:\/\/i1.douguo.com\/upload\/caiku\/5\/2\/f\/140_52ee4a14d79ae40309be4075aa35f50f.jpg"
        },
        {
          "image_height" : 600,
          "image" : "https:\/\/i1.douguo.com\/upload\/caiku\/f\/7\/7\/f7381450470070a4579cc31f57de4a67.jpg",
          "position" : 2,
          "thumb" : "https:\/\/i1.douguo.com\/upload\/caiku\/f\/7\/7\/140_f7381450470070a4579cc31f57de4a67.jpg",
          "image_width" : 800,
          "frame" : "-1",
          "content" : "洋葱，青椒切段，蒜剥好备用"
        },
        {
          "position" : 3,
          "image_height" : 600,
          "content" : "油入锅烧热，放入黄鳝姜丝，两面煎至金黄后出锅备用",
          "image_width" : 800,
          "thumb" : "https:\/\/i1.douguo.com\/upload\/caiku\/8\/c\/9\/140_8c0914fccc1124a484e0d95751a2ab89.jpg",
          "frame" : "-1",
          "image" : "https:\/\/i1.douguo.com\/upload\/caiku\/8\/c\/9\/8c0914fccc1124a484e0d95751a2ab89.jpg"
        },
        {
          "frame" : "-1",
          "image_width" : 800,
          "image_height" : 600,
          "content" : "热油放入豆瓣酱炒香，放入蒜米，青椒，洋葱翻炒至六成熟后加入煎好的黄鳝，加适量食盐，老抽，生抽及料酒快速翻炒至，熟后出锅",
          "image" : "https:\/\/i1.douguo.com\/upload\/caiku\/1\/3\/0\/1302c8ffde53c3eb36edeb880048f770.jpg",
          "position" : 4,
          "thumb" : "https:\/\/i1.douguo.com\/upload\/caiku\/1\/3\/0\/140_1302c8ffde53c3eb36edeb880048f770.jpg"
        },
        {
          "content" : "成品",
          "image_height" : 960,
          "frame" : "-1",
          "image_width" : 1280,
          "thumb" : "https:\/\/i1.douguo.com\/upload\/caiku\/8\/1\/9\/140_81049c78dc01f46034bce20c74ca3989.jpg",
          "image" : "https:\/\/i1.douguo.com\/upload\/caiku\/8\/1\/9\/81049c78dc01f46034bce20c74ca3989.jpg",
          "position" : 5
        }
      ],
      "packages_id" : [

      ],
      "cookstory" : "夏天是吃黄鳝的最好季节",
      "comments" : [
        "{\n    ac = \"#999999\";\n    at = \"\";\n    ccc = 0;\n    \"child_comments\" =     (\n    );\n    city = \"\";\n    cmc = 2;\n    content =     (\n                {\n            c = \"\\U559c\\U6b22\\U5403\\Uff0c\\U4f60\\U505a\\U5f97\\U5f88\\U68d2~~ \";\n        }\n    );\n    ia = 0;\n    id = 7195458;\n    \"ip_address_location\" = \"\";\n    like = 0;\n    \"like_count\" = 0;\n    \"reply_id\" = 0;\n    \"sticker_icon\" =     (\n    );\n    time = \"2019-10-17 19:14:40\";\n    u =     {\n        \"followers_count_text\" = \"\";\n        id = 18484624;\n        \"is_prime\" = 0;\n        lv = 0;\n        lvl = 6;\n        n = \"\\U9e7f\\U4e0e\\U6a59\";\n        p = \"http:\/\/tx1.douguo.net\/upload\/photo\/f\/0\/1\/70_u07330389154831210629.jpg\";\n        \"progress_image\" = \"\";\n        \"recipes_count_text\" = \"\";\n        relationship = \"-1\";\n        title = \"\";\n        v = 0;\n        \"verified_image\" = \"\";\n    };\n}",
        "{\n    ac = \"#999999\";\n    at = \"\";\n    ccc = 0;\n    \"child_comments\" =     (\n    );\n    city = \"\";\n    cmc = 2;\n    content =     (\n                {\n            c = \"\\U98df\\U6b32\\U4e0a\\U6765\\U4e86\";\n        }\n    );\n    ia = 0;\n    id = 7195456;\n    \"ip_address_location\" = \"\";\n    like = 0;\n    \"like_count\" = 0;\n    \"reply_id\" = 0;\n    \"sticker_icon\" =     (\n    );\n    time = \"2019-10-17 19:13:26\";\n    u =     {\n        \"followers_count_text\" = \"\";\n        id = 18477868;\n        \"is_prime\" = 0;\n        lv = 0;\n        lvl = 3;\n        n = \"\\U5927\\U6c49\\U5e74\\U95f4\";\n        p = \"http:\/\/tx1.douguo.net\/upload\/photo\/5\/3\/b\/70_u13565046759440408152958.jpg\";\n        \"progress_image\" = \"\";\n        \"recipes_count_text\" = \"\";\n        relationship = \"-1\";\n        title = \"\";\n        v = 0;\n        \"verified_image\" = \"\";\n    };\n}",
        "{\n    ac = \"#999999\";\n    at = \"\";\n    ccc = 0;\n    \"child_comments\" =     (\n    );\n    city = \"\";\n    cmc = 2;\n    content =     (\n                {\n            c = \"\\U786e\\U5b9e\\U5f88\\U8bf1\\U4eba~ \";\n        }\n    );\n    ia = 0;\n    id = 6863307;\n    \"ip_address_location\" = \"\";\n    like = 0;\n    \"like_count\" = 0;\n    \"reply_id\" = 0;\n    \"sticker_icon\" =     (\n    );\n    time = \"2019-08-05 16:40:23\";\n    u =     {\n        \"followers_count_text\" = \"\";\n        id = 18564628;\n        \"is_prime\" = 0;\n        lv = 0;\n        lvl = 2;\n        n = \"\\U79a7\\U5fc3\";\n        p = \"http:\/\/tx1.douguo.net\/upload\/photo\/c\/c\/2\/70_u21339844173160408233826.jpg\";\n        \"progress_image\" = \"\";\n        \"recipes_count_text\" = \"\";\n        relationship = \"-1\";\n        title = \"\";\n        v = 0;\n        \"verified_image\" = \"\";\n    };\n}"
      ],
      "hq" : 0,
      "create_time" : "2019-07-08 20:22:04",
      "recommendation_tag" : "",
      "ss" : [

      ],
      "eu" : "recipes:\/\/www.douguo.com\/postdetail?id=242016",
      "vfurl" : "",
      "guide_image" : "",
      "major" : [
        {
          "tu" : "https:\/\/m.douguo.com\/ingredients\/黄鳝\/detailmaterial",
          "note" : "3条",
          "title" : "黄鳝"
        },
        {
          "title" : "老抽",
          "tu" : "https:\/\/m.douguo.com\/ingredients\/老抽\/detailmaterial",
          "note" : "1汤勺"
        },
        {
          "note" : "2汤勺",
          "title" : "生抽",
          "tu" : "https:\/\/m.douguo.com\/ingredients\/生抽\/detailmaterial"
        },
        {
          "tu" : "https:\/\/m.douguo.com\/ingredients\/大蒜\/detailmaterial",
          "note" : "3～4颗",
          "title" : "大蒜"
        },
        {
          "tu" : "https:\/\/m.douguo.com\/ingredients\/姜\/detailmaterial",
          "title" : "姜",
          "note" : "一大块"
        },
        {
          "tu" : "https:\/\/m.douguo.com\/ingredients\/料酒\/detailmaterial",
          "title" : "料酒",
          "note" : "2汤勺"
        },
        {
          "tu" : "https:\/\/m.douguo.com\/ingredients\/豆瓣酱\/detailmaterial",
          "title" : "豆瓣酱",
          "note" : "一勺"
        },
        {
          "title" : "大青椒",
          "note" : "一个"
        },
        {
          "tu" : "https:\/\/m.douguo.com\/ingredients\/洋葱\/detailmaterial",
          "note" : "1\/4个",
          "title" : "洋葱"
        }
      ],
      "thumb_path" : "https:\/\/i1.douguo.com\/upload\/caiku\/7\/f\/2\/300_7f90767003422591ed7702fdd0977342.jpg",
      "levelid" : 3,
      "views_count_text" : "10.2万",
      "user" : {
        "userid" : "18061881",
        "diaries_count" : 0,
        "coursecount" : 0,
        "lv" : 0,
        "qzone_nick" : "",
        "progress_image" : "",
        "dishes_count" : 0,
        "user_cover" : "",
        "favor_diaries_count" : 0,
        "pc" : 0,
        "user_large_photo" : "http:\/\/tx1.douguo.net\/upload\/photo\/e\/c\/f\/yuan_u69004313280169120446.jpg",
        "lvl" : 4,
        "user_id" : "18061881",
        "birthday" : "",
        "qq_weibo_nick" : "",
        "regist_time" : "",
        "mobile" : "",
        "verified_image" : "",
        "setted_email" : 0,
        "age" : "",
        "subscription" : 0,
        "verified" : 0,
        "point" : 0,
        "recipes_count" : 0,
        "subscription_article_count" : 0,
        "weibo_nick" : "",
        "is_prime" : 0,
        "favorites_count" : 0,
        "nick" : "馅饼与陷阱",
        "user_photo" : "http:\/\/tx1.douguo.net\/upload\/photo\/e\/c\/f\/70_u69004313280169120446.jpg",
        "following_count" : 0,
        "gender" : 1,
        "location" : 0,
        "verified_url" : "https:\/\/m.douguo.com\/user\/prodesc",
        "sign" : "",
        "fc" : 0,
        "avatar_medium" : "http:\/\/tx1.douguo.net\/upload\/photo\/e\/c\/f\/140_u69004313280169120446.jpg",
        "followers_count" : 0,
        "introduction" : "",
        "email" : ""
      },
      "author" : "馅饼与陷阱",
      "ipurl" : "",
      "recommend_label" : "10.2万人看过",
      "title_ad" : [

      ],
      "comments_count_text" : "11",
      "ecs" : 0,
      "rcs" : [

      ],
      "rips" : 0,
      "hqu" : "recipes:\/\/www.douguo.com\/notedetail?id=21162253",
      "advice" : {
        "has" : [
          {
            "t" : "富含维生素B2",
            "url" : "recipes:\/\/www.douguo.com\/simplerecipelist?t=富含维生素B2&id=富含维生素B2"
          },
          {
            "url" : "recipes:\/\/www.douguo.com\/simplerecipelist?t=富含烟酸&id=富含烟酸",
            "t" : "富含烟酸"
          }
        ],
        "at" : "有助于维持皮肤和黏膜健康～",
        "da" : {
          "iu" : "https:\/\/i1.douguo.com\/upload\/banner\/f\/4\/d\/f48877e53c37759bc12ac494be82ec8d.png",
          "t" : "查看详细分析",
          "url" : "https:\/\/m.douguo.com\/recipe\/nutrient_self\/2316149"
        }
      },
      "photo_path" : "https:\/\/i1.douguo.com\/upload\/caiku\/7\/f\/2\/600_7f90767003422591ed7702fdd0977342.jpg",
      "collect_status" : 0,
      "dish_count" : 0,
      "rdsps" : [

      ],
      "tips" : "最后一步别炒太久，青椒等配菜炒过了就不好吃了，颜色也会差很多。",
      "rpt" : "",
      "rpst" : "",
      "favo_counts_text" : "624",
      "image" : "http:\/\/i1.douguo.net\/upload\/caiku\/7\/f\/2\/300_7f90767003422591ed7702fdd0977342.jpg",
      "cook_difficulty" : "配菜(中级)",
      "purl" : "",
      "sr" : "",
      "ipit" : 0,
      "dish_count_text" : "",
      "cookstorys" : [
        {
          "icon" : "",
          "u" : "",
          "id" : 0,
          "type" : 0,
          "c" : "夏天是吃黄鳝的最好季节",
          "color" : ""
        }
      ],
      "top_mdsp" : [

      ],
      "pw" : 800,
      "ipci" : "",
      "mid_mdsp" : [

      ],
      "cook_id" : "2316149",
      "ipia" : [

      ],
      "cook_difficulty_image" : "https:\/\/i1.douguo.com\/upload\/banner\/1551424413.png",
      "thumb_height" : 0,
      "rewarded_video_dsp" : [

      ],
      "vc" : "101736",
      "sc" : 0,
      "vu" : "",
      "rpid" : 0,
      "old_comments" : [

      ],
      "comments_count" : 11,
      "release_time" : "",
      "btm_dsp" : [

      ],
      "cook_time" : "30~60分钟",
      "author_photo" : "http:\/\/tx1.douguo.net\/upload\/photo\/e\/c\/f\/70_u69004313280169120446.jpg",
      "rate" : 0,
      "original_photo_path" : "http:\/\/i1.douguo.net\/upload\/caiku\/7\/f\/2\/yuan_7f90767003422591ed7702fdd0977342.jpg",
      "share_info" : {
        "name" : "红烧黄鳝-会做饭很酷!",
        "image" : "https:\/\/cp1.douguo.com\/upload\/caiku\/7\/f\/2\/7f90767003422591ed7702fdd0977342.jpg",
        "qr_image" : "",
        "object_id" : "2316149",
        "s_u" : "http:\/\/m.douguo.com\/cookbook\/2316149.html",
        "s_d" : "红烧黄鳝-会做饭很酷!",
        "mini_program" : [

        ],
        "infos" : [
          {
            "mini_program" : [

            ],
            "qr_image" : "",
            "image" : "https:\/\/cp1.douguo.com\/upload\/caiku\/7\/f\/2\/7f90767003422591ed7702fdd0977342.jpg",
            "s_u" : "",
            "s_d" : "#学做饭用豆果美食# 我在@豆果美食 分享了【红烧黄鳝-会做饭很酷!】，帅哥美眉们～你们喜欢的美食来咯！快来跟我一起做吧～查看图片了解菜谱（想要获取更多美食就看这https:\/\/m.weibo.cn\/p\/100404i33631）#会做饭很酷#",
            "object_id" : "2316149",
            "channel" : "1",
            "name" : "红烧黄鳝-会做饭很酷!"
          },
          {
            "mini_program" : [

            ],
            "name" : "红烧黄鳝-会做饭很酷!",
            "s_u" : "http:\/\/m.douguo.com\/cookbook\/2316149.html",
            "qr_image" : "",
            "object_id" : "2316149",
            "image" : "https:\/\/cp1.douguo.com\/upload\/caiku\/7\/f\/2\/7f90767003422591ed7702fdd0977342.jpg",
            "channel" : "7",
            "s_d" : "红烧黄鳝-会做饭很酷!"
          },
          {
            "object_id" : "2316149",
            "mini_program" : [

            ],
            "s_u" : "http:\/\/m.douguo.com\/cookbook\/2316149.html",
            "image" : "https:\/\/cp1.douguo.com\/upload\/caiku\/7\/f\/2\/7f90767003422591ed7702fdd0977342.jpg",
            "s_d" : "红烧黄鳝-会做饭很酷!",
            "channel" : "8",
            "qr_image" : "",
            "name" : "红烧黄鳝-会做饭很酷!"
          }
        ]
      },
      "ph" : 600,
      "su" : "",
      "favo_counts" : 624,
      "rrps" : [

      ]
    }
  },
  "status" : 0
}