{
  "status" : 0,
  "result" : {
    "recipe" : {
      "author" : "尖尖实验室",
      "rate_count" : 0,
      "purl" : "",
      "brand_day_dsp" : [

      ],
      "create_time" : "2019-03-11 19:26:27",
      "dish_count_text" : "",
      "photo_path" : "https:\/\/i1.douguo.com\/upload\/caiku\/b\/7\/4\/600_b7b80c61eae8d4d60fabe76f02480e94.jpg",
      "author_verified" : 1,
      "sr" : "",
      "rips" : 0,
      "title_ad" : [

      ],
      "rewarded_video_dsp" : [

      ],
      "favo_counts" : 4703,
      "ipci" : "",
      "v_u" : "",
      "su" : "",
      "ssu" : "",
      "advice" : {
        "at" : "一道菜对心血管健康～",
        "has" : [
          {
            "url" : "recipes:\/\/www.douguo.com\/simplerecipelist?t=低胆固醇&id=低胆固醇",
            "t" : "低胆固醇"
          },
          {
            "url" : "recipes:\/\/www.douguo.com\/simplerecipelist?t=低盐&id=低盐",
            "t" : "低盐"
          }
        ],
        "da" : {
          "iu" : "https:\/\/i1.douguo.com\/upload\/banner\/f\/4\/d\/f48877e53c37759bc12ac494be82ec8d.png",
          "url" : "https:\/\/m.douguo.com\/recipe\/nutrient_self\/2068494",
          "t" : "查看详细分析"
        }
      },
      "comments_count" : 10,
      "cook_id" : "2068494",
      "event" : {
        "id" : 0
      },
      "first_level_comment_count" : 10,
      "image" : "http:\/\/i1.douguo.net\/upload\/caiku\/b\/7\/4\/300_b7b80c61eae8d4d60fabe76f02480e94.jpg",
      "vfurl" : "",
      "cook_difficulty_image" : "https:\/\/i1.douguo.com\/upload\/banner\/1551424390.png",
      "cook_difficulty" : "切墩(初级)",
      "notes" : [

      ],
      "rsm" : "该功能暂停使用",
      "cookstorys" : [
        {
          "type" : 0,
          "u" : "",
          "color" : "",
          "id" : 0,
          "c" : "在家轻松get网红饮。\n街边奶茶店，一杯饮品20-30多不等，先不说价格贵，各种粉剂植脂末的加入，也是非常不健康的。\n都是简单的材料，随处能买到，稍花心思就能做出高颜值又美味的饮品。\n春天到了，夏天也不远了。\n快学起来，自制健康网红饮。",
          "icon" : ""
        }
      ],
      "major" : [
        {
          "note" : "100g",
          "title" : "木瓜果肉"
        },
        {
          "note" : "200ml",
          "title" : "全脂牛奶",
          "tu" : "https:\/\/m.douguo.com\/ingredients\/全脂牛奶\/detailmaterial"
        },
        {
          "title" : "椰子粉",
          "note" : "15g"
        },
        {
          "note" : "30g",
          "title" : "冰糖浆"
        },
        {
          "title" : "冰块",
          "note" : "适量"
        }
      ],
      "cookstory" : "在家轻松get网红饮。\n街边奶茶店，一杯饮品20-30多不等，先不说价格贵，各种粉剂植脂末的加入，也是非常不健康的。\n都是简单的材料，随处能买到，稍花心思就能做出高颜值又美味的饮品。\n春天到了，夏天也不远了。\n快学起来，自制健康网红饮。",
      "original_photo_path" : "http:\/\/i1.douguo.net\/upload\/caiku\/b\/7\/4\/yuan_b7b80c61eae8d4d60fabe76f02480e94.jpg",
      "hqu" : "recipes:\/\/www.douguo.com\/notedetail?id=21162253",
      "favo_counts_text" : "4703",
      "recommend_label" : "4703人刚刚收藏过",
      "ipit" : 0,
      "ipoi" : "",
      "rcs" : [

      ],
      "related_ads" : [

      ],
      "mid_mdsp" : [

      ],
      "user" : {
        "lvl" : 7,
        "verified_url" : "https:\/\/m.douguo.com\/user\/prodesc",
        "pc" : 0,
        "subscription" : 0,
        "is_prime" : 0,
        "setted_email" : 0,
        "favor_diaries_count" : 0,
        "user_cover" : "",
        "following_count" : 0,
        "lv" : 0,
        "fc" : 0,
        "subscription_article_count" : 0,
        "nick" : "尖尖实验室",
        "gender" : 2,
        "dishes_count" : 0,
        "favorites_count" : 0,
        "user_large_photo" : "http:\/\/tx1.douguo.net\/upload\/photo\/d\/e\/7\/yuan_u01012076308597112706.jpeg",
        "verified" : 1,
        "weibo_nick" : "",
        "qq_weibo_nick" : "",
        "point" : 0,
        "sign" : "",
        "mobile" : "",
        "user_photo" : "http:\/\/tx1.douguo.net\/upload\/photo\/d\/e\/7\/70_u01012076308597112706.jpeg",
        "progress_image" : "",
        "verified_image" : "https:\/\/i1.douguo.com\/upload\/note\/d\/a\/a\/da84247847aebe48d9dd0fcdac88862a.png",
        "avatar_medium" : "http:\/\/tx1.douguo.net\/upload\/photo\/d\/e\/7\/140_u01012076308597112706.jpeg",
        "qzone_nick" : "",
        "userid" : "20711347",
        "introduction" : "",
        "diaries_count" : 0,
        "followers_count" : 0,
        "age" : "",
        "recipes_count" : 0,
        "user_id" : "20711347",
        "email" : "",
        "coursecount" : 0,
        "regist_time" : "",
        "birthday" : "",
        "location" : 0
      },
      "ph" : 1184,
      "dishes" : [

      ],
      "cookwares" : [

      ],
      "ipurl" : "",
      "hq" : 1,
      "display_ingredient" : 1,
      "cook_time" : "10分钟左右",
      "guide_image" : "",
      "tags" : [

      ],
      "collect_status" : 0,
      "rrps" : [

      ],
      "thumb_path" : "https:\/\/i1.douguo.com\/upload\/caiku\/b\/7\/4\/300_b7b80c61eae8d4d60fabe76f02480e94.jpg",
      "recipe_list_tags" : [
        {
          "background_border_color" : "",
          "right_image" : "",
          "background_end_color" : "#F4F5F5",
          "background_start_color" : "#F4F5F5",
          "text_color" : "#141515",
          "jump_url" : "",
          "text" : "关注的人"
        },
        {
          "background_border_color" : "",
          "right_image" : "",
          "background_start_color" : "#F4F5F5",
          "background_end_color" : "#F4F5F5",
          "text_color" : "#141515",
          "jump_url" : "",
          "text" : "内容详细"
        }
      ],
      "packages_id" : [

      ],
      "btm_dsp" : [

      ],
      "release_time" : "",
      "ipt" : "",
      "rdsps" : [

      ],
      "rate" : 0,
      "comments_count_text" : "10",
      "rpst" : "",
      "vu" : "",
      "rrpt" : "",
      "old_comments" : [

      ],
      "story_dsp" : [

      ],
      "levelid" : 2,
      "views_count_text" : "15.8万",
      "cookstep" : [
        {
          "image_height" : 1280,
          "thumb" : "https:\/\/i1.douguo.com\/upload\/caiku\/c\/0\/8\/140_c06b424d7df0caafb903bd5c9a490d88.JPG",
          "content" : "准备食材",
          "image" : "https:\/\/i1.douguo.com\/upload\/caiku\/c\/0\/8\/c06b424d7df0caafb903bd5c9a490d88.JPG",
          "image_width" : 1920,
          "frame" : "-1",
          "position" : 1
        },
        {
          "frame" : "-1",
          "image_width" : 1920,
          "position" : 2,
          "thumb" : "https:\/\/i1.douguo.com\/upload\/caiku\/7\/a\/3\/140_7a85627e359a9378c1a10d9a495823b3.JPG",
          "content" : "木瓜去皮去籽取果肉放入容器",
          "image" : "https:\/\/i1.douguo.com\/upload\/caiku\/7\/a\/3\/7a85627e359a9378c1a10d9a495823b3.JPG",
          "image_height" : 1280
        },
        {
          "frame" : "-1",
          "image" : "https:\/\/i1.douguo.com\/upload\/caiku\/c\/9\/2\/c97dc5bc9fae14258b89a9ec30a72bb2.JPG",
          "content" : "加入糖浆，用小锤捣烂或者手持料理棒打碎。",
          "thumb" : "https:\/\/i1.douguo.com\/upload\/caiku\/c\/9\/2\/140_c97dc5bc9fae14258b89a9ec30a72bb2.JPG",
          "position" : 3,
          "image_width" : 1920,
          "image_height" : 1280
        },
        {
          "thumb" : "https:\/\/i1.douguo.com\/upload\/caiku\/6\/a\/b\/140_6a75b494d6875b0e59bbd7ecbfe2dabb.JPG",
          "image" : "https:\/\/i1.douguo.com\/upload\/caiku\/6\/a\/b\/6a75b494d6875b0e59bbd7ecbfe2dabb.JPG",
          "image_width" : 1920,
          "position" : 4,
          "image_height" : 1280,
          "frame" : "-1",
          "content" : "做好的木瓜泥放入杯子底部"
        },
        {
          "thumb" : "https:\/\/i1.douguo.com\/upload\/caiku\/3\/e\/6\/140_3e5ecdb438af68b907c7f0d2ee0ee346.JPG",
          "image" : "https:\/\/i1.douguo.com\/upload\/caiku\/3\/e\/6\/3e5ecdb438af68b907c7f0d2ee0ee346.JPG",
          "content" : "加入适量冰块放置备用",
          "image_height" : 1280,
          "position" : 5,
          "image_width" : 1920,
          "frame" : "-1"
        },
        {
          "image_height" : 1280,
          "content" : "将椰子粉放入容器",
          "thumb" : "https:\/\/i1.douguo.com\/upload\/caiku\/7\/b\/1\/140_7b07e35d0e028cbb5ad6ac531a5dfa21.JPG",
          "position" : 6,
          "frame" : "-1",
          "image_width" : 1920,
          "image" : "https:\/\/i1.douguo.com\/upload\/caiku\/7\/b\/1\/7b07e35d0e028cbb5ad6ac531a5dfa21.JPG"
        },
        {
          "content" : "加入牛奶搅拌至椰子粉融化",
          "frame" : "-1",
          "image_width" : 1920,
          "thumb" : "https:\/\/i1.douguo.com\/upload\/caiku\/1\/3\/b\/140_13d98913fdedfe309e5f2fd8791ed5eb.JPG",
          "position" : 7,
          "image" : "https:\/\/i1.douguo.com\/upload\/caiku\/1\/3\/b\/13d98913fdedfe309e5f2fd8791ed5eb.JPG",
          "image_height" : 1280
        },
        {
          "position" : 8,
          "frame" : "-1",
          "thumb" : "https:\/\/i1.douguo.com\/upload\/caiku\/0\/e\/8\/140_0eddc6621e1ec2c5ae89b835aabff048.JPG",
          "image" : "https:\/\/i1.douguo.com\/upload\/caiku\/0\/e\/8\/0eddc6621e1ec2c5ae89b835aabff048.JPG",
          "image_width" : 1920,
          "image_height" : 1280,
          "content" : "倒入之前木瓜泥杯中就完成啦～"
        },
        {
          "thumb" : "https:\/\/i1.douguo.com\/upload\/caiku\/6\/3\/7\/140_63d13777fb20ab848a51ad64176daf17.jpg",
          "image" : "https:\/\/i1.douguo.com\/upload\/caiku\/6\/3\/7\/63d13777fb20ab848a51ad64176daf17.jpg",
          "image_width" : 1776,
          "content" : "成品",
          "image_height" : 1184,
          "frame" : "-1",
          "position" : 9
        },
        {
          "frame" : "-1",
          "image_width" : 1776,
          "content" : "成品",
          "image" : "https:\/\/i1.douguo.com\/upload\/caiku\/7\/7\/9\/77b951e239a1c5df5f49c436f206f989.jpg",
          "image_height" : 1184,
          "thumb" : "https:\/\/i1.douguo.com\/upload\/caiku\/7\/7\/9\/140_77b951e239a1c5df5f49c436f206f989.jpg",
          "position" : 10
        }
      ],
      "rate_show" : 0,
      "ipia" : [

      ],
      "bs" : [

      ],
      "top_mdsp" : [

      ],
      "recommendation_tag" : "",
      "recent_comments" : [

      ],
      "eu" : "recipes:\/\/www.douguo.com\/postdetail?id=242016",
      "title" : "椰香木瓜鲜奶",
      "ss" : [

      ],
      "sc" : 0,
      "author_photo" : "http:\/\/tx1.douguo.net\/upload\/photo\/d\/e\/7\/70_u01012076308597112706.jpeg",
      "clicks" : "156778",
      "rpt" : "",
      "act_des" : "",
      "share_info" : {
        "object_id" : "2068494",
        "mini_program" : [

        ],
        "infos" : [
          {
            "mini_program" : [

            ],
            "s_d" : "#学做饭用豆果美食# 会做饭真是太酷了！我在@豆果美食 分享了【椰香木瓜鲜奶#做道好菜，自我宠爱！#-会做饭很酷!】，这道菜真的神仙美味！喜欢的一定要试试绝对不会错的！～查看图片了解菜谱（快来点击https:\/\/m.weibo.cn\/p\/100404i33631和我一起修炼厨艺吧）",
            "image" : "https:\/\/cp1.douguo.com\/upload\/caiku\/b\/7\/4\/b7b80c61eae8d4d60fabe76f02480e94.jpg",
            "name" : "椰香木瓜鲜奶#做道好菜，自我宠爱！#-会做饭很酷!",
            "object_id" : "2068494",
            "qr_image" : "",
            "channel" : "1",
            "s_u" : ""
          },
          {
            "image" : "https:\/\/cp1.douguo.com\/upload\/caiku\/b\/7\/4\/b7b80c61eae8d4d60fabe76f02480e94.jpg",
            "s_d" : "椰香木瓜鲜奶#做道好菜，自我宠爱！#-会做饭很酷!",
            "object_id" : "2068494",
            "mini_program" : [

            ],
            "name" : "椰香木瓜鲜奶#做道好菜，自我宠爱！#-会做饭很酷!",
            "channel" : "7",
            "qr_image" : "",
            "s_u" : "http:\/\/m.douguo.com\/cookbook\/2068494.html"
          },
          {
            "object_id" : "2068494",
            "qr_image" : "",
            "s_u" : "http:\/\/m.douguo.com\/cookbook\/2068494.html",
            "name" : "椰香木瓜鲜奶#做道好菜，自我宠爱！#-会做饭很酷!",
            "channel" : "8",
            "image" : "https:\/\/cp1.douguo.com\/upload\/caiku\/b\/7\/4\/b7b80c61eae8d4d60fabe76f02480e94.jpg",
            "s_d" : "椰香木瓜鲜奶#做道好菜，自我宠爱！#-会做饭很酷!",
            "mini_program" : [

            ]
          }
        ],
        "s_d" : "椰香木瓜鲜奶#做道好菜，自我宠爱！#-会做饭很酷!",
        "name" : "椰香木瓜鲜奶#做道好菜，自我宠爱！#-会做饭很酷!",
        "qr_image" : "",
        "s_u" : "http:\/\/m.douguo.com\/cookbook\/2068494.html",
        "image" : "https:\/\/cp1.douguo.com\/upload\/caiku\/b\/7\/4\/b7b80c61eae8d4d60fabe76f02480e94.jpg"
      },
      "comments" : [
        "{\n    ac = \"#999999\";\n    at = \"\";\n    ccc = 0;\n    \"child_comments\" =     (\n    );\n    city = \"\";\n    cmc = 2;\n    content =     (\n                {\n            c = \"\\U5236\\U4f5c\\U7b80\\U5355\\Uff0c\\U5206\\U5206\\U949fget\\Uff01\\U563b\\U563b\\Uff01\";\n        }\n    );\n    ia = 0;\n    id = 6443278;\n    \"ip_address_location\" = \"\";\n    like = 0;\n    \"like_count\" = 0;\n    \"reply_id\" = 0;\n    \"sticker_icon\" =     (\n    );\n    time = \"2019-03-15 17:21:27\";\n    u =     {\n        \"followers_count_text\" = \"\";\n        id = 18442591;\n        \"is_prime\" = 0;\n        lv = 0;\n        lvl = 2;\n        n = \"\\U6709\\U6bd4\\U5403\\U66f4\\U91cd\\U8981\\U7684\\U4e8b\\U5417\";\n        p = \"http:\/\/tx1.douguo.net\/upload\/photo\/7\/d\/4\/70_u33018929674813190443.jpg\";\n        \"progress_image\" = \"\";\n        \"recipes_count_text\" = \"\";\n        relationship = \"-1\";\n        title = \"\";\n        v = 0;\n        \"verified_image\" = \"\";\n    };\n}",
        "{\n    ac = \"#999999\";\n    at = \"\";\n    ccc = 0;\n    \"child_comments\" =     (\n    );\n    city = \"\";\n    cmc = 2;\n    content =     (\n                {\n            c = \"so easy\\Uff01\\U54c8\\U54c8\\U554a\\U54c8\\Uff01\";\n        }\n    );\n    ia = 0;\n    id = 6443276;\n    \"ip_address_location\" = \"\";\n    like = 0;\n    \"like_count\" = 0;\n    \"reply_id\" = 0;\n    \"sticker_icon\" =     (\n    );\n    time = \"2019-03-15 17:21:18\";\n    u =     {\n        \"followers_count_text\" = \"\";\n        id = 18450221;\n        \"is_prime\" = 0;\n        lv = 0;\n        lvl = 4;\n        n = \"\\U5168\\U795e\\U8d2f\\U6ce8\\U7684\\U9e21\\U7fc5\\U5c16\\U5f88\\U7aef\\U6b63\";\n        p = \"http:\/\/tx1.douguo.net\/upload\/photo\/1\/1\/1\/70_f36e1204da7dee4b5ba01816c032b7cc.png\";\n        \"progress_image\" = \"\";\n        \"recipes_count_text\" = \"\";\n        relationship = \"-1\";\n        title = \"\";\n        v = 0;\n        \"verified_image\" = \"\";\n    };\n}",
        "{\n    ac = \"#999999\";\n    at = \"\";\n    ccc = 0;\n    \"child_comments\" =     (\n    );\n    city = \"\";\n    cmc = 2;\n    content =     (\n                {\n            c = \"\\U53e3\\U6c34\\U6700\\U4e0d\\U4e89\\U6c14\\U54c8\\U54c8\\U54c8\\Uff01\";\n        }\n    );\n    ia = 0;\n    id = 6443275;\n    \"ip_address_location\" = \"\";\n    like = 0;\n    \"like_count\" = 0;\n    \"reply_id\" = 0;\n    \"sticker_icon\" =     (\n    );\n    time = \"2019-03-15 17:21:12\";\n    u =     {\n        \"followers_count_text\" = \"\";\n        id = 18463297;\n        \"is_prime\" = 0;\n        lv = 0;\n        lvl = 4;\n        n = Rain007;\n        p = \"http:\/\/tx1.douguo.net\/upload\/photo\/c\/d\/1\/70_u85603226202854142934.jpg\";\n        \"progress_image\" = \"\";\n        \"recipes_count_text\" = \"\";\n        relationship = \"-1\";\n        title = \"\";\n        v = 0;\n        \"verified_image\" = \"\";\n    };\n}"
      ],
      "vc" : "157899",
      "minor" : [

      ],
      "cook_time_image" : "https:\/\/i1.douguo.com\/upload\/banner\/1551424358.png",
      "rpid" : 0,
      "ecs" : 0,
      "pw" : 1776,
      "dish_count" : 0,
      "thumb_height" : 0,
      "recommended" : 0,
      "recipe_tags" : [

      ],
      "author_id" : 20711347,
      "tips" : "没有冰糖浆的可以使用蜂蜜\/枫糖浆代替。\n椰子粉也可以使用30ml椰浆代替。"
    }
  },
  "state" : "success"
}