{
  "state" : "success",
  "result" : {
    "recipe" : {
      "author" : "严小姐手工坊",
      "recommendation_tag" : "",
      "rpid" : 0,
      "pw" : 600,
      "recipe_tags" : [

      ],
      "recipe_list_tags" : [
        {
          "background_border_color" : "",
          "jump_url" : "",
          "right_image" : "",
          "text_color" : "#141515",
          "background_start_color" : "#F4F5F5",
          "text" : "关注的人",
          "background_end_color" : "#F4F5F5"
        },
        {
          "text_color" : "#141515",
          "right_image" : "",
          "background_border_color" : "",
          "jump_url" : "",
          "background_end_color" : "#F4F5F5",
          "text" : "内容详细",
          "background_start_color" : "#F4F5F5"
        }
      ],
      "bs" : [

      ],
      "hqu" : "recipes:\/\/www.douguo.com\/notedetail?id=21162253",
      "views_count_text" : "8.6万",
      "mid_mdsp" : [

      ],
      "ipia" : [

      ],
      "thumb_height" : 0,
      "share_info" : {
        "object_id" : "2507573",
        "s_d" : "云南菜~木姜子杂酱（素酱）-会做饭很酷!",
        "name" : "云南菜~木姜子杂酱（素酱）-会做饭很酷!",
        "image" : "https:\/\/cp1.douguo.com\/upload\/caiku\/b\/a\/7\/bab1010366704dad165422fe16f47cf7.jpg",
        "infos" : [
          {
            "s_u" : "",
            "channel" : "1",
            "object_id" : "2507573",
            "name" : "云南菜~木姜子杂酱（素酱）-会做饭很酷!",
            "s_d" : "#学做饭用豆果美食# 会做饭真是太酷了！我在@豆果美食 分享了【云南菜~木姜子杂酱（素酱）-会做饭很酷!】，这道菜真的神仙美味！喜欢的一定要试试绝对不会错的！～查看图片了解菜谱（快来点击https:\/\/m.weibo.cn\/p\/100404i33631和我一起修炼厨艺吧）",
            "qr_image" : "",
            "image" : "https:\/\/cp1.douguo.com\/upload\/caiku\/b\/a\/7\/bab1010366704dad165422fe16f47cf7.jpg",
            "mini_program" : [

            ]
          },
          {
            "s_d" : "云南菜~木姜子杂酱（素酱）-会做饭很酷!",
            "object_id" : "2507573",
            "name" : "云南菜~木姜子杂酱（素酱）-会做饭很酷!",
            "mini_program" : [

            ],
            "s_u" : "http:\/\/m.douguo.com\/cookbook\/2507573.html",
            "image" : "https:\/\/cp1.douguo.com\/upload\/caiku\/b\/a\/7\/bab1010366704dad165422fe16f47cf7.jpg",
            "channel" : "7",
            "qr_image" : ""
          },
          {
            "channel" : "8",
            "mini_program" : [

            ],
            "object_id" : "2507573",
            "image" : "https:\/\/cp1.douguo.com\/upload\/caiku\/b\/a\/7\/bab1010366704dad165422fe16f47cf7.jpg",
            "s_u" : "http:\/\/m.douguo.com\/cookbook\/2507573.html",
            "qr_image" : "",
            "s_d" : "云南菜~木姜子杂酱（素酱）-会做饭很酷!",
            "name" : "云南菜~木姜子杂酱（素酱）-会做饭很酷!"
          }
        ],
        "s_u" : "http:\/\/m.douguo.com\/cookbook\/2507573.html",
        "qr_image" : "",
        "mini_program" : [

        ]
      },
      "display_ingredient" : 1,
      "eu" : "recipes:\/\/www.douguo.com\/postdetail?id=242016",
      "ecs" : 1,
      "rate" : 0,
      "related_ads" : [

      ],
      "favo_counts" : 511,
      "purl" : "",
      "cookstep" : [
        {
          "frame" : "-1",
          "thumb" : "https:\/\/i1.douguo.com\/upload\/caiku\/6\/e\/5\/140_6e1c270d532dcddb3a30f235adb6b445.jpg",
          "image_height" : 1440,
          "position" : 1,
          "image" : "https:\/\/i1.douguo.com\/upload\/caiku\/6\/e\/5\/6e1c270d532dcddb3a30f235adb6b445.jpg",
          "content" : "新鲜木姜子洗净控水",
          "image_width" : 1080
        },
        {
          "frame" : "-1",
          "position" : 2,
          "image_height" : 853,
          "content" : "舂碎",
          "thumb" : "https:\/\/i1.douguo.com\/upload\/caiku\/d\/4\/a\/140_d43e04ca57dae1a733ca435b6c790d2a.jpg",
          "image" : "https:\/\/i1.douguo.com\/upload\/caiku\/d\/4\/a\/d43e04ca57dae1a733ca435b6c790d2a.jpg",
          "image_width" : 640
        },
        {
          "position" : 3,
          "image_height" : 1440,
          "content" : "边舂边搅拌",
          "image" : "https:\/\/i1.douguo.com\/upload\/caiku\/8\/3\/3\/8301ad77b6d83302d5a01667a7419e53.jpg",
          "thumb" : "https:\/\/i1.douguo.com\/upload\/caiku\/8\/3\/3\/140_8301ad77b6d83302d5a01667a7419e53.jpg",
          "frame" : "-1",
          "image_width" : 1080
        },
        {
          "image" : "https:\/\/i1.douguo.com\/upload\/caiku\/d\/4\/a\/d4d5ce4675c513808d3fc25655c8872a.jpg",
          "frame" : "-1",
          "position" : 4,
          "content" : "舂碎差不多这样子",
          "image_height" : 1440,
          "thumb" : "https:\/\/i1.douguo.com\/upload\/caiku\/d\/4\/a\/140_d4d5ce4675c513808d3fc25655c8872a.jpg",
          "image_width" : 1080
        },
        {
          "image" : "https:\/\/i1.douguo.com\/upload\/caiku\/3\/6\/e\/36a12738feaaecbf0e0520e45ccb9b1e.jpg",
          "image_height" : 1067,
          "frame" : "-1",
          "content" : "严小姐私制2年甜面酱",
          "image_width" : 800,
          "position" : 5,
          "thumb" : "https:\/\/i1.douguo.com\/upload\/caiku\/3\/6\/e\/140_36a12738feaaecbf0e0520e45ccb9b1e.jpg"
        },
        {
          "image" : "https:\/\/i1.douguo.com\/upload\/caiku\/b\/e\/f\/beaaf0fe8411fabd9967a60401fd5e8f.jpg",
          "content" : "严小姐私制辣酱",
          "image_width" : 800,
          "image_height" : 1067,
          "thumb" : "https:\/\/i1.douguo.com\/upload\/caiku\/b\/e\/f\/140_beaaf0fe8411fabd9967a60401fd5e8f.jpg",
          "frame" : "-1",
          "position" : 6
        },
        {
          "image_width" : 800,
          "image_height" : 1067,
          "frame" : "-1",
          "thumb" : "https:\/\/i1.douguo.com\/upload\/caiku\/9\/8\/5\/140_98e393ff3a6710c0ee26b8332dd9b465.jpg",
          "image" : "https:\/\/i1.douguo.com\/upload\/caiku\/9\/8\/5\/98e393ff3a6710c0ee26b8332dd9b465.jpg",
          "position" : 7,
          "content" : "油温烧开"
        },
        {
          "thumb" : "https:\/\/i1.douguo.com\/upload\/caiku\/8\/d\/b\/140_8d3076b08a631e44294ae106268bc5db.jpg",
          "image" : "https:\/\/i1.douguo.com\/upload\/caiku\/8\/d\/b\/8d3076b08a631e44294ae106268bc5db.jpg",
          "content" : "放小茴香  花椒",
          "position" : 8,
          "image_width" : 1080,
          "frame" : "-1",
          "image_height" : 1440
        },
        {
          "image" : "https:\/\/i1.douguo.com\/upload\/caiku\/d\/1\/d\/d1a49ebb86bba8b5815ae7bd1b3a320d.jpg",
          "image_width" : 800,
          "thumb" : "https:\/\/i1.douguo.com\/upload\/caiku\/d\/1\/d\/140_d1a49ebb86bba8b5815ae7bd1b3a320d.jpg",
          "frame" : "-1",
          "position" : 9,
          "content" : "再下木姜子翻炒",
          "image_height" : 1067
        },
        {
          "image_height" : 1440,
          "frame" : "-1",
          "image" : "https:\/\/i1.douguo.com\/upload\/caiku\/0\/9\/e\/096da18cad929ab3cfc4c336710c3d7e.jpg",
          "content" : "放入两种酱搅拌匀称",
          "image_width" : 1080,
          "position" : 10,
          "thumb" : "https:\/\/i1.douguo.com\/upload\/caiku\/0\/9\/e\/140_096da18cad929ab3cfc4c336710c3d7e.jpg"
        },
        {
          "frame" : "-1",
          "image_height" : 1067,
          "image_width" : 800,
          "content" : "翻炒 5分钟",
          "thumb" : "https:\/\/i1.douguo.com\/upload\/caiku\/2\/3\/4\/140_23a1e37275f737defb235f397b07d504.jpg",
          "position" : 11,
          "image" : "https:\/\/i1.douguo.com\/upload\/caiku\/2\/3\/4\/23a1e37275f737defb235f397b07d504.jpg"
        },
        {
          "thumb" : "https:\/\/i1.douguo.com\/upload\/caiku\/a\/6\/c\/140_a63ac7c532f1ca7cc9e3885c2c53dd4c.jpg",
          "position" : 12,
          "content" : "盛出  装好，密封 煮面条 米线  饵丝等等都可以放上一勺。",
          "frame" : "-1",
          "image_height" : 1440,
          "image_width" : 1080,
          "image" : "https:\/\/i1.douguo.com\/upload\/caiku\/a\/6\/c\/a63ac7c532f1ca7cc9e3885c2c53dd4c.jpg"
        }
      ],
      "title_ad" : [

      ],
      "ipoi" : "",
      "cook_time" : "1小时以上",
      "tips" : "天热吃不进去饭可以凉拌加入这个帽子",
      "ipci" : "",
      "minor" : [

      ],
      "cook_time_image" : "https:\/\/i1.douguo.com\/upload\/banner\/1551423815.png",
      "comments_count" : 6,
      "rsm" : "该功能暂停使用",
      "rate_count" : 0,
      "brand_day_dsp" : [

      ],
      "collect_status" : 0,
      "sc" : 0,
      "hq" : 1,
      "tags" : [

      ],
      "cookstory" : "              木姜子颗粒微小宛若花椒，隐藏在密林之中，毫不起眼，很容易被人忽略。但触碰之下，一股混合了花椒、柠檬以及姜的香气，独特而又高调，侵入鼻腔，形成很高的辨识度。因为香味过于刺激，人们对于木姜子的态度，大抵形成两个对立的极端：极爱，或极恨。\n            据此将人类分为两种：一种是喜欢它的人，另一种是不喜欢它的人。 \n             诗人李元胜《木姜子》描诉“你们不曾了解的家族”，“每片树叶上，仿佛都坐着一个清谈家”，“与生俱来的知识，让它们饶舌、尖刻”……\n当然，它们的表达借助了化学\n借助了对气味的创造性发挥\n从花到果，它们制造着无数的折叠旋梯\n但是那些工匠却并不沉默\n 他们谈笑风生，他们的思想\n像一些旋转的，边缘锋利的螺旋桨\n由风带到四面八方 \n他们谈笑风生，他们的思想\n  \n原来木姜子从来没有孤独过\n它有着无形的手臂和脚步\n它们既是分散的，也可以认为是一个整体\n它们有热情的姿势，也有着绝不妥协的个性\n喜欢它们的人因此更喜欢\n头痛它们的人则更头痛 \n像一些旋转的，边缘锋利的螺旋桨\n由风带到四面八方                                    \n\n（文出自  范时勇先生  小菜的院子散文）",
      "title" : "云南菜~木姜子杂酱（素酱）",
      "vc" : "86013",
      "release_time" : "",
      "image" : "http:\/\/i1.douguo.net\/upload\/caiku\/b\/a\/7\/300_bab1010366704dad165422fe16f47cf7.jpg",
      "user" : {
        "mobile" : "",
        "email" : "",
        "user_photo" : "http:\/\/tx1.douguo.net\/upload\/photo\/d\/2\/0\/70_d213023d88cdad422ae78856aa5ee1f0.jpg",
        "age" : "",
        "fc" : 0,
        "following_count" : 0,
        "lv" : 0,
        "sign" : "",
        "subscription_article_count" : 0,
        "introduction" : "",
        "user_cover" : "",
        "verified" : 0,
        "dishes_count" : 0,
        "regist_time" : "",
        "subscription" : 0,
        "is_prime" : 0,
        "verified_image" : "",
        "point" : 0,
        "setted_email" : 0,
        "recipes_count" : 0,
        "userid" : "1871704",
        "favorites_count" : 0,
        "avatar_medium" : "http:\/\/tx1.douguo.net\/upload\/photo\/d\/2\/0\/140_d213023d88cdad422ae78856aa5ee1f0.jpg",
        "diaries_count" : 0,
        "location" : 0,
        "user_id" : "1871704",
        "nick" : "严小姐手工坊",
        "birthday" : "",
        "pc" : 0,
        "coursecount" : 0,
        "user_large_photo" : "http:\/\/tx1.douguo.net\/upload\/photo\/d\/2\/0\/yuan_d213023d88cdad422ae78856aa5ee1f0.jpg",
        "qq_weibo_nick" : "",
        "favor_diaries_count" : 0,
        "progress_image" : "",
        "gender" : 2,
        "lvl" : 6,
        "followers_count" : 0,
        "verified_url" : "https:\/\/m.douguo.com\/user\/prodesc",
        "weibo_nick" : "",
        "qzone_nick" : ""
      },
      "cook_id" : "2507573",
      "v_u" : "",
      "vu" : "",
      "recommended" : 0,
      "ss" : [

      ],
      "ipit" : 0,
      "ph" : 800,
      "rpt" : "",
      "levelid" : 2,
      "story_dsp" : [

      ],
      "cook_difficulty" : "切墩(初级)",
      "create_time" : "2020-06-09 13:33:01",
      "btm_dsp" : [

      ],
      "comments" : [
        "{\n    ac = \"#999999\";\n    at = \"\";\n    ccc = 1;\n    \"child_comments\" =     (\n                {\n            ac = \"#999999\";\n            at = \"\\U6606\\U660e\\U5e02\";\n            ccc = 0;\n            city = \"\\U6606\\U660e\\U5e02\";\n            cmc = 2;\n            content =             (\n                                {\n                    c = \" \\U2764\\Ud83d\\Udc4f\";\n                }\n            );\n            ia = 1;\n            id = 8055478;\n            \"ip_address_location\" = \"\";\n            like = 0;\n            \"like_count\" = 0;\n            \"reply_id\" = 8055379;\n            \"reply_user\" =             {\n                \"followers_count_text\" = \"\";\n                id = 18580274;\n                \"is_prime\" = 0;\n                lv = 0;\n                lvl = 4;\n                n = maonvla;\n                p = \"http:\/\/tx1.douguo.net\/upload\/photo\/6\/d\/6\/70_u22872544817820409003943.jpg\";\n                \"progress_image\" = \"\";\n                \"recipes_count_text\" = \"\";\n                relationship = \"-1\";\n                title = \"\";\n                v = 0;\n                \"verified_image\" = \"\";\n            };\n            \"sticker_icon\" =             (\n            );\n            time = \"2020-06-09 15:19:01\";\n            u =             {\n                \"followers_count_text\" = \"\";\n                id = 1871704;\n                \"is_prime\" = 0;\n                lv = 0;\n                lvl = 6;\n                n = \"\\U4e25\\U5c0f\\U59d0\\U624b\\U5de5\\U574a\";\n                p = \"http:\/\/tx1.douguo.net\/upload\/photo\/d\/2\/0\/70_d213023d88cdad422ae78856aa5ee1f0.jpg\";\n                \"progress_image\" = \"\";\n                \"recipes_count_text\" = \"\";\n                relationship = \"-1\";\n                title = \"\";\n                v = 0;\n                \"verified_image\" = \"\";\n            };\n        }\n    );\n    city = \"\";\n    cmc = 2;\n    content =     (\n                {\n            c = \"\\U56de\\U5bb6\\U5c31\\U8981\\U8bd5\\U8bd5\\Uff0c\\U770b\\U7740\\U5c31\\U7f8e\\U5473\\Uff01\";\n        }\n    );\n    ia = 0;\n    id = 8055379;\n    \"ip_address_location\" = \"\";\n    like = 0;\n    \"like_count\" = 0;\n    \"reply_id\" = 0;\n    \"sticker_icon\" =     (\n    );\n    time = \"2020-06-09 14:51:13\";\n    u =     {\n        \"followers_count_text\" = \"\";\n        id = 18580274;\n        \"is_prime\" = 0;\n        lv = 0;\n        lvl = 4;\n        n = maonvla;\n        p = \"http:\/\/tx1.douguo.net\/upload\/photo\/6\/d\/6\/70_u22872544817820409003943.jpg\";\n        \"progress_image\" = \"\";\n        \"recipes_count_text\" = \"\";\n        relationship = \"-1\";\n        title = \"\";\n        v = 0;\n        \"verified_image\" = \"\";\n    };\n}",
        "{\n    ac = \"#999999\";\n    at = \"\";\n    ccc = 1;\n    \"child_comments\" =     (\n                {\n            ac = \"#999999\";\n            at = \"\\U6606\\U660e\\U5e02\";\n            ccc = 0;\n            city = \"\\U6606\\U660e\\U5e02\";\n            cmc = 2;\n            content =             (\n                                {\n                    c = \" \\U2764\\U8c22\\U8c22\";\n                }\n            );\n            ia = 1;\n            id = 8055238;\n            \"ip_address_location\" = \"\";\n            like = 0;\n            \"like_count\" = 0;\n            \"reply_id\" = 8055161;\n            \"reply_user\" =             {\n                \"followers_count_text\" = \"\";\n                id = 24595056;\n                \"is_prime\" = 0;\n                lv = 0;\n                lvl = 1;\n                n = \"\\U55be\\U541bbPl\";\n                p = \"http:\/\/tx1.douguo.net\/upload\/photo\/8\/2\/4\/70_u62022280738770131244.jpg\";\n                \"progress_image\" = \"\";\n                \"recipes_count_text\" = \"\";\n                relationship = \"-1\";\n                title = \"\";\n                v = 0;\n                \"verified_image\" = \"\";\n            };\n            \"sticker_icon\" =             (\n            );\n            time = \"2020-06-09 13:56:28\";\n            u =             {\n                \"followers_count_text\" = \"\";\n                id = 1871704;\n                \"is_prime\" = 0;\n                lv = 0;\n                lvl = 6;\n                n = \"\\U4e25\\U5c0f\\U59d0\\U624b\\U5de5\\U574a\";\n                p = \"http:\/\/tx1.douguo.net\/upload\/photo\/d\/2\/0\/70_d213023d88cdad422ae78856aa5ee1f0.jpg\";\n                \"progress_image\" = \"\";\n                \"recipes_count_text\" = \"\";\n                relationship = \"-1\";\n                title = \"\";\n                v = 0;\n                \"verified_image\" = \"\";\n            };\n        }\n    );\n    city = \"\";\n    cmc = 2;\n    content =     (\n                {\n            c = \"\\U4e5f\\U592a\\U725b\\U4e86\\U5427\\Uff0c\\U771f\\U5f3a\\U554a\";\n        }\n    );\n    ia = 0;\n    id = 8055161;\n    \"ip_address_location\" = \"\";\n    like = 0;\n    \"like_count\" = 0;\n    \"reply_id\" = 0;\n    \"sticker_icon\" =     (\n    );\n    time = \"2020-06-09 13:38:04\";\n    u =     {\n        \"followers_count_text\" = \"\";\n        id = 24595056;\n        \"is_prime\" = 0;\n        lv = 0;\n        lvl = 1;\n        n = \"\\U55be\\U541bbPl\";\n        p = \"http:\/\/tx1.douguo.net\/upload\/photo\/8\/2\/4\/70_u62022280738770131244.jpg\";\n        \"progress_image\" = \"\";\n        \"recipes_count_text\" = \"\";\n        relationship = \"-1\";\n        title = \"\";\n        v = 0;\n        \"verified_image\" = \"\";\n    };\n}",
        "{\n    ac = \"#999999\";\n    at = \"\";\n    ccc = 1;\n    \"child_comments\" =     (\n                {\n            ac = \"#999999\";\n            at = \"\\U6606\\U660e\\U5e02\";\n            ccc = 0;\n            city = \"\\U6606\\U660e\\U5e02\";\n            cmc = 2;\n            content =             (\n                                {\n                    c = \" \\U2764\";\n                }\n            );\n            ia = 1;\n            id = 8871021;\n            \"ip_address_location\" = \"\";\n            like = 0;\n            \"like_count\" = 0;\n            \"reply_id\" = 8870927;\n            \"reply_user\" =             {\n                \"followers_count_text\" = \"\";\n                id = 20020705;\n                \"is_prime\" = 0;\n                lv = 0;\n                lvl = 2;\n                n = \"\\U5982\\U70dfpegc\";\n                p = \"http:\/\/tx1.douguo.net\/upload\/photo\/f\/4\/4\/70_u91798525453923123351.jpg\";\n                \"progress_image\" = \"\";\n                \"recipes_count_text\" = \"\";\n                relationship = \"-1\";\n                title = \"\";\n                v = 0;\n                \"verified_image\" = \"\";\n            };\n            \"sticker_icon\" =             (\n            );\n            time = \"2021-11-23 22:28:03\";\n            u =             {\n                \"followers_count_text\" = \"\";\n                id = 1871704;\n                \"is_prime\" = 0;\n                lv = 0;\n                lvl = 6;\n                n = \"\\U4e25\\U5c0f\\U59d0\\U624b\\U5de5\\U574a\";\n                p = \"http:\/\/tx1.douguo.net\/upload\/photo\/d\/2\/0\/70_d213023d88cdad422ae78856aa5ee1f0.jpg\";\n                \"progress_image\" = \"\";\n                \"recipes_count_text\" = \"\";\n                relationship = \"-1\";\n                title = \"\";\n                v = 0;\n                \"verified_image\" = \"\";\n            };\n        }\n    );\n    city = \"\";\n    cmc = 2;\n    content =     (\n                {\n            c = \"\\U4e0b\\U996d\\U83dc\";\n        }\n    );\n    ia = 0;\n    id = 8870927;\n    \"ip_address_location\" = \"\";\n    like = 0;\n    \"like_count\" = 0;\n    \"reply_id\" = 0;\n    \"sticker_icon\" =     (\n    );\n    time = \"2021-11-23 20:43:09\";\n    u =     {\n        \"followers_count_text\" = \"\";\n        id = 20020705;\n        \"is_prime\" = 0;\n        lv = 0;\n        lvl = 2;\n        n = \"\\U5982\\U70dfpegc\";\n        p = \"http:\/\/tx1.douguo.net\/upload\/photo\/f\/4\/4\/70_u91798525453923123351.jpg\";\n        \"progress_image\" = \"\";\n        \"recipes_count_text\" = \"\";\n        relationship = \"-1\";\n        title = \"\";\n        v = 0;\n        \"verified_image\" = \"\";\n    };\n}"
      ],
      "rpst" : "",
      "author_photo" : "http:\/\/tx1.douguo.net\/upload\/photo\/d\/2\/0\/70_d213023d88cdad422ae78856aa5ee1f0.jpg",
      "dish_count" : 0,
      "major" : [
        {
          "title" : "新鲜木姜子",
          "note" : "100克"
        },
        {
          "title" : "木舂",
          "note" : "1套"
        },
        {
          "title" : "严小姐私制甜酱",
          "note" : "30克"
        },
        {
          "note" : "30克",
          "title" : "严小姐私制辣酱"
        },
        {
          "note" : "1勺",
          "title" : "小茴香"
        },
        {
          "title" : "花椒",
          "tu" : "https:\/\/m.douguo.com\/ingredients\/花椒\/detailmaterial",
          "note" : "1勺"
        },
        {
          "note" : "适量",
          "tu" : "https:\/\/m.douguo.com\/ingredients\/菜籽油\/detailmaterial",
          "title" : "菜籽油"
        }
      ],
      "author_verified" : 0,
      "recent_comments" : [

      ],
      "comments_count_text" : "6",
      "rate_show" : 0,
      "guide_image" : "",
      "cookstorys" : [
        {
          "u" : "",
          "color" : "",
          "id" : 0,
          "type" : 0,
          "c" : "              木姜子颗粒微小宛若花椒，隐藏在密林之中，毫不起眼，很容易被人忽略。但触碰之下，一股混合了花椒、柠檬以及姜的香气，独特而又高调，侵入鼻腔，形成很高的辨识度。因为香味过于刺激，人们对于木姜子的态度，大抵形成两个对立的极端：极爱，或极恨。\n            据此将人类分为两种：一种是喜欢它的人，另一种是不喜欢它的人。 \n             诗人李元胜《木姜子》描诉“你们不曾了解的家族”，“每片树叶上，仿佛都坐着一个清谈家”，“与生俱来的知识，让它们饶舌、尖刻”……\n当然，它们的表达借助了化学\n借助了对气味的创造性发挥\n从花到果，它们制造着无数的折叠旋梯\n但是那些工匠却并不沉默\n 他们谈笑风生，他们的思想\n像一些旋转的，边缘锋利的螺旋桨\n由风带到四面八方 \n他们谈笑风生，他们的思想\n  \n原来木姜子从来没有孤独过\n它有着无形的手臂和脚步\n它们既是分散的，也可以认为是一个整体\n它们有热情的姿势，也有着绝不妥协的个性\n喜欢它们的人因此更喜欢\n头痛它们的人则更头痛 \n像一些旋转的，边缘锋利的螺旋桨\n由风带到四面八方                                    \n\n（文出自  范时勇先生  小菜的院子散文）",
          "icon" : ""
        }
      ],
      "ssu" : "",
      "rrpt" : "",
      "act_des" : "",
      "dish_count_text" : "",
      "dishes" : [

      ],
      "old_comments" : [

      ],
      "clicks" : "71131",
      "rrps" : [

      ],
      "recommend_label" : "8.6万人看过",
      "rips" : 0,
      "first_level_comment_count" : 3,
      "top_mdsp" : [

      ],
      "cook_difficulty_image" : "https:\/\/i1.douguo.com\/upload\/banner\/1551424390.png",
      "rcs" : [

      ],
      "sr" : "",
      "cookwares" : [

      ],
      "vfurl" : "",
      "su" : "",
      "thumb_path" : "https:\/\/i1.douguo.com\/upload\/caiku\/b\/a\/7\/300_bab1010366704dad165422fe16f47cf7.jpg",
      "author_id" : 1871704,
      "notes" : [

      ],
      "packages_id" : [

      ],
      "favo_counts_text" : "511",
      "original_photo_path" : "http:\/\/i1.douguo.net\/upload\/caiku\/b\/a\/7\/yuan_bab1010366704dad165422fe16f47cf7.jpg",
      "photo_path" : "https:\/\/i1.douguo.com\/upload\/caiku\/b\/a\/7\/600_bab1010366704dad165422fe16f47cf7.jpg",
      "rewarded_video_dsp" : [

      ],
      "ipurl" : "",
      "rdsps" : [

      ],
      "ipt" : ""
    }
  },
  "status" : 0
}