{
  "state" : "success",
  "result" : {
    "recipe" : {
      "thumb_path" : "https:\/\/i1.douguo.com\/upload\/caiku\/8\/e\/c\/300_8ebe25ac0759b378fbb9ce6ad20436ec.jpg",
      "author_id" : 10725889,
      "cookwares" : [

      ],
      "sr" : "",
      "original_photo_path" : "http:\/\/i1.douguo.net\/upload\/caiku\/8\/e\/c\/yuan_8ebe25ac0759b378fbb9ce6ad20436ec.jpg",
      "recommend_label" : "2人学做",
      "author" : "吴悠105",
      "first_level_comment_count" : 2,
      "rate_show" : 0,
      "purl" : "",
      "guide_image" : "",
      "packages_id" : [

      ],
      "rrpt" : "",
      "levelid" : 3,
      "recent_comments" : [

      ],
      "share_info" : {
        "infos" : [
          {
            "mini_program" : [

            ],
            "channel" : "1",
            "object_id" : "3050498",
            "s_d" : "#学做饭用豆果美食#  我在@豆果美食 分享了【不用吐刺的香酥带鱼罐头-会做饭很酷!】，制作美食的过程承载了我生活中的热情，和我一起感受这份小确幸吧！查看图片了解菜谱（你喜欢的美食都在这里！https:\/\/m.weibo.cn\/p\/100404i33631）#会做饭很酷# ",
            "name" : "不用吐刺的香酥带鱼罐头-会做饭很酷!",
            "s_u" : "",
            "qr_image" : "",
            "image" : "https:\/\/cp1.douguo.com\/upload\/caiku\/8\/e\/c\/8ebe25ac0759b378fbb9ce6ad20436ec.jpg"
          },
          {
            "channel" : "7",
            "s_d" : "不用吐刺的香酥带鱼罐头-会做饭很酷!",
            "s_u" : "http:\/\/m.douguo.com\/cookbook\/3050498.html",
            "mini_program" : [

            ],
            "image" : "https:\/\/cp1.douguo.com\/upload\/caiku\/8\/e\/c\/8ebe25ac0759b378fbb9ce6ad20436ec.jpg",
            "name" : "不用吐刺的香酥带鱼罐头-会做饭很酷!",
            "qr_image" : "",
            "object_id" : "3050498"
          },
          {
            "object_id" : "3050498",
            "channel" : "8",
            "mini_program" : [

            ],
            "s_d" : "不用吐刺的香酥带鱼罐头-会做饭很酷!",
            "qr_image" : "",
            "s_u" : "http:\/\/m.douguo.com\/cookbook\/3050498.html",
            "image" : "https:\/\/cp1.douguo.com\/upload\/caiku\/8\/e\/c\/8ebe25ac0759b378fbb9ce6ad20436ec.jpg",
            "name" : "不用吐刺的香酥带鱼罐头-会做饭很酷!"
          }
        ],
        "object_id" : "3050498",
        "image" : "https:\/\/cp1.douguo.com\/upload\/caiku\/8\/e\/c\/8ebe25ac0759b378fbb9ce6ad20436ec.jpg",
        "s_u" : "http:\/\/m.douguo.com\/cookbook\/3050498.html",
        "mini_program" : [

        ],
        "qr_image" : "",
        "name" : "不用吐刺的香酥带鱼罐头-会做饭很酷!",
        "s_d" : "不用吐刺的香酥带鱼罐头-会做饭很酷!"
      },
      "tips" : "",
      "recommendation_tag" : "",
      "display_ingredient" : 1,
      "mid_mdsp" : [

      ],
      "comments_count_text" : "2",
      "su" : "",
      "ph" : 1707,
      "cook_difficulty" : "切墩(初级)",
      "comments_count" : 2,
      "rips" : 0,
      "rpst" : "",
      "story_dsp" : [

      ],
      "act_des" : "",
      "image" : "http:\/\/i1.douguo.net\/upload\/caiku\/8\/e\/c\/300_8ebe25ac0759b378fbb9ce6ad20436ec.jpg",
      "vu" : "",
      "minor" : [

      ],
      "hqu" : "recipes:\/\/www.douguo.com\/notedetail?id=21162253",
      "dish_count" : 2,
      "clicks" : "23486",
      "recipe_list_tags" : [
        {
          "background_border_color" : "",
          "jump_url" : "",
          "text" : "关注的人",
          "right_image" : "",
          "background_start_color" : "#F4F5F5",
          "background_end_color" : "#F4F5F5",
          "text_color" : "#141515"
        }
      ],
      "major" : [
        {
          "title" : "带鱼",
          "tu" : "https:\/\/m.douguo.com\/ingredients\/带鱼\/detailmaterial",
          "note" : "10条"
        },
        {
          "note" : "适量",
          "tu" : "https:\/\/m.douguo.com\/ingredients\/葱姜\/detailmaterial",
          "title" : "葱姜"
        },
        {
          "note" : "3个",
          "title" : "干辣椒",
          "tu" : "https:\/\/m.douguo.com\/ingredients\/干辣椒\/detailmaterial"
        },
        {
          "tu" : "https:\/\/m.douguo.com\/ingredients\/桂皮\/detailmaterial",
          "note" : "1个",
          "title" : "桂皮"
        },
        {
          "tu" : "https:\/\/m.douguo.com\/ingredients\/香叶\/detailmaterial",
          "note" : "5片",
          "title" : "香叶"
        },
        {
          "note" : "适量",
          "title" : "料酒",
          "tu" : "https:\/\/m.douguo.com\/ingredients\/料酒\/detailmaterial"
        },
        {
          "tu" : "https:\/\/m.douguo.com\/ingredients\/酱油\/detailmaterial",
          "note" : "适量",
          "title" : "酱油"
        },
        {
          "title" : "糖",
          "tu" : "https:\/\/m.douguo.com\/ingredients\/糖\/detailmaterial",
          "note" : "适量"
        },
        {
          "title" : "水",
          "note" : "适量",
          "tu" : "https:\/\/m.douguo.com\/ingredients\/水\/detailmaterial"
        },
        {
          "note" : "5瓣",
          "title" : "蒜",
          "tu" : "https:\/\/m.douguo.com\/ingredients\/蒜\/detailmaterial"
        },
        {
          "note" : "2个",
          "tu" : "https:\/\/m.douguo.com\/ingredients\/八角\/detailmaterial",
          "title" : "八角"
        },
        {
          "note" : "2勺",
          "tu" : "https:\/\/m.douguo.com\/ingredients\/豆瓣酱\/detailmaterial",
          "title" : "豆瓣酱"
        },
        {
          "note" : "适量",
          "tu" : "https:\/\/m.douguo.com\/ingredients\/盐\/detailmaterial",
          "title" : "盐"
        }
      ],
      "v_u" : "",
      "ipt" : "",
      "rsm" : "该功能暂停使用",
      "cookstep" : [
        {
          "position" : 1,
          "image_height" : 1707,
          "content" : "带鱼清洗干净切断用葱姜料酒盐（一点点）腌20-30分钟去腥，然后控干水分，晾干或者用厨房纸擦干都行，不然煎的时候油蹦的可欢了。煎锅倒油，放入带鱼断煎至两面焦黄即可，盛出。",
          "image" : "https:\/\/i1.douguo.com\/upload\/caiku\/5\/8\/b\/58e548dfb1ec87c471f554e1213a00fb.jpg",
          "thumb" : "https:\/\/i1.douguo.com\/upload\/caiku\/5\/8\/b\/140_58e548dfb1ec87c471f554e1213a00fb.jpg",
          "frame" : "-1",
          "image_width" : 1280
        },
        {
          "image" : "https:\/\/i1.douguo.com\/upload\/caiku\/6\/e\/b\/6e62891f9065cff8ff2ab967ebd25a2b.jpg",
          "frame" : "-1",
          "position" : 2,
          "content" : "烧半锅开水。我做的少油版，喜欢油多的可以先倒油把豆瓣酱炒一炒再加水。",
          "image_height" : 1067,
          "thumb" : "https:\/\/i1.douguo.com\/upload\/caiku\/6\/e\/b\/140_6e62891f9065cff8ff2ab967ebd25a2b.jpg",
          "image_width" : 800
        },
        {
          "image" : "https:\/\/i1.douguo.com\/upload\/caiku\/2\/f\/9\/2fee8931eeb813201e9f6709b6233299.jpg",
          "image_height" : 1067,
          "frame" : "-1",
          "content" : "水开后放入全部佐料（葱姜蒜、大料、酱油豆瓣酱…）继续煮开",
          "position" : 3,
          "image_width" : 800,
          "thumb" : "https:\/\/i1.douguo.com\/upload\/caiku\/2\/f\/9\/140_2fee8931eeb813201e9f6709b6233299.jpg"
        },
        {
          "image" : "https:\/\/i1.douguo.com\/upload\/caiku\/6\/d\/c\/6d8b368a4f3edafcf12619318b15549c.jpg",
          "content" : "加入带鱼断，搅拌均匀，让每个带鱼都能入味，再倒入电压力锅。",
          "image_height" : 1707,
          "image_width" : 1280,
          "thumb" : "https:\/\/i1.douguo.com\/upload\/caiku\/6\/d\/c\/140_6d8b368a4f3edafcf12619318b15549c.jpg",
          "frame" : "-1",
          "position" : 4
        },
        {
          "image_height" : 1707,
          "image_width" : 1280,
          "frame" : "-1",
          "thumb" : "https:\/\/i1.douguo.com\/upload\/caiku\/7\/3\/d\/140_732c5e07499c6ac0ffdb3aa4d3a7b6bd.jpg",
          "image" : "https:\/\/i1.douguo.com\/upload\/caiku\/7\/3\/d\/732c5e07499c6ac0ffdb3aa4d3a7b6bd.jpg",
          "position" : 5,
          "content" : "电压力锅我选“肉\/鸡”档压了两次，第一次开盖尝了一下觉得骨头还有些硬，于是又压了一次，第二次开盖一尝整个鱼骨都酥了。下次选蹄筋类的试一下。"
        },
        {
          "thumb" : "https:\/\/i1.douguo.com\/upload\/caiku\/c\/2\/3\/140_c2bfa3e904609bdc10ce15b6b6e2ef93.jpg",
          "image" : "https:\/\/i1.douguo.com\/upload\/caiku\/c\/2\/3\/c2bfa3e904609bdc10ce15b6b6e2ef93.jpg",
          "content" : "这是第二次开盖后，肉和骨都已经酥软了，尝一下味道，觉得盐少自己加点，我没加盐，豆瓣酱和酱油里的盐已经够了，腌的时候也有放，所以觉得合适就再没放。",
          "position" : 6,
          "image_width" : 1280,
          "frame" : "-1",
          "image_height" : 1707
        },
        {
          "image" : "https:\/\/i1.douguo.com\/upload\/caiku\/0\/f\/f\/0f02f3bf0294ee369920c065bf3abbef.jpg",
          "thumb" : "https:\/\/i1.douguo.com\/upload\/caiku\/0\/f\/f\/140_0f02f3bf0294ee369920c065bf3abbef.jpg",
          "image_width" : 1280,
          "position" : 7,
          "frame" : "-1",
          "content" : "做的太多一次吃不完，我准备了5个干净的玻璃瓶，趁热装进瓶子里拧紧盖子。放冰箱冷藏保存。",
          "image_height" : 1707
        },
        {
          "image_height" : 1707,
          "frame" : "-1",
          "image" : "https:\/\/i1.douguo.com\/upload\/caiku\/4\/f\/e\/4fe11ee44f356d34d0bf0f117a099b3e.jpg",
          "content" : "五个瓶瓶来集合。好了，准备好米饭可以干饭了。",
          "image_width" : 1280,
          "position" : 8,
          "thumb" : "https:\/\/i1.douguo.com\/upload\/caiku\/4\/f\/e\/140_4fe11ee44f356d34d0bf0f117a099b3e.jpg"
        }
      ],
      "cook_id" : "3050498",
      "rpid" : 0,
      "advice" : {
        "da" : {
          "url" : "https:\/\/m.douguo.com\/recipe\/nutrient_self\/3050498",
          "iu" : "https:\/\/i1.douguo.com\/upload\/banner\/f\/4\/d\/f48877e53c37759bc12ac494be82ec8d.png",
          "t" : "查看详细分析"
        },
        "at" : "对血管有保护作用～",
        "has" : [
          {
            "url" : "recipes:\/\/www.douguo.com\/simplerecipelist?t=低饱和脂肪&id=低饱和脂肪",
            "t" : "低饱和脂肪"
          },
          {
            "url" : "recipes:\/\/www.douguo.com\/simplerecipelist?t=低糖&id=低糖",
            "t" : "低糖"
          }
        ]
      },
      "bs" : [

      ],
      "title" : "不用吐刺的香酥带鱼罐头",
      "recipe_tags" : [

      ],
      "pw" : 1280,
      "rcs" : [

      ],
      "rpt" : "",
      "author_verified" : 0,
      "brand_day_dsp" : [

      ],
      "btm_dsp" : [

      ],
      "author_photo" : "http:\/\/tx1.douguo.net\/upload\/photo\/f\/f\/4\/70_u38680123509729082744.jpg",
      "rate_count" : 2,
      "user" : {
        "qq_weibo_nick" : "",
        "is_prime" : 0,
        "weibo_nick" : "",
        "user_photo" : "http:\/\/tx1.douguo.net\/upload\/photo\/f\/f\/4\/70_u38680123509729082744.jpg",
        "avatar_medium" : "http:\/\/tx1.douguo.net\/upload\/photo\/f\/f\/4\/140_u38680123509729082744.jpg",
        "favorites_count" : 0,
        "email" : "",
        "lv" : 0,
        "setted_email" : 0,
        "regist_time" : "",
        "user_cover" : "",
        "diaries_count" : 0,
        "mobile" : "",
        "userid" : "10725889",
        "introduction" : "",
        "verified_url" : "https:\/\/m.douguo.com\/user\/prodesc",
        "user_large_photo" : "http:\/\/tx1.douguo.net\/upload\/photo\/f\/f\/4\/yuan_u38680123509729082744.jpg",
        "following_count" : 0,
        "gender" : 2,
        "qzone_nick" : "",
        "fc" : 0,
        "birthday" : "",
        "subscription" : 0,
        "age" : "",
        "point" : 0,
        "followers_count" : 0,
        "location" : 0,
        "favor_diaries_count" : 0,
        "recipes_count" : 0,
        "progress_image" : "",
        "lvl" : 4,
        "coursecount" : 0,
        "verified" : 0,
        "subscription_article_count" : 0,
        "sign" : "",
        "verified_image" : "",
        "dishes_count" : 0,
        "user_id" : "10725889",
        "pc" : 0,
        "nick" : "吴悠105"
      },
      "vfurl" : "",
      "notes" : [

      ],
      "recommended" : 0,
      "rewarded_video_dsp" : [

      ],
      "eu" : "recipes:\/\/www.douguo.com\/postdetail?id=242016",
      "top_mdsp" : [

      ],
      "favo_counts_text" : "270",
      "tags" : [

      ],
      "photo_path" : "https:\/\/i1.douguo.com\/upload\/caiku\/8\/e\/c\/600_8ebe25ac0759b378fbb9ce6ad20436ec.jpg",
      "favo_counts" : 270,
      "release_time" : "",
      "views_count_text" : "3.9万",
      "comments" : [
        "{\n    ac = \"#999999\";\n    at = \"\";\n    ccc = 0;\n    \"child_comments\" =     (\n    );\n    city = \"\";\n    cmc = 2;\n    content =     (\n                {\n            c = \"\\U8981\\U5b66\\U8d77\\U6765\";\n        }\n    );\n    ia = 0;\n    id = 8447809;\n    \"ip_address_location\" = \"\";\n    like = 0;\n    \"like_count\" = 0;\n    \"reply_id\" = 0;\n    \"sticker_icon\" =     (\n    );\n    time = \"2021-01-09 11:51:07\";\n    u =     {\n        \"followers_count_text\" = \"\";\n        id = 18497356;\n        \"is_prime\" = 0;\n        lv = 0;\n        lvl = 2;\n        n = \"\\U76f8\\U5b88_Print_li\";\n        p = \"http:\/\/tx1.douguo.net\/upload\/photo\/d\/b\/f\/70_u15506764028010408171710.jpg\";\n        \"progress_image\" = \"\";\n        \"recipes_count_text\" = \"\";\n        relationship = \"-1\";\n        title = \"\";\n        v = 0;\n        \"verified_image\" = \"\";\n    };\n}",
        "{\n    ac = \"#999999\";\n    at = \"\";\n    ccc = 0;\n    \"child_comments\" =     (\n    );\n    city = \"\";\n    cmc = 2;\n    content =     (\n                {\n            c = \"\\U8ddf\\U5916\\U9762\\U5e97\\U91cc\\U5356\\U7684\\U6bd4\\U8d77\\U6765 \\U6beb\\U4e0d\\U900a\\U8272\\U554a\";\n        }\n    );\n    ia = 0;\n    id = 8447757;\n    \"ip_address_location\" = \"\";\n    like = 0;\n    \"like_count\" = 0;\n    \"reply_id\" = 0;\n    \"sticker_icon\" =     (\n    );\n    time = \"2021-01-09 10:54:10\";\n    u =     {\n        \"followers_count_text\" = \"\";\n        id = 24532094;\n        \"is_prime\" = 0;\n        lv = 0;\n        lvl = 1;\n        n = StarrylK;\n        p = \"http:\/\/tx1.douguo.net\/upload\/photo\/6\/8\/e\/70_u17455152997549160644.jpeg\";\n        \"progress_image\" = \"\";\n        \"recipes_count_text\" = \"\";\n        relationship = \"-1\";\n        title = \"\";\n        v = 0;\n        \"verified_image\" = \"\";\n    };\n}"
      ],
      "ecs" : 1,
      "cook_time_image" : "https:\/\/i1.douguo.com\/upload\/banner\/1551424318.png",
      "dish_count_text" : "2",
      "related_ads" : [

      ],
      "hq" : 0,
      "cook_difficulty_image" : "https:\/\/i1.douguo.com\/upload\/banner\/1551424390.png",
      "cookstory" : "多多买菜里买了五大包带鱼，价钱便宜但鱼身好细，拿一包红烧后父子俩都嫌鱼断太细，鱼刺难去，不好好吃。还剩4包做了怕不愿意吃，扔了又舍不得钱。突然想到平常买的鱼罐头鱼刺都酥了不用去，我何不也试一试。",
      "title_ad" : [

      ],
      "vc" : "39033",
      "sc" : 0,
      "cook_time" : "30~60分钟",
      "rrps" : [

      ],
      "ipit" : 0,
      "dishes" : [

      ],
      "old_comments" : [

      ],
      "ipoi" : "",
      "cookstorys" : [
        {
          "type" : 0,
          "u" : "",
          "icon" : "",
          "color" : "",
          "id" : 0,
          "c" : "多多买菜里买了五大包带鱼，价钱便宜但鱼身好细，拿一包红烧后父子俩都嫌鱼断太细，鱼刺难去，不好好吃。还剩4包做了怕不愿意吃，扔了又舍不得钱。突然想到平常买的鱼罐头鱼刺都酥了不用去，我何不也试一试。"
        }
      ],
      "thumb_height" : 0,
      "create_time" : "2021-01-09 09:47:20",
      "ipurl" : "",
      "rdsps" : [

      ],
      "rate" : 5,
      "ipci" : "",
      "ipia" : [

      ],
      "collect_status" : 0,
      "ssu" : "",
      "ss" : [

      ]
    }
  },
  "status" : 0
}