{
  "result" : {
    "recipe" : {
      "rate_count" : 0,
      "rrpt" : "",
      "packages_id" : [

      ],
      "author_verified" : 1,
      "ipci" : "",
      "story_dsp" : [

      ],
      "rpt" : "",
      "create_time" : "2023-08-09 16:06:29",
      "vfurl" : "",
      "btm_dsp" : [

      ],
      "author_id" : 3463197,
      "original_photo_path" : "http:\/\/i1.douguo.net\/upload\/caiku\/0\/9\/f\/yuan_09ed32d54a50b4159697608b28aeeecf.jpg",
      "recipe_tags" : [

      ],
      "event" : {
        "url" : "https:\/\/m.douguo.com\/activity\/ncpzj\/detail\/3819?isapp=1&open=0&_vs=1000300&&dg_refreshkey=publishnote",
        "id" : 3819,
        "name" : "【有奖征集+免费申领】味达美·名厨汁味正当夏"
      },
      "title" : "口感丰富味道浓郁的拌茄丝",
      "favo_counts_text" : "5175",
      "photo_path" : "https:\/\/i1.douguo.com\/upload\/caiku\/0\/9\/f\/600_09ed32d54a50b4159697608b28aeeecf.jpg",
      "release_time" : "",
      "ecs" : 0,
      "minor" : [

      ],
      "rdsps" : [

      ],
      "ssu" : "",
      "share_info" : {
        "s_d" : "#名厨汁味正当夏#口感丰富味道浓郁的拌茄丝-会做饭很酷!",
        "name" : "#名厨汁味正当夏#口感丰富味道浓郁的拌茄丝-会做饭很酷!",
        "qr_image" : "",
        "mini_program" : [

        ],
        "object_id" : "3266475",
        "infos" : [
          {
            "name" : "#名厨汁味正当夏#口感丰富味道浓郁的拌茄丝-会做饭很酷!",
            "object_id" : "3266475",
            "channel" : "1",
            "s_u" : "",
            "mini_program" : [

            ],
            "s_d" : "#学做饭用豆果美食# 我在@豆果美食 分享了【#名厨汁味正当夏#口感丰富味道浓郁的拌茄丝-会做饭很酷!】，这菜真的很好吃，而且做法简单不难学，还不快来跟我学～查看图片了解菜谱（每天限量免费课程，想跟大师学厨艺就来这https:\/\/m.weibo.cn\/p\/100404i33631）#会做饭很酷# ",
            "qr_image" : "",
            "image" : "https:\/\/cp1.douguo.com\/upload\/caiku\/0\/9\/f\/09ed32d54a50b4159697608b28aeeecf.jpg"
          },
          {
            "image" : "https:\/\/cp1.douguo.com\/upload\/caiku\/0\/9\/f\/09ed32d54a50b4159697608b28aeeecf.jpg",
            "channel" : "7",
            "s_u" : "http:\/\/m.douguo.com\/cookbook\/3266475.html",
            "s_d" : "#名厨汁味正当夏#口感丰富味道浓郁的拌茄丝-会做饭很酷!",
            "mini_program" : [

            ],
            "object_id" : "3266475",
            "qr_image" : "",
            "name" : "#名厨汁味正当夏#口感丰富味道浓郁的拌茄丝-会做饭很酷!"
          },
          {
            "image" : "https:\/\/cp1.douguo.com\/upload\/caiku\/0\/9\/f\/09ed32d54a50b4159697608b28aeeecf.jpg",
            "mini_program" : [

            ],
            "channel" : "8",
            "qr_image" : "",
            "object_id" : "3266475",
            "name" : "#名厨汁味正当夏#口感丰富味道浓郁的拌茄丝-会做饭很酷!",
            "s_d" : "#名厨汁味正当夏#口感丰富味道浓郁的拌茄丝-会做饭很酷!",
            "s_u" : "http:\/\/m.douguo.com\/cookbook\/3266475.html"
          }
        ],
        "image" : "https:\/\/cp1.douguo.com\/upload\/caiku\/0\/9\/f\/09ed32d54a50b4159697608b28aeeecf.jpg",
        "s_u" : "http:\/\/m.douguo.com\/cookbook\/3266475.html"
      },
      "rrps" : [

      ],
      "rpid" : 0,
      "cookstory" : "蒜末拌蒸茄子，是一道非常家常的菜品。这次把拌茄子的蒜末里加适量有特色的调味品，让菜品味道浓郁又口感丰富。",
      "cookstorys" : [
        {
          "type" : 0,
          "color" : "",
          "c" : "蒜末拌蒸茄子，是一道非常家常的菜品。这次把拌茄子的蒜末里加适量有特色的调味品，让菜品味道浓郁又口感丰富。",
          "icon" : "",
          "id" : 0,
          "u" : ""
        },
        {
          "u" : "",
          "color" : "",
          "icon" : "",
          "type" : 0,
          "id" : 0,
          "c" : "\n参与活动:"
        },
        {
          "id" : 0,
          "type" : 0,
          "icon" : "",
          "u" : "https:\/\/m.douguo.com\/activity\/ncpzj\/detail\/3819?isapp=1&open=0&_vs=1000300&&dg_refreshkey=publishnote",
          "c" : "#【有奖征集+免费申领】味达美·名厨汁味正当夏#"
        }
      ],
      "image" : "http:\/\/i1.douguo.net\/upload\/caiku\/0\/9\/f\/300_09ed32d54a50b4159697608b28aeeecf.jpg",
      "hq" : 1,
      "comments" : [

      ],
      "favo_counts" : 5175,
      "pw" : 1280,
      "dishes" : [

      ],
      "eu" : "recipes:\/\/www.douguo.com\/postdetail?id=242016",
      "cook_difficulty" : "",
      "rsm" : "该功能暂停使用",
      "recommended" : 0,
      "author_photo" : "http:\/\/tx1.douguo.net\/upload\/photo\/b\/b\/5\/70_bbcac67a15124bb2c880b74dd4a9e9d5.jpg",
      "recommendation_tag" : "",
      "display_ingredient" : 1,
      "rcs" : [

      ],
      "dish_count" : 0,
      "su" : "",
      "vu" : "",
      "ipit" : 0,
      "comments_count_text" : "",
      "thumb_path" : "https:\/\/i1.douguo.com\/upload\/caiku\/0\/9\/f\/300_09ed32d54a50b4159697608b28aeeecf.jpg",
      "ipoi" : "",
      "act_des" : "",
      "brand_day_dsp" : [

      ],
      "dish_count_text" : "",
      "vc" : "127228",
      "ipurl" : "",
      "cookwares" : [

      ],
      "mid_mdsp" : [

      ],
      "cookstep" : [
        {
          "image_width" : 1280,
          "position" : 1,
          "content" : "长茄子。",
          "image_height" : 1707,
          "image" : "https:\/\/i1.douguo.com\/upload\/caiku\/2\/c\/6\/2c21f76f5bcb84f965815cb8b135dde6.jpg",
          "thumb" : "https:\/\/i1.douguo.com\/upload\/caiku\/2\/c\/6\/140_2c21f76f5bcb84f965815cb8b135dde6.jpg",
          "frame" : "-1"
        },
        {
          "image" : "https:\/\/i1.douguo.com\/upload\/caiku\/5\/e\/d\/5eea971d08a4d8080bfd9f013c909edd.jpg",
          "position" : 2,
          "image_height" : 1707,
          "thumb" : "https:\/\/i1.douguo.com\/upload\/caiku\/5\/e\/d\/140_5eea971d08a4d8080bfd9f013c909edd.jpg",
          "content" : "切大块，开水锅里蒸熟。晾凉后，用手撕成长条茄丝。",
          "image_width" : 1280,
          "frame" : "-1"
        },
        {
          "thumb" : "https:\/\/i1.douguo.com\/upload\/caiku\/d\/e\/8\/140_de1e4b36797251e7d7a3ebb4d7019e38.jpg",
          "position" : 3,
          "frame" : "-1",
          "image" : "https:\/\/i1.douguo.com\/upload\/caiku\/d\/e\/8\/de1e4b36797251e7d7a3ebb4d7019e38.jpg",
          "image_height" : 1707,
          "image_width" : 1280,
          "content" : "香菜切成适当大小。"
        },
        {
          "image_width" : 1280,
          "frame" : "-1",
          "image_height" : 1707,
          "thumb" : "https:\/\/i1.douguo.com\/upload\/caiku\/6\/8\/5\/140_6872e23db685ab196f941a27c5a44235.jpg",
          "image" : "https:\/\/i1.douguo.com\/upload\/caiku\/6\/8\/5\/6872e23db685ab196f941a27c5a44235.jpg",
          "content" : "制作调味汁：蚝油、食盐、白砂糖、生抽、藤椒油、香油、蒜末和适量香醋，充分搅拌均匀。",
          "position" : 4
        },
        {
          "thumb" : "https:\/\/i1.douguo.com\/upload\/caiku\/a\/2\/8\/140_a24af471e29de05536c63d4cb513a3a8.jpg",
          "frame" : "-1",
          "image_height" : 1707,
          "image" : "https:\/\/i1.douguo.com\/upload\/caiku\/a\/2\/8\/a24af471e29de05536c63d4cb513a3a8.jpg",
          "image_width" : 1280,
          "position" : 5,
          "content" : "调味汁和茄丝彻底拌匀，装盘，撒香菜碎。"
        }
      ],
      "rips" : 0,
      "rate_show" : 0,
      "top_mdsp" : [

      ],
      "recipe_list_tags" : [
        {
          "background_start_color" : "#F4F5F5",
          "jump_url" : "",
          "background_end_color" : "#F4F5F5",
          "background_border_color" : "",
          "right_image" : "",
          "text_color" : "#141515",
          "text" : "关注的人"
        },
        {
          "jump_url" : "",
          "text" : "值得pick",
          "background_end_color" : "#F4F5F5",
          "text_color" : "#141515",
          "background_start_color" : "#F4F5F5",
          "right_image" : "",
          "background_border_color" : ""
        }
      ],
      "hqu" : "recipes:\/\/www.douguo.com\/notedetail?id=21162253",
      "comments_count" : 0,
      "bs" : [

      ],
      "tags" : [

      ],
      "tips" : "",
      "rpst" : "",
      "sc" : 0,
      "v_u" : "",
      "rate" : 0,
      "cook_time" : "",
      "ph" : 852,
      "cook_time_image" : "",
      "recommend_label" : "5175人刚刚收藏过",
      "views_count_text" : "12.7万",
      "thumb_height" : 0,
      "old_comments" : [

      ],
      "collect_status" : 0,
      "clicks" : "1",
      "levelid" : 2,
      "notes" : [

      ],
      "ipt" : "",
      "cook_id" : "3266475",
      "user" : {
        "lv" : 0,
        "qzone_nick" : "",
        "favor_diaries_count" : 0,
        "avatar_medium" : "http:\/\/tx1.douguo.net\/upload\/photo\/b\/b\/5\/140_bbcac67a15124bb2c880b74dd4a9e9d5.jpg",
        "qq_weibo_nick" : "",
        "birthday" : "",
        "userid" : "3463197",
        "gender" : 2,
        "progress_image" : "",
        "fc" : 0,
        "coursecount" : 0,
        "diaries_count" : 0,
        "age" : "",
        "verified" : 1,
        "recipes_count" : 0,
        "favorites_count" : 0,
        "user_cover" : "",
        "introduction" : "",
        "email" : "",
        "user_photo" : "http:\/\/tx1.douguo.net\/upload\/photo\/b\/b\/5\/70_bbcac67a15124bb2c880b74dd4a9e9d5.jpg",
        "followers_count" : 0,
        "regist_time" : "",
        "verified_url" : "https:\/\/m.douguo.com\/user\/prodesc",
        "location" : 0,
        "following_count" : 0,
        "dishes_count" : 0,
        "setted_email" : 0,
        "pc" : 0,
        "verified_image" : "https:\/\/i1.douguo.com\/upload\/note\/d\/a\/a\/da84247847aebe48d9dd0fcdac88862a.png",
        "nick" : "岁月静好310w",
        "is_prime" : 0,
        "user_large_photo" : "http:\/\/tx1.douguo.net\/upload\/photo\/b\/b\/5\/yuan_bbcac67a15124bb2c880b74dd4a9e9d5.jpg",
        "point" : 0,
        "subscription" : 0,
        "weibo_nick" : "",
        "lvl" : 7,
        "sign" : "",
        "user_id" : "3463197",
        "subscription_article_count" : 0,
        "mobile" : ""
      },
      "guide_image" : "",
      "ss" : [

      ],
      "cook_difficulty_image" : "",
      "ipia" : [

      ],
      "sr" : "",
      "title_ad" : [

      ],
      "major" : [
        {
          "title" : "长茄子",
          "note" : "两根"
        },
        {
          "tu" : "https:\/\/m.douguo.com\/ingredients\/香菜\/detailmaterial",
          "note" : "2根",
          "title" : "香菜"
        },
        {
          "tu" : "https:\/\/m.douguo.com\/ingredients\/大蒜\/detailmaterial",
          "title" : "大蒜",
          "note" : "5瓣"
        },
        {
          "tu" : "https:\/\/m.douguo.com\/ingredients\/蚝油\/detailmaterial",
          "note" : "2勺",
          "title" : "蚝油"
        },
        {
          "title" : "香油",
          "tu" : "https:\/\/m.douguo.com\/ingredients\/香油\/detailmaterial",
          "note" : "1勺"
        },
        {
          "title" : "藤椒油",
          "note" : "1勺"
        },
        {
          "title" : "食盐",
          "note" : "适量",
          "tu" : "https:\/\/m.douguo.com\/ingredients\/食盐\/detailmaterial"
        },
        {
          "note" : "适量",
          "title" : "白砂糖",
          "tu" : "https:\/\/m.douguo.com\/ingredients\/白砂糖\/detailmaterial"
        },
        {
          "note" : "适量",
          "title" : "香醋",
          "tu" : "https:\/\/m.douguo.com\/ingredients\/香醋\/detailmaterial"
        }
      ],
      "rewarded_video_dsp" : [

      ],
      "purl" : "",
      "author" : "岁月静好310w",
      "recent_comments" : [

      ],
      "related_ads" : [

      ],
      "first_level_comment_count" : 0
    }
  },
  "state" : "success",
  "status" : 0
}