{
  "result" : {
    "recipe" : {
      "rips" : 0,
      "display_ingredient" : 1,
      "ipit" : 0,
      "old_comments" : [

      ],
      "su" : "",
      "vu" : "",
      "cook_difficulty" : "掌勺(高级)",
      "cook_id" : "1255793",
      "brand_day_dsp" : [

      ],
      "rrpt" : "",
      "related_ads" : [

      ],
      "photo_path" : "https:\/\/i1.douguo.com\/upload\/caiku\/0\/6\/8\/600_06e04a168cc5e589f226a3deb348ba18.jpg",
      "share_info" : {
        "image" : "https:\/\/cp1.douguo.com\/upload\/caiku\/0\/6\/8\/06e04a168cc5e589f226a3deb348ba18.jpg",
        "qr_image" : "",
        "object_id" : "1255793",
        "name" : "炸春鸡-会做饭很酷!",
        "infos" : [
          {
            "name" : "炸春鸡-会做饭很酷!",
            "channel" : "1",
            "object_id" : "1255793",
            "image" : "https:\/\/cp1.douguo.com\/upload\/caiku\/0\/6\/8\/06e04a168cc5e589f226a3deb348ba18.jpg",
            "mini_program" : [

            ],
            "s_u" : "",
            "s_d" : "#学做饭用豆果美食# 我在@豆果美食 分享了【炸春鸡-会做饭很酷!】，这菜真的很好吃，而且做法简单不难学，还不快来跟我学～查看图片了解菜谱（每天限量免费课程，想跟大师学厨艺就来这https:\/\/m.weibo.cn\/p\/100404i33631）#会做饭很酷# ",
            "qr_image" : ""
          },
          {
            "channel" : "7",
            "image" : "https:\/\/cp1.douguo.com\/upload\/caiku\/0\/6\/8\/06e04a168cc5e589f226a3deb348ba18.jpg",
            "mini_program" : [

            ],
            "name" : "炸春鸡-会做饭很酷!",
            "s_u" : "http:\/\/m.douguo.com\/cookbook\/1255793.html",
            "qr_image" : "",
            "object_id" : "1255793",
            "s_d" : "炸春鸡-会做饭很酷!"
          },
          {
            "channel" : "8",
            "s_u" : "http:\/\/m.douguo.com\/cookbook\/1255793.html",
            "qr_image" : "",
            "s_d" : "炸春鸡-会做饭很酷!",
            "image" : "https:\/\/cp1.douguo.com\/upload\/caiku\/0\/6\/8\/06e04a168cc5e589f226a3deb348ba18.jpg",
            "object_id" : "1255793",
            "mini_program" : [

            ],
            "name" : "炸春鸡-会做饭很酷!"
          }
        ],
        "s_d" : "炸春鸡-会做饭很酷!",
        "mini_program" : [

        ],
        "s_u" : "http:\/\/m.douguo.com\/cookbook\/1255793.html"
      },
      "recommendation_tag" : "",
      "comments" : [
        "{\n    ac = \"#999999\";\n    at = \"\";\n    ccc = 0;\n    \"child_comments\" =     (\n    );\n    city = \"\";\n    cmc = 2;\n    content =     (\n                {\n            c = \"\\U51b3\\U5b9a\\U5c1d\\U8bd5\\U4e00\\U4e0b\\U505a\\U996d\\Uff0c\\U6211\\U5148\\U8bd5\\U8bd5\\U8fd9\\U4e2a\";\n        }\n    );\n    ia = 0;\n    id = 7017295;\n    \"ip_address_location\" = \"\";\n    like = 0;\n    \"like_count\" = 0;\n    \"reply_id\" = 0;\n    \"sticker_icon\" =     (\n    );\n    time = \"2019-09-05 19:13:17\";\n    u =     {\n        \"followers_count_text\" = \"\";\n        id = 18486215;\n        \"is_prime\" = 0;\n        lv = 0;\n        lvl = 4;\n        n = \"\\U4f50\\U7ffc2\";\n        p = \"http:\/\/tx1.douguo.net\/upload\/photo\/4\/1\/3\/70_u07896898974037102819.jpg\";\n        \"progress_image\" = \"\";\n        \"recipes_count_text\" = \"\";\n        relationship = \"-1\";\n        title = \"\";\n        v = 0;\n        \"verified_image\" = \"\";\n    };\n}",
        "{\n    ac = \"#999999\";\n    at = \"\";\n    ccc = 0;\n    \"child_comments\" =     (\n    );\n    city = \"\";\n    cmc = 2;\n    content =     (\n                {\n            c = \"\\U80fd\\U5177\\U4f53\\U70b9\\U5417\";\n        }\n    );\n    ia = 0;\n    id = 4802978;\n    \"ip_address_location\" = \"\";\n    like = 0;\n    \"like_count\" = 0;\n    \"reply_id\" = 0;\n    \"sticker_icon\" =     (\n    );\n    time = \"2017-06-05 16:27:56\";\n    u =     {\n        \"followers_count_text\" = \"\";\n        id = 20368292;\n        \"is_prime\" = 0;\n        lv = 0;\n        lvl = 1;\n        n = \"\\U54c8\\U5229\\U8def\\U4e9aknsz\";\n        p = \"\";\n        \"progress_image\" = \"\";\n        \"recipes_count_text\" = \"\";\n        relationship = \"-1\";\n        title = \"\";\n        v = 0;\n        \"verified_image\" = \"\";\n    };\n}",
        "{\n    ac = \"#999999\";\n    at = \"\";\n    ccc = 0;\n    \"child_comments\" =     (\n    );\n    city = \"\";\n    cmc = 2;\n    content =     (\n                {\n            c = \"\\U9999\\U9999\\U7684 \";\n        }\n    );\n    ia = 0;\n    id = 2633227;\n    \"ip_address_location\" = \"\";\n    like = 0;\n    \"like_count\" = 0;\n    \"reply_id\" = 0;\n    \"sticker_icon\" =     (\n    );\n    time = \"2015-09-13 01:40:20\";\n    u =     {\n        \"followers_count_text\" = \"\";\n        id = 11142859;\n        \"is_prime\" = 0;\n        lv = 0;\n        lvl = 6;\n        n = \"\\U5218\\U4fa0\\U513f\";\n        p = \"http:\/\/tx1.douguo.net\/upload\/photo\/3\/0\/1\/70_u4099321691015910101802.jpg\";\n        \"progress_image\" = \"\";\n        \"recipes_count_text\" = \"\";\n        relationship = \"-1\";\n        title = \"\";\n        v = 0;\n        \"verified_image\" = \"\";\n    };\n}"
      ],
      "thumb_path" : "https:\/\/i1.douguo.com\/upload\/caiku\/0\/6\/8\/300_06e04a168cc5e589f226a3deb348ba18.jpg",
      "first_level_comment_count" : 3,
      "collect_status" : 0,
      "dish_count" : 0,
      "recommend_label" : "6.0万人看过",
      "ipt" : "",
      "author_id" : 11228325,
      "vc" : "59997",
      "rpid" : 0,
      "ipia" : [

      ],
      "comments_count" : 3,
      "clicks" : "56906",
      "pw" : 800,
      "recipe_tags" : [

      ],
      "major" : [
        {
          "note" : "2只",
          "title" : "鸡"
        },
        {
          "title" : "葱",
          "note" : "3.4段",
          "tu" : "https:\/\/m.douguo.com\/ingredients\/葱\/detailmaterial"
        },
        {
          "note" : "20g",
          "title" : "脆香炸鸡粉"
        },
        {
          "note" : "3片",
          "title" : "姜",
          "tu" : "https:\/\/m.douguo.com\/ingredients\/姜\/detailmaterial"
        },
        {
          "title" : "支然粉",
          "note" : "10g"
        }
      ],
      "rpst" : "",
      "ss" : [

      ],
      "release_time" : "",
      "recipe_list_tags" : [

      ],
      "recent_comments" : [

      ],
      "hqu" : "recipes:\/\/www.douguo.com\/notedetail?id=21162253",
      "dishes" : [

      ],
      "top_mdsp" : [

      ],
      "vfurl" : "",
      "author" : "蓝球公园",
      "hq" : 0,
      "levelid" : 3,
      "btm_dsp" : [

      ],
      "rate_count" : 0,
      "rrps" : [

      ],
      "rpt" : "",
      "eu" : "recipes:\/\/www.douguo.com\/postdetail?id=242016",
      "ipurl" : "",
      "tips" : "",
      "ecs" : 0,
      "thumb_height" : 0,
      "sc" : 0,
      "cook_difficulty_image" : "https:\/\/i1.douguo.com\/upload\/banner\/1551424430.png",
      "minor" : [
        "{\n    note = \"\\U9002\\U91cf\\U9002\\U91cf\";\n    title = \"\\U6599\\U9152\";\n    tu = \"https:\/\/https:\/\/m.douguo.com\/ingredients\/\\U6599\\U9152\/detailmaterial\";\n}",
        "{\n    note = \"\\U5c0f\\U6c64\\U5319\";\n    title = \"\\U76d0\";\n    tu = \"https:\/\/https:\/\/m.douguo.com\/ingredients\/\\U76d0\/detailmaterial\";\n}",
        "{\n    note = \"\\U5c0f\\U6c64\\U662f\";\n    title = \"\\U9e21\\U7cbe\";\n    tu = \"https:\/\/https:\/\/m.douguo.com\/ingredients\/\\U9e21\\U7cbe\/detailmaterial\";\n}"
      ],
      "original_photo_path" : "http:\/\/i1.douguo.net\/upload\/caiku\/0\/6\/8\/yuan_06e04a168cc5e589f226a3deb348ba18.jpg",
      "cook_time" : "10-30分钟",
      "rdsps" : [

      ],
      "story_dsp" : [

      ],
      "packages_id" : [

      ],
      "create_time" : "2015-09-12 22:04:02",
      "ph" : 600,
      "rsm" : "该功能暂停使用",
      "recommended" : 0,
      "cook_time_image" : "https:\/\/i1.douguo.com\/upload\/banner\/1551424341.png",
      "v_u" : "",
      "ssu" : "",
      "dish_count_text" : "",
      "author_verified" : 0,
      "cookstep" : [
        {
          "position" : 1,
          "image_height" : 600,
          "content" : "1把鸡内脏清洗干净和脚砍掉，用水冲去血鸡白嫩，把姜葱拍裂用酒抓出汁待用。2准备盆子放下盐.鸡精.支然粉.少许炸粉以及姜葱汁腌制4小以上。3准备一个盆加3.到4斤面粉，放下少许支然粉和脆香炸鸡粉拌匀待用。再取一盆面粉做面酱用水调稠度比较好时。4取锅热油温度定150c度，把鸡第三方法用手拌均衡，用双手拿起各式抓住鸡腿在面粉酱淹没均匀拿起滴掉出差不多酱粉，直接背着下下油锅用150c 度10来分钟不要动它浮起再翻炸，直到油的声不那响声，说明已熟。",
          "image" : "https:\/\/i1.douguo.com\/upload\/caiku\/8\/d\/d\/8d312ef092d16e11808643e8f3e2433d.jpg",
          "thumb" : "https:\/\/i1.douguo.com\/upload\/caiku\/8\/d\/d\/140_8d312ef092d16e11808643e8f3e2433d.jpg",
          "frame" : "-1",
          "image_width" : 800
        }
      ],
      "rate_show" : 0,
      "title" : "炸春鸡",
      "bs" : [

      ],
      "comments_count_text" : "3",
      "rcs" : [

      ],
      "views_count_text" : "6.0万",
      "favo_counts" : 476,
      "cookstorys" : [

      ],
      "purl" : "",
      "user" : {
        "favorites_count" : 0,
        "user_id" : "11228325",
        "verified" : 0,
        "coursecount" : 0,
        "user_large_photo" : "http:\/\/tx1.douguo.net\/upload\/photo\/e\/e\/4\/yuan_u41524964246805154528.jpg",
        "user_cover" : "",
        "user_photo" : "http:\/\/tx1.douguo.net\/upload\/photo\/e\/e\/4\/70_u41524964246805154528.jpg",
        "pc" : 0,
        "birthday" : "",
        "email" : "",
        "weibo_nick" : "",
        "verified_image" : "",
        "followers_count" : 0,
        "age" : "",
        "setted_email" : 0,
        "mobile" : "",
        "progress_image" : "",
        "nick" : "蓝球公园",
        "subscription_article_count" : 0,
        "dishes_count" : 0,
        "subscription" : 0,
        "recipes_count" : 0,
        "avatar_medium" : "http:\/\/tx1.douguo.net\/upload\/photo\/e\/e\/4\/140_u41524964246805154528.jpg",
        "is_prime" : 0,
        "location" : 0,
        "favor_diaries_count" : 0,
        "qzone_nick" : "",
        "regist_time" : "",
        "point" : 0,
        "gender" : 1,
        "userid" : "11228325",
        "following_count" : 0,
        "sign" : "",
        "lvl" : 1,
        "verified_url" : "https:\/\/m.douguo.com\/user\/prodesc",
        "qq_weibo_nick" : "",
        "diaries_count" : 0,
        "fc" : 0,
        "introduction" : "",
        "lv" : 0
      },
      "ipoi" : "",
      "author_photo" : "http:\/\/tx1.douguo.net\/upload\/photo\/e\/e\/4\/70_u41524964246805154528.jpg",
      "notes" : [

      ],
      "act_des" : "",
      "image" : "http:\/\/i1.douguo.net\/upload\/caiku\/0\/6\/8\/300_06e04a168cc5e589f226a3deb348ba18.jpg",
      "title_ad" : [

      ],
      "cookwares" : [

      ],
      "ipci" : "",
      "cookstory" : "",
      "favo_counts_text" : "476",
      "tags" : [

      ],
      "guide_image" : "",
      "mid_mdsp" : [

      ],
      "rewarded_video_dsp" : [

      ],
      "sr" : "",
      "rate" : 0
    }
  },
  "status" : 0,
  "state" : "success"
}