{
  "status" : 0,
  "state" : "success",
  "result" : {
    "recipe" : {
      "recommend_label" : "4656人刚刚收藏过",
      "vu" : "https:\/\/vplay.douguo.com\/lpdO3aPn1Q88zlZjyWP7Hf7lyWgp",
      "sr" : "",
      "sc" : 0,
      "share_info" : {
        "object_id" : "3255083",
        "name" : "#东古525掌勺节#新西兰海鳌虾牛油果挞-会做饭很酷!",
        "mini_program" : [

        ],
        "qr_image" : "",
        "s_u" : "http:\/\/m.douguo.com\/cookbook\/3255083.html",
        "image" : "https:\/\/cp1.douguo.com\/upload\/caiku\/b\/b\/e\/bbe2dd6115548200ff79bd4474e1881e.jpeg",
        "s_d" : "#东古525掌勺节#新西兰海鳌虾牛油果挞-会做饭很酷!",
        "infos" : [
          {
            "s_u" : "",
            "channel" : "1",
            "qr_image" : "",
            "s_d" : "#学做饭用豆果美食# 我在@豆果美食 分享了【#东古525掌勺节#新西兰海鳌虾牛油果挞-会做饭很酷!】，哟，集美们～你看这是神仙美味～快跟着我做一份，做一份！查看图片了解菜谱（更多美食秘籍点击https:\/\/m.weibo.cn\/p\/100404i33631获取）#会做饭很酷# ",
            "image" : "https:\/\/cp1.douguo.com\/upload\/caiku\/b\/b\/e\/bbe2dd6115548200ff79bd4474e1881e.jpeg",
            "mini_program" : [

            ],
            "object_id" : "3255083",
            "name" : "#东古525掌勺节#新西兰海鳌虾牛油果挞-会做饭很酷!"
          },
          {
            "mini_program" : [

            ],
            "image" : "https:\/\/cp1.douguo.com\/upload\/caiku\/b\/b\/e\/bbe2dd6115548200ff79bd4474e1881e.jpeg",
            "channel" : "7",
            "s_u" : "http:\/\/m.douguo.com\/cookbook\/3255083.html",
            "object_id" : "3255083",
            "s_d" : "#东古525掌勺节#新西兰海鳌虾牛油果挞-会做饭很酷!",
            "qr_image" : "",
            "name" : "#东古525掌勺节#新西兰海鳌虾牛油果挞-会做饭很酷!"
          },
          {
            "qr_image" : "",
            "s_d" : "#东古525掌勺节#新西兰海鳌虾牛油果挞-会做饭很酷!",
            "image" : "https:\/\/cp1.douguo.com\/upload\/caiku\/b\/b\/e\/bbe2dd6115548200ff79bd4474e1881e.jpeg",
            "object_id" : "3255083",
            "name" : "#东古525掌勺节#新西兰海鳌虾牛油果挞-会做饭很酷!",
            "s_u" : "http:\/\/m.douguo.com\/cookbook\/3255083.html",
            "mini_program" : [

            ],
            "channel" : "8"
          }
        ]
      },
      "rpst" : "",
      "title" : "新西兰海鳌虾牛油果挞",
      "display_ingredient" : 1,
      "related_ads" : [

      ],
      "top_mdsp" : [

      ],
      "dish_count_text" : "",
      "ss" : [

      ],
      "rips" : 0,
      "rate_show" : 0,
      "dishes" : [

      ],
      "ipci" : "",
      "recommendation_tag" : "",
      "ipurl" : "",
      "cookstorys" : [
        {
          "type" : 0,
          "icon" : "",
          "c" : "新西兰海鳌虾， 学名叫南极深海螯虾，又称新西兰小龙虾， 生长在南极和新西兰之间150米-650米的深海海域。 新西兰鳌虾相比其它品种，肉质更细嫩、更有弹性。虾肉口感软糯鲜甜，无需过分调味就能充分体现新西兰南极深海螯虾固有的鲜美和风味，细品有一股奶油香气。 ",
          "id" : 0,
          "u" : "",
          "color" : ""
        },
        {
          "c" : "\n参与活动:",
          "id" : 0,
          "color" : "",
          "icon" : "",
          "type" : 0,
          "u" : ""
        },
        {
          "u" : "https:\/\/m.douguo.com\/activity\/ncpzj\/detail\/3784?isapp=1&open=0&_vs=1000300&&dg_refreshkey=publishnote",
          "id" : 0,
          "icon" : "",
          "type" : 0,
          "c" : "#东古525掌勺节 致敬了不起的掌勺人#"
        }
      ],
      "ipia" : [

      ],
      "cookstep" : [
        {
          "image_height" : 329,
          "image_width" : 722,
          "thumb" : "https:\/\/i1.douguo.com\/upload\/caiku\/0\/b\/f\/140_0b561bebad69f9c99851ade740c43a5f.jpeg",
          "content" : "新西兰鳌虾100克去壳取肉。注意鳌虾腹部的尖刺，还是很锋利的，用毛巾垫着手，轻轻握住虾身，用另一只手拧转虾头。",
          "image" : "https:\/\/i1.douguo.com\/upload\/caiku\/0\/b\/f\/0b561bebad69f9c99851ade740c43a5f.jpeg",
          "position" : 1,
          "frame" : "-1"
        },
        {
          "image" : "https:\/\/i1.douguo.com\/upload\/caiku\/4\/4\/2\/446efedbac09eda44c179c438bd8eda2.jpeg",
          "frame" : "-1",
          "position" : 2,
          "thumb" : "https:\/\/i1.douguo.com\/upload\/caiku\/4\/4\/2\/140_446efedbac09eda44c179c438bd8eda2.jpeg",
          "content" : "将虾头取下后，用毛巾垫着手，用点力，稍稍捏碎虾壳，然后用毛巾垫着剥虾壳，取出完整虾肉，虽说有些麻烦，也是为了安全以及稍后烹饪。",
          "image_width" : 715,
          "image_height" : 417
        },
        {
          "content" : "将西葫芦切片，两面抹油，然后放在平底锅中烤1分钟。",
          "image" : "https:\/\/i1.douguo.com\/upload\/caiku\/2\/c\/c\/2c258eb9ce1a20123b80c9542b1260cc.jpeg",
          "frame" : "-1",
          "thumb" : "https:\/\/i1.douguo.com\/upload\/caiku\/2\/c\/c\/140_2c258eb9ce1a20123b80c9542b1260cc.jpeg",
          "position" : 3,
          "image_width" : 770,
          "image_height" : 355
        },
        {
          "image_height" : 459,
          "frame" : "-1",
          "image" : "https:\/\/i1.douguo.com\/upload\/caiku\/b\/0\/4\/b0cae5257e97a4944fe1f2a7c7efaa54.jpeg",
          "thumb" : "https:\/\/i1.douguo.com\/upload\/caiku\/b\/0\/4\/140_b0cae5257e97a4944fe1f2a7c7efaa54.jpeg",
          "content" : "牛油果去核后，一切四。",
          "position" : 4,
          "image_width" : 637
        },
        {
          "image" : "https:\/\/i1.douguo.com\/upload\/caiku\/8\/8\/4\/8855100c0f451321a630d002ca6d7794.jpeg",
          "content" : "挖出果肉，切成小丁，放在碗中，加1勺橄榄油搅拌均匀。",
          "image_height" : 386,
          "thumb" : "https:\/\/i1.douguo.com\/upload\/caiku\/8\/8\/4\/140_8855100c0f451321a630d002ca6d7794.jpeg",
          "frame" : "-1",
          "image_width" : 569,
          "position" : 5
        },
        {
          "position" : 6,
          "frame" : "-1",
          "image_height" : 422,
          "image_width" : 698,
          "content" : "鳌虾肉切丁，加1勺洋葱碎拌匀。",
          "thumb" : "https:\/\/i1.douguo.com\/upload\/caiku\/3\/a\/3\/140_3a6723b38b1b9ad85048fd18509fdc23.jpeg",
          "image" : "https:\/\/i1.douguo.com\/upload\/caiku\/3\/a\/3\/3a6723b38b1b9ad85048fd18509fdc23.jpeg"
        },
        {
          "image_width" : 588,
          "content" : "将西葫芦垫底，用模具辅助摆盘：先放牛油果丁，再放鳌虾肉丁抹匀并压实。",
          "image" : "https:\/\/i1.douguo.com\/upload\/caiku\/8\/0\/2\/803016e4741bca8e2497dfde94373ee2.jpeg",
          "thumb" : "https:\/\/i1.douguo.com\/upload\/caiku\/8\/0\/2\/140_803016e4741bca8e2497dfde94373ee2.jpeg",
          "position" : 7,
          "frame" : "-1",
          "image_height" : 446
        },
        {
          "image_height" : 470,
          "position" : 8,
          "image" : "https:\/\/i1.douguo.com\/upload\/caiku\/6\/1\/e\/6139d660ab0226f08e2b1d617fc1aa7e.jpeg",
          "content" : "移除模具，放上一个用鹌鹑蛋做的水煮蛋；放上些许鱼子酱，最上面放上一簇可食用薄荷叶，两边点两滴日式刺身酱油即可。",
          "thumb" : "https:\/\/i1.douguo.com\/upload\/caiku\/6\/1\/e\/140_6139d660ab0226f08e2b1d617fc1aa7e.jpeg",
          "image_width" : 678,
          "frame" : "-1"
        },
        {
          "content" : "完成。",
          "image_width" : 960,
          "image" : "https:\/\/i1.douguo.com\/upload\/caiku\/f\/b\/1\/fb142be8a0092f63c6badb020895eb71.jpeg",
          "frame" : "-1",
          "thumb" : "https:\/\/i1.douguo.com\/upload\/caiku\/f\/b\/1\/140_fb142be8a0092f63c6badb020895eb71.jpeg",
          "image_height" : 540,
          "position" : 9
        }
      ],
      "first_level_comment_count" : 1,
      "favo_counts" : 4656,
      "eu" : "recipes:\/\/www.douguo.com\/postdetail?id=242016",
      "major" : [
        {
          "note" : "100克",
          "title" : "新西兰鳌虾"
        },
        {
          "note" : "1个",
          "title" : "牛油果",
          "tu" : "https:\/\/m.douguo.com\/ingredients\/牛油果\/detailmaterial"
        },
        {
          "tu" : "https:\/\/m.douguo.com\/ingredients\/西葫芦\/detailmaterial",
          "title" : "西葫芦",
          "note" : "半个"
        },
        {
          "tu" : "https:\/\/m.douguo.com\/ingredients\/鹌鹑蛋\/detailmaterial",
          "note" : "1个",
          "title" : "鹌鹑蛋"
        },
        {
          "note" : "1勺",
          "title" : "鱼籽酱",
          "tu" : "https:\/\/m.douguo.com\/ingredients\/鱼籽酱\/detailmaterial"
        },
        {
          "note" : "1勺",
          "title" : "洋葱碎"
        },
        {
          "note" : "5克",
          "title" : "日式酱油"
        },
        {
          "title" : "薄荷叶",
          "note" : "5克"
        },
        {
          "tu" : "https:\/\/m.douguo.com\/ingredients\/橄榄油\/detailmaterial",
          "note" : "1勺",
          "title" : "橄榄油"
        }
      ],
      "bs" : [

      ],
      "vc" : "140748",
      "ssu" : "",
      "rpid" : 0,
      "event" : {
        "url" : "https:\/\/m.douguo.com\/activity\/ncpzj\/detail\/3784?isapp=1&open=0&_vs=1000300&&dg_refreshkey=publishnote",
        "name" : "东古525掌勺节 致敬了不起的掌勺人",
        "id" : 3784
      },
      "rcs" : [

      ],
      "ecs" : 1,
      "mid_mdsp" : [

      ],
      "cook_time_image" : "https:\/\/i1.douguo.com\/upload\/banner\/1551424341.png",
      "rate" : 0,
      "purl" : "",
      "hqu" : "recipes:\/\/www.douguo.com\/notedetail?id=21162253",
      "cook_difficulty_image" : "https:\/\/i1.douguo.com\/upload\/banner\/1551424390.png",
      "thumb_path" : "https:\/\/i1.douguo.com\/upload\/caiku\/b\/b\/e\/300_bbe2dd6115548200ff79bd4474e1881e.jpeg",
      "comments_count" : 1,
      "photo_path" : "https:\/\/i1.douguo.com\/upload\/caiku\/b\/b\/e\/600_bbe2dd6115548200ff79bd4474e1881e.jpeg",
      "act_des" : "",
      "tips" : "",
      "tags" : [

      ],
      "hq" : 1,
      "author_photo" : "http:\/\/tx1.douguo.net\/upload\/photo\/b\/5\/5\/70_u73310629393286035316.jpg",
      "title_ad" : [

      ],
      "user" : {
        "coursecount" : 0,
        "lv" : 0,
        "user_photo" : "http:\/\/tx1.douguo.net\/upload\/photo\/b\/5\/5\/70_u73310629393286035316.jpg",
        "birthday" : "",
        "weibo_nick" : "",
        "age" : "",
        "userid" : "18621547",
        "progress_image" : "",
        "pc" : 0,
        "diaries_count" : 0,
        "mobile" : "",
        "fc" : 0,
        "following_count" : 0,
        "point" : 0,
        "favorites_count" : 0,
        "favor_diaries_count" : 0,
        "is_prime" : 0,
        "subscription" : 0,
        "avatar_medium" : "http:\/\/tx1.douguo.net\/upload\/photo\/b\/5\/5\/140_u73310629393286035316.jpg",
        "sign" : "",
        "verified" : 1,
        "setted_email" : 0,
        "user_large_photo" : "http:\/\/tx1.douguo.net\/upload\/photo\/b\/5\/5\/yuan_u73310629393286035316.jpg",
        "verified_url" : "https:\/\/m.douguo.com\/user\/prodesc",
        "qq_weibo_nick" : "",
        "location" : 0,
        "user_cover" : "",
        "followers_count" : 0,
        "introduction" : "",
        "gender" : 2,
        "lvl" : 7,
        "qzone_nick" : "",
        "nick" : "八鲜过海",
        "recipes_count" : 0,
        "regist_time" : "",
        "email" : "",
        "subscription_article_count" : 0,
        "dishes_count" : 0,
        "verified_image" : "https:\/\/i1.douguo.com\/upload\/note\/d\/a\/a\/da84247847aebe48d9dd0fcdac88862a.png",
        "user_id" : "18621547"
      },
      "author_verified" : 1,
      "guide_image" : "",
      "levelid" : 2,
      "image" : "http:\/\/i1.douguo.net\/upload\/caiku\/b\/b\/e\/300_bbe2dd6115548200ff79bd4474e1881e.jpeg",
      "ipt" : "",
      "cookstory" : "新西兰海鳌虾， 学名叫南极深海螯虾，又称新西兰小龙虾， 生长在南极和新西兰之间150米-650米的深海海域。 新西兰鳌虾相比其它品种，肉质更细嫩、更有弹性。虾肉口感软糯鲜甜，无需过分调味就能充分体现新西兰南极深海螯虾固有的鲜美和风味，细品有一股奶油香气。 ",
      "cook_id" : "3255083",
      "views_count_text" : "14.1万",
      "release_time" : "",
      "story_dsp" : [

      ],
      "create_time" : "2023-06-01 10:20:59",
      "rrpt" : "",
      "comments_count_text" : "1",
      "original_photo_path" : "http:\/\/i1.douguo.net\/upload\/caiku\/b\/b\/e\/yuan_bbe2dd6115548200ff79bd4474e1881e.jpeg",
      "rrps" : [

      ],
      "recommended" : 0,
      "pw" : 960,
      "advice" : {
        "at" : "可以预防血栓形成～",
        "da" : {
          "url" : "https:\/\/m.douguo.com\/recipe\/nutrient_self\/3255083",
          "t" : "查看详细分析",
          "iu" : "https:\/\/i1.douguo.com\/upload\/banner\/f\/4\/d\/f48877e53c37759bc12ac494be82ec8d.png"
        },
        "has" : [
          {
            "url" : "recipes:\/\/www.douguo.com\/simplerecipelist?t=低饱和脂肪&id=低饱和脂肪",
            "t" : "低饱和脂肪"
          },
          {
            "t" : "低胆固醇",
            "url" : "recipes:\/\/www.douguo.com\/simplerecipelist?t=低胆固醇&id=低胆固醇"
          }
        ]
      },
      "comments" : [
        "{\n    ac = \"#999999\";\n    at = \"\";\n    ccc = 0;\n    \"child_comments\" =     (\n    );\n    city = \"\";\n    cmc = 2;\n    content =     (\n                {\n            c = \"\\U770b\\U4e0a\\U53bb\\U597d\\U590d\\U6742\";\n        }\n    );\n    ia = 0;\n    id = 9031730;\n    \"ip_address_location\" = \"\";\n    like = 0;\n    \"like_count\" = 0;\n    \"reply_id\" = 0;\n    \"sticker_icon\" =     (\n    );\n    time = \"2023-06-02 19:35:57\";\n    u =     {\n        \"followers_count_text\" = \"\";\n        id = 23555170;\n        \"is_prime\" = 0;\n        lv = 0;\n        lvl = 3;\n        n = \"\\U5154\\U56e1\\U56e1qcao\";\n        p = \"http:\/\/tx1.douguo.net\/upload\/photo\/d\/f\/8\/70_u1769217484350329150715.jpg\";\n        \"progress_image\" = \"\";\n        \"recipes_count_text\" = \"\";\n        relationship = \"-1\";\n        title = \"\";\n        v = 0;\n        \"verified_image\" = \"\";\n    };\n}"
      ],
      "cookwares" : [

      ],
      "brand_day_dsp" : [

      ],
      "recent_comments" : [

      ],
      "cook_difficulty" : "切墩(初级)",
      "collect_status" : 0,
      "rpt" : "",
      "vfurl" : "https:\/\/vplay.douguo.com\/lpdO3aPn1Q88zlZjyWP7Hf7lyWgp__640x362.mp4",
      "old_comments" : [

      ],
      "su" : "",
      "favo_counts_text" : "4656",
      "clicks" : "1",
      "minor" : [

      ],
      "ipoi" : "",
      "thumb_height" : 0,
      "notes" : [

      ],
      "recipe_tags" : [

      ],
      "ph" : 540,
      "cook_time" : "10~30分钟",
      "btm_dsp" : [

      ],
      "packages_id" : [

      ],
      "rewarded_video_dsp" : [

      ],
      "rate_count" : 0,
      "rdsps" : [

      ],
      "author" : "八鲜过海",
      "rsm" : "该功能暂停使用",
      "v_u" : "",
      "ipit" : 0,
      "dish_count" : 0,
      "recipe_list_tags" : [
        {
          "text" : "关注的人",
          "background_border_color" : "",
          "background_start_color" : "#F4F5F5",
          "text_color" : "#141515",
          "right_image" : "",
          "background_end_color" : "#F4F5F5",
          "jump_url" : ""
        }
      ],
      "author_id" : 18621547
    }
  }
}