{
  "status" : 0,
  "result" : {
    "recipe" : {
      "cook_difficulty" : "配菜(中级)",
      "old_comments" : [

      ],
      "ipit" : 0,
      "hq" : 0,
      "ipt" : "",
      "ph" : 600,
      "recent_comments" : [

      ],
      "purl" : "",
      "cookstep" : [
        {
          "image_width" : 800,
          "content" : "备苹果、柠檬",
          "image_height" : 600,
          "image" : "https:\/\/i1.douguo.com\/upload\/caiku\/9\/2\/0\/92a3d019461a7400e9d5514c8ae0f1b0.jpeg",
          "frame" : "-1",
          "position" : 1,
          "thumb" : "https:\/\/i1.douguo.com\/upload\/caiku\/9\/2\/0\/140_92a3d019461a7400e9d5514c8ae0f1b0.jpeg"
        },
        {
          "image" : "https:\/\/i1.douguo.com\/upload\/caiku\/5\/f\/5\/5f294b7d8c59f4abc39da6fddbada1c5.jpeg",
          "frame" : "-1",
          "position" : 2,
          "content" : "苹果削皮切块加入柠檬汁煮到发软",
          "image_width" : 800,
          "thumb" : "https:\/\/i1.douguo.com\/upload\/caiku\/5\/f\/5\/140_5f294b7d8c59f4abc39da6fddbada1c5.jpeg",
          "image_height" : 600
        },
        {
          "image_height" : 600,
          "image_width" : 800,
          "thumb" : "https:\/\/i1.douguo.com\/upload\/caiku\/1\/d\/4\/140_1d346d2e86b7e6b875560a25fe5d33c4.jpeg",
          "content" : "用鸡蛋加点色拉油、糖、一点盐和面",
          "image" : "https:\/\/i1.douguo.com\/upload\/caiku\/1\/d\/4\/1d346d2e86b7e6b875560a25fe5d33c4.jpeg",
          "position" : 3,
          "frame" : "-1"
        },
        {
          "content" : "和好面团醒1小时以上",
          "image" : "https:\/\/i1.douguo.com\/upload\/caiku\/e\/f\/7\/efb581e0e819f5587077665ca1712167.jpeg",
          "frame" : "-1",
          "thumb" : "https:\/\/i1.douguo.com\/upload\/caiku\/e\/f\/7\/140_efb581e0e819f5587077665ca1712167.jpeg",
          "image_width" : 800,
          "position" : 4,
          "image_height" : 1067
        },
        {
          "image_height" : 1067,
          "frame" : "-1",
          "image" : "https:\/\/i1.douguo.com\/upload\/caiku\/4\/b\/9\/4bd6c7e472cdbe4cfcf7fde7cbf78b99.jpeg",
          "content" : "在模具中把面铺开，放熬好的苹果块",
          "position" : 5,
          "thumb" : "https:\/\/i1.douguo.com\/upload\/caiku\/4\/b\/9\/140_4bd6c7e472cdbe4cfcf7fde7cbf78b99.jpeg",
          "image_width" : 800
        },
        {
          "image_height" : 1067,
          "image" : "https:\/\/i1.douguo.com\/upload\/caiku\/9\/7\/7\/973374f77e0e71a30e2b8cded8a7abb7.jpeg",
          "image_width" : 800,
          "content" : "把面搓成面交织盖住苹果馅",
          "frame" : "-1",
          "thumb" : "https:\/\/i1.douguo.com\/upload\/caiku\/9\/7\/7\/140_973374f77e0e71a30e2b8cded8a7abb7.jpeg",
          "position" : 6
        },
        {
          "position" : 7,
          "frame" : "-1",
          "image_height" : 1067,
          "image_width" : 800,
          "content" : "抹上一层蛋液",
          "thumb" : "https:\/\/i1.douguo.com\/upload\/caiku\/8\/e\/4\/140_8e63a711a89f5076bf0a7135f4a06cc4.jpeg",
          "image" : "https:\/\/i1.douguo.com\/upload\/caiku\/8\/e\/4\/8e63a711a89f5076bf0a7135f4a06cc4.jpeg"
        },
        {
          "image_height" : 600,
          "frame" : "-1",
          "image" : "https:\/\/i1.douguo.com\/upload\/caiku\/7\/1\/d\/71e87b99404647b9e36406c1d68f837d.jpeg",
          "image_width" : 800,
          "content" : "随心所欲家常菜（苹果馅饼）买了好久的苹果还没吃完，烤个苹果馅饼变换一下口味。把苹果削皮切成小块放入锅中，加一些白糖、少许水熬开，挤一个柠檬的汁液熬到苹果发软待用，在面盆中打两个鸡蛋、丁点盐、少许白糖、色拉油打散后加入自发面粉搅拌后，和成面团，放入保鲜袋醒一个小时以上，（早晨做也可头晚和好面团），把醒好的面团分成两部分，一部分放入烤制模具，按模具形态铺开后，在上面放上熬好的苹果块，另一部分面团按喜欢的形状盖在苹果块上，在上面抹一层蛋液，放入烤箱，设定200度双面烤10分钟后，金灿灿的苹果馅饼出炉。看着都很有食欲。加入柠檬汁的苹果块酸酸甜甜、果香味十足，面饼里因加入了油和鸡蛋，松软酥香，当早餐或零食，味道简直不摆了。",
          "position" : 8,
          "thumb" : "https:\/\/i1.douguo.com\/upload\/caiku\/7\/1\/d\/140_71e87b99404647b9e36406c1d68f837d.jpeg"
        }
      ],
      "recipe_list_tags" : [
        {
          "text_color" : "#141515",
          "text" : "关注的人",
          "background_start_color" : "#F4F5F5",
          "jump_url" : "",
          "background_border_color" : "",
          "background_end_color" : "#F4F5F5",
          "right_image" : ""
        }
      ],
      "vfurl" : "",
      "author" : "家常滋味",
      "ipurl" : "",
      "rrpt" : "",
      "recommendation_tag" : "",
      "top_mdsp" : [

      ],
      "ssu" : "",
      "thumb_height" : 0,
      "cookwares" : [

      ],
      "collect_status" : 0,
      "v_u" : "",
      "recommended" : 0,
      "dish_count" : 0,
      "hqu" : "recipes:\/\/www.douguo.com\/notedetail?id=21162253",
      "cook_id" : "1359578",
      "ecs" : 0,
      "story_dsp" : [

      ],
      "tips" : "",
      "vc" : "12093",
      "advice" : {
        "da" : {
          "iu" : "https:\/\/i1.douguo.com\/upload\/banner\/f\/4\/d\/f48877e53c37759bc12ac494be82ec8d.png",
          "t" : "查看详细分析",
          "url" : "https:\/\/m.douguo.com\/recipe\/nutrient_self\/1359578"
        },
        "has" : [
          {
            "t" : "低脂",
            "url" : "recipes:\/\/www.douguo.com\/simplerecipelist?t=低脂&id=低脂"
          },
          {
            "url" : "recipes:\/\/www.douguo.com\/simplerecipelist?t=高盐&id=高盐",
            "t" : "高盐"
          }
        ],
        "at" : "健身人群可以吃～"
      },
      "rpid" : 0,
      "guide_image" : "",
      "ipoi" : "",
      "minor" : [

      ],
      "image" : "http:\/\/i1.douguo.net\/upload\/caiku\/4\/8\/e\/300_48b8137467e13619952c200048a8e5ee.jpeg",
      "rate" : 0,
      "clicks" : "10962",
      "cookstory" : "",
      "rips" : 0,
      "dish_count_text" : "",
      "share_info" : {
        "mini_program" : [

        ],
        "object_id" : "1359578",
        "name" : "苹馅饼-会做饭很酷!",
        "s_d" : "苹馅饼-会做饭很酷!",
        "image" : "https:\/\/cp1.douguo.com\/upload\/caiku\/4\/8\/e\/48b8137467e13619952c200048a8e5ee.jpeg",
        "s_u" : "http:\/\/m.douguo.com\/cookbook\/1359578.html",
        "qr_image" : "",
        "infos" : [
          {
            "qr_image" : "",
            "s_d" : "#学做饭用豆果美食# 我在@豆果美食 分享了【苹馅饼-会做饭很酷!】，哟，集美们～你看这是神仙美味～快跟着我做一份，做一份！查看图片了解菜谱（更多美食秘籍点击https:\/\/m.weibo.cn\/p\/100404i33631获取）#会做饭很酷# ",
            "name" : "苹馅饼-会做饭很酷!",
            "image" : "https:\/\/cp1.douguo.com\/upload\/caiku\/4\/8\/e\/48b8137467e13619952c200048a8e5ee.jpeg",
            "object_id" : "1359578",
            "mini_program" : [

            ],
            "s_u" : "",
            "channel" : "1"
          },
          {
            "mini_program" : [

            ],
            "image" : "https:\/\/cp1.douguo.com\/upload\/caiku\/4\/8\/e\/48b8137467e13619952c200048a8e5ee.jpeg",
            "object_id" : "1359578",
            "s_u" : "http:\/\/m.douguo.com\/cookbook\/1359578.html",
            "channel" : "7",
            "s_d" : "苹馅饼-会做饭很酷!",
            "qr_image" : "",
            "name" : "苹馅饼-会做饭很酷!"
          },
          {
            "s_u" : "http:\/\/m.douguo.com\/cookbook\/1359578.html",
            "channel" : "8",
            "qr_image" : "",
            "s_d" : "苹馅饼-会做饭很酷!",
            "mini_program" : [

            ],
            "image" : "https:\/\/cp1.douguo.com\/upload\/caiku\/4\/8\/e\/48b8137467e13619952c200048a8e5ee.jpeg",
            "name" : "苹馅饼-会做饭很酷!",
            "object_id" : "1359578"
          }
        ]
      },
      "related_ads" : [

      ],
      "major" : [
        {
          "title" : "苹果、面粉、盐、白糖、鸡蛋",
          "note" : ""
        }
      ],
      "packages_id" : [

      ],
      "ipia" : [

      ],
      "recipe_tags" : [

      ],
      "cookstorys" : [

      ],
      "sc" : 0,
      "thumb_path" : "https:\/\/i1.douguo.com\/upload\/caiku\/4\/8\/e\/300_48b8137467e13619952c200048a8e5ee.jpeg",
      "rpst" : "",
      "eu" : "recipes:\/\/www.douguo.com\/postdetail?id=242016",
      "pw" : 800,
      "views_count_text" : "1.2万",
      "recommend_label" : "1.2万人看过",
      "favo_counts_text" : "77",
      "author_id" : 17076255,
      "brand_day_dsp" : [

      ],
      "notes" : [

      ],
      "bs" : [

      ],
      "levelid" : 3,
      "rate_show" : 0,
      "comments_count_text" : "",
      "tags" : [

      ],
      "comments" : [

      ],
      "photo_path" : "https:\/\/i1.douguo.com\/upload\/caiku\/4\/8\/e\/600_48b8137467e13619952c200048a8e5ee.jpeg",
      "ipci" : "",
      "ss" : [

      ],
      "rewarded_video_dsp" : [

      ],
      "release_time" : "",
      "rpt" : "",
      "rcs" : [

      ],
      "mid_mdsp" : [

      ],
      "vu" : "",
      "favo_counts" : 77,
      "cook_time_image" : "https:\/\/i1.douguo.com\/upload\/banner\/1551424318.png",
      "author_verified" : 0,
      "display_ingredient" : 1,
      "first_level_comment_count" : 0,
      "title_ad" : [

      ],
      "su" : "",
      "rate_count" : 0,
      "cook_difficulty_image" : "https:\/\/i1.douguo.com\/upload\/banner\/1551424413.png",
      "rdsps" : [

      ],
      "rsm" : "该功能暂停使用",
      "btm_dsp" : [

      ],
      "act_des" : "",
      "user" : {
        "recipes_count" : 0,
        "verified_url" : "https:\/\/m.douguo.com\/user\/prodesc",
        "verified_image" : "",
        "introduction" : "",
        "user_photo" : "http:\/\/tx1.douguo.net\/upload\/photo\/8\/1\/6\/70_u59940200441556154050.jpeg",
        "user_id" : "17076255",
        "is_prime" : 0,
        "sign" : "",
        "dishes_count" : 0,
        "regist_time" : "",
        "setted_email" : 0,
        "verified" : 0,
        "weibo_nick" : "",
        "followers_count" : 0,
        "gender" : 2,
        "diaries_count" : 0,
        "pc" : 0,
        "qzone_nick" : "",
        "avatar_medium" : "http:\/\/tx1.douguo.net\/upload\/photo\/8\/1\/6\/140_u59940200441556154050.jpeg",
        "location" : 0,
        "email" : "",
        "progress_image" : "",
        "mobile" : "",
        "subscription_article_count" : 0,
        "user_cover" : "",
        "user_large_photo" : "http:\/\/tx1.douguo.net\/upload\/photo\/8\/1\/6\/yuan_u59940200441556154050.jpeg",
        "birthday" : "",
        "nick" : "家常滋味",
        "following_count" : 0,
        "favor_diaries_count" : 0,
        "subscription" : 0,
        "point" : 0,
        "coursecount" : 0,
        "lv" : 0,
        "lvl" : 5,
        "fc" : 0,
        "userid" : "17076255",
        "age" : "",
        "qq_weibo_nick" : "",
        "favorites_count" : 0
      },
      "comments_count" : 0,
      "create_time" : "2016-04-11 14:56:53",
      "sr" : "",
      "dishes" : [

      ],
      "title" : "苹馅饼",
      "cook_time" : "30~60分钟",
      "author_photo" : "http:\/\/tx1.douguo.net\/upload\/photo\/8\/1\/6\/70_u59940200441556154050.jpeg",
      "original_photo_path" : "http:\/\/i1.douguo.net\/upload\/caiku\/4\/8\/e\/yuan_48b8137467e13619952c200048a8e5ee.jpeg",
      "rrps" : [

      ]
    }
  },
  "state" : "success"
}