{
  "status" : 0,
  "result" : {
    "recipe" : {
      "vu" : "",
      "vfurl" : "",
      "views_count_text" : "8.6万",
      "image" : "http:\/\/i1.douguo.net\/upload\/caiku\/1\/2\/0\/300_1294dbf4e00c380547206cb89ddba200.jpeg",
      "vc" : "85594",
      "purl" : "",
      "su" : "",
      "minor" : [

      ],
      "eu" : "recipes:\/\/www.douguo.com\/postdetail?id=242016",
      "sr" : "",
      "story_dsp" : [

      ],
      "original_photo_path" : "http:\/\/i1.douguo.net\/upload\/caiku\/1\/2\/0\/yuan_1294dbf4e00c380547206cb89ddba200.jpeg",
      "author" : "吃货椰椰",
      "cook_difficulty" : "配菜(中级)",
      "favo_counts_text" : "2353",
      "clicks" : "82953",
      "share_info" : {
        "name" : "玫瑰花曲奇丨小王子同款-会做饭很酷!",
        "s_d" : "玫瑰花曲奇丨小王子同款-会做饭很酷!",
        "mini_program" : [

        ],
        "s_u" : "http:\/\/m.douguo.com\/cookbook\/2306875.html",
        "object_id" : "2306875",
        "image" : "https:\/\/cp1.douguo.com\/upload\/caiku\/1\/2\/0\/1294dbf4e00c380547206cb89ddba200.jpeg",
        "infos" : [
          {
            "s_d" : "#学做饭用豆果美食# 我在@豆果美食 分享了【玫瑰花曲奇丨小王子同款-会做饭很酷!】，这菜真的很好吃，而且做法简单不难学，还不快来跟我学～查看图片了解菜谱（每天限量免费课程，想跟大师学厨艺就来这https:\/\/m.weibo.cn\/p\/100404i33631）#会做饭很酷# ",
            "name" : "玫瑰花曲奇丨小王子同款-会做饭很酷!",
            "image" : "https:\/\/cp1.douguo.com\/upload\/caiku\/1\/2\/0\/1294dbf4e00c380547206cb89ddba200.jpeg",
            "s_u" : "",
            "object_id" : "2306875",
            "mini_program" : [

            ],
            "qr_image" : "",
            "channel" : "1"
          },
          {
            "object_id" : "2306875",
            "qr_image" : "",
            "mini_program" : [

            ],
            "s_d" : "玫瑰花曲奇丨小王子同款-会做饭很酷!",
            "channel" : "7",
            "s_u" : "http:\/\/m.douguo.com\/cookbook\/2306875.html",
            "name" : "玫瑰花曲奇丨小王子同款-会做饭很酷!",
            "image" : "https:\/\/cp1.douguo.com\/upload\/caiku\/1\/2\/0\/1294dbf4e00c380547206cb89ddba200.jpeg"
          },
          {
            "image" : "https:\/\/cp1.douguo.com\/upload\/caiku\/1\/2\/0\/1294dbf4e00c380547206cb89ddba200.jpeg",
            "mini_program" : [

            ],
            "qr_image" : "",
            "name" : "玫瑰花曲奇丨小王子同款-会做饭很酷!",
            "object_id" : "2306875",
            "s_d" : "玫瑰花曲奇丨小王子同款-会做饭很酷!",
            "channel" : "8",
            "s_u" : "http:\/\/m.douguo.com\/cookbook\/2306875.html"
          }
        ],
        "qr_image" : ""
      },
      "user" : {
        "dishes_count" : 0,
        "user_large_photo" : "http:\/\/tx1.douguo.net\/upload\/photo\/e\/f\/9\/yuan_u79718579671171192436.jpeg",
        "is_prime" : 0,
        "fc" : 0,
        "age" : "",
        "gender" : 2,
        "qq_weibo_nick" : "",
        "userid" : "19089259",
        "email" : "",
        "following_count" : 0,
        "user_cover" : "",
        "nick" : "吃货椰椰",
        "verified_image" : "https:\/\/i1.douguo.com\/upload\/note\/d\/a\/a\/da84247847aebe48d9dd0fcdac88862a.png",
        "diaries_count" : 0,
        "location" : 0,
        "subscription_article_count" : 0,
        "lvl" : 6,
        "weibo_nick" : "",
        "birthday" : "",
        "favorites_count" : 0,
        "qzone_nick" : "",
        "favor_diaries_count" : 0,
        "followers_count" : 0,
        "recipes_count" : 0,
        "coursecount" : 0,
        "progress_image" : "",
        "verified_url" : "https:\/\/m.douguo.com\/user\/prodesc",
        "mobile" : "",
        "point" : 0,
        "verified" : 1,
        "sign" : "",
        "introduction" : "",
        "lv" : 0,
        "subscription" : 0,
        "regist_time" : "",
        "avatar_medium" : "http:\/\/tx1.douguo.net\/upload\/photo\/e\/f\/9\/140_u79718579671171192436.jpeg",
        "pc" : 0,
        "user_id" : "19089259",
        "user_photo" : "http:\/\/tx1.douguo.net\/upload\/photo\/e\/f\/9\/70_u79718579671171192436.jpeg",
        "setted_email" : 0
      },
      "ipt" : "",
      "comments_count" : 22,
      "advice" : {
        "has" : [
          {
            "url" : "recipes:\/\/www.douguo.com\/simplerecipelist?t=高热量&id=高热量",
            "t" : "高热量"
          },
          {
            "url" : "recipes:\/\/www.douguo.com\/simplerecipelist?t=高脂肪&id=高脂肪",
            "t" : "高脂肪"
          }
        ],
        "da" : {
          "url" : "https:\/\/m.douguo.com\/recipe\/nutrient_self\/2306875",
          "iu" : "https:\/\/i1.douguo.com\/upload\/banner\/f\/4\/d\/f48877e53c37759bc12ac494be82ec8d.png",
          "t" : "查看详细分析"
        },
        "at" : "适量即可～"
      },
      "rpst" : "",
      "cookstorys" : [
        {
          "c" : "520\/情人节\/纪念日的最佳DIY礼物\n用心最重要～",
          "u" : "",
          "type" : 0,
          "icon" : "",
          "id" : 0,
          "color" : ""
        }
      ],
      "ph" : 1280,
      "brand_day_dsp" : [

      ],
      "photo_path" : "https:\/\/i1.douguo.com\/upload\/caiku\/1\/2\/0\/600_1294dbf4e00c380547206cb89ddba200.jpeg",
      "recipe_list_tags" : [
        {
          "background_end_color" : "#F4F5F5",
          "background_border_color" : "",
          "background_start_color" : "#F4F5F5",
          "text" : "关注的人",
          "text_color" : "#141515",
          "right_image" : "",
          "jump_url" : ""
        },
        {
          "right_image" : "",
          "background_end_color" : "#F4F5F5",
          "text" : "内容详细",
          "text_color" : "#141515",
          "background_border_color" : "",
          "background_start_color" : "#F4F5F5",
          "jump_url" : ""
        }
      ],
      "comments" : [
        "{\n    ac = \"#999999\";\n    at = \"\";\n    ccc = 3;\n    \"child_comments\" =     (\n                {\n            ac = \"#999999\";\n            at = \"\\U4e0a\\U6d77\\U5e02\";\n            ccc = 0;\n            city = \"\\U4e0a\\U6d77\\U5e02\";\n            cmc = 2;\n            content =             (\n                                {\n                    c = \" \\Ud83d\\Ude02\\U5929\\U77e5\\U9053\\U6211\\U505a\\U4e00\\U6b65\\U62cd\\U4e00\\U6b65\\U591a\\U9ebb\\U70e6\\Uff0c\\U597d\\U60f3\\U62db\\U4e2a\\U52a9\\U624b\\Uff5e\";\n                }\n            );\n            ia = 1;\n            id = 6659419;\n            \"ip_address_location\" = \"\";\n            like = 0;\n            \"like_count\" = 0;\n            \"reply_id\" = 6657037;\n            \"reply_user\" =             {\n                \"followers_count_text\" = \"\";\n                id = 18507111;\n                \"is_prime\" = 0;\n                lv = 0;\n                lvl = 4;\n                n = \"\\U5c71\\U836fD\";\n                p = \"http:\/\/tx1.douguo.net\/upload\/photo\/a\/e\/c\/70_u2185394439315232634.jpg\";\n                \"progress_image\" = \"\";\n                \"recipes_count_text\" = \"\";\n                relationship = \"-1\";\n                title = \"\";\n                v = 0;\n                \"verified_image\" = \"\";\n            };\n            \"sticker_icon\" =             (\n            );\n            time = \"2019-06-12 19:52:35\";\n            u =             {\n                \"followers_count_text\" = \"\";\n                id = 19089259;\n                \"is_prime\" = 0;\n                lv = 0;\n                lvl = 6;\n                n = \"\\U5403\\U8d27\\U6930\\U6930\";\n                p = \"http:\/\/tx1.douguo.net\/upload\/photo\/e\/f\/9\/70_u79718579671171192436.jpeg\";\n                \"progress_image\" = \"\";\n                \"recipes_count_text\" = \"\";\n                relationship = \"-1\";\n                title = \"\";\n                v = 1;\n                \"verified_image\" = \"\";\n            };\n        },\n                {\n            ac = \"#999999\";\n            at = \"\";\n            ccc = 0;\n            city = \"\";\n            cmc = 2;\n            content =             (\n                                {\n                    c = \" \\U8981\\U52a9\\U624b\\U6211\\U6765 \\U514d\\U8d39\\U7528 \\U4e0d\\U8fc7\\U6211\\U597d\\U8bd5\\U5403\";\n                }\n            );\n            ia = 0;\n            id = 6747451;\n            \"ip_address_location\" = \"\";\n            like = 0;\n            \"like_count\" = 0;\n            \"reply_id\" = 6657037;\n            \"reply_user\" =             {\n                \"followers_count_text\" = \"\";\n                id = 18507111;\n                \"is_prime\" = 0;\n                lv = 0;\n                lvl = 4;\n                n = \"\\U5c71\\U836fD\";\n                p = \"http:\/\/tx1.douguo.net\/upload\/photo\/a\/e\/c\/70_u2185394439315232634.jpg\";\n                \"progress_image\" = \"\";\n                \"recipes_count_text\" = \"\";\n                relationship = \"-1\";\n                title = \"\";\n                v = 0;\n                \"verified_image\" = \"\";\n            };\n            \"sticker_icon\" =             (\n            );\n            time = \"2019-07-07 21:47:58\";\n            u =             {\n                \"followers_count_text\" = \"\";\n                id = 24019991;\n                \"is_prime\" = 0;\n                lv = 0;\n                lvl = 1;\n                n = \"\\U8c46\\U7c894661142955\";\n                p = \"http:\/\/tx1.douguo.net\/upload\/photo\/d\/1\/9\/70_u62480467514515145407.jpeg\";\n                \"progress_image\" = \"\";\n                \"recipes_count_text\" = \"\";\n                relationship = \"-1\";\n                title = \"\";\n                v = 0;\n                \"verified_image\" = \"\";\n            };\n        }\n    );\n    city = \"\";\n    cmc = 2;\n    content =     (\n                {\n            c = \"\\U6b65\\U9aa4\\U5199\\U7684\\U771f\\U6e05\\U695a\";\n        }\n    );\n    ia = 0;\n    id = 6657037;\n    \"ip_address_location\" = \"\";\n    like = 0;\n    \"like_count\" = 0;\n    \"reply_id\" = 0;\n    \"sticker_icon\" =     (\n    );\n    time = \"2019-06-11 22:24:49\";\n    u =     {\n        \"followers_count_text\" = \"\";\n        id = 18507111;\n        \"is_prime\" = 0;\n        lv = 0;\n        lvl = 4;\n        n = \"\\U5c71\\U836fD\";\n        p = \"http:\/\/tx1.douguo.net\/upload\/photo\/a\/e\/c\/70_u2185394439315232634.jpg\";\n        \"progress_image\" = \"\";\n        \"recipes_count_text\" = \"\";\n        relationship = \"-1\";\n        title = \"\";\n        v = 0;\n        \"verified_image\" = \"\";\n    };\n}",
        "{\n    ac = \"#999999\";\n    at = \"\";\n    ccc = 1;\n    \"child_comments\" =     (\n                {\n            ac = \"#999999\";\n            at = \"\\U4e0a\\U6d77\\U5e02\";\n            ccc = 0;\n            city = \"\\U4e0a\\U6d77\\U5e02\";\n            cmc = 2;\n            content =             (\n                                {\n                    c = \" \\U7801\\U4f4f\\Uff5e\\U6709\\U7a7a\\U53bb\\U8bd5\\U8bd5\\U5440\\Uff5e\\Ud83d\\Ude03\";\n                }\n            );\n            ia = 1;\n            id = 6659875;\n            \"ip_address_location\" = \"\";\n            like = 0;\n            \"like_count\" = 0;\n            \"reply_id\" = 6658588;\n            \"reply_user\" =             {\n                \"followers_count_text\" = \"\";\n                id = 20339547;\n                \"is_prime\" = 0;\n                lv = 0;\n                lvl = 6;\n                n = \"\\U4f4e\\U8c03\\U70b9\\U70b9\\U513f\";\n                p = \"http:\/\/tx1.douguo.net\/upload\/photo\/6\/9\/c\/70_u96287401929768140105.jpeg\";\n                \"progress_image\" = \"\";\n                \"recipes_count_text\" = \"\";\n                relationship = \"-1\";\n                title = \"\";\n                v = 1;\n                \"verified_image\" = \"\";\n            };\n            \"sticker_icon\" =             (\n            );\n            time = \"2019-06-12 22:42:55\";\n            u =             {\n                \"followers_count_text\" = \"\";\n                id = 19089259;\n                \"is_prime\" = 0;\n                lv = 0;\n                lvl = 6;\n                n = \"\\U5403\\U8d27\\U6930\\U6930\";\n                p = \"http:\/\/tx1.douguo.net\/upload\/photo\/e\/f\/9\/70_u79718579671171192436.jpeg\";\n                \"progress_image\" = \"\";\n                \"recipes_count_text\" = \"\";\n                relationship = \"-1\";\n                title = \"\";\n                v = 1;\n                \"verified_image\" = \"\";\n            };\n        }\n    );\n    city = \"\";\n    cmc = 2;\n    content =     (\n                {\n            c = \"\\U6211\\U4e5f\\U8981\\U8bd5\\U8bd5\\Uff01\";\n        }\n    );\n    ia = 0;\n    id = 6658588;\n    \"ip_address_location\" = \"\";\n    like = 0;\n    \"like_count\" = 0;\n    \"reply_id\" = 0;\n    \"sticker_icon\" =     (\n    );\n    time = \"2019-06-12 15:35:23\";\n    u =     {\n        \"followers_count_text\" = \"\";\n        id = 20339547;\n        \"is_prime\" = 0;\n        lv = 0;\n        lvl = 6;\n        n = \"\\U4f4e\\U8c03\\U70b9\\U70b9\\U513f\";\n        p = \"http:\/\/tx1.douguo.net\/upload\/photo\/6\/9\/c\/70_u96287401929768140105.jpeg\";\n        \"progress_image\" = \"\";\n        \"recipes_count_text\" = \"\";\n        relationship = \"-1\";\n        title = \"\";\n        v = 1;\n        \"verified_image\" = \"\";\n    };\n}",
        "{\n    ac = \"#999999\";\n    at = \"\";\n    ccc = 1;\n    \"child_comments\" =     (\n                {\n            ac = \"#999999\";\n            at = \"\\U4e0a\\U6d77\\U5e02\";\n            ccc = 0;\n            city = \"\\U4e0a\\U6d77\\U5e02\";\n            cmc = 2;\n            content =             (\n                                {\n                    c = \" \\U563b\\U563b\\Uff0c\\U597d\\U5403\\U53c8\\U597d\\U770b\\Uff5e\";\n                }\n            );\n            ia = 1;\n            id = 6659428;\n            \"ip_address_location\" = \"\";\n            like = 0;\n            \"like_count\" = 0;\n            \"reply_id\" = 6657031;\n            \"reply_user\" =             {\n                \"followers_count_text\" = \"\";\n                id = 18532699;\n                \"is_prime\" = 0;\n                lv = 0;\n                lvl = 3;\n                n = jinskeer;\n                p = \"http:\/\/tx1.douguo.net\/upload\/photo\/c\/9\/7\/70_u78813646630519212238.jpg\";\n                \"progress_image\" = \"\";\n                \"recipes_count_text\" = \"\";\n                relationship = \"-1\";\n                title = \"\";\n                v = 0;\n                \"verified_image\" = \"\";\n            };\n            \"sticker_icon\" =             (\n            );\n            time = \"2019-06-12 19:54:56\";\n            u =             {\n                \"followers_count_text\" = \"\";\n                id = 19089259;\n                \"is_prime\" = 0;\n                lv = 0;\n                lvl = 6;\n                n = \"\\U5403\\U8d27\\U6930\\U6930\";\n                p = \"http:\/\/tx1.douguo.net\/upload\/photo\/e\/f\/9\/70_u79718579671171192436.jpeg\";\n                \"progress_image\" = \"\";\n                \"recipes_count_text\" = \"\";\n                relationship = \"-1\";\n                title = \"\";\n                v = 1;\n                \"verified_image\" = \"\";\n            };\n        }\n    );\n    city = \"\";\n    cmc = 2;\n    content =     (\n                {\n            c = \"\\U5403\\U8d27\\U6765\\U5566\\U3002\\U770b\\U4e0a\\U53bb\\U597d\\U597d\\U5403\\U7684\\U6837\\U5b50\\U54e6\";\n        }\n    );\n    ia = 0;\n    id = 6657031;\n    \"ip_address_location\" = \"\";\n    like = 0;\n    \"like_count\" = 0;\n    \"reply_id\" = 0;\n    \"sticker_icon\" =     (\n    );\n    time = \"2019-06-11 22:23:43\";\n    u =     {\n        \"followers_count_text\" = \"\";\n        id = 18532699;\n        \"is_prime\" = 0;\n        lv = 0;\n        lvl = 3;\n        n = jinskeer;\n        p = \"http:\/\/tx1.douguo.net\/upload\/photo\/c\/9\/7\/70_u78813646630519212238.jpg\";\n        \"progress_image\" = \"\";\n        \"recipes_count_text\" = \"\";\n        relationship = \"-1\";\n        title = \"\";\n        v = 0;\n        \"verified_image\" = \"\";\n    };\n}"
      ],
      "cook_time_image" : "https:\/\/i1.douguo.com\/upload\/banner\/1551424318.png",
      "tags" : [

      ],
      "old_comments" : [

      ],
      "v_u" : "",
      "display_ingredient" : 1,
      "btm_dsp" : [

      ],
      "ssu" : "",
      "cook_difficulty_image" : "https:\/\/i1.douguo.com\/upload\/banner\/1551424413.png",
      "dish_count_text" : "",
      "rate_count" : 0,
      "recommended" : 0,
      "rips" : 0,
      "rrpt" : "",
      "comments_count_text" : "22",
      "pw" : 1920,
      "ipurl" : "",
      "notes" : [

      ],
      "rate_show" : 0,
      "guide_image" : "",
      "cook_time" : "30~60分钟",
      "levelid" : 2,
      "thumb_path" : "https:\/\/i1.douguo.com\/upload\/caiku\/1\/2\/0\/300_1294dbf4e00c380547206cb89ddba200.jpeg",
      "rate" : 0,
      "release_time" : "",
      "hqu" : "recipes:\/\/www.douguo.com\/notedetail?id=21162253",
      "rdsps" : [

      ],
      "title" : "玫瑰花曲奇丨小王子同款",
      "ecs" : 0,
      "create_time" : "2019-06-10 22:26:44",
      "tips" : "1⃣️我看别的教程是用牛奶调和果蔬粉，我实践了一下，这样做会使饼干变软，不够酥脆。所以不建议用牛奶，还是直接干拌果蔬粉比较好。\n2⃣️我的教程跳过裱花步骤还适用于普通曲奇，裱花对于初学者难度有点大，我也是突发奇想。实验了半天才做出玫瑰花的。\n3⃣️我的礼物盒还装了羽毛和彩条，一个希望可以起到减震作用，一个比较美观～",
      "hq" : 1,
      "ipci" : "",
      "thumb_height" : 0,
      "rewarded_video_dsp" : [

      ],
      "cook_id" : "2306875",
      "ipoi" : "",
      "packages_id" : [

      ],
      "recommendation_tag" : "",
      "act_des" : "",
      "rrps" : [

      ],
      "recent_comments" : [

      ],
      "ss" : [

      ],
      "bs" : [

      ],
      "collect_status" : 0,
      "author_photo" : "http:\/\/tx1.douguo.net\/upload\/photo\/e\/f\/9\/70_u79718579671171192436.jpeg",
      "top_mdsp" : [

      ],
      "recommend_label" : "2353人刚刚收藏过",
      "rsm" : "该功能暂停使用",
      "related_ads" : [

      ],
      "cookstory" : "520\/情人节\/纪念日的最佳DIY礼物\n用心最重要～",
      "title_ad" : [

      ],
      "favo_counts" : 2353,
      "author_id" : 19089259,
      "author_verified" : 1,
      "rpid" : 0,
      "cookwares" : [

      ],
      "ipit" : 0,
      "major" : [
        {
          "tu" : "https:\/\/m.douguo.com\/ingredients\/低筋面粉\/detailmaterial",
          "title" : "低筋面粉",
          "note" : "150g"
        },
        {
          "note" : "100g",
          "tu" : "https:\/\/m.douguo.com\/ingredients\/黄油\/detailmaterial",
          "title" : "黄油"
        },
        {
          "tu" : "https:\/\/m.douguo.com\/ingredients\/鸡蛋\/detailmaterial",
          "note" : "1个",
          "title" : "鸡蛋"
        },
        {
          "title" : "糖粉",
          "note" : "70g",
          "tu" : "https:\/\/m.douguo.com\/ingredients\/糖粉\/detailmaterial"
        },
        {
          "title" : "果蔬粉（上色）",
          "note" : "适量"
        }
      ],
      "cookstep" : [
        {
          "position" : 1,
          "image_width" : 1280,
          "content" : "准备食材：有条件的还可以准备牛奶、抹茶pokey",
          "frame" : "-1",
          "thumb" : "https:\/\/i1.douguo.com\/upload\/caiku\/1\/4\/1\/140_14c1362c456a0586a22c173bf9539a91.jpeg",
          "image" : "https:\/\/i1.douguo.com\/upload\/caiku\/1\/4\/1\/14c1362c456a0586a22c173bf9539a91.jpeg",
          "image_height" : 853
        },
        {
          "thumb" : "https:\/\/i1.douguo.com\/upload\/caiku\/e\/2\/0\/140_e2aab81b341bcb7b7e71d22b955a40b0.jpeg",
          "frame" : "-1",
          "image_height" : 889,
          "content" : "称重：每样食材都按固定g数称好",
          "image" : "https:\/\/i1.douguo.com\/upload\/caiku\/e\/2\/0\/e2aab81b341bcb7b7e71d22b955a40b0.jpeg",
          "position" : 2,
          "image_width" : 1280
        },
        {
          "frame" : "-1",
          "image" : "https:\/\/i1.douguo.com\/upload\/caiku\/d\/a\/f\/dabce4659bd73d31b635d3a008acdfef.jpeg",
          "position" : 3,
          "image_height" : 853,
          "image_width" : 1280,
          "thumb" : "https:\/\/i1.douguo.com\/upload\/caiku\/d\/a\/f\/140_dabce4659bd73d31b635d3a008acdfef.jpeg",
          "content" : "黄油提前室温软化切成小块，和白砂糖混合。"
        },
        {
          "image_width" : 1280,
          "content" : "用电动打蛋器将两者打到融合，呈羽毛状。在分两次加蛋液，用打蛋器打均匀，大概是上图这个样子就差不多了～",
          "image_height" : 853,
          "image" : "https:\/\/i1.douguo.com\/upload\/caiku\/c\/6\/0\/c6177c3087233d94adce6813c2f01da0.jpeg",
          "thumb" : "https:\/\/i1.douguo.com\/upload\/caiku\/c\/6\/0\/140_c6177c3087233d94adce6813c2f01da0.jpeg",
          "position" : 4,
          "frame" : "-1"
        },
        {
          "image" : "https:\/\/i1.douguo.com\/upload\/caiku\/7\/e\/9\/7eace7f32c05b7e727834f451cbf9f99.jpeg",
          "content" : "筛入面粉，用刮刀翻拌均匀。",
          "image_height" : 960,
          "position" : 5,
          "image_width" : 1280,
          "thumb" : "https:\/\/i1.douguo.com\/upload\/caiku\/7\/e\/9\/140_7eace7f32c05b7e727834f451cbf9f99.jpeg",
          "frame" : "-1"
        },
        {
          "image_height" : 853,
          "content" : "上面都和普通曲奇差不多。重点来了！加入适量的果蔬粉（火龙果粉）上色，果蔬粉比较天然健康～",
          "image_width" : 1280,
          "position" : 6,
          "frame" : "-1",
          "image" : "https:\/\/i1.douguo.com\/upload\/caiku\/8\/d\/5\/8dd56e4cd7fd725a5cd8c7496e6671e5.jpeg",
          "thumb" : "https:\/\/i1.douguo.com\/upload\/caiku\/8\/d\/5\/140_8dd56e4cd7fd725a5cd8c7496e6671e5.jpeg"
        },
        {
          "image_width" : 1280,
          "frame" : "-1",
          "content" : "调和均匀就变成粉粉的啦～用来做玫瑰花瓣",
          "image" : "https:\/\/i1.douguo.com\/upload\/caiku\/8\/f\/2\/8f0417001f82944f4d01e9768b649c12.jpeg",
          "thumb" : "https:\/\/i1.douguo.com\/upload\/caiku\/8\/f\/2\/140_8f0417001f82944f4d01e9768b649c12.jpeg",
          "position" : 7,
          "image_height" : 853
        },
        {
          "content" : "我还取了一小部分混合物加抹茶粉，用来做叶子。用扁头的裱花袋挤出花瓣，可以两只手左右开工。然后用中间凹两边突的裱花袋挤出叶子",
          "image" : "https:\/\/i1.douguo.com\/upload\/caiku\/9\/4\/7\/94b39405f038742793d90966d6b8c0c7.jpeg",
          "position" : 8,
          "thumb" : "https:\/\/i1.douguo.com\/upload\/caiku\/9\/4\/7\/140_94b39405f038742793d90966d6b8c0c7.jpeg",
          "image_width" : 1280,
          "image_height" : 853,
          "frame" : "-1"
        },
        {
          "frame" : "-1",
          "image_width" : 1280,
          "image" : "https:\/\/i1.douguo.com\/upload\/caiku\/e\/9\/b\/e9f4949388a4a836d7f52089017899db.jpeg",
          "image_height" : 853,
          "content" : "裱好的曲奇有点软会出油，需要立马放到冰箱冷冻20分钟定型，随后送到烤箱。烤箱预热170度，烤15分钟即可。",
          "position" : 9,
          "thumb" : "https:\/\/i1.douguo.com\/upload\/caiku\/e\/9\/b\/140_e9f4949388a4a836d7f52089017899db.jpeg"
        },
        {
          "position" : 10,
          "frame" : "-1",
          "thumb" : "https:\/\/i1.douguo.com\/upload\/caiku\/5\/e\/9\/140_5e3a31fbb80a06c64036efd6dcd10d49.jpeg",
          "image_height" : 853,
          "image_width" : 1280,
          "image" : "https:\/\/i1.douguo.com\/upload\/caiku\/5\/e\/9\/5e3a31fbb80a06c64036efd6dcd10d49.jpeg",
          "content" : "彩蛋1⃣️：其实最开始是想做康乃馨曲奇。发现还是玫瑰花更加好操作，就卷卷卷就可以了～嘻嘻，我还用了抹茶pokery做根茎，是不是有点像呢？"
        },
        {
          "image" : "https:\/\/i1.douguo.com\/upload\/caiku\/6\/6\/3\/66e8835b5c8fdd0187b84016bb182353.jpeg",
          "image_height" : 853,
          "frame" : "-1",
          "position" : 11,
          "content" : "彩蛋2⃣️：多余的绿色和粉色混合物，还用裱花筒挤了曲奇。",
          "image_width" : 1280,
          "thumb" : "https:\/\/i1.douguo.com\/upload\/caiku\/6\/6\/3\/140_66e8835b5c8fdd0187b84016bb182353.jpeg"
        },
        {
          "frame" : "-1",
          "thumb" : "https:\/\/i1.douguo.com\/upload\/caiku\/7\/a\/f\/140_7ac4d5c78393bd0a2221e9378ae6646f.jpeg",
          "image_width" : 1280,
          "image" : "https:\/\/i1.douguo.com\/upload\/caiku\/7\/a\/f\/7ac4d5c78393bd0a2221e9378ae6646f.jpeg",
          "position" : 12,
          "image_height" : 853,
          "content" : "绿色曲奇也很好看有木有？和店里卖的似的，吃起来还有淡淡的抹茶香～"
        },
        {
          "frame" : "-1",
          "thumb" : "https:\/\/i1.douguo.com\/upload\/caiku\/f\/8\/e\/140_f8bdb6249f5cd6c45317f71f8192ed2e.jpeg",
          "position" : 13,
          "image" : "https:\/\/i1.douguo.com\/upload\/caiku\/f\/8\/e\/f8bdb6249f5cd6c45317f71f8192ed2e.jpeg",
          "content" : "最后，把这些曲奇封上袋子，装到包装盒里就OK啦！超梦幻的小礼物就完成啦～",
          "image_height" : 853,
          "image_width" : 1280
        },
        {
          "frame" : "-1",
          "image_height" : 853,
          "position" : 14,
          "content" : "没有对象，送闺蜜也可以啦～自己用心做的礼物，别人一定会很喜欢啦～",
          "image_width" : 1280,
          "image" : "https:\/\/i1.douguo.com\/upload\/caiku\/c\/b\/a\/cbc3afeacb1ba628cca1ab895ceed12a.jpeg",
          "thumb" : "https:\/\/i1.douguo.com\/upload\/caiku\/c\/b\/a\/140_cbc3afeacb1ba628cca1ab895ceed12a.jpeg"
        }
      ],
      "ipia" : [

      ],
      "dishes" : [

      ],
      "rpt" : "",
      "mid_mdsp" : [

      ],
      "rcs" : [

      ],
      "dish_count" : 0,
      "sc" : 0,
      "first_level_comment_count" : 14,
      "recipe_tags" : [

      ]
    }
  },
  "state" : "success"
}