{
  "status" : 0,
  "result" : {
    "recipe" : {
      "cook_id" : "3068921",
      "comments_count_text" : "37",
      "rips" : 0,
      "author_id" : 11750476,
      "cook_time" : "10~30分钟",
      "ipt" : "",
      "vu" : "",
      "ipurl" : "",
      "eu" : "recipes:\/\/www.douguo.com\/postdetail?id=242016",
      "thumb_path" : "https:\/\/i1.douguo.com\/upload\/caiku\/e\/8\/b\/300_e88975f807338b9f710233870c04e83b.jpeg",
      "author_photo" : "http:\/\/tx1.douguo.net\/upload\/photo\/b\/7\/7\/70_u45064002267066113617.jpeg",
      "recipe_tags" : [

      ],
      "rate" : 5,
      "dishes" : [

      ],
      "ss" : [

      ],
      "share_info" : {
        "image" : "https:\/\/cp1.douguo.com\/upload\/caiku\/e\/8\/b\/e88975f807338b9f710233870c04e83b.jpeg",
        "s_u" : "http:\/\/m.douguo.com\/cookbook\/3068921.html",
        "infos" : [
          {
            "s_d" : "#学做饭用豆果美食# 我在@豆果美食 分享了【美味早餐厚松饼-会做饭很酷!】，这菜真的很好吃，而且做法简单不难学，还不快来跟我学～查看图片了解菜谱（每天限量免费课程，想跟大师学厨艺就来这https:\/\/m.weibo.cn\/p\/100404i33631）#会做饭很酷# ",
            "s_u" : "",
            "qr_image" : "",
            "mini_program" : [

            ],
            "name" : "美味早餐厚松饼-会做饭很酷!",
            "image" : "https:\/\/cp1.douguo.com\/upload\/caiku\/e\/8\/b\/e88975f807338b9f710233870c04e83b.jpeg",
            "channel" : "1",
            "object_id" : "3068921"
          },
          {
            "mini_program" : [

            ],
            "qr_image" : "",
            "object_id" : "3068921",
            "image" : "https:\/\/cp1.douguo.com\/upload\/caiku\/e\/8\/b\/e88975f807338b9f710233870c04e83b.jpeg",
            "s_u" : "http:\/\/m.douguo.com\/cookbook\/3068921.html",
            "s_d" : "美味早餐厚松饼-会做饭很酷!",
            "channel" : "7",
            "name" : "美味早餐厚松饼-会做饭很酷!"
          },
          {
            "name" : "美味早餐厚松饼-会做饭很酷!",
            "mini_program" : [

            ],
            "s_d" : "美味早餐厚松饼-会做饭很酷!",
            "qr_image" : "",
            "image" : "https:\/\/cp1.douguo.com\/upload\/caiku\/e\/8\/b\/e88975f807338b9f710233870c04e83b.jpeg",
            "channel" : "8",
            "object_id" : "3068921",
            "s_u" : "http:\/\/m.douguo.com\/cookbook\/3068921.html"
          }
        ],
        "name" : "美味早餐厚松饼-会做饭很酷!",
        "mini_program" : [

        ],
        "s_d" : "美味早餐厚松饼-会做饭很酷!",
        "object_id" : "3068921",
        "qr_image" : ""
      },
      "cook_time_image" : "https:\/\/i1.douguo.com\/upload\/banner\/1551424341.png",
      "recent_comments" : [

      ],
      "hq" : 1,
      "rate_count" : 7,
      "tags" : [

      ],
      "btm_dsp" : [

      ],
      "image" : "http:\/\/i1.douguo.net\/upload\/caiku\/e\/8\/b\/300_e88975f807338b9f710233870c04e83b.jpeg",
      "cook_difficulty_image" : "",
      "favo_counts_text" : "1.9万",
      "views_count_text" : "159.3万",
      "v_u" : "",
      "major" : [
        {
          "tu" : "https:\/\/m.douguo.com\/ingredients\/低筋粉\/detailmaterial",
          "note" : "45克",
          "title" : "低筋粉"
        },
        {
          "note" : "2个",
          "title" : "鸡蛋",
          "tu" : "https:\/\/m.douguo.com\/ingredients\/鸡蛋\/detailmaterial"
        },
        {
          "note" : "30克",
          "tu" : "https:\/\/m.douguo.com\/ingredients\/白砂糖\/detailmaterial",
          "title" : "白砂糖"
        },
        {
          "title" : "酸奶",
          "note" : "70克"
        },
        {
          "title" : "油",
          "note" : "少许",
          "tu" : "https:\/\/m.douguo.com\/ingredients\/油\/detailmaterial"
        }
      ],
      "comments" : [
        "{\n    ac = \"#999999\";\n    at = \"\\U91cd\\U5e86\\U5e02\";\n    ccc = 4;\n    \"child_comments\" =     (\n                {\n            ac = \"#999999\";\n            at = \"\\U5317\\U4eac\\U5e02\";\n            ccc = 0;\n            city = \"\\U5317\\U4eac\\U5e02\";\n            cmc = 2;\n            content =             (\n                                {\n                    c = \" \\U505a\\U4e00\\U4e2a\\Uff0c\\U8d85\\U7ea7\\U7b80\\U5355\";\n                }\n            );\n            ia = 1;\n            id = 8561416;\n            \"ip_address_location\" = \"\";\n            like = 0;\n            \"like_count\" = 0;\n            \"reply_id\" = 8561412;\n            \"reply_user\" =             {\n                \"followers_count_text\" = \"\";\n                id = 12022573;\n                \"is_prime\" = 0;\n                lv = 0;\n                lvl = 7;\n                n = \"\\U6587\\U9f99\\U5988\";\n                p = \"http:\/\/tx1.douguo.net\/upload\/photo\/3\/a\/b\/70_u4725476182534162409.jpeg\";\n                \"progress_image\" = \"\";\n                \"recipes_count_text\" = \"\";\n                relationship = \"-1\";\n                title = \"\";\n                v = 1;\n                \"verified_image\" = \"\";\n            };\n            \"sticker_icon\" =             (\n            );\n            time = \"2021-03-06 12:30:07\";\n            u =             {\n                \"followers_count_text\" = \"\";\n                id = 11750476;\n                \"is_prime\" = 0;\n                lv = 0;\n                lvl = 6;\n                n = \"\\U5b89\\U5b89\\U9759\\U9759\\U5f85\\U82b1\\U5f00\";\n                p = \"http:\/\/tx1.douguo.net\/upload\/photo\/b\/7\/7\/70_u45064002267066113617.jpeg\";\n                \"progress_image\" = \"\";\n                \"recipes_count_text\" = \"\";\n                relationship = \"-1\";\n                title = \"\";\n                v = 1;\n                \"verified_image\" = \"\";\n            };\n        },\n                {\n            ac = \"#999999\";\n            at = \"\";\n            ccc = 0;\n            city = \"\";\n            cmc = 2;\n            content =             (\n                                {\n                    c = \" n\";\n                }\n            );\n            ia = 0;\n            id = 8562289;\n            \"ip_address_location\" = \"\";\n            like = 0;\n            \"like_count\" = 0;\n            \"reply_id\" = 8561412;\n            \"reply_user\" =             {\n                \"followers_count_text\" = \"\";\n                id = 12022573;\n                \"is_prime\" = 0;\n                lv = 0;\n                lvl = 7;\n                n = \"\\U6587\\U9f99\\U5988\";\n                p = \"http:\/\/tx1.douguo.net\/upload\/photo\/3\/a\/b\/70_u4725476182534162409.jpeg\";\n                \"progress_image\" = \"\";\n                \"recipes_count_text\" = \"\";\n                relationship = \"-1\";\n                title = \"\";\n                v = 1;\n                \"verified_image\" = \"\";\n            };\n            \"sticker_icon\" =             (\n            );\n            time = \"2021-03-07 00:46:42\";\n            u =             {\n                \"followers_count_text\" = \"\";\n                id = 19693511;\n                \"is_prime\" = 0;\n                lv = 0;\n                lvl = 1;\n                n = \"\\U90d1\\U5927\\U5c11\\U4e4b\\U59bb\";\n                p = \"\";\n                \"progress_image\" = \"\";\n                \"recipes_count_text\" = \"\";\n                relationship = \"-1\";\n                title = \"\";\n                v = 0;\n                \"verified_image\" = \"\";\n            };\n        }\n    );\n    city = \"\\U91cd\\U5e86\\U5e02\";\n    cmc = 2;\n    content =     (\n                {\n            c = \"\\U597d\\U60f3\\U5403\";\n        }\n    );\n    ia = 0;\n    id = 8561412;\n    \"ip_address_location\" = \"\";\n    like = 0;\n    \"like_count\" = 2;\n    \"reply_id\" = 0;\n    \"sticker_icon\" =     (\n    );\n    time = \"2021-03-06 12:26:57\";\n    u =     {\n        \"followers_count_text\" = \"\";\n        id = 12022573;\n        \"is_prime\" = 0;\n        lv = 0;\n        lvl = 7;\n        n = \"\\U6587\\U9f99\\U5988\";\n        p = \"http:\/\/tx1.douguo.net\/upload\/photo\/3\/a\/b\/70_u4725476182534162409.jpeg\";\n        \"progress_image\" = \"\";\n        \"recipes_count_text\" = \"\";\n        relationship = \"-1\";\n        title = \"\";\n        v = 1;\n        \"verified_image\" = \"\";\n    };\n}",
        "{\n    ac = \"#999999\";\n    at = \"\\U4e0a\\U6d77\\U5e02\";\n    ccc = 2;\n    \"child_comments\" =     (\n                {\n            ac = \"#999999\";\n            at = \"\\U5317\\U4eac\\U5e02\";\n            ccc = 0;\n            city = \"\\U5317\\U4eac\\U5e02\";\n            cmc = 2;\n            content =             (\n                                {\n                    c = \" \\U7406\\U8bba\\U4e0a\\U53ef\\U4ee5\\U5427\\Uff0c\\U6211\\U6ca1\\U8bd5\\U8fc7\\Uff0c\\U7528\\U91cf\\U80af\\U5b9a\\U4e0d\\U4e00\\U6837\";\n                }\n            );\n            ia = 1;\n            id = 8563018;\n            \"ip_address_location\" = \"\";\n            like = 0;\n            \"like_count\" = 0;\n            \"reply_id\" = 8563004;\n            \"reply_user\" =             {\n                \"followers_count_text\" = \"\";\n                id = 26285659;\n                \"is_prime\" = 0;\n                lv = 0;\n                lvl = 1;\n                n = \"\\U5bc6\\U5bc6\\U9ebb\\U9ebb\\U7684\\U5143\\U8611\\U5f88\\U611a\\U8822\";\n                p = \"http:\/\/tx1.douguo.net\/upload\/photo\/1\/1\/1\/70_7171e40c70b2052bbf0a72a187633c6a.png\";\n                \"progress_image\" = \"\";\n                \"recipes_count_text\" = \"\";\n                relationship = \"-1\";\n                title = \"\";\n                v = 0;\n                \"verified_image\" = \"\";\n            };\n            \"sticker_icon\" =             (\n            );\n            time = \"2021-03-07 18:20:22\";\n            u =             {\n                \"followers_count_text\" = \"\";\n                id = 11750476;\n                \"is_prime\" = 0;\n                lv = 0;\n                lvl = 6;\n                n = \"\\U5b89\\U5b89\\U9759\\U9759\\U5f85\\U82b1\\U5f00\";\n                p = \"http:\/\/tx1.douguo.net\/upload\/photo\/b\/7\/7\/70_u45064002267066113617.jpeg\";\n                \"progress_image\" = \"\";\n                \"recipes_count_text\" = \"\";\n                relationship = \"-1\";\n                title = \"\";\n                v = 1;\n                \"verified_image\" = \"\";\n            };\n        },\n                {\n            ac = \"#999999\";\n            at = \"\\U53f0\\U5dde\\U5e02\";\n            ccc = 0;\n            city = \"\\U53f0\\U5dde\\U5e02\";\n            cmc = 2;\n            content =             (\n                                {\n                    c = \" \\U5f53\\U7136\\U53ef\\U4ee5\\Uff5e\\U4e00\\U822c\\U90fd\\U662f\\U7528\\U7684\\U9c9c\\U725b\\U5976\\Ud83d\\Udc4f\";\n                }\n            );\n            ia = 0;\n            id = 8732154;\n            \"ip_address_location\" = \"\";\n            like = 0;\n            \"like_count\" = 0;\n            \"reply_id\" = 8563004;\n            \"reply_user\" =             {\n                \"followers_count_text\" = \"\";\n                id = 26285659;\n                \"is_prime\" = 0;\n                lv = 0;\n                lvl = 1;\n                n = \"\\U5bc6\\U5bc6\\U9ebb\\U9ebb\\U7684\\U5143\\U8611\\U5f88\\U611a\\U8822\";\n                p = \"http:\/\/tx1.douguo.net\/upload\/photo\/1\/1\/1\/70_7171e40c70b2052bbf0a72a187633c6a.png\";\n                \"progress_image\" = \"\";\n                \"recipes_count_text\" = \"\";\n                relationship = \"-1\";\n                title = \"\";\n                v = 0;\n                \"verified_image\" = \"\";\n            };\n            \"sticker_icon\" =             (\n            );\n            time = \"2021-07-10 23:30:50\";\n            u =             {\n                \"followers_count_text\" = \"\";\n                id = 20088773;\n                \"is_prime\" = 0;\n                lv = 0;\n                lvl = 6;\n                n = \"heooj\\U6df1\\U84dd\";\n                p = \"http:\/\/tx1.douguo.net\/upload\/photo\/f\/2\/b\/70_f29f4bd20fa7ce233204cd5b7e9e54ab.jpg\";\n                \"progress_image\" = \"\";\n                \"recipes_count_text\" = \"\";\n                relationship = \"-1\";\n                title = \"\";\n                v = 0;\n                \"verified_image\" = \"\";\n            };\n        }\n    );\n    city = \"\\U4e0a\\U6d77\\U5e02\";\n    cmc = 2;\n    content =     (\n                {\n            c = \"\\U9178\\U5976\\U53ef\\U4ee5\\U7528\\U7eaf\\U725b\\U5976\\U4ee3\\U66ff\\U561b\";\n        }\n    );\n    ia = 0;\n    id = 8563004;\n    \"ip_address_location\" = \"\";\n    like = 0;\n    \"like_count\" = 1;\n    \"reply_id\" = 0;\n    \"sticker_icon\" =     (\n    );\n    time = \"2021-03-07 18:07:05\";\n    u =     {\n        \"followers_count_text\" = \"\";\n        id = 26285659;\n        \"is_prime\" = 0;\n        lv = 0;\n        lvl = 1;\n        n = \"\\U5bc6\\U5bc6\\U9ebb\\U9ebb\\U7684\\U5143\\U8611\\U5f88\\U611a\\U8822\";\n        p = \"http:\/\/tx1.douguo.net\/upload\/photo\/1\/1\/1\/70_7171e40c70b2052bbf0a72a187633c6a.png\";\n        \"progress_image\" = \"\";\n        \"recipes_count_text\" = \"\";\n        relationship = \"-1\";\n        title = \"\";\n        v = 0;\n        \"verified_image\" = \"\";\n    };\n}",
        "{\n    ac = \"#999999\";\n    at = \"\\U6d77\\U53e3\\U5e02\";\n    ccc = 1;\n    \"child_comments\" =     (\n                {\n            ac = \"#999999\";\n            at = \"\\U5317\\U4eac\\U5e02\";\n            ccc = 0;\n            city = \"\\U5317\\U4eac\\U5e02\";\n            cmc = 2;\n            content =             (\n                                {\n                    c = \" \\U8bd5\\U8bd5\\U5427\";\n                }\n            );\n            ia = 1;\n            id = 8563033;\n            \"ip_address_location\" = \"\";\n            like = 0;\n            \"like_count\" = 0;\n            \"reply_id\" = 8563028;\n            \"reply_user\" =             {\n                \"followers_count_text\" = \"\";\n                id = 26313689;\n                \"is_prime\" = 0;\n                lv = 0;\n                lvl = 1;\n                n = \"\\U9738\\U9053\\U603b\\U88c1\\U7684\\U5e72\\U9c7f\\U9c7c\";\n                p = \"http:\/\/tx1.douguo.net\/upload\/photo\/1\/1\/1\/70_51d4312c7c667f998a2fd7f0f1624f7d.png\";\n                \"progress_image\" = \"\";\n                \"recipes_count_text\" = \"\";\n                relationship = \"-1\";\n                title = \"\";\n                v = 0;\n                \"verified_image\" = \"\";\n            };\n            \"sticker_icon\" =             (\n            );\n            time = \"2021-03-07 18:39:00\";\n            u =             {\n                \"followers_count_text\" = \"\";\n                id = 11750476;\n                \"is_prime\" = 0;\n                lv = 0;\n                lvl = 6;\n                n = \"\\U5b89\\U5b89\\U9759\\U9759\\U5f85\\U82b1\\U5f00\";\n                p = \"http:\/\/tx1.douguo.net\/upload\/photo\/b\/7\/7\/70_u45064002267066113617.jpeg\";\n                \"progress_image\" = \"\";\n                \"recipes_count_text\" = \"\";\n                relationship = \"-1\";\n                title = \"\";\n                v = 1;\n                \"verified_image\" = \"\";\n            };\n        }\n    );\n    city = \"\\U6d77\\U53e3\\U5e02\";\n    cmc = 2;\n    content =     (\n                {\n            c = \"\\U53ef\\U4ee5\\U7528\\U70e4\\U7bb1\\U5417\";\n        }\n    );\n    ia = 0;\n    id = 8563028;\n    \"ip_address_location\" = \"\";\n    like = 0;\n    \"like_count\" = 1;\n    \"reply_id\" = 0;\n    \"sticker_icon\" =     (\n    );\n    time = \"2021-03-07 18:36:26\";\n    u =     {\n        \"followers_count_text\" = \"\";\n        id = 26313689;\n        \"is_prime\" = 0;\n        lv = 0;\n        lvl = 1;\n        n = \"\\U9738\\U9053\\U603b\\U88c1\\U7684\\U5e72\\U9c7f\\U9c7c\";\n        p = \"http:\/\/tx1.douguo.net\/upload\/photo\/1\/1\/1\/70_51d4312c7c667f998a2fd7f0f1624f7d.png\";\n        \"progress_image\" = \"\";\n        \"recipes_count_text\" = \"\";\n        relationship = \"-1\";\n        title = \"\";\n        v = 0;\n        \"verified_image\" = \"\";\n    };\n}"
      ],
      "ssu" : "",
      "act_des" : "",
      "ipoi" : "",
      "recommended" : 0,
      "old_comments" : [

      ],
      "levelid" : 2,
      "rrpt" : "",
      "title" : "美味早餐厚松饼",
      "create_time" : "2021-03-05 10:09:33",
      "ecs" : 0,
      "first_level_comment_count" : 25,
      "rcs" : [

      ],
      "mid_mdsp" : [

      ],
      "cookwares" : [

      ],
      "vc" : "1592984",
      "recipe_list_tags" : [
        {
          "background_end_color" : "#F4F5F5",
          "background_border_color" : "",
          "background_start_color" : "#F4F5F5",
          "right_image" : "",
          "jump_url" : "",
          "text_color" : "#141515",
          "text" : "关注的人"
        }
      ],
      "ipia" : [

      ],
      "title_ad" : [

      ],
      "minor" : [

      ],
      "related_ads" : [

      ],
      "comments_count" : 37,
      "packages_id" : [

      ],
      "tips" : "",
      "rpid" : 0,
      "rpt" : "",
      "thumb_height" : 0,
      "story_dsp" : [

      ],
      "bs" : [

      ],
      "dish_count_text" : "7",
      "rdsps" : [

      ],
      "sc" : 0,
      "purl" : "",
      "user" : {
        "avatar_medium" : "http:\/\/tx1.douguo.net\/upload\/photo\/b\/7\/7\/140_u45064002267066113617.jpeg",
        "introduction" : "",
        "pc" : 0,
        "subscription" : 0,
        "userid" : "11750476",
        "verified" : 1,
        "sign" : "",
        "user_photo" : "http:\/\/tx1.douguo.net\/upload\/photo\/b\/7\/7\/70_u45064002267066113617.jpeg",
        "coursecount" : 0,
        "subscription_article_count" : 0,
        "location" : 0,
        "qzone_nick" : "",
        "recipes_count" : 0,
        "favor_diaries_count" : 0,
        "progress_image" : "",
        "gender" : 2,
        "qq_weibo_nick" : "",
        "weibo_nick" : "",
        "nick" : "安安静静待花开",
        "user_id" : "11750476",
        "mobile" : "",
        "user_cover" : "",
        "birthday" : "",
        "lvl" : 6,
        "following_count" : 0,
        "verified_image" : "https:\/\/i1.douguo.com\/upload\/note\/d\/a\/a\/da84247847aebe48d9dd0fcdac88862a.png",
        "is_prime" : 0,
        "diaries_count" : 0,
        "verified_url" : "https:\/\/m.douguo.com\/user\/prodesc",
        "age" : "",
        "user_large_photo" : "http:\/\/tx1.douguo.net\/upload\/photo\/b\/7\/7\/yuan_u45064002267066113617.jpeg",
        "fc" : 0,
        "lv" : 0,
        "dishes_count" : 0,
        "regist_time" : "",
        "point" : 0,
        "favorites_count" : 0,
        "followers_count" : 0,
        "setted_email" : 0,
        "email" : ""
      },
      "vfurl" : "",
      "recommend_label" : "7人学做",
      "guide_image" : "",
      "cook_difficulty" : "",
      "pw" : 1920,
      "rsm" : "该功能暂停使用",
      "release_time" : "",
      "rate_show" : 0,
      "ipci" : "",
      "rrps" : [

      ],
      "cookstep" : [
        {
          "thumb" : "https:\/\/i1.douguo.com\/upload\/caiku\/d\/8\/1\/140_d80db8effc4050392dbc52f84f009b71.jpeg",
          "image" : "https:\/\/i1.douguo.com\/upload\/caiku\/d\/8\/1\/d80db8effc4050392dbc52f84f009b71.jpeg",
          "image_width" : 1280,
          "position" : 1,
          "image_height" : 900,
          "frame" : "-1",
          "content" : "准备需要的材料，低粉过筛，酸奶要浓稠的，我用了家里现成的一盒老酸奶。"
        },
        {
          "thumb" : "https:\/\/i1.douguo.com\/upload\/caiku\/8\/5\/0\/140_856b920d66eaf176d51ab4dccf49bc00.jpeg",
          "image" : "https:\/\/i1.douguo.com\/upload\/caiku\/8\/5\/0\/856b920d66eaf176d51ab4dccf49bc00.jpeg",
          "content" : "蛋黄蛋白分离",
          "image_height" : 1020,
          "position" : 2,
          "image_width" : 1280,
          "frame" : "-1"
        },
        {
          "frame" : "-1",
          "thumb" : "https:\/\/i1.douguo.com\/upload\/caiku\/b\/8\/c\/140_b88e940cabad423a15da81acd59dafbc.jpeg",
          "image" : "https:\/\/i1.douguo.com\/upload\/caiku\/b\/8\/c\/b88e940cabad423a15da81acd59dafbc.jpeg",
          "image_width" : 1280,
          "content" : "蛋黄加入酸奶搅拌均匀",
          "position" : 3,
          "image_height" : 944
        },
        {
          "image_height" : 1017,
          "image_width" : 1280,
          "content" : "加入低粉，划Z字形搅拌均匀",
          "frame" : "-1",
          "position" : 4,
          "image" : "https:\/\/i1.douguo.com\/upload\/caiku\/6\/e\/d\/6ee6ae6b9ad8f23dd1f2466af9342b3d.jpeg",
          "thumb" : "https:\/\/i1.douguo.com\/upload\/caiku\/6\/e\/d\/140_6ee6ae6b9ad8f23dd1f2466af9342b3d.jpeg"
        },
        {
          "frame" : "-1",
          "content" : "拌好的蛋黄糊",
          "position" : 5,
          "thumb" : "https:\/\/i1.douguo.com\/upload\/caiku\/4\/5\/9\/140_453cf16f1f9a0c1b3944b048ed0a9599.jpeg",
          "image" : "https:\/\/i1.douguo.com\/upload\/caiku\/4\/5\/9\/453cf16f1f9a0c1b3944b048ed0a9599.jpeg",
          "image_width" : 1280,
          "image_height" : 960
        },
        {
          "image_height" : 912,
          "thumb" : "https:\/\/i1.douguo.com\/upload\/caiku\/8\/7\/e\/140_87fe44a678274e92812fc2718bba2cee.jpeg",
          "frame" : "-1",
          "image" : "https:\/\/i1.douguo.com\/upload\/caiku\/8\/7\/e\/87fe44a678274e92812fc2718bba2cee.jpeg",
          "image_width" : 1280,
          "position" : 6,
          "content" : "开始打发蛋白，在打发过程中，分次加入白糖。"
        },
        {
          "image_width" : 1280,
          "thumb" : "https:\/\/i1.douguo.com\/upload\/caiku\/9\/d\/c\/140_9d09c8b823f9630e40004fc22d893e2c.jpeg",
          "position" : 7,
          "image_height" : 1706,
          "image" : "https:\/\/i1.douguo.com\/upload\/caiku\/9\/d\/c\/9d09c8b823f9630e40004fc22d893e2c.jpeg",
          "content" : "蛋白打发中",
          "frame" : "-1"
        },
        {
          "position" : 8,
          "thumb" : "https:\/\/i1.douguo.com\/upload\/caiku\/e\/8\/e\/140_e82a07478ac56f7559dabc16ba83f69e.jpeg",
          "image_height" : 1509,
          "frame" : "-1",
          "image_width" : 1280,
          "content" : "不费力就打好的蛋白",
          "image" : "https:\/\/i1.douguo.com\/upload\/caiku\/e\/8\/e\/e82a07478ac56f7559dabc16ba83f69e.jpeg"
        },
        {
          "content" : "打好的蛋白和蛋黄糊搅拌均匀",
          "image" : "https:\/\/i1.douguo.com\/upload\/caiku\/b\/d\/4\/bdc223d6ec133fe04ef482a57f739124.jpeg",
          "position" : 9,
          "frame" : "-1",
          "image_width" : 1280,
          "thumb" : "https:\/\/i1.douguo.com\/upload\/caiku\/b\/d\/4\/140_bdc223d6ec133fe04ef482a57f739124.jpeg",
          "image_height" : 1002
        },
        {
          "frame" : "-1",
          "image" : "https:\/\/i1.douguo.com\/upload\/caiku\/b\/d\/4\/bd5cbc59912431cb9776aae3a900a724.jpeg",
          "thumb" : "https:\/\/i1.douguo.com\/upload\/caiku\/b\/d\/4\/140_bd5cbc59912431cb9776aae3a900a724.jpeg",
          "image_width" : 1280,
          "image_height" : 852,
          "content" : "搅拌好的面糊放入裱花袋",
          "position" : 10
        },
        {
          "image" : "https:\/\/i1.douguo.com\/upload\/caiku\/9\/5\/3\/957ee07821160607e228b2649482fcf3.jpeg",
          "image_width" : 1280,
          "frame" : "-1",
          "position" : 11,
          "image_height" : 1528,
          "thumb" : "https:\/\/i1.douguo.com\/upload\/caiku\/9\/5\/3\/140_957ee07821160607e228b2649482fcf3.jpeg",
          "content" : "锅内刷一层薄油，将面糊挤入锅里，尽量挤厚点，挤成圆形。始终小火，锅壁用喷壶喷点水，盖盖焖3分钟。小心地翻个面，继续焖三分钟。期间记得喷点水。面糊不粘腻了就是熟了，可以盛出了。"
        },
        {
          "frame" : "-1",
          "content" : "装盘，配点干果，撒点糖粉，可以开动喽……",
          "image" : "https:\/\/i1.douguo.com\/upload\/caiku\/9\/2\/d\/925094075ea3c11bafe56ed0ef46528d.jpeg",
          "thumb" : "https:\/\/i1.douguo.com\/upload\/caiku\/9\/2\/d\/140_925094075ea3c11bafe56ed0ef46528d.jpeg",
          "image_width" : 1280,
          "position" : 12,
          "image_height" : 960
        },
        {
          "image_height" : 1020,
          "position" : 13,
          "content" : "非常美味快手的一份早餐，只需要一个打蛋器和一个平底锅哦",
          "image" : "https:\/\/i1.douguo.com\/upload\/caiku\/9\/4\/5\/9457b6944c5fa162a69cc866014bf545.jpeg",
          "thumb" : "https:\/\/i1.douguo.com\/upload\/caiku\/9\/4\/5\/140_9457b6944c5fa162a69cc866014bf545.jpeg",
          "image_width" : 1280,
          "frame" : "-1"
        }
      ],
      "favo_counts" : 19442,
      "ipit" : 0,
      "advice" : {
        "has" : [
          {
            "url" : "recipes:\/\/www.douguo.com\/simplerecipelist?t=低盐&id=低盐",
            "t" : "低盐"
          }
        ],
        "at" : "钠能调节机体水分，维持酸碱平衡～",
        "da" : {
          "url" : "https:\/\/m.douguo.com\/recipe\/nutrient_self\/3068921",
          "iu" : "https:\/\/i1.douguo.com\/upload\/banner\/f\/4\/d\/f48877e53c37759bc12ac494be82ec8d.png",
          "t" : "查看详细分析"
        }
      },
      "cookstory" : "这个松饼用料简单，操作快捷方便，搭配一杯牛奶或者咖啡，是早餐的不二之选。制作工具也很简单，只需要一个打蛋器和一只平底锅。",
      "brand_day_dsp" : [

      ],
      "author_verified" : 1,
      "original_photo_path" : "http:\/\/i1.douguo.net\/upload\/caiku\/e\/8\/b\/yuan_e88975f807338b9f710233870c04e83b.jpeg",
      "hqu" : "recipes:\/\/www.douguo.com\/notedetail?id=21162253",
      "su" : "",
      "recommendation_tag" : "",
      "clicks" : "1227663",
      "rewarded_video_dsp" : [

      ],
      "ph" : 1460,
      "display_ingredient" : 1,
      "top_mdsp" : [

      ],
      "collect_status" : 0,
      "cookstorys" : [
        {
          "u" : "",
          "type" : 0,
          "color" : "",
          "c" : "这个松饼用料简单，操作快捷方便，搭配一杯牛奶或者咖啡，是早餐的不二之选。制作工具也很简单，只需要一个打蛋器和一只平底锅。",
          "icon" : "",
          "id" : 0
        }
      ],
      "rpst" : "",
      "dish_count" : 7,
      "notes" : [

      ],
      "author" : "安安静静待花开",
      "photo_path" : "https:\/\/i1.douguo.com\/upload\/caiku\/e\/8\/b\/600_e88975f807338b9f710233870c04e83b.jpeg",
      "sr" : ""
    }
  },
  "state" : "success"
}