{
  "status" : 0,
  "state" : "success",
  "result" : {
    "recipe" : {
      "dish_count" : 0,
      "related_ads" : [

      ],
      "cook_difficulty" : "切墩(初级)",
      "title_ad" : [

      ],
      "ipt" : "",
      "recommendation_tag" : "",
      "rate_show" : 0,
      "first_level_comment_count" : 2,
      "cookstep" : [
        {
          "image" : "https:\/\/i1.douguo.com\/upload\/caiku\/9\/8\/e\/986dd29d818654dca4f306472dc6e2ae.jpg",
          "frame" : "-1",
          "thumb" : "https:\/\/i1.douguo.com\/upload\/caiku\/9\/8\/e\/140_986dd29d818654dca4f306472dc6e2ae.jpg",
          "image_width" : 3264,
          "content" : "准备一个泡菜坛、大碗，并将泡菜坛洗净晾干。（最好是陶瓷的）\n",
          "position" : 1,
          "image_height" : 2448
        },
        {
          "content" : "将花椒、八角、大蒜、桂皮、生姜、红辣椒、盐、红糖放入大碗中\n",
          "image_height" : 2448,
          "thumb" : "https:\/\/i1.douguo.com\/upload\/caiku\/5\/a\/c\/140_5ae5bd893eda808f084c608097135d5c.jpg",
          "image_width" : 3264,
          "image" : "https:\/\/i1.douguo.com\/upload\/caiku\/5\/a\/c\/5ae5bd893eda808f084c608097135d5c.jpg",
          "position" : 2,
          "frame" : "-1"
        },
        {
          "image" : "https:\/\/i1.douguo.com\/upload\/caiku\/b\/5\/9\/b575035f6f4e38e3f69653649313d619.jpg",
          "content" : "取适量的水烧开（最好是山泉水），倒入大碗中，等待开水自然冷却\n",
          "thumb" : "https:\/\/i1.douguo.com\/upload\/caiku\/b\/5\/9\/140_b575035f6f4e38e3f69653649313d619.jpg",
          "position" : 3,
          "frame" : "-1",
          "image_height" : 2448,
          "image_width" : 3264
        },
        {
          "image" : "https:\/\/i1.douguo.com\/upload\/caiku\/c\/b\/e\/cb1f5bb9884841b8ed30d1eb221d403e.jpg",
          "image_width" : 3264,
          "thumb" : "https:\/\/i1.douguo.com\/upload\/caiku\/c\/b\/e\/140_cb1f5bb9884841b8ed30d1eb221d403e.jpg",
          "content" : "将红萝卜、青笋、青辣椒洗净，切块，还可以适当地做些造型\n",
          "image_height" : 2448,
          "frame" : "-1",
          "position" : 4
        },
        {
          "frame" : "-1",
          "content" : "将洗净的泡菜坛跟切好的菜品晾干至表面没有水珠\n",
          "thumb" : "https:\/\/i1.douguo.com\/upload\/caiku\/9\/c\/b\/140_9cad3f04f816863824307c87eb50c4fb.jpg",
          "image_height" : 2448,
          "image" : "https:\/\/i1.douguo.com\/upload\/caiku\/9\/c\/b\/9cad3f04f816863824307c87eb50c4fb.jpg",
          "position" : 5,
          "image_width" : 3264
        },
        {
          "image_width" : 3264,
          "thumb" : "https:\/\/i1.douguo.com\/upload\/caiku\/1\/8\/0\/140_1840085272bb751d8579a36688a29560.jpg",
          "content" : "将晾干的蔬菜依次放入泡菜坛中\n",
          "image_height" : 2448,
          "position" : 6,
          "image" : "https:\/\/i1.douguo.com\/upload\/caiku\/1\/8\/0\/1840085272bb751d8579a36688a29560.jpg",
          "frame" : "-1"
        },
        {
          "position" : 7,
          "image" : "https:\/\/i1.douguo.com\/upload\/caiku\/f\/f\/1\/ff4f308f38eec3c861b112c1de7149d1.jpg",
          "image_height" : 3278,
          "content" : "将大碗中的调料水掺入泡菜坛中，将蔬菜完全淹没\n",
          "frame" : "-1",
          "thumb" : "https:\/\/i1.douguo.com\/upload\/caiku\/f\/f\/1\/140_ff4f308f38eec3c861b112c1de7149d1.jpg",
          "image_width" : 3278
        },
        {
          "position" : 8,
          "content" : "盖上坛盖，掺满坛沿水，密封发酵，等待成熟，即可食用\n（初次成熟时间：春秋季节大约5-6天、夏天3-4天、冬天8-10天）",
          "frame" : "-1",
          "image_width" : 3278,
          "image" : "https:\/\/i1.douguo.com\/upload\/caiku\/2\/c\/0\/2ce4944b930b00d7a389b7e965bb1bd0.jpg",
          "image_height" : 3278,
          "thumb" : "https:\/\/i1.douguo.com\/upload\/caiku\/2\/c\/0\/140_2ce4944b930b00d7a389b7e965bb1bd0.jpg"
        }
      ],
      "comments_count" : 2,
      "ssu" : "",
      "rdsps" : [

      ],
      "cookstorys" : [
        {
          "id" : 0,
          "type" : 0,
          "c" : "泡菜，是云贵川一带，特别是四川，家家户户必备的居家美食，可以直接下饭吃，也可以当成佐料烧制酸菜鱼、泡椒猪肝等家常菜。直接下饭吃的，一般是新鲜的“洗澡泡菜”。因为头天泡制，第二天就可以吃，时间很短，就像是把蔬菜放进泡菜母水中洗了个澡一样快，因而得此名。也因泡制时间短，从而泡菜变得更爽脆可口！\n\n四川泡菜脆嫩鲜香，酸爽可口，在全国各地大受欢迎。它的做法其实并不复杂。\n",
          "color" : "",
          "u" : "",
          "icon" : ""
        }
      ],
      "comments_count_text" : "2",
      "vc" : "16579",
      "recipe_tags" : [

      ],
      "vu" : "",
      "su" : "",
      "levelid" : 2,
      "views_count_text" : "1.7万",
      "recipe_list_tags" : [
        {
          "background_border_color" : "",
          "jump_url" : "",
          "background_start_color" : "#F4F5F5",
          "right_image" : "",
          "background_end_color" : "#F4F5F5",
          "text" : "内容详细",
          "text_color" : "#141515"
        }
      ],
      "recommended" : 0,
      "release_time" : "",
      "v_u" : "",
      "rpst" : "",
      "rpt" : "",
      "ipci" : "",
      "rrpt" : "",
      "act_des" : "",
      "sc" : 0,
      "rewarded_video_dsp" : [

      ],
      "author_verified" : 0,
      "top_mdsp" : [

      ],
      "tips" : "·初次成熟时间：春秋季节大约5-6天、夏天3-4天、冬天8-10天\n·母水成熟后再次加菜的成熟时间可缩短至2-3天\n·泡菜坛的坛沿水不可干涸，要随时留意加水\n·泡菜坛不可沾油，否则会起白\n·如若遇见起白的情况可适当滴入几滴白酒解除\n·因为是新鲜的洗澡泡菜，泡制时间不可过长，否则会影响口感",
      "ipia" : [

      ],
      "display_ingredient" : 1,
      "sr" : "",
      "major" : [
        {
          "tu" : "https:\/\/m.douguo.com\/ingredients\/红萝卜\/detailmaterial",
          "note" : "2个",
          "title" : "红萝卜"
        },
        {
          "title" : "青笋",
          "note" : "1根"
        },
        {
          "title" : "青辣椒",
          "note" : "3根"
        }
      ],
      "bs" : [

      ],
      "guide_image" : "",
      "tags" : [

      ],
      "rate_count" : 0,
      "eu" : "recipes:\/\/www.douguo.com\/postdetail?id=242016",
      "recommend_label" : "1.7万人看过",
      "purl" : "",
      "old_comments" : [

      ],
      "notes" : [

      ],
      "clicks" : "14854",
      "title" : "新鲜四川泡菜-朕在泡",
      "author_id" : 18976604,
      "rcs" : [

      ],
      "hqu" : "recipes:\/\/www.douguo.com\/notedetail?id=21162253",
      "recent_comments" : [

      ],
      "ss" : [

      ],
      "dish_count_text" : "",
      "advice" : {
        "has" : [
          {
            "t" : "低热量",
            "url" : "recipes:\/\/www.douguo.com\/simplerecipelist?t=低热量&id=低热量"
          },
          {
            "url" : "recipes:\/\/www.douguo.com\/simplerecipelist?t=低糖&id=低糖",
            "t" : "低糖"
          }
        ],
        "da" : {
          "url" : "https:\/\/m.douguo.com\/recipe\/nutrient_self\/1470475",
          "t" : "查看详细分析",
          "iu" : "https:\/\/i1.douguo.com\/upload\/banner\/f\/4\/d\/f48877e53c37759bc12ac494be82ec8d.png"
        },
        "at" : "能有效控制体重～"
      },
      "rips" : 0,
      "rrps" : [

      ],
      "photo_path" : "https:\/\/i1.douguo.com\/upload\/caiku\/d\/1\/0\/600_d1fdd56652da054a613365b37923f6a0.jpg",
      "cook_time_image" : "https:\/\/i1.douguo.com\/upload\/banner\/1551423815.png",
      "ecs" : 1,
      "create_time" : "2016-11-04 11:07:41",
      "packages_id" : [

      ],
      "author" : "Rall Bai",
      "pw" : 600,
      "ph" : 400,
      "user" : {
        "avatar_medium" : "",
        "verified_image" : "",
        "sign" : "",
        "setted_email" : 0,
        "regist_time" : "",
        "fc" : 0,
        "introduction" : "",
        "location" : 0,
        "pc" : 0,
        "point" : 0,
        "is_prime" : 0,
        "dishes_count" : 0,
        "progress_image" : "",
        "gender" : 1,
        "qq_weibo_nick" : "",
        "mobile" : "",
        "lvl" : 1,
        "user_large_photo" : "",
        "birthday" : "",
        "verified" : 0,
        "user_cover" : "",
        "user_id" : "18976604",
        "nick" : "Rall Bai",
        "favorites_count" : 0,
        "lv" : 0,
        "subscription_article_count" : 0,
        "followers_count" : 0,
        "age" : "",
        "verified_url" : "https:\/\/m.douguo.com\/user\/prodesc",
        "diaries_count" : 0,
        "email" : "",
        "userid" : "18976604",
        "recipes_count" : 0,
        "favor_diaries_count" : 0,
        "following_count" : 0,
        "coursecount" : 0,
        "qzone_nick" : "",
        "subscription" : 0,
        "weibo_nick" : "",
        "user_photo" : ""
      },
      "ipit" : 0,
      "author_photo" : "",
      "cook_difficulty_image" : "https:\/\/i1.douguo.com\/upload\/banner\/1551424390.png",
      "original_photo_path" : "http:\/\/i1.douguo.net\/upload\/caiku\/d\/1\/0\/yuan_d1fdd56652da054a613365b37923f6a0.jpg",
      "collect_status" : 0,
      "mid_mdsp" : [

      ],
      "rpid" : 0,
      "thumb_path" : "https:\/\/i1.douguo.com\/upload\/caiku\/d\/1\/0\/300_d1fdd56652da054a613365b37923f6a0.jpg",
      "btm_dsp" : [

      ],
      "ipoi" : "",
      "comments" : [
        "{\n    ac = \"#999999\";\n    at = \"\";\n    ccc = 0;\n    \"child_comments\" =     (\n    );\n    city = \"\";\n    cmc = 2;\n    content =     (\n                {\n            c = \"\\U60f3\\U5403\\U60f3\\U5403\";\n        }\n    );\n    ia = 0;\n    id = 5863045;\n    \"ip_address_location\" = \"\";\n    like = 0;\n    \"like_count\" = 0;\n    \"reply_id\" = 0;\n    \"sticker_icon\" =     (\n    );\n    time = \"2018-07-19 17:25:28\";\n    u =     {\n        \"followers_count_text\" = \"\";\n        id = 18520547;\n        \"is_prime\" = 0;\n        lv = 0;\n        lvl = 4;\n        n = \"\\U767d\\U9f99\\U5728\\U8fdb\\U5316\";\n        p = \"http:\/\/tx1.douguo.net\/upload\/photo\/7\/a\/f\/70_u17819318707010408194254.jpg\";\n        \"progress_image\" = \"\";\n        \"recipes_count_text\" = \"\";\n        relationship = \"-1\";\n        title = \"\";\n        v = 0;\n        \"verified_image\" = \"\";\n    };\n}",
        "{\n    ac = \"#999999\";\n    at = \"\";\n    ccc = 0;\n    \"child_comments\" =     (\n    );\n    city = \"\";\n    cmc = 2;\n    content =     (\n                {\n            c = \"\\U770b\\U4e0a\\U53bb\\U5f88\\U4e0d\\U9519\\U5462\\Uff0c\\U559c\\U6b22\\Uff0c\\U611f\\U89c9\\U53ef\\U4ee5\\U4e0a\\U4f20\\U4e00\\U4e2a\\U5934\\U50cf\\U8ba9\\U5927\\U5bb6\\U8ba4\\U8bc6\\U4f60~~\\U00b7 \";\n        }\n    );\n    ia = 0;\n    id = 4234853;\n    \"ip_address_location\" = \"\";\n    like = 0;\n    \"like_count\" = 0;\n    \"reply_id\" = 0;\n    \"sticker_icon\" =     (\n    );\n    time = \"2016-11-04 03:36:38\";\n    u =     {\n        \"followers_count_text\" = \"\";\n        id = 18370617;\n        \"is_prime\" = 0;\n        lv = 0;\n        lvl = 6;\n        n = \"\\U5431\\U5431\\U7ae5\\U978b\";\n        p = \"http:\/\/tx1.douguo.net\/upload\/photo\/e\/7\/7\/70_u71854464242365133639.jpg\";\n        \"progress_image\" = \"\";\n        \"recipes_count_text\" = \"\";\n        relationship = \"-1\";\n        title = \"\";\n        v = 0;\n        \"verified_image\" = \"\";\n    };\n}"
      ],
      "cookwares" : [

      ],
      "share_info" : {
        "s_u" : "http:\/\/m.douguo.com\/cookbook\/1470475.html",
        "qr_image" : "",
        "infos" : [
          {
            "mini_program" : [

            ],
            "image" : "https:\/\/cp1.douguo.com\/upload\/caiku\/d\/1\/0\/d1fdd56652da054a613365b37923f6a0.jpg",
            "qr_image" : "",
            "s_d" : "#学做饭用豆果美食#  我在@豆果美食 分享了【新鲜四川泡菜-朕在泡-会做饭很酷!】，制作美食的过程承载了我生活中的热情，和我一起感受这份小确幸吧！查看图片了解菜谱（你喜欢的美食都在这里！https:\/\/m.weibo.cn\/p\/100404i33631）#会做饭很酷# ",
            "s_u" : "",
            "name" : "新鲜四川泡菜-朕在泡-会做饭很酷!",
            "channel" : "1",
            "object_id" : "1470475"
          },
          {
            "channel" : "7",
            "qr_image" : "",
            "image" : "https:\/\/cp1.douguo.com\/upload\/caiku\/d\/1\/0\/d1fdd56652da054a613365b37923f6a0.jpg",
            "s_u" : "http:\/\/m.douguo.com\/cookbook\/1470475.html",
            "mini_program" : [

            ],
            "s_d" : "新鲜四川泡菜-朕在泡-会做饭很酷!",
            "name" : "新鲜四川泡菜-朕在泡-会做饭很酷!",
            "object_id" : "1470475"
          },
          {
            "name" : "新鲜四川泡菜-朕在泡-会做饭很酷!",
            "s_u" : "http:\/\/m.douguo.com\/cookbook\/1470475.html",
            "mini_program" : [

            ],
            "qr_image" : "",
            "image" : "https:\/\/cp1.douguo.com\/upload\/caiku\/d\/1\/0\/d1fdd56652da054a613365b37923f6a0.jpg",
            "object_id" : "1470475",
            "s_d" : "新鲜四川泡菜-朕在泡-会做饭很酷!",
            "channel" : "8"
          }
        ],
        "image" : "https:\/\/cp1.douguo.com\/upload\/caiku\/d\/1\/0\/d1fdd56652da054a613365b37923f6a0.jpg",
        "mini_program" : [

        ],
        "name" : "新鲜四川泡菜-朕在泡-会做饭很酷!",
        "object_id" : "1470475",
        "s_d" : "新鲜四川泡菜-朕在泡-会做饭很酷!"
      },
      "story_dsp" : [

      ],
      "hq" : 1,
      "vfurl" : "",
      "thumb_height" : 0,
      "brand_day_dsp" : [

      ],
      "cook_id" : "1470475",
      "cookstory" : "泡菜，是云贵川一带，特别是四川，家家户户必备的居家美食，可以直接下饭吃，也可以当成佐料烧制酸菜鱼、泡椒猪肝等家常菜。直接下饭吃的，一般是新鲜的“洗澡泡菜”。因为头天泡制，第二天就可以吃，时间很短，就像是把蔬菜放进泡菜母水中洗了个澡一样快，因而得此名。也因泡制时间短，从而泡菜变得更爽脆可口！\n\n四川泡菜脆嫩鲜香，酸爽可口，在全国各地大受欢迎。它的做法其实并不复杂。\n",
      "rate" : 0,
      "image" : "http:\/\/i1.douguo.net\/upload\/caiku\/d\/1\/0\/300_d1fdd56652da054a613365b37923f6a0.jpg",
      "cook_time" : "1小时以上",
      "dishes" : [

      ],
      "rsm" : "该功能暂停使用",
      "favo_counts_text" : "61",
      "ipurl" : "",
      "minor" : [
        "{\n    note = \"30\\U9897\";\n    title = \"\\U82b1\\U6912\";\n    tu = \"https:\/\/https:\/\/m.douguo.com\/ingredients\/\\U82b1\\U6912\/detailmaterial\";\n}",
        "{\n    note = \"3\\U52fa\";\n    title = \"\\U76d0\";\n    tu = \"https:\/\/https:\/\/m.douguo.com\/ingredients\/\\U76d0\/detailmaterial\";\n}",
        "{\n    note = \"10\\U4e2a\";\n    title = \"\\U7ea2\\U8fa3\\U6912\";\n}",
        "{\n    note = \"5\\U9897\";\n    title = \"\\U5927\\U849c\";\n    tu = \"https:\/\/https:\/\/m.douguo.com\/ingredients\/\\U5927\\U849c\/detailmaterial\";\n}",
        "{\n    note = \"\\U5c11\\U8bb8\";\n    title = \"\\U6842\\U76ae\";\n    tu = \"https:\/\/https:\/\/m.douguo.com\/ingredients\/\\U6842\\U76ae\/detailmaterial\";\n}",
        "{\n    note = \"\\U5c11\\U8bb8\";\n    title = \"\\U516b\\U89d2\";\n    tu = \"https:\/\/https:\/\/m.douguo.com\/ingredients\/\\U516b\\U89d2\/detailmaterial\";\n}"
      ],
      "favo_counts" : 61
    }
  }
}