{
  "status" : 0,
  "state" : "success",
  "result" : {
    "recipe" : {
      "first_level_comment_count" : 0,
      "su" : "",
      "ipoi" : "",
      "rcs" : [

      ],
      "display_ingredient" : 1,
      "cook_difficulty_image" : "https:\/\/i1.douguo.com\/upload\/banner\/1551424390.png",
      "vc" : "23238",
      "ipurl" : "",
      "user" : {
        "userid" : "20364319",
        "is_prime" : 0,
        "sign" : "",
        "subscription" : 0,
        "fc" : 0,
        "lv" : 0,
        "email" : "",
        "pc" : 0,
        "coursecount" : 0,
        "qzone_nick" : "",
        "subscription_article_count" : 0,
        "user_cover" : "",
        "verified_image" : "https:\/\/i1.douguo.com\/upload\/note\/d\/a\/a\/da84247847aebe48d9dd0fcdac88862a.png",
        "dishes_count" : 0,
        "user_large_photo" : "http:\/\/tx1.douguo.net\/upload\/photo\/2\/d\/3\/yuan_2dff929311a81ae38be53da40dc10053.jpeg",
        "introduction" : "",
        "gender" : 2,
        "user_id" : "20364319",
        "setted_email" : 0,
        "verified_url" : "https:\/\/m.douguo.com\/user\/prodesc",
        "location" : 0,
        "user_photo" : "http:\/\/tx1.douguo.net\/upload\/photo\/2\/d\/3\/70_2dff929311a81ae38be53da40dc10053.jpeg",
        "progress_image" : "",
        "birthday" : "",
        "followers_count" : 0,
        "point" : 0,
        "lvl" : 6,
        "favorites_count" : 0,
        "following_count" : 0,
        "regist_time" : "",
        "avatar_medium" : "http:\/\/tx1.douguo.net\/upload\/photo\/2\/d\/3\/140_2dff929311a81ae38be53da40dc10053.jpeg",
        "diaries_count" : 0,
        "nick" : "好有食玉",
        "qq_weibo_nick" : "",
        "favor_diaries_count" : 0,
        "mobile" : "",
        "recipes_count" : 0,
        "age" : "",
        "verified" : 1,
        "weibo_nick" : ""
      },
      "sc" : 0,
      "cook_difficulty" : "切墩(初级)",
      "cookwares" : [

      ],
      "cookstory" : "发糕我从小就很喜欢的一份早点，糕点，甜而不腻，淡淡米香～",
      "image" : "http:\/\/i1.douguo.net\/upload\/caiku\/c\/f\/4\/300_1690224915210.jpg",
      "views_count_text" : "2.3万",
      "rdsps" : [

      ],
      "clicks" : "1",
      "vu" : "https:\/\/vplay.douguo.com\/luMcIHsvpeMpqLMiF_rmlmUjQHkL",
      "act_des" : "",
      "thumb_height" : 0,
      "create_time" : "2023-07-30 12:25:04",
      "comments" : [

      ],
      "vfurl" : "https:\/\/vplay.douguo.com\/luMcIHsvpeMpqLMiF_rmlmUjQHkL__640x616.mp4",
      "mid_mdsp" : [

      ],
      "recent_comments" : [

      ],
      "tags" : [

      ],
      "rewarded_video_dsp" : [

      ],
      "comments_count_text" : "",
      "rrpt" : "",
      "thumb_path" : "https:\/\/i1.douguo.com\/upload\/caiku\/c\/f\/4\/300_1690224915210.jpg",
      "recommend_label" : "2.3万人看过",
      "rrps" : [

      ],
      "tips" : "",
      "ecs" : 1,
      "hq" : 1,
      "ipt" : "",
      "original_photo_path" : "http:\/\/i1.douguo.net\/upload\/caiku\/c\/f\/4\/yuan_1690224915210.jpg",
      "recommended" : 0,
      "photo_path" : "https:\/\/i1.douguo.com\/upload\/caiku\/c\/f\/4\/600_1690224915210.jpg",
      "rsm" : "该功能暂停使用",
      "recipe_tags" : [

      ],
      "collect_status" : 0,
      "comments_count" : 0,
      "rips" : 0,
      "rpt" : "",
      "cookstep" : [
        {
          "image" : "https:\/\/i1.douguo.com\/upload\/caiku\/4\/b\/9\/4b14dedb401b23e212f4edd03adb1289.jpeg",
          "frame" : "5878",
          "thumb" : "https:\/\/i1.douguo.com\/upload\/caiku\/4\/b\/9\/140_4b14dedb401b23e212f4edd03adb1289.jpeg",
          "position" : 1,
          "image_width" : 1126,
          "content" : "泡发两小时的大米",
          "image_height" : 1080
        },
        {
          "image" : "https:\/\/i1.douguo.com\/upload\/caiku\/b\/9\/a\/b98c3a95cf396db38c1a3fc8d82a05aa.jpeg",
          "image_height" : 1080,
          "frame" : "10625",
          "content" : "大米跟水的比例一比一放破壁机打3分钟，破壁机最大档位",
          "position" : 2,
          "image_width" : 1126,
          "thumb" : "https:\/\/i1.douguo.com\/upload\/caiku\/b\/9\/a\/140_b98c3a95cf396db38c1a3fc8d82a05aa.jpeg"
        },
        {
          "content" : "磨具盘刷一层油，米糊加发酵粉放烤箱发酵60分钟",
          "position" : 3,
          "image_height" : 1080,
          "frame" : "26215",
          "thumb" : "https:\/\/i1.douguo.com\/upload\/caiku\/1\/2\/8\/140_1208f42e9707e2f7ba867b98cb160348.jpeg",
          "image" : "https:\/\/i1.douguo.com\/upload\/caiku\/1\/2\/8\/1208f42e9707e2f7ba867b98cb160348.jpeg",
          "image_width" : 1126
        },
        {
          "image_width" : 1126,
          "image" : "https:\/\/i1.douguo.com\/upload\/caiku\/9\/3\/a\/93d71a14d52185aa84c5a1087733190a.jpeg",
          "frame" : "29655",
          "thumb" : "https:\/\/i1.douguo.com\/upload\/caiku\/9\/3\/a\/140_93d71a14d52185aa84c5a1087733190a.jpeg",
          "position" : 4,
          "image_height" : 1080,
          "content" : "酸奶状的米糊发酵60分钟后倒入磨具盘，丢葡萄干在米糊里即可！"
        },
        {
          "content" : "入锅蒸25分钟即可",
          "thumb" : "https:\/\/i1.douguo.com\/upload\/caiku\/b\/c\/d\/140_bc5aa27ea64ab5d1af27baa3785a4f2d.jpeg",
          "image_height" : 1080,
          "image" : "https:\/\/i1.douguo.com\/upload\/caiku\/b\/c\/d\/bc5aa27ea64ab5d1af27baa3785a4f2d.jpeg",
          "frame" : "32790",
          "position" : 5,
          "image_width" : 1126
        }
      ],
      "cookstorys" : [
        {
          "icon" : "",
          "id" : 0,
          "u" : "",
          "color" : "",
          "type" : 0,
          "c" : "发糕我从小就很喜欢的一份早点，糕点，甜而不腻，淡淡米香～"
        }
      ],
      "cook_id" : "3264821",
      "author_id" : 20364319,
      "author_photo" : "http:\/\/tx1.douguo.net\/upload\/photo\/2\/d\/3\/70_2dff929311a81ae38be53da40dc10053.jpeg",
      "recommendation_tag" : "",
      "dish_count" : 0,
      "guide_image" : "",
      "top_mdsp" : [

      ],
      "rate_count" : 0,
      "dish_count_text" : "",
      "rate" : 0,
      "eu" : "recipes:\/\/www.douguo.com\/postdetail?id=242016",
      "title" : "大米不是只有煮成米饭粥也可以做成发糕",
      "levelid" : 2,
      "brand_day_dsp" : [

      ],
      "cook_time" : "10~30分钟",
      "release_time" : "",
      "major" : [
        {
          "note" : "250克",
          "tu" : "https:\/\/m.douguo.com\/ingredients\/大米\/detailmaterial",
          "title" : "大米"
        },
        {
          "title" : "水",
          "note" : "250克",
          "tu" : "https:\/\/m.douguo.com\/ingredients\/水\/detailmaterial"
        },
        {
          "title" : "发酵粉",
          "note" : "2克"
        },
        {
          "tu" : "https:\/\/m.douguo.com\/ingredients\/葡萄干\/detailmaterial",
          "note" : "10克",
          "title" : "葡萄干"
        }
      ],
      "bs" : [

      ],
      "ssu" : "",
      "ipit" : 0,
      "author_verified" : 1,
      "sr" : "",
      "purl" : "",
      "btm_dsp" : [

      ],
      "ipia" : [

      ],
      "hqu" : "recipes:\/\/www.douguo.com\/notedetail?id=21162253",
      "ph" : 920,
      "title_ad" : [

      ],
      "packages_id" : [

      ],
      "rate_show" : 0,
      "ss" : [

      ],
      "recipe_list_tags" : [
        {
          "text_color" : "#141515",
          "background_border_color" : "",
          "background_start_color" : "#F4F5F5",
          "jump_url" : "",
          "text" : "关注的人",
          "right_image" : "",
          "background_end_color" : "#F4F5F5"
        }
      ],
      "pw" : 960,
      "cook_time_image" : "https:\/\/i1.douguo.com\/upload\/banner\/1551424341.png",
      "favo_counts" : 834,
      "related_ads" : [

      ],
      "v_u" : "",
      "rpid" : 0,
      "ipci" : "",
      "share_info" : {
        "s_d" : "#发糕#大米不是只有煮成米饭粥也可以做成发糕-会做饭很酷!",
        "mini_program" : [

        ],
        "image" : "https:\/\/cp1.douguo.com\/upload\/caiku\/c\/f\/4\/1690224915210.jpg",
        "name" : "#发糕#大米不是只有煮成米饭粥也可以做成发糕-会做饭很酷!",
        "object_id" : "3264821",
        "infos" : [
          {
            "name" : "#发糕#大米不是只有煮成米饭粥也可以做成发糕-会做饭很酷!",
            "object_id" : "3264821",
            "channel" : "1",
            "mini_program" : [

            ],
            "s_d" : "#学做饭用豆果美食# 会做饭好酷啊！我在@豆果美食 分享了【#发糕#大米不是只有煮成米饭粥也可以做成发糕-会做饭很酷!】，今天也是厨艺满满的一天呢，快来和我一起学做美食吧！查看图片了解菜谱（更多美食秘籍点击https:\/\/m.weibo.cn\/p\/100404i33631获取）",
            "qr_image" : "",
            "s_u" : "",
            "image" : "https:\/\/cp1.douguo.com\/upload\/caiku\/c\/f\/4\/1690224915210.jpg"
          },
          {
            "object_id" : "3264821",
            "image" : "https:\/\/cp1.douguo.com\/upload\/caiku\/c\/f\/4\/1690224915210.jpg",
            "s_u" : "http:\/\/m.douguo.com\/cookbook\/3264821.html",
            "name" : "#发糕#大米不是只有煮成米饭粥也可以做成发糕-会做饭很酷!",
            "s_d" : "#发糕#大米不是只有煮成米饭粥也可以做成发糕-会做饭很酷!",
            "mini_program" : [

            ],
            "qr_image" : "",
            "channel" : "7"
          },
          {
            "image" : "https:\/\/cp1.douguo.com\/upload\/caiku\/c\/f\/4\/1690224915210.jpg",
            "s_d" : "#发糕#大米不是只有煮成米饭粥也可以做成发糕-会做饭很酷!",
            "s_u" : "http:\/\/m.douguo.com\/cookbook\/3264821.html",
            "qr_image" : "",
            "object_id" : "3264821",
            "channel" : "8",
            "name" : "#发糕#大米不是只有煮成米饭粥也可以做成发糕-会做饭很酷!",
            "mini_program" : [

            ]
          }
        ],
        "qr_image" : "",
        "s_u" : "http:\/\/m.douguo.com\/cookbook\/3264821.html"
      },
      "story_dsp" : [

      ],
      "dishes" : [

      ],
      "rpst" : "",
      "old_comments" : [

      ],
      "minor" : [

      ],
      "author" : "好有食玉",
      "favo_counts_text" : "834",
      "notes" : [

      ]
    }
  }
}