{
  "state" : "success",
  "result" : {
    "recipe" : {
      "cook_id" : "1392290",
      "comments_count_text" : "562",
      "ipt" : "",
      "author_id" : 4647169,
      "rips" : 0,
      "cook_time" : "10-30分钟",
      "rpst" : "",
      "ipurl" : "",
      "eu" : "recipes:\/\/www.douguo.com\/postdetail?id=242016",
      "recipe_tags" : [
        "{\n    \"background_border_color\" = \"\";\n    \"background_end_color\" = \"#F5D39F\";\n    \"background_start_color\" = \"#FAE9CD\";\n    index = 340;\n    \"jump_url\" = \"https:\/\/m.douguo.com\/activity\/page\/xuezuo?isapp=1&type=honor\";\n    \"right_image\" = \"https:\/\/i1.douguo.com\/upload\/caiku\/0\/a\/b\/0a317d98c713e7e7d0d47ed003f2d93b.png\";\n    text = \"\\U8363\\U8a89\\U6bbf\\U5802\";\n    \"text_color\" = \"#413C32\";\n}",
        "{\n    \"background_border_color\" = \"\";\n    \"background_end_color\" = \"#F5D39F\";\n    \"background_start_color\" = \"#FAE9CD\";\n    index = 141;\n    \"jump_url\" = \"https:\/\/m.douguo.com\/activity\/page\/xuezuo?isapp=1&type=klearn\";\n    \"right_image\" = \"https:\/\/i1.douguo.com\/upload\/caiku\/0\/a\/b\/0a317d98c713e7e7d0d47ed003f2d93b.png\";\n    text = \"\\U5343\\U4eba\\U5b66\\U505a\";\n    \"text_color\" = \"#413C32\";\n}"
      ],
      "thumb_path" : "https:\/\/i1.douguo.com\/upload\/caiku\/3\/0\/1\/300_30924050058c98fb89cd9a1ddc346bc1.jpg",
      "recent_comments" : [

      ],
      "cook_time_image" : "https:\/\/i1.douguo.com\/upload\/banner\/1551424341.png",
      "rate" : 4,
      "ss" : [

      ],
      "dishes" : [

      ],
      "share_info" : {
        "s_u" : "http:\/\/m.douguo.com\/cookbook\/1392290.html",
        "name" : "鸡蛋饼-会做饭很酷!",
        "image" : "https:\/\/cp1.douguo.com\/upload\/caiku\/3\/0\/1\/30924050058c98fb89cd9a1ddc346bc1.jpg",
        "s_d" : "鸡蛋饼-会做饭很酷!",
        "object_id" : "1392290",
        "infos" : [
          {
            "mini_program" : [

            ],
            "s_d" : "#学做饭用豆果美食# 我在@豆果美食 分享了【鸡蛋饼-会做饭很酷!】，哟，集美们～你看这是神仙美味～快跟着我做一份，做一份！查看图片了解菜谱（更多美食秘籍点击https:\/\/m.weibo.cn\/p\/100404i33631获取）#会做饭很酷# ",
            "image" : "https:\/\/cp1.douguo.com\/upload\/caiku\/3\/0\/1\/30924050058c98fb89cd9a1ddc346bc1.jpg",
            "name" : "鸡蛋饼-会做饭很酷!",
            "object_id" : "1392290",
            "qr_image" : "",
            "channel" : "1",
            "s_u" : ""
          },
          {
            "channel" : "7",
            "name" : "鸡蛋饼-会做饭很酷!",
            "object_id" : "1392290",
            "mini_program" : [

            ],
            "image" : "https:\/\/cp1.douguo.com\/upload\/caiku\/3\/0\/1\/30924050058c98fb89cd9a1ddc346bc1.jpg",
            "s_u" : "http:\/\/m.douguo.com\/cookbook\/1392290.html",
            "s_d" : "鸡蛋饼-会做饭很酷!",
            "qr_image" : ""
          },
          {
            "s_u" : "http:\/\/m.douguo.com\/cookbook\/1392290.html",
            "qr_image" : "",
            "object_id" : "1392290",
            "image" : "https:\/\/cp1.douguo.com\/upload\/caiku\/3\/0\/1\/30924050058c98fb89cd9a1ddc346bc1.jpg",
            "name" : "鸡蛋饼-会做饭很酷!",
            "s_d" : "鸡蛋饼-会做饭很酷!",
            "mini_program" : [

            ],
            "channel" : "8"
          }
        ],
        "mini_program" : [

        ],
        "qr_image" : ""
      },
      "author_photo" : "http:\/\/tx1.douguo.net\/upload\/photo\/9\/d\/1\/70_u03341369637960190022.jpg",
      "hq" : 1,
      "rate_count" : 975,
      "tags" : [
        "{\n    text = \"\\U4e3b\\U98df\";\n}",
        "{\n    text = \"\\U86cb\\U7c7b\";\n}",
        "{\n    text = \"\\U997c\";\n}",
        "{\n    text = \"\\U714e\";\n}",
        "{\n    text = \"\\U54b8\";\n}",
        "{\n    text = \"\\U9999\";\n}",
        "{\n    text = \"\\U65e9\\U9910\\U98df\\U8c31\";\n}",
        "{\n    text = \"\\U5348\\U9910\";\n}",
        "{\n    text = \"\\U665a\\U9910\";\n}",
        "{\n    text = \"\\U70d9\";\n}",
        "{\n    text = \"\\U6e05\\U6de1\";\n}",
        "{\n    text = \"\\U4e1c\\U5317\\U83dc\";\n}",
        "{\n    text = \"\\U62cc\";\n}"
      ],
      "btm_dsp" : [

      ],
      "image" : "http:\/\/i1.douguo.net\/upload\/caiku\/3\/0\/1\/300_30924050058c98fb89cd9a1ddc346bc1.jpg",
      "cook_difficulty_image" : "https:\/\/i1.douguo.com\/upload\/banner\/1551424390.png",
      "favo_counts_text" : "13.6万",
      "views_count_text" : "582.0万",
      "v_u" : "",
      "comments" : [
        "{\n    ac = \"#999999\";\n    at = \"\\U5317\\U4eac\\U5e02\";\n    ccc = 11;\n    \"child_comments\" =     (\n                {\n            ac = \"#999999\";\n            at = \"\\U82cf\\U5dde\\U5e02\";\n            ccc = 0;\n            city = \"\\U82cf\\U5dde\\U5e02\";\n            cmc = 2;\n            content =             (\n                                {\n                    c = \" \\U8981\\U7684\";\n                }\n            );\n            ia = 1;\n            id = 5196429;\n            \"ip_address_location\" = \"\";\n            like = 0;\n            \"like_count\" = 0;\n            \"reply_id\" = 5196380;\n            \"reply_user\" =             {\n                \"followers_count_text\" = \"\";\n                id = 21296112;\n                \"is_prime\" = 0;\n                lv = 0;\n                lvl = 1;\n                n = \"\\U8c46\\U7c895842474683\";\n                p = \"\";\n                \"progress_image\" = \"\";\n                \"recipes_count_text\" = \"\";\n                relationship = \"-1\";\n                title = \"\";\n                v = 0;\n                \"verified_image\" = \"\";\n            };\n            \"sticker_icon\" =             (\n            );\n            time = \"2017-11-29 04:36:49\";\n            u =             {\n                \"followers_count_text\" = \"\";\n                id = 4647169;\n                \"is_prime\" = 0;\n                lv = 0;\n                lvl = 8;\n                n = \"Ann\\U5c0f\\U53f6\\U5b50\";\n                p = \"http:\/\/tx1.douguo.net\/upload\/photo\/9\/d\/1\/70_u03341369637960190022.jpg\";\n                \"progress_image\" = \"\";\n                \"recipes_count_text\" = \"\";\n                relationship = \"-1\";\n                title = \"\";\n                v = 1;\n                \"verified_image\" = \"\";\n            };\n        },\n                {\n            ac = \"#999999\";\n            at = \"\";\n            ccc = 0;\n            city = \"\";\n            cmc = 2;\n            content =             (\n                                {\n                    c = \" \\U6211\\U8ddf\\U7740\\U4f60\\U5b66\";\n                }\n            );\n            ia = 0;\n            id = 5215111;\n            \"ip_address_location\" = \"\";\n            like = 0;\n            \"like_count\" = 0;\n            \"reply_id\" = 5196429;\n            \"reply_user\" =             {\n                \"followers_count_text\" = \"\";\n                id = 4647169;\n                \"is_prime\" = 0;\n                lv = 0;\n                lvl = 8;\n                n = \"Ann\\U5c0f\\U53f6\\U5b50\";\n                p = \"http:\/\/tx1.douguo.net\/upload\/photo\/9\/d\/1\/70_u03341369637960190022.jpg\";\n                \"progress_image\" = \"\";\n                \"recipes_count_text\" = \"\";\n                relationship = \"-1\";\n                title = \"\";\n                v = 1;\n                \"verified_image\" = \"\";\n            };\n            \"sticker_icon\" =             (\n            );\n            time = \"2017-12-14 20:42:22\";\n            u =             {\n                \"followers_count_text\" = \"\";\n                id = 21409155;\n                \"is_prime\" = 0;\n                lv = 0;\n                lvl = 1;\n                n = \"\\U5cf0hlap\";\n                p = \"\";\n                \"progress_image\" = \"\";\n                \"recipes_count_text\" = \"\";\n                relationship = \"-1\";\n                title = \"\";\n                v = 0;\n                \"verified_image\" = \"\";\n            };\n        }\n    );\n    city = \"\\U5317\\U4eac\\U5e02\";\n    cmc = 2;\n    content =     (\n                {\n            c = \"\\U714e\\U997c\\U7684\\U65f6\\U5019\\U53ea\\U5230\\U4e00\\U6b21\\U6cb9\\U5417  \\U644a\\U7b2c\\U4e8c\\U4e2a\\U7684\\U65f6\\U5019\\U8fd8\\U5012\\U6cb9\\U5417\";\n        }\n    );\n    ia = 0;\n    id = 5196380;\n    \"ip_address_location\" = \"\";\n    like = 0;\n    \"like_count\" = 16;\n    \"reply_id\" = 0;\n    \"sticker_icon\" =     (\n    );\n    time = \"2017-11-29 03:22:12\";\n    u =     {\n        \"followers_count_text\" = \"\";\n        id = 21296112;\n        \"is_prime\" = 0;\n        lv = 0;\n        lvl = 1;\n        n = \"\\U8c46\\U7c895842474683\";\n        p = \"\";\n        \"progress_image\" = \"\";\n        \"recipes_count_text\" = \"\";\n        relationship = \"-1\";\n        title = \"\";\n        v = 0;\n        \"verified_image\" = \"\";\n    };\n}",
        "{\n    ac = \"#999999\";\n    at = \"\";\n    ccc = 8;\n    \"child_comments\" =     (\n                {\n            ac = \"#999999\";\n            at = \"\";\n            ccc = 0;\n            city = \"\";\n            cmc = 2;\n            content =             (\n                                {\n                    c = \" \\U5c11\\U5012\\U4e9b\\U9762\\U7cca\\Uff0c\\U5c0f\\U706b\\Uff0c\\U5012\\U5165\\U9505\\U4e2d\\U7acb\\U523b\\U7528\\U94f2\\U5b50\\U5411\\U56db\\U5468\\U644a\\U5f00\";\n                }\n            );\n            ia = 1;\n            id = 4869936;\n            \"ip_address_location\" = \"\";\n            like = 0;\n            \"like_count\" = 0;\n            \"reply_id\" = 4869380;\n            \"reply_user\" =             {\n                \"followers_count_text\" = \"\";\n                id = 20492820;\n                \"is_prime\" = 0;\n                lv = 0;\n                lvl = 1;\n                n = \"\\U5c0f\\U65fa\\U540c\\U5b66\";\n                p = \"http:\/\/tx1.douguo.net\/upload\/photo\/0\/2\/c\/70_u9832928246403184021.jpg\";\n                \"progress_image\" = \"\";\n                \"recipes_count_text\" = \"\";\n                relationship = \"-1\";\n                title = \"\";\n                v = 0;\n                \"verified_image\" = \"\";\n            };\n            \"sticker_icon\" =             (\n            );\n            time = \"2017-06-28 05:41:52\";\n            u =             {\n                \"followers_count_text\" = \"\";\n                id = 4647169;\n                \"is_prime\" = 0;\n                lv = 0;\n                lvl = 8;\n                n = \"Ann\\U5c0f\\U53f6\\U5b50\";\n                p = \"http:\/\/tx1.douguo.net\/upload\/photo\/9\/d\/1\/70_u03341369637960190022.jpg\";\n                \"progress_image\" = \"\";\n                \"recipes_count_text\" = \"\";\n                relationship = \"-1\";\n                title = \"\";\n                v = 1;\n                \"verified_image\" = \"\";\n            };\n        },\n                {\n            ac = \"#999999\";\n            at = \"\";\n            ccc = 0;\n            city = \"\";\n            cmc = 2;\n            content =             (\n                                {\n                    c = \" \\U8fd9\\U4e2a\\U56de\\U590d\\Uff0c\\U6211\\U597d\\U50cf\\U9762\\U7cca\\U653e\\U7684\\U591a\\Uff0c\\U4e0d\\U7ba1\\U6211\\U9762\\U7cca\\U8c03\\U7684\\U95ee\\U9898\\U5417\\Uff1f\\U5c31\\U7eaf\\U5c5e\\U653e\\U7684\\U592a\\U591a\\U4e86\\Uff1f\";\n                }\n            );\n            ia = 0;\n            id = 4871592;\n            \"ip_address_location\" = \"\";\n            like = 0;\n            \"like_count\" = 0;\n            \"reply_id\" = 4869936;\n            \"reply_user\" =             {\n                \"followers_count_text\" = \"\";\n                id = 4647169;\n                \"is_prime\" = 0;\n                lv = 0;\n                lvl = 8;\n                n = \"Ann\\U5c0f\\U53f6\\U5b50\";\n                p = \"http:\/\/tx1.douguo.net\/upload\/photo\/9\/d\/1\/70_u03341369637960190022.jpg\";\n                \"progress_image\" = \"\";\n                \"recipes_count_text\" = \"\";\n                relationship = \"-1\";\n                title = \"\";\n                v = 1;\n                \"verified_image\" = \"\";\n            };\n            \"sticker_icon\" =             (\n            );\n            time = \"2017-06-28 19:34:37\";\n            u =             {\n                \"followers_count_text\" = \"\";\n                id = 20492820;\n                \"is_prime\" = 0;\n                lv = 0;\n                lvl = 1;\n                n = \"\\U5c0f\\U65fa\\U540c\\U5b66\";\n                p = \"http:\/\/tx1.douguo.net\/upload\/photo\/0\/2\/c\/70_u9832928246403184021.jpg\";\n                \"progress_image\" = \"\";\n                \"recipes_count_text\" = \"\";\n                relationship = \"-1\";\n                title = \"\";\n                v = 0;\n                \"verified_image\" = \"\";\n            };\n        }\n    );\n    city = \"\";\n    cmc = 2;\n    content =     (\n                {\n            c = \"\\U600e\\U4e48\\U6211\\U505a\\U7684\\U90a3\\U4e48\\U539a\\U6709\\U4eba\\U544a\\U8bc9\\U6211\\U4e3a\\U4ec0\\U4e48\\U5417\";\n        }\n    );\n    ia = 0;\n    id = 4869380;\n    \"ip_address_location\" = \"\";\n    like = 0;\n    \"like_count\" = 17;\n    \"reply_id\" = 0;\n    \"sticker_icon\" =     (\n    );\n    time = \"2017-06-28 01:18:23\";\n    u =     {\n        \"followers_count_text\" = \"\";\n        id = 20492820;\n        \"is_prime\" = 0;\n        lv = 0;\n        lvl = 1;\n        n = \"\\U5c0f\\U65fa\\U540c\\U5b66\";\n        p = \"http:\/\/tx1.douguo.net\/upload\/photo\/0\/2\/c\/70_u9832928246403184021.jpg\";\n        \"progress_image\" = \"\";\n        \"recipes_count_text\" = \"\";\n        relationship = \"-1\";\n        title = \"\";\n        v = 0;\n        \"verified_image\" = \"\";\n    };\n}",
        "{\n    ac = \"#999999\";\n    at = \"\";\n    ccc = 9;\n    \"child_comments\" =     (\n                {\n            ac = \"#999999\";\n            at = \"\";\n            ccc = 0;\n            city = \"\";\n            cmc = 2;\n            content =             (\n                                {\n                    c = \" \\U7231\\U4ed5\\U8fbe\\U7684\";\n                }\n            );\n            ia = 1;\n            id = 4009060;\n            \"ip_address_location\" = \"\";\n            like = 0;\n            \"like_count\" = 0;\n            \"reply_id\" = 4008742;\n            \"reply_user\" =             {\n                \"followers_count_text\" = \"\";\n                id = 18319174;\n                \"is_prime\" = 0;\n                lv = 0;\n                lvl = 1;\n                n = \"\\U505a\\U4e00\\U4e2a\\U591a\\U4e48\\U54c7\\U585e\\U7684\\U83c7\\U51c9\";\n                p = \"http:\/\/tx1.douguo.net\/upload\/photo\/3\/3\/a\/70_u71354969705676160904.jpg\";\n                \"progress_image\" = \"\";\n                \"recipes_count_text\" = \"\";\n                relationship = \"-1\";\n                title = \"\";\n                v = 0;\n                \"verified_image\" = \"\";\n            };\n            \"sticker_icon\" =             (\n            );\n            time = \"2016-08-19 01:24:47\";\n            u =             {\n                \"followers_count_text\" = \"\";\n                id = 4647169;\n                \"is_prime\" = 0;\n                lv = 0;\n                lvl = 8;\n                n = \"Ann\\U5c0f\\U53f6\\U5b50\";\n                p = \"http:\/\/tx1.douguo.net\/upload\/photo\/9\/d\/1\/70_u03341369637960190022.jpg\";\n                \"progress_image\" = \"\";\n                \"recipes_count_text\" = \"\";\n                relationship = \"-1\";\n                title = \"\";\n                v = 1;\n                \"verified_image\" = \"\";\n            };\n        },\n                {\n            ac = \"#999999\";\n            at = \"\";\n            ccc = 0;\n            city = \"\";\n            cmc = 2;\n            content =             (\n                                {\n                    c = \" \\U54e6\\U54e6\\Uff0c\\U8c22\\U8c22\\U4f60\\U770b\\U4e86\\U4f60\\U505a\\U4e86\\U83dc\\U4ee5\\U540e\\U4e0d\\U7c98\\U9505\\Uff0c\\U6253\\U7b97\\U4e70\\U4e00\\U4e2a\";\n                }\n            );\n            ia = 0;\n            id = 4009326;\n            \"ip_address_location\" = \"\";\n            like = 0;\n            \"like_count\" = 0;\n            \"reply_id\" = 4009060;\n            \"reply_user\" =             {\n                \"followers_count_text\" = \"\";\n                id = 4647169;\n                \"is_prime\" = 0;\n                lv = 0;\n                lvl = 8;\n                n = \"Ann\\U5c0f\\U53f6\\U5b50\";\n                p = \"http:\/\/tx1.douguo.net\/upload\/photo\/9\/d\/1\/70_u03341369637960190022.jpg\";\n                \"progress_image\" = \"\";\n                \"recipes_count_text\" = \"\";\n                relationship = \"-1\";\n                title = \"\";\n                v = 1;\n                \"verified_image\" = \"\";\n            };\n            \"sticker_icon\" =             (\n            );\n            time = \"2016-08-19 02:06:12\";\n            u =             {\n                \"followers_count_text\" = \"\";\n                id = 18319174;\n                \"is_prime\" = 0;\n                lv = 0;\n                lvl = 1;\n                n = \"\\U505a\\U4e00\\U4e2a\\U591a\\U4e48\\U54c7\\U585e\\U7684\\U83c7\\U51c9\";\n                p = \"http:\/\/tx1.douguo.net\/upload\/photo\/3\/3\/a\/70_u71354969705676160904.jpg\";\n                \"progress_image\" = \"\";\n                \"recipes_count_text\" = \"\";\n                relationship = \"-1\";\n                title = \"\";\n                v = 0;\n                \"verified_image\" = \"\";\n            };\n        }\n    );\n    city = \"\";\n    cmc = 2;\n    content =     (\n                {\n            c = \"\\U5e73\\U5e95\\U9505\\U662f\\U4ec0\\U4e48\\U724c\\U5b50\\U7684\";\n        }\n    );\n    ia = 0;\n    id = 4008742;\n    \"ip_address_location\" = \"\";\n    like = 0;\n    \"like_count\" = 7;\n    \"reply_id\" = 0;\n    \"sticker_icon\" =     (\n    );\n    time = \"2016-08-18 20:38:47\";\n    u =     {\n        \"followers_count_text\" = \"\";\n        id = 18319174;\n        \"is_prime\" = 0;\n        lv = 0;\n        lvl = 1;\n        n = \"\\U505a\\U4e00\\U4e2a\\U591a\\U4e48\\U54c7\\U585e\\U7684\\U83c7\\U51c9\";\n        p = \"http:\/\/tx1.douguo.net\/upload\/photo\/3\/3\/a\/70_u71354969705676160904.jpg\";\n        \"progress_image\" = \"\";\n        \"recipes_count_text\" = \"\";\n        relationship = \"-1\";\n        title = \"\";\n        v = 0;\n        \"verified_image\" = \"\";\n    };\n}"
      ],
      "major" : [
        {
          "note" : "140g",
          "title" : "普通面粉"
        },
        {
          "tu" : "https:\/\/m.douguo.com\/ingredients\/水\/detailmaterial",
          "title" : "水",
          "note" : "190g"
        },
        {
          "note" : "3个",
          "tu" : "https:\/\/m.douguo.com\/ingredients\/鸡蛋\/detailmaterial",
          "title" : "鸡蛋"
        },
        {
          "title" : "盐",
          "tu" : "https:\/\/m.douguo.com\/ingredients\/盐\/detailmaterial",
          "note" : "2g"
        },
        {
          "title" : "小葱",
          "note" : "2棵",
          "tu" : "https:\/\/m.douguo.com\/ingredients\/小葱\/detailmaterial"
        }
      ],
      "ssu" : "",
      "act_des" : "",
      "ipoi" : "",
      "recommended" : 0,
      "title" : "鸡蛋饼",
      "levelid" : 2,
      "rrpt" : "",
      "old_comments" : [

      ],
      "ecs" : 0,
      "create_time" : "2016-06-09 20:19:15",
      "first_level_comment_count" : 328,
      "rcs" : [

      ],
      "mid_mdsp" : [

      ],
      "vc" : "5820433",
      "cookwares" : [

      ],
      "recipe_list_tags" : [
        {
          "text" : "荣誉殿堂",
          "text_color" : "#413C32",
          "background_border_color" : "",
          "background_start_color" : "#FAE9CD",
          "jump_url" : "",
          "right_image" : "https:\/\/i1.douguo.com\/upload\/caiku\/0\/a\/b\/0a317d98c713e7e7d0d47ed003f2d93b.png",
          "background_end_color" : "#F5D39F"
        },
        {
          "jump_url" : "",
          "text_color" : "#141515",
          "text" : "关注的人",
          "right_image" : "",
          "background_border_color" : "",
          "background_end_color" : "#F4F5F5",
          "background_start_color" : "#F4F5F5"
        }
      ],
      "ipia" : [

      ],
      "title_ad" : [

      ],
      "minor" : [

      ],
      "related_ads" : [

      ],
      "comments_count" : 562,
      "packages_id" : [

      ],
      "tips" : "",
      "rpid" : 0,
      "rpt" : "",
      "story_dsp" : [

      ],
      "thumb_height" : 0,
      "bs" : [

      ],
      "dish_count_text" : "1405",
      "rdsps" : [

      ],
      "sc" : 0,
      "purl" : "",
      "user" : {
        "avatar_medium" : "http:\/\/tx1.douguo.net\/upload\/photo\/9\/d\/1\/140_u03341369637960190022.jpg",
        "introduction" : "",
        "pc" : 0,
        "subscription" : 0,
        "userid" : "4647169",
        "verified" : 1,
        "sign" : "",
        "user_photo" : "http:\/\/tx1.douguo.net\/upload\/photo\/9\/d\/1\/70_u03341369637960190022.jpg",
        "coursecount" : 0,
        "subscription_article_count" : 0,
        "location" : 0,
        "qzone_nick" : "",
        "recipes_count" : 0,
        "gender" : 2,
        "progress_image" : "",
        "nick" : "Ann小叶子",
        "mobile" : "",
        "weibo_nick" : "",
        "qq_weibo_nick" : "",
        "user_id" : "4647169",
        "favor_diaries_count" : 0,
        "user_cover" : "",
        "birthday" : "",
        "lvl" : 8,
        "following_count" : 0,
        "verified_image" : "https:\/\/i1.douguo.com\/upload\/note\/d\/a\/a\/da84247847aebe48d9dd0fcdac88862a.png",
        "is_prime" : 0,
        "user_large_photo" : "http:\/\/tx1.douguo.net\/upload\/photo\/9\/d\/1\/yuan_u03341369637960190022.jpg",
        "age" : "",
        "verified_url" : "https:\/\/m.douguo.com\/user\/prodesc",
        "diaries_count" : 0,
        "fc" : 0,
        "lv" : 0,
        "dishes_count" : 0,
        "regist_time" : "",
        "point" : 0,
        "favorites_count" : 0,
        "setted_email" : 0,
        "email" : "",
        "followers_count" : 0
      },
      "vfurl" : "",
      "guide_image" : "",
      "recommend_label" : "1405人学做",
      "cook_difficulty" : "切墩(初级)",
      "rate_show" : 1,
      "pw" : 600,
      "release_time" : "",
      "rsm" : "该功能暂停使用",
      "rrps" : [

      ],
      "cookstep" : [
        {
          "image" : "https:\/\/i1.douguo.com\/upload\/caiku\/d\/5\/7\/d5b9f9bdbae4740783d9390acb5957c7.jpg",
          "content" : "面粉放在碗中，打入鸡蛋，",
          "thumb" : "https:\/\/i1.douguo.com\/upload\/caiku\/d\/5\/7\/140_d5b9f9bdbae4740783d9390acb5957c7.jpg",
          "frame" : "-1",
          "image_width" : 800,
          "position" : 1,
          "image_height" : 1067
        },
        {
          "image_width" : 800,
          "thumb" : "https:\/\/i1.douguo.com\/upload\/caiku\/a\/d\/1\/140_ad7552ff9dffd10f7809141cfb685e01.jpg",
          "image" : "https:\/\/i1.douguo.com\/upload\/caiku\/a\/d\/1\/ad7552ff9dffd10f7809141cfb685e01.jpg",
          "position" : 2,
          "image_height" : 1067,
          "content" : "加入水，调成鸡蛋面糊，再加入盐，搅拌均匀",
          "frame" : "-1"
        },
        {
          "thumb" : "https:\/\/i1.douguo.com\/upload\/caiku\/2\/9\/2\/140_29d02ce862cfe2d3b8e8f3fa4cacc9f2.jpg",
          "frame" : "-1",
          "image" : "https:\/\/i1.douguo.com\/upload\/caiku\/2\/9\/2\/29d02ce862cfe2d3b8e8f3fa4cacc9f2.jpg",
          "position" : 3,
          "image_width" : 800,
          "content" : "小葱洗干净切碎，剩下的2个鸡蛋打散备用（也可以直接把鸡蛋打散在饼上）",
          "image_height" : 600
        },
        {
          "position" : 4,
          "content" : "平底锅倒入少许油，烧热后转小火",
          "image_width" : 800,
          "image_height" : 600,
          "image" : "https:\/\/i1.douguo.com\/upload\/caiku\/e\/5\/5\/e5020faa61c95a2c3e3e7b890ccdf6e5.jpg",
          "thumb" : "https:\/\/i1.douguo.com\/upload\/caiku\/e\/5\/5\/140_e5020faa61c95a2c3e3e7b890ccdf6e5.jpg",
          "frame" : "-1"
        },
        {
          "position" : 5,
          "content" : "倒入鸡蛋面糊，等面糊表面凝固",
          "image_width" : 800,
          "image_height" : 1067,
          "thumb" : "https:\/\/i1.douguo.com\/upload\/caiku\/d\/b\/9\/140_dbd0c3a36d0af3f0aa0fda90253a4f49.jpg",
          "image" : "https:\/\/i1.douguo.com\/upload\/caiku\/d\/b\/9\/dbd0c3a36d0af3f0aa0fda90253a4f49.jpg",
          "frame" : "-1"
        },
        {
          "image" : "https:\/\/i1.douguo.com\/upload\/caiku\/7\/e\/f\/7ede8f88ec905435e182ff06df5b155f.jpg",
          "image_width" : 800,
          "content" : "倒入适量打散的鸡蛋液（可直接把鸡蛋打在上面，用勺子摊均匀）",
          "position" : 6,
          "image_height" : 800,
          "thumb" : "https:\/\/i1.douguo.com\/upload\/caiku\/7\/e\/f\/140_7ede8f88ec905435e182ff06df5b155f.jpg",
          "frame" : "-1"
        },
        {
          "thumb" : "https:\/\/i1.douguo.com\/upload\/caiku\/8\/6\/d\/140_86006cfc08315d026b6a7329871ba16d.jpg",
          "image_width" : 800,
          "image" : "https:\/\/i1.douguo.com\/upload\/caiku\/8\/6\/d\/86006cfc08315d026b6a7329871ba16d.jpg",
          "image_height" : 600,
          "frame" : "-1",
          "content" : "表面撒香葱碎，鸡蛋液凝固后翻面",
          "position" : 7
        },
        {
          "thumb" : "https:\/\/i1.douguo.com\/upload\/caiku\/a\/5\/0\/140_a538b8d01501b3b0d432fc5063537110.jpg",
          "image_height" : 849,
          "content" : "停一会卷起，关火，切断（也可刷上自己喜欢的酱，加入喜欢的蔬菜，肉类）",
          "frame" : "-1",
          "image_width" : 800,
          "image" : "https:\/\/i1.douguo.com\/upload\/caiku\/a\/5\/0\/a538b8d01501b3b0d432fc5063537110.jpg",
          "position" : 8
        },
        {
          "image_width" : 800,
          "position" : 9,
          "content" : "美味",
          "frame" : "-1",
          "image_height" : 600,
          "thumb" : "https:\/\/i1.douguo.com\/upload\/caiku\/2\/e\/1\/140_2e0a39aaa41fba504a759b5f4da6a711.jpg",
          "image" : "https:\/\/i1.douguo.com\/upload\/caiku\/2\/e\/1\/2e0a39aaa41fba504a759b5f4da6a711.jpg"
        }
      ],
      "ipci" : "",
      "favo_counts" : 135767,
      "ipit" : 0,
      "advice" : {
        "da" : {
          "t" : "查看详细分析",
          "url" : "https:\/\/m.douguo.com\/recipe\/nutrient_self\/1392290",
          "iu" : "https:\/\/i1.douguo.com\/upload\/banner\/f\/4\/d\/f48877e53c37759bc12ac494be82ec8d.png"
        },
        "has" : [

        ]
      },
      "author_verified" : 1,
      "brand_day_dsp" : [

      ],
      "cookstory" : "",
      "original_photo_path" : "http:\/\/i1.douguo.net\/upload\/caiku\/3\/0\/1\/yuan_30924050058c98fb89cd9a1ddc346bc1.jpg",
      "recommendation_tag" : "",
      "su" : "",
      "hqu" : "recipes:\/\/www.douguo.com\/notedetail?id=21162253",
      "clicks" : "5477323",
      "rewarded_video_dsp" : [

      ],
      "ph" : 400,
      "display_ingredient" : 1,
      "top_mdsp" : [

      ],
      "collect_status" : 0,
      "vu" : "",
      "dish_count" : 1405,
      "cookstorys" : [

      ],
      "author" : "Ann小叶子",
      "notes" : [

      ],
      "photo_path" : "https:\/\/i1.douguo.com\/upload\/caiku\/3\/0\/1\/600_30924050058c98fb89cd9a1ddc346bc1.jpg",
      "sr" : ""
    }
  },
  "status" : 0
}