{
  "state" : "success",
  "status" : 0,
  "result" : {
    "recipe" : {
      "comments_count" : 4,
      "story_dsp" : [

      ],
      "cook_time_image" : "https:\/\/i1.douguo.com\/upload\/banner\/1551424358.png",
      "comments" : [
        "{\n    ac = \"#999999\";\n    at = \"\";\n    ccc = 1;\n    \"child_comments\" =     (\n                {\n            ac = \"#999999\";\n            at = \"\\U676d\\U5dde\\U5e02\";\n            ccc = 0;\n            city = \"\\U676d\\U5dde\\U5e02\";\n            cmc = 2;\n            content =             (\n                                {\n                    c = \" 2\\U4e2a\";\n                }\n            );\n            ia = 1;\n            id = 8209180;\n            \"ip_address_location\" = \"\";\n            like = 0;\n            \"like_count\" = 0;\n            \"reply_id\" = 8208820;\n            \"reply_user\" =             {\n                \"followers_count_text\" = \"\";\n                id = 25566188;\n                \"is_prime\" = 0;\n                lv = 0;\n                lvl = 1;\n                n = \"\\U4e50\\U9676\\U9676\\U7684\\U8089\\U8c46\\U853b\";\n                p = \"http:\/\/tx1.douguo.net\/upload\/photo\/1\/1\/1\/70_004976861ec13b4af62b1d8db8c5c9f7.png\";\n                \"progress_image\" = \"\";\n                \"recipes_count_text\" = \"\";\n                relationship = \"-1\";\n                title = \"\";\n                v = 0;\n                \"verified_image\" = \"\";\n            };\n            \"sticker_icon\" =             (\n            );\n            time = \"2020-08-22 17:13:11\";\n            u =             {\n                \"followers_count_text\" = \"\";\n                id = 1969230;\n                \"is_prime\" = 0;\n                lv = 0;\n                lvl = 6;\n                n = \"\\U6ce5\\U5927\\U9cc5\\U9cc5\\U9cc5\\U9cc5\\U9cc5\";\n                p = \"http:\/\/tx1.douguo.net\/upload\/photo\/c\/3\/9\/70_u47525848251805160352.jpeg\";\n                \"progress_image\" = \"\";\n                \"recipes_count_text\" = \"\";\n                relationship = \"-1\";\n                title = \"\";\n                v = 1;\n                \"verified_image\" = \"\";\n            };\n        }\n    );\n    city = \"\";\n    cmc = 2;\n    content =     (\n                {\n            c = \"\\U9e21\\U86cb\\U653e42\\U4e2a\\Uff1f\";\n        }\n    );\n    ia = 0;\n    id = 8208820;\n    \"ip_address_location\" = \"\";\n    like = 0;\n    \"like_count\" = 0;\n    \"reply_id\" = 0;\n    \"sticker_icon\" =     (\n    );\n    time = \"2020-08-22 11:31:09\";\n    u =     {\n        \"followers_count_text\" = \"\";\n        id = 25566188;\n        \"is_prime\" = 0;\n        lv = 0;\n        lvl = 1;\n        n = \"\\U4e50\\U9676\\U9676\\U7684\\U8089\\U8c46\\U853b\";\n        p = \"http:\/\/tx1.douguo.net\/upload\/photo\/1\/1\/1\/70_004976861ec13b4af62b1d8db8c5c9f7.png\";\n        \"progress_image\" = \"\";\n        \"recipes_count_text\" = \"\";\n        relationship = \"-1\";\n        title = \"\";\n        v = 0;\n        \"verified_image\" = \"\";\n    };\n}",
        "{\n    ac = \"#999999\";\n    at = \"\\U6c88\\U9633\\U5e02\";\n    ccc = 1;\n    \"child_comments\" =     (\n                {\n            ac = \"#999999\";\n            at = \"\\U676d\\U5dde\\U5e02\";\n            ccc = 0;\n            city = \"\\U676d\\U5dde\\U5e02\";\n            cmc = 2;\n            content =             (\n                                {\n                    c = \" \\U548c\\U7c73\\U996d\\U4e00\\U8d77\\U653e\";\n                }\n            );\n            ia = 1;\n            id = 8186615;\n            \"ip_address_location\" = \"\";\n            like = 0;\n            \"like_count\" = 0;\n            \"reply_id\" = 8186186;\n            \"reply_user\" =             {\n                \"followers_count_text\" = \"\";\n                id = 23848039;\n                \"is_prime\" = 0;\n                lv = 0;\n                lvl = 1;\n                n = \"\\U60f3\\U505a\\U5b87\\U7684\\U9648\\U592a\\U592a\";\n                p = \"http:\/\/tx1.douguo.net\/upload\/photo\/8\/c\/1\/70_u58436336809374185944.jpeg\";\n                \"progress_image\" = \"\";\n                \"recipes_count_text\" = \"\";\n                relationship = \"-1\";\n                title = \"\";\n                v = 0;\n                \"verified_image\" = \"\";\n            };\n            \"sticker_icon\" =             (\n            );\n            time = \"2020-08-06 17:32:05\";\n            u =             {\n                \"followers_count_text\" = \"\";\n                id = 1969230;\n                \"is_prime\" = 0;\n                lv = 0;\n                lvl = 6;\n                n = \"\\U6ce5\\U5927\\U9cc5\\U9cc5\\U9cc5\\U9cc5\\U9cc5\";\n                p = \"http:\/\/tx1.douguo.net\/upload\/photo\/c\/3\/9\/70_u47525848251805160352.jpeg\";\n                \"progress_image\" = \"\";\n                \"recipes_count_text\" = \"\";\n                relationship = \"-1\";\n                title = \"\";\n                v = 1;\n                \"verified_image\" = \"\";\n            };\n        }\n    );\n    city = \"\\U6c88\\U9633\\U5e02\";\n    cmc = 2;\n    content =     (\n                {\n            c = \"\\U90a3\\U9e21\\U86cb\\U5565\\U65f6\\U5019\\U653e\\U554a\\U54c8\\U54c8\";\n        }\n    );\n    ia = 0;\n    id = 8186186;\n    \"ip_address_location\" = \"\";\n    like = 0;\n    \"like_count\" = 0;\n    \"reply_id\" = 0;\n    \"sticker_icon\" =     (\n    );\n    time = \"2020-08-06 14:15:28\";\n    u =     {\n        \"followers_count_text\" = \"\";\n        id = 23848039;\n        \"is_prime\" = 0;\n        lv = 0;\n        lvl = 1;\n        n = \"\\U60f3\\U505a\\U5b87\\U7684\\U9648\\U592a\\U592a\";\n        p = \"http:\/\/tx1.douguo.net\/upload\/photo\/8\/c\/1\/70_u58436336809374185944.jpeg\";\n        \"progress_image\" = \"\";\n        \"recipes_count_text\" = \"\";\n        relationship = \"-1\";\n        title = \"\";\n        v = 0;\n        \"verified_image\" = \"\";\n    };\n}"
      ],
      "hqu" : "recipes:\/\/www.douguo.com\/notedetail?id=21162253",
      "rpid" : 0,
      "vc" : "416487",
      "minor" : [

      ],
      "rewarded_video_dsp" : [

      ],
      "notes" : [

      ],
      "cook_difficulty_image" : "",
      "release_time" : "",
      "rdsps" : [

      ],
      "event" : {
        "name" : "全电厨王料理挑战赛热力开战！",
        "url" : "https:\/\/m.douguo.com\/activity\/ncpzj\/detail\/2690?isapp=1&open=0&_vs=1000300&&dg_refreshkey=publishnote",
        "id" : 2690
      },
      "related_ads" : [

      ],
      "share_info" : {
        "s_d" : "黄金蛋炒饭（炒菜机）-会做饭很酷!",
        "image" : "https:\/\/cp1.douguo.com\/upload\/caiku\/6\/a\/0\/6a9bdf14d34d900becef7fb4b7f56400.jpeg",
        "name" : "黄金蛋炒饭（炒菜机）-会做饭很酷!",
        "infos" : [
          {
            "channel" : "1",
            "s_d" : "#学做饭用豆果美食# 会做饭好酷啊！我在@豆果美食 分享了【黄金蛋炒饭（炒菜机）-会做饭很酷!】，今天也是厨艺满满的一天呢，快来和我一起学做美食吧！查看图片了解菜谱（更多美食秘籍点击https:\/\/m.weibo.cn\/p\/100404i33631获取）",
            "image" : "https:\/\/cp1.douguo.com\/upload\/caiku\/6\/a\/0\/6a9bdf14d34d900becef7fb4b7f56400.jpeg",
            "qr_image" : "",
            "name" : "黄金蛋炒饭（炒菜机）-会做饭很酷!",
            "object_id" : "2955450",
            "mini_program" : [

            ],
            "s_u" : ""
          },
          {
            "channel" : "7",
            "s_d" : "黄金蛋炒饭（炒菜机）-会做饭很酷!",
            "mini_program" : [

            ],
            "qr_image" : "",
            "s_u" : "http:\/\/m.douguo.com\/cookbook\/2955450.html",
            "image" : "https:\/\/cp1.douguo.com\/upload\/caiku\/6\/a\/0\/6a9bdf14d34d900becef7fb4b7f56400.jpeg",
            "name" : "黄金蛋炒饭（炒菜机）-会做饭很酷!",
            "object_id" : "2955450"
          },
          {
            "image" : "https:\/\/cp1.douguo.com\/upload\/caiku\/6\/a\/0\/6a9bdf14d34d900becef7fb4b7f56400.jpeg",
            "s_u" : "http:\/\/m.douguo.com\/cookbook\/2955450.html",
            "object_id" : "2955450",
            "channel" : "8",
            "name" : "黄金蛋炒饭（炒菜机）-会做饭很酷!",
            "mini_program" : [

            ],
            "s_d" : "黄金蛋炒饭（炒菜机）-会做饭很酷!",
            "qr_image" : ""
          }
        ],
        "qr_image" : "",
        "object_id" : "2955450",
        "mini_program" : [

        ],
        "s_u" : "http:\/\/m.douguo.com\/cookbook\/2955450.html"
      },
      "brand_day_dsp" : [

      ],
      "cookstorys" : [
        {
          "u" : "",
          "color" : "",
          "c" : "参与活动:",
          "icon" : "",
          "id" : 0,
          "type" : 0
        },
        {
          "id" : 0,
          "type" : 0,
          "u" : "https:\/\/m.douguo.com\/activity\/ncpzj\/detail\/2690?isapp=1&open=0&_vs=1000300&&dg_refreshkey=publishnote",
          "icon" : "",
          "c" : "#全电厨王料理挑战赛热力开战！#"
        }
      ],
      "rrpt" : "",
      "collect_status" : 0,
      "rrps" : [

      ],
      "cook_difficulty" : "",
      "rate" : 0,
      "photo_path" : "https:\/\/i1.douguo.com\/upload\/caiku\/6\/a\/0\/600_6a9bdf14d34d900becef7fb4b7f56400.jpeg",
      "packages_id" : [

      ],
      "tips" : "米饭入锅前，要先弄散，这样更加粒粒分明",
      "views_count_text" : "41.6万",
      "cookstory" : "",
      "dish_count" : 0,
      "favo_counts" : 4654,
      "eu" : "recipes:\/\/www.douguo.com\/postdetail?id=242016",
      "hq" : 1,
      "sc" : 0,
      "su" : "",
      "cookwares" : [

      ],
      "ipt" : "",
      "tags" : [

      ],
      "rpst" : "",
      "ipia" : [

      ],
      "thumb_path" : "https:\/\/i1.douguo.com\/upload\/caiku\/6\/a\/0\/300_6a9bdf14d34d900becef7fb4b7f56400.jpeg",
      "pw" : 1440,
      "thumb_height" : 0,
      "favo_counts_text" : "4654",
      "vu" : "",
      "ss" : [

      ],
      "guide_image" : "",
      "ipurl" : "",
      "old_comments" : [

      ],
      "act_des" : "",
      "image" : "http:\/\/i1.douguo.net\/upload\/caiku\/6\/a\/0\/300_6a9bdf14d34d900becef7fb4b7f56400.jpeg",
      "recommended" : 0,
      "rpt" : "",
      "rate_count" : 0,
      "recipe_list_tags" : [
        {
          "text" : "关注的人",
          "right_image" : "",
          "background_border_color" : "",
          "text_color" : "#141515",
          "background_start_color" : "#F4F5F5",
          "jump_url" : "",
          "background_end_color" : "#F4F5F5"
        }
      ],
      "author" : "泥大鳅鳅鳅鳅鳅",
      "levelid" : 2,
      "display_ingredient" : 1,
      "clicks" : "408189",
      "author_verified" : 1,
      "dishes" : [

      ],
      "title_ad" : [

      ],
      "cookstep" : [
        {
          "thumb" : "https:\/\/i1.douguo.com\/upload\/caiku\/3\/7\/c\/140_37e9cb63864dec1b547e1b7cb66dc8cc.jpeg",
          "image_width" : 1280,
          "content" : "葱白和葱叶分离，虾仁、午餐肉切丁\n此时炒菜机启动热锅",
          "image_height" : 720,
          "position" : 1,
          "image" : "https:\/\/i1.douguo.com\/upload\/caiku\/3\/7\/c\/37e9cb63864dec1b547e1b7cb66dc8cc.jpeg",
          "frame" : "-1"
        },
        {
          "thumb" : "https:\/\/i1.douguo.com\/upload\/caiku\/5\/b\/1\/140_5b470d81529ea26af39d45b368999f21.jpeg",
          "frame" : "-1",
          "position" : 2,
          "content" : "葱白丢进炒菜机中，大火慢炒36秒",
          "image_width" : 1280,
          "image" : "https:\/\/i1.douguo.com\/upload\/caiku\/5\/b\/1\/5b470d81529ea26af39d45b368999f21.jpeg",
          "image_height" : 720
        },
        {
          "image_width" : 1280,
          "content" : "倒入米饭、盐、白糖，大火、慢炒3分20秒",
          "position" : 3,
          "image" : "https:\/\/i1.douguo.com\/upload\/caiku\/4\/b\/c\/4bd762b34ce19b8028c6ad1f25ba9f3c.jpeg",
          "frame" : "-1",
          "image_height" : 720,
          "thumb" : "https:\/\/i1.douguo.com\/upload\/caiku\/4\/b\/c\/140_4bd762b34ce19b8028c6ad1f25ba9f3c.jpeg"
        },
        {
          "image" : "https:\/\/i1.douguo.com\/upload\/caiku\/8\/8\/b\/886926348103fcd0bbbf51a43d37108b.jpeg",
          "image_height" : 1920,
          "frame" : "-1",
          "content" : "倒入虾仁、午餐肉，大火爆炒4分钟",
          "thumb" : "https:\/\/i1.douguo.com\/upload\/caiku\/8\/8\/b\/140_886926348103fcd0bbbf51a43d37108b.jpeg",
          "position" : 4,
          "image_width" : 1080
        },
        {
          "image_width" : 1280,
          "thumb" : "https:\/\/i1.douguo.com\/upload\/caiku\/6\/7\/7\/140_67a23e46d2b67c20446f83e1bfadd0c7.jpeg",
          "frame" : "-1",
          "image_height" : 720,
          "position" : 5,
          "content" : "撒葱花，大火爆炒10秒，完成烹饪",
          "image" : "https:\/\/i1.douguo.com\/upload\/caiku\/6\/7\/7\/67a23e46d2b67c20446f83e1bfadd0c7.jpeg"
        },
        {
          "position" : 6,
          "image" : "https:\/\/i1.douguo.com\/upload\/caiku\/a\/6\/f\/a6c7f49af262d192dcee8c4c4b1fcb6f.jpeg",
          "frame" : "-1",
          "thumb" : "https:\/\/i1.douguo.com\/upload\/caiku\/a\/6\/f\/140_a6c7f49af262d192dcee8c4c4b1fcb6f.jpeg",
          "image_width" : 1280,
          "image_height" : 960,
          "content" : "出菜！"
        },
        {
          "image_width" : 1199,
          "position" : 7,
          "image" : "https:\/\/i1.douguo.com\/upload\/caiku\/6\/b\/8\/6b9f31de4a86959eb7e221f89e8d3f58.jpeg",
          "thumb" : "https:\/\/i1.douguo.com\/upload\/caiku\/6\/b\/8\/140_6b9f31de4a86959eb7e221f89e8d3f58.jpeg",
          "image_height" : 898,
          "frame" : "-1",
          "content" : "成品图"
        }
      ],
      "user" : {
        "email" : "",
        "subscription_article_count" : 0,
        "followers_count" : 0,
        "weibo_nick" : "",
        "lvl" : 6,
        "recipes_count" : 0,
        "dishes_count" : 0,
        "avatar_medium" : "http:\/\/tx1.douguo.net\/upload\/photo\/c\/3\/9\/140_u47525848251805160352.jpeg",
        "fc" : 0,
        "birthday" : "",
        "setted_email" : 0,
        "userid" : "1969230",
        "coursecount" : 0,
        "qq_weibo_nick" : "",
        "progress_image" : "",
        "favor_diaries_count" : 0,
        "point" : 0,
        "user_cover" : "",
        "introduction" : "",
        "diaries_count" : 0,
        "favorites_count" : 0,
        "regist_time" : "",
        "user_id" : "1969230",
        "following_count" : 0,
        "mobile" : "",
        "age" : "",
        "nick" : "泥大鳅鳅鳅鳅鳅",
        "sign" : "",
        "gender" : 2,
        "user_large_photo" : "http:\/\/tx1.douguo.net\/upload\/photo\/c\/3\/9\/yuan_u47525848251805160352.jpeg",
        "pc" : 0,
        "lv" : 0,
        "qzone_nick" : "",
        "is_prime" : 0,
        "verified_image" : "https:\/\/i1.douguo.com\/upload\/note\/d\/a\/a\/da84247847aebe48d9dd0fcdac88862a.png",
        "subscription" : 0,
        "verified_url" : "https:\/\/m.douguo.com\/user\/prodesc",
        "user_photo" : "http:\/\/tx1.douguo.net\/upload\/photo\/c\/3\/9\/70_u47525848251805160352.jpeg",
        "verified" : 1,
        "location" : 0
      },
      "comments_count_text" : "4",
      "rcs" : [

      ],
      "author_photo" : "http:\/\/tx1.douguo.net\/upload\/photo\/c\/3\/9\/70_u47525848251805160352.jpeg",
      "recipe_tags" : [

      ],
      "vfurl" : "",
      "dish_count_text" : "",
      "recommendation_tag" : "",
      "top_mdsp" : [

      ],
      "ph" : 1080,
      "sr" : "",
      "rate_show" : 0,
      "cook_time" : "10分钟左右",
      "rips" : 0,
      "rsm" : "该功能暂停使用",
      "v_u" : "",
      "author_id" : 1969230,
      "ipoi" : "",
      "ipci" : "",
      "ssu" : "",
      "recent_comments" : [

      ],
      "title" : "黄金蛋炒饭（炒菜机）",
      "first_level_comment_count" : 2,
      "create_time" : "2020-08-05 08:49:55",
      "mid_mdsp" : [

      ],
      "major" : [
        {
          "note" : "1碗",
          "title" : "隔夜饭"
        },
        {
          "tu" : "https:\/\/m.douguo.com\/ingredients\/鸡蛋\/detailmaterial",
          "title" : "鸡蛋",
          "note" : "2个"
        },
        {
          "title" : "植物油",
          "note" : "20克",
          "tu" : "https:\/\/m.douguo.com\/ingredients\/植物油\/detailmaterial"
        },
        {
          "title" : "盐",
          "note" : "3克",
          "tu" : "https:\/\/m.douguo.com\/ingredients\/盐\/detailmaterial"
        },
        {
          "tu" : "https:\/\/m.douguo.com\/ingredients\/白砂糖\/detailmaterial",
          "title" : "白砂糖",
          "note" : "2克"
        },
        {
          "tu" : "https:\/\/m.douguo.com\/ingredients\/葱花\/detailmaterial",
          "note" : "10克",
          "title" : "葱花"
        },
        {
          "note" : "1\/2块",
          "tu" : "https:\/\/m.douguo.com\/ingredients\/午餐肉\/detailmaterial",
          "title" : "午餐肉"
        },
        {
          "tu" : "https:\/\/m.douguo.com\/ingredients\/虾仁\/detailmaterial",
          "note" : "50克",
          "title" : "虾仁"
        }
      ],
      "cook_id" : "2955450",
      "recommend_label" : "4654人刚刚收藏过",
      "advice" : {
        "has" : [

        ],
        "da" : {
          "url" : "https:\/\/m.douguo.com\/recipe\/nutrient_self\/2955450",
          "iu" : "https:\/\/i1.douguo.com\/upload\/banner\/f\/4\/d\/f48877e53c37759bc12ac494be82ec8d.png",
          "t" : "查看详细分析"
        }
      },
      "original_photo_path" : "http:\/\/i1.douguo.net\/upload\/caiku\/6\/a\/0\/yuan_6a9bdf14d34d900becef7fb4b7f56400.jpeg",
      "purl" : "",
      "ecs" : 0,
      "bs" : [

      ],
      "ipit" : 0,
      "btm_dsp" : [

      ]
    }
  }
}