{
  "status" : 0,
  "result" : {
    "recipe" : {
      "comments" : [
        "{\n    ac = \"#999999\";\n    at = \"\";\n    ccc = 2;\n    \"child_comments\" =     (\n                {\n            ac = \"#999999\";\n            at = \"\\U682a\\U6d32\\U5e02\";\n            ccc = 0;\n            city = \"\\U682a\\U6d32\\U5e02\";\n            cmc = 2;\n            content =             (\n                                {\n                    c = \" \\U5b66\\U4e00\\U5b66\\Ud83d\\Ude01\";\n                }\n            );\n            ia = 1;\n            id = 6162620;\n            \"ip_address_location\" = \"\";\n            like = 0;\n            \"like_count\" = 0;\n            \"reply_id\" = 6160180;\n            \"reply_user\" =             {\n                \"followers_count_text\" = \"\";\n                id = 18445755;\n                \"is_prime\" = 0;\n                lv = 0;\n                lvl = 4;\n                n = \"\\U79cb\\U592957\";\n                p = \"http:\/\/tx1.douguo.net\/upload\/photo\/a\/5\/f\/70_u61551773735062004934.jpg\";\n                \"progress_image\" = \"\";\n                \"recipes_count_text\" = \"\";\n                relationship = \"-1\";\n                title = \"\";\n                v = 0;\n                \"verified_image\" = \"\";\n            };\n            \"sticker_icon\" =             (\n            );\n            time = \"2018-10-27 12:04:19\";\n            u =             {\n                \"followers_count_text\" = \"\";\n                id = 17421453;\n                \"is_prime\" = 0;\n                lv = 0;\n                lvl = 4;\n                n = \"coisini\\U2026\";\n                p = \"http:\/\/tx1.douguo.net\/upload\/photo\/c\/d\/b\/70_u63184668146111190255.jpeg\";\n                \"progress_image\" = \"\";\n                \"recipes_count_text\" = \"\";\n                relationship = \"-1\";\n                title = \"\";\n                v = 0;\n                \"verified_image\" = \"\";\n            };\n        },\n                {\n            ac = \"#999999\";\n            at = \"\\U682a\\U6d32\\U5e02\";\n            ccc = 0;\n            city = \"\\U682a\\U6d32\\U5e02\";\n            cmc = 2;\n            content =             (\n                                {\n                    c = \" \\U505a\\U8d77\\U6765\\U4e24\\U5929\\U5c31\\U53ef\\U4ee5\\U5403\\U4e86\";\n                }\n            );\n            ia = 1;\n            id = 6162624;\n            \"ip_address_location\" = \"\";\n            like = 0;\n            \"like_count\" = 0;\n            \"reply_id\" = 6160180;\n            \"reply_user\" =             {\n                \"followers_count_text\" = \"\";\n                id = 18445755;\n                \"is_prime\" = 0;\n                lv = 0;\n                lvl = 4;\n                n = \"\\U79cb\\U592957\";\n                p = \"http:\/\/tx1.douguo.net\/upload\/photo\/a\/5\/f\/70_u61551773735062004934.jpg\";\n                \"progress_image\" = \"\";\n                \"recipes_count_text\" = \"\";\n                relationship = \"-1\";\n                title = \"\";\n                v = 0;\n                \"verified_image\" = \"\";\n            };\n            \"sticker_icon\" =             (\n            );\n            time = \"2018-10-27 12:05:08\";\n            u =             {\n                \"followers_count_text\" = \"\";\n                id = 17421453;\n                \"is_prime\" = 0;\n                lv = 0;\n                lvl = 4;\n                n = \"coisini\\U2026\";\n                p = \"http:\/\/tx1.douguo.net\/upload\/photo\/c\/d\/b\/70_u63184668146111190255.jpeg\";\n                \"progress_image\" = \"\";\n                \"recipes_count_text\" = \"\";\n                relationship = \"-1\";\n                title = \"\";\n                v = 0;\n                \"verified_image\" = \"\";\n            };\n        }\n    );\n    city = \"\";\n    cmc = 2;\n    content =     (\n                {\n            c = \"\\U54c8\\U54c8\\Uff0c\\U5237\\U5230\\U8fd9\\U4e2a\\U83dc\\U8c31\\U7b80\\U76f4\\U998b\\U6b7b\\U4eba\\U4e86\";\n        }\n    );\n    ia = 0;\n    id = 6160180;\n    \"ip_address_location\" = \"\";\n    like = 0;\n    \"like_count\" = 0;\n    \"reply_id\" = 0;\n    \"sticker_icon\" =     (\n    );\n    time = \"2018-10-26 04:46:09\";\n    u =     {\n        \"followers_count_text\" = \"\";\n        id = 18445755;\n        \"is_prime\" = 0;\n        lv = 0;\n        lvl = 4;\n        n = \"\\U79cb\\U592957\";\n        p = \"http:\/\/tx1.douguo.net\/upload\/photo\/a\/5\/f\/70_u61551773735062004934.jpg\";\n        \"progress_image\" = \"\";\n        \"recipes_count_text\" = \"\";\n        relationship = \"-1\";\n        title = \"\";\n        v = 0;\n        \"verified_image\" = \"\";\n    };\n}",
        "{\n    ac = \"#999999\";\n    at = \"\";\n    ccc = 1;\n    \"child_comments\" =     (\n                {\n            ac = \"#999999\";\n            at = \"\\U682a\\U6d32\\U5e02\";\n            ccc = 0;\n            city = \"\\U682a\\U6d32\\U5e02\";\n            cmc = 2;\n            content =             (\n                                {\n                    c = \" \\U8fc7\\U5956\\U8fc7\\U5956\\U4e86\\Ud83d\\Ude0a\";\n                }\n            );\n            ia = 1;\n            id = 6162622;\n            \"ip_address_location\" = \"\";\n            like = 0;\n            \"like_count\" = 0;\n            \"reply_id\" = 6160181;\n            \"reply_user\" =             {\n                \"followers_count_text\" = \"\";\n                id = 18564196;\n                \"is_prime\" = 0;\n                lv = 0;\n                lvl = 3;\n                n = \"\\U90b1\\U56fd\\U7433\";\n                p = \"http:\/\/tx1.douguo.net\/upload\/photo\/9\/5\/4\/70_u9968587114771154539.jpg\";\n                \"progress_image\" = \"\";\n                \"recipes_count_text\" = \"\";\n                relationship = \"-1\";\n                title = \"\";\n                v = 0;\n                \"verified_image\" = \"\";\n            };\n            \"sticker_icon\" =             (\n            );\n            time = \"2018-10-27 12:04:39\";\n            u =             {\n                \"followers_count_text\" = \"\";\n                id = 17421453;\n                \"is_prime\" = 0;\n                lv = 0;\n                lvl = 4;\n                n = \"coisini\\U2026\";\n                p = \"http:\/\/tx1.douguo.net\/upload\/photo\/c\/d\/b\/70_u63184668146111190255.jpeg\";\n                \"progress_image\" = \"\";\n                \"recipes_count_text\" = \"\";\n                relationship = \"-1\";\n                title = \"\";\n                v = 0;\n                \"verified_image\" = \"\";\n            };\n        }\n    );\n    city = \"\";\n    cmc = 2;\n    content =     (\n                {\n            c = \"\\U83dc\\U8c31\\U8fbe\\U4eba\\U54c8\\U54c8\";\n        }\n    );\n    ia = 0;\n    id = 6160181;\n    \"ip_address_location\" = \"\";\n    like = 0;\n    \"like_count\" = 0;\n    \"reply_id\" = 0;\n    \"sticker_icon\" =     (\n    );\n    time = \"2018-10-26 04:47:11\";\n    u =     {\n        \"followers_count_text\" = \"\";\n        id = 18564196;\n        \"is_prime\" = 0;\n        lv = 0;\n        lvl = 3;\n        n = \"\\U90b1\\U56fd\\U7433\";\n        p = \"http:\/\/tx1.douguo.net\/upload\/photo\/9\/5\/4\/70_u9968587114771154539.jpg\";\n        \"progress_image\" = \"\";\n        \"recipes_count_text\" = \"\";\n        relationship = \"-1\";\n        title = \"\";\n        v = 0;\n        \"verified_image\" = \"\";\n    };\n}",
        "{\n    ac = \"#999999\";\n    at = \"\";\n    ccc = 1;\n    \"child_comments\" =     (\n                {\n            ac = \"#999999\";\n            at = \"\\U682a\\U6d32\\U5e02\";\n            ccc = 0;\n            city = \"\\U682a\\U6d32\\U5e02\";\n            cmc = 2;\n            content =             (\n                                {\n                    c = \" \\U4e0d\\U7528\\U8c22\";\n                }\n            );\n            ia = 1;\n            id = 6162617;\n            \"ip_address_location\" = \"\";\n            like = 0;\n            \"like_count\" = 0;\n            \"reply_id\" = 6144783;\n            \"reply_user\" =             {\n                \"followers_count_text\" = \"\";\n                id = 18442153;\n                \"is_prime\" = 0;\n                lv = 0;\n                lvl = 4;\n                n = \"\\U6881\\U5c0f\\U7babV\";\n                p = \"http:\/\/tx1.douguo.net\/upload\/photo\/1\/c\/c\/70_u28861272130029.jpg\";\n                \"progress_image\" = \"\";\n                \"recipes_count_text\" = \"\";\n                relationship = \"-1\";\n                title = \"\";\n                v = 0;\n                \"verified_image\" = \"\";\n            };\n            \"sticker_icon\" =             (\n            );\n            time = \"2018-10-27 12:03:44\";\n            u =             {\n                \"followers_count_text\" = \"\";\n                id = 17421453;\n                \"is_prime\" = 0;\n                lv = 0;\n                lvl = 4;\n                n = \"coisini\\U2026\";\n                p = \"http:\/\/tx1.douguo.net\/upload\/photo\/c\/d\/b\/70_u63184668146111190255.jpeg\";\n                \"progress_image\" = \"\";\n                \"recipes_count_text\" = \"\";\n                relationship = \"-1\";\n                title = \"\";\n                v = 0;\n                \"verified_image\" = \"\";\n            };\n        }\n    );\n    city = \"\";\n    cmc = 2;\n    content =     (\n                {\n            c = \"\\U4eca\\U5929\\U5b66\\U505a\\U8fd9\\U5957\\U83dc\\U00a0\\U00a0\\U5f88\\U6210\\U529f\\U00a0\\U00a0\\U8c22\\U8c22\\U4eb2\\U5566\";\n        }\n    );\n    ia = 0;\n    id = 6144783;\n    \"ip_address_location\" = \"\";\n    like = 0;\n    \"like_count\" = 0;\n    \"reply_id\" = 0;\n    \"sticker_icon\" =     (\n    );\n    time = \"2018-10-23 17:43:27\";\n    u =     {\n        \"followers_count_text\" = \"\";\n        id = 18442153;\n        \"is_prime\" = 0;\n        lv = 0;\n        lvl = 4;\n        n = \"\\U6881\\U5c0f\\U7babV\";\n        p = \"http:\/\/tx1.douguo.net\/upload\/photo\/1\/c\/c\/70_u28861272130029.jpg\";\n        \"progress_image\" = \"\";\n        \"recipes_count_text\" = \"\";\n        relationship = \"-1\";\n        title = \"\";\n        v = 0;\n        \"verified_image\" = \"\";\n    };\n}"
      ],
      "author_verified" : 0,
      "ipci" : "",
      "recipe_tags" : [

      ],
      "major" : [
        {
          "tu" : "https:\/\/m.douguo.com\/ingredients\/刀豆\/detailmaterial",
          "title" : "刀豆",
          "note" : "50g"
        },
        {
          "tu" : "https:\/\/m.douguo.com\/ingredients\/葱姜蒜\/detailmaterial",
          "title" : "葱姜蒜",
          "note" : "适量"
        },
        {
          "tu" : "https:\/\/m.douguo.com\/ingredients\/小米椒\/detailmaterial",
          "note" : "适量",
          "title" : "小米椒"
        },
        {
          "tu" : "https:\/\/m.douguo.com\/ingredients\/冰糖\/detailmaterial",
          "note" : "250克",
          "title" : "冰糖"
        },
        {
          "title" : "白醋",
          "tu" : "https:\/\/m.douguo.com\/ingredients\/白醋\/detailmaterial",
          "note" : "150ml"
        }
      ],
      "ecs" : 1,
      "rate_show" : 0,
      "guide_image" : "",
      "photo_path" : "https:\/\/i1.douguo.com\/upload\/caiku\/8\/b\/6\/600_8beac546ba9a24f9b62417582586fc76.jpg",
      "eu" : "recipes:\/\/www.douguo.com\/postdetail?id=242016",
      "image" : "http:\/\/i1.douguo.net\/upload\/caiku\/8\/b\/6\/300_8beac546ba9a24f9b62417582586fc76.jpg",
      "rsm" : "该功能暂停使用",
      "ipoi" : "",
      "vfurl" : "",
      "packages_id" : [

      ],
      "recommend_label" : "12.1万人看过",
      "views_count_text" : "12.1万",
      "brand_day_dsp" : [

      ],
      "vc" : "121300",
      "ipurl" : "",
      "release_time" : "",
      "ipit" : 0,
      "author_id" : 17421453,
      "related_ads" : [

      ],
      "display_ingredient" : 1,
      "btm_dsp" : [

      ],
      "sr" : "",
      "create_time" : "2018-10-02 18:46:50",
      "tips" : "",
      "rcs" : [

      ],
      "v_u" : "",
      "ipt" : "",
      "old_comments" : [

      ],
      "top_mdsp" : [

      ],
      "cookstorys" : [
        {
          "c" : "心心念念的刀豆，终于可以做了，",
          "u" : "",
          "icon" : "",
          "type" : 0,
          "color" : "",
          "id" : 0
        }
      ],
      "rpid" : 0,
      "rips" : 0,
      "cook_id" : "1707552",
      "collect_status" : 0,
      "story_dsp" : [

      ],
      "favo_counts_text" : "328",
      "comments_count_text" : "13",
      "title" : "泡刀豆",
      "notes" : [

      ],
      "share_info" : {
        "image" : "https:\/\/cp1.douguo.com\/upload\/caiku\/8\/b\/6\/8beac546ba9a24f9b62417582586fc76.jpg",
        "infos" : [
          {
            "s_u" : "",
            "qr_image" : "",
            "image" : "https:\/\/cp1.douguo.com\/upload\/caiku\/8\/b\/6\/8beac546ba9a24f9b62417582586fc76.jpg",
            "channel" : "1",
            "mini_program" : [

            ],
            "name" : "泡刀豆-会做饭很酷!",
            "s_d" : "#学做饭用豆果美食#  我在@豆果美食 分享了【泡刀豆-会做饭很酷!】，制作美食的过程承载了我生活中的热情，和我一起感受这份小确幸吧！查看图片了解菜谱（你喜欢的美食都在这里！https:\/\/m.weibo.cn\/p\/100404i33631）#会做饭很酷# ",
            "object_id" : "1707552"
          },
          {
            "s_d" : "泡刀豆-会做饭很酷!",
            "s_u" : "http:\/\/m.douguo.com\/cookbook\/1707552.html",
            "object_id" : "1707552",
            "image" : "https:\/\/cp1.douguo.com\/upload\/caiku\/8\/b\/6\/8beac546ba9a24f9b62417582586fc76.jpg",
            "channel" : "7",
            "name" : "泡刀豆-会做饭很酷!",
            "mini_program" : [

            ],
            "qr_image" : ""
          },
          {
            "mini_program" : [

            ],
            "object_id" : "1707552",
            "channel" : "8",
            "image" : "https:\/\/cp1.douguo.com\/upload\/caiku\/8\/b\/6\/8beac546ba9a24f9b62417582586fc76.jpg",
            "qr_image" : "",
            "s_u" : "http:\/\/m.douguo.com\/cookbook\/1707552.html",
            "s_d" : "泡刀豆-会做饭很酷!",
            "name" : "泡刀豆-会做饭很酷!"
          }
        ],
        "s_d" : "泡刀豆-会做饭很酷!",
        "object_id" : "1707552",
        "mini_program" : [

        ],
        "name" : "泡刀豆-会做饭很酷!",
        "qr_image" : "",
        "s_u" : "http:\/\/m.douguo.com\/cookbook\/1707552.html"
      },
      "recent_comments" : [

      ],
      "recommendation_tag" : "",
      "recipe_list_tags" : [
        {
          "text_color" : "#141515",
          "background_start_color" : "#F4F5F5",
          "right_image" : "",
          "jump_url" : "",
          "text" : "关注的人",
          "background_border_color" : "",
          "background_end_color" : "#F4F5F5"
        }
      ],
      "rrpt" : "",
      "cookstep" : [
        {
          "image_height" : 607,
          "position" : 1,
          "content" : "准备材料:新鲜的刀豆、姜切片",
          "thumb" : "https:\/\/i1.douguo.com\/upload\/caiku\/e\/3\/9\/140_e3c2525657b22094d2fb035f83260619.jpg",
          "frame" : "-1",
          "image" : "https:\/\/i1.douguo.com\/upload\/caiku\/e\/3\/9\/e3c2525657b22094d2fb035f83260619.jpg",
          "image_width" : 800
        },
        {
          "thumb" : "https:\/\/i1.douguo.com\/upload\/caiku\/f\/4\/b\/140_f4046592fdd38d17ff2c1e6513f967bb.jpg",
          "content" : "刀豆尽量切薄一点",
          "frame" : "-1",
          "image_height" : 1440,
          "position" : 2,
          "image" : "https:\/\/i1.douguo.com\/upload\/caiku\/f\/4\/b\/f4046592fdd38d17ff2c1e6513f967bb.jpg",
          "image_width" : 1920
        },
        {
          "image_height" : 1067,
          "frame" : "-1",
          "position" : 3,
          "image_width" : 800,
          "thumb" : "https:\/\/i1.douguo.com\/upload\/caiku\/c\/d\/d\/140_cdc42ce163a8a04b27e4fa10722b10dd.jpg",
          "image" : "https:\/\/i1.douguo.com\/upload\/caiku\/c\/d\/d\/cdc42ce163a8a04b27e4fa10722b10dd.jpg",
          "content" : "一层刀豆一层姜、蒜、辣椒，一层一层的叠加。"
        },
        {
          "frame" : "-1",
          "image_height" : 1067,
          "image_width" : 800,
          "thumb" : "https:\/\/i1.douguo.com\/upload\/caiku\/3\/d\/3\/140_3d1b826e498d0c5902db0bd08793b4d3.jpg",
          "position" : 4,
          "content" : "倒入白醋还有凉开水",
          "image" : "https:\/\/i1.douguo.com\/upload\/caiku\/3\/d\/3\/3d1b826e498d0c5902db0bd08793b4d3.jpg"
        },
        {
          "image_height" : 600,
          "position" : 5,
          "content" : "在上面放入冰糖，密封放入阴凉的地方，泡两天就可以食用了。",
          "thumb" : "https:\/\/i1.douguo.com\/upload\/caiku\/6\/3\/2\/140_63434ecb37eec64252df9d0591d9ea92.jpg",
          "frame" : "-1",
          "image_width" : 800,
          "image" : "https:\/\/i1.douguo.com\/upload\/caiku\/6\/3\/2\/63434ecb37eec64252df9d0591d9ea92.jpg"
        }
      ],
      "cook_time" : "",
      "cookstory" : "心心念念的刀豆，终于可以做了，",
      "author_photo" : "http:\/\/tx1.douguo.net\/upload\/photo\/c\/d\/b\/70_u63184668146111190255.jpeg",
      "levelid" : 3,
      "thumb_path" : "https:\/\/i1.douguo.com\/upload\/caiku\/8\/b\/6\/300_8beac546ba9a24f9b62417582586fc76.jpg",
      "ph" : 600,
      "rrps" : [

      ],
      "rpst" : "",
      "user" : {
        "birthday" : "",
        "avatar_medium" : "http:\/\/tx1.douguo.net\/upload\/photo\/c\/d\/b\/140_u63184668146111190255.jpeg",
        "qq_weibo_nick" : "",
        "user_id" : "17421453",
        "qzone_nick" : "",
        "recipes_count" : 0,
        "user_large_photo" : "http:\/\/tx1.douguo.net\/upload\/photo\/c\/d\/b\/yuan_u63184668146111190255.jpeg",
        "user_photo" : "http:\/\/tx1.douguo.net\/upload\/photo\/c\/d\/b\/70_u63184668146111190255.jpeg",
        "favor_diaries_count" : 0,
        "subscription" : 0,
        "sign" : "",
        "verified_image" : "",
        "is_prime" : 0,
        "followers_count" : 0,
        "following_count" : 0,
        "lv" : 0,
        "email" : "",
        "user_cover" : "",
        "coursecount" : 0,
        "setted_email" : 0,
        "favorites_count" : 0,
        "lvl" : 4,
        "location" : 0,
        "point" : 0,
        "verified" : 0,
        "pc" : 0,
        "progress_image" : "",
        "subscription_article_count" : 0,
        "fc" : 0,
        "nick" : "coisini…",
        "verified_url" : "https:\/\/m.douguo.com\/user\/prodesc",
        "mobile" : "",
        "dishes_count" : 0,
        "age" : "",
        "regist_time" : "",
        "gender" : 2,
        "weibo_nick" : "",
        "diaries_count" : 0,
        "introduction" : "",
        "userid" : "17421453"
      },
      "rate" : 0,
      "author" : "coisini…",
      "dishes" : [

      ],
      "su" : "",
      "original_photo_path" : "http:\/\/i1.douguo.net\/upload\/caiku\/8\/b\/6\/yuan_8beac546ba9a24f9b62417582586fc76.jpg",
      "hqu" : "recipes:\/\/www.douguo.com\/notedetail?id=21162253",
      "pw" : 800,
      "title_ad" : [

      ],
      "purl" : "",
      "recommended" : 0,
      "cook_time_image" : "",
      "ssu" : "",
      "comments_count" : 13,
      "dish_count_text" : "",
      "clicks" : "109893",
      "minor" : [

      ],
      "ss" : [

      ],
      "favo_counts" : 328,
      "first_level_comment_count" : 8,
      "hq" : 0,
      "cookwares" : [

      ],
      "bs" : [

      ],
      "rewarded_video_dsp" : [

      ],
      "sc" : 0,
      "cook_difficulty_image" : "",
      "thumb_height" : 0,
      "advice" : {
        "da" : {
          "url" : "https:\/\/m.douguo.com\/recipe\/nutrient_self\/1707552",
          "iu" : "https:\/\/i1.douguo.com\/upload\/banner\/f\/4\/d\/f48877e53c37759bc12ac494be82ec8d.png",
          "t" : "查看详细分析"
        },
        "at" : "能有效控制体重～",
        "has" : [
          {
            "t" : "低热量",
            "url" : "recipes:\/\/www.douguo.com\/simplerecipelist?t=低热量&id=低热量"
          },
          {
            "url" : "recipes:\/\/www.douguo.com\/simplerecipelist?t=低盐&id=低盐",
            "t" : "低盐"
          }
        ]
      },
      "rpt" : "",
      "ipia" : [

      ],
      "tags" : [

      ],
      "rate_count" : 0,
      "cook_difficulty" : "",
      "mid_mdsp" : [

      ],
      "act_des" : "",
      "rdsps" : [

      ],
      "vu" : "",
      "dish_count" : 0
    }
  },
  "state" : "success"
}