{
  "state" : "success",
  "status" : 0,
  "result" : {
    "recipe" : {
      "rate_show" : 0,
      "rrps" : [

      ],
      "user" : {
        "verified_url" : "https:\/\/m.douguo.com\/user\/prodesc",
        "verified" : 1,
        "nick" : "Ann小叶子",
        "following_count" : 0,
        "qq_weibo_nick" : "",
        "user_id" : "4647169",
        "userid" : "4647169",
        "avatar_medium" : "http:\/\/tx1.douguo.net\/upload\/photo\/9\/d\/1\/140_u03341369637960190022.jpg",
        "followers_count" : 0,
        "birthday" : "",
        "regist_time" : "",
        "point" : 0,
        "setted_email" : 0,
        "diaries_count" : 0,
        "lvl" : 8,
        "location" : 0,
        "fc" : 0,
        "age" : "",
        "coursecount" : 0,
        "weibo_nick" : "",
        "gender" : 2,
        "is_prime" : 0,
        "subscription" : 0,
        "progress_image" : "",
        "user_photo" : "http:\/\/tx1.douguo.net\/upload\/photo\/9\/d\/1\/70_u03341369637960190022.jpg",
        "subscription_article_count" : 0,
        "mobile" : "",
        "user_cover" : "",
        "sign" : "",
        "qzone_nick" : "",
        "favor_diaries_count" : 0,
        "favorites_count" : 0,
        "introduction" : "",
        "dishes_count" : 0,
        "user_large_photo" : "http:\/\/tx1.douguo.net\/upload\/photo\/9\/d\/1\/yuan_u03341369637960190022.jpg",
        "recipes_count" : 0,
        "email" : "",
        "lv" : 0,
        "pc" : 0,
        "verified_image" : "https:\/\/i1.douguo.com\/upload\/note\/d\/a\/a\/da84247847aebe48d9dd0fcdac88862a.png"
      },
      "cook_difficulty_image" : "",
      "su" : "",
      "author_verified" : 1,
      "rips" : 0,
      "dishes" : [

      ],
      "bs" : [

      ],
      "sc" : 0,
      "author_id" : 4647169,
      "top_mdsp" : [

      ],
      "ecs" : 0,
      "cookstorys" : [

      ],
      "clicks" : "167907",
      "create_time" : "2017-04-22 20:30:48",
      "btm_dsp" : [

      ],
      "packages_id" : [

      ],
      "ipci" : "",
      "levelid" : 2,
      "related_ads" : [

      ],
      "cook_time" : "",
      "first_level_comment_count" : 68,
      "comments_count_text" : "84",
      "brand_day_dsp" : [

      ],
      "cookwares" : [

      ],
      "tags" : [

      ],
      "cookstep" : [
        {
          "position" : 1,
          "image" : "https:\/\/i1.douguo.com\/upload\/caiku\/0\/4\/8\/044f0f6ca873bc95d16be521cf9ed1a8.jpg",
          "thumb" : "https:\/\/i1.douguo.com\/upload\/caiku\/0\/4\/8\/140_044f0f6ca873bc95d16be521cf9ed1a8.jpg",
          "frame" : "-1",
          "image_width" : 800,
          "content" : "适量面粉加入适量水活成面团（看自己做的量多少，一个人量一次性杯子一杯面粉）盖上保鲜膜醒发半个小时",
          "image_height" : 600
        },
        {
          "content" : "把醒发的面团揉成光滑的面团，把发好的面团揪成两个剂子",
          "frame" : "-1",
          "image_width" : 800,
          "image_height" : 600,
          "thumb" : "https:\/\/i1.douguo.com\/upload\/caiku\/a\/7\/9\/140_a7704c66be245131846ce93c32ec3479.jpg",
          "position" : 2,
          "image" : "https:\/\/i1.douguo.com\/upload\/caiku\/a\/7\/9\/a7704c66be245131846ce93c32ec3479.jpg"
        },
        {
          "position" : 3,
          "image_height" : 600,
          "image" : "https:\/\/i1.douguo.com\/upload\/caiku\/e\/7\/2\/e70cb586a51bfc61007d601341d07652.jpg",
          "frame" : "-1",
          "thumb" : "https:\/\/i1.douguo.com\/upload\/caiku\/e\/7\/2\/140_e70cb586a51bfc61007d601341d07652.jpg",
          "image_width" : 800,
          "content" : "取一个剂子，擀成薄饼皮"
        },
        {
          "content" : "锅中滴少许油，中火，放入擀好的面皮，烙至两面起花",
          "image_width" : 800,
          "position" : 4,
          "image" : "https:\/\/i1.douguo.com\/upload\/caiku\/3\/7\/e\/37fdf50fecd9d221a995313e5aaa5fbe.jpg",
          "frame" : "-1",
          "image_height" : 1030,
          "thumb" : "https:\/\/i1.douguo.com\/upload\/caiku\/3\/7\/e\/140_37fdf50fecd9d221a995313e5aaa5fbe.jpg"
        },
        {
          "position" : 5,
          "content" : "饼上打入一个鸡蛋，摊均匀，烙至鸡蛋半凝固时翻面在接着烙完全凝固时取出",
          "thumb" : "https:\/\/i1.douguo.com\/upload\/caiku\/1\/9\/0\/140_193ec9ad8e46f98f991a1cee2737cb30.jpg",
          "image_width" : 800,
          "frame" : "-1",
          "image" : "https:\/\/i1.douguo.com\/upload\/caiku\/1\/9\/0\/193ec9ad8e46f98f991a1cee2737cb30.jpg",
          "image_height" : 899
        },
        {
          "position" : 6,
          "frame" : "-1",
          "thumb" : "https:\/\/i1.douguo.com\/upload\/caiku\/d\/d\/d\/140_dd8cfc6d0fa4b35730310403c655436d.jpg",
          "image_height" : 642,
          "image_width" : 800,
          "content" : "抹上辣椒酱（或者自己喜欢的其它酱）",
          "image" : "https:\/\/i1.douguo.com\/upload\/caiku\/d\/d\/d\/dd8cfc6d0fa4b35730310403c655436d.jpg"
        },
        {
          "thumb" : "https:\/\/i1.douguo.com\/upload\/caiku\/7\/d\/d\/140_7d7219a1757464702a0a3e3b7f5efadd.jpg",
          "content" : "放两片生菜，火腿肠，黄瓜条",
          "image_height" : 600,
          "image" : "https:\/\/i1.douguo.com\/upload\/caiku\/7\/d\/d\/7d7219a1757464702a0a3e3b7f5efadd.jpg",
          "position" : 7,
          "image_width" : 800,
          "frame" : "-1"
        },
        {
          "image_width" : 800,
          "position" : 8,
          "content" : "卷起来，从中间切开",
          "frame" : "-1",
          "thumb" : "https:\/\/i1.douguo.com\/upload\/caiku\/8\/f\/1\/140_8fd6b2b1ffc7cb854eef049d34c5ae21.jpg",
          "image_height" : 600,
          "image" : "https:\/\/i1.douguo.com\/upload\/caiku\/8\/f\/1\/8fd6b2b1ffc7cb854eef049d34c5ae21.jpg"
        },
        {
          "thumb" : "https:\/\/i1.douguo.com\/upload\/caiku\/b\/f\/b\/140_bfb363975d3bd296b414cd66ee49f18b.jpg",
          "image_height" : 573,
          "position" : 9,
          "image_width" : 800,
          "content" : "成品图",
          "frame" : "-1",
          "image" : "https:\/\/i1.douguo.com\/upload\/caiku\/b\/f\/b\/bfb363975d3bd296b414cd66ee49f18b.jpg"
        }
      ],
      "rsm" : "该功能暂停使用",
      "thumb_height" : 0,
      "minor" : [

      ],
      "hq" : 1,
      "story_dsp" : [

      ],
      "cookstory" : "",
      "cook_id" : "1541587",
      "recipe_tags" : [

      ],
      "rcs" : [

      ],
      "rate" : 4,
      "sr" : "",
      "dish_count_text" : "10",
      "ipia" : [

      ],
      "pw" : 800,
      "vu" : "",
      "cook_time_image" : "",
      "recipe_list_tags" : [
        {
          "jump_url" : "",
          "background_end_color" : "#F4F5F5",
          "text" : "关注的人",
          "background_start_color" : "#F4F5F5",
          "background_border_color" : "",
          "right_image" : "",
          "text_color" : "#141515"
        }
      ],
      "eu" : "recipes:\/\/www.douguo.com\/postdetail?id=242016",
      "recommend_label" : "10人学做",
      "notes" : [

      ],
      "ss" : [

      ],
      "comments_count" : 84,
      "v_u" : "",
      "display_ingredient" : 1,
      "vfurl" : "",
      "recommendation_tag" : "",
      "hqu" : "recipes:\/\/www.douguo.com\/notedetail?id=21162253",
      "release_time" : "",
      "vc" : "216033",
      "mid_mdsp" : [

      ],
      "original_photo_path" : "http:\/\/i1.douguo.net\/upload\/caiku\/9\/2\/7\/yuan_92f44fce856f17519a36ba01c3039277.jpg",
      "ipurl" : "",
      "title" : "早餐鸡蛋饼",
      "ssu" : "",
      "purl" : "",
      "old_comments" : [

      ],
      "thumb_path" : "https:\/\/i1.douguo.com\/upload\/caiku\/9\/2\/7\/300_92f44fce856f17519a36ba01c3039277.jpg",
      "favo_counts" : 3578,
      "favo_counts_text" : "3578",
      "rate_count" : 10,
      "title_ad" : [

      ],
      "guide_image" : "",
      "major" : [
        {
          "tu" : "https:\/\/m.douguo.com\/ingredients\/鸡蛋\/detailmaterial",
          "title" : "鸡蛋",
          "note" : "2个"
        },
        {
          "tu" : "https:\/\/m.douguo.com\/ingredients\/生菜\/detailmaterial",
          "title" : "生菜",
          "note" : "1棵"
        },
        {
          "title" : "发面团",
          "note" : "适量"
        },
        {
          "note" : "2根",
          "tu" : "https:\/\/m.douguo.com\/ingredients\/火腿\/detailmaterial",
          "title" : "火腿"
        },
        {
          "title" : "辣酱",
          "note" : "适量"
        },
        {
          "tu" : "https:\/\/m.douguo.com\/ingredients\/黄瓜\/detailmaterial",
          "title" : "黄瓜",
          "note" : "适量"
        },
        {
          "note" : "适量",
          "tu" : "https:\/\/m.douguo.com\/ingredients\/油\/detailmaterial",
          "title" : "油"
        }
      ],
      "tips" : "",
      "rpt" : "",
      "ipt" : "",
      "ph" : 573,
      "collect_status" : 0,
      "image" : "http:\/\/i1.douguo.net\/upload\/caiku\/9\/2\/7\/300_92f44fce856f17519a36ba01c3039277.jpg",
      "share_info" : {
        "name" : "早餐鸡蛋饼#鲜香滋味搞定萌娃#-会做饭很酷!",
        "infos" : [
          {
            "name" : "早餐鸡蛋饼#鲜香滋味搞定萌娃#-会做饭很酷!",
            "channel" : "1",
            "mini_program" : [

            ],
            "s_u" : "",
            "object_id" : "1541587",
            "s_d" : "#学做饭用豆果美食# 会做饭真是好酷啊！我在@豆果美食 分享了【早餐鸡蛋饼#鲜香滋味搞定萌娃#-会做饭很酷!】，快来康康我这道菜做的怎么样～美味停不下来！查看图片了解菜谱（你喜欢的美食都在这里！https:\/\/m.weibo.cn\/p\/100404i33631）",
            "qr_image" : "",
            "image" : "https:\/\/cp1.douguo.com\/upload\/caiku\/9\/2\/7\/92f44fce856f17519a36ba01c3039277.jpg"
          },
          {
            "name" : "早餐鸡蛋饼#鲜香滋味搞定萌娃#-会做饭很酷!",
            "qr_image" : "",
            "mini_program" : [

            ],
            "s_d" : "早餐鸡蛋饼#鲜香滋味搞定萌娃#-会做饭很酷!",
            "image" : "https:\/\/cp1.douguo.com\/upload\/caiku\/9\/2\/7\/92f44fce856f17519a36ba01c3039277.jpg",
            "s_u" : "http:\/\/m.douguo.com\/cookbook\/1541587.html",
            "channel" : "7",
            "object_id" : "1541587"
          },
          {
            "object_id" : "1541587",
            "image" : "https:\/\/cp1.douguo.com\/upload\/caiku\/9\/2\/7\/92f44fce856f17519a36ba01c3039277.jpg",
            "s_d" : "早餐鸡蛋饼#鲜香滋味搞定萌娃#-会做饭很酷!",
            "channel" : "8",
            "qr_image" : "",
            "s_u" : "http:\/\/m.douguo.com\/cookbook\/1541587.html",
            "name" : "早餐鸡蛋饼#鲜香滋味搞定萌娃#-会做饭很酷!",
            "mini_program" : [

            ]
          }
        ],
        "image" : "https:\/\/cp1.douguo.com\/upload\/caiku\/9\/2\/7\/92f44fce856f17519a36ba01c3039277.jpg",
        "qr_image" : "",
        "s_u" : "http:\/\/m.douguo.com\/cookbook\/1541587.html",
        "mini_program" : [

        ],
        "object_id" : "1541587",
        "s_d" : "早餐鸡蛋饼#鲜香滋味搞定萌娃#-会做饭很酷!"
      },
      "author_photo" : "http:\/\/tx1.douguo.net\/upload\/photo\/9\/d\/1\/70_u03341369637960190022.jpg",
      "recent_comments" : [

      ],
      "photo_path" : "https:\/\/i1.douguo.com\/upload\/caiku\/9\/2\/7\/600_92f44fce856f17519a36ba01c3039277.jpg",
      "dish_count" : 10,
      "rrpt" : "",
      "advice" : {
        "has" : [
          {
            "url" : "recipes:\/\/www.douguo.com\/simplerecipelist?t=低糖&id=低糖",
            "t" : "低糖"
          }
        ],
        "da" : {
          "url" : "https:\/\/m.douguo.com\/recipe\/nutrient_self\/1541587",
          "iu" : "https:\/\/i1.douguo.com\/upload\/banner\/f\/4\/d\/f48877e53c37759bc12ac494be82ec8d.png",
          "t" : "查看详细分析"
        },
        "at" : "能帮助你减脂、控血糖～"
      },
      "rewarded_video_dsp" : [

      ],
      "views_count_text" : "21.6万",
      "rpid" : 0,
      "act_des" : "",
      "recommended" : 0,
      "ipoi" : "",
      "ipit" : 0,
      "comments" : [
        "{\n    ac = \"#999999\";\n    at = \"\";\n    ccc = 3;\n    \"child_comments\" =     (\n                {\n            ac = \"#999999\";\n            at = \"\";\n            ccc = 0;\n            city = \"\";\n            cmc = 2;\n            content =             (\n                                {\n                    c = \" \\U5c31\\U5728\\U6211\\U4e0a\\U9762\";\n                }\n            );\n            ia = 1;\n            id = 4670389;\n            \"ip_address_location\" = \"\";\n            like = 0;\n            \"like_count\" = 0;\n            \"reply_id\" = 4669343;\n            \"reply_user\" =             {\n                \"followers_count_text\" = \"\";\n                id = 17538361;\n                \"is_prime\" = 0;\n                lv = 0;\n                lvl = 6;\n                n = \"\\U5927\\U857e\\U857e\\U7684\\U857e\";\n                p = \"http:\/\/tx1.douguo.net\/upload\/photo\/6\/2\/d\/70_u64258123216288201720.jpg\";\n                \"progress_image\" = \"\";\n                \"recipes_count_text\" = \"\";\n                relationship = \"-1\";\n                title = \"\";\n                v = 0;\n                \"verified_image\" = \"\";\n            };\n            \"sticker_icon\" =             (\n            );\n            time = \"2017-04-24 06:57:45\";\n            u =             {\n                \"followers_count_text\" = \"\";\n                id = 4647169;\n                \"is_prime\" = 0;\n                lv = 0;\n                lvl = 8;\n                n = \"Ann\\U5c0f\\U53f6\\U5b50\";\n                p = \"http:\/\/tx1.douguo.net\/upload\/photo\/9\/d\/1\/70_u03341369637960190022.jpg\";\n                \"progress_image\" = \"\";\n                \"recipes_count_text\" = \"\";\n                relationship = \"-1\";\n                title = \"\";\n                v = 1;\n                \"verified_image\" = \"\";\n            };\n        },\n                {\n            ac = \"#999999\";\n            at = \"\";\n            ccc = 0;\n            city = \"\";\n            cmc = 2;\n            content =             (\n                                {\n                    c = \" \\U55ef\\Uff0c\\U597d\\U5de7\";\n                }\n            );\n            ia = 0;\n            id = 4671502;\n            \"ip_address_location\" = \"\";\n            like = 0;\n            \"like_count\" = 0;\n            \"reply_id\" = 4670389;\n            \"reply_user\" =             {\n                \"followers_count_text\" = \"\";\n                id = 4647169;\n                \"is_prime\" = 0;\n                lv = 0;\n                lvl = 8;\n                n = \"Ann\\U5c0f\\U53f6\\U5b50\";\n                p = \"http:\/\/tx1.douguo.net\/upload\/photo\/9\/d\/1\/70_u03341369637960190022.jpg\";\n                \"progress_image\" = \"\";\n                \"recipes_count_text\" = \"\";\n                relationship = \"-1\";\n                title = \"\";\n                v = 1;\n                \"verified_image\" = \"\";\n            };\n            \"sticker_icon\" =             (\n            );\n            time = \"2017-04-24 13:29:51\";\n            u =             {\n                \"followers_count_text\" = \"\";\n                id = 17538361;\n                \"is_prime\" = 0;\n                lv = 0;\n                lvl = 6;\n                n = \"\\U5927\\U857e\\U857e\\U7684\\U857e\";\n                p = \"http:\/\/tx1.douguo.net\/upload\/photo\/6\/2\/d\/70_u64258123216288201720.jpg\";\n                \"progress_image\" = \"\";\n                \"recipes_count_text\" = \"\";\n                relationship = \"-1\";\n                title = \"\";\n                v = 0;\n                \"verified_image\" = \"\";\n            };\n        }\n    );\n    city = \"\";\n    cmc = 2;\n    content =     (\n                {\n            c = \"82\\Uff0c\";\n        }\n    );\n    ia = 0;\n    id = 4669343;\n    \"ip_address_location\" = \"\";\n    like = 0;\n    \"like_count\" = 0;\n    \"reply_id\" = 0;\n    \"sticker_icon\" =     (\n    );\n    time = \"2017-04-24 00:32:31\";\n    u =     {\n        \"followers_count_text\" = \"\";\n        id = 17538361;\n        \"is_prime\" = 0;\n        lv = 0;\n        lvl = 6;\n        n = \"\\U5927\\U857e\\U857e\\U7684\\U857e\";\n        p = \"http:\/\/tx1.douguo.net\/upload\/photo\/6\/2\/d\/70_u64258123216288201720.jpg\";\n        \"progress_image\" = \"\";\n        \"recipes_count_text\" = \"\";\n        relationship = \"-1\";\n        title = \"\";\n        v = 0;\n        \"verified_image\" = \"\";\n    };\n}",
        "{\n    ac = \"#999999\";\n    at = \"\";\n    ccc = 1;\n    \"child_comments\" =     (\n                {\n            ac = \"#999999\";\n            at = \"\\U5f90\\U5dde\\U5e02\";\n            ccc = 0;\n            city = \"\\U5f90\\U5dde\\U5e02\";\n            cmc = 2;\n            content =             (\n                                {\n                    c = \" \\U666e\\U901a\\U5c31\\U53ef\\U4ee5\";\n                }\n            );\n            ia = 1;\n            id = 6058917;\n            \"ip_address_location\" = \"\";\n            like = 0;\n            \"like_count\" = 0;\n            \"reply_id\" = 6056636;\n            \"reply_user\" =             {\n                \"followers_count_text\" = \"\";\n                id = 10999142;\n                \"is_prime\" = 0;\n                lv = 0;\n                lvl = 3;\n                n = \"\\U897f\\U897f\\U80d6\\U80d6\";\n                p = \"http:\/\/tx1.douguo.net\/upload\/photo\/4\/1\/1\/70_u40218118236689123139.jpeg\";\n                \"progress_image\" = \"\";\n                \"recipes_count_text\" = \"\";\n                relationship = \"-1\";\n                title = \"\";\n                v = 0;\n                \"verified_image\" = \"\";\n            };\n            \"sticker_icon\" =             (\n            );\n            time = \"2018-09-20 17:29:24\";\n            u =             {\n                \"followers_count_text\" = \"\";\n                id = 4647169;\n                \"is_prime\" = 0;\n                lv = 0;\n                lvl = 8;\n                n = \"Ann\\U5c0f\\U53f6\\U5b50\";\n                p = \"http:\/\/tx1.douguo.net\/upload\/photo\/9\/d\/1\/70_u03341369637960190022.jpg\";\n                \"progress_image\" = \"\";\n                \"recipes_count_text\" = \"\";\n                relationship = \"-1\";\n                title = \"\";\n                v = 1;\n                \"verified_image\" = \"\";\n            };\n        }\n    );\n    city = \"\";\n    cmc = 2;\n    content =     (\n                {\n            c = \"\\U9762\\U7c89\\U6709\\U8981\\U6c42\\U5417\";\n        }\n    );\n    ia = 0;\n    id = 6056636;\n    \"ip_address_location\" = \"\";\n    like = 0;\n    \"like_count\" = 0;\n    \"reply_id\" = 0;\n    \"sticker_icon\" =     (\n    );\n    time = \"2018-09-19 12:44:03\";\n    u =     {\n        \"followers_count_text\" = \"\";\n        id = 10999142;\n        \"is_prime\" = 0;\n        lv = 0;\n        lvl = 3;\n        n = \"\\U897f\\U897f\\U80d6\\U80d6\";\n        p = \"http:\/\/tx1.douguo.net\/upload\/photo\/4\/1\/1\/70_u40218118236689123139.jpeg\";\n        \"progress_image\" = \"\";\n        \"recipes_count_text\" = \"\";\n        relationship = \"-1\";\n        title = \"\";\n        v = 0;\n        \"verified_image\" = \"\";\n    };\n}",
        "{\n    ac = \"#999999\";\n    at = \"\";\n    ccc = 1;\n    \"child_comments\" =     (\n                {\n            ac = \"#999999\";\n            at = \"\";\n            ccc = 0;\n            city = \"\";\n            cmc = 2;\n            content =             (\n                                {\n                    c = \" \\U8c22\\U8c22\";\n                }\n            );\n            ia = 1;\n            id = 5038920;\n            \"ip_address_location\" = \"\";\n            like = 0;\n            \"like_count\" = 0;\n            \"reply_id\" = 5036131;\n            \"reply_user\" =             {\n                \"followers_count_text\" = \"\";\n                id = 10107712;\n                \"is_prime\" = 0;\n                lv = 0;\n                lvl = 6;\n                n = \"\\U8c46\\U7c895695826\";\n                p = \"http:\/\/tx1.douguo.net\/upload\/photo\/8\/8\/0\/70_u35569582296112174833.jpg\";\n                \"progress_image\" = \"\";\n                \"recipes_count_text\" = \"\";\n                relationship = \"-1\";\n                title = \"\";\n                v = 0;\n                \"verified_image\" = \"\";\n            };\n            \"sticker_icon\" =             (\n            );\n            time = \"2017-09-03 12:48:34\";\n            u =             {\n                \"followers_count_text\" = \"\";\n                id = 4647169;\n                \"is_prime\" = 0;\n                lv = 0;\n                lvl = 8;\n                n = \"Ann\\U5c0f\\U53f6\\U5b50\";\n                p = \"http:\/\/tx1.douguo.net\/upload\/photo\/9\/d\/1\/70_u03341369637960190022.jpg\";\n                \"progress_image\" = \"\";\n                \"recipes_count_text\" = \"\";\n                relationship = \"-1\";\n                title = \"\";\n                v = 1;\n                \"verified_image\" = \"\";\n            };\n        }\n    );\n    city = \"\";\n    cmc = 2;\n    content =     (\n                {\n            c = \"\\U8d5e\\U54e6\";\n        }\n    );\n    ia = 0;\n    id = 5036131;\n    \"ip_address_location\" = \"\";\n    like = 0;\n    \"like_count\" = 0;\n    \"reply_id\" = 0;\n    \"sticker_icon\" =     (\n    );\n    time = \"2017-09-02 08:26:17\";\n    u =     {\n        \"followers_count_text\" = \"\";\n        id = 10107712;\n        \"is_prime\" = 0;\n        lv = 0;\n        lvl = 6;\n        n = \"\\U8c46\\U7c895695826\";\n        p = \"http:\/\/tx1.douguo.net\/upload\/photo\/8\/8\/0\/70_u35569582296112174833.jpg\";\n        \"progress_image\" = \"\";\n        \"recipes_count_text\" = \"\";\n        relationship = \"-1\";\n        title = \"\";\n        v = 0;\n        \"verified_image\" = \"\";\n    };\n}"
      ],
      "author" : "Ann小叶子",
      "rpst" : "",
      "event" : {
        "id" : 0
      },
      "cook_difficulty" : "",
      "rdsps" : [

      ]
    }
  }
}