{
  "status" : 0,
  "result" : {
    "recipe" : {
      "minor" : [

      ],
      "eu" : "recipes:\/\/www.douguo.com\/postdetail?id=242016",
      "share_info" : {
        "name" : "韭香虾仁蒸蛋-会做饭很酷!",
        "image" : "https:\/\/cp1.douguo.com\/upload\/caiku\/6\/8\/4\/68b9759db0621d2210a9dc3c21f574f4.jpg",
        "infos" : [
          {
            "s_d" : "#学做饭用豆果美食# 我在@豆果美食 分享了【韭香虾仁蒸蛋-会做饭很酷!】，帅哥美眉们～你们喜欢的美食来咯！快来跟我一起做吧～查看图片了解菜谱（想要获取更多美食就看这https:\/\/m.weibo.cn\/p\/100404i33631）#会做饭很酷#",
            "object_id" : "2332620",
            "mini_program" : [

            ],
            "image" : "https:\/\/cp1.douguo.com\/upload\/caiku\/6\/8\/4\/68b9759db0621d2210a9dc3c21f574f4.jpg",
            "channel" : "1",
            "s_u" : "",
            "qr_image" : "",
            "name" : "韭香虾仁蒸蛋-会做饭很酷!"
          },
          {
            "name" : "韭香虾仁蒸蛋-会做饭很酷!",
            "image" : "https:\/\/cp1.douguo.com\/upload\/caiku\/6\/8\/4\/68b9759db0621d2210a9dc3c21f574f4.jpg",
            "s_d" : "韭香虾仁蒸蛋-会做饭很酷!",
            "object_id" : "2332620",
            "qr_image" : "",
            "mini_program" : [

            ],
            "channel" : "7",
            "s_u" : "http:\/\/m.douguo.com\/cookbook\/2332620.html"
          },
          {
            "object_id" : "2332620",
            "channel" : "8",
            "s_d" : "韭香虾仁蒸蛋-会做饭很酷!",
            "qr_image" : "",
            "s_u" : "http:\/\/m.douguo.com\/cookbook\/2332620.html",
            "name" : "韭香虾仁蒸蛋-会做饭很酷!",
            "mini_program" : [

            ],
            "image" : "https:\/\/cp1.douguo.com\/upload\/caiku\/6\/8\/4\/68b9759db0621d2210a9dc3c21f574f4.jpg"
          }
        ],
        "mini_program" : [

        ],
        "s_u" : "http:\/\/m.douguo.com\/cookbook\/2332620.html",
        "qr_image" : "",
        "s_d" : "韭香虾仁蒸蛋-会做饭很酷!",
        "object_id" : "2332620"
      },
      "sc" : 0,
      "first_level_comment_count" : 17,
      "photo_path" : "https:\/\/i1.douguo.com\/upload\/caiku\/6\/8\/4\/600_68b9759db0621d2210a9dc3c21f574f4.jpg",
      "old_comments" : [

      ],
      "recommend_label" : "2270人刚刚收藏过",
      "comments_count" : 17,
      "cook_difficulty_image" : "https:\/\/i1.douguo.com\/upload\/banner\/1551424390.png",
      "cook_time" : "10分钟左右",
      "hqu" : "recipes:\/\/www.douguo.com\/notedetail?id=21162253",
      "ss" : [

      ],
      "author_verified" : 1,
      "cook_difficulty" : "切墩(初级)",
      "bs" : [

      ],
      "rate_count" : 0,
      "favo_counts_text" : "2270",
      "title" : "韭香虾仁蒸蛋",
      "recommendation_tag" : "",
      "top_mdsp" : [

      ],
      "rewarded_video_dsp" : [

      ],
      "tags" : [

      ],
      "mid_mdsp" : [

      ],
      "collect_status" : 0,
      "su" : "",
      "ipurl" : "",
      "rate_show" : 0,
      "favo_counts" : 2270,
      "related_ads" : [

      ],
      "image" : "http:\/\/i1.douguo.net\/upload\/caiku\/6\/8\/4\/300_68b9759db0621d2210a9dc3c21f574f4.jpg",
      "levelid" : 2,
      "thumb_path" : "https:\/\/i1.douguo.com\/upload\/caiku\/6\/8\/4\/300_68b9759db0621d2210a9dc3c21f574f4.jpg",
      "author" : "聪聪食光",
      "recent_comments" : [

      ],
      "ipci" : "",
      "hq" : 1,
      "sr" : "",
      "vu" : "",
      "rpid" : 0,
      "user" : {
        "verified_url" : "https:\/\/m.douguo.com\/user\/prodesc",
        "lvl" : 5,
        "pc" : 0,
        "setted_email" : 0,
        "is_prime" : 0,
        "subscription" : 0,
        "favor_diaries_count" : 0,
        "user_cover" : "",
        "lv" : 0,
        "following_count" : 0,
        "fc" : 0,
        "subscription_article_count" : 0,
        "nick" : "聪聪食光",
        "gender" : 2,
        "dishes_count" : 0,
        "favorites_count" : 0,
        "user_large_photo" : "http:\/\/tx1.douguo.net\/upload\/photo\/b\/0\/d\/yuan_b0ac11734e90f5c5522f2b93df050cbd.jpg",
        "verified" : 1,
        "weibo_nick" : "",
        "qq_weibo_nick" : "",
        "progress_image" : "",
        "point" : 0,
        "sign" : "",
        "user_photo" : "http:\/\/tx1.douguo.net\/upload\/photo\/b\/0\/d\/70_b0ac11734e90f5c5522f2b93df050cbd.jpg",
        "avatar_medium" : "http:\/\/tx1.douguo.net\/upload\/photo\/b\/0\/d\/140_b0ac11734e90f5c5522f2b93df050cbd.jpg",
        "verified_image" : "https:\/\/i1.douguo.com\/upload\/note\/d\/a\/a\/da84247847aebe48d9dd0fcdac88862a.png",
        "mobile" : "",
        "qzone_nick" : "",
        "userid" : "23157734",
        "introduction" : "",
        "diaries_count" : 0,
        "followers_count" : 0,
        "age" : "",
        "recipes_count" : 0,
        "user_id" : "23157734",
        "email" : "",
        "coursecount" : 0,
        "regist_time" : "",
        "birthday" : "",
        "location" : 0
      },
      "rpst" : "",
      "guide_image" : "",
      "cook_id" : "2332620",
      "recommended" : 0,
      "clicks" : "86187",
      "ph" : 427,
      "ssu" : "",
      "ipit" : 0,
      "vfurl" : "",
      "tips" : "1.鸡蛋和水的比例是1:1.5，一定混合均匀，不能出现蛋白蛋黄分离。\n\n2、混合好的蛋液要过筛，筛掉气泡和颗粒。\n\n3、蒸之前盖保鲜膜或者盘子，防止水分蒸发产生气泡。",
      "packages_id" : [

      ],
      "rips" : 0,
      "ecs" : 0,
      "author_photo" : "http:\/\/tx1.douguo.net\/upload\/photo\/b\/0\/d\/70_b0ac11734e90f5c5522f2b93df050cbd.jpg",
      "comments_count_text" : "17",
      "rdsps" : [

      ],
      "ipoi" : "",
      "brand_day_dsp" : [

      ],
      "recipe_tags" : [

      ],
      "dish_count" : 0,
      "act_des" : "",
      "recipe_list_tags" : [
        {
          "background_border_color" : "",
          "text" : "关注的人",
          "text_color" : "#141515",
          "right_image" : "",
          "background_start_color" : "#F4F5F5",
          "jump_url" : "",
          "background_end_color" : "#F4F5F5"
        },
        {
          "right_image" : "",
          "jump_url" : "",
          "background_border_color" : "",
          "background_start_color" : "#F4F5F5",
          "text_color" : "#141515",
          "background_end_color" : "#F4F5F5",
          "text" : "内容详细"
        }
      ],
      "cookstorys" : [
        {
          "u" : "",
          "id" : 0,
          "c" : "蒸鸡蛋糕在北方叫做鸡蛋糕，南方叫蒸水蛋，但做法是一致的，都是把鸡蛋打散，加入一定比例的水混合，使鸡蛋与水充分融合，然后再加入盐，油，胡椒粉等调味品，上锅蒸熟就可以吃了，这个做法真的超级简单，但是多数人蒸出的鸡蛋糕都不完美，鸡蛋加水蒸熟口感应该是非常软嫩而且没有气孔的，而有些人蒸出的鸡蛋糕口感偏老偏硬，有些人蒸出的有气孔，这些不完美的原因都是因为中间有几个小小的细节没有注意，下面我们详细讲解一下蒸鸡蛋糕的做法，我们在传统鸡蛋糕上又加了两种食材，鲜虾仁和韭菜末，有了这两味食材，鸡蛋糕不仅软嫩而且味道鲜美，直接从家常菜升级成宴客菜，这道菜不仅制作简单而且颜值高，让人食欲大增，下面我们一起来看一下这道菜的做法吧。",
          "type" : 0,
          "color" : "",
          "icon" : ""
        }
      ],
      "cookstep" : [
        {
          "thumb" : "https:\/\/i1.douguo.com\/upload\/caiku\/6\/6\/b\/140_66e5cf86fd9f7454e64eedb95ed3f5eb.jpg",
          "image" : "https:\/\/i1.douguo.com\/upload\/caiku\/6\/6\/b\/66e5cf86fd9f7454e64eedb95ed3f5eb.jpg",
          "position" : 1,
          "frame" : "-1",
          "image_width" : 640,
          "content" : "准备好所有的食材。",
          "image_height" : 480
        },
        {
          "image_width" : 640,
          "frame" : "-1",
          "image_height" : 480,
          "thumb" : "https:\/\/i1.douguo.com\/upload\/caiku\/9\/2\/1\/140_929108570ae432a9a9db3fc26ee7b461.jpg",
          "image" : "https:\/\/i1.douguo.com\/upload\/caiku\/9\/2\/1\/929108570ae432a9a9db3fc26ee7b461.jpg",
          "content" : "把鲜虾去皮剥出虾仁，并去除虾线。这里用鲜虾来剥虾仁，口感更新鲜，而且蒸熟的虾仁不会回缩很多，也可以用买现成的虾仁，但是现成的虾仁有的水分比较大，会多蒸出很多水分，影响鸡蛋糕的口感。",
          "position" : 2
        },
        {
          "frame" : "-1",
          "image_width" : 640,
          "content" : "鸡蛋加水放入碗中搅拌均匀，常规经验鸡蛋糕鸡蛋和水的比例是1:1.5，水的量是鸡蛋的1.5倍，你可以找一个电子秤来称一下，如果没有电子秤，可以在打鸡蛋的时候，鸡蛋一头磕一个口保留完整的鸡蛋壳，然后用鸡蛋壳来装水，4个鸡蛋用6鸡蛋壳的水，当然这个比例只是经验值，并不是非常严格，水量可以直接影响鸡蛋糕的口感，所以水量最低不能低于鸡蛋的一倍。",
          "thumb" : "https:\/\/i1.douguo.com\/upload\/caiku\/a\/c\/3\/140_ac11a18a58c2a3a06c7bbab1e5956013.jpg",
          "image_height" : 480,
          "image" : "https:\/\/i1.douguo.com\/upload\/caiku\/a\/c\/3\/ac11a18a58c2a3a06c7bbab1e5956013.jpg",
          "position" : 3
        },
        {
          "frame" : "-1",
          "image" : "https:\/\/i1.douguo.com\/upload\/caiku\/a\/7\/4\/a75ceeb3945fba5b7ae1f941b312b914.jpg",
          "content" : "在鸡蛋与水的混合液中加入盐，花椒粉，香油或者玉米油，混合均匀。",
          "thumb" : "https:\/\/i1.douguo.com\/upload\/caiku\/a\/7\/4\/140_a75ceeb3945fba5b7ae1f941b312b914.jpg",
          "image_width" : 640,
          "position" : 4,
          "image_height" : 480
        },
        {
          "image" : "https:\/\/i1.douguo.com\/upload\/caiku\/4\/b\/d\/4b95b110e87bb5914574bb40d0f1426d.jpg",
          "thumb" : "https:\/\/i1.douguo.com\/upload\/caiku\/4\/b\/d\/140_4b95b110e87bb5914574bb40d0f1426d.jpg",
          "image_width" : 640,
          "position" : 5,
          "image_height" : 480,
          "frame" : "-1",
          "content" : "这步比较关键，尽量不要省略，否则会影响鸡蛋糕的口感，把调好的鸡蛋液用筛网过一下筛，这一步既可以去除鸡蛋液中的杂质和颗粒物，也可以去除气泡。"
        },
        {
          "content" : "这步最关键，一定不能省略，在鸡蛋液碗上面盖一张保鲜膜，然后再上锅蒸，这一步是防止鸡蛋液沸腾里面水分蒸发流失，同时防止锅盖上的蒸汽滴入碗中，两者都会导致鸡蛋糕成品有气孔。保鲜膜一定选用耐高温的（大于100℃），如果家中没有保鲜膜，可以在碗上面盖一个盘子。然后放到蒸锅中，水开后蒸8分钟蒸至鸡蛋液基本凝固。",
          "image" : "https:\/\/i1.douguo.com\/upload\/caiku\/3\/7\/e\/37df4ebed787867dbd6cfb9a79255ede.jpg",
          "thumb" : "https:\/\/i1.douguo.com\/upload\/caiku\/3\/7\/e\/140_37df4ebed787867dbd6cfb9a79255ede.jpg",
          "image_height" : 480,
          "position" : 6,
          "image_width" : 640,
          "frame" : "-1"
        },
        {
          "thumb" : "https:\/\/i1.douguo.com\/upload\/caiku\/7\/d\/9\/140_7d1a0a0b9221d453d85961f9264f0c89.jpg",
          "image" : "https:\/\/i1.douguo.com\/upload\/caiku\/7\/d\/9\/7d1a0a0b9221d453d85961f9264f0c89.jpg",
          "frame" : "-1",
          "image_width" : 640,
          "content" : "在蒸鸡蛋糕过程中，切少许韭菜末备用。",
          "position" : 7,
          "image_height" : 480
        },
        {
          "image_height" : 480,
          "content" : "鸡蛋蒸凝固后，把鲜虾仁放在上面，一定保证鸡蛋糕蒸熟，否则虾仁会沉底。",
          "image_width" : 640,
          "frame" : "-1",
          "image" : "https:\/\/i1.douguo.com\/upload\/caiku\/0\/2\/b\/029ce91db0350e280c24bff37b3b647b.jpg",
          "position" : 8,
          "thumb" : "https:\/\/i1.douguo.com\/upload\/caiku\/0\/2\/b\/140_029ce91db0350e280c24bff37b3b647b.jpg"
        },
        {
          "frame" : "-1",
          "content" : "虾仁摆好，撒上少许韭菜末，继续上锅蒸5分钟。",
          "position" : 9,
          "image" : "https:\/\/i1.douguo.com\/upload\/caiku\/5\/e\/5\/5eb22c2d5c37416ee4725b7e98fd5175.jpg",
          "thumb" : "https:\/\/i1.douguo.com\/upload\/caiku\/5\/e\/5\/140_5eb22c2d5c37416ee4725b7e98fd5175.jpg",
          "image_width" : 640,
          "image_height" : 480
        }
      ],
      "rrpt" : "",
      "views_count_text" : "8.8万",
      "title_ad" : [

      ],
      "original_photo_path" : "http:\/\/i1.douguo.net\/upload\/caiku\/6\/8\/4\/yuan_68b9759db0621d2210a9dc3c21f574f4.jpg",
      "v_u" : "",
      "notes" : [

      ],
      "comments" : [
        "{\n    ac = \"#999999\";\n    at = \"\";\n    ccc = 0;\n    \"child_comments\" =     (\n    );\n    city = \"\";\n    cmc = 2;\n    content =     (\n                {\n            c = \"\\U8d85\\U68d2\\U7684\\Uff0c\\U5934\\U4e00\\U6b21\\U505a\\Uff0c\\U4e00\\U6b21\\U6210\\U529f\";\n        }\n    );\n    ia = 0;\n    id = 6925063;\n    \"ip_address_location\" = \"\";\n    like = 0;\n    \"like_count\" = 0;\n    \"reply_id\" = 0;\n    \"sticker_icon\" =     (\n    );\n    time = \"2019-08-19 12:28:03\";\n    u =     {\n        \"followers_count_text\" = \"\";\n        id = 23603692;\n        \"is_prime\" = 0;\n        lv = 0;\n        lvl = 6;\n        n = \"\\U8c46\\U7c89100549gyox\";\n        p = \"http:\/\/tx1.douguo.net\/upload\/photo\/9\/6\/d\/70_u6597427465630329225908.jpg\";\n        \"progress_image\" = \"\";\n        \"recipes_count_text\" = \"\";\n        relationship = \"-1\";\n        title = \"\";\n        v = 0;\n        \"verified_image\" = \"\";\n    };\n}",
        "{\n    ac = \"#999999\";\n    at = \"\";\n    ccc = 0;\n    \"child_comments\" =     (\n    );\n    city = \"\";\n    cmc = 2;\n    content =     (\n                {\n            c = \"\\U5f88\\U597d\\U5403~ \";\n        }\n    );\n    ia = 0;\n    id = 6925038;\n    \"ip_address_location\" = \"\";\n    like = 0;\n    \"like_count\" = 0;\n    \"reply_id\" = 0;\n    \"sticker_icon\" =     (\n    );\n    time = \"2019-08-19 12:19:03\";\n    u =     {\n        \"followers_count_text\" = \"\";\n        id = 18457699;\n        \"is_prime\" = 0;\n        lv = 0;\n        lvl = 6;\n        n = Olivezhouzhou;\n        p = \"http:\/\/tx1.douguo.net\/upload\/photo\/7\/b\/5\/70_u80430877274901210528.jpg\";\n        \"progress_image\" = \"\";\n        \"recipes_count_text\" = \"\";\n        relationship = \"-1\";\n        title = \"\";\n        v = 0;\n        \"verified_image\" = \"\";\n    };\n}",
        "{\n    ac = \"#999999\";\n    at = \"\";\n    ccc = 0;\n    \"child_comments\" =     (\n    );\n    city = \"\";\n    cmc = 2;\n    content =     (\n                {\n            c = \"\\U8fd9\\U4e2a\\U770b\\U7740\\U5c31\\U597d\\U5403\\U554a\\Uff0c\\U592a\\U8d5e\\U4e86\\U4e0d\\U9519\\U4e0d\\U9519\";\n        }\n    );\n    ia = 0;\n    id = 6925000;\n    \"ip_address_location\" = \"\";\n    like = 0;\n    \"like_count\" = 0;\n    \"reply_id\" = 0;\n    \"sticker_icon\" =     (\n    );\n    time = \"2019-08-19 12:10:10\";\n    u =     {\n        \"followers_count_text\" = \"\";\n        id = 23544788;\n        \"is_prime\" = 0;\n        lv = 0;\n        lvl = 1;\n        n = \"\\U4e00\\U57ce\\U5982\\U82b1\\U534a\\U501a\\U77f3\";\n        p = \"http:\/\/tx1.douguo.net\/upload\/photo\/e\/9\/b\/70_u73587736470329133942.jpg\";\n        \"progress_image\" = \"\";\n        \"recipes_count_text\" = \"\";\n        relationship = \"-1\";\n        title = \"\";\n        v = 0;\n        \"verified_image\" = \"\";\n    };\n}"
      ],
      "cookwares" : [

      ],
      "thumb_height" : 0,
      "display_ingredient" : 1,
      "release_time" : "",
      "rcs" : [

      ],
      "btm_dsp" : [

      ],
      "major" : [
        {
          "tu" : "https:\/\/m.douguo.com\/ingredients\/鸡蛋\/detailmaterial",
          "title" : "鸡蛋",
          "note" : "4个"
        },
        {
          "note" : "10只",
          "title" : "鲜虾"
        },
        {
          "tu" : "https:\/\/m.douguo.com\/ingredients\/韭菜\/detailmaterial",
          "title" : "韭菜",
          "note" : "1小把"
        },
        {
          "title" : "盐",
          "note" : "1小勺",
          "tu" : "https:\/\/m.douguo.com\/ingredients\/盐\/detailmaterial"
        },
        {
          "title" : "胡椒粉",
          "tu" : "https:\/\/m.douguo.com\/ingredients\/胡椒粉\/detailmaterial",
          "note" : "1小勺"
        },
        {
          "tu" : "https:\/\/m.douguo.com\/ingredients\/玉米油\/detailmaterial",
          "title" : "玉米油",
          "note" : "少许"
        },
        {
          "title" : "清水",
          "tu" : "https:\/\/m.douguo.com\/ingredients\/清水\/detailmaterial",
          "note" : "适量"
        }
      ],
      "purl" : "",
      "rsm" : "该功能暂停使用",
      "rrps" : [

      ],
      "cookstory" : "蒸鸡蛋糕在北方叫做鸡蛋糕，南方叫蒸水蛋，但做法是一致的，都是把鸡蛋打散，加入一定比例的水混合，使鸡蛋与水充分融合，然后再加入盐，油，胡椒粉等调味品，上锅蒸熟就可以吃了，这个做法真的超级简单，但是多数人蒸出的鸡蛋糕都不完美，鸡蛋加水蒸熟口感应该是非常软嫩而且没有气孔的，而有些人蒸出的鸡蛋糕口感偏老偏硬，有些人蒸出的有气孔，这些不完美的原因都是因为中间有几个小小的细节没有注意，下面我们详细讲解一下蒸鸡蛋糕的做法，我们在传统鸡蛋糕上又加了两种食材，鲜虾仁和韭菜末，有了这两味食材，鸡蛋糕不仅软嫩而且味道鲜美，直接从家常菜升级成宴客菜，这道菜不仅制作简单而且颜值高，让人食欲大增，下面我们一起来看一下这道菜的做法吧。",
      "cook_time_image" : "https:\/\/i1.douguo.com\/upload\/banner\/1551424358.png",
      "create_time" : "2019-08-16 23:08:43",
      "author_id" : 23157734,
      "story_dsp" : [

      ],
      "ipia" : [

      ],
      "dish_count_text" : "",
      "ipt" : "",
      "dishes" : [

      ],
      "rpt" : "",
      "vc" : "87764",
      "pw" : 640,
      "advice" : {
        "at" : "能帮助你减脂、控血糖～",
        "has" : [
          {
            "t" : "低糖",
            "url" : "recipes:\/\/www.douguo.com\/simplerecipelist?t=低糖&id=低糖"
          }
        ],
        "da" : {
          "url" : "https:\/\/m.douguo.com\/recipe\/nutrient_self\/2332620",
          "t" : "查看详细分析",
          "iu" : "https:\/\/i1.douguo.com\/upload\/banner\/f\/4\/d\/f48877e53c37759bc12ac494be82ec8d.png"
        }
      },
      "rate" : 0
    }
  },
  "state" : "success"
}