{
  "status" : 0,
  "result" : {
    "recipe" : {
      "rate_show" : 0,
      "cookstorys" : [

      ],
      "author_id" : 19436936,
      "bs" : [

      ],
      "title_ad" : [

      ],
      "original_photo_path" : "http:\/\/i1.douguo.net\/upload\/caiku\/1\/e\/0\/yuan_1e449ab83cb8785df25ac036315bed80.jpeg",
      "cook_time" : "10-30分钟",
      "story_dsp" : [

      ],
      "vfurl" : "",
      "clicks" : "480774",
      "pw" : 600,
      "ss" : [

      ],
      "recent_comments" : [

      ],
      "advice" : {
        "at" : "不控制会变胖啊！！～",
        "has" : [
          {
            "t" : "高脂肪",
            "url" : "recipes:\/\/www.douguo.com\/simplerecipelist?t=高脂肪&id=高脂肪"
          },
          {
            "url" : "recipes:\/\/www.douguo.com\/simplerecipelist?t=低盐&id=低盐",
            "t" : "低盐"
          }
        ],
        "da" : {
          "iu" : "https:\/\/i1.douguo.com\/upload\/banner\/f\/4\/d\/f48877e53c37759bc12ac494be82ec8d.png",
          "t" : "查看详细分析",
          "url" : "https:\/\/m.douguo.com\/recipe\/nutrient_self\/2385240"
        }
      },
      "author_verified" : 1,
      "dish_count" : 2,
      "release_time" : "",
      "rate_count" : 2,
      "purl" : "",
      "rips" : 0,
      "su" : "",
      "cookwares" : [

      ],
      "cookstep" : [
        {
          "thumb" : "https:\/\/i1.douguo.com\/upload\/caiku\/f\/7\/f\/140_f760b9e5b0abfbfa438c9259a746ce2f.jpeg",
          "frame" : "-1",
          "content" : "鸡蛋打散",
          "image_height" : 960,
          "image" : "https:\/\/i1.douguo.com\/upload\/caiku\/f\/7\/f\/f760b9e5b0abfbfa438c9259a746ce2f.jpeg",
          "image_width" : 1280,
          "position" : 1
        },
        {
          "image" : "https:\/\/i1.douguo.com\/upload\/caiku\/b\/5\/2\/b5ae6a266492a1ab58bd9b66c3d92342.jpeg",
          "image_height" : 960,
          "content" : "加入纯牛奶，淡奶油和细砂糖搅拌均匀",
          "image_width" : 1280,
          "position" : 2,
          "thumb" : "https:\/\/i1.douguo.com\/upload\/caiku\/b\/5\/2\/140_b5ae6a266492a1ab58bd9b66c3d92342.jpeg",
          "frame" : "-1"
        },
        {
          "image" : "https:\/\/i1.douguo.com\/upload\/caiku\/9\/3\/a\/93c122c9fb017d63b32679000cd4e3aa.jpeg",
          "thumb" : "https:\/\/i1.douguo.com\/upload\/caiku\/9\/3\/a\/140_93c122c9fb017d63b32679000cd4e3aa.jpeg",
          "content" : "过筛一下更加细腻",
          "image_height" : 960,
          "image_width" : 1280,
          "position" : 3,
          "frame" : "-1"
        },
        {
          "position" : 4,
          "image_height" : 960,
          "thumb" : "https:\/\/i1.douguo.com\/upload\/caiku\/8\/9\/8\/140_8949391ac70aee527c057761e6913fb8.jpeg",
          "image_width" : 1280,
          "frame" : "-1",
          "image" : "https:\/\/i1.douguo.com\/upload\/caiku\/8\/9\/8\/8949391ac70aee527c057761e6913fb8.jpeg",
          "content" : "蛋挞皮中放入适量巧克力豆"
        },
        {
          "image_width" : 1280,
          "image" : "https:\/\/i1.douguo.com\/upload\/caiku\/9\/d\/1\/9dd69f70d661a891b391388be05e5f31.jpeg",
          "image_height" : 960,
          "position" : 5,
          "thumb" : "https:\/\/i1.douguo.com\/upload\/caiku\/9\/d\/1\/140_9dd69f70d661a891b391388be05e5f31.jpeg",
          "frame" : "-1",
          "content" : "倒入蛋挞液"
        },
        {
          "image" : "https:\/\/i1.douguo.com\/upload\/caiku\/6\/6\/c\/660914111e43d14ab5941feea29da25c.jpeg",
          "position" : 6,
          "content" : "放入预热好的烤箱中层200度15分钟，上下火",
          "image_height" : 960,
          "frame" : "-1",
          "thumb" : "https:\/\/i1.douguo.com\/upload\/caiku\/6\/6\/c\/140_660914111e43d14ab5941feea29da25c.jpeg",
          "image_width" : 1280
        },
        {
          "image_width" : 1280,
          "image_height" : 960,
          "content" : "巧克力和淡奶油混合",
          "thumb" : "https:\/\/i1.douguo.com\/upload\/caiku\/b\/1\/2\/140_b1e6ec0555c10ca78a2320316dfe15b2.jpeg",
          "position" : 7,
          "frame" : "-1",
          "image" : "https:\/\/i1.douguo.com\/upload\/caiku\/b\/1\/2\/b1e6ec0555c10ca78a2320316dfe15b2.jpeg"
        },
        {
          "image" : "https:\/\/i1.douguo.com\/upload\/caiku\/2\/9\/b\/29abdace334690516d8740c54cf29cfb.jpeg",
          "content" : "隔热水融化",
          "image_width" : 1280,
          "frame" : "-1",
          "position" : 8,
          "image_height" : 960,
          "thumb" : "https:\/\/i1.douguo.com\/upload\/caiku\/2\/9\/b\/140_29abdace334690516d8740c54cf29cfb.jpeg"
        },
        {
          "thumb" : "https:\/\/i1.douguo.com\/upload\/caiku\/9\/f\/a\/140_9fbdd17508af202e9ae30d03f053b8ba.jpeg",
          "image_width" : 1280,
          "image" : "https:\/\/i1.douguo.com\/upload\/caiku\/9\/f\/a\/9fbdd17508af202e9ae30d03f053b8ba.jpeg",
          "position" : 9,
          "content" : "烤好的蛋挞",
          "image_height" : 960,
          "frame" : "-1"
        },
        {
          "image_height" : 960,
          "thumb" : "https:\/\/i1.douguo.com\/upload\/caiku\/4\/6\/e\/140_46295d66b586538708e561e8e59638ae.jpeg",
          "image" : "https:\/\/i1.douguo.com\/upload\/caiku\/4\/6\/e\/46295d66b586538708e561e8e59638ae.jpeg",
          "frame" : "-1",
          "image_width" : 1280,
          "position" : 10,
          "content" : "将巧克力酱倒入蛋挞表面"
        },
        {
          "image" : "https:\/\/i1.douguo.com\/upload\/caiku\/a\/8\/0\/a87a1f1014bc6d301e58cf5212c500d0.jpeg",
          "content" : "筛上可可粉即可",
          "thumb" : "https:\/\/i1.douguo.com\/upload\/caiku\/a\/8\/0\/140_a87a1f1014bc6d301e58cf5212c500d0.jpeg",
          "position" : 11,
          "frame" : "-1",
          "image_height" : 856,
          "image_width" : 1280
        },
        {
          "image" : "https:\/\/i1.douguo.com\/upload\/caiku\/a\/a\/f\/aa0667e4483664a4663776854c4c558f.jpeg",
          "image_width" : 1280,
          "thumb" : "https:\/\/i1.douguo.com\/upload\/caiku\/a\/a\/f\/140_aa0667e4483664a4663776854c4c558f.jpeg",
          "content" : "蛋挞的神仙吃法",
          "image_height" : 882,
          "frame" : "-1",
          "position" : 12
        },
        {
          "content" : "一口就能爆浆",
          "frame" : "-1",
          "image_height" : 868,
          "thumb" : "https:\/\/i1.douguo.com\/upload\/caiku\/0\/6\/a\/140_06fe4390b636de325c8098eedbc45fea.jpeg",
          "image" : "https:\/\/i1.douguo.com\/upload\/caiku\/0\/6\/a\/06fe4390b636de325c8098eedbc45fea.jpeg",
          "image_width" : 1280,
          "position" : 13
        }
      ],
      "share_info" : {
        "s_u" : "http:\/\/m.douguo.com\/cookbook\/2385240.html",
        "infos" : [
          {
            "channel" : "1",
            "mini_program" : [

            ],
            "object_id" : "2385240",
            "name" : "#今天吃什么#脏脏蛋挞-会做饭很酷!",
            "s_d" : "#学做饭用豆果美食# 会做饭真是好酷啊！我在@豆果美食 分享了【#今天吃什么#脏脏蛋挞-会做饭很酷!】，快来康康我这道菜做的怎么样～美味停不下来！查看图片了解菜谱（你喜欢的美食都在这里！https:\/\/m.weibo.cn\/p\/100404i33631）",
            "s_u" : "",
            "image" : "https:\/\/cp1.douguo.com\/upload\/caiku\/1\/e\/0\/1e449ab83cb8785df25ac036315bed80.jpeg",
            "qr_image" : ""
          },
          {
            "mini_program" : [

            ],
            "object_id" : "2385240",
            "image" : "https:\/\/cp1.douguo.com\/upload\/caiku\/1\/e\/0\/1e449ab83cb8785df25ac036315bed80.jpeg",
            "s_u" : "http:\/\/m.douguo.com\/cookbook\/2385240.html",
            "channel" : "7",
            "s_d" : "#今天吃什么#脏脏蛋挞-会做饭很酷!",
            "qr_image" : "",
            "name" : "#今天吃什么#脏脏蛋挞-会做饭很酷!"
          },
          {
            "qr_image" : "",
            "s_d" : "#今天吃什么#脏脏蛋挞-会做饭很酷!",
            "image" : "https:\/\/cp1.douguo.com\/upload\/caiku\/1\/e\/0\/1e449ab83cb8785df25ac036315bed80.jpeg",
            "object_id" : "2385240",
            "name" : "#今天吃什么#脏脏蛋挞-会做饭很酷!",
            "s_u" : "http:\/\/m.douguo.com\/cookbook\/2385240.html",
            "mini_program" : [

            ],
            "channel" : "8"
          }
        ],
        "qr_image" : "",
        "s_d" : "#今天吃什么#脏脏蛋挞-会做饭很酷!",
        "image" : "https:\/\/cp1.douguo.com\/upload\/caiku\/1\/e\/0\/1e449ab83cb8785df25ac036315bed80.jpeg",
        "mini_program" : [

        ],
        "object_id" : "2385240",
        "name" : "#今天吃什么#脏脏蛋挞-会做饭很酷!"
      },
      "minor" : [

      ],
      "recommendation_tag" : "",
      "ipoi" : "",
      "first_level_comment_count" : 12,
      "views_count_text" : "50.1万",
      "ecs" : 0,
      "ipurl" : "",
      "thumb_height" : 0,
      "rpt" : "",
      "cook_difficulty_image" : "https:\/\/i1.douguo.com\/upload\/banner\/1551424390.png",
      "thumb_path" : "https:\/\/i1.douguo.com\/upload\/caiku\/1\/e\/0\/300_1e449ab83cb8785df25ac036315bed80.jpeg",
      "image" : "http:\/\/i1.douguo.net\/upload\/caiku\/1\/e\/0\/300_1e449ab83cb8785df25ac036315bed80.jpeg",
      "rrpt" : "",
      "display_ingredient" : 1,
      "rewarded_video_dsp" : [

      ],
      "event" : {
        "id" : 0
      },
      "comments_count_text" : "12",
      "eu" : "recipes:\/\/www.douguo.com\/postdetail?id=242016",
      "rpid" : 0,
      "favo_counts_text" : "7240",
      "cookstory" : "",
      "user" : {
        "coursecount" : 0,
        "lv" : 0,
        "user_photo" : "http:\/\/tx1.douguo.net\/upload\/photo\/a\/e\/f\/70_u84314168499639213430.jpeg",
        "birthday" : "",
        "weibo_nick" : "",
        "age" : "",
        "userid" : "19436936",
        "progress_image" : "",
        "pc" : 0,
        "diaries_count" : 0,
        "mobile" : "",
        "fc" : 0,
        "following_count" : 0,
        "point" : 0,
        "favorites_count" : 0,
        "favor_diaries_count" : 0,
        "is_prime" : 0,
        "subscription" : 0,
        "avatar_medium" : "http:\/\/tx1.douguo.net\/upload\/photo\/a\/e\/f\/140_u84314168499639213430.jpeg",
        "sign" : "",
        "verified" : 1,
        "setted_email" : 0,
        "user_large_photo" : "http:\/\/tx1.douguo.net\/upload\/photo\/a\/e\/f\/yuan_u84314168499639213430.jpeg",
        "verified_url" : "https:\/\/m.douguo.com\/user\/prodesc",
        "qq_weibo_nick" : "",
        "location" : 0,
        "user_cover" : "",
        "gender" : 2,
        "followers_count" : 0,
        "introduction" : "",
        "lvl" : 6,
        "qzone_nick" : "",
        "nick" : "青春妹m",
        "recipes_count" : 0,
        "regist_time" : "",
        "email" : "",
        "subscription_article_count" : 0,
        "dishes_count" : 0,
        "verified_image" : "https:\/\/i1.douguo.com\/upload\/note\/d\/a\/a\/da84247847aebe48d9dd0fcdac88862a.png",
        "user_id" : "19436936"
      },
      "comments_count" : 12,
      "mid_mdsp" : [

      ],
      "btm_dsp" : [

      ],
      "tips" : "每个烤箱脾气不一样，温度需要了解自己烤箱温度而调节！",
      "top_mdsp" : [

      ],
      "sc" : 0,
      "collect_status" : 0,
      "levelid" : 2,
      "notes" : [

      ],
      "old_comments" : [

      ],
      "guide_image" : "",
      "vc" : "501279",
      "brand_day_dsp" : [

      ],
      "cook_difficulty" : "切墩(初级)",
      "rdsps" : [

      ],
      "ipt" : "",
      "ssu" : "",
      "act_des" : "",
      "rpst" : "",
      "hq" : 1,
      "favo_counts" : 7240,
      "create_time" : "2019-12-16 21:30:09",
      "rsm" : "该功能暂停使用",
      "recipe_list_tags" : [
        {
          "background_end_color" : "#F4F5F5",
          "text_color" : "#141515",
          "text" : "关注的人",
          "background_border_color" : "",
          "right_image" : "",
          "background_start_color" : "#F4F5F5",
          "jump_url" : ""
        }
      ],
      "cook_id" : "2385240",
      "recipe_tags" : [

      ],
      "related_ads" : [

      ],
      "dishes" : [

      ],
      "photo_path" : "https:\/\/i1.douguo.com\/upload\/caiku\/1\/e\/0\/600_1e449ab83cb8785df25ac036315bed80.jpeg",
      "major" : [
        {
          "note" : "7个",
          "title" : "蛋挞皮"
        },
        {
          "note" : "1个",
          "tu" : "https:\/\/m.douguo.com\/ingredients\/鸡蛋\/detailmaterial",
          "title" : "鸡蛋"
        },
        {
          "note" : "50克",
          "tu" : "https:\/\/m.douguo.com\/ingredients\/纯牛奶\/detailmaterial",
          "title" : "纯牛奶"
        },
        {
          "title" : "淡奶油",
          "note" : "50克",
          "tu" : "https:\/\/m.douguo.com\/ingredients\/淡奶油\/detailmaterial"
        },
        {
          "title" : "细砂糖",
          "tu" : "https:\/\/m.douguo.com\/ingredients\/细砂糖\/detailmaterial",
          "note" : "10克"
        },
        {
          "title" : "巧克力豆",
          "note" : "适量"
        },
        {
          "tu" : "https:\/\/m.douguo.com\/ingredients\/巧克力\/detailmaterial",
          "note" : "40克",
          "title" : "巧克力"
        },
        {
          "tu" : "https:\/\/m.douguo.com\/ingredients\/淡奶油\/detailmaterial",
          "note" : "40克",
          "title" : "淡奶油"
        }
      ],
      "recommend_label" : "2人学做",
      "ipia" : [

      ],
      "dish_count_text" : "2",
      "ipit" : 0,
      "author_photo" : "http:\/\/tx1.douguo.net\/upload\/photo\/a\/e\/f\/70_u84314168499639213430.jpeg",
      "rcs" : [

      ],
      "rate" : 5,
      "sr" : "",
      "v_u" : "",
      "rrps" : [

      ],
      "ph" : 400,
      "hqu" : "recipes:\/\/www.douguo.com\/notedetail?id=21162253",
      "packages_id" : [

      ],
      "author" : "青春妹m",
      "ipci" : "",
      "recommended" : 0,
      "title" : "脏脏蛋挞",
      "tags" : [

      ],
      "vu" : "",
      "cook_time_image" : "https:\/\/i1.douguo.com\/upload\/banner\/1551424341.png",
      "comments" : [
        "{\n    ac = \"#999999\";\n    at = \"\";\n    ccc = 0;\n    \"child_comments\" =     (\n    );\n    city = \"\";\n    cmc = 2;\n    content =     (\n                {\n            c = \"\\U786e\\U5b9e\\U662f\\U795e\\U4ed9\\U5403\\U6cd5\\Uff0c\\U60f3\\U6cd5\\U6709\\U591a\\U5927\\U821e\\U53f0\\U5c31\\U6709\\U591a\\U5927\\Ud83d\\Ude04\";\n        }\n    );\n    ia = 0;\n    id = 7810774;\n    \"ip_address_location\" = \"\";\n    like = 0;\n    \"like_count\" = 0;\n    \"reply_id\" = 0;\n    \"sticker_icon\" =     (\n    );\n    time = \"2020-03-24 09:55:58\";\n    u =     {\n        \"followers_count_text\" = \"\";\n        id = 23048401;\n        \"is_prime\" = 1;\n        lv = 0;\n        lvl = 5;\n        n = \"\\U7b80\\U5355\";\n        p = \"http:\/\/tx1.douguo.net\/upload\/photo\/0\/7\/7\/70_u45180736353130142423.jpeg\";\n        \"progress_image\" = \"\";\n        \"recipes_count_text\" = \"\";\n        relationship = \"-1\";\n        title = \"\";\n        v = 0;\n        \"verified_image\" = \"\";\n    };\n}",
        "{\n    ac = \"#999999\";\n    at = \"\\U5317\\U4eac\\U5e02\";\n    ccc = 0;\n    \"child_comments\" =     (\n    );\n    city = \"\\U5317\\U4eac\\U5e02\";\n    cmc = 2;\n    content =     (\n                {\n            c = \"\\U810f\\U810f\\U86cb\\U631e\";\n        }\n    );\n    ia = 0;\n    id = 7747080;\n    \"ip_address_location\" = \"\";\n    like = 0;\n    \"like_count\" = 0;\n    \"reply_id\" = 0;\n    \"sticker_icon\" =     (\n    );\n    time = \"2020-03-06 22:51:16\";\n    u =     {\n        \"followers_count_text\" = \"\";\n        id = 45072;\n        \"is_prime\" = 0;\n        lv = 0;\n        lvl = 6;\n        n = \"\\U677f\\U5200\\U9762\\U4e0e\\U9984\\U9968\\U6c64\";\n        p = \"http:\/\/tx1.douguo.net\/upload\/photo\/f\/7\/3\/70_f7bb9bd8aa642964f1cb34d4de14a2a3.jpeg\";\n        \"progress_image\" = \"\";\n        \"recipes_count_text\" = \"\";\n        relationship = \"-1\";\n        title = \"\";\n        v = 1;\n        \"verified_image\" = \"\";\n    };\n}",
        "{\n    ac = \"#999999\";\n    at = \"\";\n    ccc = 0;\n    \"child_comments\" =     (\n    );\n    city = \"\";\n    cmc = 2;\n    content =     (\n                {\n            c = \"\\U597d\\U68d2\\Uff0c\\U6211\\U4e5f\\U8981\\U5b66\\U4e00\\U4e0b\";\n        }\n    );\n    ia = 0;\n    id = 7451726;\n    \"ip_address_location\" = \"\";\n    like = 0;\n    \"like_count\" = 0;\n    \"reply_id\" = 0;\n    \"sticker_icon\" =     (\n    );\n    time = \"2019-12-18 16:10:08\";\n    u =     {\n        \"followers_count_text\" = \"\";\n        id = 24561528;\n        \"is_prime\" = 0;\n        lv = 0;\n        lvl = 1;\n        n = AnnphivPi;\n        p = \"http:\/\/tx1.douguo.net\/upload\/photo\/7\/e\/0\/70_u84468726393174214328.jpg\";\n        \"progress_image\" = \"\";\n        \"recipes_count_text\" = \"\";\n        relationship = \"-1\";\n        title = \"\";\n        v = 0;\n        \"verified_image\" = \"\";\n    };\n}"
      ]
    }
  },
  "state" : "success"
}