{
  "status" : 0,
  "result" : {
    "recipe" : {
      "cookstep" : [
        {
          "image_width" : 6000,
          "content" : "我买了一条3斤的草鱼，中间划开，在鱼背部划上几刀，以便入味。头天晚上先用料酒、生抽、盐和豆豉油先腌渍一晚上。",
          "image_height" : 4000,
          "image" : "https:\/\/i1.douguo.com\/upload\/caiku\/9\/3\/a\/930552acda6d379c16e5ed086632db6a.jpg",
          "frame" : "-1",
          "thumb" : "https:\/\/i1.douguo.com\/upload\/caiku\/9\/3\/a\/140_930552acda6d379c16e5ed086632db6a.jpg",
          "position" : 1
        },
        {
          "image" : "https:\/\/i1.douguo.com\/upload\/caiku\/7\/1\/0\/717932dbe4e5547683dd1221f2dcdfc0.jpg",
          "frame" : "-1",
          "position" : 2,
          "thumb" : "https:\/\/i1.douguo.com\/upload\/caiku\/7\/1\/0\/140_717932dbe4e5547683dd1221f2dcdfc0.jpg",
          "content" : "剥了3头大蒜，切成丁",
          "image_width" : 6000,
          "image_height" : 4000
        },
        {
          "image_height" : 4000,
          "image_width" : 6000,
          "thumb" : "https:\/\/i1.douguo.com\/upload\/caiku\/7\/d\/4\/140_7d6192291491fedd14ad5c5128486f74.jpg",
          "content" : "把半棵葱和姜切成碎末。",
          "image" : "https:\/\/i1.douguo.com\/upload\/caiku\/7\/d\/4\/7d6192291491fedd14ad5c5128486f74.jpg",
          "position" : 3,
          "frame" : "-1"
        },
        {
          "content" : "待油烧热把蒜丁和葱姜末放到锅里炸一下，待蒜稍微发黄全部倒入容器中。",
          "image" : "https:\/\/i1.douguo.com\/upload\/caiku\/b\/c\/a\/bc31a2f31a36a1ff96458f839ad7cc0a.jpg",
          "frame" : "-1",
          "thumb" : "https:\/\/i1.douguo.com\/upload\/caiku\/b\/c\/a\/140_bc31a2f31a36a1ff96458f839ad7cc0a.jpg",
          "position" : 4,
          "image_width" : 6000,
          "image_height" : 4000
        },
        {
          "position" : 5,
          "frame" : "-1",
          "image_height" : 4000,
          "image_width" : 6000,
          "content" : "把腌好的鱼放到烤盘中，用刷子把刚蒜香油涂抹在鱼上，正反面都要涂抹，尤其是刀口上多涂些，这样味道更好！最后把腌渍鱼的汤料浇在鱼身上。",
          "thumb" : "https:\/\/i1.douguo.com\/upload\/caiku\/b\/c\/3\/140_bcb9d253e397be47c73e445f1014f353.jpg",
          "image" : "https:\/\/i1.douguo.com\/upload\/caiku\/b\/c\/3\/bcb9d253e397be47c73e445f1014f353.jpg"
        },
        {
          "image_height" : 6000,
          "frame" : "-1",
          "content" : "烤箱预热230度，把烤盘放入中层，上下火230度，18分钟。",
          "position" : 6,
          "thumb" : "https:\/\/i1.douguo.com\/upload\/caiku\/e\/1\/3\/140_e11ea482f7e7621e0a7b538ecd1c2ee3.jpg",
          "image" : "https:\/\/i1.douguo.com\/upload\/caiku\/e\/1\/3\/e11ea482f7e7621e0a7b538ecd1c2ee3.jpg",
          "image_width" : 4000
        },
        {
          "content" : "准备配菜。我在烤鱼的时候老公出奇的勤快，不等我拍照就把配菜炒好了。配菜大致有土豆片、芹菜、洋葱等，这些随意，自己想怎么配怎么配。我个人觉得烤过的土豆片特别香，芹菜容易入味，所以选择了这两种。",
          "image_height" : 4000,
          "frame" : "-1",
          "thumb" : "https:\/\/i1.douguo.com\/upload\/caiku\/1\/1\/2\/140_11487b367fd5cc357274e7ef17323ec2.jpg",
          "image" : "https:\/\/i1.douguo.com\/upload\/caiku\/1\/1\/2\/11487b367fd5cc357274e7ef17323ec2.jpg",
          "image_width" : 6000,
          "position" : 7
        },
        {
          "thumb" : "https:\/\/i1.douguo.com\/upload\/caiku\/2\/e\/9\/140_2e1fc9c2d3a8c1160b77d2506273fe19.jpg",
          "image_width" : 6000,
          "position" : 8,
          "image" : "https:\/\/i1.douguo.com\/upload\/caiku\/2\/e\/9\/2e1fc9c2d3a8c1160b77d2506273fe19.jpg",
          "content" : "把烤箱里的鱼拿出来，这时鱼有9成熟了。",
          "frame" : "-1",
          "image_height" : 4000
        },
        {
          "content" : "把配菜和第二步中的蒜和油都倒入烤盘里，适当的可以再加些蚝油。图片虽然凌乱，但味道很足，家里吃不图卖相，只图口感。",
          "image_height" : 4000,
          "frame" : "-1",
          "position" : 9,
          "thumb" : "https:\/\/i1.douguo.com\/upload\/caiku\/b\/0\/4\/140_b0c4eee5d1fef87d5dff35db4788cc44.jpg",
          "image" : "https:\/\/i1.douguo.com\/upload\/caiku\/b\/0\/4\/b0c4eee5d1fef87d5dff35db4788cc44.jpg",
          "image_width" : 6000
        },
        {
          "image_width" : 6000,
          "thumb" : "https:\/\/i1.douguo.com\/upload\/caiku\/6\/d\/0\/140_6d9c6928fe38c4788ae9adb04a647850.jpg",
          "position" : 10,
          "image" : "https:\/\/i1.douguo.com\/upload\/caiku\/6\/d\/0\/6d9c6928fe38c4788ae9adb04a647850.jpg",
          "image_height" : 4000,
          "frame" : "-1",
          "content" : "烤箱温度调到上下火165度，中层，10分钟。柏翠这款烤箱对温度的精准度把握的棒！"
        },
        {
          "image_width" : 6000,
          "image" : "https:\/\/i1.douguo.com\/upload\/caiku\/e\/9\/7\/e954b04252a442664d22d4bbe68e67d7.jpg",
          "position" : 11,
          "image_height" : 4000,
          "frame" : "-1",
          "thumb" : "https:\/\/i1.douguo.com\/upload\/caiku\/e\/9\/7\/140_e954b04252a442664d22d4bbe68e67d7.jpg",
          "content" : "烤鱼做好了"
        },
        {
          "position" : 12,
          "image" : "https:\/\/i1.douguo.com\/upload\/caiku\/a\/c\/d\/ac67c709c52bc48bef6239191361621d.jpg",
          "frame" : "-1",
          "content" : "如果还想配其他菜的话，可以转入火锅模式，好吃的不得了，烤鱼一会就被消灭光了，很有成就感哦！",
          "thumb" : "https:\/\/i1.douguo.com\/upload\/caiku\/a\/c\/d\/140_ac67c709c52bc48bef6239191361621d.jpg",
          "image_width" : 6000,
          "image_height" : 4000
        }
      ],
      "cookwares" : [

      ],
      "ss" : [

      ],
      "photo_path" : "https:\/\/i1.douguo.com\/upload\/caiku\/1\/9\/5\/600_196dbd3f0f03a896bc8d2a355a673115.jpg",
      "dish_count" : 35,
      "old_comments" : [

      ],
      "author" : "叮叮咚咚20015",
      "rate_count" : 17,
      "vu" : "",
      "hq" : 1,
      "ipoi" : "",
      "ipci" : "",
      "rpt" : "",
      "top_mdsp" : [

      ],
      "share_info" : {
        "s_u" : "http:\/\/m.douguo.com\/cookbook\/1335290.html",
        "infos" : [
          {
            "channel" : "1",
            "mini_program" : [

            ],
            "object_id" : "1335290",
            "name" : "蒜香烤鱼-会做饭很酷!",
            "s_d" : "#学做饭用豆果美食# 会做饭真是太酷了！我在@豆果美食 分享了【蒜香烤鱼-会做饭很酷!】，看着是不是馋到不行呢～快来跟我学学吧！查看图片了解菜谱，（想要获取更多美食就看这https:\/\/m.weibo.cn\/p\/100404i33631）",
            "qr_image" : "",
            "s_u" : "",
            "image" : "https:\/\/cp1.douguo.com\/upload\/caiku\/1\/9\/5\/196dbd3f0f03a896bc8d2a355a673115.jpg"
          },
          {
            "mini_program" : [

            ],
            "object_id" : "1335290",
            "image" : "https:\/\/cp1.douguo.com\/upload\/caiku\/1\/9\/5\/196dbd3f0f03a896bc8d2a355a673115.jpg",
            "s_u" : "http:\/\/m.douguo.com\/cookbook\/1335290.html",
            "channel" : "7",
            "s_d" : "蒜香烤鱼-会做饭很酷!",
            "qr_image" : "",
            "name" : "蒜香烤鱼-会做饭很酷!"
          },
          {
            "qr_image" : "",
            "s_d" : "蒜香烤鱼-会做饭很酷!",
            "name" : "蒜香烤鱼-会做饭很酷!",
            "object_id" : "1335290",
            "image" : "https:\/\/cp1.douguo.com\/upload\/caiku\/1\/9\/5\/196dbd3f0f03a896bc8d2a355a673115.jpg",
            "mini_program" : [

            ],
            "s_u" : "http:\/\/m.douguo.com\/cookbook\/1335290.html",
            "channel" : "8"
          }
        ],
        "qr_image" : "",
        "s_d" : "蒜香烤鱼-会做饭很酷!",
        "image" : "https:\/\/cp1.douguo.com\/upload\/caiku\/1\/9\/5\/196dbd3f0f03a896bc8d2a355a673115.jpg",
        "mini_program" : [

        ],
        "object_id" : "1335290",
        "name" : "蒜香烤鱼-会做饭很酷!"
      },
      "vfurl" : "",
      "brand_day_dsp" : [

      ],
      "recipe_tags" : [

      ],
      "ph" : 533,
      "btm_dsp" : [

      ],
      "original_photo_path" : "http:\/\/i1.douguo.net\/upload\/caiku\/1\/9\/5\/yuan_196dbd3f0f03a896bc8d2a355a673115.jpg",
      "recommend_label" : "35人学做",
      "sc" : 0,
      "author_id" : 15692698,
      "story_dsp" : [

      ],
      "comments_count" : 18,
      "recommended" : 0,
      "comments_count_text" : "18",
      "major" : [
        {
          "tu" : "https:\/\/m.douguo.com\/ingredients\/草鱼\/detailmaterial",
          "title" : "草鱼",
          "note" : "3斤"
        },
        {
          "note" : "3头",
          "tu" : "https:\/\/m.douguo.com\/ingredients\/大蒜\/detailmaterial",
          "title" : "大蒜"
        },
        {
          "tu" : "https:\/\/m.douguo.com\/ingredients\/大葱\/detailmaterial",
          "note" : "半根",
          "title" : "大葱"
        },
        {
          "note" : "半个",
          "title" : "姜",
          "tu" : "https:\/\/m.douguo.com\/ingredients\/姜\/detailmaterial"
        },
        {
          "note" : "一个",
          "title" : "土豆",
          "tu" : "https:\/\/m.douguo.com\/ingredients\/土豆\/detailmaterial"
        }
      ],
      "eu" : "recipes:\/\/www.douguo.com\/postdetail?id=242016",
      "pw" : 800,
      "thumb_path" : "https:\/\/i1.douguo.com\/upload\/caiku\/1\/9\/5\/300_196dbd3f0f03a896bc8d2a355a673115.jpg",
      "rips" : 0,
      "recipe_list_tags" : [

      ],
      "clicks" : "299361",
      "minor" : [
        "{\n    note = \"3\\U6839\";\n    title = \"\\U897f\\U82b9\";\n    tu = \"https:\/\/https:\/\/m.douguo.com\/ingredients\/\\U897f\\U82b9\/detailmaterial\";\n}",
        "{\n    note = \"\\U534a\\U4e2a\";\n    title = \"\\U6d0b\\U8471\";\n    tu = \"https:\/\/https:\/\/m.douguo.com\/ingredients\/\\U6d0b\\U8471\/detailmaterial\";\n}",
        "{\n    note = \"\\U4e00\\U5c0f\\U6bb5\";\n    title = \"\\U80e1\\U841d\\U535c\";\n    tu = \"https:\/\/https:\/\/m.douguo.com\/ingredients\/\\U80e1\\U841d\\U535c\/detailmaterial\";\n}"
      ],
      "rrpt" : "",
      "packages_id" : [

      ],
      "dish_count_text" : "35",
      "recommendation_tag" : "",
      "ecs" : 0,
      "cookstorys" : [
        {
          "c" : "昨天家里来客人，整个春节在外面吃饭吃烦了，老公建议在家招待。家常菜也不稀罕，现在有了柏翠柏翠PE5389大容量38L旗舰烤箱，吃烤鱼是个不错的选择，呵呵.....虽然不是很熟练，应该也没有什么大问题，烤鱼做起！",
          "color" : "",
          "id" : 0,
          "icon" : "",
          "type" : 0,
          "u" : ""
        }
      ],
      "tips" : "",
      "favo_counts_text" : "5771",
      "rdsps" : [

      ],
      "ipurl" : "",
      "cook_time" : "",
      "levelid" : 2,
      "cook_difficulty_image" : "",
      "hqu" : "recipes:\/\/www.douguo.com\/notedetail?id=21162253",
      "mid_mdsp" : [

      ],
      "rrps" : [

      ],
      "rsm" : "该功能暂停使用",
      "vc" : "320930",
      "guide_image" : "",
      "thumb_height" : 0,
      "title_ad" : [

      ],
      "rpst" : "",
      "ipit" : 0,
      "bs" : [

      ],
      "notes" : [

      ],
      "title" : "蒜香烤鱼",
      "rpid" : 0,
      "image" : "http:\/\/i1.douguo.net\/upload\/caiku\/1\/9\/5\/300_196dbd3f0f03a896bc8d2a355a673115.jpg",
      "user" : {
        "following_count" : 0,
        "mobile" : "",
        "avatar_medium" : "http:\/\/tx1.douguo.net\/upload\/photo\/d\/1\/1\/140_u49054560487337200823.jpg",
        "lvl" : 1,
        "is_prime" : 0,
        "verified_image" : "",
        "user_cover" : "",
        "favorites_count" : 0,
        "lv" : 0,
        "favor_diaries_count" : 0,
        "birthday" : "",
        "qzone_nick" : "",
        "weibo_nick" : "",
        "introduction" : "",
        "user_photo" : "http:\/\/tx1.douguo.net\/upload\/photo\/d\/1\/1\/70_u49054560487337200823.jpg",
        "dishes_count" : 0,
        "point" : 0,
        "coursecount" : 0,
        "verified_url" : "https:\/\/m.douguo.com\/user\/prodesc",
        "user_large_photo" : "http:\/\/tx1.douguo.net\/upload\/photo\/d\/1\/1\/yuan_u49054560487337200823.jpg",
        "sign" : "",
        "progress_image" : "",
        "fc" : 0,
        "verified" : 0,
        "qq_weibo_nick" : "",
        "age" : "",
        "user_id" : "15692698",
        "nick" : "叮叮咚咚20015",
        "pc" : 0,
        "location" : 0,
        "gender" : 2,
        "email" : "",
        "recipes_count" : 0,
        "regist_time" : "",
        "userid" : "15692698",
        "setted_email" : 0,
        "followers_count" : 0,
        "diaries_count" : 0,
        "subscription_article_count" : 0,
        "subscription" : 0
      },
      "related_ads" : [

      ],
      "rcs" : [

      ],
      "rewarded_video_dsp" : [

      ],
      "favo_counts" : 5771,
      "create_time" : "2016-02-22 13:53:56",
      "cookstory" : "昨天家里来客人，整个春节在外面吃饭吃烦了，老公建议在家招待。家常菜也不稀罕，现在有了柏翠柏翠PE5389大容量38L旗舰烤箱，吃烤鱼是个不错的选择，呵呵.....虽然不是很熟练，应该也没有什么大问题，烤鱼做起！",
      "purl" : "",
      "recent_comments" : [

      ],
      "comments" : [
        "{\n    ac = \"#999999\";\n    at = \"\";\n    ccc = 2;\n    \"child_comments\" =     (\n                {\n            ac = \"#999999\";\n            at = \"\";\n            ccc = 0;\n            city = \"\";\n            cmc = 2;\n            content =             (\n                                {\n                    c = \" \\U4e0d\\U7528\\Uff0c\\U628a\\U9521\\U7eb8\\U57ab\\U70e4\\U76d8\\U4e0a\\U5c31\\U884c\\Uff0c\\U8fd9\\U6837\\U536b\\U751f \";\n                }\n            );\n            ia = 1;\n            id = 3135160;\n            \"ip_address_location\" = \"\";\n            like = 0;\n            \"like_count\" = 0;\n            \"reply_id\" = 3131444;\n            \"reply_user\" =             {\n                \"followers_count_text\" = \"\";\n                id = 9712252;\n                \"is_prime\" = 0;\n                lv = 0;\n                lvl = 1;\n                n = \"\\U5fc3\\U5fc3641\";\n                p = \"http:\/\/tx1.douguo.net\/upload\/photo\/c\/1\/2\/70_u33424094476445113207.jpeg\";\n                \"progress_image\" = \"\";\n                \"recipes_count_text\" = \"\";\n                relationship = \"-1\";\n                title = \"\";\n                v = 0;\n                \"verified_image\" = \"\";\n            };\n            \"sticker_icon\" =             (\n            );\n            time = \"2016-02-25 12:03:08\";\n            u =             {\n                \"followers_count_text\" = \"\";\n                id = 15692698;\n                \"is_prime\" = 0;\n                lv = 0;\n                lvl = 1;\n                n = \"\\U53ee\\U53ee\\U549a\\U549a20015\";\n                p = \"http:\/\/tx1.douguo.net\/upload\/photo\/d\/1\/1\/70_u49054560487337200823.jpg\";\n                \"progress_image\" = \"\";\n                \"recipes_count_text\" = \"\";\n                relationship = \"-1\";\n                title = \"\";\n                v = 0;\n                \"verified_image\" = \"\";\n            };\n        },\n                {\n            ac = \"#999999\";\n            at = \"\";\n            ccc = 0;\n            city = \"\";\n            cmc = 2;\n            content =             (\n                                {\n                    c = \" \\U8c22\\U8c22\\U3002\\U6211\\U4e5f\\U505a\\U4e2a\\U3002\";\n                }\n            );\n            ia = 0;\n            id = 3170508;\n            \"ip_address_location\" = \"\";\n            like = 0;\n            \"like_count\" = 0;\n            \"reply_id\" = 3135160;\n            \"reply_user\" =             {\n                \"followers_count_text\" = \"\";\n                id = 15692698;\n                \"is_prime\" = 0;\n                lv = 0;\n                lvl = 1;\n                n = \"\\U53ee\\U53ee\\U549a\\U549a20015\";\n                p = \"http:\/\/tx1.douguo.net\/upload\/photo\/d\/1\/1\/70_u49054560487337200823.jpg\";\n                \"progress_image\" = \"\";\n                \"recipes_count_text\" = \"\";\n                relationship = \"-1\";\n                title = \"\";\n                v = 0;\n                \"verified_image\" = \"\";\n            };\n            \"sticker_icon\" =             (\n            );\n            time = \"2016-03-04 13:45:23\";\n            u =             {\n                \"followers_count_text\" = \"\";\n                id = 9712252;\n                \"is_prime\" = 0;\n                lv = 0;\n                lvl = 1;\n                n = \"\\U5fc3\\U5fc3641\";\n                p = \"http:\/\/tx1.douguo.net\/upload\/photo\/c\/1\/2\/70_u33424094476445113207.jpeg\";\n                \"progress_image\" = \"\";\n                \"recipes_count_text\" = \"\";\n                relationship = \"-1\";\n                title = \"\";\n                v = 0;\n                \"verified_image\" = \"\";\n            };\n        }\n    );\n    city = \"\";\n    cmc = 2;\n    content =     (\n                {\n            c = \"\\U6211\\U6ca1\\U70e4\\U8fc7\\U9c7c\\Uff0c\\U80fd\\U544a\\U8bc9\\U6211\\U70e4\\U9c7c\\U7684\\U65f6\\U5019\\Uff0c\\U662f\\U8981\\U7528\\U9521\\U7eb8\\U628a\\U9c7c\\U5305\\U8d77\\U6765\\U5417\\Uff1f\\U8c22\\U8c22\\Uff01\";\n        }\n    );\n    ia = 0;\n    id = 3131444;\n    \"ip_address_location\" = \"\";\n    like = 0;\n    \"like_count\" = 0;\n    \"reply_id\" = 0;\n    \"sticker_icon\" =     (\n    );\n    time = \"2016-02-24 02:16:16\";\n    u =     {\n        \"followers_count_text\" = \"\";\n        id = 9712252;\n        \"is_prime\" = 0;\n        lv = 0;\n        lvl = 1;\n        n = \"\\U5fc3\\U5fc3641\";\n        p = \"http:\/\/tx1.douguo.net\/upload\/photo\/c\/1\/2\/70_u33424094476445113207.jpeg\";\n        \"progress_image\" = \"\";\n        \"recipes_count_text\" = \"\";\n        relationship = \"-1\";\n        title = \"\";\n        v = 0;\n        \"verified_image\" = \"\";\n    };\n}",
        "{\n    ac = \"#999999\";\n    at = \"\";\n    ccc = 1;\n    \"child_comments\" =     (\n                {\n            ac = \"#999999\";\n            at = \"\";\n            ccc = 0;\n            city = \"\";\n            cmc = 2;\n            content =             (\n                                {\n                    c = \" \\U5c31\\U662f\\U7b2c\\U4e00\\U6b65\\U814c\\U6e0d\\U9c7c\\U5269\\U4e0b\\U7684\\U6c64\\U6599 \";\n                }\n            );\n            ia = 1;\n            id = 3135157;\n            \"ip_address_location\" = \"\";\n            like = 0;\n            \"like_count\" = 0;\n            \"reply_id\" = 3132622;\n            \"reply_user\" =             {\n                \"followers_count_text\" = \"\";\n                id = 9282794;\n                \"is_prime\" = 0;\n                lv = 0;\n                lvl = 1;\n                n = \"\\U6728\\U5170\\U662fNK\\U7ec6\\U80de\";\n                p = \"http:\/\/tx1.douguo.net\/upload\/photo\/8\/9\/b\/70_u30651226656741001538.jpg\";\n                \"progress_image\" = \"\";\n                \"recipes_count_text\" = \"\";\n                relationship = \"-1\";\n                title = \"\";\n                v = 0;\n                \"verified_image\" = \"\";\n            };\n            \"sticker_icon\" =             (\n            );\n            time = \"2016-02-25 12:02:38\";\n            u =             {\n                \"followers_count_text\" = \"\";\n                id = 15692698;\n                \"is_prime\" = 0;\n                lv = 0;\n                lvl = 1;\n                n = \"\\U53ee\\U53ee\\U549a\\U549a20015\";\n                p = \"http:\/\/tx1.douguo.net\/upload\/photo\/d\/1\/1\/70_u49054560487337200823.jpg\";\n                \"progress_image\" = \"\";\n                \"recipes_count_text\" = \"\";\n                relationship = \"-1\";\n                title = \"\";\n                v = 0;\n                \"verified_image\" = \"\";\n            };\n        }\n    );\n    city = \"\";\n    cmc = 2;\n    content =     (\n                {\n            c = \"\\U7b2c\\U4e94\\U6b65\\U7684\\U6c64\\U6599\\U662f\\U6307\\U4ec0\\U4e48\\U6c64\\U6599\\Uff1f\";\n        }\n    );\n    ia = 0;\n    id = 3132622;\n    \"ip_address_location\" = \"\";\n    like = 0;\n    \"like_count\" = 0;\n    \"reply_id\" = 0;\n    \"sticker_icon\" =     (\n    );\n    time = \"2016-02-24 10:21:24\";\n    u =     {\n        \"followers_count_text\" = \"\";\n        id = 9282794;\n        \"is_prime\" = 0;\n        lv = 0;\n        lvl = 1;\n        n = \"\\U6728\\U5170\\U662fNK\\U7ec6\\U80de\";\n        p = \"http:\/\/tx1.douguo.net\/upload\/photo\/8\/9\/b\/70_u30651226656741001538.jpg\";\n        \"progress_image\" = \"\";\n        \"recipes_count_text\" = \"\";\n        relationship = \"-1\";\n        title = \"\";\n        v = 0;\n        \"verified_image\" = \"\";\n    };\n}",
        "{\n    ac = \"#999999\";\n    at = \"\";\n    ccc = 1;\n    \"child_comments\" =     (\n                {\n            ac = \"#999999\";\n            at = \"\";\n            ccc = 0;\n            city = \"\";\n            cmc = 2;\n            content =             (\n                                {\n                    c = \"@\\U8463\\U82b3379\\U60f3\\U505a\\U4ec0\\U4e48\\U90fd\\U53ef\\U4ee5\\U7684\\Uff0c\\U6211\\U82b1\\U751f\\U90fd\\U662f\\U7528\\U70e4\\U7bb1\\U70e4 \";\n                }\n            );\n            ia = 1;\n            id = 3129012;\n            \"ip_address_location\" = \"\";\n            like = 0;\n            \"like_count\" = 0;\n            \"reply_id\" = 3128182;\n            \"reply_user\" =             {\n                \"followers_count_text\" = \"\";\n                id = 8839855;\n                \"is_prime\" = 0;\n                lv = 0;\n                lvl = 2;\n                n = Dongf;\n                p = \"http:\/\/tx1.douguo.net\/upload\/photo\/f\/e\/7\/70_u28244261572194191224.jpeg\";\n                \"progress_image\" = \"\";\n                \"recipes_count_text\" = \"\";\n                relationship = \"-1\";\n                title = \"\";\n                v = 0;\n                \"verified_image\" = \"\";\n            };\n            \"sticker_icon\" =             (\n            );\n            time = \"2016-02-23 02:44:25\";\n            u =             {\n                \"followers_count_text\" = \"\";\n                id = 15692698;\n                \"is_prime\" = 0;\n                lv = 0;\n                lvl = 1;\n                n = \"\\U53ee\\U53ee\\U549a\\U549a20015\";\n                p = \"http:\/\/tx1.douguo.net\/upload\/photo\/d\/1\/1\/70_u49054560487337200823.jpg\";\n                \"progress_image\" = \"\";\n                \"recipes_count_text\" = \"\";\n                relationship = \"-1\";\n                title = \"\";\n                v = 0;\n                \"verified_image\" = \"\";\n            };\n        }\n    );\n    city = \"\";\n    cmc = 2;\n    content =     (\n                {\n            c = \"\\U68d2\\U68d2\\U54d2\\Uff0c\\U6709\\U65f6\\U95f4\\U6211\\U4e5f\\U8981\\U505a\\U3002\\U6211\\U4eec\\U7684\\U70e4\\U7bb1\\U597d\\U50cf\\U662f\\U4e00\\U6837\\U7684\\Uff0c\\U4f60\\U8fd8\\U7528\\U70e4\\U7bb1\\U505a\\U4ec0\\U4e48\\Uff1f\\U6211\\U5b66\\U4e60\\U4e00\\U4e0b\";\n        }\n    );\n    ia = 0;\n    id = 3128182;\n    \"ip_address_location\" = \"\";\n    like = 0;\n    \"like_count\" = 0;\n    \"reply_id\" = 0;\n    \"sticker_icon\" =     (\n    );\n    time = \"2016-02-22 13:11:12\";\n    u =     {\n        \"followers_count_text\" = \"\";\n        id = 8839855;\n        \"is_prime\" = 0;\n        lv = 0;\n        lvl = 2;\n        n = Dongf;\n        p = \"http:\/\/tx1.douguo.net\/upload\/photo\/f\/e\/7\/70_u28244261572194191224.jpeg\";\n        \"progress_image\" = \"\";\n        \"recipes_count_text\" = \"\";\n        relationship = \"-1\";\n        title = \"\";\n        v = 0;\n        \"verified_image\" = \"\";\n    };\n}"
      ],
      "collect_status" : 0,
      "cook_id" : "1335290",
      "dishes" : [

      ],
      "v_u" : "",
      "rate_show" : 0,
      "ipt" : "",
      "ssu" : "",
      "cook_difficulty" : "",
      "views_count_text" : "32.1万",
      "release_time" : "",
      "display_ingredient" : 1,
      "author_verified" : 0,
      "su" : "",
      "advice" : {
        "has" : [
          {
            "t" : "低饱和脂肪",
            "url" : "recipes:\/\/www.douguo.com\/simplerecipelist?t=低饱和脂肪&id=低饱和脂肪"
          },
          {
            "t" : "低盐",
            "url" : "recipes:\/\/www.douguo.com\/simplerecipelist?t=低盐&id=低盐"
          }
        ],
        "da" : {
          "t" : "查看详细分析",
          "iu" : "https:\/\/i1.douguo.com\/upload\/banner\/f\/4\/d\/f48877e53c37759bc12ac494be82ec8d.png",
          "url" : "https:\/\/m.douguo.com\/recipe\/nutrient_self\/1335290"
        },
        "at" : "对血管有保护作用～"
      },
      "author_photo" : "http:\/\/tx1.douguo.net\/upload\/photo\/d\/1\/1\/70_u49054560487337200823.jpg",
      "ipia" : [

      ],
      "sr" : "",
      "cook_time_image" : "",
      "first_level_comment_count" : 11,
      "rate" : 4,
      "act_des" : "",
      "tags" : [
        "{\n    text = \"\\U5bb6\\U5e38\\U83dc\";\n}",
        "{\n    text = \"\\U6c34\\U4ea7\";\n}",
        "{\n    text = \"\\U70e4\\U7bb1\\U98df\\U8c31\";\n}",
        "{\n    text = \"\\U70e4\";\n}",
        "{\n    text = \"\\U849c\\U9999\";\n}",
        "{\n    text = \"\\U5348\\U9910\";\n}",
        "{\n    text = \"\\U665a\\U9910\";\n}",
        "{\n    text = \"\\U670b\\U53cb\\U805a\\U9910\";\n}",
        "{\n    text = \"\\U5ddd\\U83dc\";\n}"
      ]
    }
  },
  "state" : "success"
}