{
  "status" : 0,
  "state" : "success",
  "result" : {
    "recipe" : {
      "ipurl" : "",
      "tags" : [

      ],
      "recommended" : 0,
      "share_info" : {
        "s_u" : "http:\/\/m.douguo.com\/cookbook\/3129878.html",
        "s_d" : "#2021创意料理组——创意“食”光#柔嫩香滑的葱香厚蛋烧-会做饭很酷!",
        "object_id" : "3129878",
        "image" : "https:\/\/cp1.douguo.com\/upload\/caiku\/a\/d\/9\/adab2703877511f0371af9d3a7af46a9.jpeg",
        "infos" : [
          {
            "object_id" : "3129878",
            "s_d" : "#学做饭用豆果美食# 我在@豆果美食 分享了【#2021创意料理组——创意“食”光#柔嫩香滑的葱香厚蛋烧-会做饭很酷!】，帅哥美眉们～你们喜欢的美食来咯！快来跟我一起做吧～查看图片了解菜谱（想要获取更多美食就看这https:\/\/m.weibo.cn\/p\/100404i33631）#会做饭很酷#",
            "mini_program" : [

            ],
            "name" : "#2021创意料理组——创意“食”光#柔嫩香滑的葱香厚蛋烧-会做饭很酷!",
            "qr_image" : "",
            "s_u" : "",
            "image" : "https:\/\/cp1.douguo.com\/upload\/caiku\/a\/d\/9\/adab2703877511f0371af9d3a7af46a9.jpeg",
            "channel" : "1"
          },
          {
            "name" : "#2021创意料理组——创意“食”光#柔嫩香滑的葱香厚蛋烧-会做饭很酷!",
            "channel" : "7",
            "object_id" : "3129878",
            "s_u" : "http:\/\/m.douguo.com\/cookbook\/3129878.html",
            "mini_program" : [

            ],
            "qr_image" : "",
            "image" : "https:\/\/cp1.douguo.com\/upload\/caiku\/a\/d\/9\/adab2703877511f0371af9d3a7af46a9.jpeg",
            "s_d" : "#2021创意料理组——创意“食”光#柔嫩香滑的葱香厚蛋烧-会做饭很酷!"
          },
          {
            "channel" : "8",
            "s_u" : "http:\/\/m.douguo.com\/cookbook\/3129878.html",
            "name" : "#2021创意料理组——创意“食”光#柔嫩香滑的葱香厚蛋烧-会做饭很酷!",
            "qr_image" : "",
            "object_id" : "3129878",
            "s_d" : "#2021创意料理组——创意“食”光#柔嫩香滑的葱香厚蛋烧-会做饭很酷!",
            "mini_program" : [

            ],
            "image" : "https:\/\/cp1.douguo.com\/upload\/caiku\/a\/d\/9\/adab2703877511f0371af9d3a7af46a9.jpeg"
          }
        ],
        "name" : "#2021创意料理组——创意“食”光#柔嫩香滑的葱香厚蛋烧-会做饭很酷!",
        "qr_image" : "",
        "mini_program" : [

        ]
      },
      "release_time" : "",
      "mid_mdsp" : [

      ],
      "rate_show" : 0,
      "ipt" : "",
      "notes" : [

      ],
      "clicks" : "165592",
      "title" : "柔嫩香滑的葱香厚蛋烧",
      "author" : "meggy跳舞的苹果",
      "cook_time" : "10分钟左右",
      "rrps" : [

      ],
      "tips" : "1.蛋液中加少许凉水起到稀释作用，更利于蛋液迅速铺满锅底；\n2.蛋液过筛可以使大块的粘稠蛋清被过滤成细腻的蛋液，入锅后才不会成白色的大块；\n3.葱花也可换成其它细小的食材，如火腿肠、香菜叶、芝麻等；\n4.\t我用的圣迪乐村谷物蛋，鸡蛋可生食，所以厚蛋烧即使有未凝固的蛋液也能安心食用。",
      "ss" : [

      ],
      "related_ads" : [

      ],
      "rdsps" : [

      ],
      "ssu" : "",
      "act_des" : "",
      "recommend_label" : "1人学做",
      "ipit" : 0,
      "purl" : "",
      "dish_count_text" : "1",
      "rate_count" : 1,
      "ipia" : [

      ],
      "author_photo" : "http:\/\/tx1.douguo.net\/upload\/photo\/a\/6\/6\/70_u27727127410622225643.jpeg",
      "major" : [
        {
          "title" : "圣迪乐村谷物蛋",
          "note" : "4颗"
        },
        {
          "title" : "小葱叶",
          "note" : "5根"
        },
        {
          "note" : "10克",
          "title" : "凉水"
        },
        {
          "title" : "植物油",
          "tu" : "https:\/\/m.douguo.com\/ingredients\/植物油\/detailmaterial",
          "note" : "几滴"
        },
        {
          "note" : "1克",
          "tu" : "https:\/\/m.douguo.com\/ingredients\/盐\/detailmaterial",
          "title" : "盐"
        }
      ],
      "recent_comments" : [

      ],
      "cook_difficulty" : "切墩(初级)",
      "comments_count" : 1,
      "author_verified" : 1,
      "su" : "",
      "rips" : 0,
      "original_photo_path" : "http:\/\/i1.douguo.net\/upload\/caiku\/a\/d\/9\/yuan_adab2703877511f0371af9d3a7af46a9.jpeg",
      "event" : {
        "name" : "2021中国家庭烘焙料理大赛-创意料理组",
        "id" : 3244,
        "url" : "https:\/\/m.douguo.com\/activity\/ncpzj\/detail\/3244?isapp=1&open=0&_vs=1000300&&dg_refreshkey=publishnote"
      },
      "v_u" : "",
      "eu" : "recipes:\/\/www.douguo.com\/postdetail?id=242016",
      "image" : "http:\/\/i1.douguo.net\/upload\/caiku\/a\/d\/9\/300_adab2703877511f0371af9d3a7af46a9.jpeg",
      "top_mdsp" : [

      ],
      "cookwares" : [

      ],
      "btm_dsp" : [

      ],
      "rrpt" : "",
      "first_level_comment_count" : 1,
      "cook_id" : "3129878",
      "ipoi" : "",
      "old_comments" : [

      ],
      "hqu" : "recipes:\/\/www.douguo.com\/notedetail?id=21162253",
      "minor" : [

      ],
      "favo_counts" : 4940,
      "rcs" : [

      ],
      "dish_count" : 1,
      "rpt" : "",
      "cookstory" : " 厚蛋烧和玉子烧是一回事，名字源于“小日子过得挺滋润”的日本，说白了就是鸡蛋卷，把尚未凝固的摊鸡蛋一圈圈卷起来，口味可甜可咸，可纯鸡蛋，也可加入蔬菜或者鸡肉、鱼肉、香肠等。\n\n厚蛋烧要趁着鸡蛋液尚未凝固时卷起来，粘合度就特别好，切开之后却依然能看出一圈圈的纹路，也因此厚蛋烧的口感是松软香嫩的。用圣迪乐村可生食鸡蛋，特别适合做厚蛋烧，有此许生蛋液吃着别具风味。\n ",
      "rewarded_video_dsp" : [

      ],
      "favo_counts_text" : "4940",
      "photo_path" : "https:\/\/i1.douguo.com\/upload\/caiku\/a\/d\/9\/600_adab2703877511f0371af9d3a7af46a9.jpeg",
      "vu" : "",
      "advice" : {
        "at" : "能有效控制体重～",
        "has" : [
          {
            "url" : "recipes:\/\/www.douguo.com\/simplerecipelist?t=低热量&id=低热量",
            "t" : "低热量"
          },
          {
            "t" : "低盐",
            "url" : "recipes:\/\/www.douguo.com\/simplerecipelist?t=低盐&id=低盐"
          }
        ],
        "da" : {
          "url" : "https:\/\/m.douguo.com\/recipe\/nutrient_self\/3129878",
          "t" : "查看详细分析",
          "iu" : "https:\/\/i1.douguo.com\/upload\/banner\/f\/4\/d\/f48877e53c37759bc12ac494be82ec8d.png"
        }
      },
      "story_dsp" : [

      ],
      "cook_time_image" : "https:\/\/i1.douguo.com\/upload\/banner\/1551424358.png",
      "pw" : 1200,
      "user" : {
        "diaries_count" : 0,
        "setted_email" : 0,
        "email" : "",
        "verified_url" : "https:\/\/m.douguo.com\/user\/prodesc",
        "verified" : 1,
        "verified_image" : "https:\/\/i1.douguo.com\/upload\/note\/d\/a\/a\/da84247847aebe48d9dd0fcdac88862a.png",
        "favorites_count" : 0,
        "userid" : "8753046",
        "dishes_count" : 0,
        "progress_image" : "",
        "age" : "",
        "recipes_count" : 0,
        "introduction" : "",
        "qzone_nick" : "",
        "user_id" : "8753046",
        "subscription_article_count" : 0,
        "avatar_medium" : "http:\/\/tx1.douguo.net\/upload\/photo\/a\/6\/6\/140_u27727127410622225643.jpeg",
        "is_prime" : 0,
        "point" : 0,
        "user_cover" : "",
        "sign" : "",
        "followers_count" : 0,
        "nick" : "meggy跳舞的苹果",
        "lv" : 0,
        "following_count" : 0,
        "user_photo" : "http:\/\/tx1.douguo.net\/upload\/photo\/a\/6\/6\/70_u27727127410622225643.jpeg",
        "pc" : 0,
        "user_large_photo" : "http:\/\/tx1.douguo.net\/upload\/photo\/a\/6\/6\/yuan_u27727127410622225643.jpeg",
        "location" : 0,
        "lvl" : 8,
        "regist_time" : "",
        "fc" : 0,
        "favor_diaries_count" : 0,
        "coursecount" : 0,
        "mobile" : "",
        "subscription" : 0,
        "gender" : 2,
        "birthday" : "",
        "weibo_nick" : "",
        "qq_weibo_nick" : ""
      },
      "ph" : 800,
      "rpst" : "",
      "title_ad" : [

      ],
      "rsm" : "该功能暂停使用",
      "display_ingredient" : 1,
      "levelid" : 2,
      "brand_day_dsp" : [

      ],
      "ecs" : 0,
      "cookstorys" : [
        {
          "color" : "",
          "icon" : "",
          "id" : 0,
          "c" : " 厚蛋烧和玉子烧是一回事，名字源于“小日子过得挺滋润”的日本，说白了就是鸡蛋卷，把尚未凝固的摊鸡蛋一圈圈卷起来，口味可甜可咸，可纯鸡蛋，也可加入蔬菜或者鸡肉、鱼肉、香肠等。\n\n厚蛋烧要趁着鸡蛋液尚未凝固时卷起来，粘合度就特别好，切开之后却依然能看出一圈圈的纹路，也因此厚蛋烧的口感是松软香嫩的。用圣迪乐村可生食鸡蛋，特别适合做厚蛋烧，有此许生蛋液吃着别具风味。\n ",
          "type" : 0,
          "u" : ""
        },
        {
          "color" : "",
          "type" : 0,
          "id" : 0,
          "icon" : "",
          "c" : "\n参与活动:",
          "u" : ""
        },
        {
          "type" : 0,
          "id" : 0,
          "u" : "https:\/\/m.douguo.com\/activity\/ncpzj\/detail\/3244?isapp=1&open=0&_vs=1000300&&dg_refreshkey=publishnote",
          "icon" : "",
          "c" : "#2021中国家庭烘焙料理大赛-创意料理组#"
        }
      ],
      "guide_image" : "",
      "comments_count_text" : "1",
      "comments" : [
        "{\n    ac = \"#999999\";\n    at = \"\";\n    ccc = 0;\n    \"child_comments\" =     (\n    );\n    city = \"\";\n    cmc = 2;\n    content =     (\n                {\n            c = \"\\U4e0d\\U9519\\U5462 \";\n        }\n    );\n    ia = 0;\n    id = 8784174;\n    \"ip_address_location\" = \"\";\n    like = 0;\n    \"like_count\" = 0;\n    \"reply_id\" = 0;\n    \"sticker_icon\" =     (\n    );\n    time = \"2021-09-13 12:42:10\";\n    u =     {\n        \"followers_count_text\" = \"\";\n        id = 24600046;\n        \"is_prime\" = 0;\n        lv = 0;\n        lvl = 1;\n        n = \"\\U65c1\\U82e5\\U65e0\\U4eba\\U7684\\U5feb\\U4e50Npq\";\n        p = \"http:\/\/tx1.douguo.net\/upload\/photo\/2\/a\/6\/70_u59670157665351152603.jpeg\";\n        \"progress_image\" = \"\";\n        \"recipes_count_text\" = \"\";\n        relationship = \"-1\";\n        title = \"\";\n        v = 0;\n        \"verified_image\" = \"\";\n    };\n}"
      ],
      "hq" : 1,
      "vc" : "178696",
      "rate" : 5,
      "cook_difficulty_image" : "https:\/\/i1.douguo.com\/upload\/banner\/1551424390.png",
      "sc" : 0,
      "dishes" : [

      ],
      "recipe_list_tags" : [
        {
          "background_start_color" : "#F4F5F5",
          "background_border_color" : "",
          "text_color" : "#141515",
          "jump_url" : "",
          "background_end_color" : "#F4F5F5",
          "text" : "关注的人",
          "right_image" : ""
        },
        {
          "right_image" : "",
          "text" : "内容详细",
          "background_start_color" : "#F4F5F5",
          "background_end_color" : "#F4F5F5",
          "text_color" : "#141515",
          "background_border_color" : "",
          "jump_url" : ""
        }
      ],
      "author_id" : 8753046,
      "collect_status" : 0,
      "ipci" : "",
      "views_count_text" : "17.9万",
      "vfurl" : "",
      "recipe_tags" : [

      ],
      "cookstep" : [
        {
          "image_height" : 800,
          "position" : 1,
          "image_width" : 1200,
          "thumb" : "https:\/\/i1.douguo.com\/upload\/caiku\/2\/b\/5\/140_2b19d65de74f3c4deea59a7689019ae5.jpeg",
          "image" : "https:\/\/i1.douguo.com\/upload\/caiku\/2\/b\/5\/2b19d65de74f3c4deea59a7689019ae5.jpeg",
          "content" : "4颗鸡蛋和几根小葱叶准备好",
          "frame" : "-1"
        },
        {
          "image_width" : 1200,
          "frame" : "-1",
          "image_height" : 800,
          "content" : "鸡蛋打入碗中，加一小勺凉水约10克稀释；盐可随口味添加，我做的无盐的，又健康又能体现出鸡蛋的鲜香",
          "image" : "https:\/\/i1.douguo.com\/upload\/caiku\/7\/5\/0\/75d2d0f5d300fa7b8f2ff65f9a384dd0.jpeg",
          "position" : 2,
          "thumb" : "https:\/\/i1.douguo.com\/upload\/caiku\/7\/5\/0\/140_75d2d0f5d300fa7b8f2ff65f9a384dd0.jpeg"
        },
        {
          "thumb" : "https:\/\/i1.douguo.com\/upload\/caiku\/8\/e\/f\/140_8e74d8bae0c4b38a6682453341ac760f.jpeg",
          "position" : 3,
          "frame" : "-1",
          "image" : "https:\/\/i1.douguo.com\/upload\/caiku\/8\/e\/f\/8e74d8bae0c4b38a6682453341ac760f.jpeg",
          "image_width" : 1200,
          "content" : "过筛掉大块的蛋清，入锅后才不会成一片白",
          "image_height" : 800
        },
        {
          "image_width" : 1200,
          "frame" : "-1",
          "image_height" : 800,
          "thumb" : "https:\/\/i1.douguo.com\/upload\/caiku\/6\/5\/0\/140_65397414471f092f085e11e65e0fad00.jpeg",
          "image" : "https:\/\/i1.douguo.com\/upload\/caiku\/6\/5\/0\/65397414471f092f085e11e65e0fad00.jpeg",
          "content" : "小葱叶洗净沥干水，切碎末",
          "position" : 4
        },
        {
          "frame" : "-1",
          "image_height" : 800,
          "content" : "玉子烧锅加热，滴几滴植物油润锅；只第一张滴油，后面的都无需再放",
          "thumb" : "https:\/\/i1.douguo.com\/upload\/caiku\/b\/4\/2\/140_b4e1f48802b891bbebbcc832a8293e72.jpeg",
          "image_width" : 1200,
          "position" : 5,
          "image" : "https:\/\/i1.douguo.com\/upload\/caiku\/b\/4\/2\/b4e1f48802b891bbebbcc832a8293e72.jpeg"
        },
        {
          "frame" : "-1",
          "image" : "https:\/\/i1.douguo.com\/upload\/caiku\/f\/b\/9\/fb32b6be0606ee2ce1fdf272add12479.jpeg",
          "content" : "倒少许鸡蛋液在玉子烧锅中，端起锅使蛋液铺满锅底，撒少许小葱末",
          "thumb" : "https:\/\/i1.douguo.com\/upload\/caiku\/f\/b\/9\/140_fb32b6be0606ee2ce1fdf272add12479.jpeg",
          "image_width" : 1200,
          "position" : 6,
          "image_height" : 800
        },
        {
          "thumb" : "https:\/\/i1.douguo.com\/upload\/caiku\/5\/0\/6\/140_503461c283285e2cb77aa6a7697bc226.jpeg",
          "image" : "https:\/\/i1.douguo.com\/upload\/caiku\/5\/0\/6\/503461c283285e2cb77aa6a7697bc226.jpeg",
          "image_width" : 1200,
          "position" : 7,
          "frame" : "-1",
          "image_height" : 800,
          "content" : "表面蛋液尚未凝固时，从靠近身体这边用铲子将蛋皮铲起，打卷滚向锅的另一边"
        },
        {
          "content" : "卷好的蛋卷底部朝下固定几秒",
          "thumb" : "https:\/\/i1.douguo.com\/upload\/caiku\/0\/f\/9\/140_0f6ca0a6d1f48fac8d57566160900169.jpeg",
          "image" : "https:\/\/i1.douguo.com\/upload\/caiku\/0\/f\/9\/0f6ca0a6d1f48fac8d57566160900169.jpeg",
          "image_height" : 800,
          "position" : 8,
          "image_width" : 1200,
          "frame" : "-1"
        },
        {
          "thumb" : "https:\/\/i1.douguo.com\/upload\/caiku\/e\/c\/3\/140_ec21ccf97aca76cf432af56e25c46133.jpeg",
          "frame" : "-1",
          "position" : 9,
          "image_width" : 1200,
          "content" : "将蛋卷放回靠近身体这边，再倒适量蛋液在锅里，再撒少许小葱叶",
          "image" : "https:\/\/i1.douguo.com\/upload\/caiku\/e\/c\/3\/ec21ccf97aca76cf432af56e25c46133.jpeg",
          "image_height" : 800
        },
        {
          "image_height" : 800,
          "content" : "重复前面的操作步骤，依次倒入蛋卷并卷起；我一共重复了7次",
          "image_width" : 1200,
          "frame" : "-1",
          "position" : 10,
          "image" : "https:\/\/i1.douguo.com\/upload\/caiku\/e\/4\/3\/e40123c88fcbb834c4330eb0e7155ed3.jpeg",
          "thumb" : "https:\/\/i1.douguo.com\/upload\/caiku\/e\/4\/3\/140_e40123c88fcbb834c4330eb0e7155ed3.jpeg"
        },
        {
          "frame" : "-1",
          "content" : "厚蛋烧完成了，又黄又嫩又好看，放锅里翻滚几下定型，出锅",
          "position" : 11,
          "thumb" : "https:\/\/i1.douguo.com\/upload\/caiku\/a\/2\/1\/140_a2c5170963cab5b2097a757ed9f3b671.jpeg",
          "image" : "https:\/\/i1.douguo.com\/upload\/caiku\/a\/2\/1\/a2c5170963cab5b2097a757ed9f3b671.jpeg",
          "image_width" : 1200,
          "image_height" : 800
        },
        {
          "position" : 12,
          "thumb" : "https:\/\/i1.douguo.com\/upload\/caiku\/2\/6\/b\/140_2662c56ec341a0b6ee718ac204afbdfb.jpeg",
          "frame" : "-1",
          "image_height" : 800,
          "image_width" : 1200,
          "content" : "又黄又嫩，外皮有丝绸般的柔软和光泽",
          "image" : "https:\/\/i1.douguo.com\/upload\/caiku\/2\/6\/b\/2662c56ec341a0b6ee718ac204afbdfb.jpeg"
        },
        {
          "content" : "用圣迪乐村可生食鸡蛋，营养又安心",
          "image_height" : 1800,
          "frame" : "-1",
          "image_width" : 1200,
          "position" : 13,
          "image" : "https:\/\/i1.douguo.com\/upload\/caiku\/0\/2\/1\/02c5d48f4f3bb554d5bb3cf5af2d2271.jpeg",
          "thumb" : "https:\/\/i1.douguo.com\/upload\/caiku\/0\/2\/1\/140_02c5d48f4f3bb554d5bb3cf5af2d2271.jpeg"
        },
        {
          "content" : "松软香嫩",
          "image" : "https:\/\/i1.douguo.com\/upload\/caiku\/4\/0\/3\/40f18d130ede162b5652d07229546cd3.jpeg",
          "position" : 14,
          "frame" : "-1",
          "thumb" : "https:\/\/i1.douguo.com\/upload\/caiku\/4\/0\/3\/140_40f18d130ede162b5652d07229546cd3.jpeg",
          "image_height" : 800,
          "image_width" : 1200
        },
        {
          "image_height" : 808,
          "image" : "https:\/\/i1.douguo.com\/upload\/caiku\/7\/7\/f\/77c4e7a1f622aa80c1be5d767ee3dfdf.jpeg",
          "image_width" : 1200,
          "thumb" : "https:\/\/i1.douguo.com\/upload\/caiku\/7\/7\/f\/140_77c4e7a1f622aa80c1be5d767ee3dfdf.jpeg",
          "content" : "男女老少都喜欢",
          "position" : 15,
          "frame" : "-1"
        }
      ],
      "create_time" : "2021-09-13 11:00:02",
      "bs" : [

      ],
      "sr" : "",
      "recommendation_tag" : "",
      "rpid" : 0,
      "thumb_height" : 0,
      "packages_id" : [

      ],
      "thumb_path" : "https:\/\/i1.douguo.com\/upload\/caiku\/a\/d\/9\/300_adab2703877511f0371af9d3a7af46a9.jpeg"
    }
  }
}