{
  "result" : {
    "recipe" : {
      "cook_difficulty_image" : "",
      "eu" : "recipes:\/\/www.douguo.com\/postdetail?id=242016",
      "hq" : 1,
      "ipt" : "",
      "btm_dsp" : [

      ],
      "ipurl" : "",
      "author" : "jmy的私房菜",
      "rewarded_video_dsp" : [

      ],
      "author_id" : 5982038,
      "tags" : [
        "{\n    text = \"\\U5bb6\\U5e38\\U83dc\";\n}",
        "{\n    text = \"\\U8089\\U7c7b\";\n}",
        "{\n    text = \"\\U79c1\\U5bb6\\U83dc\";\n}",
        "{\n    text = \"\\U7096\";\n}",
        "{\n    text = \"\\U9999\";\n}",
        "{\n    text = \"\\U5348\\U9910\";\n}",
        "{\n    text = \"\\U665a\\U9910\";\n}",
        "{\n    text = \"\\U7ca4\\U83dc\";\n}",
        "{\n    text = \"\\U6e05\\U6de1\";\n}",
        "{\n    text = \"\\U54b8\\U9c9c\";\n}"
      ],
      "recommendation_tag" : "",
      "story_dsp" : [

      ],
      "vu" : "",
      "create_time" : "2016-03-27 05:37:00",
      "release_time" : "",
      "major" : [
        {
          "note" : "500g",
          "tu" : "https:\/\/m.douguo.com\/ingredients\/排骨\/detailmaterial",
          "title" : "排骨"
        },
        {
          "title" : "泡发干香菇",
          "note" : "12个"
        },
        {
          "note" : "3个",
          "title" : "干辣椒",
          "tu" : "https:\/\/m.douguo.com\/ingredients\/干辣椒\/detailmaterial"
        },
        {
          "tu" : "https:\/\/m.douguo.com\/ingredients\/蒜头\/detailmaterial",
          "title" : "蒜头",
          "note" : "4个"
        },
        {
          "tu" : "https:\/\/m.douguo.com\/ingredients\/八角\/detailmaterial",
          "title" : "八角",
          "note" : "2个"
        },
        {
          "tu" : "https:\/\/m.douguo.com\/ingredients\/老抽\/detailmaterial",
          "note" : "5ml",
          "title" : "老抽"
        },
        {
          "note" : "10ml",
          "title" : "生抽",
          "tu" : "https:\/\/m.douguo.com\/ingredients\/生抽\/detailmaterial"
        },
        {
          "tu" : "https:\/\/m.douguo.com\/ingredients\/料酒\/detailmaterial",
          "note" : "20ml",
          "title" : "料酒"
        },
        {
          "note" : "20g",
          "tu" : "https:\/\/m.douguo.com\/ingredients\/油\/detailmaterial",
          "title" : "油"
        },
        {
          "tu" : "https:\/\/m.douguo.com\/ingredients\/糖\/detailmaterial",
          "title" : "糖",
          "note" : "2g"
        },
        {
          "note" : "适量",
          "title" : "葱姜",
          "tu" : "https:\/\/m.douguo.com\/ingredients\/葱姜\/detailmaterial"
        }
      ],
      "dish_count_text" : "22",
      "recommend_label" : "22人学做",
      "rcs" : [

      ],
      "cook_time" : "",
      "rrps" : [

      ],
      "su" : "",
      "ipit" : 0,
      "thumb_path" : "https:\/\/i1.douguo.com\/upload\/caiku\/5\/8\/f\/300_58f8b2c759afef50a9197fc7eb527a9f.jpeg",
      "author_photo" : "http:\/\/tx1.douguo.net\/upload\/photo\/5\/6\/0\/70_u12157371987027015022.jpeg",
      "original_photo_path" : "http:\/\/i1.douguo.net\/upload\/caiku\/5\/8\/f\/yuan_58f8b2c759afef50a9197fc7eb527a9f.jpeg",
      "comments_count" : 16,
      "dishes" : [

      ],
      "rate" : 5,
      "title" : "排骨炖香菇",
      "act_des" : "",
      "v_u" : "",
      "vfurl" : "",
      "notes" : [

      ],
      "cookstory" : "排骨是我最喜欢吃的肉类之一了，红烧的，糖醋的，干煎或清蒸，我都是爱的不要不要的，但是红烧的是我最爱，今天做个排骨炖香菇，说是炖，其实还是红烧啦，就是添加了一些香菇，排骨的鲜香与香菇的肥美，让人胃口大开，真的吃着停不下口哦。",
      "old_comments" : [

      ],
      "favo_counts_text" : "7557",
      "minor" : [

      ],
      "rpt" : "",
      "cookstorys" : [
        {
          "color" : "",
          "c" : "排骨是我最喜欢吃的肉类之一了，红烧的，糖醋的，干煎或清蒸，我都是爱的不要不要的，但是红烧的是我最爱，今天做个排骨炖香菇，说是炖，其实还是红烧啦，就是添加了一些香菇，排骨的鲜香与香菇的肥美，让人胃口大开，真的吃着停不下口哦。",
          "type" : 0,
          "u" : "",
          "icon" : "",
          "id" : 0
        }
      ],
      "ipia" : [

      ],
      "rate_show" : 0,
      "pw" : 800,
      "author_verified" : 1,
      "rpid" : 0,
      "display_ingredient" : 1,
      "title_ad" : [

      ],
      "comments_count_text" : "16",
      "related_ads" : [

      ],
      "rsm" : "该功能暂停使用",
      "clicks" : "265952",
      "views_count_text" : "30.5万",
      "user" : {
        "dishes_count" : 0,
        "lvl" : 8,
        "verified_url" : "https:\/\/m.douguo.com\/user\/prodesc",
        "location" : 0,
        "progress_image" : "",
        "subscription_article_count" : 0,
        "userid" : "5982038",
        "lv" : 0,
        "favor_diaries_count" : 0,
        "point" : 0,
        "sign" : "",
        "age" : "",
        "weibo_nick" : "",
        "followers_count" : 0,
        "coursecount" : 0,
        "user_cover" : "",
        "favorites_count" : 0,
        "diaries_count" : 0,
        "regist_time" : "",
        "subscription" : 0,
        "nick" : "jmy的私房菜",
        "verified_image" : "https:\/\/i1.douguo.com\/upload\/note\/d\/a\/a\/da84247847aebe48d9dd0fcdac88862a.png",
        "gender" : 2,
        "qzone_nick" : "",
        "fc" : 0,
        "birthday" : "",
        "user_id" : "5982038",
        "pc" : 0,
        "user_photo" : "http:\/\/tx1.douguo.net\/upload\/photo\/5\/6\/0\/70_u12157371987027015022.jpeg",
        "avatar_medium" : "http:\/\/tx1.douguo.net\/upload\/photo\/5\/6\/0\/140_u12157371987027015022.jpeg",
        "verified" : 1,
        "setted_email" : 0,
        "recipes_count" : 0,
        "qq_weibo_nick" : "",
        "mobile" : "",
        "email" : "",
        "following_count" : 0,
        "is_prime" : 0,
        "user_large_photo" : "http:\/\/tx1.douguo.net\/upload\/photo\/5\/6\/0\/yuan_u12157371987027015022.jpeg",
        "introduction" : ""
      },
      "favo_counts" : 7557,
      "guide_image" : "",
      "image" : "http:\/\/i1.douguo.net\/upload\/caiku\/5\/8\/f\/300_58f8b2c759afef50a9197fc7eb527a9f.jpeg",
      "bs" : [

      ],
      "thumb_height" : 0,
      "dish_count" : 22,
      "cook_difficulty" : "",
      "sc" : 0,
      "ssu" : "",
      "mid_mdsp" : [

      ],
      "recommended" : 0,
      "brand_day_dsp" : [

      ],
      "photo_path" : "https:\/\/i1.douguo.com\/upload\/caiku\/5\/8\/f\/600_58f8b2c759afef50a9197fc7eb527a9f.jpeg",
      "top_mdsp" : [

      ],
      "rpst" : "",
      "advice" : {
        "has" : [
          {
            "t" : "高脂肪",
            "url" : "recipes:\/\/www.douguo.com\/simplerecipelist?t=高脂肪&id=高脂肪"
          },
          {
            "t" : "富含烟酸",
            "url" : "recipes:\/\/www.douguo.com\/simplerecipelist?t=富含烟酸&id=富含烟酸"
          }
        ],
        "at" : "减肥的美女注意喽～",
        "da" : {
          "t" : "查看详细分析",
          "url" : "https:\/\/m.douguo.com\/recipe\/nutrient_self\/1351476",
          "iu" : "https:\/\/i1.douguo.com\/upload\/banner\/f\/4\/d\/f48877e53c37759bc12ac494be82ec8d.png"
        }
      },
      "ph" : 776,
      "ss" : [

      ],
      "ipoi" : "",
      "recent_comments" : [

      ],
      "ipci" : "",
      "share_info" : {
        "infos" : [
          {
            "qr_image" : "",
            "name" : "排骨炖香菇-会做饭很酷!",
            "mini_program" : [

            ],
            "s_u" : "",
            "object_id" : "1351476",
            "channel" : "1",
            "image" : "https:\/\/cp1.douguo.com\/upload\/caiku\/5\/8\/f\/58f8b2c759afef50a9197fc7eb527a9f.jpeg",
            "s_d" : "#学做饭用豆果美食# 我在@豆果美食 分享了【排骨炖香菇-会做饭很酷!】，这菜真的很好吃，而且做法简单不难学，还不快来跟我学～查看图片了解菜谱（每天限量免费课程，想跟大师学厨艺就来这https:\/\/m.weibo.cn\/p\/100404i33631）#会做饭很酷# "
          },
          {
            "object_id" : "1351476",
            "qr_image" : "",
            "s_u" : "http:\/\/m.douguo.com\/cookbook\/1351476.html",
            "mini_program" : [

            ],
            "name" : "排骨炖香菇-会做饭很酷!",
            "channel" : "7",
            "s_d" : "排骨炖香菇-会做饭很酷!",
            "image" : "https:\/\/cp1.douguo.com\/upload\/caiku\/5\/8\/f\/58f8b2c759afef50a9197fc7eb527a9f.jpeg"
          },
          {
            "mini_program" : [

            ],
            "s_d" : "排骨炖香菇-会做饭很酷!",
            "image" : "https:\/\/cp1.douguo.com\/upload\/caiku\/5\/8\/f\/58f8b2c759afef50a9197fc7eb527a9f.jpeg",
            "channel" : "8",
            "object_id" : "1351476",
            "name" : "排骨炖香菇-会做饭很酷!",
            "qr_image" : "",
            "s_u" : "http:\/\/m.douguo.com\/cookbook\/1351476.html"
          }
        ],
        "image" : "https:\/\/cp1.douguo.com\/upload\/caiku\/5\/8\/f\/58f8b2c759afef50a9197fc7eb527a9f.jpeg",
        "s_d" : "排骨炖香菇-会做饭很酷!",
        "qr_image" : "",
        "name" : "排骨炖香菇-会做饭很酷!",
        "mini_program" : [

        ],
        "s_u" : "http:\/\/m.douguo.com\/cookbook\/1351476.html",
        "object_id" : "1351476"
      },
      "cook_time_image" : "",
      "tips" : "",
      "packages_id" : [

      ],
      "recipe_list_tags" : [
        {
          "right_image" : "",
          "text_color" : "#141515",
          "background_border_color" : "",
          "text" : "关注的人",
          "background_start_color" : "#F4F5F5",
          "jump_url" : "",
          "background_end_color" : "#F4F5F5"
        }
      ],
      "levelid" : 2,
      "rrpt" : "",
      "rdsps" : [

      ],
      "vc" : "304581",
      "rips" : 0,
      "rate_count" : 11,
      "sr" : "",
      "recipe_tags" : [

      ],
      "ecs" : 0,
      "first_level_comment_count" : 8,
      "purl" : "",
      "cookwares" : [

      ],
      "comments" : [
        "{\n    ac = \"#999999\";\n    at = \"\";\n    ccc = 3;\n    \"child_comments\" =     (\n                {\n            ac = \"#999999\";\n            at = \"\";\n            ccc = 0;\n            city = \"\";\n            cmc = 2;\n            content =             (\n                                {\n                    c = \" \\U6211\\U770b\\U770b\\U53bb\\Uff0c\\U7528\\U7b14\\U5212\\U7684\\Uff0c\\U5199\\U9519\\U4e86\\Uff0c\\U8c22\\U8c22\\U63d0\\U9192\\U554a\\U3002\";\n                }\n            );\n            ia = 1;\n            id = 3248883;\n            \"ip_address_location\" = \"\";\n            like = 0;\n            \"like_count\" = 0;\n            \"reply_id\" = 3248880;\n            \"reply_user\" =             {\n                \"followers_count_text\" = \"\";\n                id = 11913440;\n                \"is_prime\" = 0;\n                lv = 0;\n                lvl = 1;\n                n = \"\\U53ef\\U4e50plnr\";\n                p = \"http:\/\/tx1.douguo.net\/upload\/photo\/e\/8\/a\/70_u46271807266223143716.jpeg\";\n                \"progress_image\" = \"\";\n                \"recipes_count_text\" = \"\";\n                relationship = \"-1\";\n                title = \"\";\n                v = 0;\n                \"verified_image\" = \"\";\n            };\n            \"sticker_icon\" =             (\n            );\n            time = \"2016-03-27 16:26:31\";\n            u =             {\n                \"followers_count_text\" = \"\";\n                id = 5982038;\n                \"is_prime\" = 0;\n                lv = 0;\n                lvl = 8;\n                n = \"jmy\\U7684\\U79c1\\U623f\\U83dc\";\n                p = \"http:\/\/tx1.douguo.net\/upload\/photo\/5\/6\/0\/70_u12157371987027015022.jpeg\";\n                \"progress_image\" = \"\";\n                \"recipes_count_text\" = \"\";\n                relationship = \"-1\";\n                title = \"\";\n                v = 1;\n                \"verified_image\" = \"\";\n            };\n        },\n                {\n            ac = \"#999999\";\n            at = \"\";\n            ccc = 0;\n            city = \"\";\n            cmc = 2;\n            content =             (\n                                {\n                    c = \" \\U90fd\\U6539\\U597d\\U4e86\\Uff0c\\U591a\\U8c22\";\n                }\n            );\n            ia = 1;\n            id = 3248887;\n            \"ip_address_location\" = \"\";\n            like = 0;\n            \"like_count\" = 0;\n            \"reply_id\" = 3248880;\n            \"reply_user\" =             {\n                \"followers_count_text\" = \"\";\n                id = 11913440;\n                \"is_prime\" = 0;\n                lv = 0;\n                lvl = 1;\n                n = \"\\U53ef\\U4e50plnr\";\n                p = \"http:\/\/tx1.douguo.net\/upload\/photo\/e\/8\/a\/70_u46271807266223143716.jpeg\";\n                \"progress_image\" = \"\";\n                \"recipes_count_text\" = \"\";\n                relationship = \"-1\";\n                title = \"\";\n                v = 0;\n                \"verified_image\" = \"\";\n            };\n            \"sticker_icon\" =             (\n            );\n            time = \"2016-03-27 16:29:28\";\n            u =             {\n                \"followers_count_text\" = \"\";\n                id = 5982038;\n                \"is_prime\" = 0;\n                lv = 0;\n                lvl = 8;\n                n = \"jmy\\U7684\\U79c1\\U623f\\U83dc\";\n                p = \"http:\/\/tx1.douguo.net\/upload\/photo\/5\/6\/0\/70_u12157371987027015022.jpeg\";\n                \"progress_image\" = \"\";\n                \"recipes_count_text\" = \"\";\n                relationship = \"-1\";\n                title = \"\";\n                v = 1;\n                \"verified_image\" = \"\";\n            };\n        }\n    );\n    city = \"\";\n    cmc = 2;\n    content =     (\n                {\n            c = \"\\U4e0d\\U6b62\\U4e00\\U4e2a\\U3002\\U3002\\U9999\\U83c7\\U5199\\U6210\\U9999\\U8339 \\U3002\";\n        }\n    );\n    ia = 0;\n    id = 3248880;\n    \"ip_address_location\" = \"\";\n    like = 0;\n    \"like_count\" = 0;\n    \"reply_id\" = 0;\n    \"sticker_icon\" =     (\n    );\n    time = \"2016-03-27 16:24:15\";\n    u =     {\n        \"followers_count_text\" = \"\";\n        id = 11913440;\n        \"is_prime\" = 0;\n        lv = 0;\n        lvl = 1;\n        n = \"\\U53ef\\U4e50plnr\";\n        p = \"http:\/\/tx1.douguo.net\/upload\/photo\/e\/8\/a\/70_u46271807266223143716.jpeg\";\n        \"progress_image\" = \"\";\n        \"recipes_count_text\" = \"\";\n        relationship = \"-1\";\n        title = \"\";\n        v = 0;\n        \"verified_image\" = \"\";\n    };\n}",
        "{\n    ac = \"#999999\";\n    at = \"\";\n    ccc = 3;\n    \"child_comments\" =     (\n                {\n            ac = \"#999999\";\n            at = \"\";\n            ccc = 0;\n            city = \"\";\n            cmc = 2;\n            content =             (\n                                {\n                    c = \" \\U6211\\U4e5f\\U7eb3\\U95f7\\U4e86\\Uff0c\\U4e3a\\U4ec0\\U4e48\\U653e\\U9e21\\U86cb\";\n                }\n            );\n            ia = 0;\n            id = 3247609;\n            \"ip_address_location\" = \"\";\n            like = 0;\n            \"like_count\" = 0;\n            \"reply_id\" = 3247323;\n            \"reply_user\" =             {\n                \"followers_count_text\" = \"\";\n                id = 16959852;\n                \"is_prime\" = 0;\n                lv = 0;\n                lvl = 1;\n                n = \"\\U5c0f\\U59ae\\U5b50kelly112009\";\n                p = \"http:\/\/tx1.douguo.net\/upload\/photo\/4\/e\/8\/70_u58895487859183175919.jpeg\";\n                \"progress_image\" = \"\";\n                \"recipes_count_text\" = \"\";\n                relationship = \"-1\";\n                title = \"\";\n                v = 0;\n                \"verified_image\" = \"\";\n            };\n            \"sticker_icon\" =             (\n            );\n            time = \"2016-03-27 09:21:21\";\n            u =             {\n                \"followers_count_text\" = \"\";\n                id = 16980114;\n                \"is_prime\" = 0;\n                lv = 0;\n                lvl = 1;\n                n = \"\\U8bf7\\U53eb\\U6211\\U5927\\U53a8\\U54e5\";\n                p = \"\";\n                \"progress_image\" = \"\";\n                \"recipes_count_text\" = \"\";\n                relationship = \"-1\";\n                title = \"\";\n                v = 0;\n                \"verified_image\" = \"\";\n            };\n        },\n                {\n            ac = \"#999999\";\n            at = \"\";\n            ccc = 0;\n            city = \"\";\n            cmc = 2;\n            content =             (\n                                {\n                    c = \" \\U662f\\U9e21\\U7cbe\\Uff0c\\U7b14\\U8bef\\U3002\";\n                }\n            );\n            ia = 1;\n            id = 3247757;\n            \"ip_address_location\" = \"\";\n            like = 0;\n            \"like_count\" = 0;\n            \"reply_id\" = 3247323;\n            \"reply_user\" =             {\n                \"followers_count_text\" = \"\";\n                id = 16959852;\n                \"is_prime\" = 0;\n                lv = 0;\n                lvl = 1;\n                n = \"\\U5c0f\\U59ae\\U5b50kelly112009\";\n                p = \"http:\/\/tx1.douguo.net\/upload\/photo\/4\/e\/8\/70_u58895487859183175919.jpeg\";\n                \"progress_image\" = \"\";\n                \"recipes_count_text\" = \"\";\n                relationship = \"-1\";\n                title = \"\";\n                v = 0;\n                \"verified_image\" = \"\";\n            };\n            \"sticker_icon\" =             (\n            );\n            time = \"2016-03-27 09:57:45\";\n            u =             {\n                \"followers_count_text\" = \"\";\n                id = 5982038;\n                \"is_prime\" = 0;\n                lv = 0;\n                lvl = 8;\n                n = \"jmy\\U7684\\U79c1\\U623f\\U83dc\";\n                p = \"http:\/\/tx1.douguo.net\/upload\/photo\/5\/6\/0\/70_u12157371987027015022.jpeg\";\n                \"progress_image\" = \"\";\n                \"recipes_count_text\" = \"\";\n                relationship = \"-1\";\n                title = \"\";\n                v = 1;\n                \"verified_image\" = \"\";\n            };\n        }\n    );\n    city = \"\";\n    cmc = 2;\n    content =     (\n                {\n            c = \"\\U8fd8\\U8981\\U52a0\\U9e21\\U86cb\\U5e72\\U4ec0\\U4e48\\U5462\\Uff1f\";\n        }\n    );\n    ia = 0;\n    id = 3247323;\n    \"ip_address_location\" = \"\";\n    like = 0;\n    \"like_count\" = 0;\n    \"reply_id\" = 0;\n    \"sticker_icon\" =     (\n    );\n    time = \"2016-03-27 08:15:14\";\n    u =     {\n        \"followers_count_text\" = \"\";\n        id = 16959852;\n        \"is_prime\" = 0;\n        lv = 0;\n        lvl = 1;\n        n = \"\\U5c0f\\U59ae\\U5b50kelly112009\";\n        p = \"http:\/\/tx1.douguo.net\/upload\/photo\/4\/e\/8\/70_u58895487859183175919.jpeg\";\n        \"progress_image\" = \"\";\n        \"recipes_count_text\" = \"\";\n        relationship = \"-1\";\n        title = \"\";\n        v = 0;\n        \"verified_image\" = \"\";\n    };\n}",
        "{\n    ac = \"#999999\";\n    at = \"\\U5317\\U4eac\\U5e02\";\n    ccc = 1;\n    \"child_comments\" =     (\n                {\n            ac = \"#999999\";\n            at = \"\\U4e0a\\U6d77\\U5e02\";\n            ccc = 0;\n            city = \"\\U4e0a\\U6d77\\U5e02\";\n            cmc = 2;\n            content =             (\n                                {\n                    c = \" \\U5ba2\\U6c14\\U5566\\Ud83d\\Ude04\";\n                }\n            );\n            ia = 1;\n            id = 7631995;\n            \"ip_address_location\" = \"\";\n            like = 0;\n            \"like_count\" = 0;\n            \"reply_id\" = 7630136;\n            \"reply_user\" =             {\n                \"followers_count_text\" = \"\";\n                id = 7300616;\n                \"is_prime\" = 0;\n                lv = 0;\n                lvl = 5;\n                n = \"C\\U9171CCC\";\n                p = \"http:\/\/tx1.douguo.net\/upload\/photo\/f\/4\/6\/70_u17599442493368134422.jpeg\";\n                \"progress_image\" = \"\";\n                \"recipes_count_text\" = \"\";\n                relationship = \"-1\";\n                title = \"\";\n                v = 1;\n                \"verified_image\" = \"\";\n            };\n            \"sticker_icon\" =             (\n            );\n            time = \"2020-02-16 15:32:43\";\n            u =             {\n                \"followers_count_text\" = \"\";\n                id = 5982038;\n                \"is_prime\" = 0;\n                lv = 0;\n                lvl = 8;\n                n = \"jmy\\U7684\\U79c1\\U623f\\U83dc\";\n                p = \"http:\/\/tx1.douguo.net\/upload\/photo\/5\/6\/0\/70_u12157371987027015022.jpeg\";\n                \"progress_image\" = \"\";\n                \"recipes_count_text\" = \"\";\n                relationship = \"-1\";\n                title = \"\";\n                v = 1;\n                \"verified_image\" = \"\";\n            };\n        }\n    );\n    city = \"\\U5317\\U4eac\\U5e02\";\n    cmc = 2;\n    content =     (\n                {\n            c = \"\\U8c22\\U8c22\\U5e26\\U7ed9\\U6211\\U4eec\\U8fd9\\U4e48\\U597d\\U7684\\U5185\\U5bb9\";\n        }\n    );\n    ia = 0;\n    id = 7630136;\n    \"ip_address_location\" = \"\";\n    like = 0;\n    \"like_count\" = 0;\n    \"reply_id\" = 0;\n    \"sticker_icon\" =     (\n    );\n    time = \"2020-02-15 23:46:36\";\n    u =     {\n        \"followers_count_text\" = \"\";\n        id = 7300616;\n        \"is_prime\" = 0;\n        lv = 0;\n        lvl = 5;\n        n = \"C\\U9171CCC\";\n        p = \"http:\/\/tx1.douguo.net\/upload\/photo\/f\/4\/6\/70_u17599442493368134422.jpeg\";\n        \"progress_image\" = \"\";\n        \"recipes_count_text\" = \"\";\n        relationship = \"-1\";\n        title = \"\";\n        v = 1;\n        \"verified_image\" = \"\";\n    };\n}"
      ],
      "collect_status" : 0,
      "hqu" : "recipes:\/\/www.douguo.com\/notedetail?id=21162253",
      "cook_id" : "1351476",
      "cookstep" : [
        {
          "image" : "https:\/\/i1.douguo.com\/upload\/caiku\/8\/9\/8\/89e8b7b02433c50e3ef97dbf8da8acd8.jpeg",
          "frame" : "-1",
          "thumb" : "https:\/\/i1.douguo.com\/upload\/caiku\/8\/9\/8\/140_89e8b7b02433c50e3ef97dbf8da8acd8.jpeg",
          "position" : 1,
          "image_width" : 800,
          "image_height" : 800,
          "content" : "猪小排用温水洗干净，香菇提前一个小时泡发好"
        },
        {
          "thumb" : "https:\/\/i1.douguo.com\/upload\/caiku\/a\/b\/8\/140_abf8aeaaa02681579bf7641e874836d8.jpeg",
          "image" : "https:\/\/i1.douguo.com\/upload\/caiku\/a\/b\/8\/abf8aeaaa02681579bf7641e874836d8.jpeg",
          "image_width" : 800,
          "frame" : "-1",
          "position" : 2,
          "image_height" : 800,
          "content" : "排骨放锅里焯下水，水开后煮三分钟捞出冲洗干净，沥干水待用。"
        },
        {
          "image" : "https:\/\/i1.douguo.com\/upload\/caiku\/1\/6\/9\/16c095c8da03fe1158e9be77a10200b9.jpeg",
          "image_width" : 800,
          "frame" : "-1",
          "thumb" : "https:\/\/i1.douguo.com\/upload\/caiku\/1\/6\/9\/140_16c095c8da03fe1158e9be77a10200b9.jpeg",
          "content" : "把油放入烧热的锅子内，油温七成热时放入姜片与八角爆香。",
          "image_height" : 800,
          "position" : 3
        },
        {
          "position" : 4,
          "image_width" : 800,
          "image" : "https:\/\/i1.douguo.com\/upload\/caiku\/8\/6\/c\/865197dd1941db0f6b8c900ac8d6175c.jpeg",
          "content" : "放入排骨煎至变色后放入生抽与老抽炒匀上色。",
          "thumb" : "https:\/\/i1.douguo.com\/upload\/caiku\/8\/6\/c\/140_865197dd1941db0f6b8c900ac8d6175c.jpeg",
          "image_height" : 800,
          "frame" : "-1"
        },
        {
          "image" : "https:\/\/i1.douguo.com\/upload\/caiku\/6\/a\/d\/6aa4c7f095169aa171980c8514c0c19d.jpeg",
          "frame" : "-1",
          "position" : 5,
          "image_width" : 800,
          "content" : "倒入料酒炒香后加入热水，放入清洗干净的香菇，干辣椒，蒜头，葱结，糖，烧开后转小火慢炖50分钟。香菇我花刀刻不来，就在顶部用刀划了个十字，这样香茹能更入味些。",
          "thumb" : "https:\/\/i1.douguo.com\/upload\/caiku\/6\/a\/d\/140_6aa4c7f095169aa171980c8514c0c19d.jpeg",
          "image_height" : 800
        },
        {
          "image" : "https:\/\/i1.douguo.com\/upload\/caiku\/5\/5\/b\/552848f9a4a5c334af74194cbff37e2b.jpeg",
          "frame" : "-1",
          "image_height" : 800,
          "content" : "时间差不多时，加入盐调下味，可尝下咸淡后再放盐，因为生抽与老抽已经有咸味了，大火收汁，出锅前放些鸡精炒匀。",
          "image_width" : 800,
          "thumb" : "https:\/\/i1.douguo.com\/upload\/caiku\/5\/5\/b\/140_552848f9a4a5c334af74194cbff37e2b.jpeg",
          "position" : 6
        },
        {
          "position" : 7,
          "content" : "把排骨香菇装在砂锅里，放上一根香菜做点缀，端上桌美美的享用啦，香菇吸收了肉汁的鲜美，非常的好吃，当然最好吃的还是排骨了^_^。",
          "image_width" : 800,
          "thumb" : "https:\/\/i1.douguo.com\/upload\/caiku\/4\/1\/4\/140_41231fba2131cd023221460b6cf38da4.jpeg",
          "image_height" : 776,
          "image" : "https:\/\/i1.douguo.com\/upload\/caiku\/4\/1\/4\/41231fba2131cd023221460b6cf38da4.jpeg",
          "frame" : "-1"
        },
        {
          "image" : "https:\/\/i1.douguo.com\/upload\/caiku\/e\/6\/a\/e698d75bd2eb2d11c6b60a145535bd0a.jpeg",
          "image_width" : 800,
          "frame" : "-1",
          "thumb" : "https:\/\/i1.douguo.com\/upload\/caiku\/e\/6\/a\/140_e698d75bd2eb2d11c6b60a145535bd0a.jpeg",
          "image_height" : 739,
          "position" : 8,
          "content" : "成品。"
        }
      ]
    }
  },
  "status" : 0,
  "state" : "success"
}