{
  "state" : "success",
  "result" : {
    "recipe" : {
      "author" : "___.Carine。",
      "ipt" : "",
      "ecs" : 0,
      "cookstorys" : [
        {
          "id" : 0,
          "u" : "",
          "icon" : "",
          "color" : "",
          "c" : "一直不爱吃苦瓜 但这样做以后就不怎么苦了哦  可以接受  夏天吃起来清清爽爽 颜色也漂亮   小伙伴们加一道菜吧\\(^o^)\/",
          "type" : 0
        }
      ],
      "bs" : [

      ],
      "vc" : "24827",
      "ph" : 600,
      "rrps" : [

      ],
      "rcs" : [

      ],
      "dishes" : [

      ],
      "rpst" : "",
      "old_comments" : [

      ],
      "ipit" : 0,
      "ssu" : "",
      "image" : "http:\/\/i1.douguo.net\/upload\/caiku\/6\/5\/3\/300_6591a0855fdf90cd2935a1bd22d71543.jpeg",
      "packages_id" : [

      ],
      "rewarded_video_dsp" : [

      ],
      "cook_difficulty_image" : "",
      "author_id" : 1893546,
      "act_des" : "",
      "levelid" : 2,
      "rips" : 0,
      "recipe_list_tags" : [
        {
          "text_color" : "#141515",
          "jump_url" : "",
          "background_border_color" : "",
          "background_start_color" : "#F4F5F5",
          "text" : "关注的人",
          "background_end_color" : "#F4F5F5",
          "right_image" : ""
        }
      ],
      "thumb_height" : 0,
      "vfurl" : "",
      "share_info" : {
        "s_d" : "夏季爽口翡翠苦瓜-会做饭很酷!",
        "qr_image" : "",
        "object_id" : "1550555",
        "name" : "夏季爽口翡翠苦瓜-会做饭很酷!",
        "s_u" : "http:\/\/m.douguo.com\/cookbook\/1550555.html",
        "mini_program" : [

        ],
        "image" : "https:\/\/cp1.douguo.com\/upload\/caiku\/6\/5\/3\/6591a0855fdf90cd2935a1bd22d71543.jpeg",
        "infos" : [
          {
            "object_id" : "1550555",
            "name" : "夏季爽口翡翠苦瓜-会做饭很酷!",
            "qr_image" : "",
            "mini_program" : [

            ],
            "image" : "https:\/\/cp1.douguo.com\/upload\/caiku\/6\/5\/3\/6591a0855fdf90cd2935a1bd22d71543.jpeg",
            "channel" : "1",
            "s_d" : "#学做饭用豆果美食# 会做饭真是太酷了！我在@豆果美食 分享了【夏季爽口翡翠苦瓜-会做饭很酷!】，看着是不是馋到不行呢～快来跟我学学吧！查看图片了解菜谱，（想要获取更多美食就看这https:\/\/m.weibo.cn\/p\/100404i33631）",
            "s_u" : ""
          },
          {
            "mini_program" : [

            ],
            "image" : "https:\/\/cp1.douguo.com\/upload\/caiku\/6\/5\/3\/6591a0855fdf90cd2935a1bd22d71543.jpeg",
            "s_u" : "http:\/\/m.douguo.com\/cookbook\/1550555.html",
            "s_d" : "夏季爽口翡翠苦瓜-会做饭很酷!",
            "object_id" : "1550555",
            "name" : "夏季爽口翡翠苦瓜-会做饭很酷!",
            "qr_image" : "",
            "channel" : "7"
          },
          {
            "name" : "夏季爽口翡翠苦瓜-会做饭很酷!",
            "object_id" : "1550555",
            "s_u" : "http:\/\/m.douguo.com\/cookbook\/1550555.html",
            "s_d" : "夏季爽口翡翠苦瓜-会做饭很酷!",
            "mini_program" : [

            ],
            "image" : "https:\/\/cp1.douguo.com\/upload\/caiku\/6\/5\/3\/6591a0855fdf90cd2935a1bd22d71543.jpeg",
            "channel" : "8",
            "qr_image" : ""
          }
        ]
      },
      "user" : {
        "favorites_count" : 0,
        "point" : 0,
        "nick" : "___.Carine。",
        "verified_image" : "",
        "dishes_count" : 0,
        "lvl" : 5,
        "gender" : 2,
        "introduction" : "",
        "avatar_medium" : "http:\/\/tx1.douguo.net\/upload\/photo\/d\/6\/6\/140_u45047347348980201031.jpeg",
        "regist_time" : "",
        "recipes_count" : 0,
        "age" : "",
        "user_photo" : "http:\/\/tx1.douguo.net\/upload\/photo\/d\/6\/6\/70_u45047347348980201031.jpeg",
        "is_prime" : 0,
        "qq_weibo_nick" : "",
        "user_cover" : "",
        "email" : "",
        "diaries_count" : 0,
        "subscription" : 0,
        "sign" : "",
        "setted_email" : 0,
        "weibo_nick" : "",
        "userid" : "1893546",
        "birthday" : "",
        "following_count" : 0,
        "coursecount" : 0,
        "user_large_photo" : "http:\/\/tx1.douguo.net\/upload\/photo\/d\/6\/6\/yuan_u45047347348980201031.jpeg",
        "qzone_nick" : "",
        "fc" : 0,
        "lv" : 0,
        "pc" : 0,
        "location" : 0,
        "user_id" : "1893546",
        "progress_image" : "",
        "subscription_article_count" : 0,
        "favor_diaries_count" : 0,
        "verified" : 0,
        "mobile" : "",
        "verified_url" : "https:\/\/m.douguo.com\/user\/prodesc",
        "followers_count" : 0
      },
      "advice" : {
        "da" : {
          "iu" : "https:\/\/i1.douguo.com\/upload\/banner\/f\/4\/d\/f48877e53c37759bc12ac494be82ec8d.png",
          "t" : "查看详细分析",
          "url" : "https:\/\/m.douguo.com\/recipe\/nutrient_self\/1550555"
        },
        "has" : [
          {
            "url" : "recipes:\/\/www.douguo.com\/simplerecipelist?t=高盐&id=高盐",
            "t" : "高盐"
          }
        ],
        "at" : "盐分较多，制作时适当调节～"
      },
      "ipoi" : "",
      "notes" : [

      ],
      "thumb_path" : "https:\/\/i1.douguo.com\/upload\/caiku\/6\/5\/3\/300_6591a0855fdf90cd2935a1bd22d71543.jpeg",
      "sc" : 0,
      "hqu" : "recipes:\/\/www.douguo.com\/notedetail?id=21162253",
      "eu" : "recipes:\/\/www.douguo.com\/postdetail?id=242016",
      "title_ad" : [

      ],
      "photo_path" : "https:\/\/i1.douguo.com\/upload\/caiku\/6\/5\/3\/600_6591a0855fdf90cd2935a1bd22d71543.jpeg",
      "mid_mdsp" : [

      ],
      "collect_status" : 0,
      "v_u" : "",
      "release_time" : "",
      "cookstory" : "一直不爱吃苦瓜 但这样做以后就不怎么苦了哦  可以接受  夏天吃起来清清爽爽 颜色也漂亮   小伙伴们加一道菜吧\\(^o^)\/",
      "cookwares" : [

      ],
      "display_ingredient" : 1,
      "recipe_tags" : [

      ],
      "first_level_comment_count" : 2,
      "comments_count" : 4,
      "purl" : "",
      "title" : "夏季爽口翡翠苦瓜",
      "cook_difficulty" : "",
      "tips" : "焯水+凉水冲可以去除大部分苦味",
      "recent_comments" : [

      ],
      "guide_image" : "",
      "ipia" : [

      ],
      "pw" : 800,
      "vu" : "",
      "dish_count_text" : "1",
      "rsm" : "该功能暂停使用",
      "tags" : [

      ],
      "recommended" : 0,
      "views_count_text" : "2.5万",
      "favo_counts_text" : "96",
      "recommendation_tag" : "",
      "rpt" : "",
      "cookstep" : [
        {
          "content" : "苦瓜焯水后 （红萝卜几片点缀一起焯水）水开后焯一到两分钟 捞出多用凉水冲洗几遍  泡水备用（加冰块最佳）苦瓜切圈技巧：去掉两头 用勺子把插进去转一圈",
          "image_height" : 800,
          "image" : "https:\/\/i1.douguo.com\/upload\/caiku\/9\/a\/e\/9a97b1ad074c53fa73d15dc213ea2c2e.jpeg",
          "image_width" : 800,
          "thumb" : "https:\/\/i1.douguo.com\/upload\/caiku\/9\/a\/e\/140_9a97b1ad074c53fa73d15dc213ea2c2e.jpeg",
          "position" : 1,
          "frame" : "-1"
        },
        {
          "image_width" : 800,
          "frame" : "-1",
          "thumb" : "https:\/\/i1.douguo.com\/upload\/caiku\/d\/f\/9\/140_df0ebb382fd0dad8bb623f9e54b21849.jpeg",
          "image" : "https:\/\/i1.douguo.com\/upload\/caiku\/d\/f\/9\/df0ebb382fd0dad8bb623f9e54b21849.jpeg",
          "image_height" : 1067,
          "position" : 2,
          "content" : "某人调料放的太快了 我没拍上。。。先用热油呛葱花 再加入苦瓜。调料：盐  白糖 香油 味精 鸡汁 少许  拌匀即可（白糖量多一点）"
        },
        {
          "position" : 3,
          "frame" : "-1",
          "image_height" : 600,
          "image" : "https:\/\/i1.douguo.com\/upload\/caiku\/8\/4\/2\/84b670408976b635ca94e5b7ca9d2a92.jpeg",
          "image_width" : 800,
          "thumb" : "https:\/\/i1.douguo.com\/upload\/caiku\/8\/4\/2\/140_84b670408976b635ca94e5b7ca9d2a92.jpeg",
          "content" : "装盘"
        }
      ],
      "original_photo_path" : "http:\/\/i1.douguo.net\/upload\/caiku\/6\/5\/3\/yuan_6591a0855fdf90cd2935a1bd22d71543.jpeg",
      "cook_time" : "",
      "major" : [
        {
          "note" : "一只",
          "tu" : "https:\/\/m.douguo.com\/ingredients\/苦瓜\/detailmaterial",
          "title" : "苦瓜"
        },
        {
          "title" : "香油",
          "tu" : "https:\/\/m.douguo.com\/ingredients\/香油\/detailmaterial",
          "note" : "适量"
        },
        {
          "title" : "盐",
          "tu" : "https:\/\/m.douguo.com\/ingredients\/盐\/detailmaterial",
          "note" : "适量"
        },
        {
          "title" : "鸡汁",
          "note" : "适量"
        },
        {
          "title" : "味精",
          "tu" : "https:\/\/m.douguo.com\/ingredients\/味精\/detailmaterial",
          "note" : ""
        },
        {
          "title" : "白糖",
          "tu" : "https:\/\/m.douguo.com\/ingredients\/白糖\/detailmaterial",
          "note" : ""
        },
        {
          "tu" : "https:\/\/m.douguo.com\/ingredients\/葱花\/detailmaterial",
          "note" : "",
          "title" : "葱花"
        }
      ],
      "dish_count" : 1,
      "cook_time_image" : "",
      "comments" : [
        "{\n    ac = \"#999999\";\n    at = \"\";\n    ccc = 1;\n    \"child_comments\" =     (\n                {\n            ac = \"#999999\";\n            at = \"\";\n            ccc = 0;\n            city = \"\";\n            cmc = 2;\n            content =             (\n                                {\n                    c = \" \\U53ef\\U4ee5\\U7684\\U653e\\U51b0\\U7bb1\\U4fdd\\U9c9c\\U819c\\U5305\\U597d\\U5c31\\U884c\";\n                }\n            );\n            ia = 1;\n            id = 4735106;\n            \"ip_address_location\" = \"\";\n            like = 0;\n            \"like_count\" = 0;\n            \"reply_id\" = 4735081;\n            \"reply_user\" =             {\n                \"followers_count_text\" = \"\";\n                id = 18477048;\n                \"is_prime\" = 0;\n                lv = 0;\n                lvl = 3;\n                n = \"\\U7f13\\U7f13\\U7684\\U9175\\U6bcd\\U5f88\\U6d41\\U52a8\";\n                p = \"http:\/\/tx1.douguo.net\/upload\/photo\/1\/1\/1\/70_004976861ec13b4af62b1d8db8c5c9f7.png\";\n                \"progress_image\" = \"\";\n                \"recipes_count_text\" = \"\";\n                relationship = \"-1\";\n                title = \"\";\n                v = 0;\n                \"verified_image\" = \"\";\n            };\n            \"sticker_icon\" =             (\n            );\n            time = \"2017-05-12 12:10:29\";\n            u =             {\n                \"followers_count_text\" = \"\";\n                id = 1893546;\n                \"is_prime\" = 0;\n                lv = 0;\n                lvl = 5;\n                n = \"___.Carine\\U3002\";\n                p = \"http:\/\/tx1.douguo.net\/upload\/photo\/d\/6\/6\/70_u45047347348980201031.jpeg\";\n                \"progress_image\" = \"\";\n                \"recipes_count_text\" = \"\";\n                relationship = \"-1\";\n                title = \"\";\n                v = 0;\n                \"verified_image\" = \"\";\n            };\n        }\n    );\n    city = \"\";\n    cmc = 2;\n    content =     (\n                {\n            c = \"\\U665a\\U4e0a\\U505a\\U7b2c\\U4e8c\\U5929\\U80fd\\U505a\\U65e9\\U9910\\U5403\\U5417\";\n        }\n    );\n    ia = 0;\n    id = 4735081;\n    \"ip_address_location\" = \"\";\n    like = 0;\n    \"like_count\" = 0;\n    \"reply_id\" = 0;\n    \"sticker_icon\" =     (\n    );\n    time = \"2017-05-12 12:07:05\";\n    u =     {\n        \"followers_count_text\" = \"\";\n        id = 18477048;\n        \"is_prime\" = 0;\n        lv = 0;\n        lvl = 3;\n        n = \"\\U7f13\\U7f13\\U7684\\U9175\\U6bcd\\U5f88\\U6d41\\U52a8\";\n        p = \"http:\/\/tx1.douguo.net\/upload\/photo\/1\/1\/1\/70_004976861ec13b4af62b1d8db8c5c9f7.png\";\n        \"progress_image\" = \"\";\n        \"recipes_count_text\" = \"\";\n        relationship = \"-1\";\n        title = \"\";\n        v = 0;\n        \"verified_image\" = \"\";\n    };\n}",
        "{\n    ac = \"#999999\";\n    at = \"\";\n    ccc = 1;\n    \"child_comments\" =     (\n                {\n            ac = \"#999999\";\n            at = \"\";\n            ccc = 0;\n            city = \"\";\n            cmc = 2;\n            content =             (\n                                {\n                    c = \" \\U54c8\\U54c8 \\U6211\\U4e5f\\U662f\";\n                }\n            );\n            ia = 1;\n            id = 4735107;\n            \"ip_address_location\" = \"\";\n            like = 0;\n            \"like_count\" = 0;\n            \"reply_id\" = 4734952;\n            \"reply_user\" =             {\n                \"followers_count_text\" = \"\";\n                id = 18453961;\n                \"is_prime\" = 0;\n                lv = 0;\n                lvl = 5;\n                n = \"\\U5218\\U5218\\U5218\\U5218\\U5218\";\n                p = \"http:\/\/tx1.douguo.net\/upload\/photo\/e\/1\/7\/70_u11251231629400408123002.jpg\";\n                \"progress_image\" = \"\";\n                \"recipes_count_text\" = \"\";\n                relationship = \"-1\";\n                title = \"\";\n                v = 0;\n                \"verified_image\" = \"\";\n            };\n            \"sticker_icon\" =             (\n            );\n            time = \"2017-05-12 12:10:48\";\n            u =             {\n                \"followers_count_text\" = \"\";\n                id = 1893546;\n                \"is_prime\" = 0;\n                lv = 0;\n                lvl = 5;\n                n = \"___.Carine\\U3002\";\n                p = \"http:\/\/tx1.douguo.net\/upload\/photo\/d\/6\/6\/70_u45047347348980201031.jpeg\";\n                \"progress_image\" = \"\";\n                \"recipes_count_text\" = \"\";\n                relationship = \"-1\";\n                title = \"\";\n                v = 0;\n                \"verified_image\" = \"\";\n            };\n        }\n    );\n    city = \"\";\n    cmc = 2;\n    content =     (\n                {\n            c = \"\\U8fd9\\U4e48\\U591a\\U597d\\U5403\\U54d2\\Uff0c\\U90fd\\U80d6\\U4e86\";\n        }\n    );\n    ia = 0;\n    id = 4734952;\n    \"ip_address_location\" = \"\";\n    like = 0;\n    \"like_count\" = 0;\n    \"reply_id\" = 0;\n    \"sticker_icon\" =     (\n    );\n    time = \"2017-05-12 11:07:06\";\n    u =     {\n        \"followers_count_text\" = \"\";\n        id = 18453961;\n        \"is_prime\" = 0;\n        lv = 0;\n        lvl = 5;\n        n = \"\\U5218\\U5218\\U5218\\U5218\\U5218\";\n        p = \"http:\/\/tx1.douguo.net\/upload\/photo\/e\/1\/7\/70_u11251231629400408123002.jpg\";\n        \"progress_image\" = \"\";\n        \"recipes_count_text\" = \"\";\n        relationship = \"-1\";\n        title = \"\";\n        v = 0;\n        \"verified_image\" = \"\";\n    };\n}"
      ],
      "favo_counts" : 96,
      "author_photo" : "http:\/\/tx1.douguo.net\/upload\/photo\/d\/6\/6\/70_u45047347348980201031.jpeg",
      "hq" : 1,
      "rrpt" : "",
      "top_mdsp" : [

      ],
      "recommend_label" : "1人学做",
      "related_ads" : [

      ],
      "ipci" : "",
      "story_dsp" : [

      ],
      "cook_id" : "1550555",
      "ss" : [

      ],
      "rate" : 5,
      "rdsps" : [

      ],
      "comments_count_text" : "4",
      "rate_show" : 0,
      "brand_day_dsp" : [

      ],
      "sr" : "",
      "create_time" : "2017-05-12 18:15:13",
      "clicks" : "21781",
      "rate_count" : 1,
      "rpid" : 0,
      "ipurl" : "",
      "minor" : [

      ],
      "su" : "",
      "author_verified" : 0,
      "btm_dsp" : [

      ]
    }
  },
  "status" : 0
}