{
  "result" : {
    "recipe" : {
      "tags" : [

      ],
      "ipurl" : "",
      "share_info" : {
        "s_u" : "http:\/\/m.douguo.com\/cookbook\/3263300.html",
        "mini_program" : [

        ],
        "s_d" : "#山姆友约#传统河南老家小吃荆菜蛋饼-会做饭很酷!",
        "qr_image" : "",
        "infos" : [
          {
            "image" : "https:\/\/cp1.douguo.com\/upload\/caiku\/3\/4\/1\/3459206fbaf6a1c6599772a1fe512f71.jpg",
            "s_u" : "",
            "object_id" : "3263300",
            "mini_program" : [

            ],
            "qr_image" : "",
            "s_d" : "#学做饭用豆果美食# 我在@豆果美食 分享了【#山姆友约#传统河南老家小吃荆菜蛋饼-会做饭很酷!】，哟，集美们～你看这是神仙美味～快跟着我做一份，做一份！查看图片了解菜谱（更多美食秘籍点击https:\/\/m.weibo.cn\/p\/100404i33631获取）#会做饭很酷# ",
            "channel" : "1",
            "name" : "#山姆友约#传统河南老家小吃荆菜蛋饼-会做饭很酷!"
          },
          {
            "image" : "https:\/\/cp1.douguo.com\/upload\/caiku\/3\/4\/1\/3459206fbaf6a1c6599772a1fe512f71.jpg",
            "mini_program" : [

            ],
            "s_u" : "http:\/\/m.douguo.com\/cookbook\/3263300.html",
            "object_id" : "3263300",
            "s_d" : "#山姆友约#传统河南老家小吃荆菜蛋饼-会做饭很酷!",
            "channel" : "7",
            "name" : "#山姆友约#传统河南老家小吃荆菜蛋饼-会做饭很酷!",
            "qr_image" : ""
          },
          {
            "channel" : "8",
            "object_id" : "3263300",
            "mini_program" : [

            ],
            "s_d" : "#山姆友约#传统河南老家小吃荆菜蛋饼-会做饭很酷!",
            "name" : "#山姆友约#传统河南老家小吃荆菜蛋饼-会做饭很酷!",
            "qr_image" : "",
            "s_u" : "http:\/\/m.douguo.com\/cookbook\/3263300.html",
            "image" : "https:\/\/cp1.douguo.com\/upload\/caiku\/3\/4\/1\/3459206fbaf6a1c6599772a1fe512f71.jpg"
          }
        ],
        "name" : "#山姆友约#传统河南老家小吃荆菜蛋饼-会做饭很酷!",
        "image" : "https:\/\/cp1.douguo.com\/upload\/caiku\/3\/4\/1\/3459206fbaf6a1c6599772a1fe512f71.jpg",
        "object_id" : "3263300"
      },
      "recommended" : 0,
      "release_time" : "",
      "mid_mdsp" : [

      ],
      "rate_show" : 0,
      "ipt" : "",
      "notes" : [

      ],
      "clicks" : "1",
      "title" : "传统河南老家小吃荆菜蛋饼",
      "cook_time" : "10~30分钟",
      "author" : "紫绫罗",
      "rrps" : [

      ],
      "tips" : "1.面皮底下的要擀大一点，好收皮往上折\n2.炕饼不要火太大，容易焦糊",
      "ss" : [

      ],
      "related_ads" : [

      ],
      "rdsps" : [

      ],
      "ssu" : "",
      "act_des" : "",
      "recommend_label" : "6413人刚刚收藏过",
      "ipit" : 0,
      "dish_count_text" : "",
      "purl" : "",
      "rate_count" : 0,
      "ipia" : [

      ],
      "author_photo" : "http:\/\/tx1.douguo.net\/upload\/photo\/f\/4\/7\/70_u07146153531111133111.jpg",
      "major" : [
        {
          "note" : "1把",
          "title" : "荆芥"
        },
        {
          "note" : "2个",
          "title" : "鸡蛋",
          "tu" : "https:\/\/m.douguo.com\/ingredients\/鸡蛋\/detailmaterial"
        },
        {
          "title" : "南德",
          "note" : "半汤勺"
        },
        {
          "tu" : "https:\/\/m.douguo.com\/ingredients\/面粉\/detailmaterial",
          "title" : "面粉",
          "note" : "300克"
        },
        {
          "note" : "100毫升",
          "title" : "饮用水",
          "tu" : "https:\/\/m.douguo.com\/ingredients\/饮用水\/detailmaterial"
        }
      ],
      "recent_comments" : [

      ],
      "cook_difficulty" : "配菜(中级)",
      "comments_count" : 0,
      "author_verified" : 1,
      "su" : "",
      "rips" : 0,
      "original_photo_path" : "http:\/\/i1.douguo.net\/upload\/caiku\/3\/4\/1\/yuan_3459206fbaf6a1c6599772a1fe512f71.jpg",
      "event" : {
        "url" : "https:\/\/m.douguo.com\/activity\/ncpzj\/detail\/3803?isapp=1&open=0&_vs=1000300&&dg_refreshkey=publishnote",
        "id" : 3803,
        "name" : "山姆友约 | 一起畅聊美食，发现生活新灵感"
      },
      "v_u" : "",
      "image" : "http:\/\/i1.douguo.net\/upload\/caiku\/3\/4\/1\/300_3459206fbaf6a1c6599772a1fe512f71.jpg",
      "eu" : "recipes:\/\/www.douguo.com\/postdetail?id=242016",
      "top_mdsp" : [

      ],
      "cookwares" : [
        "{\n    binded = 1;\n    \"brand_id\" = 6;\n    \"brand_name\" = \"\\U82cf\\U6cca\\U5c14\";\n    \"cookware_category_id\" = 5;\n    \"cookware_category_name\" = \"\\U714e\\U9505\";\n    image = \"https:\/\/i1.douguo.com\/upload\/item\/a\/f\/f\/af566681935ce909b995f044e94ede3f.jpg\";\n    \"model_name\" = \"\";\n    url = \"\";\n}"
      ],
      "btm_dsp" : [

      ],
      "first_level_comment_count" : 0,
      "rrpt" : "",
      "cook_id" : "3263300",
      "ipoi" : "",
      "hqu" : "recipes:\/\/www.douguo.com\/notedetail?id=21162253",
      "old_comments" : [

      ],
      "minor" : [

      ],
      "favo_counts" : 6413,
      "rcs" : [

      ],
      "dish_count" : 0,
      "rpt" : "",
      "cookstory" : "   小时候老家家家户户几乎都会在春天种上一垄荆芥，这个夏天拌凉面条，拌凉菜，塌菜饼必备的醒神儿香料菜，是刻入河南人老少DNA里的美味。在北京新开的鲜味超市少有人买，甚至很少有人知道它是什么，每次去采购，我是一定要来上一把的，回来怎么吃都快乐。",
      "rewarded_video_dsp" : [

      ],
      "photo_path" : "https:\/\/i1.douguo.com\/upload\/caiku\/3\/4\/1\/600_3459206fbaf6a1c6599772a1fe512f71.jpg",
      "story_dsp" : [

      ],
      "favo_counts_text" : "6413",
      "vu" : "",
      "advice" : {
        "da" : {
          "url" : "https:\/\/m.douguo.com\/recipe\/nutrient_self\/3263300",
          "iu" : "https:\/\/i1.douguo.com\/upload\/banner\/f\/4\/d\/f48877e53c37759bc12ac494be82ec8d.png",
          "t" : "查看详细分析"
        },
        "at" : "健身人群可以吃～",
        "has" : [
          {
            "t" : "低脂",
            "url" : "recipes:\/\/www.douguo.com\/simplerecipelist?t=低脂&id=低脂"
          },
          {
            "t" : "低饱和脂肪",
            "url" : "recipes:\/\/www.douguo.com\/simplerecipelist?t=低饱和脂肪&id=低饱和脂肪"
          }
        ]
      },
      "cook_time_image" : "https:\/\/i1.douguo.com\/upload\/banner\/1551424341.png",
      "pw" : 1280,
      "user" : {
        "diaries_count" : 0,
        "setted_email" : 0,
        "email" : "",
        "verified_url" : "https:\/\/m.douguo.com\/user\/prodesc",
        "verified" : 1,
        "verified_image" : "https:\/\/i1.douguo.com\/upload\/note\/d\/a\/a\/da84247847aebe48d9dd0fcdac88862a.png",
        "favorites_count" : 0,
        "userid" : "5058644",
        "dishes_count" : 0,
        "progress_image" : "",
        "age" : "",
        "recipes_count" : 0,
        "introduction" : "",
        "qzone_nick" : "",
        "user_id" : "5058644",
        "subscription_article_count" : 0,
        "avatar_medium" : "http:\/\/tx1.douguo.net\/upload\/photo\/f\/4\/7\/140_u07146153531111133111.jpg",
        "is_prime" : 0,
        "point" : 0,
        "user_cover" : "",
        "sign" : "",
        "followers_count" : 0,
        "nick" : "紫绫罗",
        "lv" : 0,
        "following_count" : 0,
        "user_photo" : "http:\/\/tx1.douguo.net\/upload\/photo\/f\/4\/7\/70_u07146153531111133111.jpg",
        "pc" : 0,
        "user_large_photo" : "http:\/\/tx1.douguo.net\/upload\/photo\/f\/4\/7\/yuan_u07146153531111133111.jpg",
        "lvl" : 7,
        "location" : 0,
        "regist_time" : "",
        "fc" : 0,
        "favor_diaries_count" : 0,
        "coursecount" : 0,
        "mobile" : "",
        "subscription" : 0,
        "gender" : 2,
        "birthday" : "",
        "weibo_nick" : "",
        "qq_weibo_nick" : ""
      },
      "ph" : 853,
      "rpst" : "",
      "title_ad" : [

      ],
      "rsm" : "该功能暂停使用",
      "display_ingredient" : 1,
      "levelid" : 2,
      "brand_day_dsp" : [

      ],
      "ecs" : 1,
      "cookstorys" : [
        {
          "u" : "",
          "color" : "",
          "c" : "   小时候老家家家户户几乎都会在春天种上一垄荆芥，这个夏天拌凉面条，拌凉菜，塌菜饼必备的醒神儿香料菜，是刻入河南人老少DNA里的美味。在北京新开的鲜味超市少有人买，甚至很少有人知道它是什么，每次去采购，我是一定要来上一把的，回来怎么吃都快乐。",
          "type" : 0,
          "icon" : "",
          "id" : 0
        },
        {
          "c" : "\n参与活动:",
          "id" : 0,
          "color" : "",
          "u" : "",
          "type" : 0,
          "icon" : ""
        },
        {
          "u" : "https:\/\/m.douguo.com\/activity\/ncpzj\/detail\/3803?isapp=1&open=0&_vs=1000300&&dg_refreshkey=publishnote",
          "type" : 0,
          "c" : "#山姆友约 | 一起畅聊美食，发现生活新灵感#",
          "icon" : "",
          "id" : 0
        }
      ],
      "guide_image" : "",
      "comments_count_text" : "",
      "comments" : [

      ],
      "hq" : 1,
      "rate" : 0,
      "vc" : "181816",
      "cook_difficulty_image" : "https:\/\/i1.douguo.com\/upload\/banner\/1551424413.png",
      "sc" : 0,
      "dishes" : [

      ],
      "recipe_list_tags" : [
        {
          "jump_url" : "",
          "right_image" : "",
          "text" : "关注的人",
          "text_color" : "#141515",
          "background_border_color" : "",
          "background_start_color" : "#F4F5F5",
          "background_end_color" : "#F4F5F5"
        },
        {
          "background_end_color" : "#F4F5F5",
          "jump_url" : "",
          "right_image" : "",
          "background_start_color" : "#F4F5F5",
          "background_border_color" : "",
          "text" : "值得pick",
          "text_color" : "#141515"
        },
        {
          "text_color" : "#141515",
          "right_image" : "",
          "jump_url" : "",
          "background_start_color" : "#F4F5F5",
          "text" : "内容详细",
          "background_end_color" : "#F4F5F5",
          "background_border_color" : ""
        }
      ],
      "author_id" : 5058644,
      "collect_status" : 0,
      "ipci" : "",
      "views_count_text" : "18.2万",
      "vfurl" : "",
      "recipe_tags" : [

      ],
      "cookstep" : [
        {
          "content" : "主食材备好",
          "image" : "https:\/\/i1.douguo.com\/upload\/caiku\/3\/6\/0\/3614e843c2b8dba255cf70d7f4a6c730.jpg",
          "position" : 1,
          "frame" : "-1",
          "image_width" : 1280,
          "thumb" : "https:\/\/i1.douguo.com\/upload\/caiku\/3\/6\/0\/140_3614e843c2b8dba255cf70d7f4a6c730.jpg",
          "image_height" : 960
        },
        {
          "frame" : "-1",
          "image" : "https:\/\/i1.douguo.com\/upload\/caiku\/c\/0\/8\/c0136e790dd384427798add937618368.jpg",
          "thumb" : "https:\/\/i1.douguo.com\/upload\/caiku\/c\/0\/8\/140_c0136e790dd384427798add937618368.jpg",
          "image_height" : 960,
          "image_width" : 1280,
          "content" : "荆菜取叶，泡水洗净，鸡蛋打散",
          "position" : 2
        },
        {
          "image" : "https:\/\/i1.douguo.com\/upload\/caiku\/7\/e\/5\/7eeaadbfb5cb495f9e61f9ea5a62c995.jpg",
          "image_width" : 1280,
          "frame" : "-1",
          "position" : 3,
          "image_height" : 1707,
          "thumb" : "https:\/\/i1.douguo.com\/upload\/caiku\/7\/e\/5\/140_7eeaadbfb5cb495f9e61f9ea5a62c995.jpg",
          "content" : "面粉揉成光滑面团"
        },
        {
          "frame" : "-1",
          "content" : "分成四等份儿剂子",
          "image" : "https:\/\/i1.douguo.com\/upload\/caiku\/c\/a\/5\/ca5886eae028a535914dafe9fa1b69b5.jpg",
          "thumb" : "https:\/\/i1.douguo.com\/upload\/caiku\/c\/a\/5\/140_ca5886eae028a535914dafe9fa1b69b5.jpg",
          "image_width" : 1280,
          "position" : 4,
          "image_height" : 960
        },
        {
          "image_height" : 960,
          "position" : 5,
          "content" : "两个饼一起擀好",
          "image" : "https:\/\/i1.douguo.com\/upload\/caiku\/8\/2\/b\/825e9b49aaa32d0faed0c4c8e9bda02b.jpg",
          "thumb" : "https:\/\/i1.douguo.com\/upload\/caiku\/8\/2\/b\/140_825e9b49aaa32d0faed0c4c8e9bda02b.jpg",
          "image_width" : 1280,
          "frame" : "-1"
        },
        {
          "image_height" : 960,
          "position" : 6,
          "image_width" : 1280,
          "content" : "铺放一半荆芥",
          "frame" : "-1",
          "image" : "https:\/\/i1.douguo.com\/upload\/caiku\/6\/5\/c\/65a206417693d2542561d1c35b7f4f5c.jpg",
          "thumb" : "https:\/\/i1.douguo.com\/upload\/caiku\/6\/5\/c\/140_65a206417693d2542561d1c35b7f4f5c.jpg"
        },
        {
          "image_width" : 1280,
          "frame" : "-1",
          "thumb" : "https:\/\/i1.douguo.com\/upload\/caiku\/5\/5\/c\/140_559babe408de0329d02abd7fce5a7d9c.jpg",
          "image_height" : 1707,
          "content" : "倒一半蛋液",
          "position" : 7,
          "image" : "https:\/\/i1.douguo.com\/upload\/caiku\/5\/5\/c\/559babe408de0329d02abd7fce5a7d9c.jpg"
        },
        {
          "thumb" : "https:\/\/i1.douguo.com\/upload\/caiku\/2\/9\/1\/140_29802fbe5e37827744e7791e5d1f0441.jpg",
          "position" : 8,
          "frame" : "-1",
          "content" : "撒南德辣椒面",
          "image_height" : 960,
          "image_width" : 1280,
          "image" : "https:\/\/i1.douguo.com\/upload\/caiku\/2\/9\/1\/29802fbe5e37827744e7791e5d1f0441.jpg"
        },
        {
          "thumb" : "https:\/\/i1.douguo.com\/upload\/caiku\/4\/4\/7\/140_44b92a193408bbe8f3f6f411c23223e7.jpg",
          "image_width" : 1280,
          "content" : "盖另一张面皮",
          "image" : "https:\/\/i1.douguo.com\/upload\/caiku\/4\/4\/7\/44b92a193408bbe8f3f6f411c23223e7.jpg",
          "frame" : "-1",
          "image_height" : 1707,
          "position" : 9
        },
        {
          "image_width" : 1280,
          "position" : 10,
          "image" : "https:\/\/i1.douguo.com\/upload\/caiku\/9\/4\/9\/940b7539cc8ee67e405dbdcdb1a49c69.jpg",
          "thumb" : "https:\/\/i1.douguo.com\/upload\/caiku\/9\/4\/9\/140_940b7539cc8ee67e405dbdcdb1a49c69.jpg",
          "content" : "折起底下的面皮",
          "frame" : "-1",
          "image_height" : 960
        },
        {
          "thumb" : "https:\/\/i1.douguo.com\/upload\/caiku\/5\/a\/1\/140_5a84984e8ec7725db288411fc4017671.jpg",
          "content" : "中小火热锅一分钟，放上面饼，盖锅烙三分钟",
          "image" : "https:\/\/i1.douguo.com\/upload\/caiku\/5\/a\/1\/5a84984e8ec7725db288411fc4017671.jpg",
          "image_width" : 1280,
          "image_height" : 1707,
          "position" : 11,
          "frame" : "-1"
        },
        {
          "thumb" : "https:\/\/i1.douguo.com\/upload\/caiku\/8\/d\/b\/140_8d58db28d17e2eff16010b8fbd5d790b.jpg",
          "image" : "https:\/\/i1.douguo.com\/upload\/caiku\/8\/d\/b\/8d58db28d17e2eff16010b8fbd5d790b.jpg",
          "image_width" : 1280,
          "image_height" : 1707,
          "frame" : "-1",
          "content" : "翻面再烙四分钟",
          "position" : 12
        },
        {
          "frame" : "-1",
          "thumb" : "https:\/\/i1.douguo.com\/upload\/caiku\/d\/e\/1\/140_de29a0e2d1bf0472d5a5d56e2a1c1421.jpg",
          "image_width" : 1280,
          "image_height" : 1707,
          "position" : 13,
          "image" : "https:\/\/i1.douguo.com\/upload\/caiku\/d\/e\/1\/de29a0e2d1bf0472d5a5d56e2a1c1421.jpg",
          "content" : "铲出切开"
        },
        {
          "image_height" : 853,
          "image" : "https:\/\/i1.douguo.com\/upload\/caiku\/b\/2\/6\/b2a0c08ce540c8e6d621b2a45be45b56.jpg",
          "frame" : "-1",
          "thumb" : "https:\/\/i1.douguo.com\/upload\/caiku\/b\/2\/6\/140_b2a0c08ce540c8e6d621b2a45be45b56.jpg",
          "image_width" : 1280,
          "content" : "美味鲜香，外酥里软的荆菜蛋饼就好了",
          "position" : 14
        },
        {
          "frame" : "-1",
          "image" : "https:\/\/i1.douguo.com\/upload\/caiku\/7\/6\/9\/76b0199c5cd37495157a4f8945067789.jpg",
          "position" : 15,
          "image_height" : 852,
          "content" : "成品图",
          "thumb" : "https:\/\/i1.douguo.com\/upload\/caiku\/7\/6\/9\/140_76b0199c5cd37495157a4f8945067789.jpg",
          "image_width" : 1280
        },
        {
          "image_width" : 1216,
          "frame" : "-1",
          "image" : "https:\/\/i1.douguo.com\/upload\/caiku\/a\/2\/a\/a26475d5ef8072fb7c35a78927b6daca.jpg",
          "content" : "成品图",
          "position" : 16,
          "thumb" : "https:\/\/i1.douguo.com\/upload\/caiku\/a\/2\/a\/140_a26475d5ef8072fb7c35a78927b6daca.jpg",
          "image_height" : 1824
        },
        {
          "image_width" : 1280,
          "image" : "https:\/\/i1.douguo.com\/upload\/caiku\/e\/a\/1\/ea675c65e3fab9f69b61a85b73c1ff51.jpg",
          "image_height" : 853,
          "frame" : "-1",
          "thumb" : "https:\/\/i1.douguo.com\/upload\/caiku\/e\/a\/1\/140_ea675c65e3fab9f69b61a85b73c1ff51.jpg",
          "content" : "成品图",
          "position" : 17
        },
        {
          "image_height" : 852,
          "frame" : "-1",
          "position" : 18,
          "thumb" : "https:\/\/i1.douguo.com\/upload\/caiku\/4\/e\/7\/140_4e79b68c5e5ba12337cdd368291ac957.jpg",
          "image_width" : 1280,
          "image" : "https:\/\/i1.douguo.com\/upload\/caiku\/4\/e\/7\/4e79b68c5e5ba12337cdd368291ac957.jpg",
          "content" : "成品图"
        },
        {
          "image_height" : 853,
          "frame" : "-1",
          "thumb" : "https:\/\/i1.douguo.com\/upload\/caiku\/4\/f\/b\/140_4fd0344669b411f501cbdaf51df6b24b.jpg",
          "position" : 19,
          "image_width" : 1280,
          "image" : "https:\/\/i1.douguo.com\/upload\/caiku\/4\/f\/b\/4fd0344669b411f501cbdaf51df6b24b.jpg",
          "content" : "成品图"
        },
        {
          "frame" : "-1",
          "image" : "https:\/\/i1.douguo.com\/upload\/caiku\/8\/7\/4\/876c722b202a9cac162fe300317d8394.jpg",
          "image_height" : 853,
          "thumb" : "https:\/\/i1.douguo.com\/upload\/caiku\/8\/7\/4\/140_876c722b202a9cac162fe300317d8394.jpg",
          "image_width" : 1280,
          "position" : 20,
          "content" : "成品图"
        }
      ],
      "create_time" : "2023-07-18 10:25:01",
      "bs" : [

      ],
      "sr" : "",
      "thumb_height" : 0,
      "rpid" : 0,
      "recommendation_tag" : "",
      "packages_id" : [

      ],
      "thumb_path" : "https:\/\/i1.douguo.com\/upload\/caiku\/3\/4\/1\/300_3459206fbaf6a1c6599772a1fe512f71.jpg"
    }
  },
  "state" : "success",
  "status" : 0
}