{
  "result" : {
    "recipe" : {
      "pw" : 800,
      "rate" : 0,
      "vu" : "",
      "recommend_label" : "2.3万人看过",
      "ipci" : "",
      "rate_show" : 0,
      "recent_comments" : [

      ],
      "ph" : 600,
      "packages_id" : [

      ],
      "comments_count" : 0,
      "rpst" : "",
      "cookstorys" : [

      ],
      "cookstep" : [
        {
          "image" : "",
          "image_height" : 0,
          "image_width" : 0,
          "thumb" : "",
          "frame" : "-1",
          "content" : "菠菜洗净切碎，不要太碎",
          "position" : 1
        },
        {
          "frame" : "-1",
          "image_height" : 0,
          "content" : "加入盐和少许小苏打，出水后加面粉，面粉不宜放多，多了口感会硬",
          "image" : "",
          "thumb" : "",
          "image_width" : 0,
          "position" : 2
        },
        {
          "image_height" : 600,
          "content" : "用勺子挖成丸子状，放蒸锅里大转中小，30分钟左右",
          "image" : "https:\/\/i1.douguo.com\/upload\/caiku\/2\/c\/e\/2c92d62022045c176c15d93dafb2befe.jpeg",
          "frame" : "-1",
          "position" : 3,
          "thumb" : "https:\/\/i1.douguo.com\/upload\/caiku\/2\/c\/e\/140_2c92d62022045c176c15d93dafb2befe.jpeg",
          "image_width" : 800
        }
      ],
      "thumb_height" : 0,
      "recommended" : 0,
      "rpid" : 0,
      "cook_difficulty" : "切墩(初级)",
      "user" : {
        "favor_diaries_count" : 0,
        "verified_url" : "https:\/\/m.douguo.com\/user\/prodesc",
        "user_id" : "9919529",
        "subscription" : 0,
        "userid" : "9919529",
        "user_photo" : "http:\/\/tx1.douguo.net\/upload\/photo\/d\/9\/c\/70_u34552503126312074530.jpg",
        "is_prime" : 0,
        "dishes_count" : 0,
        "age" : "",
        "setted_email" : 0,
        "introduction" : "",
        "point" : 0,
        "user_large_photo" : "http:\/\/tx1.douguo.net\/upload\/photo\/d\/9\/c\/yuan_u34552503126312074530.jpg",
        "lv" : 0,
        "birthday" : "",
        "qzone_nick" : "",
        "sign" : "",
        "following_count" : 0,
        "gender" : 2,
        "mobile" : "",
        "favorites_count" : 0,
        "coursecount" : 0,
        "recipes_count" : 0,
        "nick" : "孙荣8",
        "subscription_article_count" : 0,
        "diaries_count" : 0,
        "avatar_medium" : "http:\/\/tx1.douguo.net\/upload\/photo\/d\/9\/c\/140_u34552503126312074530.jpg",
        "email" : "",
        "regist_time" : "",
        "fc" : 0,
        "followers_count" : 0,
        "progress_image" : "",
        "verified" : 0,
        "pc" : 0,
        "qq_weibo_nick" : "",
        "user_cover" : "",
        "verified_image" : "",
        "location" : 0,
        "weibo_nick" : "",
        "lvl" : 2
      },
      "rate_count" : 0,
      "vfurl" : "",
      "favo_counts_text" : "98",
      "ecs" : 0,
      "dish_count" : 0,
      "act_des" : "",
      "notes" : [

      ],
      "ipurl" : "",
      "recommendation_tag" : "",
      "old_comments" : [

      ],
      "dish_count_text" : "",
      "comments_count_text" : "",
      "purl" : "",
      "hqu" : "recipes:\/\/www.douguo.com\/notedetail?id=21162253",
      "ipoi" : "",
      "ipt" : "",
      "create_time" : "2016-02-03 00:53:27",
      "author_verified" : 0,
      "cook_time" : "30~60分钟",
      "original_photo_path" : "http:\/\/i1.douguo.net\/upload\/caiku\/6\/4\/a\/yuan_648d2d694bd89c42fe2d1e304b6d4f3a.jpeg",
      "cook_time_image" : "https:\/\/i1.douguo.com\/upload\/banner\/1551424318.png",
      "display_ingredient" : 1,
      "author_id" : 9919529,
      "clicks" : "16853",
      "rsm" : "该功能暂停使用",
      "recipe_tags" : [

      ],
      "levelid" : 3,
      "vc" : "22734",
      "author" : "孙荣8",
      "favo_counts" : 98,
      "minor" : [

      ],
      "photo_path" : "https:\/\/i1.douguo.com\/upload\/caiku\/6\/4\/a\/600_648d2d694bd89c42fe2d1e304b6d4f3a.jpeg",
      "thumb_path" : "https:\/\/i1.douguo.com\/upload\/caiku\/6\/4\/a\/300_648d2d694bd89c42fe2d1e304b6d4f3a.jpeg",
      "story_dsp" : [

      ],
      "su" : "",
      "hq" : 0,
      "rewarded_video_dsp" : [

      ],
      "rrpt" : "",
      "cook_difficulty_image" : "https:\/\/i1.douguo.com\/upload\/banner\/1551424390.png",
      "collect_status" : 0,
      "eu" : "recipes:\/\/www.douguo.com\/postdetail?id=242016",
      "sr" : "",
      "bs" : [

      ],
      "ipit" : 0,
      "related_ads" : [

      ],
      "recipe_list_tags" : [
        {
          "background_start_color" : "#F4F5F5",
          "right_image" : "",
          "background_border_color" : "",
          "text_color" : "#141515",
          "text" : "关注的人",
          "jump_url" : "",
          "background_end_color" : "#F4F5F5"
        }
      ],
      "image" : "http:\/\/i1.douguo.net\/upload\/caiku\/6\/4\/a\/300_648d2d694bd89c42fe2d1e304b6d4f3a.jpeg",
      "author_photo" : "http:\/\/tx1.douguo.net\/upload\/photo\/d\/9\/c\/70_u34552503126312074530.jpg",
      "mid_mdsp" : [

      ],
      "rips" : 0,
      "advice" : {
        "has" : [
          {
            "url" : "recipes:\/\/www.douguo.com\/simplerecipelist?t=低热量&id=低热量",
            "t" : "低热量"
          },
          {
            "url" : "recipes:\/\/www.douguo.com\/simplerecipelist?t=低脂&id=低脂",
            "t" : "低脂"
          }
        ],
        "at" : "能有效控制体重～",
        "da" : {
          "url" : "https:\/\/m.douguo.com\/recipe\/nutrient_self\/1328577",
          "iu" : "https:\/\/i1.douguo.com\/upload\/banner\/f\/4\/d\/f48877e53c37759bc12ac494be82ec8d.png",
          "t" : "查看详细分析"
        }
      },
      "major" : [
        {
          "note" : "一斤左右",
          "tu" : "https:\/\/m.douguo.com\/ingredients\/菠菜\/detailmaterial",
          "title" : "菠菜"
        },
        {
          "note" : "",
          "title" : "盐，小苏打"
        }
      ],
      "ss" : [

      ],
      "release_time" : "",
      "tips" : "",
      "btm_dsp" : [

      ],
      "comments" : [

      ],
      "rrps" : [

      ],
      "guide_image" : "",
      "rcs" : [

      ],
      "sc" : 0,
      "share_info" : {
        "mini_program" : [

        ],
        "infos" : [
          {
            "qr_image" : "",
            "s_d" : "#学做饭用豆果美食# 会做饭好酷啊！我在@豆果美食 分享了【菜疙瘩-会做饭很酷!】，今天也是厨艺满满的一天呢，快来和我一起学做美食吧！查看图片了解菜谱（更多美食秘籍点击https:\/\/m.weibo.cn\/p\/100404i33631获取）",
            "image" : "https:\/\/cp1.douguo.com\/upload\/caiku\/6\/4\/a\/648d2d694bd89c42fe2d1e304b6d4f3a.jpeg",
            "s_u" : "",
            "object_id" : "1328577",
            "channel" : "1",
            "mini_program" : [

            ],
            "name" : "菜疙瘩-会做饭很酷!"
          },
          {
            "object_id" : "1328577",
            "qr_image" : "",
            "mini_program" : [

            ],
            "s_d" : "菜疙瘩-会做饭很酷!",
            "channel" : "7",
            "s_u" : "http:\/\/m.douguo.com\/cookbook\/1328577.html",
            "name" : "菜疙瘩-会做饭很酷!",
            "image" : "https:\/\/cp1.douguo.com\/upload\/caiku\/6\/4\/a\/648d2d694bd89c42fe2d1e304b6d4f3a.jpeg"
          },
          {
            "image" : "https:\/\/cp1.douguo.com\/upload\/caiku\/6\/4\/a\/648d2d694bd89c42fe2d1e304b6d4f3a.jpeg",
            "mini_program" : [

            ],
            "qr_image" : "",
            "name" : "菜疙瘩-会做饭很酷!",
            "object_id" : "1328577",
            "s_d" : "菜疙瘩-会做饭很酷!",
            "channel" : "8",
            "s_u" : "http:\/\/m.douguo.com\/cookbook\/1328577.html"
          }
        ],
        "qr_image" : "",
        "image" : "https:\/\/cp1.douguo.com\/upload\/caiku\/6\/4\/a\/648d2d694bd89c42fe2d1e304b6d4f3a.jpeg",
        "s_u" : "http:\/\/m.douguo.com\/cookbook\/1328577.html",
        "name" : "菜疙瘩-会做饭很酷!",
        "s_d" : "菜疙瘩-会做饭很酷!",
        "object_id" : "1328577"
      },
      "ssu" : "",
      "cookwares" : [

      ],
      "first_level_comment_count" : 0,
      "cook_id" : "1328577",
      "brand_day_dsp" : [

      ],
      "title_ad" : [

      ],
      "cookstory" : "",
      "top_mdsp" : [

      ],
      "views_count_text" : "2.3万",
      "tags" : [

      ],
      "title" : "菜疙瘩",
      "rpt" : "",
      "dishes" : [

      ],
      "ipia" : [

      ],
      "v_u" : "",
      "rdsps" : [

      ]
    }
  },
  "state" : "success",
  "status" : 0
}