{
  "state" : "success",
  "status" : 0,
  "result" : {
    "recipe" : {
      "cook_difficulty" : "",
      "rrps" : [

      ],
      "ipit" : 0,
      "old_comments" : [

      ],
      "ipt" : "",
      "ph" : 600,
      "recent_comments" : [

      ],
      "recipe_list_tags" : [
        {
          "text_color" : "#141515",
          "text" : "关注的人",
          "background_border_color" : "",
          "background_end_color" : "#F4F5F5",
          "jump_url" : "",
          "right_image" : "",
          "background_start_color" : "#F4F5F5"
        }
      ],
      "cookstep" : [
        {
          "image_height" : 600,
          "image_width" : 800,
          "thumb" : "https:\/\/i1.douguo.com\/upload\/caiku\/0\/3\/0\/140_03e93e0478326b175f668abc69906fc0.jpg",
          "content" : "准备煮熟的碱面面条、黑豆芽、胡萝卜、猪肉、香菇。",
          "image" : "https:\/\/i1.douguo.com\/upload\/caiku\/0\/3\/0\/03e93e0478326b175f668abc69906fc0.jpg",
          "position" : 1,
          "frame" : "-1"
        },
        {
          "image" : "https:\/\/i1.douguo.com\/upload\/caiku\/2\/7\/a\/2765afabe6f8e7cb15d1cd7b6fa95aaa.jpg",
          "frame" : "-1",
          "position" : 2,
          "content" : "胡萝卜，香菇，猪肉切丝。",
          "image_width" : 1280,
          "thumb" : "https:\/\/i1.douguo.com\/upload\/caiku\/2\/7\/a\/140_2765afabe6f8e7cb15d1cd7b6fa95aaa.jpg",
          "image_height" : 553
        },
        {
          "content" : "放油油温五成热，下猪肉丝爆香。",
          "frame" : "-1",
          "image" : "https:\/\/i1.douguo.com\/upload\/caiku\/e\/5\/9\/e545dd95c717dd422332a20fbfa2fa99.jpg",
          "thumb" : "https:\/\/i1.douguo.com\/upload\/caiku\/e\/5\/9\/140_e545dd95c717dd422332a20fbfa2fa99.jpg",
          "position" : 3,
          "image_width" : 1280,
          "image_height" : 960
        },
        {
          "image" : "https:\/\/i1.douguo.com\/upload\/caiku\/f\/6\/8\/f6955434af1fcbaed1e7ba68e56c1208.jpg",
          "content" : "猪肉炒香后加胡萝卜丝翻炒。",
          "frame" : "-1",
          "image_height" : 600,
          "image_width" : 800,
          "thumb" : "https:\/\/i1.douguo.com\/upload\/caiku\/f\/6\/8\/140_f6955434af1fcbaed1e7ba68e56c1208.jpg",
          "position" : 4
        },
        {
          "position" : 5,
          "frame" : "-1",
          "image_height" : 600,
          "image_width" : 800,
          "content" : "加香菇翻炒出香味。",
          "thumb" : "https:\/\/i1.douguo.com\/upload\/caiku\/f\/9\/0\/140_f95eb5c80e56007766819ab048d89390.jpg",
          "image" : "https:\/\/i1.douguo.com\/upload\/caiku\/f\/9\/0\/f95eb5c80e56007766819ab048d89390.jpg"
        },
        {
          "image_height" : 600,
          "frame" : "-1",
          "image" : "https:\/\/i1.douguo.com\/upload\/caiku\/7\/5\/e\/752e7326a652c0e3c6037f174c09447e.jpg",
          "content" : "最后加黑豆芽炒一下。",
          "position" : 6,
          "thumb" : "https:\/\/i1.douguo.com\/upload\/caiku\/7\/5\/e\/140_752e7326a652c0e3c6037f174c09447e.jpg",
          "image_width" : 800
        },
        {
          "image_width" : 1280,
          "content" : "加入碱面【买的碱面都是煮熟的，但是需要清洗一下控一下水分】",
          "image" : "https:\/\/i1.douguo.com\/upload\/caiku\/d\/9\/0\/d9f07c33ae9f7e3a329e61b2df8053b0.jpg",
          "thumb" : "https:\/\/i1.douguo.com\/upload\/caiku\/d\/9\/0\/140_d9f07c33ae9f7e3a329e61b2df8053b0.jpg",
          "position" : 7,
          "frame" : "-1",
          "image_height" : 960
        },
        {
          "image_height" : 600,
          "position" : 8,
          "image" : "https:\/\/i1.douguo.com\/upload\/caiku\/4\/5\/9\/45ecb97392729b4c731162cc4bf15839.jpg",
          "content" : "加生抽盐调味，翻炒至每根面条都上色。",
          "thumb" : "https:\/\/i1.douguo.com\/upload\/caiku\/4\/5\/9\/140_45ecb97392729b4c731162cc4bf15839.jpg",
          "image_width" : 800,
          "frame" : "-1"
        },
        {
          "content" : "筷子不断翻炒至面条变的干爽劲道就可以起锅了！",
          "image_width" : 1280,
          "image" : "https:\/\/i1.douguo.com\/upload\/caiku\/9\/1\/1\/91ac3632b49a921bb39beea6817724b1.jpg",
          "frame" : "-1",
          "image_height" : 706,
          "thumb" : "https:\/\/i1.douguo.com\/upload\/caiku\/9\/1\/1\/140_91ac3632b49a921bb39beea6817724b1.jpg",
          "position" : 9
        },
        {
          "position" : 10,
          "content" : "香喷喷的三鲜炒面快来吃。",
          "frame" : "-1",
          "image_width" : 800,
          "image" : "https:\/\/i1.douguo.com\/upload\/caiku\/1\/8\/5\/1811a2e502350176c5935c5fd8c25b95.jpg",
          "image_height" : 600,
          "thumb" : "https:\/\/i1.douguo.com\/upload\/caiku\/1\/8\/5\/140_1811a2e502350176c5935c5fd8c25b95.jpg"
        },
        {
          "image_width" : 800,
          "frame" : "-1",
          "position" : 11,
          "image_height" : 600,
          "thumb" : "https:\/\/i1.douguo.com\/upload\/caiku\/8\/d\/a\/140_8dd34b68e781dd90fb80f0564a6edefa.jpg",
          "image" : "https:\/\/i1.douguo.com\/upload\/caiku\/8\/d\/a\/8dd34b68e781dd90fb80f0564a6edefa.jpg",
          "content" : "将炒好的炒面盛入东菱加热饭盒，作为午餐。"
        },
        {
          "image_width" : 800,
          "frame" : "-1",
          "thumb" : "https:\/\/i1.douguo.com\/upload\/caiku\/8\/5\/a\/140_85b2064b74699476c96a61d8b147302a.jpg",
          "content" : "需要吃的时候插上电源即可。不用走出办公室也可以享用美美的午餐！",
          "image_height" : 600,
          "position" : 12,
          "image" : "https:\/\/i1.douguo.com\/upload\/caiku\/8\/5\/a\/85b2064b74699476c96a61d8b147302a.jpg"
        }
      ],
      "vfurl" : "",
      "purl" : "",
      "author" : "尝尝好味道",
      "rrpt" : "",
      "ipurl" : "",
      "recommendation_tag" : "",
      "top_mdsp" : [

      ],
      "ssu" : "",
      "cookwares" : [

      ],
      "thumb_height" : 0,
      "collect_status" : 0,
      "v_u" : "",
      "recommended" : 0,
      "hqu" : "recipes:\/\/www.douguo.com\/notedetail?id=21162253",
      "dish_count" : 1,
      "cook_id" : "2339987",
      "ecs" : 0,
      "story_dsp" : [

      ],
      "tips" : "",
      "vc" : "232883",
      "advice" : {
        "has" : [
          {
            "url" : "recipes:\/\/www.douguo.com\/simplerecipelist?t=低糖&id=低糖",
            "t" : "低糖"
          }
        ],
        "da" : {
          "iu" : "https:\/\/i1.douguo.com\/upload\/banner\/f\/4\/d\/f48877e53c37759bc12ac494be82ec8d.png",
          "url" : "https:\/\/m.douguo.com\/recipe\/nutrient_self\/2339987",
          "t" : "查看详细分析"
        },
        "at" : "能帮助你减脂、控血糖～"
      },
      "rpid" : 0,
      "ipoi" : "",
      "minor" : [

      ],
      "guide_image" : "",
      "image" : "http:\/\/i1.douguo.net\/upload\/caiku\/5\/c\/6\/300_5ceb83c3b2f45f0311bcb2f2ad85d666.jpg",
      "rate" : 5,
      "clicks" : "196812",
      "cookstory" : "所谓的三鲜面，其实就是炒面里加了肉丝、豆芽、香菇、胡萝卜、味道清淡不腻口。大口吃面的同时来一杯酸梅汁那才吃的一个过瘾！",
      "rips" : 0,
      "share_info" : {
        "mini_program" : [

        ],
        "object_id" : "2339987",
        "name" : "营养早餐‖三鲜炒面便当-会做饭很酷!",
        "s_d" : "营养早餐‖三鲜炒面便当-会做饭很酷!",
        "s_u" : "http:\/\/m.douguo.com\/cookbook\/2339987.html",
        "qr_image" : "",
        "image" : "https:\/\/cp1.douguo.com\/upload\/caiku\/5\/c\/6\/5ceb83c3b2f45f0311bcb2f2ad85d666.jpg",
        "infos" : [
          {
            "channel" : "1",
            "s_u" : "",
            "qr_image" : "",
            "s_d" : "#学做饭用豆果美食# 我在@豆果美食 分享了【营养早餐‖三鲜炒面便当-会做饭很酷!】，色香味俱全说的就是这道菜！查看图片了解菜谱（快来点击https:\/\/m.weibo.cn\/p\/100404i33631和我一起修炼厨艺吧）#会做饭很酷# ",
            "image" : "https:\/\/cp1.douguo.com\/upload\/caiku\/5\/c\/6\/5ceb83c3b2f45f0311bcb2f2ad85d666.jpg",
            "mini_program" : [

            ],
            "object_id" : "2339987",
            "name" : "营养早餐‖三鲜炒面便当-会做饭很酷!"
          },
          {
            "mini_program" : [

            ],
            "channel" : "7",
            "image" : "https:\/\/cp1.douguo.com\/upload\/caiku\/5\/c\/6\/5ceb83c3b2f45f0311bcb2f2ad85d666.jpg",
            "s_u" : "http:\/\/m.douguo.com\/cookbook\/2339987.html",
            "object_id" : "2339987",
            "s_d" : "营养早餐‖三鲜炒面便当-会做饭很酷!",
            "qr_image" : "",
            "name" : "营养早餐‖三鲜炒面便当-会做饭很酷!"
          },
          {
            "qr_image" : "",
            "s_d" : "营养早餐‖三鲜炒面便当-会做饭很酷!",
            "image" : "https:\/\/cp1.douguo.com\/upload\/caiku\/5\/c\/6\/5ceb83c3b2f45f0311bcb2f2ad85d666.jpg",
            "object_id" : "2339987",
            "name" : "营养早餐‖三鲜炒面便当-会做饭很酷!",
            "s_u" : "http:\/\/m.douguo.com\/cookbook\/2339987.html",
            "mini_program" : [

            ],
            "channel" : "8"
          }
        ]
      },
      "ipia" : [

      ],
      "related_ads" : [

      ],
      "major" : [
        {
          "note" : "350克",
          "title" : "碱面"
        },
        {
          "note" : "100克",
          "title" : "猪肉",
          "tu" : "https:\/\/m.douguo.com\/ingredients\/猪肉\/detailmaterial"
        },
        {
          "note" : "20克",
          "title" : "豆芽",
          "tu" : "https:\/\/m.douguo.com\/ingredients\/豆芽\/detailmaterial"
        },
        {
          "note" : "一根",
          "tu" : "https:\/\/m.douguo.com\/ingredients\/胡萝卜\/detailmaterial",
          "title" : "胡萝卜"
        },
        {
          "title" : "香菇",
          "tu" : "https:\/\/m.douguo.com\/ingredients\/香菇\/detailmaterial",
          "note" : "10朵"
        },
        {
          "note" : "1勺",
          "title" : "盐",
          "tu" : "https:\/\/m.douguo.com\/ingredients\/盐\/detailmaterial"
        },
        {
          "note" : "3勺",
          "title" : "生抽",
          "tu" : "https:\/\/m.douguo.com\/ingredients\/生抽\/detailmaterial"
        }
      ],
      "sc" : 0,
      "packages_id" : [

      ],
      "recipe_tags" : [

      ],
      "cookstorys" : [
        {
          "color" : "",
          "icon" : "",
          "u" : "",
          "c" : "所谓的三鲜面，其实就是炒面里加了肉丝、豆芽、香菇、胡萝卜、味道清淡不腻口。大口吃面的同时来一杯酸梅汁那才吃的一个过瘾！",
          "id" : 0,
          "type" : 0
        }
      ],
      "dish_count_text" : "1",
      "thumb_path" : "https:\/\/i1.douguo.com\/upload\/caiku\/5\/c\/6\/300_5ceb83c3b2f45f0311bcb2f2ad85d666.jpg",
      "eu" : "recipes:\/\/www.douguo.com\/postdetail?id=242016",
      "rpst" : "",
      "pw" : 800,
      "views_count_text" : "23.3万",
      "recommend_label" : "1人学做",
      "bs" : [

      ],
      "favo_counts_text" : "5076",
      "brand_day_dsp" : [

      ],
      "notes" : [

      ],
      "ipci" : "",
      "rate_show" : 0,
      "comments_count_text" : "14",
      "cook_time_image" : "",
      "rewarded_video_dsp" : [

      ],
      "comments" : [
        "{\n    ac = \"#999999\";\n    at = \"\\U5510\\U5c71\\U5e02\";\n    ccc = 2;\n    \"child_comments\" =     (\n                {\n            ac = \"#999999\";\n            at = \"\";\n            ccc = 0;\n            city = \"\";\n            cmc = 2;\n            content =             (\n                                {\n                    c = \" \\U4e0d\\U597d\\U7528\\U5417\\Uff1f\\U6211\\U521a\\U4e70\\U4e86\\U4e00\\U4e2a\\Uff0c\\U8fd8\\U6ca1\\U5230\\Ud83d\\Ude28\";\n                }\n            );\n            ia = 0;\n            id = 7789902;\n            \"ip_address_location\" = \"\";\n            like = 0;\n            \"like_count\" = 0;\n            \"reply_id\" = 7629875;\n            \"reply_user\" =             {\n                \"followers_count_text\" = \"\";\n                id = 18618074;\n                \"is_prime\" = 0;\n                lv = 0;\n                lvl = 1;\n                n = \"\\U5c0f\\U516c\\U4e3b6366\";\n                p = \"\";\n                \"progress_image\" = \"\";\n                \"recipes_count_text\" = \"\";\n                relationship = \"-1\";\n                title = \"\";\n                v = 0;\n                \"verified_image\" = \"\";\n            };\n            \"sticker_icon\" =             (\n            );\n            time = \"2020-03-18 00:14:08\";\n            u =             {\n                \"followers_count_text\" = \"\";\n                id = 21646632;\n                \"is_prime\" = 0;\n                lv = 0;\n                lvl = 1;\n                n = \"\\U8c46\\U7c899706064252\";\n                p = \"http:\/\/tx1.douguo.net\/upload\/photo\/a\/2\/9\/70_u1851107148342163810.jpg\";\n                \"progress_image\" = \"\";\n                \"recipes_count_text\" = \"\";\n                relationship = \"-1\";\n                title = \"\";\n                v = 0;\n                \"verified_image\" = \"\";\n            };\n        },\n                {\n            ac = \"#999999\";\n            at = \"\";\n            ccc = 0;\n            city = \"\";\n            cmc = 2;\n            content =             (\n                                {\n                    c = \" \\U6211\\U4e70\\U4e86\\U4e00\\U4e2a\\U5c0f\\U718a\\U7684\\U84b8\\U7684   \\U7528\\U534a\\U5e74\\U591a\\U4e86  \";\n                }\n            );\n            ia = 0;\n            id = 8678960;\n            \"ip_address_location\" = \"\";\n            like = 0;\n            \"like_count\" = 0;\n            \"reply_id\" = 7629875;\n            \"reply_user\" =             {\n                \"followers_count_text\" = \"\";\n                id = 18618074;\n                \"is_prime\" = 0;\n                lv = 0;\n                lvl = 1;\n                n = \"\\U5c0f\\U516c\\U4e3b6366\";\n                p = \"\";\n                \"progress_image\" = \"\";\n                \"recipes_count_text\" = \"\";\n                relationship = \"-1\";\n                title = \"\";\n                v = 0;\n                \"verified_image\" = \"\";\n            };\n            \"sticker_icon\" =             (\n            );\n            time = \"2021-05-17 01:17:28\";\n            u =             {\n                \"followers_count_text\" = \"\";\n                id = 26187149;\n                \"is_prime\" = 0;\n                lv = 0;\n                lvl = 1;\n                n = \"\\U6709\\U7406\\U7684\\U706b\\U817f\\U80a0\";\n                p = \"\";\n                \"progress_image\" = \"\";\n                \"recipes_count_text\" = \"\";\n                relationship = \"-1\";\n                title = \"\";\n                v = 0;\n                \"verified_image\" = \"\";\n            };\n        }\n    );\n    city = \"\\U5510\\U5c71\\U5e02\";\n    cmc = 2;\n    content =     (\n                {\n            c = \"\\U770b\\U7740\\U5c31\\U597d\\U5403 \\U4e0d\\U8fc7\\U8fd9\\U4e2a\\U996d\\U76d2\\U771f\\U5fc3\\U9e21\\U808b \\U4e09\\U4e2a\\U6708\\U7528\\U574f\\U4e86\\U4e24\\U4e2a\\Ud83d\\Ude2d\";\n        }\n    );\n    ia = 0;\n    id = 7629875;\n    \"ip_address_location\" = \"\";\n    like = 0;\n    \"like_count\" = 2;\n    \"reply_id\" = 0;\n    \"sticker_icon\" =     (\n    );\n    time = \"2020-02-15 22:50:10\";\n    u =     {\n        \"followers_count_text\" = \"\";\n        id = 18618074;\n        \"is_prime\" = 0;\n        lv = 0;\n        lvl = 1;\n        n = \"\\U5c0f\\U516c\\U4e3b6366\";\n        p = \"\";\n        \"progress_image\" = \"\";\n        \"recipes_count_text\" = \"\";\n        relationship = \"-1\";\n        title = \"\";\n        v = 0;\n        \"verified_image\" = \"\";\n    };\n}",
        "{\n    ac = \"#999999\";\n    at = \"\";\n    ccc = 0;\n    \"child_comments\" =     (\n    );\n    city = \"\";\n    cmc = 2;\n    content =     (\n                {\n            c = \"\\U4f1a\\U4e0d\\U4f1a\\U5768\\Uff1f\";\n        }\n    );\n    ia = 0;\n    id = 7260676;\n    \"ip_address_location\" = \"\";\n    like = 0;\n    \"like_count\" = 0;\n    \"reply_id\" = 0;\n    \"sticker_icon\" =     (\n    );\n    time = \"2019-10-31 20:43:19\";\n    u =     {\n        \"followers_count_text\" = \"\";\n        id = 21587777;\n        \"is_prime\" = 0;\n        lv = 0;\n        lvl = 1;\n        n = \"\\U67b3\\U68d8\\U6816\\U9e33\\U9e3e\";\n        p = \"http:\/\/tx1.douguo.net\/upload\/photo\/1\/1\/1\/70_f7e594d7de9edf3c5d9eea15eb1067bb.png\";\n        \"progress_image\" = \"\";\n        \"recipes_count_text\" = \"\";\n        relationship = \"-1\";\n        title = \"\";\n        v = 0;\n        \"verified_image\" = \"\";\n    };\n}",
        "{\n    ac = \"#999999\";\n    at = \"\";\n    ccc = 0;\n    \"child_comments\" =     (\n    );\n    city = \"\";\n    cmc = 2;\n    content =     (\n                {\n            c = \"\\U770b\\U7684\\U6211\\U90fd\\U997f\\U4e86\\U3002\\U3002\\U5495~~(\\U256f\\Ufe4f\\U2570)b\";\n        }\n    );\n    ia = 0;\n    id = 7031125;\n    \"ip_address_location\" = \"\";\n    like = 0;\n    \"like_count\" = 0;\n    \"reply_id\" = 0;\n    \"sticker_icon\" =     (\n    );\n    time = \"2019-09-09 07:07:57\";\n    u =     {\n        \"followers_count_text\" = \"\";\n        id = 18472512;\n        \"is_prime\" = 0;\n        lv = 0;\n        lvl = 3;\n        n = \"\\U7389\\U53f6\\U9171\";\n        p = \"http:\/\/tx1.douguo.net\/upload\/photo\/a\/0\/b\/70_u13032743092880408145217.jpg\";\n        \"progress_image\" = \"\";\n        \"recipes_count_text\" = \"\";\n        relationship = \"-1\";\n        title = \"\";\n        v = 0;\n        \"verified_image\" = \"\";\n    };\n}"
      ],
      "photo_path" : "https:\/\/i1.douguo.com\/upload\/caiku\/5\/c\/6\/600_5ceb83c3b2f45f0311bcb2f2ad85d666.jpg",
      "author_id" : 3912629,
      "levelid" : 2,
      "title_ad" : [

      ],
      "release_time" : "",
      "sr" : "",
      "mid_mdsp" : [

      ],
      "rpt" : "",
      "favo_counts" : 5076,
      "vu" : "",
      "rcs" : [

      ],
      "first_level_comment_count" : 12,
      "author_verified" : 1,
      "display_ingredient" : 1,
      "rate_count" : 1,
      "su" : "",
      "tags" : [

      ],
      "cook_difficulty_image" : "",
      "rdsps" : [

      ],
      "rsm" : "该功能暂停使用",
      "btm_dsp" : [

      ],
      "act_des" : "",
      "comments_count" : 14,
      "user" : {
        "following_count" : 0,
        "mobile" : "",
        "avatar_medium" : "http:\/\/tx1.douguo.net\/upload\/photo\/3\/c\/f\/140_u89686533279815013437.jpg",
        "favorites_count" : 0,
        "is_prime" : 0,
        "user_cover" : "",
        "verified_image" : "https:\/\/i1.douguo.com\/upload\/note\/d\/a\/a\/da84247847aebe48d9dd0fcdac88862a.png",
        "lvl" : 8,
        "lv" : 0,
        "favor_diaries_count" : 0,
        "user_photo" : "http:\/\/tx1.douguo.net\/upload\/photo\/3\/c\/f\/70_u89686533279815013437.jpg",
        "qzone_nick" : "",
        "birthday" : "",
        "weibo_nick" : "",
        "introduction" : "",
        "dishes_count" : 0,
        "point" : 0,
        "qq_weibo_nick" : "",
        "user_large_photo" : "http:\/\/tx1.douguo.net\/upload\/photo\/3\/c\/f\/yuan_u89686533279815013437.jpg",
        "verified_url" : "https:\/\/m.douguo.com\/user\/prodesc",
        "verified" : 1,
        "progress_image" : "",
        "fc" : 0,
        "sign" : "",
        "user_id" : "3912629",
        "age" : "",
        "coursecount" : 0,
        "nick" : "尝尝好味道",
        "pc" : 0,
        "location" : 0,
        "email" : "",
        "gender" : 2,
        "recipes_count" : 0,
        "regist_time" : "",
        "userid" : "3912629",
        "setted_email" : 0,
        "diaries_count" : 0,
        "followers_count" : 0,
        "subscription_article_count" : 0,
        "subscription" : 0
      },
      "create_time" : "2019-09-08 12:04:55",
      "ss" : [

      ],
      "dishes" : [

      ],
      "title" : "营养早餐‖三鲜炒面便当",
      "cook_time" : "",
      "hq" : 1,
      "author_photo" : "http:\/\/tx1.douguo.net\/upload\/photo\/3\/c\/f\/70_u89686533279815013437.jpg",
      "original_photo_path" : "http:\/\/i1.douguo.net\/upload\/caiku\/5\/c\/6\/yuan_5ceb83c3b2f45f0311bcb2f2ad85d666.jpg"
    }
  }
}