{
  "result" : {
    "recipe" : {
      "sc" : 0,
      "title_ad" : [

      ],
      "create_time" : "2019-07-17 06:43:56",
      "pw" : 1920,
      "dish_count" : 0,
      "cookstep" : [
        {
          "image" : "https:\/\/i1.douguo.com\/upload\/caiku\/1\/2\/2\/12fb235982d2456529381263d96e3d72.jpeg",
          "frame" : "-1",
          "position" : 1,
          "content" : "萝卜洗净切成跟小手指粗的条,撒盐腌制半小时左右，把萝卜条捞出攥干水分。",
          "thumb" : "https:\/\/i1.douguo.com\/upload\/caiku\/1\/2\/2\/140_12fb235982d2456529381263d96e3d72.jpeg",
          "image_width" : 1280,
          "image_height" : 960
        },
        {
          "content" : "放太阳底下暴晒一天，变成图上这种样子就可以了",
          "image" : "https:\/\/i1.douguo.com\/upload\/caiku\/9\/b\/e\/9b9dcb7e60262548918331b4fc02067e.jpeg",
          "frame" : "-1",
          "thumb" : "https:\/\/i1.douguo.com\/upload\/caiku\/9\/b\/e\/140_9b9dcb7e60262548918331b4fc02067e.jpeg",
          "position" : 2,
          "image_width" : 1000,
          "image_height" : 1334
        },
        {
          "content" : "把晒干萝卜用水清洗一下攥干水分",
          "image" : "https:\/\/i1.douguo.com\/upload\/caiku\/a\/c\/7\/acebc36015b2a7f1005bb29a70dc1487.jpeg",
          "image_height" : 960,
          "thumb" : "https:\/\/i1.douguo.com\/upload\/caiku\/a\/c\/7\/140_acebc36015b2a7f1005bb29a70dc1487.jpeg",
          "image_width" : 1280,
          "frame" : "-1",
          "position" : 3
        },
        {
          "position" : 4,
          "frame" : "-1",
          "image_height" : 960,
          "image_width" : 1280,
          "content" : "把小米辣切碎、香菜切段撒在萝卜条上，倒入生抽和醋还有白糖,锅里烧热油放几粒花椒和葱炸出香味，把油浇在萝卜条上撒上芝麻拌匀即可",
          "thumb" : "https:\/\/i1.douguo.com\/upload\/caiku\/0\/b\/b\/140_0b2738661a81261786f1fe9cc403937b.jpeg",
          "image" : "https:\/\/i1.douguo.com\/upload\/caiku\/0\/b\/b\/0b2738661a81261786f1fe9cc403937b.jpeg"
        },
        {
          "image_height" : 960,
          "frame" : "-1",
          "content" : "盛盘",
          "thumb" : "https:\/\/i1.douguo.com\/upload\/caiku\/0\/b\/4\/140_0b002683affdb4154ef012a3447aed64.jpeg",
          "position" : 5,
          "image" : "https:\/\/i1.douguo.com\/upload\/caiku\/0\/b\/4\/0b002683affdb4154ef012a3447aed64.jpeg",
          "image_width" : 1280
        }
      ],
      "thumb_path" : "https:\/\/i1.douguo.com\/upload\/caiku\/3\/8\/4\/300_38248f955b459e2b8f3e829a314c1174.jpeg",
      "rrpt" : "",
      "author_id" : 15890081,
      "user" : {
        "mobile" : "",
        "userid" : "15890081",
        "user_photo" : "http:\/\/tx1.douguo.net\/upload\/photo\/4\/d\/d\/70_u50399061360632181328.jpeg",
        "lv" : 0,
        "dishes_count" : 0,
        "following_count" : 0,
        "subscription" : 0,
        "favor_diaries_count" : 0,
        "nick" : "开心123jiajia",
        "subscription_article_count" : 0,
        "qzone_nick" : "",
        "pc" : 0,
        "is_prime" : 0,
        "gender" : 2,
        "recipes_count" : 0,
        "lvl" : 6,
        "regist_time" : "",
        "coursecount" : 0,
        "progress_image" : "",
        "verified" : 1,
        "location" : 0,
        "verified_image" : "https:\/\/i1.douguo.com\/upload\/note\/d\/a\/a\/da84247847aebe48d9dd0fcdac88862a.png",
        "fc" : 0,
        "age" : "",
        "birthday" : "",
        "followers_count" : 0,
        "user_cover" : "",
        "setted_email" : 0,
        "introduction" : "",
        "sign" : "",
        "verified_url" : "https:\/\/m.douguo.com\/user\/prodesc",
        "diaries_count" : 0,
        "user_large_photo" : "http:\/\/tx1.douguo.net\/upload\/photo\/4\/d\/d\/yuan_u50399061360632181328.jpeg",
        "point" : 0,
        "favorites_count" : 0,
        "email" : "",
        "qq_weibo_nick" : "",
        "user_id" : "15890081",
        "avatar_medium" : "http:\/\/tx1.douguo.net\/upload\/photo\/4\/d\/d\/140_u50399061360632181328.jpeg",
        "weibo_nick" : ""
      },
      "ipia" : [

      ],
      "packages_id" : [

      ],
      "ssu" : "",
      "rips" : 0,
      "release_time" : "",
      "eu" : "recipes:\/\/www.douguo.com\/postdetail?id=242016",
      "ph" : 1440,
      "recommend_label" : "6790人刚刚收藏过",
      "comments_count" : 9,
      "ipit" : 0,
      "recommended" : 0,
      "clicks" : "395746",
      "purl" : "",
      "recent_comments" : [

      ],
      "vc" : "402395",
      "major" : [
        {
          "title" : "白萝卜",
          "tu" : "https:\/\/m.douguo.com\/ingredients\/白萝卜\/detailmaterial",
          "note" : "1个"
        },
        {
          "title" : "小红辣椒",
          "note" : "2个"
        },
        {
          "note" : "半小勺",
          "title" : "白糖",
          "tu" : "https:\/\/m.douguo.com\/ingredients\/白糖\/detailmaterial"
        },
        {
          "note" : "一勺",
          "title" : "米醋"
        },
        {
          "note" : "一勺",
          "title" : "生抽",
          "tu" : "https:\/\/m.douguo.com\/ingredients\/生抽\/detailmaterial"
        },
        {
          "tu" : "https:\/\/m.douguo.com\/ingredients\/盐\/detailmaterial",
          "note" : "一勺半",
          "title" : "盐"
        },
        {
          "note" : "一棵",
          "title" : "香菜",
          "tu" : "https:\/\/m.douguo.com\/ingredients\/香菜\/detailmaterial"
        },
        {
          "note" : "一勺半",
          "title" : "油",
          "tu" : "https:\/\/m.douguo.com\/ingredients\/油\/detailmaterial"
        },
        {
          "tu" : "https:\/\/m.douguo.com\/ingredients\/花椒\/detailmaterial",
          "note" : "十粒",
          "title" : "花椒"
        },
        {
          "note" : "半颗",
          "tu" : "https:\/\/m.douguo.com\/ingredients\/小葱\/detailmaterial",
          "title" : "小葱"
        }
      ],
      "rate_count" : 0,
      "btm_dsp" : [

      ],
      "author" : "开心123jiajia",
      "top_mdsp" : [

      ],
      "cookstory" : "每隔一段时间必做的一道下饭小咸菜，爽口开胃是这个夏天不可多得小菜，做好了放保鲜盒存放冰箱可以吃几天。",
      "brand_day_dsp" : [

      ],
      "author_photo" : "http:\/\/tx1.douguo.net\/upload\/photo\/4\/d\/d\/70_u50399061360632181328.jpeg",
      "recommendation_tag" : "",
      "thumb_height" : 0,
      "cook_time_image" : "https:\/\/i1.douguo.com\/upload\/banner\/1551423815.png",
      "bs" : [

      ],
      "favo_counts" : 6790,
      "advice" : {
        "has" : [
          {
            "t" : "低脂",
            "url" : "recipes:\/\/www.douguo.com\/simplerecipelist?t=低脂&id=低脂"
          },
          {
            "t" : "低盐",
            "url" : "recipes:\/\/www.douguo.com\/simplerecipelist?t=低盐&id=低盐"
          }
        ],
        "da" : {
          "iu" : "https:\/\/i1.douguo.com\/upload\/banner\/f\/4\/d\/f48877e53c37759bc12ac494be82ec8d.png",
          "url" : "https:\/\/m.douguo.com\/recipe\/nutrient_self\/2318969",
          "t" : "查看详细分析"
        },
        "at" : "健身人群可以吃～"
      },
      "su" : "",
      "cook_difficulty_image" : "https:\/\/i1.douguo.com\/upload\/banner\/1551424390.png",
      "v_u" : "",
      "minor" : [

      ],
      "mid_mdsp" : [

      ],
      "comments" : [
        "{\n    ac = \"#999999\";\n    at = \"\";\n    ccc = 1;\n    \"child_comments\" =     (\n                {\n            ac = \"#999999\";\n            at = \"\\U6d4e\\U5357\\U5e02\";\n            ccc = 0;\n            city = \"\\U6d4e\\U5357\\U5e02\";\n            cmc = 2;\n            content =             (\n                                {\n                    c = \" \\U4e0d\\U9700\\U8981\\Uff0c\\U5e26\\U76ae\\U624d\\U597d\\U5403\\U5462\";\n                }\n            );\n            ia = 1;\n            id = 6788469;\n            \"ip_address_location\" = \"\";\n            like = 0;\n            \"like_count\" = 0;\n            \"reply_id\" = 6787973;\n            \"reply_user\" =             {\n                \"followers_count_text\" = \"\";\n                id = 24054169;\n                \"is_prime\" = 0;\n                lv = 0;\n                lvl = 1;\n                n = \"\\U8c46\\U7c898173219202\";\n                p = \"\";\n                \"progress_image\" = \"\";\n                \"recipes_count_text\" = \"\";\n                relationship = \"-1\";\n                title = \"\";\n                v = 0;\n                \"verified_image\" = \"\";\n            };\n            \"sticker_icon\" =             (\n            );\n            time = \"2019-07-18 10:49:26\";\n            u =             {\n                \"followers_count_text\" = \"\";\n                id = 15890081;\n                \"is_prime\" = 0;\n                lv = 0;\n                lvl = 6;\n                n = \"\\U5f00\\U5fc3123jiajia\";\n                p = \"http:\/\/tx1.douguo.net\/upload\/photo\/4\/d\/d\/70_u50399061360632181328.jpeg\";\n                \"progress_image\" = \"\";\n                \"recipes_count_text\" = \"\";\n                relationship = \"-1\";\n                title = \"\";\n                v = 1;\n                \"verified_image\" = \"\";\n            };\n        }\n    );\n    city = \"\";\n    cmc = 2;\n    content =     (\n                {\n            c = \"\\U9700\\U8981\\U524a\\U76ae\\U5417\";\n        }\n    );\n    ia = 0;\n    id = 6787973;\n    \"ip_address_location\" = \"\";\n    like = 0;\n    \"like_count\" = 0;\n    \"reply_id\" = 0;\n    \"sticker_icon\" =     (\n    );\n    time = \"2019-07-18 09:39:19\";\n    u =     {\n        \"followers_count_text\" = \"\";\n        id = 24054169;\n        \"is_prime\" = 0;\n        lv = 0;\n        lvl = 1;\n        n = \"\\U8c46\\U7c898173219202\";\n        p = \"\";\n        \"progress_image\" = \"\";\n        \"recipes_count_text\" = \"\";\n        relationship = \"-1\";\n        title = \"\";\n        v = 0;\n        \"verified_image\" = \"\";\n    };\n}",
        "{\n    ac = \"#999999\";\n    at = \"\\U97f6\\U5173\\U5e02\";\n    ccc = 0;\n    \"child_comments\" =     (\n    );\n    city = \"\\U97f6\\U5173\\U5e02\";\n    cmc = 2;\n    content =     (\n                {\n            c = \"\\U5f88\\U597d\\U5403\\U7684\\U6837\\U5b50\\U54e6\\Uff01\";\n        }\n    );\n    ia = 0;\n    id = 7477439;\n    \"ip_address_location\" = \"\";\n    like = 0;\n    \"like_count\" = 0;\n    \"reply_id\" = 0;\n    \"sticker_icon\" =     (\n    );\n    time = \"2019-12-24 19:44:39\";\n    u =     {\n        \"followers_count_text\" = \"\";\n        id = 16246100;\n        \"is_prime\" = 0;\n        lv = 0;\n        lvl = 6;\n        n = Eden1588;\n        p = \"http:\/\/tx1.douguo.net\/upload\/photo\/e\/a\/e\/70_u52834523698553030820.jpg\";\n        \"progress_image\" = \"\";\n        \"recipes_count_text\" = \"\";\n        relationship = \"-1\";\n        title = \"\";\n        v = 0;\n        \"verified_image\" = \"\";\n    };\n}",
        "{\n    ac = \"#999999\";\n    at = \"\";\n    ccc = 0;\n    \"child_comments\" =     (\n    );\n    city = \"\";\n    cmc = 2;\n    content =     (\n                {\n            c = \"\\U597d\\U597d\\U5403\\U7684\\U6837\\U5b50\\Uff0c\\U53a8\\U623f\\U5c0f\\U767d\\U80fd\\U505a\\U4e48\";\n        }\n    );\n    ia = 0;\n    id = 6784230;\n    \"ip_address_location\" = \"\";\n    like = 0;\n    \"like_count\" = 0;\n    \"reply_id\" = 0;\n    \"sticker_icon\" =     (\n    );\n    time = \"2019-07-17 11:19:06\";\n    u =     {\n        \"followers_count_text\" = \"\";\n        id = 18508310;\n        \"is_prime\" = 0;\n        lv = 0;\n        lvl = 3;\n        n = \"\\U6a02\\U6a02658\";\n        p = \"http:\/\/tx1.douguo.net\/upload\/photo\/0\/5\/9\/70_u16596980488080408182944.jpg\";\n        \"progress_image\" = \"\";\n        \"recipes_count_text\" = \"\";\n        relationship = \"-1\";\n        title = \"\";\n        v = 0;\n        \"verified_image\" = \"\";\n    };\n}"
      ],
      "tips" : "家里人不喜欢吃香油所以用了花椒油，喜欢香油的直接放香油即可，萝卜条在腌制时如果腌咸了，可以多洗几遍再晾晒。",
      "original_photo_path" : "http:\/\/i1.douguo.net\/upload\/caiku\/3\/8\/4\/yuan_38248f955b459e2b8f3e829a314c1174.jpeg",
      "ipt" : "",
      "rate_show" : 0,
      "related_ads" : [

      ],
      "vfurl" : "",
      "share_info" : {
        "qr_image" : "",
        "s_d" : "#一人一道拿手菜#有嚼劲的～香辣萝卜条-会做饭很酷!",
        "image" : "https:\/\/cp1.douguo.com\/upload\/caiku\/3\/8\/4\/38248f955b459e2b8f3e829a314c1174.jpeg",
        "object_id" : "2318969",
        "name" : "#一人一道拿手菜#有嚼劲的～香辣萝卜条-会做饭很酷!",
        "s_u" : "http:\/\/m.douguo.com\/cookbook\/2318969.html",
        "infos" : [
          {
            "channel" : "1",
            "s_u" : "",
            "qr_image" : "",
            "s_d" : "#学做饭用豆果美食# 我在@豆果美食 分享了【#一人一道拿手菜#有嚼劲的～香辣萝卜条-会做饭很酷!】，色香味俱全说的就是这道菜！查看图片了解菜谱（快来点击https:\/\/m.weibo.cn\/p\/100404i33631和我一起修炼厨艺吧）#会做饭很酷# ",
            "image" : "https:\/\/cp1.douguo.com\/upload\/caiku\/3\/8\/4\/38248f955b459e2b8f3e829a314c1174.jpeg",
            "mini_program" : [

            ],
            "object_id" : "2318969",
            "name" : "#一人一道拿手菜#有嚼劲的～香辣萝卜条-会做饭很酷!"
          },
          {
            "channel" : "7",
            "mini_program" : [

            ],
            "object_id" : "2318969",
            "name" : "#一人一道拿手菜#有嚼劲的～香辣萝卜条-会做饭很酷!",
            "s_d" : "#一人一道拿手菜#有嚼劲的～香辣萝卜条-会做饭很酷!",
            "image" : "https:\/\/cp1.douguo.com\/upload\/caiku\/3\/8\/4\/38248f955b459e2b8f3e829a314c1174.jpeg",
            "qr_image" : "",
            "s_u" : "http:\/\/m.douguo.com\/cookbook\/2318969.html"
          },
          {
            "mini_program" : [

            ],
            "image" : "https:\/\/cp1.douguo.com\/upload\/caiku\/3\/8\/4\/38248f955b459e2b8f3e829a314c1174.jpeg",
            "channel" : "8",
            "object_id" : "2318969",
            "s_u" : "http:\/\/m.douguo.com\/cookbook\/2318969.html",
            "s_d" : "#一人一道拿手菜#有嚼劲的～香辣萝卜条-会做饭很酷!",
            "qr_image" : "",
            "name" : "#一人一道拿手菜#有嚼劲的～香辣萝卜条-会做饭很酷!"
          }
        ],
        "mini_program" : [

        ]
      },
      "cook_difficulty" : "切墩(初级)",
      "rsm" : "该功能暂停使用",
      "recipe_list_tags" : [
        {
          "text_color" : "#141515",
          "text" : "关注的人",
          "background_border_color" : "",
          "background_end_color" : "#F4F5F5",
          "jump_url" : "",
          "background_start_color" : "#F4F5F5",
          "right_image" : ""
        },
        {
          "background_end_color" : "#F4F5F5",
          "text" : "内容详细",
          "right_image" : "",
          "jump_url" : "",
          "background_start_color" : "#F4F5F5",
          "text_color" : "#141515",
          "background_border_color" : ""
        }
      ],
      "vu" : "",
      "cookwares" : [

      ],
      "display_ingredient" : 1,
      "ipoi" : "",
      "first_level_comment_count" : 8,
      "rcs" : [

      ],
      "hq" : 1,
      "act_des" : "",
      "hqu" : "recipes:\/\/www.douguo.com\/notedetail?id=21162253",
      "guide_image" : "",
      "ss" : [

      ],
      "story_dsp" : [

      ],
      "event" : {
        "id" : 0
      },
      "rrps" : [

      ],
      "cookstorys" : [
        {
          "type" : 0,
          "id" : 0,
          "u" : "",
          "icon" : "",
          "c" : "每隔一段时间必做的一道下饭小咸菜，爽口开胃是这个夏天不可多得小菜，做好了放保鲜盒存放冰箱可以吃几天。",
          "color" : ""
        }
      ],
      "photo_path" : "https:\/\/i1.douguo.com\/upload\/caiku\/3\/8\/4\/600_38248f955b459e2b8f3e829a314c1174.jpeg",
      "ipurl" : "",
      "recipe_tags" : [

      ],
      "rewarded_video_dsp" : [

      ],
      "rdsps" : [

      ],
      "ecs" : 0,
      "dish_count_text" : "",
      "views_count_text" : "40.2万",
      "collect_status" : 0,
      "levelid" : 2,
      "rpid" : 0,
      "favo_counts_text" : "6790",
      "dishes" : [

      ],
      "notes" : [

      ],
      "comments_count_text" : "9",
      "rpst" : "",
      "sr" : "",
      "author_verified" : 1,
      "rate" : 0,
      "ipci" : "",
      "title" : "有嚼劲的～香辣萝卜条",
      "cook_id" : "2318969",
      "image" : "http:\/\/i1.douguo.net\/upload\/caiku\/3\/8\/4\/300_38248f955b459e2b8f3e829a314c1174.jpeg",
      "old_comments" : [

      ],
      "tags" : [

      ],
      "rpt" : "",
      "cook_time" : "1小时以上"
    }
  },
  "state" : "success",
  "status" : 0
}