{
  "status" : 0,
  "result" : {
    "recipe" : {
      "cook_difficulty" : "切墩(初级)",
      "old_comments" : [

      ],
      "ipit" : 0,
      "cook_time" : "10-30分钟",
      "ipt" : "",
      "ph" : 450,
      "recent_comments" : [

      ],
      "recipe_list_tags" : [
        {
          "right_image" : "",
          "text" : "关注的人",
          "background_start_color" : "#F4F5F5",
          "background_border_color" : "",
          "text_color" : "#141515",
          "background_end_color" : "#F4F5F5",
          "jump_url" : ""
        }
      ],
      "purl" : "",
      "cookstep" : [
        {
          "image_height" : 450,
          "image_width" : 800,
          "thumb" : "https:\/\/i1.douguo.com\/upload\/caiku\/9\/c\/7\/140_9c7ee54c51bc8aa84e6fb5df59d26ab7.jpg",
          "content" : "先比着去年十月菜谱【自抱自泣虾姜粥】前五步把粥胚子收拾出来，嫌费事\/时的胖又可以大胆尝试下剩米饭",
          "image" : "https:\/\/i1.douguo.com\/upload\/caiku\/9\/c\/7\/9c7ee54c51bc8aa84e6fb5df59d26ab7.jpg",
          "position" : 1,
          "frame" : "-1"
        },
        {
          "image" : "https:\/\/i1.douguo.com\/upload\/caiku\/d\/2\/3\/d2e8eeb63cb7f5d8bf34905bca64f3a3.jpg",
          "frame" : "-1",
          "position" : 2,
          "content" : "根据自己饭量和个人喜好往锅里擦一堆萝卜丝",
          "image_width" : 800,
          "thumb" : "https:\/\/i1.douguo.com\/upload\/caiku\/d\/2\/3\/140_d2e8eeb63cb7f5d8bf34905bca64f3a3.jpg",
          "image_height" : 450
        },
        {
          "content" : "小火扒拉到萝卜变软变色起焦边，根据个人喜好加猪油或者别的什么油，扔努力切成细丝的姜和火腿肠",
          "image" : "https:\/\/i1.douguo.com\/upload\/caiku\/3\/e\/5\/3e45195fc10b72789680d5104dda1df5.jpg",
          "frame" : "-1",
          "thumb" : "https:\/\/i1.douguo.com\/upload\/caiku\/3\/e\/5\/140_3e45195fc10b72789680d5104dda1df5.jpg",
          "image_width" : 1920,
          "position" : 3,
          "image_height" : 1080
        },
        {
          "image_height" : 1080,
          "image" : "https:\/\/i1.douguo.com\/upload\/caiku\/3\/d\/3\/3d27e14ef10d9fd9c171ab8f33260e03.jpg",
          "content" : "整锅扒拉匀扒拉香了加水，根据自己想要粥的量和喜欢的状态加",
          "image_width" : 1920,
          "frame" : "-1",
          "thumb" : "https:\/\/i1.douguo.com\/upload\/caiku\/3\/d\/3\/140_3d27e14ef10d9fd9c171ab8f33260e03.jpg",
          "position" : 4
        },
        {
          "image_height" : 450,
          "frame" : "-1",
          "image" : "https:\/\/i1.douguo.com\/upload\/caiku\/9\/5\/9\/959d61133964dc811edf41ea48278789.jpg",
          "content" : "实在拿不准量就先少来点儿，扔坨粥胚或者剩饭进去搅和匀了再看情况找补，稀稠度调得差不多了根据个人口味加盐和胡椒粉",
          "position" : 5,
          "thumb" : "https:\/\/i1.douguo.com\/upload\/caiku\/9\/5\/9\/140_959d61133964dc811edf41ea48278789.jpg",
          "image_width" : 800
        },
        {
          "position" : 6,
          "frame" : "-1",
          "image_height" : 1080,
          "image_width" : 1920,
          "content" : "搅和匀了小火咕嘟个三五分钟，确认是自己喜欢的粥粥了扔上一把小白菜或者小葱",
          "thumb" : "https:\/\/i1.douguo.com\/upload\/caiku\/3\/1\/9\/140_31851ea343befad9316004d39fed91a9.jpg",
          "image" : "https:\/\/i1.douguo.com\/upload\/caiku\/3\/1\/9\/31851ea343befad9316004d39fed91a9.jpg"
        },
        {
          "image_width" : 800,
          "position" : 7,
          "image_height" : 450,
          "frame" : "-1",
          "image" : "https:\/\/i1.douguo.com\/upload\/caiku\/f\/7\/7\/f759174d6c7f6915f1d375c32bf739c7.jpg",
          "content" : "随便搅和两下，瞅着菜叶变色就可以关火往外盛啦",
          "thumb" : "https:\/\/i1.douguo.com\/upload\/caiku\/f\/7\/7\/140_f759174d6c7f6915f1d375c32bf739c7.jpg"
        },
        {
          "frame" : "-1",
          "image" : "https:\/\/i1.douguo.com\/upload\/caiku\/8\/0\/d\/8028e2f48b1e32f2b2663cb7240af33d.jpg",
          "image_height" : 450,
          "content" : "有些粥表面上看起来莫得热气，其实一搅底下吃起来还烫嘴(不要问我怎么知道的反正我就是知道了)",
          "image_width" : 799,
          "thumb" : "https:\/\/i1.douguo.com\/upload\/caiku\/8\/0\/d\/140_8028e2f48b1e32f2b2663cb7240af33d.jpg",
          "position" : 8
        },
        {
          "content" : "来，张嘴~",
          "image" : "https:\/\/i1.douguo.com\/upload\/caiku\/a\/9\/1\/a93332b394437a54b6dcde29253701d1.jpg",
          "image_height" : 873,
          "thumb" : "https:\/\/i1.douguo.com\/upload\/caiku\/a\/9\/1\/140_a93332b394437a54b6dcde29253701d1.jpg",
          "image_width" : 1552,
          "frame" : "-1",
          "position" : 9
        },
        {
          "content" : "走了哟，明天见~",
          "image_width" : 800,
          "frame" : "-1",
          "position" : 10,
          "image_height" : 450,
          "image" : "https:\/\/i1.douguo.com\/upload\/caiku\/b\/4\/e\/b4ed47c964b81827117070ab936fe18e.jpg",
          "thumb" : "https:\/\/i1.douguo.com\/upload\/caiku\/b\/4\/e\/140_b4ed47c964b81827117070ab936fe18e.jpg"
        }
      ],
      "vfurl" : "",
      "ipurl" : "",
      "author" : "sure汪",
      "rrpt" : "",
      "recommendation_tag" : "",
      "top_mdsp" : [

      ],
      "ssu" : "",
      "thumb_height" : 0,
      "cookwares" : [

      ],
      "collect_status" : 0,
      "cook_id" : "1719965",
      "v_u" : "",
      "hqu" : "recipes:\/\/www.douguo.com\/notedetail?id=21162253",
      "recommended" : 0,
      "dish_count" : 2,
      "ecs" : 1,
      "story_dsp" : [

      ],
      "tips" : "",
      "vc" : "244907",
      "advice" : {
        "da" : {
          "iu" : "https:\/\/i1.douguo.com\/upload\/banner\/f\/4\/d\/f48877e53c37759bc12ac494be82ec8d.png",
          "url" : "https:\/\/m.douguo.com\/recipe\/nutrient_self\/1719965",
          "t" : "查看详细分析"
        },
        "at" : "适合三高人群哦～",
        "has" : [
          {
            "t" : "0胆固醇",
            "url" : "recipes:\/\/www.douguo.com\/simplerecipelist?t=0胆固醇&id=0胆固醇"
          },
          {
            "url" : "recipes:\/\/www.douguo.com\/simplerecipelist?t=低盐&id=低盐",
            "t" : "低盐"
          }
        ]
      },
      "guide_image" : "",
      "minor" : [

      ],
      "ipoi" : "",
      "rpid" : 0,
      "image" : "http:\/\/i1.douguo.net\/upload\/caiku\/1\/4\/9\/300_147b9f3f588cb39c7f81c4e522b48fa9.jpg",
      "rate" : 5,
      "clicks" : "235946",
      "cookstory" : "【3-157】   这是一个吃粥烫出满眼泪 最惨不过小罗贝的故事……其实前后两句没啥因果关系\n                                          ----- 2018.11.26",
      "rips" : 0,
      "dish_count_text" : "2",
      "share_info" : {
        "mini_program" : [

        ],
        "name" : "小白菜姜萝胡粥-会做饭很酷!",
        "object_id" : "1719965",
        "qr_image" : "",
        "s_u" : "http:\/\/m.douguo.com\/cookbook\/1719965.html",
        "image" : "https:\/\/cp1.douguo.com\/upload\/caiku\/1\/4\/9\/147b9f3f588cb39c7f81c4e522b48fa9.jpg",
        "s_d" : "小白菜姜萝胡粥-会做饭很酷!",
        "infos" : [
          {
            "qr_image" : "",
            "s_d" : "#学做饭用豆果美食#  我在@豆果美食 分享了【小白菜姜萝胡粥-会做饭很酷!】，制作美食的过程承载了我生活中的热情，和我一起感受这份小确幸吧！查看图片了解菜谱（你喜欢的美食都在这里！https:\/\/m.weibo.cn\/p\/100404i33631）#会做饭很酷# ",
            "image" : "https:\/\/cp1.douguo.com\/upload\/caiku\/1\/4\/9\/147b9f3f588cb39c7f81c4e522b48fa9.jpg",
            "object_id" : "1719965",
            "name" : "小白菜姜萝胡粥-会做饭很酷!",
            "s_u" : "",
            "mini_program" : [

            ],
            "channel" : "1"
          },
          {
            "channel" : "7",
            "mini_program" : [

            ],
            "object_id" : "1719965",
            "name" : "小白菜姜萝胡粥-会做饭很酷!",
            "s_d" : "小白菜姜萝胡粥-会做饭很酷!",
            "qr_image" : "",
            "s_u" : "http:\/\/m.douguo.com\/cookbook\/1719965.html",
            "image" : "https:\/\/cp1.douguo.com\/upload\/caiku\/1\/4\/9\/147b9f3f588cb39c7f81c4e522b48fa9.jpg"
          },
          {
            "channel" : "8",
            "s_u" : "http:\/\/m.douguo.com\/cookbook\/1719965.html",
            "qr_image" : "",
            "s_d" : "小白菜姜萝胡粥-会做饭很酷!",
            "image" : "https:\/\/cp1.douguo.com\/upload\/caiku\/1\/4\/9\/147b9f3f588cb39c7f81c4e522b48fa9.jpg",
            "mini_program" : [

            ],
            "object_id" : "1719965",
            "name" : "小白菜姜萝胡粥-会做饭很酷!"
          }
        ]
      },
      "related_ads" : [

      ],
      "major" : [
        {
          "note" : "一堆",
          "title" : "萝卜"
        },
        {
          "title" : "火腿肠",
          "tu" : "https:\/\/m.douguo.com\/ingredients\/火腿肠\/detailmaterial",
          "note" : "半根"
        },
        {
          "note" : "适量",
          "tu" : "https:\/\/m.douguo.com\/ingredients\/姜\/detailmaterial",
          "title" : "姜"
        },
        {
          "note" : "少许",
          "title" : "胡椒粉",
          "tu" : "https:\/\/m.douguo.com\/ingredients\/胡椒粉\/detailmaterial"
        },
        {
          "note" : "少许",
          "title" : "盐",
          "tu" : "https:\/\/m.douguo.com\/ingredients\/盐\/detailmaterial"
        },
        {
          "note" : "可换",
          "tu" : "https:\/\/m.douguo.com\/ingredients\/小白菜\/detailmaterial",
          "title" : "小白菜"
        },
        {
          "tu" : "https:\/\/m.douguo.com\/ingredients\/猪油\/detailmaterial",
          "title" : "猪油",
          "note" : "适量"
        },
        {
          "title" : "粥胚 :",
          "note" : ""
        },
        {
          "tu" : "https:\/\/m.douguo.com\/ingredients\/大米\/detailmaterial",
          "note" : "四份",
          "title" : "大米"
        },
        {
          "note" : "一份",
          "tu" : "https:\/\/m.douguo.com\/ingredients\/糯米\/detailmaterial",
          "title" : "糯米"
        },
        {
          "title" : "油",
          "note" : "一份",
          "tu" : "https:\/\/m.douguo.com\/ingredients\/油\/detailmaterial"
        }
      ],
      "sc" : 0,
      "packages_id" : [

      ],
      "recipe_tags" : [

      ],
      "cookstorys" : [
        {
          "color" : "",
          "id" : 0,
          "icon" : "",
          "c" : "【3-157】   这是一个吃粥烫出满眼泪 最惨不过小罗贝的故事……其实前后两句没啥因果关系\n                                          ----- 2018.11.26",
          "type" : 0,
          "u" : ""
        }
      ],
      "ipia" : [

      ],
      "thumb_path" : "https:\/\/i1.douguo.com\/upload\/caiku\/1\/4\/9\/300_147b9f3f588cb39c7f81c4e522b48fa9.jpg",
      "rpst" : "",
      "eu" : "recipes:\/\/www.douguo.com\/postdetail?id=242016",
      "pw" : 800,
      "views_count_text" : "24.5万",
      "recommend_label" : "2人学做",
      "bs" : [

      ],
      "title_ad" : [

      ],
      "brand_day_dsp" : [

      ],
      "notes" : [

      ],
      "favo_counts_text" : "3048",
      "levelid" : 2,
      "cook_time_image" : "https:\/\/i1.douguo.com\/upload\/banner\/1551424341.png",
      "comments_count_text" : "11",
      "author_id" : 17794329,
      "tags" : [

      ],
      "photo_path" : "https:\/\/i1.douguo.com\/upload\/caiku\/1\/4\/9\/600_147b9f3f588cb39c7f81c4e522b48fa9.jpg",
      "ipci" : "",
      "ss" : [

      ],
      "rewarded_video_dsp" : [

      ],
      "release_time" : "",
      "rpt" : "",
      "sr" : "",
      "rcs" : [

      ],
      "favo_counts" : 3048,
      "vu" : "",
      "mid_mdsp" : [

      ],
      "display_ingredient" : 1,
      "rate_count" : 1,
      "author_verified" : 1,
      "first_level_comment_count" : 5,
      "su" : "",
      "rate_show" : 0,
      "cook_difficulty_image" : "https:\/\/i1.douguo.com\/upload\/banner\/1551424390.png",
      "btm_dsp" : [

      ],
      "rsm" : "该功能暂停使用",
      "rdsps" : [

      ],
      "act_des" : "",
      "comments_count" : 11,
      "create_time" : "2018-11-26 20:59:23",
      "user" : {
        "qzone_nick" : "",
        "lvl" : 8,
        "birthday" : "",
        "user_cover" : "",
        "sign" : "",
        "diaries_count" : 0,
        "favor_diaries_count" : 0,
        "user_id" : "17794329",
        "subscription" : 0,
        "user_large_photo" : "http:\/\/tx1.douguo.net\/upload\/photo\/6\/2\/8\/yuan_u66631823200625014715.jpg",
        "fc" : 0,
        "userid" : "17794329",
        "dishes_count" : 0,
        "following_count" : 0,
        "age" : "",
        "qq_weibo_nick" : "",
        "introduction" : "",
        "coursecount" : 0,
        "avatar_medium" : "http:\/\/tx1.douguo.net\/upload\/photo\/6\/2\/8\/140_u66631823200625014715.jpg",
        "point" : 0,
        "weibo_nick" : "",
        "verified_url" : "https:\/\/m.douguo.com\/user\/prodesc",
        "user_photo" : "http:\/\/tx1.douguo.net\/upload\/photo\/6\/2\/8\/70_u66631823200625014715.jpg",
        "regist_time" : "",
        "verified" : 1,
        "followers_count" : 0,
        "location" : 0,
        "pc" : 0,
        "lv" : 0,
        "is_prime" : 0,
        "mobile" : "",
        "gender" : 2,
        "verified_image" : "https:\/\/i1.douguo.com\/upload\/note\/d\/a\/a\/da84247847aebe48d9dd0fcdac88862a.png",
        "subscription_article_count" : 0,
        "setted_email" : 0,
        "email" : "",
        "recipes_count" : 0,
        "nick" : "sure汪",
        "progress_image" : "",
        "favorites_count" : 0
      },
      "comments" : [
        "{\n    ac = \"#999999\";\n    at = \"\";\n    ccc = 2;\n    \"child_comments\" =     (\n                {\n            ac = \"#999999\";\n            at = \"\\U5f20\\U5bb6\\U53e3\\U5e02\";\n            ccc = 0;\n            city = \"\\U5f20\\U5bb6\\U53e3\\U5e02\";\n            cmc = 2;\n            content =             (\n                                {\n                    c = \" \\U5443\\U2026\\U2026\";\n                }\n            );\n            ia = 0;\n            id = 6235681;\n            \"ip_address_location\" = \"\";\n            like = 0;\n            \"like_count\" = 0;\n            \"reply_id\" = 6233304;\n            \"reply_user\" =             {\n                \"followers_count_text\" = \"\";\n                id = 17794329;\n                \"is_prime\" = 0;\n                lv = 0;\n                lvl = 8;\n                n = \"sure\\U6c6a\";\n                p = \"http:\/\/tx1.douguo.net\/upload\/photo\/6\/2\/8\/70_u66631823200625014715.jpg\";\n                \"progress_image\" = \"\";\n                \"recipes_count_text\" = \"\";\n                relationship = \"-1\";\n                title = \"\";\n                v = 1;\n                \"verified_image\" = \"\";\n            };\n            \"sticker_icon\" =             (\n            );\n            time = \"2018-11-27 23:51:41\";\n            u =             {\n                \"followers_count_text\" = \"\";\n                id = 16542340;\n                \"is_prime\" = 0;\n                lv = 0;\n                lvl = 5;\n                n = \"\\U54b8\\U9c7c\\U4e0d\\U7ffb\\U8eab\";\n                p = \"http:\/\/tx1.douguo.net\/upload\/photo\/7\/5\/5\/70_u55185543427144134623.jpg\";\n                \"progress_image\" = \"\";\n                \"recipes_count_text\" = \"\";\n                relationship = \"-1\";\n                title = \"\";\n                v = 0;\n                \"verified_image\" = \"\";\n            };\n        },\n                {\n            ac = \"#999999\";\n            at = \"\";\n            ccc = 0;\n            city = \"\";\n            cmc = 2;\n            content =             (\n                                {\n                    c = \" \\U54b8\\U9c7c\\U541b\\U665a\\U5b89\\U5566\";\n                }\n            );\n            ia = 1;\n            id = 6237416;\n            \"ip_address_location\" = \"\";\n            like = 0;\n            \"like_count\" = 0;\n            \"reply_id\" = 6235681;\n            \"reply_user\" =             {\n                \"followers_count_text\" = \"\";\n                id = 16542340;\n                \"is_prime\" = 0;\n                lv = 0;\n                lvl = 5;\n                n = \"\\U54b8\\U9c7c\\U4e0d\\U7ffb\\U8eab\";\n                p = \"http:\/\/tx1.douguo.net\/upload\/photo\/7\/5\/5\/70_u55185543427144134623.jpg\";\n                \"progress_image\" = \"\";\n                \"recipes_count_text\" = \"\";\n                relationship = \"-1\";\n                title = \"\";\n                v = 0;\n                \"verified_image\" = \"\";\n            };\n            \"sticker_icon\" =             (\n            );\n            time = \"2018-11-28 21:53:27\";\n            u =             {\n                \"followers_count_text\" = \"\";\n                id = 17794329;\n                \"is_prime\" = 0;\n                lv = 0;\n                lvl = 8;\n                n = \"sure\\U6c6a\";\n                p = \"http:\/\/tx1.douguo.net\/upload\/photo\/6\/2\/8\/70_u66631823200625014715.jpg\";\n                \"progress_image\" = \"\";\n                \"recipes_count_text\" = \"\";\n                relationship = \"-1\";\n                title = \"\";\n                v = 1;\n                \"verified_image\" = \"\";\n            };\n        }\n    );\n    city = \"\";\n    cmc = 2;\n    content =     (\n                {\n            c = \"\\U6c99\\U53d1\\Uff01\";\n        }\n    );\n    ia = 1;\n    id = 6233304;\n    \"ip_address_location\" = \"\";\n    like = 0;\n    \"like_count\" = 0;\n    \"reply_id\" = 0;\n    \"sticker_icon\" =     (\n    );\n    time = \"2018-11-26 21:54:09\";\n    u =     {\n        \"followers_count_text\" = \"\";\n        id = 17794329;\n        \"is_prime\" = 0;\n        lv = 0;\n        lvl = 8;\n        n = \"sure\\U6c6a\";\n        p = \"http:\/\/tx1.douguo.net\/upload\/photo\/6\/2\/8\/70_u66631823200625014715.jpg\";\n        \"progress_image\" = \"\";\n        \"recipes_count_text\" = \"\";\n        relationship = \"-1\";\n        title = \"\";\n        v = 1;\n        \"verified_image\" = \"\";\n    };\n}",
        "{\n    ac = \"#999999\";\n    at = \"\";\n    ccc = 1;\n    \"child_comments\" =     (\n                {\n            ac = \"#999999\";\n            at = \"\";\n            ccc = 0;\n            city = \"\";\n            cmc = 2;\n            content =             (\n                                {\n                    c = \" \\U60a8\\U53d7\\U7d2f\\Uff0c\\U8fdb\\U6211\\U4e2a\\U4eba\\U4e2d\\U5fc3\\U641c\\U4e00\\U4e0b\\\"\\U81ea\\U62b1\\U81ea\\U6ce3\\U867e\\U59dc\\U7ca5\\\"\";\n                }\n            );\n            ia = 1;\n            id = 6237343;\n            \"ip_address_location\" = \"\";\n            like = 0;\n            \"like_count\" = 0;\n            \"reply_id\" = 6236119;\n            \"reply_user\" =             {\n                \"followers_count_text\" = \"\";\n                id = 18509719;\n                \"is_prime\" = 0;\n                lv = 0;\n                lvl = 4;\n                n = \"\\U8bf7\\U8a06\\U6211\\U5c0f\\U53a8\\U54e5\";\n                p = \"http:\/\/tx1.douguo.net\/upload\/photo\/4\/f\/8\/70_u23821679473007180351.jpg\";\n                \"progress_image\" = \"\";\n                \"recipes_count_text\" = \"\";\n                relationship = \"-1\";\n                title = \"\";\n                v = 0;\n                \"verified_image\" = \"\";\n            };\n            \"sticker_icon\" =             (\n            );\n            time = \"2018-11-28 21:14:00\";\n            u =             {\n                \"followers_count_text\" = \"\";\n                id = 17794329;\n                \"is_prime\" = 0;\n                lv = 0;\n                lvl = 8;\n                n = \"sure\\U6c6a\";\n                p = \"http:\/\/tx1.douguo.net\/upload\/photo\/6\/2\/8\/70_u66631823200625014715.jpg\";\n                \"progress_image\" = \"\";\n                \"recipes_count_text\" = \"\";\n                relationship = \"-1\";\n                title = \"\";\n                v = 1;\n                \"verified_image\" = \"\";\n            };\n        }\n    );\n    city = \"\";\n    cmc = 2;\n    content =     (\n                {\n            c = \"\\U6211\\U5bb6\\U662f\\U7528\\U996d\\U7897\\U88c5\\U7c73\\U7684\\U3001\\U4e94\\U4e2a\\U4eba\\U8981\\U591a\\U5c11\\U5462\\U3001\\U90a3\\U4e2a\\U6c34\\U53c8\\U662f\\U591a\\U5c11\\U554a\";\n        }\n    );\n    ia = 0;\n    id = 6236119;\n    \"ip_address_location\" = \"\";\n    like = 0;\n    \"like_count\" = 0;\n    \"reply_id\" = 0;\n    \"sticker_icon\" =     (\n    );\n    time = \"2018-11-28 09:08:16\";\n    u =     {\n        \"followers_count_text\" = \"\";\n        id = 18509719;\n        \"is_prime\" = 0;\n        lv = 0;\n        lvl = 4;\n        n = \"\\U8bf7\\U8a06\\U6211\\U5c0f\\U53a8\\U54e5\";\n        p = \"http:\/\/tx1.douguo.net\/upload\/photo\/4\/f\/8\/70_u23821679473007180351.jpg\";\n        \"progress_image\" = \"\";\n        \"recipes_count_text\" = \"\";\n        relationship = \"-1\";\n        title = \"\";\n        v = 0;\n        \"verified_image\" = \"\";\n    };\n}",
        "{\n    ac = \"#999999\";\n    at = \"\\U6d4e\\U5357\\U5e02\";\n    ccc = 1;\n    \"child_comments\" =     (\n                {\n            ac = \"#999999\";\n            at = \"\";\n            ccc = 0;\n            city = \"\";\n            cmc = 2;\n            content =             (\n                                {\n                    c = \" \\U5c31\\U7b97\\U90fd\\U5230\\U4e86\\U5341\\U4e00\\U6708\\U5e95\";\n                }\n            );\n            ia = 1;\n            id = 6237329;\n            \"ip_address_location\" = \"\";\n            like = 0;\n            \"like_count\" = 0;\n            \"reply_id\" = 6234071;\n            \"reply_user\" =             {\n                \"followers_count_text\" = \"\";\n                id = 15703874;\n                \"is_prime\" = 0;\n                lv = 0;\n                lvl = 5;\n                n = \"\\U6d41\\U62c9\\U62c9\";\n                p = \"http:\/\/tx1.douguo.net\/upload\/photo\/0\/4\/6\/70_u49135727967077192524.jpeg\";\n                \"progress_image\" = \"\";\n                \"recipes_count_text\" = \"\";\n                relationship = \"-1\";\n                title = \"\";\n                v = 0;\n                \"verified_image\" = \"\";\n            };\n            \"sticker_icon\" =             (\n            );\n            time = \"2018-11-28 21:09:16\";\n            u =             {\n                \"followers_count_text\" = \"\";\n                id = 17794329;\n                \"is_prime\" = 0;\n                lv = 0;\n                lvl = 8;\n                n = \"sure\\U6c6a\";\n                p = \"http:\/\/tx1.douguo.net\/upload\/photo\/6\/2\/8\/70_u66631823200625014715.jpg\";\n                \"progress_image\" = \"\";\n                \"recipes_count_text\" = \"\";\n                relationship = \"-1\";\n                title = \"\";\n                v = 1;\n                \"verified_image\" = \"\";\n            };\n        }\n    );\n    city = \"\\U6d4e\\U5357\\U5e02\";\n    cmc = 2;\n    content =     (\n                {\n            c = \"\\U5fc3\\U6025\\U662f\\U559d\\U4e0d\\U4e86\\U70ed\\U7ca5\\U7684\";\n        }\n    );\n    ia = 0;\n    id = 6234071;\n    \"ip_address_location\" = \"\";\n    like = 0;\n    \"like_count\" = 0;\n    \"reply_id\" = 0;\n    \"sticker_icon\" =     (\n    );\n    time = \"2018-11-27 09:05:22\";\n    u =     {\n        \"followers_count_text\" = \"\";\n        id = 15703874;\n        \"is_prime\" = 0;\n        lv = 0;\n        lvl = 5;\n        n = \"\\U6d41\\U62c9\\U62c9\";\n        p = \"http:\/\/tx1.douguo.net\/upload\/photo\/0\/4\/6\/70_u49135727967077192524.jpeg\";\n        \"progress_image\" = \"\";\n        \"recipes_count_text\" = \"\";\n        relationship = \"-1\";\n        title = \"\";\n        v = 0;\n        \"verified_image\" = \"\";\n    };\n}"
      ],
      "dishes" : [

      ],
      "title" : "小白菜姜萝胡粥",
      "hq" : 1,
      "author_photo" : "http:\/\/tx1.douguo.net\/upload\/photo\/6\/2\/8\/70_u66631823200625014715.jpg",
      "original_photo_path" : "http:\/\/i1.douguo.net\/upload\/caiku\/1\/4\/9\/yuan_147b9f3f588cb39c7f81c4e522b48fa9.jpg",
      "rrps" : [

      ]
    }
  },
  "state" : "success"
}