{
  "result" : {
    "recipe" : {
      "rrpt" : "",
      "cookstep" : [
        {
          "position" : 1,
          "image" : "https:\/\/i1.douguo.com\/upload\/caiku\/f\/3\/e\/f3bb69f16c772b0e81598770e9633b6e.jpeg",
          "frame" : "-1",
          "content" : "冷水下锅，加入姜片和料酒，把五花肉煮至变色",
          "image_height" : 2874,
          "image_width" : 3840,
          "thumb" : "https:\/\/i1.douguo.com\/upload\/caiku\/f\/3\/e\/140_f3bb69f16c772b0e81598770e9633b6e.jpeg"
        },
        {
          "content" : "煮好的五花肉切块。不要切断",
          "image" : "https:\/\/i1.douguo.com\/upload\/caiku\/3\/4\/8\/34f7ed627e5ea5cae57783b3f5e95db8.jpeg",
          "frame" : "-1",
          "image_height" : 2874,
          "image_width" : 3840,
          "thumb" : "https:\/\/i1.douguo.com\/upload\/caiku\/3\/4\/8\/140_34f7ed627e5ea5cae57783b3f5e95db8.jpeg",
          "position" : 2
        },
        {
          "image" : "https:\/\/i1.douguo.com\/upload\/caiku\/a\/2\/9\/a29a4afc0f7d4931894d18a07f4f3359.jpeg",
          "frame" : "-1",
          "content" : "加入所有调料腌制一小时",
          "image_width" : 3840,
          "thumb" : "https:\/\/i1.douguo.com\/upload\/caiku\/a\/2\/9\/140_a29a4afc0f7d4931894d18a07f4f3359.jpeg",
          "image_height" : 2874,
          "position" : 3
        },
        {
          "image_width" : 3840,
          "position" : 4,
          "thumb" : "https:\/\/i1.douguo.com\/upload\/caiku\/5\/b\/f\/140_5b97332fd8b5f8cebd038ea25e3eea2f.jpeg",
          "image" : "https:\/\/i1.douguo.com\/upload\/caiku\/5\/b\/f\/5b97332fd8b5f8cebd038ea25e3eea2f.jpeg",
          "content" : "腌制好的五花肉底部用锡纸包裹好",
          "frame" : "-1",
          "image_height" : 2874
        },
        {
          "frame" : "-1",
          "image_height" : 2874,
          "image" : "https:\/\/i1.douguo.com\/upload\/caiku\/3\/5\/9\/35495aba8336ed7cb22583e1759a0599.jpeg",
          "image_width" : 3840,
          "content" : "在五花肉表皮上涂一层白醋",
          "position" : 5,
          "thumb" : "https:\/\/i1.douguo.com\/upload\/caiku\/3\/5\/9\/140_35495aba8336ed7cb22583e1759a0599.jpeg"
        },
        {
          "image" : "https:\/\/i1.douguo.com\/upload\/caiku\/7\/4\/d\/749fb5258e7558ed93e970478907e3cd.jpeg",
          "frame" : "-1",
          "image_height" : 2874,
          "position" : 6,
          "image_width" : 3840,
          "thumb" : "https:\/\/i1.douguo.com\/upload\/caiku\/7\/4\/d\/140_749fb5258e7558ed93e970478907e3cd.jpeg",
          "content" : "铺一层盐，烤箱或空气炸锅200度预热，烤20分钟"
        },
        {
          "content" : "取出来后把盐敲碎，去掉锡纸",
          "thumb" : "https:\/\/i1.douguo.com\/upload\/caiku\/d\/7\/7\/140_d7470c40902318392bfda568136acd37.jpeg",
          "image_height" : 2874,
          "position" : 7,
          "image" : "https:\/\/i1.douguo.com\/upload\/caiku\/d\/7\/7\/d7470c40902318392bfda568136acd37.jpeg",
          "frame" : "-1",
          "image_width" : 3840
        },
        {
          "position" : 8,
          "thumb" : "https:\/\/i1.douguo.com\/upload\/caiku\/a\/e\/e\/140_aedbe9b80bc1145213c1952011bdffce.jpeg",
          "content" : "重回烤箱烤10分钟",
          "image" : "https:\/\/i1.douguo.com\/upload\/caiku\/a\/e\/e\/aedbe9b80bc1145213c1952011bdffce.jpeg",
          "image_height" : 2880,
          "image_width" : 3840,
          "frame" : "-1"
        },
        {
          "content" : "如果觉得不够焦，上层可以改为230度把皮再烤5分钟",
          "image_height" : 3840,
          "position" : 9,
          "thumb" : "https:\/\/i1.douguo.com\/upload\/caiku\/3\/a\/b\/140_3a0b183006b7066f5646124c6921c6db.jpeg",
          "image" : "https:\/\/i1.douguo.com\/upload\/caiku\/3\/a\/b\/3a0b183006b7066f5646124c6921c6db.jpeg",
          "frame" : "-1",
          "image_width" : 3840
        },
        {
          "image_height" : 2880,
          "image_width" : 3840,
          "position" : 10,
          "image" : "https:\/\/i1.douguo.com\/upload\/caiku\/e\/f\/0\/efdfdb7de5af4e46a5561b73d86fbde0.jpeg",
          "frame" : "-1",
          "thumb" : "https:\/\/i1.douguo.com\/upload\/caiku\/e\/f\/0\/140_efdfdb7de5af4e46a5561b73d86fbde0.jpeg",
          "content" : "开动"
        },
        {
          "image_width" : 3840,
          "position" : 11,
          "image_height" : 2880,
          "image" : "https:\/\/i1.douguo.com\/upload\/caiku\/c\/a\/c\/ca3b7092bda209cec8a022f8db6bb50c.jpeg",
          "frame" : "-1",
          "content" : "每个烤箱或者空气炸锅温度有所不同，可以自行调节一下",
          "thumb" : "https:\/\/i1.douguo.com\/upload\/caiku\/c\/a\/c\/140_ca3b7092bda209cec8a022f8db6bb50c.jpeg"
        }
      ],
      "recommended" : 0,
      "recipe_list_tags" : [
        {
          "text" : "关注的人",
          "background_start_color" : "#F4F5F5",
          "right_image" : "",
          "jump_url" : "",
          "text_color" : "#141515",
          "background_end_color" : "#F4F5F5",
          "background_border_color" : ""
        }
      ],
      "brand_day_dsp" : [

      ],
      "ipt" : "",
      "top_mdsp" : [

      ],
      "share_info" : {
        "s_u" : "http:\/\/m.douguo.com\/cookbook\/3149838.html",
        "s_d" : "#我心中的冬日限定#网红脆皮五花肉-会做饭很酷!",
        "name" : "#我心中的冬日限定#网红脆皮五花肉-会做饭很酷!",
        "mini_program" : [

        ],
        "image" : "https:\/\/cp1.douguo.com\/upload\/caiku\/c\/4\/7\/c4b6c82aa22e35745100fec64a684c57.jpeg",
        "infos" : [
          {
            "s_d" : "#学做饭用豆果美食# 我在@豆果美食 分享了【#我心中的冬日限定#网红脆皮五花肉-会做饭很酷!】，哟，集美们～你看这是神仙美味～快跟着我做一份，做一份！查看图片了解菜谱（更多美食秘籍点击https:\/\/m.weibo.cn\/p\/100404i33631获取）#会做饭很酷# ",
            "mini_program" : [

            ],
            "image" : "https:\/\/cp1.douguo.com\/upload\/caiku\/c\/4\/7\/c4b6c82aa22e35745100fec64a684c57.jpeg",
            "s_u" : "",
            "object_id" : "3149838",
            "channel" : "1",
            "qr_image" : "",
            "name" : "#我心中的冬日限定#网红脆皮五花肉-会做饭很酷!"
          },
          {
            "object_id" : "3149838",
            "qr_image" : "",
            "mini_program" : [

            ],
            "s_d" : "#我心中的冬日限定#网红脆皮五花肉-会做饭很酷!",
            "channel" : "7",
            "s_u" : "http:\/\/m.douguo.com\/cookbook\/3149838.html",
            "name" : "#我心中的冬日限定#网红脆皮五花肉-会做饭很酷!",
            "image" : "https:\/\/cp1.douguo.com\/upload\/caiku\/c\/4\/7\/c4b6c82aa22e35745100fec64a684c57.jpeg"
          },
          {
            "image" : "https:\/\/cp1.douguo.com\/upload\/caiku\/c\/4\/7\/c4b6c82aa22e35745100fec64a684c57.jpeg",
            "mini_program" : [

            ],
            "qr_image" : "",
            "name" : "#我心中的冬日限定#网红脆皮五花肉-会做饭很酷!",
            "s_d" : "#我心中的冬日限定#网红脆皮五花肉-会做饭很酷!",
            "object_id" : "3149838",
            "channel" : "8",
            "s_u" : "http:\/\/m.douguo.com\/cookbook\/3149838.html"
          }
        ],
        "qr_image" : "",
        "object_id" : "3149838"
      },
      "story_dsp" : [

      ],
      "advice" : {
        "has" : [
          {
            "t" : "高热量",
            "url" : "recipes:\/\/www.douguo.com\/simplerecipelist?t=高热量&id=高热量"
          },
          {
            "url" : "recipes:\/\/www.douguo.com\/simplerecipelist?t=高脂肪&id=高脂肪",
            "t" : "高脂肪"
          }
        ],
        "at" : "适量即可～",
        "da" : {
          "url" : "https:\/\/m.douguo.com\/recipe\/nutrient_self\/3149838",
          "t" : "查看详细分析",
          "iu" : "https:\/\/i1.douguo.com\/upload\/banner\/f\/4\/d\/f48877e53c37759bc12ac494be82ec8d.png"
        }
      },
      "display_ingredient" : 1,
      "favo_counts" : 8760,
      "rrps" : [

      ],
      "old_comments" : [

      ],
      "ipci" : "",
      "pw" : 1920,
      "recommend_label" : "23人学做",
      "ipia" : [

      ],
      "major" : [
        {
          "note" : "500克",
          "title" : "五花肉",
          "tu" : "https:\/\/m.douguo.com\/ingredients\/五花肉\/detailmaterial"
        },
        {
          "title" : "姜片",
          "note" : "3片",
          "tu" : "https:\/\/m.douguo.com\/ingredients\/姜片\/detailmaterial"
        },
        {
          "tu" : "https:\/\/m.douguo.com\/ingredients\/料酒\/detailmaterial",
          "title" : "料酒",
          "note" : "1勺"
        },
        {
          "title" : "五香粉",
          "note" : "",
          "tu" : "https:\/\/m.douguo.com\/ingredients\/五香粉\/detailmaterial"
        },
        {
          "title" : "孜然粉",
          "note" : ""
        },
        {
          "tu" : "https:\/\/m.douguo.com\/ingredients\/辣椒粉\/detailmaterial",
          "note" : "",
          "title" : "辣椒粉"
        },
        {
          "tu" : "https:\/\/m.douguo.com\/ingredients\/白糖\/detailmaterial",
          "title" : "白糖",
          "note" : ""
        },
        {
          "tu" : "https:\/\/m.douguo.com\/ingredients\/生抽\/detailmaterial",
          "title" : "生抽",
          "note" : ""
        },
        {
          "note" : "",
          "tu" : "https:\/\/m.douguo.com\/ingredients\/老抽\/detailmaterial",
          "title" : "老抽"
        },
        {
          "title" : "粗盐",
          "note" : "1层"
        },
        {
          "tu" : "https:\/\/m.douguo.com\/ingredients\/白醋\/detailmaterial",
          "note" : "适量",
          "title" : "白醋"
        }
      ],
      "vu" : "",
      "cookwares" : [

      ],
      "btm_dsp" : [

      ],
      "ecs" : 1,
      "packages_id" : [

      ],
      "event" : {
        "name" : "作品有奖征集|我心中的的冬日限定",
        "id" : 3305,
        "url" : "https:\/\/m.douguo.com\/activity\/ncpzj\/detail\/3305?isapp=1&open=0&_vs=1000300&&dg_refreshkey=publishnote"
      },
      "rpst" : "",
      "purl" : "",
      "sr" : "",
      "cook_difficulty_image" : "",
      "views_count_text" : "88.1万",
      "ss" : [

      ],
      "rate_show" : 1,
      "thumb_path" : "https:\/\/i1.douguo.com\/upload\/caiku\/c\/4\/7\/300_c4b6c82aa22e35745100fec64a684c57.jpeg",
      "ipurl" : "",
      "clicks" : "1",
      "rpt" : "",
      "rdsps" : [

      ],
      "photo_path" : "https:\/\/i1.douguo.com\/upload\/caiku\/c\/4\/7\/600_c4b6c82aa22e35745100fec64a684c57.jpeg",
      "title_ad" : [

      ],
      "rcs" : [

      ],
      "rewarded_video_dsp" : [

      ],
      "image" : "http:\/\/i1.douguo.net\/upload\/caiku\/c\/4\/7\/300_c4b6c82aa22e35745100fec64a684c57.jpeg",
      "comments" : [
        "{\n    ac = \"#999999\";\n    at = \"\\U5409\\U6797\\U5e02\";\n    ccc = 2;\n    \"child_comments\" =     (\n                {\n            ac = \"#999999\";\n            at = \"\\U6e5b\\U6c5f\\U5e02\";\n            ccc = 0;\n            city = \"\\U6e5b\\U6c5f\\U5e02\";\n            cmc = 2;\n            content =             (\n                                {\n                    c = \" \\U91cf\\U6211\\U90fd\\U662f\\U968f\\U4fbf\\U653e\\U7684\\Uff0c\\U5c31\\U597d\\U50cf\\U4f60\\U7092\\U83dc\\U653e\\U76d0\\U4e00\\U6837\\Uff0c\\U81ea\\U5df1\\U4f30\\U91cf\\Uff0c\\U54c8\\U54c8\\U54c8\";\n                }\n            );\n            ia = 1;\n            id = 8908891;\n            \"ip_address_location\" = \"\";\n            like = 0;\n            \"like_count\" = 0;\n            \"reply_id\" = 8908744;\n            \"reply_user\" =             {\n                \"followers_count_text\" = \"\";\n                id = 24763919;\n                \"is_prime\" = 0;\n                lv = 0;\n                lvl = 1;\n                n = \"\\U542b\\U7cca\\U7684\\U830e\\U53f6\\U7c7b\";\n                p = \"http:\/\/tx1.douguo.net\/upload\/photo\/1\/1\/1\/70_8bb9e303921017ed2e50b5f8589a76d8.png\";\n                \"progress_image\" = \"\";\n                \"recipes_count_text\" = \"\";\n                relationship = \"-1\";\n                title = \"\";\n                v = 0;\n                \"verified_image\" = \"\";\n            };\n            \"sticker_icon\" =             (\n            );\n            time = \"2022-01-19 20:16:52\";\n            u =             {\n                \"followers_count_text\" = \"\";\n                id = 21746837;\n                \"is_prime\" = 1;\n                lv = 0;\n                lvl = 6;\n                n = Taloves;\n                p = \"http:\/\/tx1.douguo.net\/upload\/photo\/c\/f\/6\/70_cf64712520bd531f14e8fea1357d8d16.jpeg\";\n                \"progress_image\" = \"\";\n                \"recipes_count_text\" = \"\";\n                relationship = \"-1\";\n                title = \"\";\n                v = 1;\n                \"verified_image\" = \"\";\n            };\n        },\n                {\n            ac = \"#999999\";\n            at = \"\";\n            ccc = 0;\n            city = \"\";\n            cmc = 2;\n            content =             (\n                                {\n                    c = \" \\U771f\\U5b9e\\U5728\";\n                }\n            );\n            ia = 0;\n            id = 8911908;\n            \"ip_address_location\" = \"\";\n            like = 0;\n            \"like_count\" = 0;\n            \"reply_id\" = 8908891;\n            \"reply_user\" =             {\n                \"followers_count_text\" = \"\";\n                id = 21746837;\n                \"is_prime\" = 1;\n                lv = 0;\n                lvl = 6;\n                n = Taloves;\n                p = \"http:\/\/tx1.douguo.net\/upload\/photo\/c\/f\/6\/70_cf64712520bd531f14e8fea1357d8d16.jpeg\";\n                \"progress_image\" = \"\";\n                \"recipes_count_text\" = \"\";\n                relationship = \"-1\";\n                title = \"\";\n                v = 1;\n                \"verified_image\" = \"\";\n            };\n            \"sticker_icon\" =             (\n            );\n            time = \"2022-01-29 18:22:19\";\n            u =             {\n                \"followers_count_text\" = \"\";\n                id = 26798391;\n                \"is_prime\" = 0;\n                lv = 0;\n                lvl = 2;\n                n = \"\\U7f3a\\U9499\\U7684\\U5c0f\\U53a8\\U5b9d\\Uff5e\";\n                p = \"http:\/\/tx1.douguo.net\/upload\/photo\/5\/f\/5\/70_u26341725173582153054.jpeg\";\n                \"progress_image\" = \"\";\n                \"recipes_count_text\" = \"\";\n                relationship = \"-1\";\n                title = \"\";\n                v = 0;\n                \"verified_image\" = \"\";\n            };\n        }\n    );\n    city = \"\\U5409\\U6797\\U5e02\";\n    cmc = 2;\n    content =     (\n                {\n            c = \"\\U8c03\\U6599\\U52a0\\U591a\\U5c11\\U6ca1\\U8bf4\\U5462\";\n        }\n    );\n    ia = 0;\n    id = 8908744;\n    \"ip_address_location\" = \"\";\n    like = 0;\n    \"like_count\" = 1;\n    \"reply_id\" = 0;\n    \"sticker_icon\" =     (\n    );\n    time = \"2022-01-19 11:59:56\";\n    u =     {\n        \"followers_count_text\" = \"\";\n        id = 24763919;\n        \"is_prime\" = 0;\n        lv = 0;\n        lvl = 1;\n        n = \"\\U542b\\U7cca\\U7684\\U830e\\U53f6\\U7c7b\";\n        p = \"http:\/\/tx1.douguo.net\/upload\/photo\/1\/1\/1\/70_8bb9e303921017ed2e50b5f8589a76d8.png\";\n        \"progress_image\" = \"\";\n        \"recipes_count_text\" = \"\";\n        relationship = \"-1\";\n        title = \"\";\n        v = 0;\n        \"verified_image\" = \"\";\n    };\n}",
        "{\n    ac = \"#999999\";\n    at = \"\\U5e7f\\U5b89\\U5e02\";\n    ccc = 2;\n    \"child_comments\" =     (\n                {\n            ac = \"#999999\";\n            at = \"\\U5e7f\\U5dde\\U5e02\";\n            ccc = 0;\n            city = \"\\U5e7f\\U5dde\\U5e02\";\n            cmc = 2;\n            content =             (\n                                {\n                    c = \" \\U6211\\U7528\\U4e86\\U7ec6\\U76d0\\Uff0c\\U7126\\U76ae\\U4e00\\U822c\\U822c\";\n                }\n            );\n            ia = 1;\n            id = 8904362;\n            \"ip_address_location\" = \"\";\n            like = 0;\n            \"like_count\" = 0;\n            \"reply_id\" = 8904302;\n            \"reply_user\" =             {\n                \"followers_count_text\" = \"\";\n                id = 20624414;\n                \"is_prime\" = 0;\n                lv = 0;\n                lvl = 1;\n                n = \"\\U3000\\U2026\";\n                p = \"http:\/\/tx1.douguo.net\/upload\/photo\/2\/f\/3\/70_u99972404411637182354.jpg\";\n                \"progress_image\" = \"\";\n                \"recipes_count_text\" = \"\";\n                relationship = \"-1\";\n                title = \"\";\n                v = 0;\n                \"verified_image\" = \"\";\n            };\n            \"sticker_icon\" =             (\n            );\n            time = \"2022-01-04 17:18:05\";\n            u =             {\n                \"followers_count_text\" = \"\";\n                id = 21746837;\n                \"is_prime\" = 1;\n                lv = 0;\n                lvl = 6;\n                n = Taloves;\n                p = \"http:\/\/tx1.douguo.net\/upload\/photo\/c\/f\/6\/70_cf64712520bd531f14e8fea1357d8d16.jpeg\";\n                \"progress_image\" = \"\";\n                \"recipes_count_text\" = \"\";\n                relationship = \"-1\";\n                title = \"\";\n                v = 1;\n                \"verified_image\" = \"\";\n            };\n        },\n                {\n            ac = \"#999999\";\n            at = \"\";\n            ccc = 0;\n            city = \"\";\n            cmc = 2;\n            content =             (\n                                {\n                    c = \" \\U4f60\\U662f\\U5982\\U4f55\\U51c6\\U5907\\U7684\\Uff0c\\U8bf7\\U544a\\U8bc9\\U6211\";\n                }\n            );\n            ia = 0;\n            id = 8905184;\n            \"ip_address_location\" = \"\";\n            like = 0;\n            \"like_count\" = 0;\n            \"reply_id\" = 8904302;\n            \"reply_user\" =             {\n                \"followers_count_text\" = \"\";\n                id = 20624414;\n                \"is_prime\" = 0;\n                lv = 0;\n                lvl = 1;\n                n = \"\\U3000\\U2026\";\n                p = \"http:\/\/tx1.douguo.net\/upload\/photo\/2\/f\/3\/70_u99972404411637182354.jpg\";\n                \"progress_image\" = \"\";\n                \"recipes_count_text\" = \"\";\n                relationship = \"-1\";\n                title = \"\";\n                v = 0;\n                \"verified_image\" = \"\";\n            };\n            \"sticker_icon\" =             (\n            );\n            time = \"2022-01-07 13:29:31\";\n            u =             {\n                \"followers_count_text\" = \"\";\n                id = 27017561;\n                \"is_prime\" = 0;\n                lv = 0;\n                lvl = 2;\n                n = \"\\U7231\\U5192\\U9669\\U7684\\U534e\\U5b50\\U9c7c\\U5f88\\U7cbe\\U5f69\";\n                p = \"http:\/\/tx1.douguo.net\/upload\/photo\/7\/1\/d\/70_7150154d7cc1437601296fd3948590fd.jpeg\";\n                \"progress_image\" = \"\";\n                \"recipes_count_text\" = \"\";\n                relationship = \"-1\";\n                title = \"\";\n                v = 0;\n                \"verified_image\" = \"\";\n            };\n        }\n    );\n    city = \"\\U5e7f\\U5b89\\U5e02\";\n    cmc = 2;\n    content =     (\n                {\n            c = \"\\U53ef\\U4ee5\\U7528\\U7ec6\\U76d0\\U5417\";\n        }\n    );\n    ia = 0;\n    id = 8904302;\n    \"ip_address_location\" = \"\";\n    like = 0;\n    \"like_count\" = 0;\n    \"reply_id\" = 0;\n    \"sticker_icon\" =     (\n    );\n    time = \"2022-01-04 13:39:54\";\n    u =     {\n        \"followers_count_text\" = \"\";\n        id = 20624414;\n        \"is_prime\" = 0;\n        lv = 0;\n        lvl = 1;\n        n = \"\\U3000\\U2026\";\n        p = \"http:\/\/tx1.douguo.net\/upload\/photo\/2\/f\/3\/70_u99972404411637182354.jpg\";\n        \"progress_image\" = \"\";\n        \"recipes_count_text\" = \"\";\n        relationship = \"-1\";\n        title = \"\";\n        v = 0;\n        \"verified_image\" = \"\";\n    };\n}",
        "{\n    ac = \"#999999\";\n    at = \"\\U67f3\\U5dde\\U5e02\";\n    ccc = 2;\n    \"child_comments\" =     (\n                {\n            ac = \"#999999\";\n            at = \"\\U5e7f\\U5dde\\U5e02\";\n            ccc = 0;\n            city = \"\\U5e7f\\U5dde\\U5e02\";\n            cmc = 2;\n            content =             (\n                                {\n                    c = \" \\U8868\\U76ae\\U4f1a\\U53d8\\U7126\\U8106\";\n                }\n            );\n            ia = 1;\n            id = 8894584;\n            \"ip_address_location\" = \"\";\n            like = 0;\n            \"like_count\" = 0;\n            \"reply_id\" = 8894549;\n            \"reply_user\" =             {\n                \"followers_count_text\" = \"\";\n                id = 20350815;\n                \"is_prime\" = 0;\n                lv = 0;\n                lvl = 3;\n                n = TT100;\n                p = \"http:\/\/tx1.douguo.net\/upload\/photo\/6\/2\/7\/70_u9646546887287183829.jpeg\";\n                \"progress_image\" = \"\";\n                \"recipes_count_text\" = \"\";\n                relationship = \"-1\";\n                title = \"\";\n                v = 0;\n                \"verified_image\" = \"\";\n            };\n            \"sticker_icon\" =             (\n            );\n            time = \"2021-12-20 20:29:14\";\n            u =             {\n                \"followers_count_text\" = \"\";\n                id = 21746837;\n                \"is_prime\" = 1;\n                lv = 0;\n                lvl = 6;\n                n = Taloves;\n                p = \"http:\/\/tx1.douguo.net\/upload\/photo\/c\/f\/6\/70_cf64712520bd531f14e8fea1357d8d16.jpeg\";\n                \"progress_image\" = \"\";\n                \"recipes_count_text\" = \"\";\n                relationship = \"-1\";\n                title = \"\";\n                v = 1;\n                \"verified_image\" = \"\";\n            };\n        },\n                {\n            ac = \"#999999\";\n            at = \"\\U6c55\\U5c3e\\U5e02\";\n            ccc = 0;\n            city = \"\\U6c55\\U5c3e\\U5e02\";\n            cmc = 2;\n            content =             (\n                                {\n                    c = \" \\U3002\\U3002\";\n                }\n            );\n            ia = 0;\n            id = 8911213;\n            \"ip_address_location\" = \"\";\n            like = 0;\n            \"like_count\" = 0;\n            \"reply_id\" = 8894549;\n            \"reply_user\" =             {\n                \"followers_count_text\" = \"\";\n                id = 20350815;\n                \"is_prime\" = 0;\n                lv = 0;\n                lvl = 3;\n                n = TT100;\n                p = \"http:\/\/tx1.douguo.net\/upload\/photo\/6\/2\/7\/70_u9646546887287183829.jpeg\";\n                \"progress_image\" = \"\";\n                \"recipes_count_text\" = \"\";\n                relationship = \"-1\";\n                title = \"\";\n                v = 0;\n                \"verified_image\" = \"\";\n            };\n            \"sticker_icon\" =             (\n            );\n            time = \"2022-01-26 22:10:40\";\n            u =             {\n                \"followers_count_text\" = \"\";\n                id = 25317631;\n                \"is_prime\" = 0;\n                lv = 0;\n                lvl = 1;\n                n = \"\\U80dc\\U5229\\U7684\\U846b\\U82a6\\U5f88\\U5d0e\\U5c96\";\n                p = \"http:\/\/tx1.douguo.net\/upload\/photo\/1\/1\/1\/70_308819173261b0de241dc8e387792732.png\";\n                \"progress_image\" = \"\";\n                \"recipes_count_text\" = \"\";\n                relationship = \"-1\";\n                title = \"\";\n                v = 0;\n                \"verified_image\" = \"\";\n            };\n        }\n    );\n    city = \"\\U67f3\\U5dde\\U5e02\";\n    cmc = 2;\n    content =     (\n                {\n            c = \"\\U732a\\U76ae\\U653e\\U76d0\\U7684\\U76ee\\U7684\\U662f\\U4ec0\\U4e48\\Uff1f\";\n        }\n    );\n    ia = 0;\n    id = 8894549;\n    \"ip_address_location\" = \"\";\n    like = 0;\n    \"like_count\" = 0;\n    \"reply_id\" = 0;\n    \"sticker_icon\" =     (\n    );\n    time = \"2021-12-20 20:02:14\";\n    u =     {\n        \"followers_count_text\" = \"\";\n        id = 20350815;\n        \"is_prime\" = 0;\n        lv = 0;\n        lvl = 3;\n        n = TT100;\n        p = \"http:\/\/tx1.douguo.net\/upload\/photo\/6\/2\/7\/70_u9646546887287183829.jpeg\";\n        \"progress_image\" = \"\";\n        \"recipes_count_text\" = \"\";\n        relationship = \"-1\";\n        title = \"\";\n        v = 0;\n        \"verified_image\" = \"\";\n    };\n}"
      ],
      "release_time" : "",
      "hq" : 1,
      "rate" : 5,
      "rips" : 0,
      "collect_status" : 0,
      "levelid" : 2,
      "recipe_tags" : [

      ],
      "minor" : [

      ],
      "vfurl" : "",
      "notes" : [

      ],
      "dishes" : [

      ],
      "rate_count" : 21,
      "thumb_height" : 0,
      "author_photo" : "http:\/\/tx1.douguo.net\/upload\/photo\/c\/f\/6\/70_cf64712520bd531f14e8fea1357d8d16.jpeg",
      "author_verified" : 1,
      "bs" : [

      ],
      "first_level_comment_count" : 20,
      "ph" : 1440,
      "author_id" : 21746837,
      "create_time" : "2021-11-25 15:54:53",
      "sc" : 0,
      "comments_count" : 31,
      "hqu" : "recipes:\/\/www.douguo.com\/notedetail?id=21162253",
      "rpid" : 0,
      "v_u" : "",
      "guide_image" : "",
      "cook_time_image" : "",
      "tips" : "",
      "recent_comments" : [

      ],
      "user" : {
        "following_count" : 0,
        "qzone_nick" : "",
        "regist_time" : "",
        "subscription" : 0,
        "point" : 0,
        "dishes_count" : 0,
        "gender" : 2,
        "user_id" : "21746837",
        "subscription_article_count" : 0,
        "birthday" : "",
        "user_photo" : "http:\/\/tx1.douguo.net\/upload\/photo\/c\/f\/6\/70_cf64712520bd531f14e8fea1357d8d16.jpeg",
        "verified_image" : "https:\/\/i1.douguo.com\/upload\/note\/d\/a\/a\/da84247847aebe48d9dd0fcdac88862a.png",
        "is_prime" : 0,
        "user_large_photo" : "http:\/\/tx1.douguo.net\/upload\/photo\/c\/f\/6\/yuan_cf64712520bd531f14e8fea1357d8d16.jpeg",
        "location" : 0,
        "followers_count" : 0,
        "favor_diaries_count" : 0,
        "mobile" : "",
        "userid" : "21746837",
        "verified" : 1,
        "lvl" : 6,
        "user_cover" : "",
        "sign" : "",
        "recipes_count" : 0,
        "avatar_medium" : "http:\/\/tx1.douguo.net\/upload\/photo\/c\/f\/6\/140_cf64712520bd531f14e8fea1357d8d16.jpeg",
        "diaries_count" : 0,
        "nick" : "Taloves",
        "fc" : 0,
        "progress_image" : "",
        "weibo_nick" : "",
        "qq_weibo_nick" : "",
        "pc" : 0,
        "favorites_count" : 0,
        "setted_email" : 0,
        "lv" : 0,
        "introduction" : "",
        "verified_url" : "https:\/\/m.douguo.com\/user\/prodesc",
        "email" : "",
        "age" : "",
        "coursecount" : 0
      },
      "cookstory" : "",
      "su" : "",
      "tags" : [

      ],
      "dish_count" : 23,
      "comments_count_text" : "31",
      "mid_mdsp" : [

      ],
      "eu" : "recipes:\/\/www.douguo.com\/postdetail?id=242016",
      "original_photo_path" : "http:\/\/i1.douguo.net\/upload\/caiku\/c\/4\/7\/yuan_c4b6c82aa22e35745100fec64a684c57.jpeg",
      "favo_counts_text" : "8760",
      "cook_difficulty" : "",
      "vc" : "880598",
      "cookstorys" : [
        {
          "id" : 0,
          "color" : "",
          "type" : 0,
          "c" : "参与活动:",
          "icon" : "",
          "u" : ""
        },
        {
          "id" : 0,
          "c" : "#作品有奖征集|我心中的的冬日限定#",
          "type" : 0,
          "icon" : "",
          "u" : "https:\/\/m.douguo.com\/activity\/ncpzj\/detail\/3305?isapp=1&open=0&_vs=1000300&&dg_refreshkey=publishnote"
        }
      ],
      "related_ads" : [

      ],
      "cook_id" : "3149838",
      "act_des" : "",
      "title" : "网红脆皮五花肉",
      "recommendation_tag" : "",
      "author" : "Taloves",
      "ipit" : 0,
      "rsm" : "该功能暂停使用",
      "dish_count_text" : "23",
      "cook_time" : "",
      "ipoi" : "",
      "ssu" : ""
    }
  },
  "state" : "success",
  "status" : 0
}