{
  "result" : {
    "recipe" : {
      "recent_comments" : [

      ],
      "cook_time" : "",
      "user" : {
        "introduction" : "",
        "mobile" : "",
        "progress_image" : "",
        "dishes_count" : 0,
        "subscription_article_count" : 0,
        "qq_weibo_nick" : "",
        "location" : 0,
        "lvl" : 4,
        "birthday" : "",
        "user_photo" : "http:\/\/tx1.douguo.net\/upload\/photo\/b\/8\/c\/70_u01820091956142214428.jpeg",
        "coursecount" : 0,
        "lv" : 0,
        "point" : 0,
        "userid" : "25999442",
        "weibo_nick" : "",
        "verified_url" : "https:\/\/m.douguo.com\/user\/prodesc",
        "fc" : 0,
        "is_prime" : 0,
        "user_cover" : "",
        "favor_diaries_count" : 0,
        "followers_count" : 0,
        "favorites_count" : 0,
        "sign" : "",
        "verified_image" : "",
        "verified" : 0,
        "email" : "",
        "user_large_photo" : "http:\/\/tx1.douguo.net\/upload\/photo\/b\/8\/c\/yuan_u01820091956142214428.jpeg",
        "recipes_count" : 0,
        "subscription" : 0,
        "user_id" : "25999442",
        "regist_time" : "",
        "nick" : "张太太L",
        "diaries_count" : 0,
        "following_count" : 0,
        "qzone_nick" : "",
        "avatar_medium" : "http:\/\/tx1.douguo.net\/upload\/photo\/b\/8\/c\/140_u01820091956142214428.jpeg",
        "pc" : 0,
        "age" : "",
        "gender" : 2,
        "setted_email" : 0
      },
      "favo_counts_text" : "7.7万",
      "sc" : 0,
      "ipia" : [

      ],
      "advice" : {
        "da" : {
          "t" : "查看详细分析",
          "url" : "https:\/\/m.douguo.com\/recipe\/nutrient_self\/3098119",
          "iu" : "https:\/\/i1.douguo.com\/upload\/banner\/f\/4\/d\/f48877e53c37759bc12ac494be82ec8d.png"
        },
        "has" : [
          {
            "url" : "recipes:\/\/www.douguo.com\/simplerecipelist?t=低热量&id=低热量",
            "t" : "低热量"
          },
          {
            "url" : "recipes:\/\/www.douguo.com\/simplerecipelist?t=富含维生素C&id=富含维生素C",
            "t" : "富含维生素C"
          }
        ],
        "at" : "能有效控制体重～"
      },
      "sr" : "",
      "thumb_path" : "https:\/\/i1.douguo.com\/upload\/caiku\/0\/8\/e\/300_087ce60c56ce4bb0d6ed37a03fc331fe.jpeg",
      "rdsps" : [

      ],
      "ipurl" : "",
      "ipit" : 0,
      "act_des" : "",
      "rrps" : [

      ],
      "views_count_text" : "604.0万",
      "title_ad" : [

      ],
      "rips" : 0,
      "levelid" : 2,
      "vc" : "6040109",
      "comments_count" : 214,
      "recommendation_tag" : "",
      "rate" : 5,
      "cook_difficulty_image" : "",
      "packages_id" : [

      ],
      "old_comments" : [

      ],
      "ss" : [

      ],
      "vu" : "",
      "btm_dsp" : [

      ],
      "dish_count_text" : "160",
      "hq" : 1,
      "author_photo" : "http:\/\/tx1.douguo.net\/upload\/photo\/b\/8\/c\/70_u01820091956142214428.jpeg",
      "cookwares" : [

      ],
      "ssu" : "",
      "comments_count_text" : "214",
      "dishes" : [

      ],
      "notes" : [

      ],
      "eu" : "recipes:\/\/www.douguo.com\/postdetail?id=242016",
      "ph" : 1632,
      "top_mdsp" : [

      ],
      "guide_image" : "",
      "vfurl" : "",
      "rate_show" : 1,
      "thumb_height" : 0,
      "recipe_tags" : [

      ],
      "author" : "张太太L",
      "create_time" : "2021-06-01 14:06:45",
      "rsm" : "该功能暂停使用",
      "comments" : [
        "{\n    ac = \"#999999\";\n    at = \"\\U5929\\U6d25\\U5e02\";\n    ccc = 41;\n    \"child_comments\" =     (\n                {\n            ac = \"#999999\";\n            at = \"\\U82cf\\U5dde\\U5e02\";\n            ccc = 0;\n            city = \"\\U82cf\\U5dde\\U5e02\";\n            cmc = 2;\n            content =             (\n                                {\n                    c = \" \\U53ef\\U4ee5\";\n                }\n            );\n            ia = 1;\n            id = 8697942;\n            \"ip_address_location\" = \"\";\n            like = 0;\n            \"like_count\" = 0;\n            \"reply_id\" = 8697852;\n            \"reply_user\" =             {\n                \"followers_count_text\" = \"\";\n                id = 20169384;\n                \"is_prime\" = 0;\n                lv = 0;\n                lvl = 1;\n                n = \"\\U7fbd\\U5a55\\U513f\";\n                p = \"http:\/\/tx1.douguo.net\/upload\/photo\/4\/d\/7\/70_u93822894994096145543.jpeg\";\n                \"progress_image\" = \"\";\n                \"recipes_count_text\" = \"\";\n                relationship = \"-1\";\n                title = \"\";\n                v = 0;\n                \"verified_image\" = \"\";\n            };\n            \"sticker_icon\" =             (\n            );\n            time = \"2021-06-02 13:25:14\";\n            u =             {\n                \"followers_count_text\" = \"\";\n                id = 25999442;\n                \"is_prime\" = 0;\n                lv = 0;\n                lvl = 4;\n                n = \"\\U5f20\\U592a\\U592aL\";\n                p = \"http:\/\/tx1.douguo.net\/upload\/photo\/b\/8\/c\/70_u01820091956142214428.jpeg\";\n                \"progress_image\" = \"\";\n                \"recipes_count_text\" = \"\";\n                relationship = \"-1\";\n                title = \"\";\n                v = 0;\n                \"verified_image\" = \"\";\n            };\n        },\n                {\n            ac = \"#999999\";\n            at = \"\\U6df1\\U5733\\U5e02\";\n            ccc = 0;\n            city = \"\\U6df1\\U5733\\U5e02\";\n            cmc = 2;\n            content =             (\n                                {\n                    c = \" \\U4e3a\\U5565\\U5bf9\\U8eab\\U4f53\\U4e0d\\U597d\\U6211\\U60f3\\U542c\\U542c\";\n                }\n            );\n            ia = 0;\n            id = 8698302;\n            \"ip_address_location\" = \"\";\n            like = 0;\n            \"like_count\" = 2;\n            \"reply_id\" = 8697852;\n            \"reply_user\" =             {\n                \"followers_count_text\" = \"\";\n                id = 20169384;\n                \"is_prime\" = 0;\n                lv = 0;\n                lvl = 1;\n                n = \"\\U7fbd\\U5a55\\U513f\";\n                p = \"http:\/\/tx1.douguo.net\/upload\/photo\/4\/d\/7\/70_u93822894994096145543.jpeg\";\n                \"progress_image\" = \"\";\n                \"recipes_count_text\" = \"\";\n                relationship = \"-1\";\n                title = \"\";\n                v = 0;\n                \"verified_image\" = \"\";\n            };\n            \"sticker_icon\" =             (\n            );\n            time = \"2021-06-02 18:31:13\";\n            u =             {\n                \"followers_count_text\" = \"\";\n                id = 17874500;\n                \"is_prime\" = 0;\n                lv = 0;\n                lvl = 2;\n                n = \"\\U51ddbnhz\";\n                p = \"http:\/\/tx1.douguo.net\/upload\/photo\/e\/d\/9\/70_u67369249350035162059.jpg\";\n                \"progress_image\" = \"\";\n                \"recipes_count_text\" = \"\";\n                relationship = \"-1\";\n                title = \"\";\n                v = 0;\n                \"verified_image\" = \"\";\n            };\n        }\n    );\n    city = \"\\U5929\\U6d25\\U5e02\";\n    cmc = 2;\n    content =     (\n                {\n            c = \"\\U869d\\U6cb9\\U5bf9\\U8eab\\U4f53\\U4e0d\\U597d\\Uff0c\\U53ef\\U4ee5\\U4e0d\\U653e\\U5417\\Uff1f\\Ud83d\\Ude02\";\n        }\n    );\n    ia = 0;\n    id = 8697852;\n    \"ip_address_location\" = \"\";\n    like = 0;\n    \"like_count\" = 14;\n    \"reply_id\" = 0;\n    \"sticker_icon\" =     (\n    );\n    time = \"2021-06-02 12:18:20\";\n    u =     {\n        \"followers_count_text\" = \"\";\n        id = 20169384;\n        \"is_prime\" = 0;\n        lv = 0;\n        lvl = 1;\n        n = \"\\U7fbd\\U5a55\\U513f\";\n        p = \"http:\/\/tx1.douguo.net\/upload\/photo\/4\/d\/7\/70_u93822894994096145543.jpeg\";\n        \"progress_image\" = \"\";\n        \"recipes_count_text\" = \"\";\n        relationship = \"-1\";\n        title = \"\";\n        v = 0;\n        \"verified_image\" = \"\";\n    };\n}",
        "{\n    ac = \"#999999\";\n    at = \"\\U6e56\\U5dde\\U5e02\";\n    ccc = 9;\n    \"child_comments\" =     (\n                {\n            ac = \"#999999\";\n            at = \"\\U82cf\\U5dde\\U5e02\";\n            ccc = 0;\n            city = \"\\U82cf\\U5dde\\U5e02\";\n            cmc = 2;\n            content =             (\n                                {\n                    c = \" \\Ud83d\\Ude0b\";\n                }\n            );\n            ia = 1;\n            id = 8697483;\n            \"ip_address_location\" = \"\";\n            like = 0;\n            \"like_count\" = 0;\n            \"reply_id\" = 8697246;\n            \"reply_user\" =             {\n                \"followers_count_text\" = \"\";\n                id = 23692664;\n                \"is_prime\" = 0;\n                lv = 0;\n                lvl = 5;\n                n = \"\\U5976\\U5976\\U5976\\U8d1d\";\n                p = \"http:\/\/tx1.douguo.net\/upload\/photo\/0\/1\/c\/70_u54989838490235103942.jpg\";\n                \"progress_image\" = \"\";\n                \"recipes_count_text\" = \"\";\n                relationship = \"-1\";\n                title = \"\";\n                v = 0;\n                \"verified_image\" = \"\";\n            };\n            \"sticker_icon\" =             (\n            );\n            time = \"2021-06-02 07:33:26\";\n            u =             {\n                \"followers_count_text\" = \"\";\n                id = 25999442;\n                \"is_prime\" = 0;\n                lv = 0;\n                lvl = 4;\n                n = \"\\U5f20\\U592a\\U592aL\";\n                p = \"http:\/\/tx1.douguo.net\/upload\/photo\/b\/8\/c\/70_u01820091956142214428.jpeg\";\n                \"progress_image\" = \"\";\n                \"recipes_count_text\" = \"\";\n                relationship = \"-1\";\n                title = \"\";\n                v = 0;\n                \"verified_image\" = \"\";\n            };\n        },\n                {\n            ac = \"#999999\";\n            at = \"\";\n            ccc = 0;\n            city = \"\";\n            cmc = 2;\n            content =             (\n                                {\n                    c = \" \\U6211\\U60f3\\U77e5\\U9053\\U591a\\U5927\\U52fa\\U54c8\\U54c8\\U54c8\";\n                }\n            );\n            ia = 0;\n            id = 8700366;\n            \"ip_address_location\" = \"\";\n            like = 0;\n            \"like_count\" = 0;\n            \"reply_id\" = 8697246;\n            \"reply_user\" =             {\n                \"followers_count_text\" = \"\";\n                id = 23692664;\n                \"is_prime\" = 0;\n                lv = 0;\n                lvl = 5;\n                n = \"\\U5976\\U5976\\U5976\\U8d1d\";\n                p = \"http:\/\/tx1.douguo.net\/upload\/photo\/0\/1\/c\/70_u54989838490235103942.jpg\";\n                \"progress_image\" = \"\";\n                \"recipes_count_text\" = \"\";\n                relationship = \"-1\";\n                title = \"\";\n                v = 0;\n                \"verified_image\" = \"\";\n            };\n            \"sticker_icon\" =             (\n            );\n            time = \"2021-06-03 18:56:25\";\n            u =             {\n                \"followers_count_text\" = \"\";\n                id = 26691090;\n                \"is_prime\" = 0;\n                lv = 0;\n                lvl = 1;\n                n = \"\\U538c\\U6076\\U7684\\U671d\\U5929\\U6912\\U5f88\\U5178\\U578b\";\n                p = \"http:\/\/tx1.douguo.net\/upload\/photo\/1\/1\/1\/70_1499a7147ecac912ea48d6125e0b8954.png\";\n                \"progress_image\" = \"\";\n                \"recipes_count_text\" = \"\";\n                relationship = \"-1\";\n                title = \"\";\n                v = 0;\n                \"verified_image\" = \"\";\n            };\n        }\n    );\n    city = \"\\U6e56\\U5dde\\U5e02\";\n    cmc = 2;\n    content =     (\n                {\n            c = \"\\U9c7c\\U9999\\U674f\\U9c8d\\U83c7\\Uff0c\\U6ca1\\U8089\\U6bd4\\U8089\\U8fd8\\U7f8e\\U5473\";\n        }\n    );\n    ia = 0;\n    id = 8697246;\n    \"ip_address_location\" = \"\";\n    like = 0;\n    \"like_count\" = 14;\n    \"reply_id\" = 0;\n    \"sticker_icon\" =     (\n    );\n    time = \"2021-06-02 00:35:37\";\n    u =     {\n        \"followers_count_text\" = \"\";\n        id = 23692664;\n        \"is_prime\" = 0;\n        lv = 0;\n        lvl = 5;\n        n = \"\\U5976\\U5976\\U5976\\U8d1d\";\n        p = \"http:\/\/tx1.douguo.net\/upload\/photo\/0\/1\/c\/70_u54989838490235103942.jpg\";\n        \"progress_image\" = \"\";\n        \"recipes_count_text\" = \"\";\n        relationship = \"-1\";\n        title = \"\";\n        v = 0;\n        \"verified_image\" = \"\";\n    };\n}",
        "{\n    ac = \"#999999\";\n    at = \"\\U4e0a\\U9976\\U5e02\";\n    ccc = 7;\n    \"child_comments\" =     (\n                {\n            ac = \"#999999\";\n            at = \"\\U82cf\\U5dde\\U5e02\";\n            ccc = 0;\n            city = \"\\U82cf\\U5dde\\U5e02\";\n            cmc = 2;\n            content =             (\n                                {\n                    c = \" \\U8001\\U62bd\\U653e\\U591a\\U4e86\\U5427\";\n                }\n            );\n            ia = 1;\n            id = 8725529;\n            \"ip_address_location\" = \"\";\n            like = 0;\n            \"like_count\" = 0;\n            \"reply_id\" = 8725281;\n            \"reply_user\" =             {\n                \"followers_count_text\" = \"\";\n                id = 26707612;\n                \"is_prime\" = 0;\n                lv = 0;\n                lvl = 1;\n                n = \"\\U9065\\U8fdc\\U7684\\U5b89\\U5eb7\\U9c7c\";\n                p = \"http:\/\/tx1.douguo.net\/upload\/photo\/b\/0\/9\/70_b07a2cfe9229c59ca745e181a73cd939.jpg\";\n                \"progress_image\" = \"\";\n                \"recipes_count_text\" = \"\";\n                relationship = \"-1\";\n                title = \"\";\n                v = 0;\n                \"verified_image\" = \"\";\n            };\n            \"sticker_icon\" =             (\n            );\n            time = \"2021-07-03 08:19:24\";\n            u =             {\n                \"followers_count_text\" = \"\";\n                id = 25999442;\n                \"is_prime\" = 0;\n                lv = 0;\n                lvl = 4;\n                n = \"\\U5f20\\U592a\\U592aL\";\n                p = \"http:\/\/tx1.douguo.net\/upload\/photo\/b\/8\/c\/70_u01820091956142214428.jpeg\";\n                \"progress_image\" = \"\";\n                \"recipes_count_text\" = \"\";\n                relationship = \"-1\";\n                title = \"\";\n                v = 0;\n                \"verified_image\" = \"\";\n            };\n        },\n                {\n            ac = \"#999999\";\n            at = \"\\U4e0a\\U9976\\U5e02\";\n            ccc = 0;\n            city = \"\\U4e0a\\U9976\\U5e02\";\n            cmc = 2;\n            content =             (\n                                {\n                    c = \" \\U6211\\U4e00\\U822c\\U7528\\U7684\\U662f\\U5473\\U6781\\U9c9c\\Ud83d\\Udc40\\Ud83d\\Udc40\";\n                }\n            );\n            ia = 0;\n            id = 8725633;\n            \"ip_address_location\" = \"\";\n            like = 0;\n            \"like_count\" = 0;\n            \"reply_id\" = 8725529;\n            \"reply_user\" =             {\n                \"followers_count_text\" = \"\";\n                id = 25999442;\n                \"is_prime\" = 0;\n                lv = 0;\n                lvl = 4;\n                n = \"\\U5f20\\U592a\\U592aL\";\n                p = \"http:\/\/tx1.douguo.net\/upload\/photo\/b\/8\/c\/70_u01820091956142214428.jpeg\";\n                \"progress_image\" = \"\";\n                \"recipes_count_text\" = \"\";\n                relationship = \"-1\";\n                title = \"\";\n                v = 0;\n                \"verified_image\" = \"\";\n            };\n            \"sticker_icon\" =             (\n            );\n            time = \"2021-07-03 11:23:41\";\n            u =             {\n                \"followers_count_text\" = \"\";\n                id = 26707612;\n                \"is_prime\" = 0;\n                lv = 0;\n                lvl = 1;\n                n = \"\\U9065\\U8fdc\\U7684\\U5b89\\U5eb7\\U9c7c\";\n                p = \"http:\/\/tx1.douguo.net\/upload\/photo\/b\/0\/9\/70_b07a2cfe9229c59ca745e181a73cd939.jpg\";\n                \"progress_image\" = \"\";\n                \"recipes_count_text\" = \"\";\n                relationship = \"-1\";\n                title = \"\";\n                v = 0;\n                \"verified_image\" = \"\";\n            };\n        }\n    );\n    city = \"\\U4e0a\\U9976\\U5e02\";\n    cmc = 2;\n    content =     (\n                {\n            c = \"\\U4e3a\\U4ec0\\U4e48\\U6211\\U6284\\U7684\\U6bd4\\U4f60\\U9ed1\\U597d\\U591a\\Ud83d\\Ude2d\\U662f\\U54ea\\U51fa\\U9519\\U4e86\\U561b\\Uff1f\\U4f46\\U5473\\U9053\\U8fd8\\U662f\\U4e0d\\U9519\\U7684\";\n        }\n    );\n    ia = 0;\n    id = 8725281;\n    \"ip_address_location\" = \"\";\n    like = 0;\n    \"like_count\" = 5;\n    \"reply_id\" = 0;\n    \"sticker_icon\" =     (\n    );\n    time = \"2021-07-02 18:20:44\";\n    u =     {\n        \"followers_count_text\" = \"\";\n        id = 26707612;\n        \"is_prime\" = 0;\n        lv = 0;\n        lvl = 1;\n        n = \"\\U9065\\U8fdc\\U7684\\U5b89\\U5eb7\\U9c7c\";\n        p = \"http:\/\/tx1.douguo.net\/upload\/photo\/b\/0\/9\/70_b07a2cfe9229c59ca745e181a73cd939.jpg\";\n        \"progress_image\" = \"\";\n        \"recipes_count_text\" = \"\";\n        relationship = \"-1\";\n        title = \"\";\n        v = 0;\n        \"verified_image\" = \"\";\n    };\n}"
      ],
      "v_u" : "",
      "share_info" : {
        "mini_program" : [

        ],
        "s_d" : "杏鲍菇神仙吃法，好吃到舔盘子的鱼香杏鲍菇-会做饭很酷!",
        "qr_image" : "",
        "name" : "杏鲍菇神仙吃法，好吃到舔盘子的鱼香杏鲍菇-会做饭很酷!",
        "infos" : [
          {
            "name" : "杏鲍菇神仙吃法，好吃到舔盘子的鱼香杏鲍菇-会做饭很酷!",
            "s_d" : "#学做饭用豆果美食# 我在@豆果美食 分享了【杏鲍菇神仙吃法，好吃到舔盘子的鱼香杏鲍菇-会做饭很酷!】，色香味俱全说的就是这道菜！查看图片了解菜谱（快来点击https:\/\/m.weibo.cn\/p\/100404i33631和我一起修炼厨艺吧）#会做饭很酷# ",
            "mini_program" : [

            ],
            "s_u" : "",
            "object_id" : "3098119",
            "image" : "https:\/\/cp1.douguo.com\/upload\/caiku\/0\/8\/e\/087ce60c56ce4bb0d6ed37a03fc331fe.jpeg",
            "channel" : "1",
            "qr_image" : ""
          },
          {
            "name" : "杏鲍菇神仙吃法，好吃到舔盘子的鱼香杏鲍菇-会做饭很酷!",
            "channel" : "7",
            "s_u" : "http:\/\/m.douguo.com\/cookbook\/3098119.html",
            "qr_image" : "",
            "image" : "https:\/\/cp1.douguo.com\/upload\/caiku\/0\/8\/e\/087ce60c56ce4bb0d6ed37a03fc331fe.jpeg",
            "s_d" : "杏鲍菇神仙吃法，好吃到舔盘子的鱼香杏鲍菇-会做饭很酷!",
            "object_id" : "3098119",
            "mini_program" : [

            ]
          },
          {
            "s_u" : "http:\/\/m.douguo.com\/cookbook\/3098119.html",
            "qr_image" : "",
            "object_id" : "3098119",
            "s_d" : "杏鲍菇神仙吃法，好吃到舔盘子的鱼香杏鲍菇-会做饭很酷!",
            "image" : "https:\/\/cp1.douguo.com\/upload\/caiku\/0\/8\/e\/087ce60c56ce4bb0d6ed37a03fc331fe.jpeg",
            "mini_program" : [

            ],
            "name" : "杏鲍菇神仙吃法，好吃到舔盘子的鱼香杏鲍菇-会做饭很酷!",
            "channel" : "8"
          }
        ],
        "object_id" : "3098119",
        "image" : "https:\/\/cp1.douguo.com\/upload\/caiku\/0\/8\/e\/087ce60c56ce4bb0d6ed37a03fc331fe.jpeg",
        "s_u" : "http:\/\/m.douguo.com\/cookbook\/3098119.html"
      },
      "ecs" : 1,
      "rrpt" : "",
      "cookstory" : "很多事情你当时想不通，别着急，过段时间你就再也想不起来了",
      "favo_counts" : 76931,
      "bs" : [

      ],
      "recommended" : 0,
      "author_id" : 25999442,
      "display_ingredient" : 1,
      "recommend_label" : "160人学做",
      "tags" : [

      ],
      "major" : [
        {
          "tu" : "https:\/\/m.douguo.com\/ingredients\/杏鲍菇\/detailmaterial",
          "title" : "杏鲍菇",
          "note" : "2个"
        },
        {
          "note" : "1小把",
          "tu" : "https:\/\/m.douguo.com\/ingredients\/木耳\/detailmaterial",
          "title" : "木耳"
        },
        {
          "tu" : "https:\/\/m.douguo.com\/ingredients\/胡萝卜\/detailmaterial",
          "note" : "半根",
          "title" : "胡萝卜"
        },
        {
          "title" : "青椒",
          "note" : "1个",
          "tu" : "https:\/\/m.douguo.com\/ingredients\/青椒\/detailmaterial"
        },
        {
          "title" : "生抽",
          "note" : "2勺",
          "tu" : "https:\/\/m.douguo.com\/ingredients\/生抽\/detailmaterial"
        },
        {
          "note" : "1勺",
          "tu" : "https:\/\/m.douguo.com\/ingredients\/蚝油\/detailmaterial",
          "title" : "蚝油"
        },
        {
          "tu" : "https:\/\/m.douguo.com\/ingredients\/老抽\/detailmaterial",
          "note" : "半勺",
          "title" : "老抽"
        },
        {
          "title" : "糖",
          "note" : "半勺",
          "tu" : "https:\/\/m.douguo.com\/ingredients\/糖\/detailmaterial"
        },
        {
          "title" : "淀粉",
          "note" : "1勺"
        },
        {
          "title" : "醋",
          "note" : "1勺",
          "tu" : "https:\/\/m.douguo.com\/ingredients\/醋\/detailmaterial"
        },
        {
          "title" : "水",
          "tu" : "https:\/\/m.douguo.com\/ingredients\/水\/detailmaterial",
          "note" : "两勺"
        }
      ],
      "mid_mdsp" : [

      ],
      "clicks" : "4552515",
      "rate_count" : 143,
      "cook_difficulty" : "",
      "pw" : 1920,
      "hqu" : "recipes:\/\/www.douguo.com\/notedetail?id=21162253",
      "ipci" : "",
      "rpt" : "",
      "original_photo_path" : "http:\/\/i1.douguo.net\/upload\/caiku\/0\/8\/e\/yuan_087ce60c56ce4bb0d6ed37a03fc331fe.jpeg",
      "rcs" : [

      ],
      "minor" : [

      ],
      "collect_status" : 0,
      "release_time" : "",
      "cook_id" : "3098119",
      "ipt" : "",
      "title" : "杏鲍菇神仙吃法，好吃到舔盘子的鱼香杏鲍菇",
      "first_level_comment_count" : 125,
      "rpid" : 0,
      "su" : "",
      "cookstep" : [
        {
          "content" : "所有食材洗干净\n胡萝卜木耳青椒切丝\n杏鲍菇用手撕成丝",
          "image" : "https:\/\/i1.douguo.com\/upload\/caiku\/2\/e\/c\/2e1d22d4511f9e132cfbbf40aeb529dc.jpeg",
          "image_width" : 1080,
          "thumb" : "https:\/\/i1.douguo.com\/upload\/caiku\/2\/e\/c\/140_2e1d22d4511f9e132cfbbf40aeb529dc.jpeg",
          "frame" : "-1",
          "position" : 1,
          "image_height" : 1080
        },
        {
          "image_height" : 1706,
          "frame" : "-1",
          "thumb" : "https:\/\/i1.douguo.com\/upload\/caiku\/3\/f\/d\/140_3f6f9e92228452af0ca9aecba731dadd.jpeg",
          "position" : 2,
          "image_width" : 1280,
          "content" : "调个鱼香汁\n两勺生抽，一勺醋，半勺糖，一勺蚝油，半勺老抽，一勺淀粉，两勺水搅拌均匀！",
          "image" : "https:\/\/i1.douguo.com\/upload\/caiku\/3\/f\/d\/3f6f9e92228452af0ca9aecba731dadd.jpeg"
        },
        {
          "image" : "https:\/\/i1.douguo.com\/upload\/caiku\/a\/8\/a\/a8daddc57f76de3a347fa78c3e4d22ea.jpeg",
          "image_width" : 1280,
          "image_height" : 960,
          "thumb" : "https:\/\/i1.douguo.com\/upload\/caiku\/a\/8\/a\/140_a8daddc57f76de3a347fa78c3e4d22ea.jpeg",
          "content" : "起锅烧油放蒜末爆香加一点豆瓣酱炒出红油",
          "position" : 3,
          "frame" : "-1"
        },
        {
          "image_width" : 1280,
          "thumb" : "https:\/\/i1.douguo.com\/upload\/caiku\/6\/4\/d\/140_64f887f409c0fffa6bd3ca05e02524fd.jpeg",
          "position" : 4,
          "image" : "https:\/\/i1.douguo.com\/upload\/caiku\/6\/4\/d\/64f887f409c0fffa6bd3ca05e02524fd.jpeg",
          "content" : "加杏鲍菇炒到变软",
          "frame" : "-1",
          "image_height" : 960
        },
        {
          "frame" : "-1",
          "image_height" : 1706,
          "image" : "https:\/\/i1.douguo.com\/upload\/caiku\/7\/2\/a\/729f379d14c113d4ce77cea23030af1a.jpeg",
          "image_width" : 1280,
          "content" : "杏鲍菇变软后加胡萝卜木耳青椒\n也可以先放木耳胡萝卜，翻炒片刻后加青椒\n根据自己调整",
          "thumb" : "https:\/\/i1.douguo.com\/upload\/caiku\/7\/2\/a\/140_729f379d14c113d4ce77cea23030af1a.jpeg",
          "position" : 5
        },
        {
          "image" : "https:\/\/i1.douguo.com\/upload\/caiku\/6\/4\/0\/64c4d52180469891f7b0e7ac56daaa70.jpeg",
          "frame" : "-1",
          "image_height" : 1706,
          "position" : 6,
          "image_width" : 1280,
          "thumb" : "https:\/\/i1.douguo.com\/upload\/caiku\/6\/4\/0\/140_64c4d52180469891f7b0e7ac56daaa70.jpeg",
          "content" : "翻炒均匀后加鱼香汁大火收汁即可。"
        },
        {
          "content" : "做出来不仅好吃下饭，颜色也特别漂亮～",
          "thumb" : "https:\/\/i1.douguo.com\/upload\/caiku\/e\/9\/0\/140_e9cb787cc0417c94298495dee4db1590.jpeg",
          "image_height" : 1706,
          "position" : 7,
          "image" : "https:\/\/i1.douguo.com\/upload\/caiku\/e\/9\/0\/e9cb787cc0417c94298495dee4db1590.jpeg",
          "frame" : "-1",
          "image_width" : 1280
        },
        {
          "position" : 8,
          "thumb" : "https:\/\/i1.douguo.com\/upload\/caiku\/6\/b\/d\/140_6b0905f858bc4b1df716a208dba4b65d.jpeg",
          "content" : "拌在米饭上绝了",
          "image" : "https:\/\/i1.douguo.com\/upload\/caiku\/6\/b\/d\/6b0905f858bc4b1df716a208dba4b65d.jpeg",
          "image_height" : 960,
          "frame" : "-1",
          "image_width" : 1280
        }
      ],
      "cookstorys" : [
        {
          "id" : 0,
          "c" : "很多事情你当时想不通，别着急，过段时间你就再也想不起来了",
          "type" : 0,
          "icon" : "",
          "u" : "",
          "color" : ""
        }
      ],
      "related_ads" : [

      ],
      "recipe_list_tags" : [
        {
          "background_border_color" : "",
          "background_end_color" : "#F4F5F5",
          "jump_url" : "",
          "text_color" : "#141515",
          "background_start_color" : "#F4F5F5",
          "right_image" : "",
          "text" : "关注的人"
        }
      ],
      "purl" : "",
      "image" : "http:\/\/i1.douguo.net\/upload\/caiku\/0\/8\/e\/300_087ce60c56ce4bb0d6ed37a03fc331fe.jpeg",
      "tips" : "",
      "author_verified" : 0,
      "brand_day_dsp" : [

      ],
      "dish_count" : 160,
      "rpst" : "",
      "story_dsp" : [

      ],
      "photo_path" : "https:\/\/i1.douguo.com\/upload\/caiku\/0\/8\/e\/600_087ce60c56ce4bb0d6ed37a03fc331fe.jpeg",
      "rewarded_video_dsp" : [

      ],
      "ipoi" : "",
      "cook_time_image" : ""
    }
  },
  "status" : 0,
  "state" : "success"
}