{
  "state" : "success",
  "status" : 0,
  "result" : {
    "recipe" : {
      "rewarded_video_dsp" : [

      ],
      "collect_status" : 0,
      "dishes" : [

      ],
      "original_photo_path" : "http:\/\/i1.douguo.net\/upload\/caiku\/a\/2\/2\/yuan_a24f4260ef76704b1e2c1c96c8096792.jpg",
      "views_count_text" : "4.8万",
      "rips" : 0,
      "ipci" : "",
      "notes" : [

      ],
      "tags" : [

      ],
      "author" : "金龙鱼知食青年",
      "comments" : [
        "{\n    ac = \"#999999\";\n    at = \"\";\n    ccc = 0;\n    \"child_comments\" =     (\n    );\n    city = \"\";\n    cmc = 2;\n    content =     (\n                {\n            c = \"\\U597d\\U60f3\\U6d41\\U53e3\\U6c34\\Uff0c\\U8d85\\U7ed9\\U529b\";\n        }\n    );\n    ia = 0;\n    id = 8450270;\n    \"ip_address_location\" = \"\";\n    like = 0;\n    \"like_count\" = 1;\n    \"reply_id\" = 0;\n    \"sticker_icon\" =     (\n    );\n    time = \"2021-01-11 15:41:06\";\n    u =     {\n        \"followers_count_text\" = \"\";\n        id = 18577070;\n        \"is_prime\" = 0;\n        lv = 0;\n        lvl = 4;\n        n = \"W\\U963f\\U7433\";\n        p = \"http:\/\/tx1.douguo.net\/upload\/photo\/0\/c\/e\/70_u97304417225110200804.jpg\";\n        \"progress_image\" = \"\";\n        \"recipes_count_text\" = \"\";\n        relationship = \"-1\";\n        title = \"\";\n        v = 0;\n        \"verified_image\" = \"\";\n    };\n}",
        "{\n    ac = \"#999999\";\n    at = \"\";\n    ccc = 0;\n    \"child_comments\" =     (\n    );\n    city = \"\";\n    cmc = 2;\n    content =     (\n                {\n            c = \"\\U5b66\\U4f1a\\U4e86~`\";\n        }\n    );\n    ia = 0;\n    id = 8450246;\n    \"ip_address_location\" = \"\";\n    like = 0;\n    \"like_count\" = 1;\n    \"reply_id\" = 0;\n    \"sticker_icon\" =     (\n    );\n    time = \"2021-01-11 15:22:22\";\n    u =     {\n        \"followers_count_text\" = \"\";\n        id = 24549481;\n        \"is_prime\" = 0;\n        lv = 0;\n        lvl = 2;\n        n = \"\\U8fdb\\U51fb\\U7684\\U5c0f\\U6850\\U6850FCu\";\n        p = \"http:\/\/tx1.douguo.net\/upload\/photo\/3\/7\/8\/70_u94576323915222150339.jpeg\";\n        \"progress_image\" = \"\";\n        \"recipes_count_text\" = \"\";\n        relationship = \"-1\";\n        title = \"\";\n        v = 0;\n        \"verified_image\" = \"\";\n    };\n}",
        "{\n    ac = \"#999999\";\n    at = \"\\U5929\\U6d25\\U5e02\";\n    ccc = 0;\n    \"child_comments\" =     (\n    );\n    city = \"\\U5929\\U6d25\\U5e02\";\n    cmc = 2;\n    content =     (\n                {\n            c = \"\\U505a\\U6cd5\\U5f88\\U8be6\\U7ec6\\Uff0c\\U6709\\U7a7a\\U8bd5\\U4e00\\U8bd5\";\n        }\n    );\n    ia = 0;\n    id = 8450197;\n    \"ip_address_location\" = \"\";\n    like = 0;\n    \"like_count\" = 1;\n    \"reply_id\" = 0;\n    \"sticker_icon\" =     (\n    );\n    time = \"2021-01-11 14:53:31\";\n    u =     {\n        \"followers_count_text\" = \"\";\n        id = 17426098;\n        \"is_prime\" = 0;\n        lv = 0;\n        lvl = 5;\n        n = \"\\U6653\\U5c91rpbj\";\n        p = \"http:\/\/tx1.douguo.net\/upload\/photo\/c\/3\/f\/70_u63213777760492185304.jpg\";\n        \"progress_image\" = \"\";\n        \"recipes_count_text\" = \"\";\n        relationship = \"-1\";\n        title = \"\";\n        v = 0;\n        \"verified_image\" = \"\";\n    };\n}"
      ],
      "cookstory" : "寒冷的冬天，吃上这样一锅简单快手的虾煲，最惬意不过了。用虾和豆腐这两种简单的食材，保证可以在最短的时间里，做出最美味的豆腐虾煲，赶紧学起来吧，这个冬天不能错过这锅美味的虾煲。",
      "su" : "",
      "display_ingredient" : 1,
      "rsm" : "该功能暂停使用",
      "user" : {
        "weibo_nick" : "",
        "is_prime" : 0,
        "mobile" : "",
        "sign" : "",
        "avatar_medium" : "http:\/\/tx1.douguo.net\/upload\/photo\/1\/4\/b\/140_144cbb0aefce23d789da2c2474b17ffb.png",
        "fc" : 0,
        "qq_weibo_nick" : "",
        "setted_email" : 0,
        "qzone_nick" : "",
        "nick" : "金龙鱼知食青年",
        "email" : "",
        "dishes_count" : 0,
        "diaries_count" : 0,
        "favorites_count" : 0,
        "coursecount" : 0,
        "age" : "",
        "lvl" : 6,
        "subscription_article_count" : 0,
        "subscription" : 0,
        "lv" : 0,
        "verified_url" : "https:\/\/m.douguo.com\/user\/prodesc",
        "followers_count" : 0,
        "point" : 0,
        "user_id" : "21982203",
        "recipes_count" : 0,
        "pc" : 0,
        "userid" : "21982203",
        "verified" : 2,
        "user_large_photo" : "http:\/\/tx1.douguo.net\/upload\/photo\/1\/4\/b\/yuan_144cbb0aefce23d789da2c2474b17ffb.png",
        "verified_image" : "https:\/\/i1.douguo.com\/upload\/note\/2\/b\/1\/2ba3cf1657cbf92e474d7e0534ce8da1.png",
        "regist_time" : "",
        "progress_image" : "",
        "following_count" : 0,
        "location" : 0,
        "birthday" : "",
        "user_cover" : "",
        "gender" : 2,
        "user_photo" : "http:\/\/tx1.douguo.net\/upload\/photo\/1\/4\/b\/70_144cbb0aefce23d789da2c2474b17ffb.png",
        "favor_diaries_count" : 0,
        "introduction" : ""
      },
      "cook_difficulty_image" : "https:\/\/i1.douguo.com\/upload\/banner\/1551424390.png",
      "comments_count_text" : "4",
      "hqu" : "recipes:\/\/www.douguo.com\/notedetail?id=21162253",
      "favo_counts" : 135,
      "packages_id" : [

      ],
      "ipoi" : "",
      "mid_mdsp" : [

      ],
      "cookstep" : [
        {
          "position" : 1,
          "frame" : "-1",
          "content" : "将豆腐切成小块，备用；",
          "image_width" : 1500,
          "thumb" : "https:\/\/i1.douguo.com\/upload\/caiku\/5\/c\/4\/140_5cd337fd145004bb6dfd8e206a5f2be4.jpg",
          "image" : "https:\/\/i1.douguo.com\/upload\/caiku\/5\/c\/4\/5cd337fd145004bb6dfd8e206a5f2be4.jpg",
          "image_height" : 1000
        },
        {
          "thumb" : "https:\/\/i1.douguo.com\/upload\/caiku\/1\/1\/4\/140_11de0f0b7ef1d5f13321b07ea778f3b4.jpg",
          "image_height" : 1000,
          "position" : 2,
          "frame" : "-1",
          "image_width" : 1333,
          "content" : "将配菜切好，备用；",
          "image" : "https:\/\/i1.douguo.com\/upload\/caiku\/1\/1\/4\/11de0f0b7ef1d5f13321b07ea778f3b4.jpg"
        },
        {
          "position" : 3,
          "image" : "https:\/\/i1.douguo.com\/upload\/caiku\/a\/a\/1\/aabb7975ab589915929532d967b2a481.jpg",
          "thumb" : "https:\/\/i1.douguo.com\/upload\/caiku\/a\/a\/1\/140_aabb7975ab589915929532d967b2a481.jpg",
          "image_width" : 1321,
          "content" : "修剪虾的尖刺，去掉虾线，备用；",
          "image_height" : 1000,
          "frame" : "-1"
        },
        {
          "image_height" : 1000,
          "position" : 4,
          "image" : "https:\/\/i1.douguo.com\/upload\/caiku\/7\/f\/6\/7f7cfdfb46f1286c8a1551611697e046.jpg",
          "thumb" : "https:\/\/i1.douguo.com\/upload\/caiku\/7\/f\/6\/140_7f7cfdfb46f1286c8a1551611697e046.jpg",
          "content" : "用小火加热陶瓷煲，倒入适量的葵花籽油；",
          "image_width" : 1333,
          "frame" : "-1"
        },
        {
          "image" : "https:\/\/i1.douguo.com\/upload\/caiku\/5\/9\/2\/599d522443a74e4effe6655e086b41b2.jpg",
          "position" : 5,
          "image_width" : 1333,
          "thumb" : "https:\/\/i1.douguo.com\/upload\/caiku\/5\/9\/2\/140_599d522443a74e4effe6655e086b41b2.jpg",
          "content" : "下入豆腐，小火慢煎；",
          "frame" : "-1",
          "image_height" : 1000
        },
        {
          "thumb" : "https:\/\/i1.douguo.com\/upload\/caiku\/8\/8\/d\/140_88a4b14e41fd5cfc1fc820f06553a4fd.jpg",
          "frame" : "-1",
          "image_height" : 1000,
          "content" : "放入葱、姜、蒜和辣椒，炒香；",
          "image_width" : 1500,
          "image" : "https:\/\/i1.douguo.com\/upload\/caiku\/8\/8\/d\/88a4b14e41fd5cfc1fc820f06553a4fd.jpg",
          "position" : 6
        },
        {
          "image" : "https:\/\/i1.douguo.com\/upload\/caiku\/6\/c\/c\/6c828953b198e080cede95b06283c23c.jpg",
          "frame" : "-1",
          "image_height" : 1000,
          "position" : 7,
          "content" : "将虾摆在表面，开中火煮；",
          "thumb" : "https:\/\/i1.douguo.com\/upload\/caiku\/6\/c\/c\/140_6c828953b198e080cede95b06283c23c.jpg",
          "image_width" : 1500
        },
        {
          "thumb" : "https:\/\/i1.douguo.com\/upload\/caiku\/d\/a\/f\/140_dae7635b037d650092898f26510edacf.jpg",
          "image_height" : 1000,
          "frame" : "-1",
          "image" : "https:\/\/i1.douguo.com\/upload\/caiku\/d\/a\/f\/dae7635b037d650092898f26510edacf.jpg",
          "image_width" : 1500,
          "position" : 8,
          "content" : "将料酒、豆瓣酱、生抽和蚝油搅拌均匀，淋在虾上，盖上锅盖，煲10分钟；"
        },
        {
          "position" : 9,
          "content" : "关火，撒上葱花和香菜，即可完成。",
          "image_height" : 1000,
          "thumb" : "https:\/\/i1.douguo.com\/upload\/caiku\/6\/a\/a\/140_6adf0ef6e6c42b73bae269c88a9cff1a.jpg",
          "image" : "https:\/\/i1.douguo.com\/upload\/caiku\/6\/a\/a\/6adf0ef6e6c42b73bae269c88a9cff1a.jpg",
          "frame" : "-1",
          "image_width" : 1500
        }
      ],
      "act_des" : "",
      "vc" : "48118",
      "comments_count" : 4,
      "rrps" : [

      ],
      "recent_comments" : [

      ],
      "top_mdsp" : [

      ],
      "cook_time_image" : "https:\/\/i1.douguo.com\/upload\/banner\/1551424358.png",
      "brand_day_dsp" : [

      ],
      "share_info" : {
        "image" : "https:\/\/cp1.douguo.com\/upload\/caiku\/a\/2\/2\/a24f4260ef76704b1e2c1c96c8096792.jpg",
        "mini_program" : [

        ],
        "object_id" : "3051182",
        "s_d" : "虾煲-会做饭很酷!",
        "name" : "虾煲-会做饭很酷!",
        "s_u" : "http:\/\/m.douguo.com\/cookbook\/3051182.html",
        "qr_image" : "",
        "infos" : [
          {
            "channel" : "1",
            "s_u" : "",
            "mini_program" : [

            ],
            "name" : "虾煲-会做饭很酷!",
            "object_id" : "3051182",
            "image" : "https:\/\/cp1.douguo.com\/upload\/caiku\/a\/2\/2\/a24f4260ef76704b1e2c1c96c8096792.jpg",
            "s_d" : "#学做饭用豆果美食# 会做饭真是太酷了！我在@豆果美食 分享了【虾煲-会做饭很酷!】，这道菜真的神仙美味！喜欢的一定要试试绝对不会错的！～查看图片了解菜谱（快来点击https:\/\/m.weibo.cn\/p\/100404i33631和我一起修炼厨艺吧）",
            "qr_image" : ""
          },
          {
            "channel" : "7",
            "s_d" : "虾煲-会做饭很酷!",
            "image" : "https:\/\/cp1.douguo.com\/upload\/caiku\/a\/2\/2\/a24f4260ef76704b1e2c1c96c8096792.jpg",
            "qr_image" : "",
            "mini_program" : [

            ],
            "object_id" : "3051182",
            "name" : "虾煲-会做饭很酷!",
            "s_u" : "http:\/\/m.douguo.com\/cookbook\/3051182.html"
          },
          {
            "qr_image" : "",
            "object_id" : "3051182",
            "image" : "https:\/\/cp1.douguo.com\/upload\/caiku\/a\/2\/2\/a24f4260ef76704b1e2c1c96c8096792.jpg",
            "mini_program" : [

            ],
            "s_d" : "虾煲-会做饭很酷!",
            "name" : "虾煲-会做饭很酷!",
            "s_u" : "http:\/\/m.douguo.com\/cookbook\/3051182.html",
            "channel" : "8"
          }
        ]
      },
      "hq" : 0,
      "tips" : "1.虾和豆腐都不用煮太长时间；\n2.豆腐放底部可以吸收虾的鲜味。",
      "guide_image" : "",
      "create_time" : "2021-01-11 14:04:10",
      "story_dsp" : [

      ],
      "recommendation_tag" : "",
      "thumb_height" : 0,
      "favo_counts_text" : "135",
      "image" : "http:\/\/i1.douguo.net\/upload\/caiku\/a\/2\/2\/300_a24f4260ef76704b1e2c1c96c8096792.jpg",
      "old_comments" : [

      ],
      "rdsps" : [

      ],
      "rcs" : [

      ],
      "rpid" : 0,
      "rate" : 5,
      "cookstorys" : [
        {
          "color" : "",
          "id" : 0,
          "icon" : "",
          "type" : 0,
          "u" : "",
          "c" : "寒冷的冬天，吃上这样一锅简单快手的虾煲，最惬意不过了。用虾和豆腐这两种简单的食材，保证可以在最短的时间里，做出最美味的豆腐虾煲，赶紧学起来吧，这个冬天不能错过这锅美味的虾煲。"
        }
      ],
      "ph" : 1000,
      "ipurl" : "",
      "recipe_list_tags" : [
        {
          "background_border_color" : "",
          "jump_url" : "",
          "text" : "关注的人",
          "right_image" : "",
          "text_color" : "#141515",
          "background_end_color" : "#F4F5F5",
          "background_start_color" : "#F4F5F5"
        },
        {
          "background_start_color" : "#F4F5F5",
          "right_image" : "",
          "background_end_color" : "#F4F5F5",
          "jump_url" : "",
          "text" : "内容详细",
          "text_color" : "#141515",
          "background_border_color" : ""
        }
      ],
      "sc" : 0,
      "minor" : [

      ],
      "rate_count" : 1,
      "author_photo" : "http:\/\/tx1.douguo.net\/upload\/photo\/1\/4\/b\/70_144cbb0aefce23d789da2c2474b17ffb.png",
      "clicks" : "39350",
      "photo_path" : "https:\/\/i1.douguo.com\/upload\/caiku\/a\/2\/2\/600_a24f4260ef76704b1e2c1c96c8096792.jpg",
      "rate_show" : 0,
      "sr" : "",
      "cook_id" : "3051182",
      "ipit" : 0,
      "title_ad" : [

      ],
      "cookwares" : [

      ],
      "recommend_label" : "1人学做",
      "pw" : 1500,
      "advice" : {
        "has" : [
          {
            "url" : "recipes:\/\/www.douguo.com\/simplerecipelist?t=低脂&id=低脂",
            "t" : "低脂"
          },
          {
            "url" : "recipes:\/\/www.douguo.com\/simplerecipelist?t=低饱和脂肪&id=低饱和脂肪",
            "t" : "低饱和脂肪"
          }
        ],
        "at" : "能有效控制体重～",
        "da" : {
          "url" : "https:\/\/m.douguo.com\/recipe\/nutrient_self\/3051182",
          "iu" : "https:\/\/i1.douguo.com\/upload\/banner\/f\/4\/d\/f48877e53c37759bc12ac494be82ec8d.png",
          "t" : "查看详细分析"
        }
      },
      "author_verified" : 2,
      "rpt" : "",
      "rpst" : "",
      "release_time" : "",
      "ipia" : [

      ],
      "cook_time" : "10分钟左右",
      "first_level_comment_count" : 4,
      "dish_count" : 1,
      "v_u" : "",
      "cook_difficulty" : "切墩(初级)",
      "ss" : [

      ],
      "eu" : "recipes:\/\/www.douguo.com\/postdetail?id=242016",
      "title" : "虾煲",
      "btm_dsp" : [

      ],
      "bs" : [

      ],
      "recipe_tags" : [

      ],
      "vu" : "",
      "dish_count_text" : "1",
      "levelid" : 3,
      "ecs" : 1,
      "recommended" : 0,
      "thumb_path" : "https:\/\/i1.douguo.com\/upload\/caiku\/a\/2\/2\/300_a24f4260ef76704b1e2c1c96c8096792.jpg",
      "major" : [
        {
          "tu" : "https:\/\/m.douguo.com\/ingredients\/明虾\/detailmaterial",
          "title" : "明虾",
          "note" : "400克"
        },
        {
          "note" : "适量",
          "title" : "豆腐",
          "tu" : "https:\/\/m.douguo.com\/ingredients\/豆腐\/detailmaterial"
        },
        {
          "tu" : "https:\/\/m.douguo.com\/ingredients\/蒜头\/detailmaterial",
          "title" : "蒜头",
          "note" : "五瓣"
        },
        {
          "title" : "洋葱",
          "note" : "小半个",
          "tu" : "https:\/\/m.douguo.com\/ingredients\/洋葱\/detailmaterial"
        },
        {
          "title" : "辣椒",
          "note" : "适量",
          "tu" : "https:\/\/m.douguo.com\/ingredients\/辣椒\/detailmaterial"
        },
        {
          "tu" : "https:\/\/m.douguo.com\/ingredients\/豆瓣酱\/detailmaterial",
          "note" : "一勺",
          "title" : "豆瓣酱"
        },
        {
          "note" : "一勺",
          "title" : "生抽",
          "tu" : "https:\/\/m.douguo.com\/ingredients\/生抽\/detailmaterial"
        },
        {
          "note" : "一勺",
          "tu" : "https:\/\/m.douguo.com\/ingredients\/蚝油\/detailmaterial",
          "title" : "蚝油"
        },
        {
          "title" : "料酒",
          "tu" : "https:\/\/m.douguo.com\/ingredients\/料酒\/detailmaterial",
          "note" : "一勺"
        },
        {
          "tu" : "https:\/\/m.douguo.com\/ingredients\/香菜\/detailmaterial",
          "note" : "少许",
          "title" : "香菜"
        },
        {
          "title" : "金龙鱼阳光零反式脂肪葵花籽油",
          "note" : "适量"
        }
      ],
      "rrpt" : "",
      "ssu" : "",
      "related_ads" : [

      ],
      "vfurl" : "",
      "ipt" : "",
      "author_id" : 21982203,
      "purl" : ""
    }
  }
}