{
  "state" : "success",
  "status" : 0,
  "result" : {
    "recipe" : {
      "related_ads" : [

      ],
      "pw" : 600,
      "rpst" : "",
      "brand_day_dsp" : [

      ],
      "vfurl" : "",
      "mid_mdsp" : [

      ],
      "release_time" : "",
      "author_verified" : 1,
      "rpt" : "",
      "eu" : "recipes:\/\/www.douguo.com\/postdetail?id=242016",
      "image" : "http:\/\/i1.douguo.net\/upload\/caiku\/9\/f\/3\/300_9fa173b7f31bbacce87f59f46fcccb63.jpg",
      "cook_id" : "1092758",
      "recommended" : 0,
      "minor" : [
        "{\n    note = 100ML;\n    title = \"\\U5976\\U6cb9\\U971c\\U7528\\U6de1\\U5976\\U6cb9\";\n}",
        "{\n    note = \"100\\U514b\";\n    title = \"\\U9ec4\\U6cb9\";\n    tu = \"https:\/\/https:\/\/m.douguo.com\/ingredients\/\\U9ec4\\U6cb9\/detailmaterial\";\n}",
        "{\n    note = \"35\\U514b\";\n    title = \"\\U70bc\\U4e73\";\n    tu = \"https:\/\/https:\/\/m.douguo.com\/ingredients\/\\U70bc\\U4e73\/detailmaterial\";\n}",
        "{\n    note = \"\\U9002\\U91cf\";\n    title = \"\\U8fdb\\U53e3\\U8272\\U7d20\";\n}"
      ],
      "ipoi" : "",
      "hq" : 1,
      "rpid" : 0,
      "user" : {
        "user_cover" : "",
        "birthday" : "",
        "qq_weibo_nick" : "",
        "point" : 0,
        "verified_url" : "https:\/\/m.douguo.com\/user\/prodesc",
        "progress_image" : "",
        "qzone_nick" : "",
        "is_prime" : 0,
        "mobile" : "",
        "setted_email" : 0,
        "user_large_photo" : "http:\/\/tx1.douguo.net\/upload\/photo\/a\/f\/8\/yuan_u2992256340185311041446.jpg",
        "recipes_count" : 0,
        "following_count" : 0,
        "verified" : 1,
        "favor_diaries_count" : 0,
        "userid" : "749648",
        "sign" : "",
        "regist_time" : "",
        "diaries_count" : 0,
        "gender" : 2,
        "coursecount" : 0,
        "subscription_article_count" : 0,
        "email" : "",
        "lv" : 0,
        "followers_count" : 0,
        "fc" : 0,
        "avatar_medium" : "http:\/\/tx1.douguo.net\/upload\/photo\/a\/f\/8\/140_u2992256340185311041446.jpg",
        "dishes_count" : 0,
        "weibo_nick" : "",
        "pc" : 0,
        "favorites_count" : 0,
        "user_id" : "749648",
        "age" : "",
        "introduction" : "",
        "location" : 0,
        "lvl" : 4,
        "verified_image" : "https:\/\/i1.douguo.com\/upload\/note\/d\/a\/a\/da84247847aebe48d9dd0fcdac88862a.png",
        "user_photo" : "http:\/\/tx1.douguo.net\/upload\/photo\/a\/f\/8\/70_u2992256340185311041446.jpg",
        "subscription" : 0,
        "nick" : "如莲静心rl"
      },
      "packages_id" : [

      ],
      "rdsps" : [

      ],
      "cookstorys" : [
        {
          "c" : "今天是小寒了，也是24节气中倒数第二个节气。隆冬\"三九\"基本处于小寒节气内，故有\"小寒胜大寒\"之说，是一年中最冷的节气 ，寒潮来袭，申城今天比昨天降温10度，朋友们注意保暖。\n小寒到，腊梅开，“墙角数枝梅， 凌寒独自开。 遥知不足雪 ，为有暗香来。”一直很喜欢梅花，更喜欢她不惧风雪 坚贞不屈的精神，这次的蛋糕试着画了梅花，微风后，花瓣轻轻飘落……\n很多朋友看了我的童趣餐和蛋糕，留言问我是不是学画画的，真是很惭愧，我没学过画画，也不会画画，真的，只是凭感觉在做，脑子里怎么构思的就怎么画，只要心中有爱，你也能做到，相信自己！",
          "icon" : "",
          "type" : 0,
          "u" : "",
          "color" : "",
          "id" : 0
        }
      ],
      "ipia" : [

      ],
      "rate" : 5,
      "event" : {
        "id" : 0
      },
      "rrps" : [

      ],
      "cook_difficulty" : "",
      "ipit" : 0,
      "act_des" : "",
      "rate_count" : 1,
      "ssu" : "",
      "create_time" : "2015-01-06 11:12:09",
      "photo_path" : "https:\/\/i1.douguo.com\/upload\/caiku\/9\/f\/3\/600_9fa173b7f31bbacce87f59f46fcccb63.jpg",
      "rcs" : [

      ],
      "dish_count_text" : "8",
      "views_count_text" : "3.7万",
      "hqu" : "recipes:\/\/www.douguo.com\/notedetail?id=21162253",
      "favo_counts" : 980,
      "cookwares" : [

      ],
      "author_photo" : "http:\/\/tx1.douguo.net\/upload\/photo\/a\/f\/8\/70_u2992256340185311041446.jpg",
      "author" : "如莲静心rl",
      "thumb_path" : "https:\/\/i1.douguo.com\/upload\/caiku\/9\/f\/3\/300_9fa173b7f31bbacce87f59f46fcccb63.jpg",
      "story_dsp" : [

      ],
      "display_ingredient" : 1,
      "sc" : 0,
      "dishes" : [

      ],
      "tips" : "最近喜欢用奶油霜装饰蛋糕，因为奶油霜比奶油更容易成型。喜欢的朋友可以试试。",
      "recommendation_tag" : "",
      "rsm" : "该功能暂停使用",
      "title_ad" : [

      ],
      "recent_comments" : [

      ],
      "recommend_label" : "8人学做",
      "cook_time" : "",
      "favo_counts_text" : "980",
      "share_info" : {
        "qr_image" : "",
        "image" : "https:\/\/cp1.douguo.com\/upload\/caiku\/9\/f\/3\/9fa173b7f31bbacce87f59f46fcccb63.jpg",
        "s_d" : "梅花奶油霜蛋糕#松下烘焙魔法学院#-会做饭很酷!",
        "mini_program" : [

        ],
        "s_u" : "http:\/\/m.douguo.com\/cookbook\/1092758.html",
        "name" : "梅花奶油霜蛋糕#松下烘焙魔法学院#-会做饭很酷!",
        "object_id" : "1092758",
        "infos" : [
          {
            "s_u" : "",
            "qr_image" : "",
            "name" : "梅花奶油霜蛋糕#松下烘焙魔法学院#-会做饭很酷!",
            "image" : "https:\/\/cp1.douguo.com\/upload\/caiku\/9\/f\/3\/9fa173b7f31bbacce87f59f46fcccb63.jpg",
            "s_d" : "#学做饭用豆果美食# 我在@豆果美食 分享了【梅花奶油霜蛋糕#松下烘焙魔法学院#-会做饭很酷!】，哟，集美们～你看这是神仙美味～快跟着我做一份，做一份！查看图片了解菜谱（更多美食秘籍点击https:\/\/m.weibo.cn\/p\/100404i33631获取）#会做饭很酷# ",
            "channel" : "1",
            "object_id" : "1092758",
            "mini_program" : [

            ]
          },
          {
            "mini_program" : [

            ],
            "object_id" : "1092758",
            "s_d" : "梅花奶油霜蛋糕#松下烘焙魔法学院#-会做饭很酷!",
            "s_u" : "http:\/\/m.douguo.com\/cookbook\/1092758.html",
            "image" : "https:\/\/cp1.douguo.com\/upload\/caiku\/9\/f\/3\/9fa173b7f31bbacce87f59f46fcccb63.jpg",
            "qr_image" : "",
            "channel" : "7",
            "name" : "梅花奶油霜蛋糕#松下烘焙魔法学院#-会做饭很酷!"
          },
          {
            "channel" : "8",
            "name" : "梅花奶油霜蛋糕#松下烘焙魔法学院#-会做饭很酷!",
            "image" : "https:\/\/cp1.douguo.com\/upload\/caiku\/9\/f\/3\/9fa173b7f31bbacce87f59f46fcccb63.jpg",
            "mini_program" : [

            ],
            "s_u" : "http:\/\/m.douguo.com\/cookbook\/1092758.html",
            "s_d" : "梅花奶油霜蛋糕#松下烘焙魔法学院#-会做饭很酷!",
            "object_id" : "1092758",
            "qr_image" : ""
          }
        ]
      },
      "ipurl" : "",
      "top_mdsp" : [

      ],
      "notes" : [

      ],
      "cookstory" : "今天是小寒了，也是24节气中倒数第二个节气。隆冬\"三九\"基本处于小寒节气内，故有\"小寒胜大寒\"之说，是一年中最冷的节气 ，寒潮来袭，申城今天比昨天降温10度，朋友们注意保暖。\n小寒到，腊梅开，“墙角数枝梅， 凌寒独自开。 遥知不足雪 ，为有暗香来。”一直很喜欢梅花，更喜欢她不惧风雪 坚贞不屈的精神，这次的蛋糕试着画了梅花，微风后，花瓣轻轻飘落……\n很多朋友看了我的童趣餐和蛋糕，留言问我是不是学画画的，真是很惭愧，我没学过画画，也不会画画，真的，只是凭感觉在做，脑子里怎么构思的就怎么画，只要心中有爱，你也能做到，相信自己！",
      "comments_count" : 17,
      "collect_status" : 0,
      "recipe_tags" : [

      ],
      "title" : "梅花奶油霜蛋糕",
      "vc" : "36753",
      "rewarded_video_dsp" : [

      ],
      "bs" : [

      ],
      "major" : [
        {
          "note" : "5个",
          "title" : "8寸戚风鸡蛋"
        },
        {
          "tu" : "https:\/\/m.douguo.com\/ingredients\/低粉\/detailmaterial",
          "title" : "低粉",
          "note" : "95克"
        },
        {
          "title" : "玉米淀粉",
          "tu" : "https:\/\/m.douguo.com\/ingredients\/玉米淀粉\/detailmaterial",
          "note" : "8克"
        },
        {
          "note" : "60克",
          "tu" : "https:\/\/m.douguo.com\/ingredients\/色拉油\/detailmaterial",
          "title" : "色拉油"
        },
        {
          "tu" : "https:\/\/m.douguo.com\/ingredients\/牛奶\/detailmaterial",
          "note" : "40克",
          "title" : "牛奶"
        },
        {
          "note" : "90克",
          "tu" : "https:\/\/m.douguo.com\/ingredients\/细砂糖\/detailmaterial",
          "title" : "细砂糖"
        },
        {
          "title" : "淡奶油",
          "note" : "200ML",
          "tu" : "https:\/\/m.douguo.com\/ingredients\/淡奶油\/detailmaterial"
        },
        {
          "title" : "芒果",
          "note" : "1个",
          "tu" : "https:\/\/m.douguo.com\/ingredients\/芒果\/detailmaterial"
        },
        {
          "note" : "10克",
          "tu" : "https:\/\/m.douguo.com\/ingredients\/糖粉\/detailmaterial",
          "title" : "糖粉"
        }
      ],
      "comments_count_text" : "17",
      "cook_difficulty_image" : "",
      "ph" : 482,
      "levelid" : 2,
      "rips" : 0,
      "dish_count" : 8,
      "rate_show" : 0,
      "author_id" : 749648,
      "purl" : "",
      "recipe_list_tags" : [
        {
          "background_end_color" : "#F4F5F5",
          "text_color" : "#141515",
          "right_image" : "",
          "background_border_color" : "",
          "jump_url" : "",
          "text" : "关注的人",
          "background_start_color" : "#F4F5F5"
        },
        {
          "jump_url" : "",
          "background_start_color" : "#F4F5F5",
          "text" : "内容详细",
          "background_end_color" : "#F4F5F5",
          "background_border_color" : "",
          "text_color" : "#141515",
          "right_image" : ""
        }
      ],
      "ipci" : "",
      "v_u" : "",
      "ss" : [

      ],
      "cookstep" : [
        {
          "position" : 1,
          "image" : "https:\/\/i1.douguo.com\/upload\/caiku\/3\/e\/1\/3ec9055e2e3f4a8e83eaf19f6661af11.jpg",
          "frame" : "-1",
          "image_width" : 1200,
          "thumb" : "https:\/\/i1.douguo.com\/upload\/caiku\/3\/e\/1\/140_3ec9055e2e3f4a8e83eaf19f6661af11.jpg",
          "image_height" : 900,
          "content" : "把蛋白蛋黄分开。在蛋白里加入几滴柠檬汁。"
        },
        {
          "image_width" : 1200,
          "position" : 2,
          "image" : "https:\/\/i1.douguo.com\/upload\/caiku\/5\/f\/a\/5f03ced4bd134ede6835f9a868131a8a.jpg",
          "thumb" : "https:\/\/i1.douguo.com\/upload\/caiku\/5\/f\/a\/140_5f03ced4bd134ede6835f9a868131a8a.jpg",
          "image_height" : 900,
          "frame" : "-1",
          "content" : "用电动打蛋器打至呈鱼眼泡状加入1\/3（20克）的细砂糖。"
        },
        {
          "image_width" : 1200,
          "frame" : "-1",
          "thumb" : "https:\/\/i1.douguo.com\/upload\/caiku\/6\/c\/c\/140_6ce4c3035ccf773850125ac3621621ac.jpg",
          "image_height" : 900,
          "position" : 3,
          "image" : "https:\/\/i1.douguo.com\/upload\/caiku\/6\/c\/c\/6ce4c3035ccf773850125ac3621621ac.jpg",
          "content" : "搅打至大泡泡消失，呈比较细腻的状态，再加入20的白砂糖。"
        },
        {
          "position" : 4,
          "content" : "继续搅打至蛋白比较浓稠表面出现纹路时，把最后的20克白砂糖加进去。",
          "image_height" : 900,
          "frame" : "-1",
          "image_width" : 1200,
          "thumb" : "https:\/\/i1.douguo.com\/upload\/caiku\/9\/7\/9\/140_97f8481e4f46b915558b5159d58c33a9.jpg",
          "image" : "https:\/\/i1.douguo.com\/upload\/caiku\/9\/7\/9\/97f8481e4f46b915558b5159d58c33a9.jpg"
        },
        {
          "image_width" : 1200,
          "frame" : "-1",
          "content" : "再继续打一会儿，当提起打蛋器，蛋白能拉出弯曲的尖角的时候，表示已经到了湿性发泡的程度，如果做蛋糕卷，这个程度就可以了。继续撑打至干性泡发，蛋白能拉出一个短小直立的尖角。",
          "image" : "https:\/\/i1.douguo.com\/upload\/caiku\/f\/b\/7\/fb4da86f1e38a13c640e6a6d622052b7.jpg",
          "image_height" : 900,
          "thumb" : "https:\/\/i1.douguo.com\/upload\/caiku\/f\/b\/7\/140_fb4da86f1e38a13c640e6a6d622052b7.jpg",
          "position" : 5
        },
        {
          "frame" : "-1",
          "image_height" : 900,
          "thumb" : "https:\/\/i1.douguo.com\/upload\/caiku\/3\/5\/1\/140_35bbc1350a1503fd7f2d1e7282ef3891.jpg",
          "image" : "https:\/\/i1.douguo.com\/upload\/caiku\/3\/5\/1\/35bbc1350a1503fd7f2d1e7282ef3891.jpg",
          "image_width" : 1200,
          "position" : 6,
          "content" : "在蛋黄里加入30克白砂糖，用手动打蛋器搅拌均匀，直到蛋黄颜色稍稍发白。"
        },
        {
          "content" : "分三次倒入色拉油，每倒一次都充分搅打均匀。",
          "image_height" : 900,
          "position" : 7,
          "image" : "https:\/\/i1.douguo.com\/upload\/caiku\/1\/3\/7\/13ca616b5092a6184fa544711b227d57.jpg",
          "thumb" : "https:\/\/i1.douguo.com\/upload\/caiku\/1\/3\/7\/140_13ca616b5092a6184fa544711b227d57.jpg",
          "image_width" : 1200,
          "frame" : "-1"
        },
        {
          "image_height" : 900,
          "position" : 8,
          "image" : "https:\/\/i1.douguo.com\/upload\/caiku\/0\/a\/9\/0aa295f10663c04bb5651c452d995039.jpg",
          "frame" : "-1",
          "content" : "再分三次加入牛奶，第次加入都充分搅打均匀。",
          "image_width" : 1200,
          "thumb" : "https:\/\/i1.douguo.com\/upload\/caiku\/0\/a\/9\/140_0aa295f10663c04bb5651c452d995039.jpg"
        },
        {
          "thumb" : "https:\/\/i1.douguo.com\/upload\/caiku\/d\/2\/4\/140_d2519e8a7880a4536fd852fb9dadcee4.jpg",
          "image_height" : 900,
          "frame" : "-1",
          "image_width" : 1200,
          "position" : 9,
          "content" : "把低筋面粉过筛两、三遍，",
          "image" : "https:\/\/i1.douguo.com\/upload\/caiku\/d\/2\/4\/d2519e8a7880a4536fd852fb9dadcee4.jpg"
        },
        {
          "image_width" : 1200,
          "image_height" : 900,
          "position" : 10,
          "thumb" : "https:\/\/i1.douguo.com\/upload\/caiku\/f\/d\/7\/140_fddda539552d1c50761e1141a876b0e7.jpg",
          "frame" : "-1",
          "image" : "https:\/\/i1.douguo.com\/upload\/caiku\/f\/d\/7\/fddda539552d1c50761e1141a876b0e7.jpg",
          "content" : "用刮刀上下搅拌至无颗粒状。"
        },
        {
          "content" : "取1\/3的蛋白加入蛋黄糊里，",
          "frame" : "-1",
          "thumb" : "https:\/\/i1.douguo.com\/upload\/caiku\/2\/c\/a\/140_2cd22f48a996433121227e8f3512a1aa.jpg",
          "image_height" : 900,
          "image_width" : 1200,
          "position" : 11,
          "image" : "https:\/\/i1.douguo.com\/upload\/caiku\/2\/c\/a\/2cd22f48a996433121227e8f3512a1aa.jpg"
        },
        {
          "frame" : "-1",
          "image_height" : 900,
          "position" : 12,
          "content" : "轻轻的用刮刀上下搅拌均匀，",
          "image_width" : 1200,
          "image" : "https:\/\/i1.douguo.com\/upload\/caiku\/c\/4\/f\/c432f98ab3ddec729b51271b2f3605ff.jpg",
          "thumb" : "https:\/\/i1.douguo.com\/upload\/caiku\/c\/4\/f\/140_c432f98ab3ddec729b51271b2f3605ff.jpg"
        },
        {
          "image" : "https:\/\/i1.douguo.com\/upload\/caiku\/c\/7\/e\/c7a1a2f2f7e17b01457afd5705b5dc1e.jpg",
          "thumb" : "https:\/\/i1.douguo.com\/upload\/caiku\/c\/7\/e\/140_c7a1a2f2f7e17b01457afd5705b5dc1e.jpg",
          "content" : "倒入蛋白容器里，同样用切、拌的方式拌匀。",
          "frame" : "-1",
          "image_width" : 1200,
          "image_height" : 900,
          "position" : 13
        },
        {
          "frame" : "-1",
          "thumb" : "https:\/\/i1.douguo.com\/upload\/caiku\/6\/3\/0\/140_638aa2eb4922576f5ae8fb471829c350.jpg",
          "position" : 14,
          "image" : "https:\/\/i1.douguo.com\/upload\/caiku\/6\/3\/0\/638aa2eb4922576f5ae8fb471829c350.jpg",
          "image_height" : 900,
          "image_width" : 1200,
          "content" : "直到蛋白和蛋黄糊充分混合。"
        },
        {
          "image_height" : 900,
          "content" : "倒入蛋糕模具里，端起来上下轻轻的震几下，再放在台面上稍用力震几下，再端起来左右晃几下，这样把里面的气泡震消掉，表面看上去比较平整。",
          "image_width" : 1200,
          "position" : 15,
          "thumb" : "https:\/\/i1.douguo.com\/upload\/caiku\/2\/3\/2\/140_238249f56aef61b280ba385bf54ce552.jpg",
          "frame" : "-1",
          "image" : "https:\/\/i1.douguo.com\/upload\/caiku\/2\/3\/2\/238249f56aef61b280ba385bf54ce552.jpg"
        },
        {
          "thumb" : "https:\/\/i1.douguo.com\/upload\/caiku\/6\/a\/d\/140_6acfc094e147c5f0b2e5cb02448b228d.jpg",
          "position" : 16,
          "image_width" : 1200,
          "image_height" : 900,
          "content" : "烤箱预热160度，150度烤30分钟再140度烤25分钟左右。出炉后把模具倒扣在烤网上，凉后脱模即可。",
          "frame" : "-1",
          "image" : "https:\/\/i1.douguo.com\/upload\/caiku\/6\/a\/d\/6acfc094e147c5f0b2e5cb02448b228d.jpg"
        },
        {
          "position" : 17,
          "image_height" : 900,
          "image" : "https:\/\/i1.douguo.com\/upload\/caiku\/8\/1\/a\/81474ff2b345bb116caa3d249be18d3a.jpg",
          "content" : "蛋糕分成两片备用。",
          "image_width" : 1200,
          "thumb" : "https:\/\/i1.douguo.com\/upload\/caiku\/8\/1\/a\/140_81474ff2b345bb116caa3d249be18d3a.jpg",
          "frame" : "-1"
        },
        {
          "thumb" : "https:\/\/i1.douguo.com\/upload\/caiku\/2\/1\/a\/140_216663d9861e961ddeecc904d6aedf2a.jpg",
          "content" : "芒果切成丁。",
          "image_height" : 900,
          "position" : 18,
          "image_width" : 1200,
          "image" : "https:\/\/i1.douguo.com\/upload\/caiku\/2\/1\/a\/216663d9861e961ddeecc904d6aedf2a.jpg",
          "frame" : "-1"
        },
        {
          "content" : "淡奶油加糖粉打发。",
          "position" : 19,
          "image_width" : 1200,
          "thumb" : "https:\/\/i1.douguo.com\/upload\/caiku\/1\/d\/1\/140_1df2e234c427e889aa7329cf293c9641.jpg",
          "frame" : "-1",
          "image_height" : 900,
          "image" : "https:\/\/i1.douguo.com\/upload\/caiku\/1\/d\/1\/1df2e234c427e889aa7329cf293c9641.jpg"
        },
        {
          "image_height" : 900,
          "thumb" : "https:\/\/i1.douguo.com\/upload\/caiku\/b\/3\/c\/140_b364be4421df8e8a9a3720981fcdd9cc.jpg",
          "image_width" : 1200,
          "frame" : "-1",
          "content" : "取一片蛋糕，抹上淡奶油后铺上芒果丁，再抹一层淡奶油。",
          "position" : 20,
          "image" : "https:\/\/i1.douguo.com\/upload\/caiku\/b\/3\/c\/b364be4421df8e8a9a3720981fcdd9cc.jpg"
        },
        {
          "thumb" : "https:\/\/i1.douguo.com\/upload\/caiku\/3\/b\/3\/140_3b43e84e2781d02dd6f20639e6139f23.jpg",
          "content" : "剩下的奶油加蓝色色素后抹平蛋糕。",
          "frame" : "-1",
          "image_height" : 900,
          "image_width" : 1200,
          "position" : 21,
          "image" : "https:\/\/i1.douguo.com\/upload\/caiku\/3\/b\/3\/3b43e84e2781d02dd6f20639e6139f23.jpg"
        },
        {
          "image_width" : 1200,
          "image" : "https:\/\/i1.douguo.com\/upload\/caiku\/3\/c\/9\/3c0dfb3dbe0bd01e8e7e8783530e7029.jpg",
          "content" : "做奶油霜，黄油事先软化好。",
          "image_height" : 900,
          "position" : 22,
          "thumb" : "https:\/\/i1.douguo.com\/upload\/caiku\/3\/c\/9\/140_3c0dfb3dbe0bd01e8e7e8783530e7029.jpg",
          "frame" : "-1"
        },
        {
          "content" : "分次加入淡奶油，每加一次充分打发。",
          "image_width" : 1200,
          "thumb" : "https:\/\/i1.douguo.com\/upload\/caiku\/2\/3\/d\/140_23e19e0461e395198dc289f9c8234bcd.jpg",
          "position" : 23,
          "frame" : "-1",
          "image" : "https:\/\/i1.douguo.com\/upload\/caiku\/2\/3\/d\/23e19e0461e395198dc289f9c8234bcd.jpg",
          "image_height" : 900
        },
        {
          "content" : "加入炼乳搅打均匀。",
          "image_width" : 1200,
          "image" : "https:\/\/i1.douguo.com\/upload\/caiku\/0\/c\/c\/0cc6fd39f4659d37f4674ec12282ab5c.jpg",
          "thumb" : "https:\/\/i1.douguo.com\/upload\/caiku\/0\/c\/c\/140_0cc6fd39f4659d37f4674ec12282ab5c.jpg",
          "position" : 24,
          "image_height" : 900,
          "frame" : "-1"
        },
        {
          "image_width" : 1200,
          "image_height" : 900,
          "thumb" : "https:\/\/i1.douguo.com\/upload\/caiku\/6\/f\/a\/140_6fb7dadd941f9ca9d23eac5e3752200a.jpg",
          "frame" : "-1",
          "image" : "https:\/\/i1.douguo.com\/upload\/caiku\/6\/f\/a\/6fb7dadd941f9ca9d23eac5e3752200a.jpg",
          "position" : 25,
          "content" : "取一部分加入褐色素，装入裱花袋画树枝用。"
        },
        {
          "position" : 26,
          "image_width" : 1200,
          "thumb" : "https:\/\/i1.douguo.com\/upload\/caiku\/f\/e\/c\/140_fe6cca66971b0e71a0245249885c9b5c.jpg",
          "image" : "https:\/\/i1.douguo.com\/upload\/caiku\/f\/e\/c\/fe6cca66971b0e71a0245249885c9b5c.jpg",
          "frame" : "-1",
          "content" : "取一部分加入粉红色素做花朵用。",
          "image_height" : 900
        },
        {
          "image" : "https:\/\/i1.douguo.com\/upload\/caiku\/0\/1\/d\/01380796ab694d194fc850ad569c42fd.jpg",
          "thumb" : "https:\/\/i1.douguo.com\/upload\/caiku\/0\/1\/d\/140_01380796ab694d194fc850ad569c42fd.jpg",
          "image_width" : 1200,
          "frame" : "-1",
          "position" : 27,
          "image_height" : 900,
          "content" : "在蛋糕上先画好树枝，我是先用牙签打底再画上去的，如果你的画功好可以直接画上去。"
        },
        {
          "image_height" : 900,
          "content" : "随意画上些梅花和飘落的花瓣，在树头画上花骨朵。",
          "image" : "https:\/\/i1.douguo.com\/upload\/caiku\/f\/5\/3\/f54f9af2729792609612431029819793.jpg",
          "thumb" : "https:\/\/i1.douguo.com\/upload\/caiku\/f\/5\/3\/140_f54f9af2729792609612431029819793.jpg",
          "frame" : "-1",
          "position" : 28,
          "image_width" : 1200
        },
        {
          "position" : 29,
          "image_width" : 500,
          "thumb" : "https:\/\/i1.douguo.com\/upload\/caiku\/c\/b\/6\/140_cb3d374ae14a20825b016e82567eb946.jpg",
          "image_height" : 752,
          "image" : "https:\/\/i1.douguo.com\/upload\/caiku\/c\/b\/6\/cb3d374ae14a20825b016e82567eb946.jpg",
          "frame" : "-1",
          "content" : "取白色（原色）奶油霜画上中间的花蕊（顺便在家里剩下的两个纸杯小蛋糕上也画上了梅花。）"
        },
        {
          "image_width" : 500,
          "content" : "成品。",
          "thumb" : "https:\/\/i1.douguo.com\/upload\/caiku\/6\/8\/7\/140_688edc24b5c9396b16442171f099f747.jpg",
          "frame" : "-1",
          "image_height" : 601,
          "position" : 30,
          "image" : "https:\/\/i1.douguo.com\/upload\/caiku\/6\/8\/7\/688edc24b5c9396b16442171f099f747.jpg"
        },
        {
          "content" : "成品。",
          "frame" : "-1",
          "position" : 31,
          "image_width" : 600,
          "image" : "https:\/\/i1.douguo.com\/upload\/caiku\/d\/7\/0\/d78fae2ef922055ccd96d428ba87d700.jpg",
          "image_height" : 464,
          "thumb" : "https:\/\/i1.douguo.com\/upload\/caiku\/d\/7\/0\/140_d78fae2ef922055ccd96d428ba87d700.jpg"
        }
      ],
      "cook_time_image" : "",
      "comments" : [
        "{\n    ac = \"#999999\";\n    at = \"\";\n    ccc = 2;\n    \"child_comments\" =     (\n                {\n            ac = \"#999999\";\n            at = \"\";\n            ccc = 0;\n            city = \"\";\n            cmc = 2;\n            content =             (\n                                {\n                    c = \" \\U8c22\\U8c22\\U4eb2\\U7684\\U9f13\\U52b1\\Uff01 \";\n                }\n            );\n            ia = 1;\n            id = 1931675;\n            \"ip_address_location\" = \"\";\n            like = 0;\n            \"like_count\" = 0;\n            \"reply_id\" = 1931632;\n            \"reply_user\" =             {\n                \"followers_count_text\" = \"\";\n                id = 5724284;\n                \"is_prime\" = 0;\n                lv = 0;\n                lvl = 7;\n                n = \"\\U6615\\U54e5\\U5988\\U5988\";\n                p = \"http:\/\/tx1.douguo.net\/upload\/photo\/1\/9\/7\/70_u10495399445831172027.jpeg\";\n                \"progress_image\" = \"\";\n                \"recipes_count_text\" = \"\";\n                relationship = \"-1\";\n                title = \"\";\n                v = 1;\n                \"verified_image\" = \"\";\n            };\n            \"sticker_icon\" =             (\n            );\n            time = \"2015-01-06 11:48:25\";\n            u =             {\n                \"followers_count_text\" = \"\";\n                id = 749648;\n                \"is_prime\" = 0;\n                lv = 0;\n                lvl = 4;\n                n = \"\\U5982\\U83b2\\U9759\\U5fc3rl\";\n                p = \"http:\/\/tx1.douguo.net\/upload\/photo\/a\/f\/8\/70_u2992256340185311041446.jpg\";\n                \"progress_image\" = \"\";\n                \"recipes_count_text\" = \"\";\n                relationship = \"-1\";\n                title = \"\";\n                v = 1;\n                \"verified_image\" = \"\";\n            };\n        },\n                {\n            ac = \"#999999\";\n            at = \"\";\n            ccc = 0;\n            city = \"\";\n            cmc = 2;\n            content =             (\n                                {\n                    c = \"  \\U82b1\\U74e3\\U600e\\U4e48\\U505a\\U7684\\U5440\\Uff1f\\U597d\\U7f8e\";\n                }\n            );\n            ia = 0;\n            id = 2193948;\n            \"ip_address_location\" = \"\";\n            like = 0;\n            \"like_count\" = 0;\n            \"reply_id\" = 1931675;\n            \"reply_user\" =             {\n                \"followers_count_text\" = \"\";\n                id = 749648;\n                \"is_prime\" = 0;\n                lv = 0;\n                lvl = 4;\n                n = \"\\U5982\\U83b2\\U9759\\U5fc3rl\";\n                p = \"http:\/\/tx1.douguo.net\/upload\/photo\/a\/f\/8\/70_u2992256340185311041446.jpg\";\n                \"progress_image\" = \"\";\n                \"recipes_count_text\" = \"\";\n                relationship = \"-1\";\n                title = \"\";\n                v = 1;\n                \"verified_image\" = \"\";\n            };\n            \"sticker_icon\" =             (\n            );\n            time = \"2015-04-19 01:02:18\";\n            u =             {\n                \"followers_count_text\" = \"\";\n                id = 8687323;\n                \"is_prime\" = 0;\n                lv = 0;\n                lvl = 2;\n                n = \"\\U5b9b\\U7075\\U7684\\U7f8e\\U98df\\U53a8\\U623f\";\n                p = \"http:\/\/tx1.douguo.net\/upload\/photo\/b\/0\/5\/70_u27272099421280084348.jpeg\";\n                \"progress_image\" = \"\";\n                \"recipes_count_text\" = \"\";\n                relationship = \"-1\";\n                title = \"\";\n                v = 0;\n                \"verified_image\" = \"\";\n            };\n        }\n    );\n    city = \"\";\n    cmc = 2;\n    content =     (\n                {\n            c = \"\\U771f\\U6f02\\U4eae\\U5440\\Uff01\";\n        }\n    );\n    ia = 0;\n    id = 1931632;\n    \"ip_address_location\" = \"\";\n    like = 0;\n    \"like_count\" = 0;\n    \"reply_id\" = 0;\n    \"sticker_icon\" =     (\n    );\n    time = \"2015-01-06 11:30:46\";\n    u =     {\n        \"followers_count_text\" = \"\";\n        id = 5724284;\n        \"is_prime\" = 0;\n        lv = 0;\n        lvl = 7;\n        n = \"\\U6615\\U54e5\\U5988\\U5988\";\n        p = \"http:\/\/tx1.douguo.net\/upload\/photo\/1\/9\/7\/70_u10495399445831172027.jpeg\";\n        \"progress_image\" = \"\";\n        \"recipes_count_text\" = \"\";\n        relationship = \"-1\";\n        title = \"\";\n        v = 1;\n        \"verified_image\" = \"\";\n    };\n}",
        "{\n    ac = \"#999999\";\n    at = \"\";\n    ccc = 0;\n    \"child_comments\" =     (\n    );\n    city = \"\";\n    cmc = 2;\n    content =     (\n                {\n            c = \"\\U8bf7\\U95ee\\U7528\\U4ec0\\U4e48\\U88f1\\U82b1\\U5634\";\n        }\n    );\n    ia = 0;\n    id = 4289783;\n    \"ip_address_location\" = \"\";\n    like = 0;\n    \"like_count\" = 0;\n    \"reply_id\" = 0;\n    \"sticker_icon\" =     (\n    );\n    time = \"2016-11-23 07:17:06\";\n    u =     {\n        \"followers_count_text\" = \"\";\n        id = 5047663;\n        \"is_prime\" = 0;\n        lv = 0;\n        lvl = 1;\n        n = \"\\U5b89\\U59ae1113\";\n        p = \"http:\/\/tx1.douguo.net\/upload\/photo\/f\/f\/0\/70_u07074198663794121409.jpg\";\n        \"progress_image\" = \"\";\n        \"recipes_count_text\" = \"\";\n        relationship = \"-1\";\n        title = \"\";\n        v = 0;\n        \"verified_image\" = \"\";\n    };\n}",
        "{\n    ac = \"#999999\";\n    at = \"\";\n    ccc = 0;\n    \"child_comments\" =     (\n    );\n    city = \"\";\n    cmc = 2;\n    content =     (\n                {\n            c = \"\\U82b1\\U74e3\\U7528\\U7684\\U51e0\\U53f7\\U82b1\\U5634\\U5440\\Uff1f\";\n        }\n    );\n    ia = 0;\n    id = 3118855;\n    \"ip_address_location\" = \"\";\n    like = 0;\n    \"like_count\" = 0;\n    \"reply_id\" = 0;\n    \"sticker_icon\" =     (\n    );\n    time = \"2016-02-19 03:30:19\";\n    u =     {\n        \"followers_count_text\" = \"\";\n        id = 16611801;\n        \"is_prime\" = 0;\n        lv = 0;\n        lvl = 1;\n        n = \"\\U8c46\\U7c89852582\";\n        p = \"\";\n        \"progress_image\" = \"\";\n        \"recipes_count_text\" = \"\";\n        relationship = \"-1\";\n        title = \"\";\n        v = 0;\n        \"verified_image\" = \"\";\n    };\n}"
      ],
      "ecs" : 0,
      "vu" : "",
      "tags" : [
        "{\n    text = \"\\U70d8\\U7119\";\n}",
        "{\n    text = \"\\U5976\\U6cb9\\U86cb\\U7cd5\";\n}",
        "{\n    text = \"\\U70e4\\U7bb1\\U98df\\U8c31\";\n}",
        "{\n    text = \"\\U70e4\";\n}",
        "{\n    text = \"\\U751c\";\n}"
      ],
      "first_level_comment_count" : 15,
      "thumb_height" : 0,
      "guide_image" : "",
      "old_comments" : [

      ],
      "btm_dsp" : [

      ],
      "su" : "",
      "rrpt" : "",
      "sr" : "",
      "clicks" : "34590",
      "ipt" : "",
      "advice" : {
        "da" : {
          "url" : "https:\/\/m.douguo.com\/recipe\/nutrient_self\/1092758",
          "iu" : "https:\/\/i1.douguo.com\/upload\/banner\/f\/4\/d\/f48877e53c37759bc12ac494be82ec8d.png",
          "t" : "查看详细分析"
        },
        "at" : "不控制会变胖啊！！～",
        "has" : [
          {
            "t" : "高脂肪",
            "url" : "recipes:\/\/www.douguo.com\/simplerecipelist?t=高脂肪&id=高脂肪"
          }
        ]
      },
      "original_photo_path" : "http:\/\/i1.douguo.net\/upload\/caiku\/9\/f\/3\/yuan_9fa173b7f31bbacce87f59f46fcccb63.jpg"
    }
  }
}