{
  "state" : "success",
  "result" : {
    "recipe" : {
      "rpid" : 0,
      "original_photo_path" : "http:\/\/i1.douguo.net\/upload\/caiku\/9\/2\/c\/yuan_9245772bfa52a138921723f561c8bf8c.jpg",
      "old_comments" : [

      ],
      "eu" : "recipes:\/\/www.douguo.com\/postdetail?id=242016",
      "rpst" : "",
      "sr" : "",
      "rcs" : [

      ],
      "comments_count_text" : "27",
      "mid_mdsp" : [

      ],
      "create_time" : "2019-09-13 16:46:51",
      "recipe_tags" : [

      ],
      "recommend_label" : "4578人刚刚收藏过",
      "purl" : "",
      "hqu" : "recipes:\/\/www.douguo.com\/notedetail?id=21162253",
      "ss" : [

      ],
      "rrps" : [

      ],
      "rate_show" : 0,
      "recipe_list_tags" : [
        {
          "background_start_color" : "#F4F5F5",
          "text" : "关注的人",
          "background_end_color" : "#F4F5F5",
          "jump_url" : "",
          "right_image" : "",
          "text_color" : "#141515",
          "background_border_color" : ""
        },
        {
          "background_border_color" : "",
          "text_color" : "#141515",
          "right_image" : "",
          "jump_url" : "",
          "background_end_color" : "#F4F5F5",
          "text" : "内容详细",
          "background_start_color" : "#F4F5F5"
        }
      ],
      "levelid" : 2,
      "btm_dsp" : [

      ],
      "top_mdsp" : [

      ],
      "guide_image" : "",
      "user" : {
        "user_photo" : "http:\/\/tx1.douguo.net\/upload\/photo\/a\/4\/9\/70_u34809701743418181640.jpg",
        "age" : "",
        "location" : 0,
        "favorites_count" : 0,
        "qzone_nick" : "",
        "avatar_medium" : "http:\/\/tx1.douguo.net\/upload\/photo\/a\/4\/9\/140_u34809701743418181640.jpg",
        "qq_weibo_nick" : "",
        "mobile" : "",
        "regist_time" : "",
        "email" : "",
        "userid" : "9960547",
        "user_large_photo" : "http:\/\/tx1.douguo.net\/upload\/photo\/a\/4\/9\/yuan_u34809701743418181640.jpg",
        "introduction" : "",
        "coursecount" : 0,
        "verified" : 0,
        "fc" : 0,
        "sign" : "",
        "nick" : "牟牟640",
        "is_prime" : 0,
        "pc" : 0,
        "subscription_article_count" : 0,
        "recipes_count" : 0,
        "diaries_count" : 0,
        "setted_email" : 0,
        "progress_image" : "",
        "user_cover" : "",
        "gender" : 1,
        "verified_url" : "https:\/\/m.douguo.com\/user\/prodesc",
        "point" : 0,
        "subscription" : 0,
        "weibo_nick" : "",
        "user_id" : "9960547",
        "lvl" : 6,
        "favor_diaries_count" : 0,
        "lv" : 0,
        "following_count" : 0,
        "dishes_count" : 0,
        "verified_image" : "",
        "birthday" : "",
        "followers_count" : 0
      },
      "comments" : [
        "{\n    ac = \"#999999\";\n    at = \"\\U5357\\U4eac\\U5e02\";\n    ccc = 3;\n    \"child_comments\" =     (\n                {\n            ac = \"#999999\";\n            at = \"\\U6606\\U660e\\U5e02\";\n            ccc = 0;\n            city = \"\\U6606\\U660e\\U5e02\";\n            cmc = 2;\n            content =             (\n                                {\n                    c = \" \\U5473\\U9053\\U6709\\U70b9\\U602a\\U54e6\\Uff01\\Ud83d\\Ude00\";\n                }\n            );\n            ia = 1;\n            id = 7099006;\n            \"ip_address_location\" = \"\";\n            like = 0;\n            \"like_count\" = 0;\n            \"reply_id\" = 7094013;\n            \"reply_user\" =             {\n                \"followers_count_text\" = \"\";\n                id = 23839678;\n                \"is_prime\" = 0;\n                lv = 0;\n                lvl = 2;\n                n = \"\\U80a5\\U4e5d\\U5a46\";\n                p = \"http:\/\/tx1.douguo.net\/upload\/photo\/e\/7\/7\/70_u58253754939056184150.jpg\";\n                \"progress_image\" = \"\";\n                \"recipes_count_text\" = \"\";\n                relationship = \"-1\";\n                title = \"\";\n                v = 0;\n                \"verified_image\" = \"\";\n            };\n            \"sticker_icon\" =             (\n            );\n            time = \"2019-09-24 11:52:38\";\n            u =             {\n                \"followers_count_text\" = \"\";\n                id = 9960547;\n                \"is_prime\" = 0;\n                lv = 0;\n                lvl = 6;\n                n = \"\\U725f\\U725f640\";\n                p = \"http:\/\/tx1.douguo.net\/upload\/photo\/a\/4\/9\/70_u34809701743418181640.jpg\";\n                \"progress_image\" = \"\";\n                \"recipes_count_text\" = \"\";\n                relationship = \"-1\";\n                title = \"\";\n                v = 0;\n                \"verified_image\" = \"\";\n            };\n        },\n                {\n            ac = \"#999999\";\n            at = \"\\U5357\\U4eac\\U5e02\";\n            ccc = 0;\n            city = \"\\U5357\\U4eac\\U5e02\";\n            cmc = 2;\n            content =             (\n                                {\n                    c = \" \\U6ca1\\U5173\\U7cfb\\Uff0c\\U5c1d\\U8bd5\\U4e00\\U4e0b\\U3002\";\n                }\n            );\n            ia = 0;\n            id = 7101319;\n            \"ip_address_location\" = \"\";\n            like = 0;\n            \"like_count\" = 0;\n            \"reply_id\" = 7099006;\n            \"reply_user\" =             {\n                \"followers_count_text\" = \"\";\n                id = 9960547;\n                \"is_prime\" = 0;\n                lv = 0;\n                lvl = 6;\n                n = \"\\U725f\\U725f640\";\n                p = \"http:\/\/tx1.douguo.net\/upload\/photo\/a\/4\/9\/70_u34809701743418181640.jpg\";\n                \"progress_image\" = \"\";\n                \"recipes_count_text\" = \"\";\n                relationship = \"-1\";\n                title = \"\";\n                v = 0;\n                \"verified_image\" = \"\";\n            };\n            \"sticker_icon\" =             (\n            );\n            time = \"2019-09-24 21:13:32\";\n            u =             {\n                \"followers_count_text\" = \"\";\n                id = 23839678;\n                \"is_prime\" = 0;\n                lv = 0;\n                lvl = 2;\n                n = \"\\U80a5\\U4e5d\\U5a46\";\n                p = \"http:\/\/tx1.douguo.net\/upload\/photo\/e\/7\/7\/70_u58253754939056184150.jpg\";\n                \"progress_image\" = \"\";\n                \"recipes_count_text\" = \"\";\n                relationship = \"-1\";\n                title = \"\";\n                v = 0;\n                \"verified_image\" = \"\";\n            };\n        }\n    );\n    city = \"\\U5357\\U4eac\\U5e02\";\n    cmc = 2;\n    content =     (\n                {\n            c = \"\\U4e70\\U725b\\U8089\\U505a\\U8d77\\U6765\";\n        }\n    );\n    ia = 0;\n    id = 7094013;\n    \"ip_address_location\" = \"\";\n    like = 0;\n    \"like_count\" = 0;\n    \"reply_id\" = 0;\n    \"sticker_icon\" =     (\n    );\n    time = \"2019-09-23 00:06:50\";\n    u =     {\n        \"followers_count_text\" = \"\";\n        id = 23839678;\n        \"is_prime\" = 0;\n        lv = 0;\n        lvl = 2;\n        n = \"\\U80a5\\U4e5d\\U5a46\";\n        p = \"http:\/\/tx1.douguo.net\/upload\/photo\/e\/7\/7\/70_u58253754939056184150.jpg\";\n        \"progress_image\" = \"\";\n        \"recipes_count_text\" = \"\";\n        relationship = \"-1\";\n        title = \"\";\n        v = 0;\n        \"verified_image\" = \"\";\n    };\n}",
        "{\n    ac = \"#999999\";\n    at = \"\";\n    ccc = 1;\n    \"child_comments\" =     (\n                {\n            ac = \"#999999\";\n            at = \"\\U6606\\U660e\\U5e02\";\n            ccc = 0;\n            city = \"\\U6606\\U660e\\U5e02\";\n            cmc = 2;\n            content =             (\n                                {\n                    c = \" \\U52a8\\U624b\\U505a\\U8d77\\U6765\\Uff01\";\n                }\n            );\n            ia = 1;\n            id = 7055971;\n            \"ip_address_location\" = \"\";\n            like = 0;\n            \"like_count\" = 0;\n            \"reply_id\" = 7053594;\n            \"reply_user\" =             {\n                \"followers_count_text\" = \"\";\n                id = 18445450;\n                \"is_prime\" = 0;\n                lv = 0;\n                lvl = 4;\n                n = Helen88;\n                p = \"http:\/\/tx1.douguo.net\/upload\/photo\/6\/4\/b\/70_u60023998815317082639.jpg\";\n                \"progress_image\" = \"\";\n                \"recipes_count_text\" = \"\";\n                relationship = \"-1\";\n                title = \"\";\n                v = 0;\n                \"verified_image\" = \"\";\n            };\n            \"sticker_icon\" =             (\n            );\n            time = \"2019-09-14 16:50:12\";\n            u =             {\n                \"followers_count_text\" = \"\";\n                id = 9960547;\n                \"is_prime\" = 0;\n                lv = 0;\n                lvl = 6;\n                n = \"\\U725f\\U725f640\";\n                p = \"http:\/\/tx1.douguo.net\/upload\/photo\/a\/4\/9\/70_u34809701743418181640.jpg\";\n                \"progress_image\" = \"\";\n                \"recipes_count_text\" = \"\";\n                relationship = \"-1\";\n                title = \"\";\n                v = 0;\n                \"verified_image\" = \"\";\n            };\n        }\n    );\n    city = \"\";\n    cmc = 2;\n    content =     (\n                {\n            c = \"\\U770b\\U7740\\U989c\\U8272\\U597d\\U68d2~\\U60f3\\U5403~ \";\n        }\n    );\n    ia = 0;\n    id = 7053594;\n    \"ip_address_location\" = \"\";\n    like = 0;\n    \"like_count\" = 0;\n    \"reply_id\" = 0;\n    \"sticker_icon\" =     (\n    );\n    time = \"2019-09-13 20:13:23\";\n    u =     {\n        \"followers_count_text\" = \"\";\n        id = 18445450;\n        \"is_prime\" = 0;\n        lv = 0;\n        lvl = 4;\n        n = Helen88;\n        p = \"http:\/\/tx1.douguo.net\/upload\/photo\/6\/4\/b\/70_u60023998815317082639.jpg\";\n        \"progress_image\" = \"\";\n        \"recipes_count_text\" = \"\";\n        relationship = \"-1\";\n        title = \"\";\n        v = 0;\n        \"verified_image\" = \"\";\n    };\n}",
        "{\n    ac = \"#999999\";\n    at = \"\";\n    ccc = 1;\n    \"child_comments\" =     (\n                {\n            ac = \"#999999\";\n            at = \"\\U6606\\U660e\\U5e02\";\n            ccc = 0;\n            city = \"\\U6606\\U660e\\U5e02\";\n            cmc = 2;\n            content =             (\n                                {\n                    c = \" \\Ud83d\\Ude00\\Ud83d\\Ude00\\Ud83d\\Ude00\";\n                }\n            );\n            ia = 1;\n            id = 7055972;\n            \"ip_address_location\" = \"\";\n            like = 0;\n            \"like_count\" = 0;\n            \"reply_id\" = 7053591;\n            \"reply_user\" =             {\n                \"followers_count_text\" = \"\";\n                id = 18484724;\n                \"is_prime\" = 0;\n                lv = 0;\n                lvl = 1;\n                n = \"\\U94ae\\U94b4\\U7984*\\U7f8e\\U513f\";\n                p = \"http:\/\/tx1.douguo.net\/upload\/photo\/7\/a\/8\/70_u07383386710053114951.jpg\";\n                \"progress_image\" = \"\";\n                \"recipes_count_text\" = \"\";\n                relationship = \"-1\";\n                title = \"\";\n                v = 0;\n                \"verified_image\" = \"\";\n            };\n            \"sticker_icon\" =             (\n            );\n            time = \"2019-09-14 16:50:20\";\n            u =             {\n                \"followers_count_text\" = \"\";\n                id = 9960547;\n                \"is_prime\" = 0;\n                lv = 0;\n                lvl = 6;\n                n = \"\\U725f\\U725f640\";\n                p = \"http:\/\/tx1.douguo.net\/upload\/photo\/a\/4\/9\/70_u34809701743418181640.jpg\";\n                \"progress_image\" = \"\";\n                \"recipes_count_text\" = \"\";\n                relationship = \"-1\";\n                title = \"\";\n                v = 0;\n                \"verified_image\" = \"\";\n            };\n        }\n    );\n    city = \"\";\n    cmc = 2;\n    content =     (\n                {\n            c = \"\\U6765\\U55bd\\Uff0c\\U4e24\\U4e2a\\U6328\\U7740\";\n        }\n    );\n    ia = 0;\n    id = 7053591;\n    \"ip_address_location\" = \"\";\n    like = 0;\n    \"like_count\" = 0;\n    \"reply_id\" = 0;\n    \"sticker_icon\" =     (\n    );\n    time = \"2019-09-13 20:12:19\";\n    u =     {\n        \"followers_count_text\" = \"\";\n        id = 18484724;\n        \"is_prime\" = 0;\n        lv = 0;\n        lvl = 1;\n        n = \"\\U94ae\\U94b4\\U7984*\\U7f8e\\U513f\";\n        p = \"http:\/\/tx1.douguo.net\/upload\/photo\/7\/a\/8\/70_u07383386710053114951.jpg\";\n        \"progress_image\" = \"\";\n        \"recipes_count_text\" = \"\";\n        relationship = \"-1\";\n        title = \"\";\n        v = 0;\n        \"verified_image\" = \"\";\n    };\n}"
      ],
      "rewarded_video_dsp" : [

      ],
      "story_dsp" : [

      ],
      "ecs" : 1,
      "pw" : 1280,
      "vfurl" : "",
      "ph" : 1035,
      "cookstep" : [
        {
          "image_height" : 1067,
          "thumb" : "https:\/\/i1.douguo.com\/upload\/caiku\/4\/0\/a\/140_40bd89e329105326f416b7dbc8f1b05a.jpg",
          "image" : "https:\/\/i1.douguo.com\/upload\/caiku\/4\/0\/a\/40bd89e329105326f416b7dbc8f1b05a.jpg",
          "image_width" : 800,
          "position" : 1,
          "content" : "牛腩切块",
          "frame" : "-1"
        },
        {
          "frame" : "-1",
          "image" : "https:\/\/i1.douguo.com\/upload\/caiku\/8\/6\/e\/862e99eebbb8173beef987fae90c032e.jpg",
          "image_width" : 800,
          "content" : "洋葱，胡萝卜，青椒切！",
          "thumb" : "https:\/\/i1.douguo.com\/upload\/caiku\/8\/6\/e\/140_862e99eebbb8173beef987fae90c032e.jpg",
          "image_height" : 600,
          "position" : 2
        },
        {
          "position" : 3,
          "image_height" : 1067,
          "frame" : "-1",
          "content" : "放入牛腩，八角，草果，桂皮，丁香，大蒜，香叶",
          "image_width" : 800,
          "image" : "https:\/\/i1.douguo.com\/upload\/caiku\/7\/2\/a\/7217fe1daddf7f137704868f4399989a.jpg",
          "thumb" : "https:\/\/i1.douguo.com\/upload\/caiku\/7\/2\/a\/140_7217fe1daddf7f137704868f4399989a.jpg"
        },
        {
          "thumb" : "https:\/\/i1.douguo.com\/upload\/caiku\/3\/3\/8\/140_330d316af85ea8ab291e7053baa24e48.jpg",
          "image" : "https:\/\/i1.douguo.com\/upload\/caiku\/3\/3\/8\/330d316af85ea8ab291e7053baa24e48.jpg",
          "position" : 4,
          "frame" : "-1",
          "image_height" : 600,
          "image_width" : 800,
          "content" : "一大勺香辣酱，一小勺蜂蜜"
        },
        {
          "image_height" : 1067,
          "position" : 5,
          "thumb" : "https:\/\/i1.douguo.com\/upload\/caiku\/6\/2\/c\/140_62d050b350c342e0532eab945e2a752c.jpg",
          "image_width" : 800,
          "image" : "https:\/\/i1.douguo.com\/upload\/caiku\/6\/2\/c\/62d050b350c342e0532eab945e2a752c.jpg",
          "content" : "倒入啤酒",
          "frame" : "-1"
        },
        {
          "image_height" : 1067,
          "image_width" : 800,
          "image" : "https:\/\/i1.douguo.com\/upload\/caiku\/1\/1\/b\/11207fb4bde89ad5f52c9cbe41e2917b.jpg",
          "position" : 6,
          "content" : "挤入番茄酱",
          "frame" : "-1",
          "thumb" : "https:\/\/i1.douguo.com\/upload\/caiku\/1\/1\/b\/140_11207fb4bde89ad5f52c9cbe41e2917b.jpg"
        },
        {
          "thumb" : "https:\/\/i1.douguo.com\/upload\/caiku\/0\/9\/8\/140_092e4bba6662a466ab64fb7ce95ad2b8.jpg",
          "frame" : "-1",
          "image" : "https:\/\/i1.douguo.com\/upload\/caiku\/0\/9\/8\/092e4bba6662a466ab64fb7ce95ad2b8.jpg",
          "image_height" : 1067,
          "content" : "翻拌一下，腌制4个小时以上，我腌制了一个晚上！",
          "image_width" : 800,
          "position" : 7
        },
        {
          "frame" : "-1",
          "image_height" : 600,
          "image" : "https:\/\/i1.douguo.com\/upload\/caiku\/6\/e\/3\/6ec3dd53b26de5052caee6f1493180b3.jpg",
          "position" : 8,
          "thumb" : "https:\/\/i1.douguo.com\/upload\/caiku\/6\/e\/3\/140_6ec3dd53b26de5052caee6f1493180b3.jpg",
          "image_width" : 800,
          "content" : "经过一夜的腌制，锅入放一点橄榄油，将牛腩一块块捞出，煎至各面焦黄！"
        },
        {
          "thumb" : "https:\/\/i1.douguo.com\/upload\/caiku\/a\/1\/e\/140_a17ca1eb273c475901b4cca8bc52947e.jpg",
          "image" : "https:\/\/i1.douguo.com\/upload\/caiku\/a\/1\/e\/a17ca1eb273c475901b4cca8bc52947e.jpg",
          "content" : "煎的时候加盐，黑胡椒！",
          "frame" : "-1",
          "image_height" : 600,
          "position" : 9,
          "image_width" : 800
        },
        {
          "content" : "再将牛腩倒入汤汁",
          "frame" : "-1",
          "image_height" : 1707,
          "position" : 10,
          "image_width" : 1280,
          "image" : "https:\/\/i1.douguo.com\/upload\/caiku\/2\/0\/1\/208c399e59e807415bab9622ec6f4031.jpg",
          "thumb" : "https:\/\/i1.douguo.com\/upload\/caiku\/2\/0\/1\/140_208c399e59e807415bab9622ec6f4031.jpg"
        },
        {
          "image" : "https:\/\/i1.douguo.com\/upload\/caiku\/7\/5\/6\/759abbc43f0788f5c0be151adac51ec6.jpg",
          "content" : "倒入咖啡",
          "thumb" : "https:\/\/i1.douguo.com\/upload\/caiku\/7\/5\/6\/140_759abbc43f0788f5c0be151adac51ec6.jpg",
          "image_height" : 1067,
          "position" : 11,
          "frame" : "-1",
          "image_width" : 800
        },
        {
          "position" : 12,
          "content" : "再倒入巧克力酱",
          "image_height" : 1067,
          "image_width" : 800,
          "frame" : "-1",
          "thumb" : "https:\/\/i1.douguo.com\/upload\/caiku\/1\/3\/3\/140_13f29d1ec8fca414265ca86a44147963.jpg",
          "image" : "https:\/\/i1.douguo.com\/upload\/caiku\/1\/3\/3\/13f29d1ec8fca414265ca86a44147963.jpg"
        },
        {
          "position" : 13,
          "image_width" : 1280,
          "content" : "煮1个半到2个小时，煮烂，将牛腩捞出摆盘！",
          "frame" : "-1",
          "image_height" : 1707,
          "thumb" : "https:\/\/i1.douguo.com\/upload\/caiku\/a\/c\/b\/140_acd749e7933f62cba7ac764936e8867b.jpg",
          "image" : "https:\/\/i1.douguo.com\/upload\/caiku\/a\/c\/b\/acd749e7933f62cba7ac764936e8867b.jpg"
        },
        {
          "image" : "https:\/\/i1.douguo.com\/upload\/caiku\/1\/a\/b\/1a690caf5888432c7ccd940a06ac6e6b.jpg",
          "position" : 14,
          "image_width" : 800,
          "image_height" : 1067,
          "thumb" : "https:\/\/i1.douguo.com\/upload\/caiku\/1\/a\/b\/140_1a690caf5888432c7ccd940a06ac6e6b.jpg",
          "frame" : "-1",
          "content" : "汤汁中的菜已经煮烂，过滤！"
        },
        {
          "position" : 15,
          "image_width" : 800,
          "image_height" : 1067,
          "thumb" : "https:\/\/i1.douguo.com\/upload\/caiku\/2\/6\/2\/140_2698f1121e57a368157ca5902356a562.jpg",
          "frame" : "-1",
          "image" : "https:\/\/i1.douguo.com\/upload\/caiku\/2\/6\/2\/2698f1121e57a368157ca5902356a562.jpg",
          "content" : "过滤好的汤汁"
        },
        {
          "frame" : "-1",
          "position" : 16,
          "thumb" : "https:\/\/i1.douguo.com\/upload\/caiku\/6\/6\/b\/140_6632dd6a4ffc13d19ed2c9c6ad0641cb.jpg",
          "image_height" : 647,
          "image_width" : 800,
          "content" : "淋在牛腩上！撒上一点白香叶点缀！",
          "image" : "https:\/\/i1.douguo.com\/upload\/caiku\/6\/6\/b\/6632dd6a4ffc13d19ed2c9c6ad0641cb.jpg"
        },
        {
          "image" : "https:\/\/i1.douguo.com\/upload\/caiku\/b\/0\/0\/b0b8f8bf47778c42a37f5e9a1c0e2eb0.jpg",
          "position" : 17,
          "thumb" : "https:\/\/i1.douguo.com\/upload\/caiku\/b\/0\/0\/140_b0b8f8bf47778c42a37f5e9a1c0e2eb0.jpg",
          "frame" : "-1",
          "content" : "咖啡牛肉",
          "image_height" : 600,
          "image_width" : 800
        }
      ],
      "favo_counts" : 4578,
      "rdsps" : [

      ],
      "favo_counts_text" : "4578",
      "recent_comments" : [

      ],
      "title_ad" : [

      ],
      "author_photo" : "http:\/\/tx1.douguo.net\/upload\/photo\/a\/4\/9\/70_u34809701743418181640.jpg",
      "brand_day_dsp" : [

      ],
      "release_time" : "",
      "ipci" : "",
      "act_des" : "",
      "author" : "牟牟640",
      "vc" : "169207",
      "rpt" : "",
      "cook_difficulty_image" : "https:\/\/i1.douguo.com\/upload\/banner\/1551424413.png",
      "ipurl" : "",
      "recommendation_tag" : "",
      "hq" : 1,
      "cook_difficulty" : "配菜(中级)",
      "vu" : "",
      "title" : "咖啡牛肉",
      "cookwares" : [

      ],
      "notes" : [

      ],
      "cook_time" : "",
      "rate_count" : 0,
      "ipt" : "",
      "related_ads" : [

      ],
      "image" : "http:\/\/i1.douguo.net\/upload\/caiku\/9\/2\/c\/300_9245772bfa52a138921723f561c8bf8c.jpg",
      "rips" : 0,
      "comments_count" : 27,
      "collect_status" : 0,
      "tips" : "味道很欧洲，如果不适应可以加点红糖，变成红烧！",
      "author_verified" : 0,
      "advice" : {
        "has" : [
          {
            "t" : "低胆固醇",
            "url" : "recipes:\/\/www.douguo.com\/simplerecipelist?t=低胆固醇&id=低胆固醇"
          },
          {
            "url" : "recipes:\/\/www.douguo.com\/simplerecipelist?t=富含烟酸&id=富含烟酸",
            "t" : "富含烟酸"
          }
        ],
        "da" : {
          "t" : "查看详细分析",
          "url" : "https:\/\/m.douguo.com\/recipe\/nutrient_self\/2341612",
          "iu" : "https:\/\/i1.douguo.com\/upload\/banner\/f\/4\/d\/f48877e53c37759bc12ac494be82ec8d.png"
        },
        "at" : "一道菜对心血管健康～"
      },
      "share_info" : {
        "name" : "咖啡牛肉-会做饭很酷!",
        "qr_image" : "",
        "s_d" : "咖啡牛肉-会做饭很酷!",
        "image" : "https:\/\/cp1.douguo.com\/upload\/caiku\/9\/2\/c\/9245772bfa52a138921723f561c8bf8c.jpg",
        "object_id" : "2341612",
        "infos" : [
          {
            "s_u" : "",
            "object_id" : "2341612",
            "image" : "https:\/\/cp1.douguo.com\/upload\/caiku\/9\/2\/c\/9245772bfa52a138921723f561c8bf8c.jpg",
            "qr_image" : "",
            "name" : "咖啡牛肉-会做饭很酷!",
            "mini_program" : [

            ],
            "s_d" : "#学做饭用豆果美食# 会做饭真是太酷了！我在@豆果美食 分享了【咖啡牛肉-会做饭很酷!】，看着是不是馋到不行呢～快来跟我学学吧！查看图片了解菜谱，（想要获取更多美食就看这https:\/\/m.weibo.cn\/p\/100404i33631）",
            "channel" : "1"
          },
          {
            "name" : "咖啡牛肉-会做饭很酷!",
            "object_id" : "2341612",
            "mini_program" : [

            ],
            "image" : "https:\/\/cp1.douguo.com\/upload\/caiku\/9\/2\/c\/9245772bfa52a138921723f561c8bf8c.jpg",
            "s_u" : "http:\/\/m.douguo.com\/cookbook\/2341612.html",
            "s_d" : "咖啡牛肉-会做饭很酷!",
            "channel" : "7",
            "qr_image" : ""
          },
          {
            "qr_image" : "",
            "s_d" : "咖啡牛肉-会做饭很酷!",
            "name" : "咖啡牛肉-会做饭很酷!",
            "channel" : "8",
            "image" : "https:\/\/cp1.douguo.com\/upload\/caiku\/9\/2\/c\/9245772bfa52a138921723f561c8bf8c.jpg",
            "mini_program" : [

            ],
            "s_u" : "http:\/\/m.douguo.com\/cookbook\/2341612.html",
            "object_id" : "2341612"
          }
        ],
        "mini_program" : [

        ],
        "s_u" : "http:\/\/m.douguo.com\/cookbook\/2341612.html"
      },
      "display_ingredient" : 1,
      "recommended" : 0,
      "dishes" : [

      ],
      "minor" : [

      ],
      "views_count_text" : "16.9万",
      "ssu" : "",
      "ipia" : [

      ],
      "thumb_height" : 0,
      "first_level_comment_count" : 13,
      "thumb_path" : "https:\/\/i1.douguo.com\/upload\/caiku\/9\/2\/c\/300_9245772bfa52a138921723f561c8bf8c.jpg",
      "cookstorys" : [
        {
          "type" : 0,
          "c" : "看到过网上有咖啡牛肉，趁着放假实践一下，味道怎么说呢？很欧洲，感觉不太适合中国胃！不过有特色，最后还是吃完了，主要是肉贵，不能浪费！",
          "id" : 0,
          "color" : "",
          "u" : "",
          "icon" : ""
        }
      ],
      "su" : "",
      "dish_count" : 0,
      "author_id" : 9960547,
      "photo_path" : "https:\/\/i1.douguo.com\/upload\/caiku\/9\/2\/c\/600_9245772bfa52a138921723f561c8bf8c.jpg",
      "v_u" : "",
      "packages_id" : [

      ],
      "clicks" : "164744",
      "bs" : [

      ],
      "dish_count_text" : "",
      "rrpt" : "",
      "cook_time_image" : "",
      "cookstory" : "看到过网上有咖啡牛肉，趁着放假实践一下，味道怎么说呢？很欧洲，感觉不太适合中国胃！不过有特色，最后还是吃完了，主要是肉贵，不能浪费！",
      "ipoi" : "",
      "rsm" : "该功能暂停使用",
      "sc" : 0,
      "ipit" : 0,
      "major" : [
        {
          "title" : "牛腩",
          "tu" : "https:\/\/m.douguo.com\/ingredients\/牛腩\/detailmaterial",
          "note" : "半公斤"
        },
        {
          "note" : "1个",
          "title" : "洋葱",
          "tu" : "https:\/\/m.douguo.com\/ingredients\/洋葱\/detailmaterial"
        },
        {
          "tu" : "https:\/\/m.douguo.com\/ingredients\/胡萝卜\/detailmaterial",
          "title" : "胡萝卜",
          "note" : "1个"
        },
        {
          "note" : "1个",
          "title" : "青辣椒"
        },
        {
          "title" : "盐",
          "note" : "适量",
          "tu" : "https:\/\/m.douguo.com\/ingredients\/盐\/detailmaterial"
        },
        {
          "note" : "1勺",
          "title" : "番茄酱",
          "tu" : "https:\/\/m.douguo.com\/ingredients\/番茄酱\/detailmaterial"
        },
        {
          "note" : "适量",
          "title" : "黑胡椒",
          "tu" : "https:\/\/m.douguo.com\/ingredients\/黑胡椒\/detailmaterial"
        },
        {
          "title" : "咖啡",
          "note" : "250ml"
        },
        {
          "note" : "适量",
          "title" : "巧克力酱"
        },
        {
          "tu" : "https:\/\/m.douguo.com\/ingredients\/啤酒\/detailmaterial",
          "note" : "550ml",
          "title" : "啤酒"
        },
        {
          "title" : "草果",
          "note" : "1个"
        },
        {
          "title" : "八角",
          "note" : "2个",
          "tu" : "https:\/\/m.douguo.com\/ingredients\/八角\/detailmaterial"
        },
        {
          "tu" : "https:\/\/m.douguo.com\/ingredients\/桂皮\/detailmaterial",
          "title" : "桂皮",
          "note" : "一小块"
        },
        {
          "title" : "香叶",
          "tu" : "https:\/\/m.douguo.com\/ingredients\/香叶\/detailmaterial",
          "note" : "2片"
        },
        {
          "tu" : "https:\/\/m.douguo.com\/ingredients\/丁香\/detailmaterial",
          "note" : "5颗",
          "title" : "丁香"
        },
        {
          "note" : "一小勺",
          "tu" : "https:\/\/m.douguo.com\/ingredients\/番茄酱\/detailmaterial",
          "title" : "番茄酱"
        },
        {
          "note" : "一大勺",
          "title" : "香辣酱"
        },
        {
          "tu" : "https:\/\/m.douguo.com\/ingredients\/蜂蜜\/detailmaterial",
          "note" : "一勺",
          "title" : "蜂蜜"
        },
        {
          "note" : "3个",
          "tu" : "https:\/\/m.douguo.com\/ingredients\/大蒜\/detailmaterial",
          "title" : "大蒜"
        },
        {
          "title" : "白香叶",
          "note" : "适量"
        }
      ],
      "tags" : [

      ],
      "cook_id" : "2341612",
      "rate" : 0
    }
  },
  "status" : 0
}