{
  "result" : {
    "recipe" : {
      "related_ads" : [

      ],
      "cook_difficulty" : "切墩(初级)",
      "cookstep" : [
        {
          "image_width" : 1280,
          "image" : "https:\/\/i1.douguo.com\/upload\/caiku\/8\/c\/5\/8c4cf7efc0695c1fbf8a8d31cb9724c5.jpg",
          "image_height" : 960,
          "thumb" : "https:\/\/i1.douguo.com\/upload\/caiku\/8\/c\/5\/140_8c4cf7efc0695c1fbf8a8d31cb9724c5.jpg",
          "content" : "细节图。",
          "position" : 1,
          "frame" : "-1"
        },
        {
          "position" : 2,
          "thumb" : "https:\/\/i1.douguo.com\/upload\/caiku\/3\/f\/a\/140_3f11b0285347853277ffee86bb4ac89a.jpg",
          "content" : "食材合集。",
          "frame" : "-1",
          "image" : "https:\/\/i1.douguo.com\/upload\/caiku\/3\/f\/a\/3f11b0285347853277ffee86bb4ac89a.jpg",
          "image_width" : 1280,
          "image_height" : 960
        },
        {
          "thumb" : "https:\/\/i1.douguo.com\/upload\/caiku\/f\/2\/0\/140_f2cfb7ea78e2c600fbc4244b3e8e7c40.jpg",
          "content" : "切成螺纹状。",
          "image_height" : 959,
          "image" : "https:\/\/i1.douguo.com\/upload\/caiku\/f\/2\/0\/f2cfb7ea78e2c600fbc4244b3e8e7c40.jpg",
          "frame" : "-1",
          "position" : 3,
          "image_width" : 1280
        },
        {
          "image_height" : 960,
          "thumb" : "https:\/\/i1.douguo.com\/upload\/caiku\/a\/b\/8\/140_ab9b76a2a26e81d57055d2fe46dad638.jpg",
          "position" : 4,
          "image_width" : 1280,
          "image" : "https:\/\/i1.douguo.com\/upload\/caiku\/a\/b\/8\/ab9b76a2a26e81d57055d2fe46dad638.jpg",
          "frame" : "-1",
          "content" : "煮10分钟。"
        },
        {
          "position" : 5,
          "image_width" : 1280,
          "content" : "一勺花生酱，加热水勾兑，加入盐及大喜大孜然味烤肉酱。",
          "frame" : "-1",
          "thumb" : "https:\/\/i1.douguo.com\/upload\/caiku\/9\/4\/6\/140_946c2d15810f0a225c202b623a69adf6.jpg",
          "image_height" : 960,
          "image" : "https:\/\/i1.douguo.com\/upload\/caiku\/9\/4\/6\/946c2d15810f0a225c202b623a69adf6.jpg"
        },
        {
          "thumb" : "https:\/\/i1.douguo.com\/upload\/caiku\/b\/d\/a\/140_bd57ade711c589e20a69e1afb721bc1a.jpg",
          "frame" : "-1",
          "image_height" : 960,
          "content" : "加孜然粉辣椒粉，芝麻及一勺热油。",
          "image" : "https:\/\/i1.douguo.com\/upload\/caiku\/b\/d\/a\/bd57ade711c589e20a69e1afb721bc1a.jpg",
          "position" : 6,
          "image_width" : 1280
        },
        {
          "frame" : "-1",
          "image" : "https:\/\/i1.douguo.com\/upload\/caiku\/9\/2\/8\/92924ddaa9834bcdb27a7155a9befd18.jpg",
          "image_height" : 960,
          "position" : 7,
          "image_width" : 1280,
          "thumb" : "https:\/\/i1.douguo.com\/upload\/caiku\/9\/2\/8\/140_92924ddaa9834bcdb27a7155a9befd18.jpg",
          "content" : "涂上酱料。"
        },
        {
          "image_width" : 1280,
          "image_height" : 960,
          "thumb" : "https:\/\/i1.douguo.com\/upload\/caiku\/f\/3\/8\/140_f3a7576eefc026b1f4801a37ed3bbe88.jpg",
          "image" : "https:\/\/i1.douguo.com\/upload\/caiku\/f\/3\/8\/f3a7576eefc026b1f4801a37ed3bbe88.jpg",
          "frame" : "-1",
          "position" : 8,
          "content" : "空气炸锅200度，20分。"
        },
        {
          "position" : 9,
          "image" : "https:\/\/i1.douguo.com\/upload\/caiku\/8\/3\/7\/833ef9ee2757658789f605eee6d33b57.jpg",
          "frame" : "-1",
          "content" : "中途翻一次面。",
          "image_height" : 983,
          "image_width" : 1280,
          "thumb" : "https:\/\/i1.douguo.com\/upload\/caiku\/8\/3\/7\/140_833ef9ee2757658789f605eee6d33b57.jpg"
        },
        {
          "content" : "撒点葱花。",
          "image" : "https:\/\/i1.douguo.com\/upload\/caiku\/d\/1\/e\/d1021b4f3cd23b0eaf90420aa16d742e.jpg",
          "frame" : "-1",
          "image_height" : 960,
          "image_width" : 1280,
          "thumb" : "https:\/\/i1.douguo.com\/upload\/caiku\/d\/1\/e\/140_d1021b4f3cd23b0eaf90420aa16d742e.jpg",
          "position" : 10
        },
        {
          "position" : 11,
          "frame" : "-1",
          "content" : "出锅。",
          "image_width" : 1280,
          "thumb" : "https:\/\/i1.douguo.com\/upload\/caiku\/c\/c\/9\/140_cc6cfb924ff09501ca6967668e306f09.jpg",
          "image_height" : 960,
          "image" : "https:\/\/i1.douguo.com\/upload\/caiku\/c\/c\/9\/cc6cfb924ff09501ca6967668e306f09.jpg"
        }
      ],
      "original_photo_path" : "http:\/\/i1.douguo.net\/upload\/caiku\/7\/e\/c\/yuan_7e288a247e9445a51ce623d3f701d7ac.jpg",
      "ssu" : "",
      "author_photo" : "http:\/\/tx1.douguo.net\/upload\/photo\/e\/1\/1\/70_u48965239226567222621.jpg",
      "ph" : 960,
      "sc" : 0,
      "recent_comments" : [

      ],
      "v_u" : "",
      "rewarded_video_dsp" : [

      ],
      "create_time" : "2022-08-30 08:29:12",
      "share_info" : {
        "infos" : [
          {
            "mini_program" : [

            ],
            "channel" : "1",
            "s_u" : "",
            "image" : "https:\/\/cp1.douguo.com\/upload\/caiku\/7\/e\/c\/7e288a247e9445a51ce623d3f701d7ac.jpg",
            "s_d" : "#学做饭用豆果美食# 我在@豆果美食 分享了【#大喜大欢喜烧烤店#空气炸锅烤面筋-会做饭很酷!】，这菜真的很好吃，而且做法简单不难学，还不快来跟我学～查看图片了解菜谱（每天限量免费课程，想跟大师学厨艺就来这https:\/\/m.weibo.cn\/p\/100404i33631）#会做饭很酷# ",
            "name" : "#大喜大欢喜烧烤店#空气炸锅烤面筋-会做饭很酷!",
            "qr_image" : "",
            "object_id" : "3211879"
          },
          {
            "name" : "#大喜大欢喜烧烤店#空气炸锅烤面筋-会做饭很酷!",
            "s_u" : "http:\/\/m.douguo.com\/cookbook\/3211879.html",
            "channel" : "7",
            "image" : "https:\/\/cp1.douguo.com\/upload\/caiku\/7\/e\/c\/7e288a247e9445a51ce623d3f701d7ac.jpg",
            "qr_image" : "",
            "mini_program" : [

            ],
            "s_d" : "#大喜大欢喜烧烤店#空气炸锅烤面筋-会做饭很酷!",
            "object_id" : "3211879"
          },
          {
            "qr_image" : "",
            "image" : "https:\/\/cp1.douguo.com\/upload\/caiku\/7\/e\/c\/7e288a247e9445a51ce623d3f701d7ac.jpg",
            "s_d" : "#大喜大欢喜烧烤店#空气炸锅烤面筋-会做饭很酷!",
            "channel" : "8",
            "s_u" : "http:\/\/m.douguo.com\/cookbook\/3211879.html",
            "mini_program" : [

            ],
            "name" : "#大喜大欢喜烧烤店#空气炸锅烤面筋-会做饭很酷!",
            "object_id" : "3211879"
          }
        ],
        "s_u" : "http:\/\/m.douguo.com\/cookbook\/3211879.html",
        "object_id" : "3211879",
        "name" : "#大喜大欢喜烧烤店#空气炸锅烤面筋-会做饭很酷!",
        "s_d" : "#大喜大欢喜烧烤店#空气炸锅烤面筋-会做饭很酷!",
        "image" : "https:\/\/cp1.douguo.com\/upload\/caiku\/7\/e\/c\/7e288a247e9445a51ce623d3f701d7ac.jpg",
        "mini_program" : [

        ],
        "qr_image" : ""
      },
      "cookstory" : "假如你有一个空气炸锅，一定试试这道烤面筋，烧烤界的灵魂料理，在家也能做，好吃又卫生，外酥里嫩，Q弹爽囗，简直不要太香了。",
      "views_count_text" : "10.0万",
      "photo_path" : "https:\/\/i1.douguo.com\/upload\/caiku\/7\/e\/c\/600_7e288a247e9445a51ce623d3f701d7ac.jpg",
      "cook_id" : "3211879",
      "rdsps" : [

      ],
      "cook_time_image" : "https:\/\/i1.douguo.com\/upload\/banner\/1551424341.png",
      "ipia" : [

      ],
      "favo_counts" : 2395,
      "user" : {
        "qzone_nick" : "",
        "lvl" : 6,
        "regist_time" : "",
        "verified_image" : "https:\/\/i1.douguo.com\/upload\/note\/d\/a\/a\/da84247847aebe48d9dd0fcdac88862a.png",
        "sign" : "",
        "verified" : 1,
        "introduction" : "",
        "nick" : "K一小灶",
        "subscription" : 0,
        "followers_count" : 0,
        "qq_weibo_nick" : "",
        "verified_url" : "https:\/\/m.douguo.com\/user\/prodesc",
        "following_count" : 0,
        "is_prime" : 0,
        "userid" : "15679089",
        "user_id" : "15679089",
        "email" : "",
        "location" : 0,
        "point" : 0,
        "mobile" : "",
        "user_photo" : "http:\/\/tx1.douguo.net\/upload\/photo\/e\/1\/1\/70_u48965239226567222621.jpg",
        "lv" : 0,
        "birthday" : "",
        "favorites_count" : 0,
        "fc" : 0,
        "user_large_photo" : "http:\/\/tx1.douguo.net\/upload\/photo\/e\/1\/1\/yuan_u48965239226567222621.jpg",
        "recipes_count" : 0,
        "favor_diaries_count" : 0,
        "weibo_nick" : "",
        "pc" : 0,
        "avatar_medium" : "http:\/\/tx1.douguo.net\/upload\/photo\/e\/1\/1\/140_u48965239226567222621.jpg",
        "subscription_article_count" : 0,
        "user_cover" : "",
        "setted_email" : 0,
        "dishes_count" : 0,
        "diaries_count" : 0,
        "age" : "",
        "gender" : 2,
        "progress_image" : "",
        "coursecount" : 0
      },
      "event" : {
        "name" : "大喜大·欢喜烧烤店 沉浸式烧烤邀您体验 惊喜大奖等你来赢",
        "url" : "https:\/\/m.douguo.com\/activity\/ncpzj\/detail\/3549?isapp=1&open=0&_vs=1000300&&dg_refreshkey=publishnote",
        "id" : 3549
      },
      "dishes" : [

      ],
      "clicks" : "1",
      "rate_show" : 0,
      "collect_status" : 0,
      "cookwares" : [
        "{\n    binded = 1;\n    \"brand_id\" = 4;\n    \"brand_name\" = \"\\U4e5d\\U9633\";\n    \"cookware_category_id\" = 78;\n    \"cookware_category_name\" = \"\\U7a7a\\U6c14\\U70b8\\U9505\";\n    image = \"https:\/\/i1.douguo.com\/upload\/item\/1\/5\/1\/15caaca7205bac272aaa7dda4075bbc1.jpg\";\n    \"model_name\" = VF736;\n    url = \"\";\n}"
      ],
      "cookstorys" : [
        {
          "id" : 0,
          "color" : "",
          "type" : 0,
          "c" : "假如你有一个空气炸锅，一定试试这道烤面筋，烧烤界的灵魂料理，在家也能做，好吃又卫生，外酥里嫩，Q弹爽囗，简直不要太香了。",
          "icon" : "",
          "u" : ""
        },
        {
          "id" : 0,
          "c" : "\n参与活动:",
          "type" : 0,
          "icon" : "",
          "u" : "",
          "color" : ""
        },
        {
          "c" : "#大喜大·欢喜烧烤店 沉浸式烧烤邀您体验 惊喜大奖等你来赢#",
          "u" : "https:\/\/m.douguo.com\/activity\/ncpzj\/detail\/3549?isapp=1&open=0&_vs=1000300&&dg_refreshkey=publishnote",
          "type" : 0,
          "id" : 0,
          "icon" : ""
        }
      ],
      "comments" : [
        "{\n    ac = \"#999999\";\n    at = \"\\U6b66\\U6c49\\U5e02\";\n    ccc = 1;\n    \"child_comments\" =     (\n                {\n            ac = \"#999999\";\n            at = \"\\U6f33\\U5dde\\U5e02\";\n            ccc = 0;\n            city = \"\\U6f33\\U5dde\\U5e02\";\n            cmc = 2;\n            content =             (\n                                {\n                    c = \" \\U6652\\U4e00\\U6652\\U770b\\Uff0c\\U771f\\U7684\\U5417\\Uff1f\\U6211\\U4eec\\U90fd\\U89c9\\U5f97\\U597d\\U5403\\Ud83d\\Ude0b\";\n                }\n            );\n            ia = 1;\n            id = 8968773;\n            \"ip_address_location\" = \"\\U798f\\U5efa\\U7701\";\n            like = 0;\n            \"like_count\" = 0;\n            \"reply_id\" = 8968421;\n            \"reply_user\" =             {\n                \"followers_count_text\" = \"\";\n                id = 27333379;\n                \"is_prime\" = 0;\n                lv = 0;\n                lvl = 1;\n                n = \"\\U7ed3\\U5b9e\\U7684\\U6768\\U6843\";\n                p = \"http:\/\/tx1.douguo.net\/upload\/photo\/1\/1\/1\/70_917a55641e1c847c219cc6bffed8874e.png\";\n                \"progress_image\" = \"\";\n                \"recipes_count_text\" = \"\";\n                relationship = \"-1\";\n                title = \"\";\n                v = 0;\n                \"verified_image\" = \"\";\n            };\n            \"sticker_icon\" =             (\n            );\n            time = \"2022-09-11 17:29:31\";\n            u =             {\n                \"followers_count_text\" = \"\";\n                id = 15679089;\n                \"is_prime\" = 0;\n                lv = 0;\n                lvl = 6;\n                n = \"K\\U4e00\\U5c0f\\U7076\";\n                p = \"http:\/\/tx1.douguo.net\/upload\/photo\/e\/1\/1\/70_u48965239226567222621.jpg\";\n                \"progress_image\" = \"\";\n                \"recipes_count_text\" = \"\";\n                relationship = \"-1\";\n                title = \"\";\n                v = 1;\n                \"verified_image\" = \"\";\n            };\n        }\n    );\n    city = \"\\U6b66\\U6c49\\U5e02\";\n    cmc = 2;\n    content =     (\n                {\n            c = \"\\U505a\\U5931\\U8d25\\U4e86\\Uff0c\\U592a\\U96be\\U5403\\U4e86\";\n        }\n    );\n    ia = 0;\n    id = 8968421;\n    \"ip_address_location\" = \"\\U6e56\\U5317\";\n    like = 0;\n    \"like_count\" = 0;\n    \"reply_id\" = 0;\n    \"sticker_icon\" =     (\n    );\n    time = \"2022-09-09 17:58:28\";\n    u =     {\n        \"followers_count_text\" = \"\";\n        id = 27333379;\n        \"is_prime\" = 0;\n        lv = 0;\n        lvl = 1;\n        n = \"\\U7ed3\\U5b9e\\U7684\\U6768\\U6843\";\n        p = \"http:\/\/tx1.douguo.net\/upload\/photo\/1\/1\/1\/70_917a55641e1c847c219cc6bffed8874e.png\";\n        \"progress_image\" = \"\";\n        \"recipes_count_text\" = \"\";\n        relationship = \"-1\";\n        title = \"\";\n        v = 0;\n        \"verified_image\" = \"\";\n    };\n}"
      ],
      "rate" : 0,
      "vfurl" : "https:\/\/vplay.douguo.com\/loGFOSOQjHNZtM3xu8oxhUNGmfWw__640x362.mp4",
      "tags" : [

      ],
      "vc" : "100074",
      "mid_mdsp" : [

      ],
      "cook_difficulty_image" : "https:\/\/i1.douguo.com\/upload\/banner\/1551424390.png",
      "rrpt" : "",
      "release_time" : "",
      "advice" : {
        "has" : [
          {
            "t" : "高脂肪",
            "url" : "recipes:\/\/www.douguo.com\/simplerecipelist?t=高脂肪&id=高脂肪"
          },
          {
            "url" : "recipes:\/\/www.douguo.com\/simplerecipelist?t=高盐&id=高盐",
            "t" : "高盐"
          }
        ],
        "at" : "不控制会变胖啊！！～",
        "da" : {
          "t" : "查看详细分析",
          "url" : "https:\/\/m.douguo.com\/recipe\/nutrient_self\/3211879",
          "iu" : "https:\/\/i1.douguo.com\/upload\/banner\/f\/4\/d\/f48877e53c37759bc12ac494be82ec8d.png"
        }
      },
      "rrps" : [

      ],
      "tips" : "面筋煮一下，比较不会干。",
      "btm_dsp" : [

      ],
      "recipe_list_tags" : [
        {
          "text" : "关注的人",
          "background_start_color" : "#F4F5F5",
          "right_image" : "",
          "background_end_color" : "#F4F5F5",
          "text_color" : "#141515",
          "background_border_color" : "",
          "jump_url" : ""
        },
        {
          "background_end_color" : "#F4F5F5",
          "jump_url" : "",
          "text_color" : "#141515",
          "background_start_color" : "#F4F5F5",
          "background_border_color" : "",
          "right_image" : "",
          "text" : "内容详细"
        }
      ],
      "display_ingredient" : 1,
      "author_id" : 15679089,
      "bs" : [

      ],
      "recommend_label" : "2395人刚刚收藏过",
      "rips" : 0,
      "rate_count" : 0,
      "ipt" : "",
      "rpid" : 0,
      "rcs" : [

      ],
      "ipurl" : "",
      "title_ad" : [

      ],
      "author_verified" : 1,
      "rsm" : "该功能暂停使用",
      "comments_count_text" : "2",
      "favo_counts_text" : "2395",
      "pw" : 1280,
      "ipit" : 0,
      "hq" : 1,
      "thumb_path" : "https:\/\/i1.douguo.com\/upload\/caiku\/7\/e\/c\/300_7e288a247e9445a51ce623d3f701d7ac.jpg",
      "rpt" : "",
      "ecs" : 1,
      "guide_image" : "",
      "ss" : [

      ],
      "recipe_tags" : [

      ],
      "recommended" : 0,
      "act_des" : "",
      "minor" : [

      ],
      "su" : "",
      "dish_count_text" : "",
      "comments_count" : 2,
      "rpst" : "",
      "purl" : "",
      "hqu" : "recipes:\/\/www.douguo.com\/notedetail?id=21162253",
      "major" : [
        {
          "tu" : "https:\/\/m.douguo.com\/ingredients\/面筋\/detailmaterial",
          "note" : "4条",
          "title" : "面筋"
        },
        {
          "note" : "2勺",
          "tu" : "https:\/\/m.douguo.com\/ingredients\/花生酱\/detailmaterial",
          "title" : "花生酱"
        },
        {
          "note" : "2勺",
          "title" : "大喜大孜然粉烧烤酱"
        },
        {
          "note" : "1勺",
          "tu" : "https:\/\/m.douguo.com\/ingredients\/盐\/detailmaterial",
          "title" : "盐"
        },
        {
          "title" : "孜然粉",
          "note" : "1勺"
        },
        {
          "note" : "1勺",
          "tu" : "https:\/\/m.douguo.com\/ingredients\/辣椒粉\/detailmaterial",
          "title" : "辣椒粉"
        },
        {
          "title" : "白芝麻",
          "note" : "1勺",
          "tu" : "https:\/\/m.douguo.com\/ingredients\/白芝麻\/detailmaterial"
        },
        {
          "title" : "热油",
          "note" : "2勺"
        },
        {
          "title" : "葱",
          "note" : "2根",
          "tu" : "https:\/\/m.douguo.com\/ingredients\/葱\/detailmaterial"
        }
      ],
      "author" : "K一小灶",
      "thumb_height" : 0,
      "story_dsp" : [

      ],
      "title" : "空气炸锅烤面筋",
      "eu" : "recipes:\/\/www.douguo.com\/postdetail?id=242016",
      "sr" : "",
      "image" : "http:\/\/i1.douguo.net\/upload\/caiku\/7\/e\/c\/300_7e288a247e9445a51ce623d3f701d7ac.jpg",
      "old_comments" : [

      ],
      "brand_day_dsp" : [

      ],
      "notes" : [

      ],
      "levelid" : 2,
      "top_mdsp" : [

      ],
      "dish_count" : 0,
      "first_level_comment_count" : 1,
      "ipoi" : "",
      "ipci" : "",
      "cook_time" : "10~30分钟",
      "recommendation_tag" : "",
      "packages_id" : [

      ],
      "vu" : "https:\/\/veplay.douguo.com\/loGFOSOQjHNZtM3xu8oxhUNGmfWw"
    }
  },
  "status" : 0,
  "state" : "success"
}