{
  "state" : "success",
  "result" : {
    "recipe" : {
      "user" : {
        "verified_url" : "https:\/\/m.douguo.com\/user\/prodesc",
        "user_id" : "1871704",
        "qq_weibo_nick" : "",
        "userid" : "1871704",
        "following_count" : 0,
        "nick" : "严小姐手工坊",
        "verified" : 0,
        "followers_count" : 0,
        "avatar_medium" : "http:\/\/tx1.douguo.net\/upload\/photo\/d\/2\/0\/140_d213023d88cdad422ae78856aa5ee1f0.jpg",
        "birthday" : "",
        "regist_time" : "",
        "point" : 0,
        "age" : "",
        "diaries_count" : 0,
        "setted_email" : 0,
        "lvl" : 6,
        "fc" : 0,
        "location" : 0,
        "coursecount" : 0,
        "weibo_nick" : "",
        "gender" : 2,
        "subscription" : 0,
        "is_prime" : 0,
        "progress_image" : "",
        "user_photo" : "http:\/\/tx1.douguo.net\/upload\/photo\/d\/2\/0\/70_d213023d88cdad422ae78856aa5ee1f0.jpg",
        "subscription_article_count" : 0,
        "mobile" : "",
        "user_cover" : "",
        "sign" : "",
        "qzone_nick" : "",
        "favor_diaries_count" : 0,
        "favorites_count" : 0,
        "introduction" : "",
        "recipes_count" : 0,
        "user_large_photo" : "http:\/\/tx1.douguo.net\/upload\/photo\/d\/2\/0\/yuan_d213023d88cdad422ae78856aa5ee1f0.jpg",
        "dishes_count" : 0,
        "email" : "",
        "lv" : 0,
        "pc" : 0,
        "verified_image" : ""
      },
      "rpt" : "",
      "comments" : [
        "{\n    ac = \"#999999\";\n    at = \"\\U5929\\U6d25\\U5e02\";\n    ccc = 1;\n    \"child_comments\" =     (\n                {\n            ac = \"#999999\";\n            at = \"\\U6606\\U660e\\U5e02\";\n            ccc = 0;\n            city = \"\\U6606\\U660e\\U5e02\";\n            cmc = 2;\n            content =             (\n                                {\n                    c = \" \\U2764\";\n                }\n            );\n            ia = 1;\n            id = 8439636;\n            \"ip_address_location\" = \"\";\n            like = 0;\n            \"like_count\" = 0;\n            \"reply_id\" = 8438889;\n            \"reply_user\" =             {\n                \"followers_count_text\" = \"\";\n                id = 17426098;\n                \"is_prime\" = 0;\n                lv = 0;\n                lvl = 5;\n                n = \"\\U6653\\U5c91rpbj\";\n                p = \"http:\/\/tx1.douguo.net\/upload\/photo\/c\/3\/f\/70_u63213777760492185304.jpg\";\n                \"progress_image\" = \"\";\n                \"recipes_count_text\" = \"\";\n                relationship = \"-1\";\n                title = \"\";\n                v = 0;\n                \"verified_image\" = \"\";\n            };\n            \"sticker_icon\" =             (\n            );\n            time = \"2021-01-02 11:21:11\";\n            u =             {\n                \"followers_count_text\" = \"\";\n                id = 1871704;\n                \"is_prime\" = 0;\n                lv = 0;\n                lvl = 6;\n                n = \"\\U4e25\\U5c0f\\U59d0\\U624b\\U5de5\\U574a\";\n                p = \"http:\/\/tx1.douguo.net\/upload\/photo\/d\/2\/0\/70_d213023d88cdad422ae78856aa5ee1f0.jpg\";\n                \"progress_image\" = \"\";\n                \"recipes_count_text\" = \"\";\n                relationship = \"-1\";\n                title = \"\";\n                v = 0;\n                \"verified_image\" = \"\";\n            };\n        }\n    );\n    city = \"\\U5929\\U6d25\\U5e02\";\n    cmc = 2;\n    content =     (\n                {\n            c = \"\\U505a\\U6cd5\\U5f88\\U8be6\\U7ec6\\Uff0c\\U6709\\U7a7a\\U8bd5\\U4e00\\U8bd5\";\n        }\n    );\n    ia = 0;\n    id = 8438889;\n    \"ip_address_location\" = \"\";\n    like = 0;\n    \"like_count\" = 0;\n    \"reply_id\" = 0;\n    \"sticker_icon\" =     (\n    );\n    time = \"2021-01-01 16:09:30\";\n    u =     {\n        \"followers_count_text\" = \"\";\n        id = 17426098;\n        \"is_prime\" = 0;\n        lv = 0;\n        lvl = 5;\n        n = \"\\U6653\\U5c91rpbj\";\n        p = \"http:\/\/tx1.douguo.net\/upload\/photo\/c\/3\/f\/70_u63213777760492185304.jpg\";\n        \"progress_image\" = \"\";\n        \"recipes_count_text\" = \"\";\n        relationship = \"-1\";\n        title = \"\";\n        v = 0;\n        \"verified_image\" = \"\";\n    };\n}"
      ],
      "recent_comments" : [

      ],
      "cook_difficulty_image" : "https:\/\/i1.douguo.com\/upload\/banner\/1551424430.png",
      "rate_count" : 0,
      "hqu" : "recipes:\/\/www.douguo.com\/notedetail?id=21162253",
      "rcs" : [

      ],
      "rrps" : [

      ],
      "major" : [
        {
          "title" : "吊兰根",
          "note" : "100克"
        },
        {
          "note" : "500克",
          "title" : "水",
          "tu" : "https:\/\/m.douguo.com\/ingredients\/水\/detailmaterial"
        }
      ],
      "dish_count_text" : "",
      "original_photo_path" : "http:\/\/i1.douguo.net\/upload\/caiku\/8\/2\/e\/yuan_82d4b91b2ba3a5588746e84c2c16908e.jpg",
      "vc" : "34212",
      "ecs" : 1,
      "recipe_list_tags" : [
        {
          "background_end_color" : "#F4F5F5",
          "background_start_color" : "#F4F5F5",
          "right_image" : "",
          "jump_url" : "",
          "background_border_color" : "",
          "text" : "关注的人",
          "text_color" : "#141515"
        },
        {
          "jump_url" : "",
          "background_end_color" : "#F4F5F5",
          "text" : "内容详细",
          "background_start_color" : "#F4F5F5",
          "background_border_color" : "",
          "text_color" : "#141515",
          "right_image" : ""
        }
      ],
      "related_ads" : [

      ],
      "rate" : 0,
      "su" : "",
      "cook_id" : "3047938",
      "release_time" : "",
      "recipe_tags" : [

      ],
      "recommended" : 0,
      "title_ad" : [

      ],
      "pw" : 800,
      "dishes" : [

      ],
      "share_info" : {
        "mini_program" : [

        ],
        "object_id" : "3047938",
        "qr_image" : "",
        "s_d" : "云南菜~吊兰麦冬汤（百花宴）-会做饭很酷!",
        "image" : "https:\/\/cp1.douguo.com\/upload\/caiku\/8\/2\/e\/82d4b91b2ba3a5588746e84c2c16908e.jpg",
        "infos" : [
          {
            "image" : "https:\/\/cp1.douguo.com\/upload\/caiku\/8\/2\/e\/82d4b91b2ba3a5588746e84c2c16908e.jpg",
            "object_id" : "3047938",
            "mini_program" : [

            ],
            "qr_image" : "",
            "channel" : "1",
            "s_u" : "",
            "name" : "云南菜~吊兰麦冬汤（百花宴）-会做饭很酷!",
            "s_d" : "#学做饭用豆果美食# 我在@豆果美食 分享了【云南菜~吊兰麦冬汤（百花宴）-会做饭很酷!】，帅哥美眉们～你们喜欢的美食来咯！快来跟我一起做吧～查看图片了解菜谱（想要获取更多美食就看这https:\/\/m.weibo.cn\/p\/100404i33631）#会做饭很酷#"
          },
          {
            "channel" : "7",
            "qr_image" : "",
            "image" : "https:\/\/cp1.douguo.com\/upload\/caiku\/8\/2\/e\/82d4b91b2ba3a5588746e84c2c16908e.jpg",
            "mini_program" : [

            ],
            "s_d" : "云南菜~吊兰麦冬汤（百花宴）-会做饭很酷!",
            "s_u" : "http:\/\/m.douguo.com\/cookbook\/3047938.html",
            "name" : "云南菜~吊兰麦冬汤（百花宴）-会做饭很酷!",
            "object_id" : "3047938"
          },
          {
            "s_d" : "云南菜~吊兰麦冬汤（百花宴）-会做饭很酷!",
            "image" : "https:\/\/cp1.douguo.com\/upload\/caiku\/8\/2\/e\/82d4b91b2ba3a5588746e84c2c16908e.jpg",
            "qr_image" : "",
            "s_u" : "http:\/\/m.douguo.com\/cookbook\/3047938.html",
            "name" : "云南菜~吊兰麦冬汤（百花宴）-会做饭很酷!",
            "mini_program" : [

            ],
            "object_id" : "3047938",
            "channel" : "8"
          }
        ],
        "name" : "云南菜~吊兰麦冬汤（百花宴）-会做饭很酷!",
        "s_u" : "http:\/\/m.douguo.com\/cookbook\/3047938.html"
      },
      "favo_counts" : 276,
      "rewarded_video_dsp" : [

      ],
      "rdsps" : [

      ],
      "notes" : [

      ],
      "rate_show" : 0,
      "display_ingredient" : 1,
      "minor" : [

      ],
      "title" : "云南菜~吊兰麦冬汤（百花宴）",
      "guide_image" : "",
      "create_time" : "2021-01-01 12:51:43",
      "author_photo" : "http:\/\/tx1.douguo.net\/upload\/photo\/d\/2\/0\/70_d213023d88cdad422ae78856aa5ee1f0.jpg",
      "author" : "严小姐手工坊",
      "cook_difficulty" : "掌勺(高级)",
      "ipurl" : "",
      "hq" : 1,
      "cookstorys" : [
        {
          "u" : "",
          "type" : 0,
          "c" : "吊兰的根和全草可入药，具化痰止咳、散瘀消肿、清热解毒。主痰热咳嗽，跌打损伤，骨折，痈肿，痔疮，烧伤。用于小儿高热，肺热咳嗽，吐血，跌打肿痛等功效。 \n           民间老百姓称之为黑麦冬，因为晾晒干了以后就会发黑。",
          "color" : "",
          "id" : 0,
          "icon" : ""
        }
      ],
      "thumb_height" : 0,
      "clicks" : "25479",
      "v_u" : "",
      "ph" : 1067,
      "ss" : [

      ],
      "purl" : "",
      "story_dsp" : [

      ],
      "comments_count" : 2,
      "act_des" : "",
      "tips" : "清甜的如吊兰所开的花儿一样",
      "vfurl" : "",
      "brand_day_dsp" : [

      ],
      "views_count_text" : "3.4万",
      "cook_time_image" : "https:\/\/i1.douguo.com\/upload\/banner\/1551423815.png",
      "recommendation_tag" : "",
      "sc" : 0,
      "ipoi" : "",
      "thumb_path" : "https:\/\/i1.douguo.com\/upload\/caiku\/8\/2\/e\/300_82d4b91b2ba3a5588746e84c2c16908e.jpg",
      "ipit" : 0,
      "old_comments" : [

      ],
      "rsm" : "该功能暂停使用",
      "eu" : "recipes:\/\/www.douguo.com\/postdetail?id=242016",
      "author_verified" : 0,
      "comments_count_text" : "2",
      "favo_counts_text" : "276",
      "top_mdsp" : [

      ],
      "levelid" : 2,
      "author_id" : 1871704,
      "photo_path" : "https:\/\/i1.douguo.com\/upload\/caiku\/8\/2\/e\/600_82d4b91b2ba3a5588746e84c2c16908e.jpg",
      "ssu" : "",
      "collect_status" : 0,
      "packages_id" : [

      ],
      "cookstory" : "吊兰的根和全草可入药，具化痰止咳、散瘀消肿、清热解毒。主痰热咳嗽，跌打损伤，骨折，痈肿，痔疮，烧伤。用于小儿高热，肺热咳嗽，吐血，跌打肿痛等功效。 \n           民间老百姓称之为黑麦冬，因为晾晒干了以后就会发黑。",
      "vu" : "",
      "image" : "http:\/\/i1.douguo.net\/upload\/caiku\/8\/2\/e\/300_82d4b91b2ba3a5588746e84c2c16908e.jpg",
      "ipci" : "",
      "sr" : "",
      "bs" : [

      ],
      "btm_dsp" : [

      ],
      "rips" : 0,
      "dish_count" : 0,
      "rrpt" : "",
      "recommend_label" : "3.4万人看过",
      "first_level_comment_count" : 1,
      "rpid" : 0,
      "ipia" : [

      ],
      "rpst" : "",
      "cookstep" : [
        {
          "image_width" : 800,
          "position" : 1,
          "image" : "https:\/\/i1.douguo.com\/upload\/caiku\/7\/a\/c\/7a1bde01f0277d0c7b466cc3490fa6bc.jpg",
          "image_height" : 1067,
          "thumb" : "https:\/\/i1.douguo.com\/upload\/caiku\/7\/a\/c\/140_7a1bde01f0277d0c7b466cc3490fa6bc.jpg",
          "frame" : "-1",
          "content" : "吊兰修花时 剪下胖胖的根部"
        },
        {
          "thumb" : "https:\/\/i1.douguo.com\/upload\/caiku\/2\/8\/5\/140_28b19a7e78518e7148cff743c6f3dde5.jpg",
          "image_height" : 1067,
          "position" : 2,
          "image_width" : 800,
          "content" : "反复泡洗加入小苏打或者是盐。泡20分钟",
          "frame" : "-1",
          "image" : "https:\/\/i1.douguo.com\/upload\/caiku\/2\/8\/5\/28b19a7e78518e7148cff743c6f3dde5.jpg"
        },
        {
          "image_width" : 1080,
          "image_height" : 1440,
          "thumb" : "https:\/\/i1.douguo.com\/upload\/caiku\/3\/f\/8\/140_3f349af97be074c028533f9454d0c6a8.jpg",
          "frame" : "-1",
          "image" : "https:\/\/i1.douguo.com\/upload\/caiku\/3\/f\/8\/3f349af97be074c028533f9454d0c6a8.jpg",
          "position" : 3,
          "content" : "锅里翻炒1分钟"
        },
        {
          "position" : 4,
          "image" : "https:\/\/i1.douguo.com\/upload\/caiku\/b\/f\/e\/bfb009f5ddd8ca253c88ebdb79763a3e.jpg",
          "image_height" : 1440,
          "image_width" : 1080,
          "thumb" : "https:\/\/i1.douguo.com\/upload\/caiku\/b\/f\/e\/140_bfb009f5ddd8ca253c88ebdb79763a3e.jpg",
          "frame" : "-1",
          "content" : "加入水闷煮20分钟即可盛出"
        },
        {
          "image" : "https:\/\/i1.douguo.com\/upload\/caiku\/1\/f\/d\/1fb6bd7587714ea29efe3e624024cb0d.jpg",
          "image_height" : 1440,
          "content" : "不加任何调料  连水吃完",
          "image_width" : 1080,
          "frame" : "-1",
          "position" : 5,
          "thumb" : "https:\/\/i1.douguo.com\/upload\/caiku\/1\/f\/d\/140_1fb6bd7587714ea29efe3e624024cb0d.jpg"
        }
      ],
      "cookwares" : [

      ],
      "ipt" : "",
      "cook_time" : "1小时以上",
      "tags" : [

      ],
      "mid_mdsp" : [

      ]
    }
  },
  "status" : 0
}