{
  "result" : {
    "recipe" : {
      "recommendation_tag" : "",
      "rpt" : "",
      "top_mdsp" : [

      ],
      "ssu" : "",
      "image" : "http:\/\/i1.douguo.net\/upload\/caiku\/8\/6\/5\/300_1655616286466.jpg",
      "pw" : 960,
      "author_verified" : 0,
      "eu" : "recipes:\/\/www.douguo.com\/postdetail?id=242016",
      "purl" : "",
      "dishes" : [

      ],
      "rpst" : "",
      "related_ads" : [

      ],
      "act_des" : "",
      "ph" : 960,
      "release_time" : "",
      "rewarded_video_dsp" : [

      ],
      "ipurl" : "",
      "favo_counts" : 82,
      "recent_comments" : [

      ],
      "display_ingredient" : 1,
      "photo_path" : "https:\/\/i1.douguo.com\/upload\/caiku\/8\/6\/5\/600_1655616286466.jpg",
      "favo_counts_text" : "82",
      "vc" : "13429",
      "rcs" : [

      ],
      "title_ad" : [

      ],
      "author_photo" : "http:\/\/tx1.douguo.net\/upload\/photo\/a\/5\/4\/70_u78192905868674192038.jpg",
      "recommended" : 0,
      "recommend_label" : "1.3万人看过",
      "rate_show" : 0,
      "comments" : [

      ],
      "recipe_tags" : [

      ],
      "rsm" : "该功能暂停使用",
      "cook_id" : "3197636",
      "author_id" : 3220178,
      "author" : "鱼小仙",
      "thumb_path" : "https:\/\/i1.douguo.com\/upload\/caiku\/8\/6\/5\/300_1655616286466.jpg",
      "collect_status" : 0,
      "hq" : 1,
      "guide_image" : "",
      "rrps" : [

      ],
      "comments_count_text" : "",
      "user" : {
        "weibo_nick" : "",
        "is_prime" : 0,
        "qq_weibo_nick" : "",
        "avatar_medium" : "http:\/\/tx1.douguo.net\/upload\/photo\/a\/5\/4\/140_u78192905868674192038.jpg",
        "mobile" : "",
        "fc" : 0,
        "sign" : "",
        "setted_email" : 0,
        "qzone_nick" : "",
        "nick" : "鱼小仙",
        "diaries_count" : 0,
        "dishes_count" : 0,
        "email" : "",
        "favorites_count" : 0,
        "lvl" : 4,
        "age" : "",
        "coursecount" : 0,
        "subscription_article_count" : 0,
        "subscription" : 0,
        "lv" : 0,
        "verified_url" : "https:\/\/m.douguo.com\/user\/prodesc",
        "followers_count" : 0,
        "point" : 0,
        "user_id" : "3220178",
        "recipes_count" : 0,
        "verified_image" : "",
        "userid" : "3220178",
        "verified" : 0,
        "user_large_photo" : "http:\/\/tx1.douguo.net\/upload\/photo\/a\/5\/4\/yuan_u78192905868674192038.jpg",
        "pc" : 0,
        "regist_time" : "",
        "progress_image" : "",
        "following_count" : 0,
        "location" : 0,
        "birthday" : "",
        "user_cover" : "",
        "gender" : 2,
        "user_photo" : "http:\/\/tx1.douguo.net\/upload\/photo\/a\/5\/4\/70_u78192905868674192038.jpg",
        "favor_diaries_count" : 0,
        "introduction" : ""
      },
      "sc" : 0,
      "dish_count" : 0,
      "story_dsp" : [

      ],
      "clicks" : "1",
      "rips" : 0,
      "cook_time_image" : "https:\/\/i1.douguo.com\/upload\/banner\/1551424341.png",
      "first_level_comment_count" : 0,
      "cook_time" : "10~30分钟",
      "cookstory" : "静水流深，坚实沉稳。父爱无言如山，山无言爱愈坚。",
      "cookwares" : [

      ],
      "packages_id" : [

      ],
      "mid_mdsp" : [

      ],
      "brand_day_dsp" : [

      ],
      "ipia" : [

      ],
      "old_comments" : [

      ],
      "cookstep" : [
        {
          "frame" : "-1",
          "image_width" : 3840,
          "position" : 1,
          "content" : "处理好的鲈鱼，开背。",
          "thumb" : "https:\/\/i1.douguo.com\/upload\/caiku\/1\/a\/a\/140_1a5fdd8c208423f282d849d4d347645a.jpeg",
          "image_height" : 2223,
          "image" : "https:\/\/i1.douguo.com\/upload\/caiku\/1\/a\/a\/1a5fdd8c208423f282d849d4d347645a.jpeg"
        },
        {
          "frame" : "-1",
          "image" : "https:\/\/i1.douguo.com\/upload\/caiku\/4\/2\/8\/429614d1b0b8f646a36eea131c6b4688.jpeg",
          "content" : "切点葱姜便备用。",
          "thumb" : "https:\/\/i1.douguo.com\/upload\/caiku\/4\/2\/8\/140_429614d1b0b8f646a36eea131c6b4688.jpeg",
          "position" : 2,
          "image_width" : 3840,
          "image_height" : 2169
        },
        {
          "thumb" : "https:\/\/i1.douguo.com\/upload\/caiku\/3\/2\/d\/140_32095f07927e7bfd31c9c9d84c58e68d.jpeg",
          "image" : "https:\/\/i1.douguo.com\/upload\/caiku\/3\/2\/d\/32095f07927e7bfd31c9c9d84c58e68d.jpeg",
          "image_width" : 3840,
          "position" : 3,
          "frame" : "-1",
          "image_height" : 2880,
          "content" : "将鲈鱼用用料酒和生抽腌制一会儿。"
        },
        {
          "content" : "开口处放如葱姜片",
          "thumb" : "https:\/\/i1.douguo.com\/upload\/caiku\/5\/d\/f\/140_5db35db88f9b2ede009b35818662ea3f.jpeg",
          "image" : "https:\/\/i1.douguo.com\/upload\/caiku\/5\/d\/f\/5db35db88f9b2ede009b35818662ea3f.jpeg",
          "position" : 4,
          "image_height" : 2970,
          "image_width" : 3840,
          "frame" : "-1"
        },
        {
          "frame" : "-1",
          "position" : 5,
          "thumb" : "https:\/\/i1.douguo.com\/upload\/caiku\/a\/5\/c\/140_a533a859f9ae2db9edf68d73f6eaca4c.jpeg",
          "image_width" : 3840,
          "content" : "切点葱姜丝备用",
          "image" : "https:\/\/i1.douguo.com\/upload\/caiku\/a\/5\/c\/a533a859f9ae2db9edf68d73f6eaca4c.jpeg",
          "image_height" : 2982
        },
        {
          "image_height" : 2217,
          "content" : "腌好的鱼蒸10-15分钟（盘子和锅都太小，不得已将鱼分了两半）。",
          "image_width" : 3840,
          "frame" : "-1",
          "position" : 6,
          "image" : "https:\/\/i1.douguo.com\/upload\/caiku\/2\/3\/a\/233dbee91cae6b1c3bfe238a5e16bf6a.jpeg",
          "thumb" : "https:\/\/i1.douguo.com\/upload\/caiku\/2\/3\/a\/140_233dbee91cae6b1c3bfe238a5e16bf6a.jpeg"
        },
        {
          "frame" : "-1",
          "content" : "蒸好后倒掉盘里的水，拿掉蒸过的葱姜片，除腥。",
          "position" : 7,
          "thumb" : "https:\/\/i1.douguo.com\/upload\/caiku\/8\/8\/4\/140_881246fede02c28104fed74cbc847334.jpeg",
          "image" : "https:\/\/i1.douguo.com\/upload\/caiku\/8\/8\/4\/881246fede02c28104fed74cbc847334.jpeg",
          "image_width" : 3840,
          "image_height" : 2673
        },
        {
          "position" : 8,
          "image_width" : 3840,
          "frame" : "-1",
          "image" : "https:\/\/i1.douguo.com\/upload\/caiku\/2\/3\/3\/23b040792b1289f07641d35a759d3d43.jpeg",
          "content" : "摆上葱姜丝。",
          "image_height" : 2757,
          "thumb" : "https:\/\/i1.douguo.com\/upload\/caiku\/2\/3\/3\/140_23b040792b1289f07641d35a759d3d43.jpeg"
        },
        {
          "frame" : "-1",
          "content" : "淋上足量的蒸鱼豉油。",
          "image" : "https:\/\/i1.douguo.com\/upload\/caiku\/0\/7\/4\/073552486da6f58cbcc7b21623cd6b04.jpeg",
          "thumb" : "https:\/\/i1.douguo.com\/upload\/caiku\/0\/7\/4\/140_073552486da6f58cbcc7b21623cd6b04.jpeg",
          "image_width" : 3840,
          "position" : 9,
          "image_height" : 2793
        },
        {
          "position" : 10,
          "image_height" : 2232,
          "content" : "浇一勺烧好的热油。",
          "image" : "https:\/\/i1.douguo.com\/upload\/caiku\/b\/9\/2\/b956e6d1d13b7572f24fd41ece201882.jpeg",
          "thumb" : "https:\/\/i1.douguo.com\/upload\/caiku\/b\/9\/2\/140_b956e6d1d13b7572f24fd41ece201882.jpeg",
          "image_width" : 3840,
          "frame" : "-1"
        },
        {
          "image_height" : 2127,
          "position" : 11,
          "image_width" : 3840,
          "content" : "完工上桌！卖相不大好了，凑合看吧！吃着还不错啦！",
          "frame" : "-1",
          "image" : "https:\/\/i1.douguo.com\/upload\/caiku\/d\/8\/5\/d8410a81fb13c5491ae6d64b15dea455.jpeg",
          "thumb" : "https:\/\/i1.douguo.com\/upload\/caiku\/d\/8\/5\/140_d8410a81fb13c5491ae6d64b15dea455.jpeg"
        }
      ],
      "levelid" : 2,
      "thumb_height" : 0,
      "vu" : "https:\/\/veplay.douguo.com\/lpmwidXKB5uK3PFRvFKOnp89Vosq",
      "original_photo_path" : "http:\/\/i1.douguo.net\/upload\/caiku\/8\/6\/5\/yuan_1655616286466.jpg",
      "hqu" : "recipes:\/\/www.douguo.com\/notedetail?id=21162253",
      "views_count_text" : "1.3万",
      "ipoi" : "",
      "recipe_list_tags" : [
        {
          "right_image" : "",
          "text_color" : "#141515",
          "background_border_color" : "",
          "background_start_color" : "#F4F5F5",
          "text" : "关注的人",
          "jump_url" : "",
          "background_end_color" : "#F4F5F5"
        }
      ],
      "notes" : [

      ],
      "ipt" : "",
      "rdsps" : [

      ],
      "ipit" : 0,
      "cook_difficulty_image" : "",
      "title" : "父亲节快乐｜清蒸鲈鱼",
      "rpid" : 0,
      "create_time" : "2022-06-19 13:28:50",
      "vfurl" : "https:\/\/vplay.douguo.com\/lpmwidXKB5uK3PFRvFKOnp89Vosq__640x643.mp4",
      "share_info" : {
        "s_d" : "父亲节快乐｜清蒸鲈鱼-会做饭很酷!",
        "mini_program" : [

        ],
        "object_id" : "3197636",
        "infos" : [
          {
            "s_u" : "",
            "image" : "https:\/\/cp1.douguo.com\/upload\/caiku\/8\/6\/5\/1655616286466.jpg",
            "qr_image" : "",
            "s_d" : "#学做饭用豆果美食# 我在@豆果美食 分享了【父亲节快乐｜清蒸鲈鱼-会做饭很酷!】，哟，集美们～你看这是神仙美味～快跟着我做一份，做一份！查看图片了解菜谱（更多美食秘籍点击https:\/\/m.weibo.cn\/p\/100404i33631获取）#会做饭很酷# ",
            "name" : "父亲节快乐｜清蒸鲈鱼-会做饭很酷!",
            "channel" : "1",
            "object_id" : "3197636",
            "mini_program" : [

            ]
          },
          {
            "channel" : "7",
            "s_d" : "父亲节快乐｜清蒸鲈鱼-会做饭很酷!",
            "mini_program" : [

            ],
            "s_u" : "http:\/\/m.douguo.com\/cookbook\/3197636.html",
            "image" : "https:\/\/cp1.douguo.com\/upload\/caiku\/8\/6\/5\/1655616286466.jpg",
            "name" : "父亲节快乐｜清蒸鲈鱼-会做饭很酷!",
            "qr_image" : "",
            "object_id" : "3197636"
          },
          {
            "object_id" : "3197636",
            "s_u" : "http:\/\/m.douguo.com\/cookbook\/3197636.html",
            "s_d" : "父亲节快乐｜清蒸鲈鱼-会做饭很酷!",
            "image" : "https:\/\/cp1.douguo.com\/upload\/caiku\/8\/6\/5\/1655616286466.jpg",
            "name" : "父亲节快乐｜清蒸鲈鱼-会做饭很酷!",
            "channel" : "8",
            "mini_program" : [

            ],
            "qr_image" : ""
          }
        ],
        "image" : "https:\/\/cp1.douguo.com\/upload\/caiku\/8\/6\/5\/1655616286466.jpg",
        "name" : "父亲节快乐｜清蒸鲈鱼-会做饭很酷!",
        "qr_image" : "",
        "s_u" : "http:\/\/m.douguo.com\/cookbook\/3197636.html"
      },
      "su" : "",
      "rrpt" : "",
      "ecs" : 1,
      "tags" : [

      ],
      "major" : [
        {
          "title" : "鲈鱼",
          "tu" : "https:\/\/m.douguo.com\/ingredients\/鲈鱼\/detailmaterial",
          "note" : "1条"
        },
        {
          "title" : "姜",
          "tu" : "https:\/\/m.douguo.com\/ingredients\/姜\/detailmaterial",
          "note" : "6片"
        },
        {
          "title" : "葱",
          "note" : "半根",
          "tu" : "https:\/\/m.douguo.com\/ingredients\/葱\/detailmaterial"
        },
        {
          "title" : "料酒",
          "tu" : "https:\/\/m.douguo.com\/ingredients\/料酒\/detailmaterial",
          "note" : "适量"
        },
        {
          "note" : "适量",
          "title" : "生抽",
          "tu" : "https:\/\/m.douguo.com\/ingredients\/生抽\/detailmaterial"
        },
        {
          "note" : "适量",
          "title" : "蒸鱼豉油"
        }
      ],
      "ss" : [

      ],
      "ipci" : "",
      "dish_count_text" : "",
      "tips" : "",
      "cook_difficulty" : "",
      "minor" : [

      ],
      "advice" : {
        "has" : [
          {
            "t" : "低脂",
            "url" : "recipes:\/\/www.douguo.com\/simplerecipelist?t=低脂&id=低脂"
          },
          {
            "url" : "recipes:\/\/www.douguo.com\/simplerecipelist?t=高盐&id=高盐",
            "t" : "高盐"
          }
        ],
        "da" : {
          "t" : "查看详细分析",
          "url" : "https:\/\/m.douguo.com\/recipe\/nutrient_self\/3197636",
          "iu" : "https:\/\/i1.douguo.com\/upload\/banner\/f\/4\/d\/f48877e53c37759bc12ac494be82ec8d.png"
        },
        "at" : "能有效控制体重～"
      },
      "rate_count" : 0,
      "v_u" : "",
      "btm_dsp" : [

      ],
      "rate" : 0,
      "bs" : [

      ],
      "comments_count" : 0,
      "sr" : "",
      "cookstorys" : [
        {
          "id" : 0,
          "c" : "静水流深，坚实沉稳。父爱无言如山，山无言爱愈坚。",
          "type" : 0,
          "u" : "",
          "icon" : "",
          "color" : ""
        }
      ]
    }
  },
  "status" : 0,
  "state" : "success"
}