{
  "status" : 0,
  "result" : {
    "recipe" : {
      "cook_difficulty_image" : "https:\/\/i1.douguo.com\/upload\/banner\/1551424390.png",
      "image" : "http:\/\/i1.douguo.net\/upload\/caiku\/c\/3\/d\/300_1689216500223.jpg",
      "photo_path" : "https:\/\/i1.douguo.com\/upload\/caiku\/c\/3\/d\/600_1689216500223.jpg",
      "v_u" : "",
      "rate_show" : 0,
      "related_ads" : [

      ],
      "clicks" : "1",
      "old_comments" : [

      ],
      "create_time" : "2023-07-13 11:03:14",
      "mid_mdsp" : [

      ],
      "story_dsp" : [

      ],
      "release_time" : "",
      "author" : "美美生活小能手",
      "sc" : 0,
      "ssu" : "",
      "levelid" : 2,
      "rate" : 0,
      "user" : {
        "weibo_nick" : "",
        "recipes_count" : 0,
        "progress_image" : "",
        "favorites_count" : 0,
        "followers_count" : 0,
        "favor_diaries_count" : 0,
        "lvl" : 6,
        "nick" : "美美生活小能手",
        "qq_weibo_nick" : "",
        "gender" : 1,
        "coursecount" : 0,
        "verified_url" : "https:\/\/m.douguo.com\/user\/prodesc",
        "point" : 0,
        "mobile" : "",
        "user_cover" : "",
        "fc" : 0,
        "setted_email" : 0,
        "user_id" : "27524702",
        "following_count" : 0,
        "sign" : "",
        "subscription_article_count" : 0,
        "subscription" : 0,
        "user_large_photo" : "http:\/\/tx1.douguo.net\/upload\/photo\/2\/9\/c\/yuan_29dcca3d098c836769de957c0aebdbdc.jpeg",
        "is_prime" : 0,
        "userid" : "27524702",
        "birthday" : "",
        "pc" : 0,
        "verified_image" : "https:\/\/i1.douguo.com\/upload\/note\/d\/a\/a\/da84247847aebe48d9dd0fcdac88862a.png",
        "verified" : 1,
        "location" : 0,
        "avatar_medium" : "http:\/\/tx1.douguo.net\/upload\/photo\/2\/9\/c\/140_29dcca3d098c836769de957c0aebdbdc.jpeg",
        "user_photo" : "http:\/\/tx1.douguo.net\/upload\/photo\/2\/9\/c\/70_29dcca3d098c836769de957c0aebdbdc.jpeg",
        "introduction" : "",
        "regist_time" : "",
        "age" : "",
        "diaries_count" : 0,
        "email" : "",
        "qzone_nick" : "",
        "lv" : 0,
        "dishes_count" : 0
      },
      "act_des" : "",
      "rrps" : [

      ],
      "recipe_list_tags" : [
        {
          "jump_url" : "",
          "right_image" : "",
          "text" : "关注的人",
          "background_border_color" : "",
          "background_end_color" : "#F4F5F5",
          "text_color" : "#141515",
          "background_start_color" : "#F4F5F5"
        },
        {
          "jump_url" : "",
          "text" : "内容详细",
          "right_image" : "",
          "background_border_color" : "",
          "background_start_color" : "#F4F5F5",
          "background_end_color" : "#F4F5F5",
          "text_color" : "#141515"
        }
      ],
      "pw" : 960,
      "comments_count_text" : "1",
      "notes" : [

      ],
      "rcs" : [

      ],
      "top_mdsp" : [

      ],
      "first_level_comment_count" : 1,
      "hq" : 1,
      "rpid" : 0,
      "guide_image" : "",
      "vfurl" : "https:\/\/vplay.douguo.com\/lm-8MKCHIB6ZltZ7utgjOkPJhGfw__640x359.mp4",
      "thumb_path" : "https:\/\/i1.douguo.com\/upload\/caiku\/c\/3\/d\/300_1689216500223.jpg",
      "vc" : "25723",
      "cook_difficulty" : "切墩(初级)",
      "cookstory" : " 清炒丝瓜太清淡？安利搭配虾仁一起炒，按这做法简直不要太美味！简单又健康！",
      "rate_count" : 0,
      "eu" : "recipes:\/\/www.douguo.com\/postdetail?id=242016",
      "dish_count_text" : "",
      "ipt" : "",
      "ipurl" : "",
      "comments" : [
        "{\n    ac = \"#999999\";\n    at = \"\\U798f\\U5dde\\U5e02\";\n    ccc = 0;\n    \"child_comments\" =     (\n    );\n    city = \"\\U798f\\U5dde\\U5e02\";\n    cmc = 2;\n    content =     (\n                {\n            c = \"\\Ud83d\\Udc4f\";\n        }\n    );\n    ia = 1;\n    id = 9038263;\n    \"ip_address_location\" = \"\\U798f\\U5efa\";\n    like = 0;\n    \"like_count\" = 1;\n    \"reply_id\" = 0;\n    \"sticker_icon\" =     (\n    );\n    time = \"2023-07-13 11:49:32\";\n    u =     {\n        \"followers_count_text\" = \"\";\n        id = 27524702;\n        \"is_prime\" = 0;\n        lv = 0;\n        lvl = 6;\n        n = \"\\U7f8e\\U7f8e\\U751f\\U6d3b\\U5c0f\\U80fd\\U624b\";\n        p = \"http:\/\/tx1.douguo.net\/upload\/photo\/2\/9\/c\/70_29dcca3d098c836769de957c0aebdbdc.jpeg\";\n        \"progress_image\" = \"\";\n        \"recipes_count_text\" = \"\";\n        relationship = \"-1\";\n        title = \"\";\n        v = 1;\n        \"verified_image\" = \"\";\n    };\n}"
      ],
      "ipit" : 0,
      "thumb_height" : 0,
      "cookwares" : [

      ],
      "share_info" : {
        "qr_image" : "",
        "name" : "#向往的生活 就是外婆乡# 虾仁炒丝瓜-会做饭很酷!",
        "object_id" : "3262707",
        "s_d" : "#向往的生活 就是外婆乡# 虾仁炒丝瓜-会做饭很酷!",
        "infos" : [
          {
            "qr_image" : "",
            "channel" : "1",
            "name" : "#向往的生活 就是外婆乡# 虾仁炒丝瓜-会做饭很酷!",
            "object_id" : "3262707",
            "mini_program" : [

            ],
            "s_u" : "",
            "image" : "https:\/\/cp1.douguo.com\/upload\/caiku\/c\/3\/d\/1689216500223.jpg",
            "s_d" : "#学做饭用豆果美食# 我在@豆果美食 分享了【#向往的生活 就是外婆乡# 虾仁炒丝瓜-会做饭很酷!】，帅哥美眉们～你们喜欢的美食来咯！快来跟我一起做吧～查看图片了解菜谱（想要获取更多美食就看这https:\/\/m.weibo.cn\/p\/100404i33631）#会做饭很酷#"
          },
          {
            "image" : "https:\/\/cp1.douguo.com\/upload\/caiku\/c\/3\/d\/1689216500223.jpg",
            "object_id" : "3262707",
            "qr_image" : "",
            "name" : "#向往的生活 就是外婆乡# 虾仁炒丝瓜-会做饭很酷!",
            "s_u" : "http:\/\/m.douguo.com\/cookbook\/3262707.html",
            "channel" : "7",
            "s_d" : "#向往的生活 就是外婆乡# 虾仁炒丝瓜-会做饭很酷!",
            "mini_program" : [

            ]
          },
          {
            "name" : "#向往的生活 就是外婆乡# 虾仁炒丝瓜-会做饭很酷!",
            "mini_program" : [

            ],
            "s_d" : "#向往的生活 就是外婆乡# 虾仁炒丝瓜-会做饭很酷!",
            "qr_image" : "",
            "image" : "https:\/\/cp1.douguo.com\/upload\/caiku\/c\/3\/d\/1689216500223.jpg",
            "channel" : "8",
            "s_u" : "http:\/\/m.douguo.com\/cookbook\/3262707.html",
            "object_id" : "3262707"
          }
        ],
        "image" : "https:\/\/cp1.douguo.com\/upload\/caiku\/c\/3\/d\/1689216500223.jpg",
        "s_u" : "http:\/\/m.douguo.com\/cookbook\/3262707.html",
        "mini_program" : [

        ]
      },
      "recommendation_tag" : "",
      "cook_time_image" : "https:\/\/i1.douguo.com\/upload\/banner\/1551424358.png",
      "btm_dsp" : [

      ],
      "major" : [
        {
          "title" : "鲜虾仁",
          "note" : "150克"
        },
        {
          "note" : "500克",
          "title" : "丝瓜",
          "tu" : "https:\/\/m.douguo.com\/ingredients\/丝瓜\/detailmaterial"
        },
        {
          "title" : "洋葱",
          "note" : "50克",
          "tu" : "https:\/\/m.douguo.com\/ingredients\/洋葱\/detailmaterial"
        },
        {
          "tu" : "https:\/\/m.douguo.com\/ingredients\/香菜\/detailmaterial",
          "note" : "20克",
          "title" : "香菜"
        }
      ],
      "advice" : {
        "da" : {
          "url" : "https:\/\/m.douguo.com\/recipe\/nutrient_self\/3262707",
          "iu" : "https:\/\/i1.douguo.com\/upload\/banner\/f\/4\/d\/f48877e53c37759bc12ac494be82ec8d.png",
          "t" : "查看详细分析"
        },
        "at" : "健身人群可以吃～",
        "has" : [
          {
            "t" : "低脂",
            "url" : "recipes:\/\/www.douguo.com\/simplerecipelist?t=低脂&id=低脂"
          },
          {
            "t" : "低盐",
            "url" : "recipes:\/\/www.douguo.com\/simplerecipelist?t=低盐&id=低盐"
          }
        ]
      },
      "favo_counts_text" : "748",
      "dishes" : [

      ],
      "brand_day_dsp" : [

      ],
      "minor" : [

      ],
      "rewarded_video_dsp" : [

      ],
      "hqu" : "recipes:\/\/www.douguo.com\/notedetail?id=21162253",
      "dish_count" : 0,
      "rpst" : "",
      "ss" : [

      ],
      "ecs" : 1,
      "recommended" : 0,
      "original_photo_path" : "http:\/\/i1.douguo.net\/upload\/caiku\/c\/3\/d\/yuan_1689216500223.jpg",
      "rips" : 0,
      "purl" : "",
      "collect_status" : 0,
      "ph" : 536,
      "comments_count" : 1,
      "rdsps" : [

      ],
      "bs" : [

      ],
      "cook_id" : "3262707",
      "rsm" : "该功能暂停使用",
      "ipoi" : "",
      "recommend_label" : "2.6万人看过",
      "title_ad" : [

      ],
      "event" : {
        "name" : "参与蘑菇屋的美味复刻，赢金龙鱼外婆乡小榨菜籽油全年用",
        "id" : 3789,
        "url" : "https:\/\/m.douguo.com\/activity\/ncpzj\/detail\/3789?isapp=1&open=0&_vs=1000300&&dg_refreshkey=publishnote"
      },
      "packages_id" : [

      ],
      "su" : "",
      "ipia" : [

      ],
      "cookstorys" : [
        {
          "u" : "",
          "c" : " 清炒丝瓜太清淡？安利搭配虾仁一起炒，按这做法简直不要太美味！简单又健康！",
          "type" : 0,
          "icon" : "",
          "color" : "",
          "id" : 0
        },
        {
          "icon" : "",
          "c" : "\n参与活动:",
          "color" : "",
          "u" : "",
          "id" : 0,
          "type" : 0
        },
        {
          "icon" : "",
          "c" : "#参与蘑菇屋的美味复刻，赢金龙鱼外婆乡小榨菜籽油全年用#",
          "type" : 0,
          "u" : "https:\/\/m.douguo.com\/activity\/ncpzj\/detail\/3789?isapp=1&open=0&_vs=1000300&&dg_refreshkey=publishnote",
          "id" : 0
        }
      ],
      "display_ingredient" : 1,
      "author_id" : 27524702,
      "ipci" : "",
      "vu" : "https:\/\/vplay.douguo.com\/lm-8MKCHIB6ZltZ7utgjOkPJhGfw",
      "views_count_text" : "2.6万",
      "favo_counts" : 748,
      "author_photo" : "http:\/\/tx1.douguo.net\/upload\/photo\/2\/9\/c\/70_29dcca3d098c836769de957c0aebdbdc.jpeg",
      "tips" : "可根据自己喜好的口味，适当调整调味料比例",
      "tags" : [

      ],
      "rrpt" : "",
      "recipe_tags" : [

      ],
      "cook_time" : "10分钟左右",
      "sr" : "",
      "recent_comments" : [

      ],
      "cookstep" : [
        {
          "image" : "https:\/\/i1.douguo.com\/upload\/caiku\/d\/4\/7\/d4e834c24f07acb35a2d5a2ffc573b47.jpeg",
          "position" : 1,
          "thumb" : "https:\/\/i1.douguo.com\/upload\/caiku\/d\/4\/7\/140_d4e834c24f07acb35a2d5a2ffc573b47.jpeg",
          "image_height" : 536,
          "image_width" : 960,
          "frame" : "27013",
          "content" : "给虾仁调味，搅拌均匀"
        },
        {
          "frame" : "28870",
          "content" : "放入淀粉继续搅拌均匀",
          "image_height" : 536,
          "image_width" : 960,
          "thumb" : "https:\/\/i1.douguo.com\/upload\/caiku\/b\/a\/c\/140_ba3fdbb2b68f16456e651663799318ac.jpeg",
          "position" : 2,
          "image" : "https:\/\/i1.douguo.com\/upload\/caiku\/b\/a\/c\/ba3fdbb2b68f16456e651663799318ac.jpeg"
        },
        {
          "image_height" : 536,
          "frame" : "35342",
          "thumb" : "https:\/\/i1.douguo.com\/upload\/caiku\/7\/1\/9\/140_71a153853829d8b1f90996a1711afc49.jpeg",
          "image" : "https:\/\/i1.douguo.com\/upload\/caiku\/7\/1\/9\/71a153853829d8b1f90996a1711afc49.jpeg",
          "image_width" : 960,
          "position" : 3,
          "content" : "炸虾仁"
        },
        {
          "image_width" : 960,
          "position" : 4,
          "content" : "放入洋葱和丝瓜",
          "image" : "https:\/\/i1.douguo.com\/upload\/caiku\/9\/2\/1\/925eb64e6c6c72c0c09e3c1af0706841.jpeg",
          "frame" : "41082",
          "image_height" : 536,
          "thumb" : "https:\/\/i1.douguo.com\/upload\/caiku\/9\/2\/1\/140_925eb64e6c6c72c0c09e3c1af0706841.jpeg"
        },
        {
          "content" : "炒1分钟变软",
          "image" : "https:\/\/i1.douguo.com\/upload\/caiku\/a\/4\/0\/a48dcd111dc4cbc60b62a8844bd25f10.jpeg",
          "position" : 5,
          "frame" : "43446",
          "image_width" : 960,
          "thumb" : "https:\/\/i1.douguo.com\/upload\/caiku\/a\/4\/0\/140_a48dcd111dc4cbc60b62a8844bd25f10.jpeg",
          "image_height" : 536
        },
        {
          "frame" : "50987",
          "image" : "https:\/\/i1.douguo.com\/upload\/caiku\/b\/0\/7\/b09a4f0ccd279933d12befd23af881b7.jpeg",
          "image_height" : 536,
          "thumb" : "https:\/\/i1.douguo.com\/upload\/caiku\/b\/0\/7\/140_b09a4f0ccd279933d12befd23af881b7.jpeg",
          "image_width" : 960,
          "content" : "继续调味",
          "position" : 6
        },
        {
          "image" : "https:\/\/i1.douguo.com\/upload\/caiku\/c\/2\/4\/c298200817175759b35a913e8a10a1b4.jpeg",
          "image_width" : 960,
          "position" : 7,
          "frame" : "54251",
          "image_height" : 536,
          "thumb" : "https:\/\/i1.douguo.com\/upload\/caiku\/c\/2\/4\/140_c298200817175759b35a913e8a10a1b4.jpeg",
          "content" : "最后再放入虾仁和香菜"
        },
        {
          "frame" : "55996",
          "content" : "搞定后出锅开吃！",
          "image" : "https:\/\/i1.douguo.com\/upload\/caiku\/b\/1\/e\/b1dd5488a810d5bf0eab7249a3f1af4e.jpeg",
          "thumb" : "https:\/\/i1.douguo.com\/upload\/caiku\/b\/1\/e\/140_b1dd5488a810d5bf0eab7249a3f1af4e.jpeg",
          "image_width" : 960,
          "position" : 8,
          "image_height" : 536
        }
      ],
      "rpt" : "",
      "author_verified" : 1,
      "title" : " 虾仁炒丝瓜"
    }
  },
  "state" : "success"
}