{
  "result" : {
    "recipe" : {
      "minor" : [
        "{\n    note = 15g;\n    title = \"\\U51b0\\U7cd6\";\n    tu = \"https:\/\/https:\/\/m.douguo.com\/ingredients\/\\U51b0\\U7cd6\/detailmaterial\";\n}",
        "{\n    note = \"\\U9002\\U91cf\";\n    title = \"\\U67e0\\U6aac\\U6c41\";\n    tu = \"https:\/\/https:\/\/m.douguo.com\/ingredients\/\\U67e0\\U6aac\\U6c41\/detailmaterial\";\n}"
      ],
      "notes" : [

      ],
      "ipt" : "",
      "author_id" : 9320170,
      "cookstep" : [
        {
          "thumb" : "https:\/\/i1.douguo.com\/upload\/caiku\/a\/f\/f\/140_aff67b25501494fc01972659554c88af.jpg",
          "image_height" : 1080,
          "content" : "第一个要做的是冻葡萄，首先先将葡萄洗好去籽，然后川成串。",
          "frame" : "-1",
          "position" : 1,
          "image_width" : 1920,
          "image" : "https:\/\/i1.douguo.com\/upload\/caiku\/a\/f\/f\/aff67b25501494fc01972659554c88af.jpg"
        },
        {
          "image_height" : 1080,
          "frame" : "-1",
          "content" : "川好后放到冰箱里冷冻3小时以上。",
          "image_width" : 1920,
          "thumb" : "https:\/\/i1.douguo.com\/upload\/caiku\/5\/3\/b\/140_5356ccda1118f19a4de4c08a5d90e6fb.jpg",
          "position" : 2,
          "image" : "https:\/\/i1.douguo.com\/upload\/caiku\/5\/3\/b\/5356ccda1118f19a4de4c08a5d90e6fb.jpg"
        },
        {
          "position" : 3,
          "image_width" : 1920,
          "frame" : "-1",
          "thumb" : "https:\/\/i1.douguo.com\/upload\/caiku\/a\/b\/1\/140_ab59d6d6efe5942983c434613bb137d1.jpg",
          "image" : "https:\/\/i1.douguo.com\/upload\/caiku\/a\/b\/1\/ab59d6d6efe5942983c434613bb137d1.jpg",
          "content" : "冻好后，再拿出来冻葡萄就完成了。",
          "image_height" : 1080
        },
        {
          "image_height" : 1080,
          "thumb" : "https:\/\/i1.douguo.com\/upload\/caiku\/8\/e\/c\/140_8e7cc3fc73a0f523c4f9e19e133b6d0c.jpg",
          "frame" : "-1",
          "content" : "接下来要做葡萄果酱，选用夏黑葡萄500g。提示：夏黑葡萄无籽，可连皮吃。",
          "image_width" : 1920,
          "image" : "https:\/\/i1.douguo.com\/upload\/caiku\/8\/e\/c\/8e7cc3fc73a0f523c4f9e19e133b6d0c.jpg",
          "position" : 4
        },
        {
          "position" : 5,
          "image_width" : 1920,
          "content" : "把夏黑葡萄洗好后放入榨汁机里。",
          "image_height" : 1080,
          "frame" : "-1",
          "thumb" : "https:\/\/i1.douguo.com\/upload\/caiku\/b\/5\/f\/140_b58b07d23ea44f1a6ac9756602c20c3f.jpg",
          "image" : "https:\/\/i1.douguo.com\/upload\/caiku\/b\/5\/f\/b58b07d23ea44f1a6ac9756602c20c3f.jpg"
        },
        {
          "thumb" : "https:\/\/i1.douguo.com\/upload\/caiku\/9\/d\/8\/140_9d778cdaf2a8abb66941f25b3dae6b88.jpg",
          "image_height" : 1080,
          "content" : "将榨好的葡萄汁倒入平底锅里，加入150g冰糖。",
          "frame" : "-1",
          "image_width" : 1920,
          "position" : 6,
          "image" : "https:\/\/i1.douguo.com\/upload\/caiku\/9\/d\/8\/9d778cdaf2a8abb66941f25b3dae6b88.jpg"
        },
        {
          "position" : 7,
          "thumb" : "https:\/\/i1.douguo.com\/upload\/caiku\/c\/3\/1\/140_c39f368e5a8ba5b2d23f16d79b7b3e91.jpg",
          "image_height" : 1080,
          "image" : "https:\/\/i1.douguo.com\/upload\/caiku\/c\/3\/1\/c39f368e5a8ba5b2d23f16d79b7b3e91.jpg",
          "image_width" : 1920,
          "content" : "葡萄汁大火煮开，把表面出现的浮沫撇除。",
          "frame" : "-1"
        },
        {
          "position" : 8,
          "content" : "换成小火慢炖熬成粘稠状。",
          "image_height" : 1080,
          "image_width" : 1920,
          "frame" : "-1",
          "thumb" : "https:\/\/i1.douguo.com\/upload\/caiku\/4\/f\/5\/140_4f36058498fec18608cbb2a5ea43f9d5.jpg",
          "image" : "https:\/\/i1.douguo.com\/upload\/caiku\/4\/f\/5\/4f36058498fec18608cbb2a5ea43f9d5.jpg"
        },
        {
          "image_height" : 1080,
          "thumb" : "https:\/\/i1.douguo.com\/upload\/caiku\/2\/7\/8\/140_27fd02bf4d5bc992fcc990c2e52f5288.jpg",
          "frame" : "-1",
          "image_width" : 1920,
          "content" : "根据自己口味加入少量柠檬汁。",
          "position" : 9,
          "image" : "https:\/\/i1.douguo.com\/upload\/caiku\/2\/7\/8\/27fd02bf4d5bc992fcc990c2e52f5288.jpg"
        },
        {
          "image_height" : 1080,
          "image_width" : 1920,
          "image" : "https:\/\/i1.douguo.com\/upload\/caiku\/b\/6\/c\/b6e3a14da5f33d1a690f1a3ef9484d4c.jpg",
          "frame" : "-1",
          "position" : 10,
          "thumb" : "https:\/\/i1.douguo.com\/upload\/caiku\/b\/6\/c\/140_b6e3a14da5f33d1a690f1a3ef9484d4c.jpg",
          "content" : "用小碗装好，葡萄果酱就完成了。"
        },
        {
          "image" : "https:\/\/i1.douguo.com\/upload\/caiku\/f\/4\/5\/f4c37ab3a13f0c86bb89881cb46f4625.jpg",
          "image_height" : 1080,
          "thumb" : "https:\/\/i1.douguo.com\/upload\/caiku\/f\/4\/5\/140_f4c37ab3a13f0c86bb89881cb46f4625.jpg",
          "frame" : "-1",
          "image_width" : 1920,
          "position" : 11,
          "content" : "做葡萄冰激凌，找一个容器先倒入200g酸奶。"
        },
        {
          "image_height" : 1080,
          "frame" : "-1",
          "image_width" : 1920,
          "image" : "https:\/\/i1.douguo.com\/upload\/caiku\/8\/a\/7\/8a27adcc94f8525f97a6be52636074c7.jpg",
          "content" : "在酸奶里加入果酱，然后搅拌均匀。因为做冰激凌需要甜一点，所以果酱要多加点，这里的果酱里就不要放柠檬汁了。",
          "position" : 12,
          "thumb" : "https:\/\/i1.douguo.com\/upload\/caiku\/8\/a\/7\/140_8a27adcc94f8525f97a6be52636074c7.jpg"
        },
        {
          "content" : "把果酱和酸奶都搅拌好后，把容器放入冰箱里冰冻5个小时以上。这期间可以不定期拿出来搅拌。",
          "position" : 13,
          "image_height" : 1080,
          "thumb" : "https:\/\/i1.douguo.com\/upload\/caiku\/3\/a\/4\/140_3aadf1922f9625b0443409e675bb8b44.jpg",
          "image" : "https:\/\/i1.douguo.com\/upload\/caiku\/3\/a\/4\/3aadf1922f9625b0443409e675bb8b44.jpg",
          "frame" : "-1",
          "image_width" : 1920
        },
        {
          "image_height" : 1080,
          "image_width" : 1920,
          "frame" : "-1",
          "content" : "冷冻好后，用勺子挖成球状放在杯子里，这样我们的葡萄冰激凌就做好了，绝对比哈根达斯要实惠得多。",
          "position" : 14,
          "thumb" : "https:\/\/i1.douguo.com\/upload\/caiku\/8\/b\/b\/140_8ba9cb1c1af94962eda5986a7105db7b.jpg",
          "image" : "https:\/\/i1.douguo.com\/upload\/caiku\/8\/b\/b\/8ba9cb1c1af94962eda5986a7105db7b.jpg"
        }
      ],
      "packages_id" : [

      ],
      "user" : {
        "gender" : 2,
        "age" : "",
        "user_photo" : "http:\/\/tx1.douguo.net\/upload\/photo\/8\/9\/3\/70_u30924202841398175216.jpeg",
        "pc" : 0,
        "following_count" : 0,
        "coursecount" : 0,
        "recipes_count" : 0,
        "weibo_nick" : "",
        "favorites_count" : 0,
        "progress_image" : "",
        "userid" : "9320170",
        "user_id" : "9320170",
        "setted_email" : 0,
        "introduction" : "",
        "verified_url" : "https:\/\/m.douguo.com\/user\/prodesc",
        "subscription_article_count" : 0,
        "verified" : 1,
        "sign" : "",
        "dishes_count" : 0,
        "birthday" : "",
        "lvl" : 5,
        "point" : 0,
        "followers_count" : 0,
        "diaries_count" : 0,
        "verified_image" : "https:\/\/i1.douguo.com\/upload\/note\/d\/a\/a\/da84247847aebe48d9dd0fcdac88862a.png",
        "user_cover" : "",
        "qzone_nick" : "",
        "fc" : 0,
        "user_large_photo" : "http:\/\/tx1.douguo.net\/upload\/photo\/8\/9\/3\/yuan_u30924202841398175216.jpeg",
        "email" : "",
        "mobile" : "",
        "qq_weibo_nick" : "",
        "is_prime" : 0,
        "nick" : "宝妈享食记",
        "subscription" : 0,
        "lv" : 0,
        "location" : 0,
        "regist_time" : "",
        "avatar_medium" : "http:\/\/tx1.douguo.net\/upload\/photo\/8\/9\/3\/140_u30924202841398175216.jpeg",
        "favor_diaries_count" : 0
      },
      "rrpt" : "",
      "old_comments" : [

      ],
      "ipci" : "",
      "comments_count" : 4,
      "cookwares" : [

      ],
      "favo_counts_text" : "1391",
      "bs" : [

      ],
      "cookstorys" : [
        {
          "c" : "【葡萄的花样吃法】还在纠结吃葡萄吐不吐葡萄皮？这里三分钟就能解决你的吃葡萄难题，花样葡萄吃法一个视频就能掌握，无论是做果酱还是做成冰激凌，让你吃得更轻松。葡萄的这三种吃法，快来掌握吧，爽翻你的夏天！",
          "id" : 0,
          "icon" : "",
          "type" : 0,
          "u" : "",
          "color" : ""
        }
      ],
      "tips" : "",
      "ssu" : "",
      "rpt" : "",
      "hq" : 1,
      "image" : "http:\/\/i1.douguo.net\/upload\/caiku\/4\/b\/a\/300_4bec52d5102fae4aaee770eacb7f60fa.jpg",
      "rdsps" : [

      ],
      "author_photo" : "http:\/\/tx1.douguo.net\/upload\/photo\/8\/9\/3\/70_u30924202841398175216.jpeg",
      "dish_count_text" : "",
      "thumb_path" : "https:\/\/i1.douguo.com\/upload\/caiku\/4\/b\/a\/300_4bec52d5102fae4aaee770eacb7f60fa.jpg",
      "share_info" : {
        "mini_program" : [

        ],
        "infos" : [
          {
            "s_u" : "",
            "channel" : "1",
            "object_id" : "1584184",
            "name" : "掌握葡萄的这3种吃法，吃葡萄再也不用吐葡萄皮啦！-会做饭很酷!",
            "s_d" : "#学做饭用豆果美食# 我在@豆果美食 分享了【掌握葡萄的这3种吃法，吃葡萄再也不用吐葡萄皮啦！-会做饭很酷!】，哟，集美们～你看这是神仙美味～快跟着我做一份，做一份！查看图片了解菜谱（更多美食秘籍点击https:\/\/m.weibo.cn\/p\/100404i33631获取）#会做饭很酷# ",
            "qr_image" : "",
            "mini_program" : [

            ],
            "image" : "https:\/\/cp1.douguo.com\/upload\/caiku\/4\/b\/a\/4bec52d5102fae4aaee770eacb7f60fa.jpg"
          },
          {
            "mini_program" : [

            ],
            "channel" : "7",
            "object_id" : "1584184",
            "image" : "https:\/\/cp1.douguo.com\/upload\/caiku\/4\/b\/a\/4bec52d5102fae4aaee770eacb7f60fa.jpg",
            "s_u" : "http:\/\/m.douguo.com\/cookbook\/1584184.html",
            "qr_image" : "",
            "s_d" : "掌握葡萄的这3种吃法，吃葡萄再也不用吐葡萄皮啦！-会做饭很酷!",
            "name" : "掌握葡萄的这3种吃法，吃葡萄再也不用吐葡萄皮啦！-会做饭很酷!"
          },
          {
            "object_id" : "1584184",
            "s_d" : "掌握葡萄的这3种吃法，吃葡萄再也不用吐葡萄皮啦！-会做饭很酷!",
            "name" : "掌握葡萄的这3种吃法，吃葡萄再也不用吐葡萄皮啦！-会做饭很酷!",
            "image" : "https:\/\/cp1.douguo.com\/upload\/caiku\/4\/b\/a\/4bec52d5102fae4aaee770eacb7f60fa.jpg",
            "channel" : "8",
            "s_u" : "http:\/\/m.douguo.com\/cookbook\/1584184.html",
            "qr_image" : "",
            "mini_program" : [

            ]
          }
        ],
        "s_d" : "掌握葡萄的这3种吃法，吃葡萄再也不用吐葡萄皮啦！-会做饭很酷!",
        "qr_image" : "",
        "s_u" : "http:\/\/m.douguo.com\/cookbook\/1584184.html",
        "image" : "https:\/\/cp1.douguo.com\/upload\/caiku\/4\/b\/a\/4bec52d5102fae4aaee770eacb7f60fa.jpg",
        "name" : "掌握葡萄的这3种吃法，吃葡萄再也不用吐葡萄皮啦！-会做饭很酷!",
        "object_id" : "1584184"
      },
      "author" : "宝妈享食记",
      "ipurl" : "",
      "comments" : [
        "{\n    ac = \"#999999\";\n    at = \"\";\n    ccc = 0;\n    \"child_comments\" =     (\n    );\n    city = \"\";\n    cmc = 2;\n    content =     (\n                {\n            c = \"get\\U6280\\U80fd\\U7f57\";\n        }\n    );\n    ia = 0;\n    id = 4949751;\n    \"ip_address_location\" = \"\";\n    like = 0;\n    \"like_count\" = 0;\n    \"reply_id\" = 0;\n    \"sticker_icon\" =     (\n    );\n    time = \"2017-07-28 18:04:56\";\n    u =     {\n        \"followers_count_text\" = \"\";\n        id = 19690771;\n        \"is_prime\" = 0;\n        lv = 0;\n        lvl = 3;\n        n = \"\\U9521\\U5170\\U58a8\\U9999\";\n        p = \"http:\/\/tx1.douguo.net\/upload\/photo\/e\/f\/6\/70_u87545525339876121900.jpg\";\n        \"progress_image\" = \"\";\n        \"recipes_count_text\" = \"\";\n        relationship = \"-1\";\n        title = \"\";\n        v = 0;\n        \"verified_image\" = \"\";\n    };\n}",
        "{\n    ac = \"#999999\";\n    at = \"\";\n    ccc = 0;\n    \"child_comments\" =     (\n    );\n    city = \"\";\n    cmc = 2;\n    content =     (\n                {\n            c = \"\\U8d5e\";\n        }\n    );\n    ia = 0;\n    id = 4945727;\n    \"ip_address_location\" = \"\";\n    like = 0;\n    \"like_count\" = 0;\n    \"reply_id\" = 0;\n    \"sticker_icon\" =     (\n    );\n    time = \"2017-07-27 04:18:23\";\n    u =     {\n        \"followers_count_text\" = \"\";\n        id = 19877296;\n        \"is_prime\" = 0;\n        lv = 0;\n        lvl = 7;\n        n = \"\\U7edd\\U604b\\U80ba\\U708e\";\n        p = \"http:\/\/tx1.douguo.net\/upload\/photo\/7\/7\/8\/70_u89929297378723211307.jpeg\";\n        \"progress_image\" = \"\";\n        \"recipes_count_text\" = \"\";\n        relationship = \"-1\";\n        title = \"\";\n        v = 0;\n        \"verified_image\" = \"\";\n    };\n}",
        "{\n    ac = \"#999999\";\n    at = \"\";\n    ccc = 0;\n    \"child_comments\" =     (\n    );\n    city = \"\";\n    cmc = 2;\n    content =     (\n                {\n            c = \"\\U542c\\U8bf4\\U4f1a\\U505a\\U83dc\\U7684\\U4eba\\U4e0d\\U662f\\U5e05\\U54e5\\U5c31\\U662f\\U7f8e\\U5973\\Uff0c\\U4eb2\\U8fde\\U83dc\\U7684\\U989c\\U503c\\U90fd\\U8fd9\\U4e48\\U9ad8\\Uff0c\\U672c\\U4eba\\U66f4\\U662f\\U9b45\\U529b\\U65e0\\U9650\\U5440\";\n        }\n    );\n    ia = 0;\n    id = 4945545;\n    \"ip_address_location\" = \"\";\n    like = 0;\n    \"like_count\" = 0;\n    \"reply_id\" = 0;\n    \"sticker_icon\" =     (\n    );\n    time = \"2017-07-27 03:07:06\";\n    u =     {\n        \"followers_count_text\" = \"\";\n        id = 18510905;\n        \"is_prime\" = 0;\n        lv = 0;\n        lvl = 4;\n        n = \"\\U552f\\U7f8e91\";\n        p = \"http:\/\/tx1.douguo.net\/upload\/photo\/3\/f\/6\/70_u24950842772411211815.jpg\";\n        \"progress_image\" = \"\";\n        \"recipes_count_text\" = \"\";\n        relationship = \"-1\";\n        title = \"\";\n        v = 0;\n        \"verified_image\" = \"\";\n    };\n}"
      ],
      "recommendation_tag" : "",
      "rate_count" : 0,
      "brand_day_dsp" : [

      ],
      "cook_time" : "",
      "rpid" : 0,
      "hqu" : "recipes:\/\/www.douguo.com\/notedetail?id=21162253",
      "top_mdsp" : [

      ],
      "photo_path" : "https:\/\/i1.douguo.com\/upload\/caiku\/4\/b\/a\/600_4bec52d5102fae4aaee770eacb7f60fa.jpg",
      "related_ads" : [

      ],
      "cook_id" : "1584184",
      "rips" : 0,
      "recommend_label" : "1391人刚刚收藏过",
      "views_count_text" : "24.8万",
      "create_time" : "2017-07-26 19:40:55",
      "thumb_height" : 0,
      "collect_status" : 0,
      "title" : "掌握葡萄的这3种吃法，吃葡萄再也不用吐葡萄皮啦！",
      "ss" : [

      ],
      "mid_mdsp" : [

      ],
      "sc" : 0,
      "rewarded_video_dsp" : [

      ],
      "rrps" : [

      ],
      "comments_count_text" : "4",
      "ipia" : [

      ],
      "purl" : "",
      "title_ad" : [

      ],
      "display_ingredient" : 1,
      "first_level_comment_count" : 4,
      "levelid" : 2,
      "act_des" : "",
      "vfurl" : "https:\/\/vplay.douguo.com\/XMjkxODc3MDkxNg==__640x356.mp4",
      "ecs" : 0,
      "tags" : [

      ],
      "recent_comments" : [

      ],
      "vc" : "248034",
      "cook_time_image" : "",
      "eu" : "recipes:\/\/www.douguo.com\/postdetail?id=242016",
      "rpst" : "",
      "release_time" : "",
      "rcs" : [

      ],
      "favo_counts" : 1391,
      "dish_count" : 0,
      "story_dsp" : [

      ],
      "cook_difficulty" : "",
      "cookstory" : "【葡萄的花样吃法】还在纠结吃葡萄吐不吐葡萄皮？这里三分钟就能解决你的吃葡萄难题，花样葡萄吃法一个视频就能掌握，无论是做果酱还是做成冰激凌，让你吃得更轻松。葡萄的这三种吃法，快来掌握吧，爽翻你的夏天！",
      "ipoi" : "",
      "cook_difficulty_image" : "",
      "advice" : {
        "has" : [
          {
            "url" : "recipes:\/\/www.douguo.com\/simplerecipelist?t=低脂&id=低脂",
            "t" : "低脂"
          },
          {
            "t" : "低胆固醇",
            "url" : "recipes:\/\/www.douguo.com\/simplerecipelist?t=低胆固醇&id=低胆固醇"
          }
        ],
        "at" : "健身人群可以吃～",
        "da" : {
          "url" : "https:\/\/m.douguo.com\/recipe\/nutrient_self\/1584184",
          "iu" : "https:\/\/i1.douguo.com\/upload\/banner\/f\/4\/d\/f48877e53c37759bc12ac494be82ec8d.png",
          "t" : "查看详细分析"
        }
      },
      "clicks" : "243873",
      "rate" : 0,
      "rsm" : "该功能暂停使用",
      "btm_dsp" : [

      ],
      "v_u" : "",
      "vu" : "http:\/\/player.youku.com\/embed\/XMjkxODc3MDkxNg==",
      "rate_show" : 0,
      "sr" : "",
      "pw" : 800,
      "major" : [
        {
          "note" : "200g",
          "title" : "夏黑葡萄"
        },
        {
          "title" : "酸奶",
          "note" : "200g"
        }
      ],
      "recipe_list_tags" : [
        {
          "text_color" : "#141515",
          "jump_url" : "",
          "text" : "关注的人",
          "background_end_color" : "#F4F5F5",
          "right_image" : "",
          "background_border_color" : "",
          "background_start_color" : "#F4F5F5"
        }
      ],
      "recommended" : 0,
      "su" : "",
      "author_verified" : 1,
      "recipe_tags" : [

      ],
      "ipit" : 0,
      "dishes" : [

      ],
      "original_photo_path" : "http:\/\/i1.douguo.net\/upload\/caiku\/4\/b\/a\/yuan_4bec52d5102fae4aaee770eacb7f60fa.jpg",
      "ph" : 450,
      "guide_image" : ""
    }
  },
  "state" : "success",
  "status" : 0
}