{
  "result" : {
    "recipe" : {
      "cook_difficulty_image" : "",
      "author_id" : 18621547,
      "rewarded_video_dsp" : [

      ],
      "eu" : "recipes:\/\/www.douguo.com\/postdetail?id=242016",
      "btm_dsp" : [

      ],
      "ipt" : "",
      "comments" : [
        "{\n    ac = \"#999999\";\n    at = \"\";\n    ccc = 1;\n    \"child_comments\" =     (\n                {\n            ac = \"#999999\";\n            at = \"\\U5317\\U4eac\\U5e02\";\n            ccc = 0;\n            city = \"\\U5317\\U4eac\\U5e02\";\n            cmc = 2;\n            content =             (\n                                {\n                    c = \" \\U5e26\\U5e26\\U4f60\";\n                }\n            );\n            ia = 1;\n            id = 8775624;\n            \"ip_address_location\" = \"\";\n            like = 0;\n            \"like_count\" = 0;\n            \"reply_id\" = 8775413;\n            \"reply_user\" =             {\n                \"followers_count_text\" = \"\";\n                id = 18532185;\n                \"is_prime\" = 0;\n                lv = 0;\n                lvl = 4;\n                n = \"\\U4e0d\\U8ba4\\U771f\\U5c0f\\U59d0\";\n                p = \"http:\/\/tx1.douguo.net\/upload\/photo\/2\/2\/c\/70_u18976232292310408204739.jpg\";\n                \"progress_image\" = \"\";\n                \"recipes_count_text\" = \"\";\n                relationship = \"-1\";\n                title = \"\";\n                v = 0;\n                \"verified_image\" = \"\";\n            };\n            \"sticker_icon\" =             (\n            );\n            time = \"2021-09-03 15:25:36\";\n            u =             {\n                \"followers_count_text\" = \"\";\n                id = 18621547;\n                \"is_prime\" = 0;\n                lv = 0;\n                lvl = 7;\n                n = \"\\U516b\\U9c9c\\U8fc7\\U6d77\";\n                p = \"http:\/\/tx1.douguo.net\/upload\/photo\/b\/5\/5\/70_u73310629393286035316.jpg\";\n                \"progress_image\" = \"\";\n                \"recipes_count_text\" = \"\";\n                relationship = \"-1\";\n                title = \"\";\n                v = 1;\n                \"verified_image\" = \"\";\n            };\n        }\n    );\n    city = \"\";\n    cmc = 2;\n    content =     (\n                {\n            c = \"\\U8001\\U53f8\\U673a\\U5e26\\U5e26\\U6211\\Uff0c\\U54c8\\U54c8~\";\n        }\n    );\n    ia = 0;\n    id = 8775413;\n    \"ip_address_location\" = \"\";\n    like = 0;\n    \"like_count\" = 0;\n    \"reply_id\" = 0;\n    \"sticker_icon\" =     (\n    );\n    time = \"2021-09-03 11:58:06\";\n    u =     {\n        \"followers_count_text\" = \"\";\n        id = 18532185;\n        \"is_prime\" = 0;\n        lv = 0;\n        lvl = 4;\n        n = \"\\U4e0d\\U8ba4\\U771f\\U5c0f\\U59d0\";\n        p = \"http:\/\/tx1.douguo.net\/upload\/photo\/2\/2\/c\/70_u18976232292310408204739.jpg\";\n        \"progress_image\" = \"\";\n        \"recipes_count_text\" = \"\";\n        relationship = \"-1\";\n        title = \"\";\n        v = 0;\n        \"verified_image\" = \"\";\n    };\n}"
      ],
      "ipurl" : "",
      "first_level_comment_count" : 1,
      "tags" : [

      ],
      "author" : "八鲜过海",
      "story_dsp" : [

      ],
      "vu" : "",
      "release_time" : "",
      "create_time" : "2021-09-03 10:09:58",
      "share_info" : {
        "mini_program" : [

        ],
        "image" : "https:\/\/cp1.douguo.com\/upload\/caiku\/c\/6\/3\/c68719080c69dc52c57df20602df71c3.png",
        "qr_image" : "",
        "infos" : [
          {
            "mini_program" : [

            ],
            "name" : "小伙慢煎，鲜香四溢，香煎格陵兰比目鱼切身减肥菜-会做饭很酷!",
            "s_d" : "#学做饭用豆果美食# 会做饭真是太酷了！我在@豆果美食 分享了【小伙慢煎，鲜香四溢，香煎格陵兰比目鱼切身减肥菜-会做饭很酷!】OMG！这是什么神仙美味啊~真的强烈推荐你们试一试～查看图片了解菜谱（每天限量免费课程，想跟大师学厨艺就来这https:\/\/m.weibo.cn\/p\/100404i33631）",
            "channel" : "1",
            "object_id" : "3126941",
            "image" : "https:\/\/cp1.douguo.com\/upload\/caiku\/c\/6\/3\/c68719080c69dc52c57df20602df71c3.png",
            "qr_image" : "",
            "s_u" : ""
          },
          {
            "qr_image" : "",
            "object_id" : "3126941",
            "s_u" : "http:\/\/m.douguo.com\/cookbook\/3126941.html",
            "mini_program" : [

            ],
            "name" : "小伙慢煎，鲜香四溢，香煎格陵兰比目鱼切身减肥菜-会做饭很酷!",
            "image" : "https:\/\/cp1.douguo.com\/upload\/caiku\/c\/6\/3\/c68719080c69dc52c57df20602df71c3.png",
            "channel" : "7",
            "s_d" : "小伙慢煎，鲜香四溢，香煎格陵兰比目鱼切身减肥菜-会做饭很酷!"
          },
          {
            "channel" : "8",
            "name" : "小伙慢煎，鲜香四溢，香煎格陵兰比目鱼切身减肥菜-会做饭很酷!",
            "mini_program" : [

            ],
            "image" : "https:\/\/cp1.douguo.com\/upload\/caiku\/c\/6\/3\/c68719080c69dc52c57df20602df71c3.png",
            "s_u" : "http:\/\/m.douguo.com\/cookbook\/3126941.html",
            "qr_image" : "",
            "s_d" : "小伙慢煎，鲜香四溢，香煎格陵兰比目鱼切身减肥菜-会做饭很酷!",
            "object_id" : "3126941"
          }
        ],
        "s_u" : "http:\/\/m.douguo.com\/cookbook\/3126941.html",
        "name" : "小伙慢煎，鲜香四溢，香煎格陵兰比目鱼切身减肥菜-会做饭很酷!",
        "s_d" : "小伙慢煎，鲜香四溢，香煎格陵兰比目鱼切身减肥菜-会做饭很酷!",
        "object_id" : "3126941"
      },
      "recommend_label" : "2.6万人看过",
      "dish_count_text" : "",
      "rrps" : [

      ],
      "su" : "",
      "cook_time" : "",
      "thumb_path" : "https:\/\/i1.douguo.com\/upload\/caiku\/c\/6\/3\/300_c68719080c69dc52c57df20602df71c3.png",
      "ipit" : 0,
      "original_photo_path" : "http:\/\/i1.douguo.net\/upload\/caiku\/c\/6\/3\/yuan_c68719080c69dc52c57df20602df71c3.png",
      "author_photo" : "http:\/\/tx1.douguo.net\/upload\/photo\/b\/5\/5\/70_u73310629393286035316.jpg",
      "rcs" : [

      ],
      "comments_count" : 2,
      "dishes" : [

      ],
      "rate" : 0,
      "title" : "小伙慢煎，鲜香四溢，香煎格陵兰比目鱼切身减肥菜",
      "act_des" : "",
      "v_u" : "",
      "vfurl" : "",
      "notes" : [

      ],
      "cookstory" : "格陵兰比目鱼，英文：Greenland halibut。千万不要以为它叫格陵兰比目鱼就以为只有格陵兰有，它们在北太平洋和大西洋的北部和东部都有分布。格陵兰比目鱼，肉质细腻，刺少鲜嫩，适合老人和儿童食用。“切身”即鱼段，一般是指将鱼横切成块。",
      "old_comments" : [

      ],
      "favo_counts_text" : "500",
      "ipia" : [

      ],
      "minor" : [

      ],
      "cookstorys" : [
        {
          "id" : 0,
          "color" : "",
          "icon" : "",
          "type" : 0,
          "u" : "",
          "c" : "格陵兰比目鱼，英文：Greenland halibut。千万不要以为它叫格陵兰比目鱼就以为只有格陵兰有，它们在北太平洋和大西洋的北部和东部都有分布。格陵兰比目鱼，肉质细腻，刺少鲜嫩，适合老人和儿童食用。“切身”即鱼段，一般是指将鱼横切成块。"
        }
      ],
      "rpt" : "",
      "rate_show" : 0,
      "pw" : 960,
      "author_verified" : 1,
      "rpid" : 0,
      "display_ingredient" : 1,
      "title_ad" : [

      ],
      "comments_count_text" : "2",
      "related_ads" : [

      ],
      "clicks" : "17528",
      "bs" : [

      ],
      "views_count_text" : "2.6万",
      "image" : "http:\/\/i1.douguo.net\/upload\/caiku\/c\/6\/3\/300_c68719080c69dc52c57df20602df71c3.png",
      "favo_counts" : 500,
      "guide_image" : "",
      "user" : {
        "is_prime" : 0,
        "user_photo" : "http:\/\/tx1.douguo.net\/upload\/photo\/b\/5\/5\/70_u73310629393286035316.jpg",
        "following_count" : 0,
        "subscription_article_count" : 0,
        "recipes_count" : 0,
        "weibo_nick" : "",
        "mobile" : "",
        "favorites_count" : 0,
        "verified_image" : "https:\/\/i1.douguo.com\/upload\/note\/d\/a\/a\/da84247847aebe48d9dd0fcdac88862a.png",
        "birthday" : "",
        "lv" : 0,
        "verified" : 1,
        "setted_email" : 0,
        "regist_time" : "",
        "qq_weibo_nick" : "",
        "fc" : 0,
        "email" : "",
        "diaries_count" : 0,
        "point" : 0,
        "gender" : 2,
        "user_cover" : "",
        "qzone_nick" : "",
        "subscription" : 0,
        "user_id" : "18621547",
        "introduction" : "",
        "age" : "",
        "coursecount" : 0,
        "progress_image" : "",
        "favor_diaries_count" : 0,
        "verified_url" : "https:\/\/m.douguo.com\/user\/prodesc",
        "dishes_count" : 0,
        "pc" : 0,
        "location" : 0,
        "user_large_photo" : "http:\/\/tx1.douguo.net\/upload\/photo\/b\/5\/5\/yuan_u73310629393286035316.jpg",
        "lvl" : 7,
        "sign" : "",
        "followers_count" : 0,
        "userid" : "18621547",
        "nick" : "八鲜过海",
        "avatar_medium" : "http:\/\/tx1.douguo.net\/upload\/photo\/b\/5\/5\/140_u73310629393286035316.jpg"
      },
      "rsm" : "该功能暂停使用",
      "cook_difficulty" : "",
      "thumb_height" : 0,
      "dish_count" : 0,
      "sc" : 0,
      "ssu" : "",
      "mid_mdsp" : [

      ],
      "recommended" : 0,
      "photo_path" : "https:\/\/i1.douguo.com\/upload\/caiku\/c\/6\/3\/600_c68719080c69dc52c57df20602df71c3.png",
      "rpst" : "",
      "top_mdsp" : [

      ],
      "brand_day_dsp" : [

      ],
      "ph" : 540,
      "advice" : {
        "at" : "盐分较多，制作时适当调节～",
        "da" : {
          "t" : "查看详细分析",
          "url" : "https:\/\/m.douguo.com\/recipe\/nutrient_self\/3126941",
          "iu" : "https:\/\/i1.douguo.com\/upload\/banner\/f\/4\/d\/f48877e53c37759bc12ac494be82ec8d.png"
        },
        "has" : [
          {
            "url" : "recipes:\/\/www.douguo.com\/simplerecipelist?t=高盐&id=高盐",
            "t" : "高盐"
          }
        ]
      },
      "ss" : [

      ],
      "ipoi" : "",
      "recent_comments" : [

      ],
      "ipci" : "",
      "tips" : "",
      "cook_time_image" : "",
      "levelid" : 2,
      "packages_id" : [

      ],
      "recipe_list_tags" : [
        {
          "jump_url" : "",
          "background_start_color" : "#F4F5F5",
          "background_end_color" : "#F4F5F5",
          "text" : "关注的人",
          "text_color" : "#141515",
          "background_border_color" : "",
          "right_image" : ""
        },
        {
          "text" : "值得pick",
          "text_color" : "#141515",
          "background_start_color" : "#F4F5F5",
          "jump_url" : "",
          "right_image" : "",
          "background_border_color" : "",
          "background_end_color" : "#F4F5F5"
        }
      ],
      "major" : [
        {
          "title" : "格陵兰比目鱼切身",
          "note" : "3大块"
        },
        {
          "tu" : "https:\/\/m.douguo.com\/ingredients\/鸡蛋\/detailmaterial",
          "note" : "1个",
          "title" : "鸡蛋"
        },
        {
          "tu" : "https:\/\/m.douguo.com\/ingredients\/生粉\/detailmaterial",
          "title" : "生粉",
          "note" : "20克"
        },
        {
          "title" : "日本酱油",
          "note" : "1勺"
        },
        {
          "title" : "黑胡椒粉",
          "tu" : "https:\/\/m.douguo.com\/ingredients\/黑胡椒粉\/detailmaterial",
          "note" : "5克"
        },
        {
          "title" : "盐",
          "tu" : "https:\/\/m.douguo.com\/ingredients\/盐\/detailmaterial",
          "note" : "5克"
        },
        {
          "title" : "白糖",
          "note" : "5克",
          "tu" : "https:\/\/m.douguo.com\/ingredients\/白糖\/detailmaterial"
        },
        {
          "note" : "10克",
          "tu" : "https:\/\/m.douguo.com\/ingredients\/食用油\/detailmaterial",
          "title" : "食用油"
        }
      ],
      "cookwares" : [

      ],
      "rdsps" : [

      ],
      "vc" : "26165",
      "rips" : 0,
      "hq" : 1,
      "rrpt" : "",
      "recipe_tags" : [

      ],
      "ecs" : 1,
      "rate_count" : 0,
      "purl" : "",
      "recommendation_tag" : "",
      "sr" : "",
      "collect_status" : 0,
      "hqu" : "recipes:\/\/www.douguo.com\/notedetail?id=21162253",
      "cook_id" : "3126941",
      "cookstep" : [
        {
          "frame" : "-1",
          "content" : "将格陵兰比目鱼块洗净，吸干水份。",
          "thumb" : "https:\/\/i1.douguo.com\/upload\/caiku\/7\/d\/d\/140_7d5872f056fee6b422a3da5f757ccf6d.png",
          "position" : 1,
          "image_height" : 470,
          "image_width" : 843,
          "image" : "https:\/\/i1.douguo.com\/upload\/caiku\/7\/d\/d\/7d5872f056fee6b422a3da5f757ccf6d.png"
        },
        {
          "position" : 2,
          "content" : "取1个鸡蛋黄，倒入1勺日本酱油、20克生粉、5克盐、5克糖，拌匀成糊。",
          "image" : "https:\/\/i1.douguo.com\/upload\/caiku\/4\/2\/f\/4244c1c428200481d487e3e612edc62f.png",
          "image_width" : 637,
          "thumb" : "https:\/\/i1.douguo.com\/upload\/caiku\/4\/2\/f\/140_4244c1c428200481d487e3e612edc62f.png",
          "image_height" : 466,
          "frame" : "-1"
        },
        {
          "image_width" : 843,
          "position" : 3,
          "image" : "https:\/\/i1.douguo.com\/upload\/caiku\/d\/1\/3\/d130c74b7b1e4997a6882958176d44e3.png",
          "frame" : "-1",
          "image_height" : 470,
          "content" : "将吸干水份的鱼块放入盘中，充分裹糊，腌制3—5分钟。",
          "thumb" : "https:\/\/i1.douguo.com\/upload\/caiku\/d\/1\/3\/140_d130c74b7b1e4997a6882958176d44e3.png"
        },
        {
          "image_width" : 785,
          "frame" : "-1",
          "thumb" : "https:\/\/i1.douguo.com\/upload\/caiku\/7\/3\/9\/140_73cd8d86f708e15c6a34da6aedb05689.png",
          "image" : "https:\/\/i1.douguo.com\/upload\/caiku\/7\/3\/9\/73cd8d86f708e15c6a34da6aedb05689.png",
          "position" : 4,
          "content" : "热锅倒油，充分润锅。",
          "image_height" : 464
        },
        {
          "frame" : "-1",
          "content" : "将腌好的鱼段放入锅中，两面各煎2—3分钟。",
          "image" : "https:\/\/i1.douguo.com\/upload\/caiku\/4\/5\/4\/45aa088c8e4cc03f047c9aa6874e7784.png",
          "image_width" : 791,
          "position" : 5,
          "thumb" : "https:\/\/i1.douguo.com\/upload\/caiku\/4\/5\/4\/140_45aa088c8e4cc03f047c9aa6874e7784.png",
          "image_height" : 462
        },
        {
          "position" : 6,
          "content" : "两面煎至金黄即可出锅。",
          "image_width" : 849,
          "image" : "https:\/\/i1.douguo.com\/upload\/caiku\/e\/5\/2\/e56cc68c2b752b84731a5c171ad987a2.png",
          "thumb" : "https:\/\/i1.douguo.com\/upload\/caiku\/e\/5\/2\/140_e56cc68c2b752b84731a5c171ad987a2.png",
          "image_height" : 477,
          "frame" : "-1"
        },
        {
          "thumb" : "https:\/\/i1.douguo.com\/upload\/caiku\/5\/0\/c\/140_504e7865484ef49ab82508137c2723bc.png",
          "image_width" : 822,
          "content" : "出锅后，撒上黑胡椒。",
          "position" : 7,
          "frame" : "-1",
          "image_height" : 457,
          "image" : "https:\/\/i1.douguo.com\/upload\/caiku\/5\/0\/c\/504e7865484ef49ab82508137c2723bc.png"
        },
        {
          "thumb" : "https:\/\/i1.douguo.com\/upload\/caiku\/5\/c\/2\/140_5c00e33e0ec976656e777067efc60a72.png",
          "frame" : "-1",
          "image" : "https:\/\/i1.douguo.com\/upload\/caiku\/5\/c\/2\/5c00e33e0ec976656e777067efc60a72.png",
          "content" : "简直不要太好吃！",
          "position" : 8,
          "image_height" : 540,
          "image_width" : 960
        }
      ]
    }
  },
  "status" : 0,
  "state" : "success"
}