{
  "result" : {
    "recipe" : {
      "recommended" : 0,
      "tags" : [
        "{\n    text = \"\\U6d77\\U9c9c\";\n}",
        "{\n    text = \"\\U6c34\\U4ea7\";\n}",
        "{\n    text = \"\\U70e4\";\n}",
        "{\n    text = \"\\U9999\";\n}",
        "{\n    text = \"\\U9c9c\";\n}",
        "{\n    text = \"\\U665a\\U9910\";\n}"
      ],
      "recommendation_tag" : "",
      "dishes" : [

      ],
      "recipe_list_tags" : [
        {
          "jump_url" : "",
          "text_color" : "#141515",
          "right_image" : "",
          "background_end_color" : "#F4F5F5",
          "text" : "关注的人",
          "background_border_color" : "",
          "background_start_color" : "#F4F5F5"
        },
        {
          "background_start_color" : "#F4F5F5",
          "background_end_color" : "#F4F5F5",
          "jump_url" : "",
          "background_border_color" : "",
          "text_color" : "#141515",
          "right_image" : "",
          "text" : "内容详细"
        }
      ],
      "title_ad" : [

      ],
      "rdsps" : [

      ],
      "author_verified" : 1,
      "comments" : [
        "{\n    ac = \"#999999\";\n    at = \"\\U4e0a\\U6d77\\U5e02\";\n    ccc = 0;\n    \"child_comments\" =     (\n    );\n    city = \"\\U4e0a\\U6d77\\U5e02\";\n    cmc = 2;\n    content =     (\n                {\n            c = \"\\U8fd9\\U53eb\\U70e4\\U9c7c\\Uff1f\";\n        }\n    );\n    ia = 0;\n    id = 6065633;\n    \"ip_address_location\" = \"\";\n    like = 0;\n    \"like_count\" = 0;\n    \"reply_id\" = 0;\n    \"sticker_icon\" =     (\n    );\n    time = \"2018-09-24 11:14:31\";\n    u =     {\n        \"followers_count_text\" = \"\";\n        id = 20125528;\n        \"is_prime\" = 0;\n        lv = 0;\n        lvl = 1;\n        n = \"\\U6728\\U72ec\\U682a\";\n        p = \"http:\/\/tx1.douguo.net\/upload\/photo\/a\/d\/4\/70_u93195690986357150012.jpg\";\n        \"progress_image\" = \"\";\n        \"recipes_count_text\" = \"\";\n        relationship = \"-1\";\n        title = \"\";\n        v = 0;\n        \"verified_image\" = \"\";\n    };\n}",
        "{\n    ac = \"#999999\";\n    at = \"\";\n    ccc = 0;\n    \"child_comments\" =     (\n    );\n    city = \"\";\n    cmc = 2;\n    content =     (\n                {\n            c = \"\\U54c7\\U54e6\\Uff01\\U8089\\U8089\\U5f97\\U5230\\U8bd5\\U7528\\U4e86\\U5440\\Uff01\";\n        }\n    );\n    ia = 0;\n    id = 2700302;\n    \"ip_address_location\" = \"\";\n    like = 0;\n    \"like_count\" = 0;\n    \"reply_id\" = 0;\n    \"sticker_icon\" =     (\n    );\n    time = \"2015-10-06 02:15:03\";\n    u =     {\n        \"followers_count_text\" = \"\";\n        id = 1886090;\n        \"is_prime\" = 0;\n        lv = 0;\n        lvl = 3;\n        n = \"\\U4e61\\U6751\\U7f8e\\U98df\\U4f9d\\U4f9d\";\n        p = \"http:\/\/tx1.douguo.net\/upload\/photo\/4\/e\/b\/70_u4486405335267162605.jpg\";\n        \"progress_image\" = \"\";\n        \"recipes_count_text\" = \"\";\n        relationship = \"-1\";\n        title = \"\";\n        v = 0;\n        \"verified_image\" = \"\";\n    };\n}",
        "{\n    ac = \"#999999\";\n    at = \"\";\n    ccc = 0;\n    \"child_comments\" =     (\n    );\n    city = \"\";\n    cmc = 2;\n    content =     (\n                {\n            c = \"\\U9c9c\\U9999\\U7f8e\\U5473 \";\n        }\n    );\n    ia = 0;\n    id = 2698217;\n    \"ip_address_location\" = \"\";\n    like = 0;\n    \"like_count\" = 0;\n    \"reply_id\" = 0;\n    \"sticker_icon\" =     (\n    );\n    time = \"2015-10-05 07:17:53\";\n    u =     {\n        \"followers_count_text\" = \"\";\n        id = 11142859;\n        \"is_prime\" = 0;\n        lv = 0;\n        lvl = 6;\n        n = \"\\U5218\\U4fa0\\U513f\";\n        p = \"http:\/\/tx1.douguo.net\/upload\/photo\/3\/0\/1\/70_u4099321691015910101802.jpg\";\n        \"progress_image\" = \"\";\n        \"recipes_count_text\" = \"\";\n        relationship = \"-1\";\n        title = \"\";\n        v = 0;\n        \"verified_image\" = \"\";\n    };\n}"
      ],
      "advice" : {
        "has" : [
          {
            "t" : "富含蛋白质",
            "url" : "recipes:\/\/www.douguo.com\/simplerecipelist?t=富含蛋白质&id=富含蛋白质"
          },
          {
            "url" : "recipes:\/\/www.douguo.com\/simplerecipelist?t=富含烟酸&id=富含烟酸",
            "t" : "富含烟酸"
          }
        ],
        "at" : "有助于组织的形成和生长～",
        "da" : {
          "t" : "查看详细分析",
          "iu" : "https:\/\/i1.douguo.com\/upload\/banner\/f\/4\/d\/f48877e53c37759bc12ac494be82ec8d.png",
          "url" : "https:\/\/m.douguo.com\/recipe\/nutrient_self\/1266391"
        }
      },
      "share_info" : {
        "qr_image" : "",
        "name" : "之锡纸烤黑鱼#美的智烤大师烤箱#-会做饭很酷!",
        "s_u" : "http:\/\/m.douguo.com\/cookbook\/1266391.html",
        "mini_program" : [

        ],
        "object_id" : "1266391",
        "image" : "https:\/\/cp1.douguo.com\/upload\/caiku\/4\/4\/5\/4448542e1a494fa2a4df942495467875.jpg",
        "infos" : [
          {
            "name" : "之锡纸烤黑鱼#美的智烤大师烤箱#-会做饭很酷!",
            "image" : "https:\/\/cp1.douguo.com\/upload\/caiku\/4\/4\/5\/4448542e1a494fa2a4df942495467875.jpg",
            "object_id" : "1266391",
            "mini_program" : [

            ],
            "qr_image" : "",
            "s_u" : "",
            "s_d" : "#学做饭用豆果美食# 我在@豆果美食 分享了【之锡纸烤黑鱼#美的智烤大师烤箱#-会做饭很酷!】，这菜真的很好吃，而且做法简单不难学，还不快来跟我学～查看图片了解菜谱（每天限量免费课程，想跟大师学厨艺就来这https:\/\/m.weibo.cn\/p\/100404i33631）#会做饭很酷# ",
            "channel" : "1"
          },
          {
            "s_u" : "http:\/\/m.douguo.com\/cookbook\/1266391.html",
            "qr_image" : "",
            "s_d" : "之锡纸烤黑鱼#美的智烤大师烤箱#-会做饭很酷!",
            "mini_program" : [

            ],
            "channel" : "7",
            "image" : "https:\/\/cp1.douguo.com\/upload\/caiku\/4\/4\/5\/4448542e1a494fa2a4df942495467875.jpg",
            "object_id" : "1266391",
            "name" : "之锡纸烤黑鱼#美的智烤大师烤箱#-会做饭很酷!"
          },
          {
            "s_u" : "http:\/\/m.douguo.com\/cookbook\/1266391.html",
            "qr_image" : "",
            "image" : "https:\/\/cp1.douguo.com\/upload\/caiku\/4\/4\/5\/4448542e1a494fa2a4df942495467875.jpg",
            "channel" : "8",
            "mini_program" : [

            ],
            "name" : "之锡纸烤黑鱼#美的智烤大师烤箱#-会做饭很酷!",
            "s_d" : "之锡纸烤黑鱼#美的智烤大师烤箱#-会做饭很酷!",
            "object_id" : "1266391"
          }
        ],
        "s_d" : "之锡纸烤黑鱼#美的智烤大师烤箱#-会做饭很酷!"
      },
      "thumb_path" : "https:\/\/i1.douguo.com\/upload\/caiku\/4\/4\/5\/300_4448542e1a494fa2a4df942495467875.jpg",
      "ipurl" : "",
      "sc" : 0,
      "hqu" : "recipes:\/\/www.douguo.com\/notedetail?id=21162253",
      "cook_id" : "1266391",
      "recipe_tags" : [

      ],
      "original_photo_path" : "http:\/\/i1.douguo.net\/upload\/caiku\/4\/4\/5\/yuan_4448542e1a494fa2a4df942495467875.jpg",
      "create_time" : "2015-10-05 14:50:08",
      "cook_time_image" : "",
      "rips" : 0,
      "story_dsp" : [

      ],
      "top_mdsp" : [

      ],
      "ph" : 1208,
      "release_time" : "",
      "ipia" : [

      ],
      "vc" : "225288",
      "recommend_label" : "2人学做",
      "rate_count" : 1,
      "dish_count_text" : "2",
      "cookstep" : [
        {
          "image_height" : 1944,
          "image_width" : 2592,
          "thumb" : "https:\/\/i1.douguo.com\/upload\/caiku\/6\/4\/6\/140_646177f339a57e1deeee21511143c9f6.jpg",
          "frame" : "-1",
          "position" : 1,
          "image" : "https:\/\/i1.douguo.com\/upload\/caiku\/6\/4\/6\/646177f339a57e1deeee21511143c9f6.jpg",
          "content" : "准备好食材：黑鱼、干葱、大葱、大蒜、姜、黄油、口蘑、彩椒、香菜、羊肉、盐、糖、醋、生抽、黄酒。"
        },
        {
          "frame" : "-1",
          "image" : "https:\/\/i1.douguo.com\/upload\/caiku\/8\/4\/9\/84f674fb9d300f23dc076307c84f86a9.jpg",
          "image_height" : 1944,
          "thumb" : "https:\/\/i1.douguo.com\/upload\/caiku\/8\/4\/9\/140_84f674fb9d300f23dc076307c84f86a9.jpg",
          "image_width" : 2592,
          "content" : "黑鱼身两面切花刀然后一分两半（煎锅太小所以切开两半煎）、香菜切碎、羊肉切丁、彩椒切丁、大葱切碎、干葱一半切末一半切丝、姜一半切丝一半切末、口蘑切片、大蒜拍一下剁碎。",
          "position" : 2
        },
        {
          "image" : "https:\/\/i1.douguo.com\/upload\/caiku\/0\/1\/3\/0132ddbc07a4edc51c94bba7929153e3.jpg",
          "image_width" : 2592,
          "frame" : "-1",
          "position" : 3,
          "image_height" : 1944,
          "thumb" : "https:\/\/i1.douguo.com\/upload\/caiku\/0\/1\/3\/140_0132ddbc07a4edc51c94bba7929153e3.jpg",
          "content" : "把鱼放在容器内放上姜丝大葱碎，再加两勺盐。"
        },
        {
          "frame" : "-1",
          "content" : "然后放入30毫升黄酒按摩一下腌制一小时。",
          "image" : "https:\/\/i1.douguo.com\/upload\/caiku\/6\/d\/e\/6dd61fed5c8f243f5fb7134342d8930e.jpg",
          "thumb" : "https:\/\/i1.douguo.com\/upload\/caiku\/6\/d\/e\/140_6dd61fed5c8f243f5fb7134342d8930e.jpg",
          "image_width" : 2592,
          "position" : 4,
          "image_height" : 1944
        },
        {
          "image_height" : 1944,
          "position" : 5,
          "content" : "炒锅烧热加入黄油融化开",
          "image" : "https:\/\/i1.douguo.com\/upload\/caiku\/8\/f\/e\/8f4467be75b0d378b55c85f19ea836ee.jpg",
          "thumb" : "https:\/\/i1.douguo.com\/upload\/caiku\/8\/f\/e\/140_8f4467be75b0d378b55c85f19ea836ee.jpg",
          "image_width" : 2592,
          "frame" : "-1"
        },
        {
          "image_height" : 1944,
          "frame" : "-1",
          "position" : 6,
          "image_width" : 2592,
          "thumb" : "https:\/\/i1.douguo.com\/upload\/caiku\/e\/4\/f\/140_e486fa8d95c3ce9b5e550fd3717456af.jpg",
          "image" : "https:\/\/i1.douguo.com\/upload\/caiku\/e\/4\/f\/e486fa8d95c3ce9b5e550fd3717456af.jpg",
          "content" : "下入干葱姜蒜末爆锅"
        },
        {
          "frame" : "-1",
          "image_height" : 1944,
          "image_width" : 2592,
          "thumb" : "https:\/\/i1.douguo.com\/upload\/caiku\/a\/5\/d\/140_a5e19d4e0e179564da2385a4c8491c9d.jpg",
          "content" : "然后加入羊肉丁翻炒",
          "position" : 7,
          "image" : "https:\/\/i1.douguo.com\/upload\/caiku\/a\/5\/d\/a5e19d4e0e179564da2385a4c8491c9d.jpg"
        },
        {
          "image_height" : 1944,
          "content" : "待羊肉变色加入口蘑片翻炒",
          "position" : 8,
          "frame" : "-1",
          "thumb" : "https:\/\/i1.douguo.com\/upload\/caiku\/7\/e\/4\/140_7ed5e882e3e69f36e17f735438ea6034.jpg",
          "image_width" : 2592,
          "image" : "https:\/\/i1.douguo.com\/upload\/caiku\/7\/e\/4\/7ed5e882e3e69f36e17f735438ea6034.jpg"
        },
        {
          "image" : "https:\/\/i1.douguo.com\/upload\/caiku\/8\/2\/7\/82c9f27bc66a7458f9be81db63d82df7.jpg",
          "frame" : "-1",
          "content" : "蘑菇变软以后加入彩椒丁翻炒",
          "thumb" : "https:\/\/i1.douguo.com\/upload\/caiku\/8\/2\/7\/140_82c9f27bc66a7458f9be81db63d82df7.jpg",
          "image_height" : 1944,
          "image_width" : 2592,
          "position" : 9
        },
        {
          "position" : 10,
          "image_width" : 2592,
          "thumb" : "https:\/\/i1.douguo.com\/upload\/caiku\/3\/3\/f\/140_3333054b2246da75766412296a07fcbf.jpg",
          "content" : "再加上一勺盐",
          "image_height" : 1944,
          "image" : "https:\/\/i1.douguo.com\/upload\/caiku\/3\/3\/f\/3333054b2246da75766412296a07fcbf.jpg",
          "frame" : "-1"
        },
        {
          "image" : "https:\/\/i1.douguo.com\/upload\/caiku\/b\/4\/c\/b4280b64206b633928529fec1546b63c.jpg",
          "image_width" : 2592,
          "content" : "一大勺白糖",
          "image_height" : 1944,
          "position" : 11,
          "thumb" : "https:\/\/i1.douguo.com\/upload\/caiku\/b\/4\/c\/140_b4280b64206b633928529fec1546b63c.jpg",
          "frame" : "-1"
        },
        {
          "thumb" : "https:\/\/i1.douguo.com\/upload\/caiku\/0\/4\/8\/140_044831e32153873c1e9ab23271e75948.jpg",
          "position" : 12,
          "frame" : "-1",
          "image" : "https:\/\/i1.douguo.com\/upload\/caiku\/0\/4\/8\/044831e32153873c1e9ab23271e75948.jpg",
          "image_height" : 1944,
          "content" : "40毫升生抽",
          "image_width" : 2592
        },
        {
          "image_width" : 2592,
          "frame" : "-1",
          "image_height" : 1944,
          "thumb" : "https:\/\/i1.douguo.com\/upload\/caiku\/2\/0\/3\/140_20b9926c8ad412130e57442a287769b3.jpg",
          "image" : "https:\/\/i1.douguo.com\/upload\/caiku\/2\/0\/3\/20b9926c8ad412130e57442a287769b3.jpg",
          "content" : "最后加15毫升醋翻炒一会儿就关火备用",
          "position" : 13
        },
        {
          "image_height" : 1944,
          "frame" : "-1",
          "thumb" : "https:\/\/i1.douguo.com\/upload\/caiku\/1\/f\/a\/140_1fc834d9e9fe05c19585763f0e030f4a.jpg",
          "image" : "https:\/\/i1.douguo.com\/upload\/caiku\/1\/f\/a\/1fc834d9e9fe05c19585763f0e030f4a.jpg",
          "image_width" : 2592,
          "position" : 14,
          "content" : "鱼腌制好以后去掉葱姜，在鱼身上拍一层干淀粉。"
        },
        {
          "image_width" : 2592,
          "content" : "然后放到烧热的煎锅内煎至两面金黄",
          "position" : 15,
          "image" : "https:\/\/i1.douguo.com\/upload\/caiku\/4\/3\/e\/43ca40557e06835e98b81fea360f9e0e.jpg",
          "frame" : "-1",
          "image_height" : 1944,
          "thumb" : "https:\/\/i1.douguo.com\/upload\/caiku\/4\/3\/e\/140_43ca40557e06835e98b81fea360f9e0e.jpg"
        },
        {
          "content" : "先用手机APP选择热风功能，设置200度20分钟，并且勾选一下屏幕下方的烘烤开始前预热，按开启键。",
          "frame" : "-1",
          "thumb" : "https:\/\/i1.douguo.com\/upload\/caiku\/2\/2\/b\/140_22b539f3075d4aab512e717a8badd6db.jpeg",
          "position" : 16,
          "image_width" : 1080,
          "image_height" : 1920,
          "image" : "https:\/\/i1.douguo.com\/upload\/caiku\/2\/2\/b\/22b539f3075d4aab512e717a8badd6db.jpeg"
        },
        {
          "image" : "https:\/\/i1.douguo.com\/upload\/caiku\/0\/d\/5\/0d895d6ef9d69b00b0b263f27f5f93d5.jpeg",
          "thumb" : "https:\/\/i1.douguo.com\/upload\/caiku\/0\/d\/5\/140_0d895d6ef9d69b00b0b263f27f5f93d5.jpeg",
          "content" : "这时手机显示烤箱预热中请稍后",
          "image_height" : 1920,
          "position" : 17,
          "image_width" : 1080,
          "frame" : "-1"
        },
        {
          "frame" : "-1",
          "image_height" : 1944,
          "position" : 18,
          "content" : "烤箱预热时我们把烤盘内十字交叉铺两张锡纸，锡纸上抹一层软化的黄油。",
          "thumb" : "https:\/\/i1.douguo.com\/upload\/caiku\/8\/9\/4\/140_8985e5c9a62b12b32de690ec63552cb4.jpg",
          "image_width" : 2592,
          "image" : "https:\/\/i1.douguo.com\/upload\/caiku\/8\/9\/4\/8985e5c9a62b12b32de690ec63552cb4.jpg"
        },
        {
          "frame" : "-1",
          "image" : "https:\/\/i1.douguo.com\/upload\/caiku\/c\/a\/7\/cae4fedeb52f1d8dd12be14fb452d127.jpg",
          "content" : "再撒上一层干葱丝",
          "thumb" : "https:\/\/i1.douguo.com\/upload\/caiku\/c\/a\/7\/140_cae4fedeb52f1d8dd12be14fb452d127.jpg",
          "image_width" : 2592,
          "position" : 19,
          "image_height" : 1944
        },
        {
          "thumb" : "https:\/\/i1.douguo.com\/upload\/caiku\/9\/9\/8\/140_99e12aa7b413c40db428e9f361c0e4f8.jpg",
          "image" : "https:\/\/i1.douguo.com\/upload\/caiku\/9\/9\/8\/99e12aa7b413c40db428e9f361c0e4f8.jpg",
          "image_width" : 2592,
          "position" : 20,
          "frame" : "-1",
          "image_height" : 1944,
          "content" : "把煎好的黑鱼拼起来摆放在烤盘内。"
        },
        {
          "content" : "将炒好的料汁浇在鱼身上",
          "thumb" : "https:\/\/i1.douguo.com\/upload\/caiku\/9\/a\/c\/140_9ad37d1747a260fe885fe58d5b5ab3ec.jpg",
          "image" : "https:\/\/i1.douguo.com\/upload\/caiku\/9\/a\/c\/9ad37d1747a260fe885fe58d5b5ab3ec.jpg",
          "image_height" : 1944,
          "position" : 21,
          "image_width" : 2592,
          "frame" : "-1"
        },
        {
          "frame" : "-1",
          "position" : 22,
          "thumb" : "https:\/\/i1.douguo.com\/upload\/caiku\/c\/c\/f\/140_ccf419b9e220a6062e22265ee8c7ef6f.jpg",
          "image_width" : 2592,
          "content" : "然后用锡纸把鱼和料包起来，尽量包紧别漏气。",
          "image" : "https:\/\/i1.douguo.com\/upload\/caiku\/c\/c\/f\/ccf419b9e220a6062e22265ee8c7ef6f.jpg",
          "image_height" : 1944
        },
        {
          "image_height" : 1920,
          "image_width" : 1080,
          "content" : "这时手机显示烤箱预热已完成，按确认键。",
          "frame" : "-1",
          "position" : 23,
          "image" : "https:\/\/i1.douguo.com\/upload\/caiku\/c\/a\/1\/cabd5d5cb564cefda997c114a6ae73a1.jpeg",
          "thumb" : "https:\/\/i1.douguo.com\/upload\/caiku\/c\/a\/1\/140_cabd5d5cb564cefda997c114a6ae73a1.jpeg"
        },
        {
          "frame" : "-1",
          "content" : "把烤盘放入预热好的烤箱中层关好门。",
          "position" : 24,
          "thumb" : "https:\/\/i1.douguo.com\/upload\/caiku\/9\/2\/a\/140_9202fae7e0973045acb2584c0ba5587a.jpg",
          "image" : "https:\/\/i1.douguo.com\/upload\/caiku\/9\/2\/a\/9202fae7e0973045acb2584c0ba5587a.jpg",
          "image_width" : 2592,
          "image_height" : 1944
        },
        {
          "image_height" : 1920,
          "thumb" : "https:\/\/i1.douguo.com\/upload\/caiku\/b\/0\/f\/140_b0b8c8633e7c941e72955e20d790bdff.jpeg",
          "frame" : "-1",
          "position" : 25,
          "image_width" : 1080,
          "content" : "这时手机显示烤箱工作的倒计时",
          "image" : "https:\/\/i1.douguo.com\/upload\/caiku\/b\/0\/f\/b0b8c8633e7c941e72955e20d790bdff.jpeg"
        },
        {
          "thumb" : "https:\/\/i1.douguo.com\/upload\/caiku\/b\/c\/e\/140_bcd733710abab0eb06d2f8206d060b8e.jpg",
          "image_width" : 2592,
          "content" : "定时停止以后及时取出烤盘",
          "position" : 26,
          "frame" : "-1",
          "image_height" : 1944,
          "image" : "https:\/\/i1.douguo.com\/upload\/caiku\/b\/c\/e\/bcd733710abab0eb06d2f8206d060b8e.jpg"
        },
        {
          "thumb" : "https:\/\/i1.douguo.com\/upload\/caiku\/1\/f\/3\/140_1f412087f972870a75daf588feeaa963.jpg",
          "frame" : "-1",
          "image" : "https:\/\/i1.douguo.com\/upload\/caiku\/1\/f\/3\/1f412087f972870a75daf588feeaa963.jpg",
          "content" : "小心的打开锡纸，然后撒上香菜末即可开吃喽！",
          "position" : 27,
          "image_height" : 1944,
          "image_width" : 2592
        }
      ],
      "rsm" : "该功能暂停使用",
      "cookstorys" : [
        {
          "type" : 0,
          "color" : "",
          "c" : "很感谢豆果网给我这次美的智烤大师的烤箱试用机会，说起来这是我第二台美的烤箱了，感谢美的电器，38升的完美体积满足更多美食需求，这款智能烤箱可以用手机控制，远程操作安全无隐患，APP内拥有海量云端食谱，畅享天下美味，可以令厨房小白操作起来得心应手，做烘焙不求人。热循环风可以令食物烘烤更加均匀，四层烤架随心所欲的放置，内置防爆照明灯方便查看食物烘烤的状态和颜色，聚能网格面板锁住充分热能，304不锈钢加热管，令烤管寿命更长，总之豪华配置，大师级的体验。\n  今天用智烤大师做了一道烤箱菜——锡纸烤黑鱼，其实我之前是想买条鲈鱼的，可惜因为节日超市的鲈鱼卖光了，看到活蹦乱跳的黑鱼也不错，就买了条黑鱼，叫超市的人帮忙杀好，回家腌制一下就行了，非常省事。想起了鱼羊鲜这个词，我又买了羊肉加了一点，别说味道真赞，出乎我意料了，有兴趣的朋友试试看吧！我家不吃辣的，不然加些辣椒肯定更赞，这个做法我没吃出鱼腥味，效果不错。\n   这道菜猛一看感觉这么多食材好复杂呀，其实一点不麻烦，只要你喜欢的蔬菜都可以放的，随心所欲，至于过程有点多那是因为我记性不好，想着下次再做我也来看看我的菜谱，所以每加一样东西我都记录了下来，请勿说我啰嗦嘿嘿，我的记录也是给我自己看的。",
          "id" : 0,
          "u" : "",
          "icon" : ""
        }
      ],
      "cook_time" : "",
      "act_des" : "",
      "rpid" : 0,
      "ssu" : "",
      "guide_image" : "",
      "rcs" : [

      ],
      "ipci" : "",
      "favo_counts" : 1506,
      "rewarded_video_dsp" : [

      ],
      "sr" : "",
      "comments_count_text" : "3",
      "pw" : 800,
      "minor" : [
        "{\n    note = \"2\\U4e2a\";\n    title = \"\\U5f69\\U6912\";\n    tu = \"https:\/\/https:\/\/m.douguo.com\/ingredients\/\\U5f69\\U6912\/detailmaterial\";\n}",
        "{\n    note = 30g;\n    title = \"\\U9999\\U83dc\";\n    tu = \"https:\/\/https:\/\/m.douguo.com\/ingredients\/\\U9999\\U83dc\/detailmaterial\";\n}",
        "{\n    note = 100g;\n    title = \"\\U53e3\\U8611\";\n    tu = \"https:\/\/https:\/\/m.douguo.com\/ingredients\/\\U53e3\\U8611\/detailmaterial\";\n}",
        "{\n    note = 30g;\n    title = \"\\U9ec4\\U6cb9\";\n    tu = \"https:\/\/https:\/\/m.douguo.com\/ingredients\/\\U9ec4\\U6cb9\/detailmaterial\";\n}",
        "{\n    note = 70g;\n    title = \"\\U7f8a\\U8089\";\n    tu = \"https:\/\/https:\/\/m.douguo.com\/ingredients\/\\U7f8a\\U8089\/detailmaterial\";\n}",
        "{\n    note = 40ml;\n    title = \"\\U751f\\U62bd\";\n    tu = \"https:\/\/https:\/\/m.douguo.com\/ingredients\/\\U751f\\U62bd\/detailmaterial\";\n}",
        "{\n    note = 30ml;\n    title = \"\\U9ec4\\U9152\";\n    tu = \"https:\/\/https:\/\/m.douguo.com\/ingredients\/\\U9ec4\\U9152\/detailmaterial\";\n}",
        "{\n    note = 6g;\n    title = \"\\U76d0\";\n    tu = \"https:\/\/https:\/\/m.douguo.com\/ingredients\/\\U76d0\/detailmaterial\";\n}",
        "{\n    note = 10g;\n    title = \"\\U7cd6\";\n    tu = \"https:\/\/https:\/\/m.douguo.com\/ingredients\/\\U7cd6\/detailmaterial\";\n}",
        "{\n    note = 10g;\n    title = \"\\U6dc0\\U7c89\";\n}",
        "{\n    note = 15g;\n    title = \"\\U5927\\U8471\";\n    tu = \"https:\/\/https:\/\/m.douguo.com\/ingredients\/\\U5927\\U8471\/detailmaterial\";\n}",
        "{\n    note = \"6\\U4e2a\";\n    title = \"\\U5e72\\U8471\";\n}",
        "{\n    note = 15ml;\n    title = \"\\U918b\";\n    tu = \"https:\/\/https:\/\/m.douguo.com\/ingredients\/\\U918b\/detailmaterial\";\n}",
        "{\n    note = 30ml;\n    title = \"\\U5927\\U8c46\\U6cb9\";\n}",
        "{\n    note = 30g;\n    title = \"\\U5927\\U849c\";\n    tu = \"https:\/\/https:\/\/m.douguo.com\/ingredients\/\\U5927\\U849c\/detailmaterial\";\n}",
        "{\n    note = 15g;\n    title = \"\\U59dc\";\n    tu = \"https:\/\/https:\/\/m.douguo.com\/ingredients\/\\U59dc\/detailmaterial\";\n}"
      ],
      "author_id" : 3632417,
      "cookstory" : "很感谢豆果网给我这次美的智烤大师的烤箱试用机会，说起来这是我第二台美的烤箱了，感谢美的电器，38升的完美体积满足更多美食需求，这款智能烤箱可以用手机控制，远程操作安全无隐患，APP内拥有海量云端食谱，畅享天下美味，可以令厨房小白操作起来得心应手，做烘焙不求人。热循环风可以令食物烘烤更加均匀，四层烤架随心所欲的放置，内置防爆照明灯方便查看食物烘烤的状态和颜色，聚能网格面板锁住充分热能，304不锈钢加热管，令烤管寿命更长，总之豪华配置，大师级的体验。\n  今天用智烤大师做了一道烤箱菜——锡纸烤黑鱼，其实我之前是想买条鲈鱼的，可惜因为节日超市的鲈鱼卖光了，看到活蹦乱跳的黑鱼也不错，就买了条黑鱼，叫超市的人帮忙杀好，回家腌制一下就行了，非常省事。想起了鱼羊鲜这个词，我又买了羊肉加了一点，别说味道真赞，出乎我意料了，有兴趣的朋友试试看吧！我家不吃辣的，不然加些辣椒肯定更赞，这个做法我没吃出鱼腥味，效果不错。\n   这道菜猛一看感觉这么多食材好复杂呀，其实一点不麻烦，只要你喜欢的蔬菜都可以放的，随心所欲，至于过程有点多那是因为我记性不好，想着下次再做我也来看看我的菜谱，所以每加一样东西我都记录了下来，请勿说我啰嗦嘿嘿，我的记录也是给我自己看的。",
      "title" : "之锡纸烤黑鱼",
      "rpst" : "",
      "bs" : [

      ],
      "purl" : "",
      "rate" : 5,
      "ecs" : 0,
      "thumb_height" : 0,
      "comments_count" : 3,
      "recent_comments" : [

      ],
      "old_comments" : [

      ],
      "author_photo" : "http:\/\/tx1.douguo.net\/upload\/photo\/8\/3\/f\/70_u84939979799230222618.jpg",
      "event" : {
        "id" : 0
      },
      "rpt" : "",
      "dish_count" : 2,
      "ipoi" : "",
      "collect_status" : 0,
      "tips" : "1可根据自家烤箱的温度脾气来斟酌一下烘烤时间。\n2打开锡纸时一定小心蒸汽别烫手。\n3不喜欢羊肉的可以不放。",
      "cookwares" : [

      ],
      "photo_path" : "https:\/\/i1.douguo.com\/upload\/caiku\/4\/4\/5\/600_4448542e1a494fa2a4df942495467875.jpg",
      "views_count_text" : "22.5万",
      "notes" : [

      ],
      "mid_mdsp" : [

      ],
      "user" : {
        "mobile" : "",
        "gender" : 2,
        "verified" : 1,
        "lvl" : 6,
        "following_count" : 0,
        "userid" : "3632417",
        "weibo_nick" : "",
        "age" : "",
        "user_cover" : "",
        "favor_diaries_count" : 0,
        "introduction" : "",
        "dishes_count" : 0,
        "subscription" : 0,
        "nick" : "热爱红烧肉肉",
        "pc" : 0,
        "user_photo" : "http:\/\/tx1.douguo.net\/upload\/photo\/8\/3\/f\/70_u84939979799230222618.jpg",
        "progress_image" : "",
        "diaries_count" : 0,
        "coursecount" : 0,
        "location" : 0,
        "avatar_medium" : "http:\/\/tx1.douguo.net\/upload\/photo\/8\/3\/f\/140_u84939979799230222618.jpg",
        "qq_weibo_nick" : "",
        "birthday" : "",
        "email" : "",
        "recipes_count" : 0,
        "verified_image" : "https:\/\/i1.douguo.com\/upload\/note\/d\/a\/a\/da84247847aebe48d9dd0fcdac88862a.png",
        "verified_url" : "https:\/\/m.douguo.com\/user\/prodesc",
        "is_prime" : 0,
        "user_large_photo" : "http:\/\/tx1.douguo.net\/upload\/photo\/8\/3\/f\/yuan_u84939979799230222618.jpg",
        "lv" : 0,
        "fc" : 0,
        "sign" : "",
        "qzone_nick" : "",
        "followers_count" : 0,
        "favorites_count" : 0,
        "regist_time" : "",
        "setted_email" : 0,
        "point" : 0,
        "subscription_article_count" : 0,
        "user_id" : "3632417"
      },
      "vu" : "",
      "ipt" : "",
      "rrpt" : "",
      "favo_counts_text" : "1506",
      "ss" : [

      ],
      "first_level_comment_count" : 3,
      "author" : "热爱红烧肉肉",
      "cook_difficulty_image" : "",
      "image" : "http:\/\/i1.douguo.net\/upload\/caiku\/4\/4\/5\/300_4448542e1a494fa2a4df942495467875.jpg",
      "brand_day_dsp" : [

      ],
      "related_ads" : [

      ],
      "eu" : "recipes:\/\/www.douguo.com\/postdetail?id=242016",
      "v_u" : "",
      "btm_dsp" : [

      ],
      "major" : [
        {
          "tu" : "https:\/\/m.douguo.com\/ingredients\/黑鱼\/detailmaterial",
          "title" : "黑鱼",
          "note" : "750g"
        }
      ],
      "vfurl" : "",
      "packages_id" : [

      ],
      "rrps" : [

      ],
      "rate_show" : 0,
      "clicks" : "215426",
      "cook_difficulty" : "",
      "su" : "",
      "hq" : 1,
      "display_ingredient" : 1,
      "ipit" : 0,
      "levelid" : 2
    }
  },
  "status" : 0,
  "state" : "success"
}