{
  "state" : "success",
  "result" : {
    "recipe" : {
      "tags" : [

      ],
      "author_photo" : "http:\/\/tx1.douguo.net\/upload\/photo\/a\/6\/6\/70_u27727127410622225643.jpeg",
      "create_time" : "2019-07-29 16:49:58",
      "first_level_comment_count" : 7,
      "rate" : 0,
      "cook_time" : "1小时以上",
      "share_info" : {
        "name" : "#美食新势力# 电饭煲炖肘子&amp;肉汤米粉-会做饭很酷!",
        "s_d" : "#美食新势力# 电饭煲炖肘子&amp;肉汤米粉-会做饭很酷!",
        "s_u" : "http:\/\/m.douguo.com\/cookbook\/2324049.html",
        "image" : "https:\/\/cp1.douguo.com\/upload\/caiku\/9\/0\/0\/90cf0c22ccbf3b7bb0c0f371825b4c40.jpg",
        "qr_image" : "",
        "infos" : [
          {
            "mini_program" : [

            ],
            "image" : "https:\/\/cp1.douguo.com\/upload\/caiku\/9\/0\/0\/90cf0c22ccbf3b7bb0c0f371825b4c40.jpg",
            "s_d" : "#学做饭用豆果美食# 会做饭真是太酷了！我在@豆果美食 分享了【#美食新势力# 电饭煲炖肘子&amp;肉汤米粉-会做饭很酷!】，这道菜真的神仙美味！喜欢的一定要试试绝对不会错的！～查看图片了解菜谱（快来点击https:\/\/m.weibo.cn\/p\/100404i33631和我一起修炼厨艺吧）",
            "name" : "#美食新势力# 电饭煲炖肘子&amp;肉汤米粉-会做饭很酷!",
            "channel" : "1",
            "s_u" : "",
            "qr_image" : "",
            "object_id" : "2324049"
          },
          {
            "object_id" : "2324049",
            "channel" : "7",
            "s_d" : "#美食新势力# 电饭煲炖肘子&amp;肉汤米粉-会做饭很酷!",
            "qr_image" : "",
            "image" : "https:\/\/cp1.douguo.com\/upload\/caiku\/9\/0\/0\/90cf0c22ccbf3b7bb0c0f371825b4c40.jpg",
            "name" : "#美食新势力# 电饭煲炖肘子&amp;肉汤米粉-会做饭很酷!",
            "mini_program" : [

            ],
            "s_u" : "http:\/\/m.douguo.com\/cookbook\/2324049.html"
          },
          {
            "name" : "#美食新势力# 电饭煲炖肘子&amp;肉汤米粉-会做饭很酷!",
            "qr_image" : "",
            "mini_program" : [

            ],
            "s_u" : "http:\/\/m.douguo.com\/cookbook\/2324049.html",
            "channel" : "8",
            "s_d" : "#美食新势力# 电饭煲炖肘子&amp;肉汤米粉-会做饭很酷!",
            "object_id" : "2324049",
            "image" : "https:\/\/cp1.douguo.com\/upload\/caiku\/9\/0\/0\/90cf0c22ccbf3b7bb0c0f371825b4c40.jpg"
          }
        ],
        "object_id" : "2324049",
        "mini_program" : [

        ]
      },
      "mid_mdsp" : [

      ],
      "packages_id" : [

      ],
      "cookstep" : [
        {
          "frame" : "-1",
          "image" : "https:\/\/i1.douguo.com\/upload\/caiku\/d\/c\/a\/dc6e5be65ee30c43916b59e9f1c667fa.JPG",
          "thumb" : "https:\/\/i1.douguo.com\/upload\/caiku\/d\/c\/a\/140_dc6e5be65ee30c43916b59e9f1c667fa.JPG",
          "position" : 1,
          "image_width" : 1200,
          "content" : "猪肘子剔骨，清洗干净，肘子骨可以炖汤，也可以与肘子肉同炖；",
          "image_height" : 800
        },
        {
          "thumb" : "https:\/\/i1.douguo.com\/upload\/caiku\/1\/0\/f\/140_10deeb80f44cb09fd786fb8df9ca41bf.JPG",
          "image" : "https:\/\/i1.douguo.com\/upload\/caiku\/1\/0\/f\/10deeb80f44cb09fd786fb8df9ca41bf.JPG",
          "frame" : "-1",
          "content" : "炖肘子的调料准备好，都是家常的，按自己的喜欢选择品种和数量；大葱、大蒜、八角、桂皮、姜是必需的，其它的可随意；",
          "image_width" : 1200,
          "image_height" : 800,
          "position" : 2
        },
        {
          "thumb" : "https:\/\/i1.douguo.com\/upload\/caiku\/1\/1\/5\/140_11a6274eb16970d60ce2a2031ab9e6f5.JPG",
          "frame" : "-1",
          "image" : "https:\/\/i1.douguo.com\/upload\/caiku\/1\/1\/5\/11a6274eb16970d60ce2a2031ab9e6f5.JPG",
          "position" : 3,
          "image_width" : 1200,
          "image_height" : 800,
          "content" : "打开肘子肉，里面的瘦肉还是很多很多的；"
        },
        {
          "frame" : "-1",
          "thumb" : "https:\/\/i1.douguo.com\/upload\/caiku\/d\/9\/4\/140_d97b3020d57351883c4415b211f21204.JPG",
          "image" : "https:\/\/i1.douguo.com\/upload\/caiku\/d\/9\/4\/d97b3020d57351883c4415b211f21204.JPG",
          "image_width" : 1200,
          "image_height" : 800,
          "position" : 4,
          "content" : "将肘子肉和肘子骨同入电饭煲内胆中，加足够量的水；"
        },
        {
          "image" : "https:\/\/i1.douguo.com\/upload\/caiku\/2\/4\/7\/24bacea381d4642718c09e63b75f20f7.JPG",
          "image_height" : 800,
          "content" : "将内胆入电饭煲中，通电，我选择的是“煲汤”程序，我用了1.5小时；估摸15分钟左右水被煮开的时候，打开锅盖，将浮沫撇掉，这样汤清味浓；",
          "thumb" : "https:\/\/i1.douguo.com\/upload\/caiku\/2\/4\/7\/140_24bacea381d4642718c09e63b75f20f7.JPG",
          "frame" : "-1",
          "image_width" : 1200,
          "position" : 5
        },
        {
          "thumb" : "https:\/\/i1.douguo.com\/upload\/caiku\/2\/0\/3\/140_20545ab2e7d10b5c0450229ae76fbc53.JPG",
          "frame" : "-1",
          "position" : 6,
          "content" : "将调料全部入汤中，再撒适量盐、倒适量生抽、酱油，盖上盖子，继续完成剩下的程序；",
          "image_height" : 800,
          "image_width" : 1200,
          "image" : "https:\/\/i1.douguo.com\/upload\/caiku\/2\/0\/3\/20545ab2e7d10b5c0450229ae76fbc53.JPG"
        },
        {
          "image_width" : 1200,
          "thumb" : "https:\/\/i1.douguo.com\/upload\/caiku\/9\/0\/6\/140_90cf3746ae022ad1fff12a54d9803af6.JPG",
          "position" : 7,
          "image" : "https:\/\/i1.douguo.com\/upload\/caiku\/9\/0\/6\/90cf3746ae022ad1fff12a54d9803af6.JPG",
          "frame" : "-1",
          "image_height" : 800,
          "content" : "肘子炖好了，肉最厚的地方能够用筷子轻松扎透就可以了。肉先不要捞出来，泡在汤里吸足味儿，直到汤凉再将肉捞出来；"
        },
        {
          "image_width" : 1200,
          "image_height" : 800,
          "content" : "事先准备好一个保鲜袋，如果袋子足够大，可将肘子皮朝外、肉朝内兜起来；我的保鲜袋比较小，不好塞进去，就用剪刀剪开成一张保鲜膜，肘子皮朝下、肉朝上铺码在保鲜膜上；",
          "thumb" : "https:\/\/i1.douguo.com\/upload\/caiku\/c\/5\/b\/140_c592950e618aea31f59dec8afbd4e27b.JPG",
          "frame" : "-1",
          "image" : "https:\/\/i1.douguo.com\/upload\/caiku\/c\/5\/b\/c592950e618aea31f59dec8afbd4e27b.JPG",
          "position" : 8
        },
        {
          "thumb" : "https:\/\/i1.douguo.com\/upload\/caiku\/1\/9\/0\/140_19e0ac9c411566447ec67526746f15a0.JPG",
          "frame" : "-1",
          "image_width" : 1200,
          "image_height" : 800,
          "position" : 9,
          "image" : "https:\/\/i1.douguo.com\/upload\/caiku\/1\/9\/0\/19e0ac9c411566447ec67526746f15a0.JPG",
          "content" : "将肘子由下向下卷起来，两端再拧紧，成一个肉球，放在一个碗中定型，入冰箱冷藏至少2个小时；定型后切片，能保证每一片都有皮有肉；"
        },
        {
          "thumb" : "https:\/\/i1.douguo.com\/upload\/caiku\/1\/d\/3\/140_1d59f0c21b7f44a32630b33fd5982d43.JPG",
          "image_height" : 800,
          "image_width" : 1200,
          "position" : 10,
          "content" : "这是冷藏好的肘子，瘦肉与少许肥肉及肉汤混合在一起，层次分明，且吸足了汤味咸味，非常好吃；将肘子切片，再蘸蒜醋辣汁更添风味；",
          "image" : "https:\/\/i1.douguo.com\/upload\/caiku\/1\/d\/3\/1d59f0c21b7f44a32630b33fd5982d43.JPG",
          "frame" : "-1"
        },
        {
          "image" : "https:\/\/i1.douguo.com\/upload\/caiku\/6\/5\/4\/6577e5680984fe1505318bb7713101d4.JPG",
          "image_height" : 800,
          "position" : 11,
          "frame" : "-1",
          "image_width" : 1200,
          "content" : "将调料捞出不用，汤可以两种处理，一是放在保鲜盒中，冰箱冷藏或者冷冻保存，下次就当老汤周而复始使用，越煮味儿越厚；",
          "thumb" : "https:\/\/i1.douguo.com\/upload\/caiku\/6\/5\/4\/140_6577e5680984fe1505318bb7713101d4.JPG"
        },
        {
          "frame" : "-1",
          "position" : 12,
          "image" : "https:\/\/i1.douguo.com\/upload\/caiku\/b\/7\/2\/b70352b83cb9e06b840ca7cb8a3f3fe2.JPG",
          "thumb" : "https:\/\/i1.douguo.com\/upload\/caiku\/b\/7\/2\/140_b70352b83cb9e06b840ca7cb8a3f3fe2.JPG",
          "image_height" : 800,
          "image_width" : 1200,
          "content" : "第二种是将汤煮开备用，另起锅将米粉或者面条煮熟，捞入碗中，再浇上肉汤，切几片肉，烫几片青菜，就是一顿有滋有味的肉汤米粉。"
        },
        {
          "position" : 13,
          "image" : "https:\/\/i1.douguo.com\/upload\/caiku\/6\/2\/6\/6235f16a3087ef0402a0788701e24096.jpg",
          "frame" : "-1",
          "image_width" : 1300,
          "thumb" : "https:\/\/i1.douguo.com\/upload\/caiku\/6\/2\/6\/140_6235f16a3087ef0402a0788701e24096.jpg",
          "image_height" : 867,
          "content" : "电饭煲炖肘子，卷烙饼倍儿豪爽！"
        }
      ],
      "cookstory" : "掐指一算有些日子没吃肘子了，特别是烙饼卷肘子，想起来就真流口水。都说“头伏饺子二伏面，三伏烙饼夹鸡蛋”，但三伏还有些天呢，为了给生活一点仪式感，咱先忍着不吃大烙饼。那爷俩叫唤了好几天要吃炖肘子，得，我也麻利一回，先把肘子炖上吧，反正也简单，把材料一股脑儿扔进电饭煲，就等着汤鲜肉烂出锅吧！\r\n要说肘子真不贵，冬天最便宜的时候才6块钱，哈哈，我说的可不是10年前的价，就是眼么前的价格。现在天热了，肘子的价格也上涨了不少，9块钱一斤。虽说有块大骨头棒子在里面杵着挺占份量，但是比起五花肉、前后臀尖来，还是便宜了不少。而且肘子肉又厚又嫩，支撑着小猪们2、300斤的份量所以瘦肉也吃着倍儿香，再加上外面那一层略带脂肪的皮，嘿，要多好吃有多好吃！\r\n我的做法非常简单，肘子剔骨，煮开撇沫，倒入全部的调料，用电饭煲的“煲汤”程序。每个品牌的电饭煲的煲汤程序不一样，用过一次之后可以攒点经验，看看时间上是不是能炖到自己想要的口感来调整下次的用时。炖好的肘子在汤里泡到凉，吸足味儿，再入冰箱冷藏变硬，切出来的肉片整齐又好看，直接吃或者蘸蒜醋汁，过瘾了！",
      "release_time" : "",
      "rips" : 0,
      "levelid" : 2,
      "ipurl" : "",
      "dish_count" : 0,
      "notes" : [

      ],
      "hqu" : "recipes:\/\/www.douguo.com\/notedetail?id=21162253",
      "original_photo_path" : "http:\/\/i1.douguo.net\/upload\/caiku\/9\/0\/0\/yuan_90cf0c22ccbf3b7bb0c0f371825b4c40.jpg",
      "image" : "http:\/\/i1.douguo.net\/upload\/caiku\/9\/0\/0\/300_90cf0c22ccbf3b7bb0c0f371825b4c40.jpg",
      "brand_day_dsp" : [

      ],
      "comments_count" : 7,
      "advice" : {
        "has" : [
          {
            "url" : "recipes:\/\/www.douguo.com\/simplerecipelist?t=低脂&id=低脂",
            "t" : "低脂"
          },
          {
            "url" : "recipes:\/\/www.douguo.com\/simplerecipelist?t=高盐&id=高盐",
            "t" : "高盐"
          }
        ],
        "at" : "能有效控制体重～",
        "da" : {
          "iu" : "https:\/\/i1.douguo.com\/upload\/banner\/f\/4\/d\/f48877e53c37759bc12ac494be82ec8d.png",
          "url" : "https:\/\/m.douguo.com\/recipe\/nutrient_self\/2324049",
          "t" : "查看详细分析"
        }
      },
      "comments_count_text" : "7",
      "story_dsp" : [

      ],
      "photo_path" : "https:\/\/i1.douguo.com\/upload\/caiku\/9\/0\/0\/600_90cf0c22ccbf3b7bb0c0f371825b4c40.jpg",
      "thumb_path" : "https:\/\/i1.douguo.com\/upload\/caiku\/9\/0\/0\/300_90cf0c22ccbf3b7bb0c0f371825b4c40.jpg",
      "rewarded_video_dsp" : [

      ],
      "act_des" : "",
      "title_ad" : [

      ],
      "major" : [
        {
          "note" : "1个",
          "title" : "猪肘子"
        },
        {
          "note" : "1把",
          "tu" : "https:\/\/m.douguo.com\/ingredients\/米粉\/detailmaterial",
          "title" : "米粉"
        },
        {
          "tu" : "https:\/\/m.douguo.com\/ingredients\/大葱\/detailmaterial",
          "title" : "大葱",
          "note" : "半棵"
        },
        {
          "tu" : "https:\/\/m.douguo.com\/ingredients\/大蒜\/detailmaterial",
          "title" : "大蒜",
          "note" : "1头"
        },
        {
          "note" : "3颗",
          "tu" : "https:\/\/m.douguo.com\/ingredients\/八角\/detailmaterial",
          "title" : "八角"
        },
        {
          "note" : "1块",
          "tu" : "https:\/\/m.douguo.com\/ingredients\/桂皮\/detailmaterial",
          "title" : "桂皮"
        },
        {
          "note" : "3个",
          "title" : "干红辣椒"
        },
        {
          "title" : "姜",
          "tu" : "https:\/\/m.douguo.com\/ingredients\/姜\/detailmaterial",
          "note" : "1块"
        },
        {
          "note" : "3颗",
          "title" : "草果"
        },
        {
          "note" : "3片",
          "tu" : "https:\/\/m.douguo.com\/ingredients\/香叶\/detailmaterial",
          "title" : "香叶"
        },
        {
          "title" : "柚子皮",
          "note" : "2小块"
        },
        {
          "tu" : "https:\/\/m.douguo.com\/ingredients\/盐\/detailmaterial",
          "title" : "盐",
          "note" : "适量"
        },
        {
          "title" : "老抽",
          "note" : "少许",
          "tu" : "https:\/\/m.douguo.com\/ingredients\/老抽\/detailmaterial"
        },
        {
          "note" : "适量",
          "tu" : "https:\/\/m.douguo.com\/ingredients\/酱油\/detailmaterial",
          "title" : "酱油"
        }
      ],
      "user" : {
        "email" : "",
        "subscription_article_count" : 0,
        "followers_count" : 0,
        "weibo_nick" : "",
        "lvl" : 8,
        "recipes_count" : 0,
        "dishes_count" : 0,
        "avatar_medium" : "http:\/\/tx1.douguo.net\/upload\/photo\/a\/6\/6\/140_u27727127410622225643.jpeg",
        "fc" : 0,
        "birthday" : "",
        "setted_email" : 0,
        "userid" : "8753046",
        "coursecount" : 0,
        "qq_weibo_nick" : "",
        "progress_image" : "",
        "favor_diaries_count" : 0,
        "point" : 0,
        "user_cover" : "",
        "introduction" : "",
        "diaries_count" : 0,
        "favorites_count" : 0,
        "regist_time" : "",
        "user_id" : "8753046",
        "following_count" : 0,
        "mobile" : "",
        "age" : "",
        "nick" : "meggy跳舞的苹果",
        "sign" : "",
        "gender" : 2,
        "user_large_photo" : "http:\/\/tx1.douguo.net\/upload\/photo\/a\/6\/6\/yuan_u27727127410622225643.jpeg",
        "pc" : 0,
        "lv" : 0,
        "qzone_nick" : "",
        "is_prime" : 0,
        "verified_image" : "https:\/\/i1.douguo.com\/upload\/note\/d\/a\/a\/da84247847aebe48d9dd0fcdac88862a.png",
        "subscription" : 0,
        "verified_url" : "https:\/\/m.douguo.com\/user\/prodesc",
        "user_photo" : "http:\/\/tx1.douguo.net\/upload\/photo\/a\/6\/6\/70_u27727127410622225643.jpeg",
        "verified" : 1,
        "location" : 0
      },
      "ipoi" : "",
      "ecs" : 0,
      "recommended" : 0,
      "favo_counts" : 6158,
      "tips" : "1.\t肘子分前肘后肘，前肘骨头小，后肘骨头较大，可以根据喜欢来选择；\r\n2.\t肘子骨可以用刀尖沿着骨头剔出来，从表面看肘子还是一个完整的肘子，只是没了骨头；也可以剖开肉皮将骨头剔出来，这样虽然不是一个圆乎整体，但却因肉全部裸露在外吸足了汤味咸味，而变得软糯鲜香。",
      "rpid" : 0,
      "views_count_text" : "33.5万",
      "rcs" : [

      ],
      "rrpt" : "",
      "ipia" : [

      ],
      "ipci" : "",
      "guide_image" : "",
      "comments" : [
        "{\n    ac = \"#999999\";\n    at = \"\";\n    ccc = 0;\n    \"child_comments\" =     (\n    );\n    city = \"\";\n    cmc = 2;\n    content =     (\n                {\n            c = \"\\U7edd\\U4e86 \\U7ed9\\U8dea\\U4e86\\U54c8\\U54c8\";\n        }\n    );\n    ia = 0;\n    id = 6835877;\n    \"ip_address_location\" = \"\";\n    like = 0;\n    \"like_count\" = 0;\n    \"reply_id\" = 0;\n    \"sticker_icon\" =     (\n    );\n    time = \"2019-07-29 21:53:26\";\n    u =     {\n        \"followers_count_text\" = \"\";\n        id = 18574096;\n        \"is_prime\" = 0;\n        lv = 0;\n        lvl = 4;\n        n = Hanukkah;\n        p = \"http:\/\/tx1.douguo.net\/upload\/photo\/f\/0\/9\/70_u22255940492110409001952.jpg\";\n        \"progress_image\" = \"\";\n        \"recipes_count_text\" = \"\";\n        relationship = \"-1\";\n        title = \"\";\n        v = 0;\n        \"verified_image\" = \"\";\n    };\n}",
        "{\n    ac = \"#999999\";\n    at = \"\";\n    ccc = 0;\n    \"child_comments\" =     (\n    );\n    city = \"\";\n    cmc = 2;\n    content =     (\n                {\n            c = \"\\U68d2\\U5446~\";\n        }\n    );\n    ia = 0;\n    id = 6835323;\n    \"ip_address_location\" = \"\";\n    like = 0;\n    \"like_count\" = 0;\n    \"reply_id\" = 0;\n    \"sticker_icon\" =     (\n    );\n    time = \"2019-07-29 18:51:54\";\n    u =     {\n        \"followers_count_text\" = \"\";\n        id = 18535038;\n        \"is_prime\" = 0;\n        lv = 0;\n        lvl = 4;\n        n = \"\\U5c0f\\U554a\\U7490\";\n        p = \"http:\/\/tx1.douguo.net\/upload\/photo\/f\/b\/e\/70_u19261033996180408211439.jpg\";\n        \"progress_image\" = \"\";\n        \"recipes_count_text\" = \"\";\n        relationship = \"-1\";\n        title = \"\";\n        v = 0;\n        \"verified_image\" = \"\";\n    };\n}",
        "{\n    ac = \"#999999\";\n    at = \"\";\n    ccc = 0;\n    \"child_comments\" =     (\n    );\n    city = \"\";\n    cmc = 2;\n    content =     (\n                {\n            c = \"\\U998b\\U6b7b\\U4eba\\U5566\";\n        }\n    );\n    ia = 0;\n    id = 6835289;\n    \"ip_address_location\" = \"\";\n    like = 0;\n    \"like_count\" = 0;\n    \"reply_id\" = 0;\n    \"sticker_icon\" =     (\n    );\n    time = \"2019-07-29 18:41:08\";\n    u =     {\n        \"followers_count_text\" = \"\";\n        id = 23601138;\n        \"is_prime\" = 0;\n        lv = 0;\n        lvl = 2;\n        n = \"\\U8c46\\U7c89628717ezqg\";\n        p = \"http:\/\/tx1.douguo.net\/upload\/photo\/f\/6\/d\/70_u6343427046320329223351.jpg\";\n        \"progress_image\" = \"\";\n        \"recipes_count_text\" = \"\";\n        relationship = \"-1\";\n        title = \"\";\n        v = 0;\n        \"verified_image\" = \"\";\n    };\n}"
      ],
      "recipe_tags" : [

      ],
      "pw" : 1200,
      "recipe_list_tags" : [
        {
          "text_color" : "#141515",
          "jump_url" : "",
          "background_end_color" : "#F4F5F5",
          "text" : "关注的人",
          "background_border_color" : "",
          "background_start_color" : "#F4F5F5",
          "right_image" : ""
        },
        {
          "background_start_color" : "#F4F5F5",
          "text_color" : "#141515",
          "background_border_color" : "",
          "background_end_color" : "#F4F5F5",
          "right_image" : "",
          "jump_url" : "",
          "text" : "内容详细"
        }
      ],
      "btm_dsp" : [

      ],
      "cook_id" : "2324049",
      "ipit" : 0,
      "author" : "meggy跳舞的苹果",
      "rate_count" : 0,
      "display_ingredient" : 1,
      "old_comments" : [

      ],
      "rdsps" : [

      ],
      "su" : "",
      "recent_comments" : [

      ],
      "vc" : "334685",
      "event" : {
        "id" : 0
      },
      "rpt" : "",
      "collect_status" : 0,
      "author_id" : 8753046,
      "purl" : "",
      "rate_show" : 0,
      "author_verified" : 1,
      "cookstorys" : [
        {
          "id" : 0,
          "type" : 0,
          "color" : "",
          "u" : "",
          "icon" : "",
          "c" : "掐指一算有些日子没吃肘子了，特别是烙饼卷肘子，想起来就真流口水。都说“头伏饺子二伏面，三伏烙饼夹鸡蛋”，但三伏还有些天呢，为了给生活一点仪式感，咱先忍着不吃大烙饼。那爷俩叫唤了好几天要吃炖肘子，得，我也麻利一回，先把肘子炖上吧，反正也简单，把材料一股脑儿扔进电饭煲，就等着汤鲜肉烂出锅吧！\r\n要说肘子真不贵，冬天最便宜的时候才6块钱，哈哈，我说的可不是10年前的价，就是眼么前的价格。现在天热了，肘子的价格也上涨了不少，9块钱一斤。虽说有块大骨头棒子在里面杵着挺占份量，但是比起五花肉、前后臀尖来，还是便宜了不少。而且肘子肉又厚又嫩，支撑着小猪们2、300斤的份量所以瘦肉也吃着倍儿香，再加上外面那一层略带脂肪的皮，嘿，要多好吃有多好吃！\r\n我的做法非常简单，肘子剔骨，煮开撇沫，倒入全部的调料，用电饭煲的“煲汤”程序。每个品牌的电饭煲的煲汤程序不一样，用过一次之后可以攒点经验，看看时间上是不是能炖到自己想要的口感来调整下次的用时。炖好的肘子在汤里泡到凉，吸足味儿，再入冰箱冷藏变硬，切出来的肉片整齐又好看，直接吃或者蘸蒜醋汁，过瘾了！"
        }
      ],
      "sc" : 0,
      "rrps" : [

      ],
      "eu" : "recipes:\/\/www.douguo.com\/postdetail?id=242016",
      "hq" : 1,
      "recommend_label" : "6158人刚刚收藏过",
      "cook_difficulty_image" : "https:\/\/i1.douguo.com\/upload\/banner\/1551424390.png",
      "recommendation_tag" : "",
      "related_ads" : [

      ],
      "favo_counts_text" : "6158",
      "ph" : 800,
      "dish_count_text" : "",
      "ssu" : "",
      "cookwares" : [

      ],
      "thumb_height" : 0,
      "clicks" : "312711",
      "cook_difficulty" : "切墩(初级)",
      "minor" : [

      ],
      "vu" : "",
      "sr" : "",
      "v_u" : "",
      "top_mdsp" : [

      ],
      "bs" : [

      ],
      "cook_time_image" : "https:\/\/i1.douguo.com\/upload\/banner\/1551423815.png",
      "rsm" : "该功能暂停使用",
      "ss" : [

      ],
      "ipt" : "",
      "vfurl" : "",
      "title" : " 电饭煲炖肘子&肉汤米粉",
      "rpst" : "",
      "dishes" : [

      ]
    }
  },
  "status" : 0
}