{
  "status" : 0,
  "state" : "success",
  "result" : {
    "recipe" : {
      "author_verified" : 1,
      "recommendation_tag" : "",
      "ipurl" : "",
      "rsm" : "该功能暂停使用",
      "release_time" : "",
      "clicks" : "194354",
      "rpst" : "",
      "photo_path" : "https:\/\/i1.douguo.com\/upload\/caiku\/c\/c\/2\/600_cc33e42a97c3e75bff75132a3cae9532.jpg",
      "old_comments" : [

      ],
      "notes" : [

      ],
      "rcs" : [

      ],
      "rpt" : "",
      "collect_status" : 0,
      "levelid" : 2,
      "author_id" : 7867502,
      "rrpt" : "",
      "cook_difficulty_image" : "",
      "views_count_text" : "20.7万",
      "purl" : "",
      "minor" : [

      ],
      "cookstorys" : [
        {
          "c" : "以下来自于网络：空心菜的茎叶，可炒食或凉拌，做汤菜等同“菠菜”。它营养丰富，100克空心菜含钙147毫克，居叶菜首位，维生素A比番茄高出4倍，维生素C比番茄高出17.5%。\n空心菜及叶子如果一起炒，叶子会很烂，空心菜还没有炒熟，吃的时候口感不好；如果分开炒，空心菜不但口感好，叶子和鸡蛋一起炒，叶子也不会感到特别柴，恰到好处，大家可以试试哦。",
          "icon" : "",
          "type" : 0,
          "u" : "",
          "color" : "",
          "id" : 0
        }
      ],
      "sr" : "",
      "rips" : 0,
      "tags" : [

      ],
      "comments_count_text" : "2",
      "author_photo" : "http:\/\/tx1.douguo.net\/upload\/photo\/7\/5\/c\/70_u2158440441627005291128.jpg",
      "top_mdsp" : [

      ],
      "ipit" : 0,
      "cookwares" : [

      ],
      "user" : {
        "sign" : "",
        "lvl" : 6,
        "gender" : 2,
        "subscription_article_count" : 0,
        "point" : 0,
        "dishes_count" : 0,
        "email" : "",
        "is_prime" : 0,
        "birthday" : "",
        "introduction" : "",
        "user_photo" : "http:\/\/tx1.douguo.net\/upload\/photo\/7\/5\/c\/70_u2158440441627005291128.jpg",
        "favorites_count" : 0,
        "verified_image" : "https:\/\/i1.douguo.com\/upload\/note\/d\/a\/a\/da84247847aebe48d9dd0fcdac88862a.png",
        "userid" : "7867502",
        "user_id" : "7867502",
        "setted_email" : 0,
        "nick" : "炫润丝巾",
        "qzone_nick" : "",
        "recipes_count" : 0,
        "avatar_medium" : "http:\/\/tx1.douguo.net\/upload\/photo\/7\/5\/c\/140_u2158440441627005291128.jpg",
        "diaries_count" : 0,
        "regist_time" : "",
        "progress_image" : "",
        "coursecount" : 0,
        "subscription" : 0,
        "location" : 0,
        "user_cover" : "",
        "favor_diaries_count" : 0,
        "following_count" : 0,
        "age" : "",
        "fc" : 0,
        "user_large_photo" : "http:\/\/tx1.douguo.net\/upload\/photo\/7\/5\/c\/yuan_u2158440441627005291128.jpg",
        "weibo_nick" : "",
        "verified_url" : "https:\/\/m.douguo.com\/user\/prodesc",
        "qq_weibo_nick" : "",
        "verified" : 1,
        "pc" : 0,
        "followers_count" : 0,
        "lv" : 0,
        "mobile" : ""
      },
      "favo_counts" : 1475,
      "recent_comments" : [

      ],
      "dish_count_text" : "2",
      "bs" : [

      ],
      "title" : "空心菜叶炒鸡蛋",
      "brand_day_dsp" : [

      ],
      "recommended" : 0,
      "vu" : "",
      "ssu" : "",
      "ipci" : "",
      "ipoi" : "",
      "dish_count" : 2,
      "act_des" : "",
      "original_photo_path" : "http:\/\/i1.douguo.net\/upload\/caiku\/c\/c\/2\/yuan_cc33e42a97c3e75bff75132a3cae9532.jpg",
      "hqu" : "recipes:\/\/www.douguo.com\/notedetail?id=21162253",
      "related_ads" : [

      ],
      "rate_show" : 0,
      "vc" : "206811",
      "ss" : [

      ],
      "cook_difficulty" : "",
      "su" : "",
      "first_level_comment_count" : 2,
      "ipia" : [

      ],
      "rate" : 5,
      "guide_image" : "",
      "major" : [
        {
          "note" : "300克",
          "title" : "空心菜叶"
        },
        {
          "note" : "3个",
          "tu" : "https:\/\/m.douguo.com\/ingredients\/鸡蛋\/detailmaterial",
          "title" : "鸡蛋"
        },
        {
          "tu" : "https:\/\/m.douguo.com\/ingredients\/盐\/detailmaterial",
          "title" : "盐",
          "note" : "适量"
        }
      ],
      "advice" : {
        "da" : {
          "url" : "https:\/\/m.douguo.com\/recipe\/nutrient_self\/1452489",
          "iu" : "https:\/\/i1.douguo.com\/upload\/banner\/f\/4\/d\/f48877e53c37759bc12ac494be82ec8d.png",
          "t" : "查看详细分析"
        },
        "at" : "有助于构成或修复人体组织～",
        "has" : [
          {
            "t" : "富含蛋白质",
            "url" : "recipes:\/\/www.douguo.com\/simplerecipelist?t=富含蛋白质&id=富含蛋白质"
          },
          {
            "t" : "低糖",
            "url" : "recipes:\/\/www.douguo.com\/simplerecipelist?t=低糖&id=低糖"
          }
        ]
      },
      "cook_time_image" : "",
      "image" : "http:\/\/i1.douguo.net\/upload\/caiku\/c\/c\/2\/300_cc33e42a97c3e75bff75132a3cae9532.jpg",
      "recipe_tags" : [

      ],
      "ph" : 531,
      "eu" : "recipes:\/\/www.douguo.com\/postdetail?id=242016",
      "title_ad" : [

      ],
      "rdsps" : [

      ],
      "pw" : 799,
      "rewarded_video_dsp" : [

      ],
      "ecs" : 0,
      "cook_id" : "1452489",
      "author" : "炫润丝巾",
      "comments" : [
        "{\n    ac = \"#999999\";\n    at = \"\\U77f3\\U5bb6\\U5e84\\U5e02\";\n    ccc = 0;\n    \"child_comments\" =     (\n    );\n    city = \"\\U77f3\\U5bb6\\U5e84\\U5e02\";\n    cmc = 2;\n    content =     (\n                {\n            c = \"\\U7a7a\\U5fc3\\U83dc\\U53f6\\U7092\\U9e21\\U86cb\";\n        }\n    );\n    ia = 0;\n    id = 8297896;\n    \"ip_address_location\" = \"\";\n    like = 0;\n    \"like_count\" = 0;\n    \"reply_id\" = 0;\n    \"sticker_icon\" =     (\n    );\n    time = \"2020-10-19 14:37:39\";\n    u =     {\n        \"followers_count_text\" = \"\";\n        id = 23842233;\n        \"is_prime\" = 0;\n        lv = 0;\n        lvl = 3;\n        n = \"\\U8c46\\U7c899774429103\";\n        p = \"\";\n        \"progress_image\" = \"\";\n        \"recipes_count_text\" = \"\";\n        relationship = \"-1\";\n        title = \"\";\n        v = 0;\n        \"verified_image\" = \"\";\n    };\n}",
        "{\n    ac = \"#999999\";\n    at = \"\";\n    ccc = 0;\n    \"child_comments\" =     (\n    );\n    city = \"\";\n    cmc = 2;\n    content =     (\n                {\n            c = \"\\U4e0d\\U9519\";\n        }\n    );\n    ia = 0;\n    id = 4458821;\n    \"ip_address_location\" = \"\";\n    like = 0;\n    \"like_count\" = 0;\n    \"reply_id\" = 0;\n    \"sticker_icon\" =     (\n    );\n    time = \"2017-02-05 13:26:24\";\n    u =     {\n        \"followers_count_text\" = \"\";\n        id = 18863143;\n        \"is_prime\" = 0;\n        lv = 0;\n        lvl = 2;\n        n = qbcqbx;\n        p = \"http:\/\/tx1.douguo.net\/upload\/photo\/8\/4\/7\/70_u76644838393881144849.jpg\";\n        \"progress_image\" = \"\";\n        \"recipes_count_text\" = \"\";\n        relationship = \"-1\";\n        title = \"\";\n        v = 0;\n        \"verified_image\" = \"\";\n    };\n}"
      ],
      "sc" : 0,
      "comments_count" : 2,
      "btm_dsp" : [

      ],
      "ipt" : "",
      "cookstep" : [
        {
          "thumb" : "https:\/\/i1.douguo.com\/upload\/caiku\/5\/9\/a\/140_59b63d42a92ad87bb0d340f1cbdb01da.jpg",
          "content" : "准备食材：空心菜叶及空心菜。空心菜做法链接地址：\nhttp:\/\/www.douguo.com\/cgcook\/cgedit\/6375",
          "position" : 1,
          "image_width" : 3216,
          "image" : "https:\/\/i1.douguo.com\/upload\/caiku\/5\/9\/a\/59b63d42a92ad87bb0d340f1cbdb01da.jpg",
          "image_height" : 2136,
          "frame" : "-1"
        },
        {
          "content" : "空心菜叶洗净，去掉黄叶",
          "position" : 2,
          "image_width" : 3216,
          "frame" : "-1",
          "thumb" : "https:\/\/i1.douguo.com\/upload\/caiku\/d\/e\/8\/140_de85539686ddf49a9a50b52823961248.jpg",
          "image_height" : 2136,
          "image" : "https:\/\/i1.douguo.com\/upload\/caiku\/d\/e\/8\/de85539686ddf49a9a50b52823961248.jpg"
        },
        {
          "image_height" : 2136,
          "thumb" : "https:\/\/i1.douguo.com\/upload\/caiku\/b\/3\/d\/140_b33cec4c2ca5db1c34089179921f0d8d.jpg",
          "frame" : "-1",
          "image_width" : 3216,
          "content" : "水烧开后关火，放入空心菜叶焯一下",
          "position" : 3,
          "image" : "https:\/\/i1.douguo.com\/upload\/caiku\/b\/3\/d\/b33cec4c2ca5db1c34089179921f0d8d.jpg"
        },
        {
          "thumb" : "https:\/\/i1.douguo.com\/upload\/caiku\/5\/6\/a\/140_5623d663a1994a10a5654781d0fa28ba.jpg",
          "content" : "菜叶捞出后挤干水分",
          "frame" : "-1",
          "image_width" : 3216,
          "image_height" : 2136,
          "position" : 4,
          "image" : "https:\/\/i1.douguo.com\/upload\/caiku\/5\/6\/a\/5623d663a1994a10a5654781d0fa28ba.jpg"
        },
        {
          "image_width" : 3216,
          "image" : "https:\/\/i1.douguo.com\/upload\/caiku\/b\/e\/f\/be19740008e1fcebeebc242895138d1f.jpg",
          "frame" : "-1",
          "position" : 5,
          "content" : "切成碎末，放入3个鸡蛋及适量盐",
          "thumb" : "https:\/\/i1.douguo.com\/upload\/caiku\/b\/e\/f\/140_be19740008e1fcebeebc242895138d1f.jpg",
          "image_height" : 2136
        },
        {
          "content" : "充分搅拌均匀",
          "image_width" : 3216,
          "thumb" : "https:\/\/i1.douguo.com\/upload\/caiku\/3\/8\/9\/140_38f13d53afe1d7845818bcf0c36c5f09.jpg",
          "position" : 6,
          "frame" : "-1",
          "image" : "https:\/\/i1.douguo.com\/upload\/caiku\/3\/8\/9\/38f13d53afe1d7845818bcf0c36c5f09.jpg",
          "image_height" : 2136
        },
        {
          "content" : "底锅内放入适量的油，倒入已经搅拌好的蛋液(上一步)",
          "image_width" : 3216,
          "image" : "https:\/\/i1.douguo.com\/upload\/caiku\/8\/3\/1\/8347b1b85979151c1828ac302c9194b1.jpg",
          "thumb" : "https:\/\/i1.douguo.com\/upload\/caiku\/8\/3\/1\/140_8347b1b85979151c1828ac302c9194b1.jpg",
          "position" : 7,
          "frame" : "-1",
          "image_height" : 2136
        },
        {
          "image_width" : 3216,
          "thumb" : "https:\/\/i1.douguo.com\/upload\/caiku\/9\/3\/3\/140_9364f794c827842bee0054be2994fc53.jpg",
          "image_height" : 2136,
          "frame" : "-1",
          "image" : "https:\/\/i1.douguo.com\/upload\/caiku\/9\/3\/3\/9364f794c827842bee0054be2994fc53.jpg",
          "position" : 8,
          "content" : "全部炒好后，就可以和家人一起吃了，味道极好，大家可以试试哦。"
        },
        {
          "position" : 9,
          "image_width" : 3216,
          "thumb" : "https:\/\/i1.douguo.com\/upload\/caiku\/3\/d\/5\/140_3d8fcf92d32e614587845371e63274e5.jpg",
          "frame" : "-1",
          "image" : "https:\/\/i1.douguo.com\/upload\/caiku\/3\/d\/5\/3d8fcf92d32e614587845371e63274e5.jpg",
          "content" : "做好的成品图，是否非常诱人啊。",
          "image_height" : 2136
        }
      ],
      "thumb_height" : 0,
      "story_dsp" : [

      ],
      "share_info" : {
        "name" : "空心菜叶炒鸡蛋-会做饭很酷!",
        "qr_image" : "",
        "s_u" : "http:\/\/m.douguo.com\/cookbook\/1452489.html",
        "mini_program" : [

        ],
        "object_id" : "1452489",
        "s_d" : "空心菜叶炒鸡蛋-会做饭很酷!",
        "infos" : [
          {
            "mini_program" : [

            ],
            "object_id" : "1452489",
            "s_u" : "",
            "image" : "https:\/\/cp1.douguo.com\/upload\/caiku\/c\/c\/2\/cc33e42a97c3e75bff75132a3cae9532.jpg",
            "channel" : "1",
            "name" : "空心菜叶炒鸡蛋-会做饭很酷!",
            "s_d" : "#学做饭用豆果美食#  我在@豆果美食 分享了【空心菜叶炒鸡蛋-会做饭很酷!】，制作美食的过程承载了我生活中的热情，和我一起感受这份小确幸吧！查看图片了解菜谱（你喜欢的美食都在这里！https:\/\/m.weibo.cn\/p\/100404i33631）#会做饭很酷# ",
            "qr_image" : ""
          },
          {
            "mini_program" : [

            ],
            "image" : "https:\/\/cp1.douguo.com\/upload\/caiku\/c\/c\/2\/cc33e42a97c3e75bff75132a3cae9532.jpg",
            "s_d" : "空心菜叶炒鸡蛋-会做饭很酷!",
            "name" : "空心菜叶炒鸡蛋-会做饭很酷!",
            "channel" : "7",
            "s_u" : "http:\/\/m.douguo.com\/cookbook\/1452489.html",
            "qr_image" : "",
            "object_id" : "1452489"
          },
          {
            "channel" : "8",
            "object_id" : "1452489",
            "s_d" : "空心菜叶炒鸡蛋-会做饭很酷!",
            "qr_image" : "",
            "image" : "https:\/\/cp1.douguo.com\/upload\/caiku\/c\/c\/2\/cc33e42a97c3e75bff75132a3cae9532.jpg",
            "name" : "空心菜叶炒鸡蛋-会做饭很酷!",
            "s_u" : "http:\/\/m.douguo.com\/cookbook\/1452489.html",
            "mini_program" : [

            ]
          }
        ],
        "image" : "https:\/\/cp1.douguo.com\/upload\/caiku\/c\/c\/2\/cc33e42a97c3e75bff75132a3cae9532.jpg"
      },
      "tips" : "丝巾温馨提示：空心菜叶及鸡蛋，可以放多放少。",
      "cook_time" : "",
      "cookstory" : "以下来自于网络：空心菜的茎叶，可炒食或凉拌，做汤菜等同“菠菜”。它营养丰富，100克空心菜含钙147毫克，居叶菜首位，维生素A比番茄高出4倍，维生素C比番茄高出17.5%。\n空心菜及叶子如果一起炒，叶子会很烂，空心菜还没有炒熟，吃的时候口感不好；如果分开炒，空心菜不但口感好，叶子和鸡蛋一起炒，叶子也不会感到特别柴，恰到好处，大家可以试试哦。",
      "create_time" : "2016-09-28 17:00:19",
      "mid_mdsp" : [

      ],
      "recommend_label" : "2人学做",
      "v_u" : "",
      "rrps" : [

      ],
      "display_ingredient" : 1,
      "hq" : 1,
      "vfurl" : "",
      "thumb_path" : "https:\/\/i1.douguo.com\/upload\/caiku\/c\/c\/2\/300_cc33e42a97c3e75bff75132a3cae9532.jpg",
      "favo_counts_text" : "1475",
      "rpid" : 0,
      "dishes" : [

      ],
      "packages_id" : [

      ],
      "rate_count" : 2,
      "recipe_list_tags" : [
        {
          "text_color" : "#141515",
          "jump_url" : "",
          "text" : "关注的人",
          "background_start_color" : "#F4F5F5",
          "right_image" : "",
          "background_border_color" : "",
          "background_end_color" : "#F4F5F5"
        },
        {
          "text_color" : "#141515",
          "jump_url" : "",
          "background_border_color" : "",
          "background_end_color" : "#F4F5F5",
          "text" : "内容详细",
          "background_start_color" : "#F4F5F5",
          "right_image" : ""
        }
      ]
    }
  }
}