{
  "result" : {
    "recipe" : {
      "author_verified" : 1,
      "recipe_list_tags" : [
        {
          "text" : "关注的人",
          "right_image" : "",
          "background_border_color" : "",
          "text_color" : "#141515",
          "background_start_color" : "#F4F5F5",
          "background_end_color" : "#F4F5F5",
          "jump_url" : ""
        },
        {
          "text_color" : "#141515",
          "jump_url" : "",
          "background_end_color" : "#F4F5F5",
          "background_border_color" : "",
          "right_image" : "",
          "background_start_color" : "#F4F5F5",
          "text" : "内容详细"
        }
      ],
      "btm_dsp" : [

      ],
      "sc" : 0,
      "rips" : 0,
      "vc" : "1243127",
      "rate_count" : 15,
      "sr" : "",
      "brand_day_dsp" : [

      ],
      "cook_time" : "10~30分钟",
      "recommended" : 0,
      "cookstory" : "常食秋葵有保护皮肤、助消化健胃、理肠胃、清肝毒以及壮阳健肾，增强人体免疫功能的作用。",
      "eu" : "recipes:\/\/www.douguo.com\/postdetail?id=242016",
      "photo_path" : "https:\/\/i1.douguo.com\/upload\/caiku\/c\/c\/0\/600_cc159c2b2ceb0af083a551b110fc7bf0.jpeg",
      "recommend_label" : "15人学做",
      "minor" : [

      ],
      "favo_counts_text" : "1.4万",
      "release_time" : "",
      "cook_id" : "2287165",
      "tips" : "忌用铜、铁器皿烹饪或盛装，否则秋葵很快地变色。对人体虽无伤害，味道却会打折扣，也不美观。",
      "bs" : [

      ],
      "v_u" : "",
      "act_des" : "",
      "comments_count_text" : "6",
      "packages_id" : [

      ],
      "hq" : 1,
      "first_level_comment_count" : 4,
      "rrpt" : "",
      "vfurl" : "",
      "rewarded_video_dsp" : [

      ],
      "major" : [
        {
          "title" : "秋葵",
          "tu" : "https:\/\/m.douguo.com\/ingredients\/秋葵\/detailmaterial",
          "note" : "8–10根"
        },
        {
          "note" : "适量",
          "tu" : "https:\/\/m.douguo.com\/ingredients\/盐\/detailmaterial",
          "title" : "盐"
        },
        {
          "note" : "两勺",
          "title" : "玉米油",
          "tu" : "https:\/\/m.douguo.com\/ingredients\/玉米油\/detailmaterial"
        },
        {
          "title" : "香醋",
          "tu" : "https:\/\/m.douguo.com\/ingredients\/香醋\/detailmaterial",
          "note" : "一勺"
        },
        {
          "title" : "酱油",
          "tu" : "https:\/\/m.douguo.com\/ingredients\/酱油\/detailmaterial",
          "note" : "一勺"
        },
        {
          "note" : "半个",
          "title" : "蒜头",
          "tu" : "https:\/\/m.douguo.com\/ingredients\/蒜头\/detailmaterial"
        },
        {
          "note" : "一个",
          "title" : "红线椒"
        }
      ],
      "ph" : 1006,
      "rdsps" : [

      ],
      "cook_time_image" : "https:\/\/i1.douguo.com\/upload\/banner\/1551424341.png",
      "purl" : "",
      "ipit" : 0,
      "dishes" : [

      ],
      "ecs" : 0,
      "recent_comments" : [

      ],
      "favo_counts" : 13954,
      "share_info" : {
        "mini_program" : [

        ],
        "object_id" : "2287165",
        "infos" : [
          {
            "s_u" : "",
            "object_id" : "2287165",
            "channel" : "1",
            "image" : "https:\/\/cp1.douguo.com\/upload\/caiku\/c\/c\/0\/cc159c2b2ceb0af083a551b110fc7bf0.jpeg",
            "mini_program" : [

            ],
            "qr_image" : "",
            "s_d" : "#学做饭用豆果美食# 我在@豆果美食 分享了【#春季减肥，边吃边瘦#蒜蓉拌秋葵-会做饭很酷!】，帅哥美眉们～你们喜欢的美食来咯！快来跟我一起做吧～查看图片了解菜谱（想要获取更多美食就看这https:\/\/m.weibo.cn\/p\/100404i33631）#会做饭很酷#",
            "name" : "#春季减肥，边吃边瘦#蒜蓉拌秋葵-会做饭很酷!"
          },
          {
            "s_d" : "#春季减肥，边吃边瘦#蒜蓉拌秋葵-会做饭很酷!",
            "image" : "https:\/\/cp1.douguo.com\/upload\/caiku\/c\/c\/0\/cc159c2b2ceb0af083a551b110fc7bf0.jpeg",
            "channel" : "7",
            "object_id" : "2287165",
            "qr_image" : "",
            "mini_program" : [

            ],
            "s_u" : "http:\/\/m.douguo.com\/cookbook\/2287165.html",
            "name" : "#春季减肥，边吃边瘦#蒜蓉拌秋葵-会做饭很酷!"
          },
          {
            "name" : "#春季减肥，边吃边瘦#蒜蓉拌秋葵-会做饭很酷!",
            "image" : "https:\/\/cp1.douguo.com\/upload\/caiku\/c\/c\/0\/cc159c2b2ceb0af083a551b110fc7bf0.jpeg",
            "object_id" : "2287165",
            "s_d" : "#春季减肥，边吃边瘦#蒜蓉拌秋葵-会做饭很酷!",
            "channel" : "8",
            "s_u" : "http:\/\/m.douguo.com\/cookbook\/2287165.html",
            "mini_program" : [

            ],
            "qr_image" : ""
          }
        ],
        "qr_image" : "",
        "name" : "#春季减肥，边吃边瘦#蒜蓉拌秋葵-会做饭很酷!",
        "s_u" : "http:\/\/m.douguo.com\/cookbook\/2287165.html",
        "s_d" : "#春季减肥，边吃边瘦#蒜蓉拌秋葵-会做饭很酷!",
        "image" : "https:\/\/cp1.douguo.com\/upload\/caiku\/c\/c\/0\/cc159c2b2ceb0af083a551b110fc7bf0.jpeg"
      },
      "image" : "http:\/\/i1.douguo.net\/upload\/caiku\/c\/c\/0\/300_cc159c2b2ceb0af083a551b110fc7bf0.jpeg",
      "ipoi" : "",
      "dish_count_text" : "15",
      "clicks" : "1063225",
      "cookstorys" : [
        {
          "id" : 0,
          "type" : 0,
          "icon" : "",
          "color" : "",
          "u" : "",
          "c" : "常食秋葵有保护皮肤、助消化健胃、理肠胃、清肝毒以及壮阳健肾，增强人体免疫功能的作用。"
        }
      ],
      "cookwares" : [

      ],
      "guide_image" : "",
      "author_id" : 2441824,
      "rpt" : "",
      "thumb_height" : 0,
      "title" : "蒜蓉拌秋葵",
      "author" : "龙静CCCCC",
      "notes" : [

      ],
      "advice" : {
        "da" : {
          "url" : "https:\/\/m.douguo.com\/recipe\/nutrient_self\/2287165",
          "t" : "查看详细分析",
          "iu" : "https:\/\/i1.douguo.com\/upload\/banner\/f\/4\/d\/f48877e53c37759bc12ac494be82ec8d.png"
        },
        "has" : [
          {
            "url" : "recipes:\/\/www.douguo.com\/simplerecipelist?t=低热量&id=低热量",
            "t" : "低热量"
          },
          {
            "t" : "高盐",
            "url" : "recipes:\/\/www.douguo.com\/simplerecipelist?t=高盐&id=高盐"
          }
        ],
        "at" : "能有效控制体重～"
      },
      "comments" : [
        "{\n    ac = \"#999999\";\n    at = \"\";\n    ccc = 1;\n    \"child_comments\" =     (\n                {\n            ac = \"#999999\";\n            at = \"\\U6e05\\U8fdc\\U5e02\";\n            ccc = 0;\n            city = \"\\U6e05\\U8fdc\\U5e02\";\n            cmc = 2;\n            content =             (\n                                {\n                    c = \" \\U662f\\U6ef4\\U5440\";\n                }\n            );\n            ia = 1;\n            id = 8640623;\n            \"ip_address_location\" = \"\";\n            like = 0;\n            \"like_count\" = 0;\n            \"reply_id\" = 8629018;\n            \"reply_user\" =             {\n                \"followers_count_text\" = \"\";\n                id = 23129580;\n                \"is_prime\" = 0;\n                lv = 0;\n                lvl = 7;\n                n = \"\\U8c46\\U7c89\\U8349\\U6d77\";\n                p = \"http:\/\/tx1.douguo.net\/upload\/photo\/3\/3\/7\/70_u470323958247193512.jpg\";\n                \"progress_image\" = \"\";\n                \"recipes_count_text\" = \"\";\n                relationship = \"-1\";\n                title = \"\";\n                v = 1;\n                \"verified_image\" = \"\";\n            };\n            \"sticker_icon\" =             (\n            );\n            time = \"2021-04-28 20:13:31\";\n            u =             {\n                \"followers_count_text\" = \"\";\n                id = 2441824;\n                \"is_prime\" = 0;\n                lv = 0;\n                lvl = 6;\n                n = \"\\U9f99\\U9759CCCCC\";\n                p = \"http:\/\/tx1.douguo.net\/upload\/photo\/d\/3\/e\/70_u59703082486697205009.jpeg\";\n                \"progress_image\" = \"\";\n                \"recipes_count_text\" = \"\";\n                relationship = \"-1\";\n                title = \"\";\n                v = 1;\n                \"verified_image\" = \"\";\n            };\n        }\n    );\n    city = \"\";\n    cmc = 2;\n    content =     (\n                {\n            c = \"\\U849c\\U9999\\U79cb\\U8475\\U8425\\U517b\\U9ad8\\U554a\";\n        }\n    );\n    ia = 0;\n    id = 8629018;\n    \"ip_address_location\" = \"\";\n    like = 0;\n    \"like_count\" = 0;\n    \"reply_id\" = 0;\n    \"sticker_icon\" =     (\n    );\n    time = \"2021-04-21 19:28:33\";\n    u =     {\n        \"followers_count_text\" = \"\";\n        id = 23129580;\n        \"is_prime\" = 0;\n        lv = 0;\n        lvl = 7;\n        n = \"\\U8c46\\U7c89\\U8349\\U6d77\";\n        p = \"http:\/\/tx1.douguo.net\/upload\/photo\/3\/3\/7\/70_u470323958247193512.jpg\";\n        \"progress_image\" = \"\";\n        \"recipes_count_text\" = \"\";\n        relationship = \"-1\";\n        title = \"\";\n        v = 1;\n        \"verified_image\" = \"\";\n    };\n}",
        "{\n    ac = \"#999999\";\n    at = \"\\U5e7f\\U5dde\\U5e02\";\n    ccc = 0;\n    \"child_comments\" =     (\n    );\n    city = \"\\U5e7f\\U5dde\\U5e02\";\n    cmc = 2;\n    content =     (\n                {\n            c = \"\\U9700\\U8981\\U76d6\\U4e0a\\U76d6\\U5b50\\U716e\\U5417\\Uff1f\";\n        }\n    );\n    ia = 0;\n    id = 6645342;\n    \"ip_address_location\" = \"\";\n    like = 0;\n    \"like_count\" = 1;\n    \"reply_id\" = 0;\n    \"sticker_icon\" =     (\n    );\n    time = \"2019-06-06 11:56:40\";\n    u =     {\n        \"followers_count_text\" = \"\";\n        id = 19481522;\n        \"is_prime\" = 0;\n        lv = 0;\n        lvl = 1;\n        n = \"\\U6f47\\U6f47\\U66ae\\U96e8\\U6dc5\\U6dc5\\U6ca5\";\n        p = \"http:\/\/tx1.douguo.net\/upload\/photo\/a\/0\/7\/70_u84812500654512170017.jpg\";\n        \"progress_image\" = \"\";\n        \"recipes_count_text\" = \"\";\n        relationship = \"-1\";\n        title = \"\";\n        v = 0;\n        \"verified_image\" = \"\";\n    };\n}",
        "{\n    ac = \"#999999\";\n    at = \"\\U5927\\U8fde\\U5e02\";\n    ccc = 0;\n    \"child_comments\" =     (\n    );\n    city = \"\\U5927\\U8fde\\U5e02\";\n    cmc = 2;\n    content =     (\n                {\n            c = \"\\U6211\\U505a\\U4e86 \\U7279\\U7b80\\U5355\\U53c8\\U597d\\U5403 \";\n        }\n    );\n    ia = 0;\n    id = 9007476;\n    \"ip_address_location\" = \"\\U8fbd\\U5b81\\U7701\";\n    like = 0;\n    \"like_count\" = 0;\n    \"reply_id\" = 0;\n    \"sticker_icon\" =     (\n    );\n    time = \"2023-03-04 13:55:55\";\n    u =     {\n        \"followers_count_text\" = \"\";\n        id = 19549295;\n        \"is_prime\" = 0;\n        lv = 0;\n        lvl = 1;\n        n = \"\\U8c46\\U7c89275773\";\n        p = \"http:\/\/tx1.douguo.net\/upload\/photo\/9\/a\/f\/70_u85671892269701143813.jpeg\";\n        \"progress_image\" = \"\";\n        \"recipes_count_text\" = \"\";\n        relationship = \"-1\";\n        title = \"\";\n        v = 0;\n        \"verified_image\" = \"\";\n    };\n}"
      ],
      "related_ads" : [

      ],
      "create_time" : "2019-04-10 11:13:08",
      "rrps" : [

      ],
      "ipurl" : "",
      "tags" : [

      ],
      "collect_status" : 0,
      "su" : "",
      "recommendation_tag" : "",
      "author_photo" : "http:\/\/tx1.douguo.net\/upload\/photo\/d\/3\/e\/70_u59703082486697205009.jpeg",
      "levelid" : 2,
      "vu" : "",
      "ss" : [

      ],
      "ipt" : "",
      "ipci" : "",
      "hqu" : "recipes:\/\/www.douguo.com\/notedetail?id=21162253",
      "ipia" : [

      ],
      "title_ad" : [

      ],
      "views_count_text" : "124.3万",
      "thumb_path" : "https:\/\/i1.douguo.com\/upload\/caiku\/c\/c\/0\/300_cc159c2b2ceb0af083a551b110fc7bf0.jpeg",
      "user" : {
        "subscription_article_count" : 0,
        "qzone_nick" : "",
        "sign" : "",
        "location" : 0,
        "birthday" : "",
        "verified_url" : "https:\/\/m.douguo.com\/user\/prodesc",
        "introduction" : "",
        "fc" : 0,
        "verified_image" : "https:\/\/i1.douguo.com\/upload\/note\/d\/a\/a\/da84247847aebe48d9dd0fcdac88862a.png",
        "avatar_medium" : "http:\/\/tx1.douguo.net\/upload\/photo\/d\/3\/e\/140_u59703082486697205009.jpeg",
        "weibo_nick" : "",
        "recipes_count" : 0,
        "mobile" : "",
        "dishes_count" : 0,
        "user_id" : "2441824",
        "user_photo" : "http:\/\/tx1.douguo.net\/upload\/photo\/d\/3\/e\/70_u59703082486697205009.jpeg",
        "pc" : 0,
        "email" : "",
        "verified" : 1,
        "subscription" : 0,
        "lvl" : 6,
        "regist_time" : "",
        "favorites_count" : 0,
        "coursecount" : 0,
        "is_prime" : 0,
        "gender" : 2,
        "progress_image" : "",
        "user_cover" : "",
        "lv" : 0,
        "userid" : "2441824",
        "favor_diaries_count" : 0,
        "age" : "",
        "followers_count" : 0,
        "point" : 0,
        "following_count" : 0,
        "setted_email" : 0,
        "diaries_count" : 0,
        "nick" : "龙静CCCCC",
        "qq_weibo_nick" : "",
        "user_large_photo" : "http:\/\/tx1.douguo.net\/upload\/photo\/d\/3\/e\/yuan_u59703082486697205009.jpeg"
      },
      "rpid" : 0,
      "dish_count" : 15,
      "cook_difficulty" : "切墩(初级)",
      "top_mdsp" : [

      ],
      "mid_mdsp" : [

      ],
      "rcs" : [

      ],
      "rsm" : "该功能暂停使用",
      "event" : {
        "id" : 0
      },
      "pw" : 1533,
      "rpst" : "",
      "cook_difficulty_image" : "https:\/\/i1.douguo.com\/upload\/banner\/1551424390.png",
      "display_ingredient" : 1,
      "old_comments" : [

      ],
      "comments_count" : 6,
      "original_photo_path" : "http:\/\/i1.douguo.net\/upload\/caiku\/c\/c\/0\/yuan_cc159c2b2ceb0af083a551b110fc7bf0.jpeg",
      "rate" : 5,
      "recipe_tags" : [

      ],
      "story_dsp" : [

      ],
      "rate_show" : 0,
      "cookstep" : [
        {
          "thumb" : "https:\/\/i1.douguo.com\/upload\/caiku\/c\/7\/4\/140_c778dc9bbd593238d463beb428401784.jpeg",
          "position" : 1,
          "frame" : "-1",
          "image" : "https:\/\/i1.douguo.com\/upload\/caiku\/c\/7\/4\/c778dc9bbd593238d463beb428401784.jpeg",
          "content" : "主要材料",
          "image_width" : 1280,
          "image_height" : 1706
        },
        {
          "content" : "秋葵洗净",
          "frame" : "-1",
          "image_width" : 1280,
          "position" : 2,
          "image_height" : 960,
          "image" : "https:\/\/i1.douguo.com\/upload\/caiku\/a\/a\/5\/aabc1c9577b90c6070f174255279e475.jpeg",
          "thumb" : "https:\/\/i1.douguo.com\/upload\/caiku\/a\/a\/5\/140_aabc1c9577b90c6070f174255279e475.jpeg"
        },
        {
          "thumb" : "https:\/\/i1.douguo.com\/upload\/caiku\/0\/c\/1\/140_0c841200dda8065c5868b8705f7e8c41.jpeg",
          "image_height" : 1706,
          "content" : "锅内烧热水，放入秋葵，加入一点盐，一点植物油，这样焯烫后的秋葵颜色更好看",
          "image" : "https:\/\/i1.douguo.com\/upload\/caiku\/0\/c\/1\/0c841200dda8065c5868b8705f7e8c41.jpeg",
          "position" : 3,
          "frame" : "-1",
          "image_width" : 1280
        },
        {
          "image" : "https:\/\/i1.douguo.com\/upload\/caiku\/b\/e\/f\/be0f0b623fcce8d5a9e87fde0dbaaa2f.jpeg",
          "image_height" : 1706,
          "thumb" : "https:\/\/i1.douguo.com\/upload\/caiku\/b\/e\/f\/140_be0f0b623fcce8d5a9e87fde0dbaaa2f.jpeg",
          "position" : 4,
          "image_width" : 1280,
          "content" : "水开后煮3分钟，我的秋葵比较大一条，一般小一点的，2分钟即可，捞起放在干净的容器里，夏天可以放冰水里过一下，口感更好！",
          "frame" : "-1"
        },
        {
          "position" : 5,
          "image" : "https:\/\/i1.douguo.com\/upload\/caiku\/a\/5\/0\/a500de05501f05fbefdb0cafa35d53d0.jpeg",
          "image_width" : 1280,
          "thumb" : "https:\/\/i1.douguo.com\/upload\/caiku\/a\/5\/0\/140_a500de05501f05fbefdb0cafa35d53d0.jpeg",
          "image_height" : 960,
          "frame" : "-1",
          "content" : "蒜头剁成碎末，辣椒切粒"
        },
        {
          "position" : 6,
          "image_width" : 1280,
          "content" : "另起一锅，烧热油，放入蒜蓉，辣椒粒炒香",
          "image_height" : 960,
          "image" : "https:\/\/i1.douguo.com\/upload\/caiku\/a\/b\/7\/ab2a8b0daf02469edb8445acbe85b8f7.jpeg",
          "thumb" : "https:\/\/i1.douguo.com\/upload\/caiku\/a\/b\/7\/140_ab2a8b0daf02469edb8445acbe85b8f7.jpeg",
          "frame" : "-1"
        },
        {
          "image" : "https:\/\/i1.douguo.com\/upload\/caiku\/8\/4\/0\/84f5148baacbd513eab3ba8bf9fb63d0.jpeg",
          "position" : 7,
          "image_height" : 960,
          "thumb" : "https:\/\/i1.douguo.com\/upload\/caiku\/8\/4\/0\/140_84f5148baacbd513eab3ba8bf9fb63d0.jpeg",
          "content" : "最后关火，倒入酱油和香醋，酱汁就调好了，我比较喜欢用热油炒香蒜头再来凉拌，更香",
          "image_width" : 1280,
          "frame" : "-1"
        },
        {
          "thumb" : "https:\/\/i1.douguo.com\/upload\/caiku\/d\/2\/6\/140_d265bc2e4adb4ca60dc0c68ccaaaa6e6.jpeg",
          "image_height" : 1706,
          "content" : "把酱汁淋到秋葵上去！即可食用！",
          "frame" : "-1",
          "position" : 8,
          "image" : "https:\/\/i1.douguo.com\/upload\/caiku\/d\/2\/6\/d265bc2e4adb4ca60dc0c68ccaaaa6e6.jpeg",
          "image_width" : 1280
        },
        {
          "position" : 9,
          "thumb" : "https:\/\/i1.douguo.com\/upload\/caiku\/c\/b\/d\/140_cb0204482ca859fcb79d8d2270c6ca5d.jpeg",
          "image_width" : 1280,
          "image_height" : 853,
          "image" : "https:\/\/i1.douguo.com\/upload\/caiku\/c\/b\/d\/cb0204482ca859fcb79d8d2270c6ca5d.jpeg",
          "content" : "再来一张",
          "frame" : "-1"
        }
      ],
      "ssu" : ""
    }
  },
  "state" : "success",
  "status" : 0
}