{
  "state" : "success",
  "status" : 0,
  "result" : {
    "recipe" : {
      "cook_difficulty" : "配菜(中级)",
      "old_comments" : [

      ],
      "ipit" : 0,
      "original_photo_path" : "http:\/\/i1.douguo.net\/upload\/caiku\/3\/e\/2\/yuan_3e17f91e45a1c71b2fba851992e677a2.jpg",
      "ipt" : "",
      "ph" : 750,
      "recent_comments" : [

      ],
      "recipe_list_tags" : [
        {
          "text" : "关注的人",
          "background_border_color" : "",
          "background_start_color" : "#F4F5F5",
          "text_color" : "#141515",
          "right_image" : "",
          "background_end_color" : "#F4F5F5",
          "jump_url" : ""
        },
        {
          "background_start_color" : "#F4F5F5",
          "text_color" : "#141515",
          "text" : "内容详细",
          "background_border_color" : "",
          "background_end_color" : "#F4F5F5",
          "jump_url" : "",
          "right_image" : ""
        }
      ],
      "cookstep" : [
        {
          "content" : "准备好所有食材，切片，搅酱，一切就绪",
          "frame" : "-1",
          "image" : "https:\/\/i1.douguo.com\/upload\/caiku\/4\/1\/6\/41e51290d09da60bead3768a4e11c466.jpg",
          "thumb" : "https:\/\/i1.douguo.com\/upload\/caiku\/4\/1\/6\/140_41e51290d09da60bead3768a4e11c466.jpg",
          "position" : 1,
          "image_width" : 800,
          "image_height" : 800
        },
        {
          "image" : "https:\/\/i1.douguo.com\/upload\/caiku\/6\/0\/2\/60b2538a23b06699630d4f2ef3e72602.jpg",
          "frame" : "-1",
          "position" : 2,
          "image_width" : 1200,
          "content" : "把米饭加点寿司醋搅拌均匀装进甜甜圈模具里，捏出凹状。装进金枪鱼酱和牛油果酱，做两种口感。金枪鱼酱可以直接用，牛油果搅成泥，加沙拉酱均匀搅拌，装进凹状米饭里，再加一部分米饭，捏成圈状，取出备用。",
          "thumb" : "https:\/\/i1.douguo.com\/upload\/caiku\/6\/0\/2\/140_60b2538a23b06699630d4f2ef3e72602.jpg",
          "image_height" : 1200
        },
        {
          "position" : 3,
          "frame" : "-1",
          "image_height" : 1200,
          "image_width" : 1200,
          "content" : "绕着甜甜圈摆上生鱼片、黄瓜片、芒果片，撒上鱼子酱，黑白芝麻等等材料。",
          "thumb" : "https:\/\/i1.douguo.com\/upload\/caiku\/d\/2\/d\/140_d2c1bd282ca1b71fa1536ad18b01dccd.jpg",
          "image" : "https:\/\/i1.douguo.com\/upload\/caiku\/d\/2\/d\/d2c1bd282ca1b71fa1536ad18b01dccd.jpg"
        },
        {
          "image_height" : 1200,
          "frame" : "-1",
          "image" : "https:\/\/i1.douguo.com\/upload\/caiku\/1\/9\/f\/198f2f370b0d7221111a77bdf5f52eaf.jpg",
          "position" : 4,
          "content" : "这一步要特别仔细和有耐心，摆的满满的吃起来才更爽。",
          "thumb" : "https:\/\/i1.douguo.com\/upload\/caiku\/1\/9\/f\/140_198f2f370b0d7221111a77bdf5f52eaf.jpg",
          "image_width" : 1200
        },
        {
          "image_height" : 800,
          "image" : "https:\/\/i1.douguo.com\/upload\/caiku\/4\/b\/3\/4b3c6c519fb0e2b062f6e55b86d7fed3.jpg",
          "frame" : "-1",
          "image_width" : 800,
          "content" : "全部做好之后，在盘子里铺上方形海苔，再将寿司圈摆在海苔上。",
          "thumb" : "https:\/\/i1.douguo.com\/upload\/caiku\/4\/b\/3\/140_4b3c6c519fb0e2b062f6e55b86d7fed3.jpg",
          "position" : 5
        },
        {
          "image_height" : 800,
          "frame" : "-1",
          "image" : "https:\/\/i1.douguo.com\/upload\/caiku\/0\/5\/0\/0572615954c546a2177c2767d8fdc330.jpg",
          "image_width" : 800,
          "position" : 6,
          "content" : "摆个盘，就完成了。",
          "thumb" : "https:\/\/i1.douguo.com\/upload\/caiku\/0\/5\/0\/140_0572615954c546a2177c2767d8fdc330.jpg"
        }
      ],
      "purl" : "",
      "vfurl" : "",
      "author" : "三角猫__",
      "rrpt" : "",
      "ipurl" : "",
      "recommendation_tag" : "",
      "ssu" : "",
      "top_mdsp" : [

      ],
      "cookwares" : [

      ],
      "thumb_height" : 0,
      "collect_status" : 0,
      "v_u" : "",
      "recommended" : 0,
      "hqu" : "recipes:\/\/www.douguo.com\/notedetail?id=21162253",
      "cook_id" : "2288476",
      "dish_count" : 0,
      "ecs" : 0,
      "story_dsp" : [

      ],
      "vc" : "194456",
      "tips" : "做一个寿司圈其实不难，多点细心和耐心就好了。",
      "advice" : {
        "at" : "可以预防血栓形成～",
        "has" : [
          {
            "t" : "低饱和脂肪",
            "url" : "recipes:\/\/www.douguo.com\/simplerecipelist?t=低饱和脂肪&id=低饱和脂肪"
          }
        ],
        "da" : {
          "url" : "https:\/\/m.douguo.com\/recipe\/nutrient_self\/2288476",
          "t" : "查看详细分析",
          "iu" : "https:\/\/i1.douguo.com\/upload\/banner\/f\/4\/d\/f48877e53c37759bc12ac494be82ec8d.png"
        }
      },
      "guide_image" : "",
      "ipoi" : "",
      "rpid" : 0,
      "minor" : [

      ],
      "image" : "http:\/\/i1.douguo.net\/upload\/caiku\/3\/e\/2\/300_3e17f91e45a1c71b2fba851992e677a2.jpg",
      "rate" : 0,
      "clicks" : "182668",
      "cookstory" : "生活要有点创意，寿司也可以多点新意，在周末或假期，动手做一份SUSHI FILLED DONUTS，给自己的小日子加点惊喜！",
      "rips" : 0,
      "ipia" : [

      ],
      "share_info" : {
        "object_id" : "2288476",
        "image" : "https:\/\/cp1.douguo.com\/upload\/caiku\/3\/e\/2\/3e17f91e45a1c71b2fba851992e677a2.jpg",
        "s_u" : "http:\/\/m.douguo.com\/cookbook\/2288476.html",
        "mini_program" : [

        ],
        "qr_image" : "",
        "infos" : [
          {
            "mini_program" : [

            ],
            "object_id" : "2288476",
            "channel" : "1",
            "s_u" : "",
            "image" : "https:\/\/cp1.douguo.com\/upload\/caiku\/3\/e\/2\/3e17f91e45a1c71b2fba851992e677a2.jpg",
            "s_d" : "#学做饭用豆果美食# 我在@豆果美食 分享了【小清新 寿司夹心圈圈-会做饭很酷!】，这菜真的很好吃，而且做法简单不难学，还不快来跟我学～查看图片了解菜谱（每天限量免费课程，想跟大师学厨艺就来这https:\/\/m.weibo.cn\/p\/100404i33631）#会做饭很酷# ",
            "qr_image" : "",
            "name" : "小清新 寿司夹心圈圈-会做饭很酷!"
          },
          {
            "s_u" : "http:\/\/m.douguo.com\/cookbook\/2288476.html",
            "channel" : "7",
            "qr_image" : "",
            "s_d" : "小清新 寿司夹心圈圈-会做饭很酷!",
            "image" : "https:\/\/cp1.douguo.com\/upload\/caiku\/3\/e\/2\/3e17f91e45a1c71b2fba851992e677a2.jpg",
            "mini_program" : [

            ],
            "object_id" : "2288476",
            "name" : "小清新 寿司夹心圈圈-会做饭很酷!"
          },
          {
            "object_id" : "2288476",
            "mini_program" : [

            ],
            "name" : "小清新 寿司夹心圈圈-会做饭很酷!",
            "qr_image" : "",
            "s_u" : "http:\/\/m.douguo.com\/cookbook\/2288476.html",
            "image" : "https:\/\/cp1.douguo.com\/upload\/caiku\/3\/e\/2\/3e17f91e45a1c71b2fba851992e677a2.jpg",
            "s_d" : "小清新 寿司夹心圈圈-会做饭很酷!",
            "channel" : "8"
          }
        ],
        "name" : "小清新 寿司夹心圈圈-会做饭很酷!",
        "s_d" : "小清新 寿司夹心圈圈-会做饭很酷!"
      },
      "related_ads" : [

      ],
      "major" : [
        {
          "title" : "米",
          "note" : "适量"
        },
        {
          "note" : "适量",
          "title" : "生鱼片"
        },
        {
          "tu" : "https:\/\/m.douguo.com\/ingredients\/黄瓜\/detailmaterial",
          "note" : "一小根",
          "title" : "黄瓜"
        },
        {
          "tu" : "https:\/\/m.douguo.com\/ingredients\/芒果\/detailmaterial",
          "title" : "芒果",
          "note" : "半个"
        },
        {
          "tu" : "https:\/\/m.douguo.com\/ingredients\/牛油果\/detailmaterial",
          "note" : "半个",
          "title" : "牛油果"
        },
        {
          "note" : "适量",
          "title" : "金枪鱼酱"
        },
        {
          "note" : "一丢丢",
          "title" : "寿司醋",
          "tu" : "https:\/\/m.douguo.com\/ingredients\/寿司醋\/detailmaterial"
        },
        {
          "title" : "沙拉酱",
          "note" : "适量",
          "tu" : "https:\/\/m.douguo.com\/ingredients\/沙拉酱\/detailmaterial"
        },
        {
          "tu" : "https:\/\/m.douguo.com\/ingredients\/黑芝麻\/detailmaterial",
          "note" : "适量",
          "title" : "黑芝麻"
        },
        {
          "title" : "白芝麻",
          "tu" : "https:\/\/m.douguo.com\/ingredients\/白芝麻\/detailmaterial",
          "note" : "适量"
        },
        {
          "note" : "适量",
          "title" : "坚果碎"
        },
        {
          "title" : "黑红鱼子酱",
          "note" : "适量"
        }
      ],
      "packages_id" : [

      ],
      "dish_count_text" : "",
      "recipe_tags" : [

      ],
      "cookstorys" : [
        {
          "type" : 0,
          "color" : "",
          "c" : "生活要有点创意，寿司也可以多点新意，在周末或假期，动手做一份SUSHI FILLED DONUTS，给自己的小日子加点惊喜！",
          "icon" : "",
          "u" : "",
          "id" : 0
        }
      ],
      "sc" : 0,
      "thumb_path" : "https:\/\/i1.douguo.com\/upload\/caiku\/3\/e\/2\/300_3e17f91e45a1c71b2fba851992e677a2.jpg",
      "eu" : "recipes:\/\/www.douguo.com\/postdetail?id=242016",
      "rpst" : "",
      "pw" : 750,
      "views_count_text" : "19.4万",
      "recommend_label" : "2872人刚刚收藏过",
      "favo_counts_text" : "2872",
      "title_ad" : [

      ],
      "bs" : [

      ],
      "notes" : [

      ],
      "rewarded_video_dsp" : [

      ],
      "comments_count_text" : "2",
      "rate_show" : 0,
      "brand_day_dsp" : [

      ],
      "author_id" : 3973028,
      "comments" : [
        "{\n    ac = \"#999999\";\n    at = \"\";\n    ccc = 1;\n    \"child_comments\" =     (\n                {\n            ac = \"#999999\";\n            at = \"\\U6e29\\U5dde\\U5e02\";\n            ccc = 0;\n            city = \"\\U6e29\\U5dde\\U5e02\";\n            cmc = 2;\n            content =             (\n                                {\n                    c = \" \\U6446\\U4e0a\\U53bb\\U5c31\\U884c\";\n                }\n            );\n            ia = 1;\n            id = 6514108;\n            \"ip_address_location\" = \"\";\n            like = 0;\n            \"like_count\" = 0;\n            \"reply_id\" = 6513897;\n            \"reply_user\" =             {\n                \"followers_count_text\" = \"\";\n                id = 23625604;\n                \"is_prime\" = 0;\n                lv = 0;\n                lvl = 4;\n                n = \"\\U8c46\\U7c89597666qmpt\";\n                p = \"http:\/\/tx1.douguo.net\/upload\/photo\/9\/e\/3\/70_u8779430804810330012914.jpg\";\n                \"progress_image\" = \"\";\n                \"recipes_count_text\" = \"\";\n                relationship = \"-1\";\n                title = \"\";\n                v = 0;\n                \"verified_image\" = \"\";\n            };\n            \"sticker_icon\" =             (\n            );\n            time = \"2019-04-16 09:56:00\";\n            u =             {\n                \"followers_count_text\" = \"\";\n                id = 3973028;\n                \"is_prime\" = 0;\n                lv = 0;\n                lvl = 6;\n                n = \"\\U4e09\\U89d2\\U732b__\";\n                p = \"http:\/\/tx1.douguo.net\/upload\/photo\/d\/a\/b\/70_u90993595232140113349.jpg\";\n                \"progress_image\" = \"\";\n                \"recipes_count_text\" = \"\";\n                relationship = \"-1\";\n                title = \"\";\n                v = 0;\n                \"verified_image\" = \"\";\n            };\n        }\n    );\n    city = \"\";\n    cmc = 2;\n    content =     (\n                {\n            c = \"\\U4e0d\\U61c2\\U600e\\U4e48\\U5377\";\n        }\n    );\n    ia = 0;\n    id = 6513897;\n    \"ip_address_location\" = \"\";\n    like = 0;\n    \"like_count\" = 0;\n    \"reply_id\" = 0;\n    \"sticker_icon\" =     (\n    );\n    time = \"2019-04-16 08:12:05\";\n    u =     {\n        \"followers_count_text\" = \"\";\n        id = 23625604;\n        \"is_prime\" = 0;\n        lv = 0;\n        lvl = 4;\n        n = \"\\U8c46\\U7c89597666qmpt\";\n        p = \"http:\/\/tx1.douguo.net\/upload\/photo\/9\/e\/3\/70_u8779430804810330012914.jpg\";\n        \"progress_image\" = \"\";\n        \"recipes_count_text\" = \"\";\n        relationship = \"-1\";\n        title = \"\";\n        v = 0;\n        \"verified_image\" = \"\";\n    };\n}"
      ],
      "ipci" : "",
      "levelid" : 2,
      "ss" : [

      ],
      "photo_path" : "https:\/\/i1.douguo.com\/upload\/caiku\/3\/e\/2\/600_3e17f91e45a1c71b2fba851992e677a2.jpg",
      "tags" : [

      ],
      "sr" : "",
      "mid_mdsp" : [

      ],
      "rpt" : "",
      "favo_counts" : 2872,
      "vu" : "",
      "rcs" : [

      ],
      "author_verified" : 0,
      "rate_count" : 0,
      "first_level_comment_count" : 1,
      "display_ingredient" : 1,
      "release_time" : "",
      "cook_time_image" : "https:\/\/i1.douguo.com\/upload\/banner\/1551424318.png",
      "cook_difficulty_image" : "https:\/\/i1.douguo.com\/upload\/banner\/1551424413.png",
      "btm_dsp" : [

      ],
      "rsm" : "该功能暂停使用",
      "rdsps" : [

      ],
      "act_des" : "",
      "user" : {
        "verified" : 0,
        "introduction" : "",
        "favorites_count" : 0,
        "verified_url" : "https:\/\/m.douguo.com\/user\/prodesc",
        "is_prime" : 0,
        "nick" : "三角猫__",
        "lv" : 0,
        "verified_image" : "",
        "coursecount" : 0,
        "userid" : "3973028",
        "regist_time" : "",
        "weibo_nick" : "",
        "location" : 0,
        "dishes_count" : 0,
        "lvl" : 6,
        "sign" : "",
        "favor_diaries_count" : 0,
        "subscription" : 0,
        "user_id" : "3973028",
        "subscription_article_count" : 0,
        "fc" : 0,
        "user_photo" : "http:\/\/tx1.douguo.net\/upload\/photo\/d\/a\/b\/70_u90993595232140113349.jpg",
        "qzone_nick" : "",
        "birthday" : "",
        "user_cover" : "",
        "gender" : 1,
        "user_large_photo" : "http:\/\/tx1.douguo.net\/upload\/photo\/d\/a\/b\/yuan_u90993595232140113349.jpg",
        "pc" : 0,
        "qq_weibo_nick" : "",
        "age" : "",
        "following_count" : 0,
        "recipes_count" : 0,
        "point" : 0,
        "setted_email" : 0,
        "followers_count" : 0,
        "mobile" : "",
        "email" : "",
        "progress_image" : "",
        "diaries_count" : 0,
        "avatar_medium" : "http:\/\/tx1.douguo.net\/upload\/photo\/d\/a\/b\/140_u90993595232140113349.jpg"
      },
      "create_time" : "2019-04-13 22:55:43",
      "comments_count" : 2,
      "su" : "",
      "title" : "小清新 寿司夹心圈圈",
      "dishes" : [

      ],
      "hq" : 1,
      "cook_time" : "30–60分钟",
      "author_photo" : "http:\/\/tx1.douguo.net\/upload\/photo\/d\/a\/b\/70_u90993595232140113349.jpg",
      "rrps" : [

      ]
    }
  }
}