{
  "result" : {
    "recipe" : {
      "dishes" : [

      ],
      "cook_time_image" : "https:\/\/i1.douguo.com\/upload\/banner\/1551424358.png",
      "brand_day_dsp" : [

      ],
      "clicks" : "53969",
      "author_verified" : 0,
      "ssu" : "",
      "rate_show" : 0,
      "display_ingredient" : 1,
      "story_dsp" : [

      ],
      "title" : "肉松鹅蛋卷",
      "recommended" : 0,
      "act_des" : "",
      "ipt" : "",
      "recent_comments" : [

      ],
      "minor" : [

      ],
      "related_ads" : [

      ],
      "notes" : [

      ],
      "author_id" : 2603267,
      "bs" : [

      ],
      "recipe_tags" : [

      ],
      "recipe_list_tags" : [
        {
          "background_end_color" : "#F4F5F5",
          "jump_url" : "",
          "background_start_color" : "#F4F5F5",
          "right_image" : "",
          "background_border_color" : "",
          "text" : "关注的人",
          "text_color" : "#141515"
        },
        {
          "background_start_color" : "#F4F5F5",
          "jump_url" : "",
          "background_end_color" : "#F4F5F5",
          "background_border_color" : "",
          "right_image" : "",
          "text_color" : "#141515",
          "text" : "内容详细"
        }
      ],
      "cookwares" : [

      ],
      "rate_count" : 2,
      "rsm" : "该功能暂停使用",
      "ipoi" : "",
      "v_u" : "",
      "first_level_comment_count" : 2,
      "rrpt" : "",
      "tags" : [

      ],
      "cookstep" : [
        {
          "image" : "https:\/\/i1.douguo.com\/upload\/caiku\/0\/c\/3\/0ca057804d9c5f9b00fe03054cb0d3b3.jpeg",
          "frame" : "-1",
          "content" : "准备好材料",
          "image_height" : 1067,
          "thumb" : "https:\/\/i1.douguo.com\/upload\/caiku\/0\/c\/3\/140_0ca057804d9c5f9b00fe03054cb0d3b3.jpeg",
          "position" : 1,
          "image_width" : 800
        },
        {
          "image_height" : 1067,
          "image" : "https:\/\/i1.douguo.com\/upload\/caiku\/b\/4\/9\/b44d6c6353a23fa793c92dcce941bba9.jpeg",
          "position" : 2,
          "image_width" : 800,
          "content" : "加盐，葱花，料酒搅拌均匀",
          "frame" : "-1",
          "thumb" : "https:\/\/i1.douguo.com\/upload\/caiku\/b\/4\/9\/140_b44d6c6353a23fa793c92dcce941bba9.jpeg"
        },
        {
          "position" : 3,
          "frame" : "-1",
          "content" : "黄油熬化，小火倒入1\/3鹅蛋液，第一张要煎熟，撒上肉松，慢慢卷起",
          "image" : "https:\/\/i1.douguo.com\/upload\/caiku\/e\/8\/6\/e87c1c07a9a6bb5fdf9735d48117e356.jpeg",
          "thumb" : "https:\/\/i1.douguo.com\/upload\/caiku\/e\/8\/6\/140_e87c1c07a9a6bb5fdf9735d48117e356.jpeg",
          "image_width" : 800,
          "image_height" : 1067
        },
        {
          "position" : 4,
          "image_width" : 800,
          "content" : "将撒上肉松的蛋饼卷起，卷实备用",
          "image_height" : 1067,
          "thumb" : "https:\/\/i1.douguo.com\/upload\/caiku\/8\/7\/c\/140_87799dba1f83d979bef5e8dde45aeb4c.jpeg",
          "image" : "https:\/\/i1.douguo.com\/upload\/caiku\/8\/7\/c\/87799dba1f83d979bef5e8dde45aeb4c.jpeg",
          "frame" : "-1"
        },
        {
          "image_height" : 1067,
          "thumb" : "https:\/\/i1.douguo.com\/upload\/caiku\/0\/7\/7\/140_07c922e560e3c6cbe3ecf76f40087267.jpeg",
          "position" : 5,
          "image" : "https:\/\/i1.douguo.com\/upload\/caiku\/0\/7\/7\/07c922e560e3c6cbe3ecf76f40087267.jpeg",
          "image_width" : 800,
          "frame" : "-1",
          "content" : "剩下的蛋液倒入，不要等到蛋液凝固将上一个蛋卷放入，撒上少许肉松，卷起"
        },
        {
          "image" : "https:\/\/i1.douguo.com\/upload\/caiku\/1\/e\/8\/1ed2bad406818e99750dcb0131a444e8.jpeg",
          "thumb" : "https:\/\/i1.douguo.com\/upload\/caiku\/1\/e\/8\/140_1ed2bad406818e99750dcb0131a444e8.jpeg",
          "position" : 6,
          "image_height" : 1067,
          "image_width" : 800,
          "content" : "倒入甜辣酱，佐配，也可以用番茄沙司",
          "frame" : "-1"
        }
      ],
      "packages_id" : [

      ],
      "cookstory" : "鹅蛋营养丰富，用黄油煎制热量足够。",
      "comments" : [
        "{\n    ac = \"#999999\";\n    at = \"\";\n    ccc = 0;\n    \"child_comments\" =     (\n    );\n    city = \"\";\n    cmc = 2;\n    content =     (\n                {\n            c = \"\\U5b9e\\U7528\\U5e16\\Uff0c\\U7b2c\\U4e00\\U6b21\\U505a\\U5c31\\U6210\\U529f\\U5566\\Uff01\";\n        }\n    );\n    ia = 0;\n    id = 6374885;\n    \"ip_address_location\" = \"\";\n    like = 0;\n    \"like_count\" = 0;\n    \"reply_id\" = 0;\n    \"sticker_icon\" =     (\n    );\n    time = \"2019-02-01 16:01:31\";\n    u =     {\n        \"followers_count_text\" = \"\";\n        id = 18533313;\n        \"is_prime\" = 0;\n        lv = 0;\n        lvl = 4;\n        n = \"\\U5973\\U4eba\\U4f9d\";\n        p = \"http:\/\/tx1.douguo.net\/upload\/photo\/8\/d\/b\/70_u79336862919912143139.jpg\";\n        \"progress_image\" = \"\";\n        \"recipes_count_text\" = \"\";\n        relationship = \"-1\";\n        title = \"\";\n        v = 0;\n        \"verified_image\" = \"\";\n    };\n}",
        "{\n    ac = \"#999999\";\n    at = \"\";\n    ccc = 0;\n    \"child_comments\" =     (\n    );\n    city = \"\";\n    cmc = 2;\n    content =     (\n                {\n            c = \"\\U770b\\U4e0a\\U53bb\\U5c31\\U5f88\\U597d\\U5403~ \";\n        }\n    );\n    ia = 0;\n    id = 4165589;\n    \"ip_address_location\" = \"\";\n    like = 0;\n    \"like_count\" = 0;\n    \"reply_id\" = 0;\n    \"sticker_icon\" =     (\n    );\n    time = \"2016-10-09 02:16:06\";\n    u =     {\n        \"followers_count_text\" = \"\";\n        id = 18370617;\n        \"is_prime\" = 0;\n        lv = 0;\n        lvl = 6;\n        n = \"\\U5431\\U5431\\U7ae5\\U978b\";\n        p = \"http:\/\/tx1.douguo.net\/upload\/photo\/e\/7\/7\/70_u71854464242365133639.jpg\";\n        \"progress_image\" = \"\";\n        \"recipes_count_text\" = \"\";\n        relationship = \"-1\";\n        title = \"\";\n        v = 0;\n        \"verified_image\" = \"\";\n    };\n}"
      ],
      "hq" : 0,
      "create_time" : "2016-10-09 10:14:49",
      "ss" : [

      ],
      "recommendation_tag" : "",
      "eu" : "recipes:\/\/www.douguo.com\/postdetail?id=242016",
      "vfurl" : "",
      "guide_image" : "",
      "major" : [
        {
          "tu" : "https:\/\/m.douguo.com\/ingredients\/鹅蛋\/detailmaterial",
          "title" : "鹅蛋",
          "note" : "2个"
        },
        {
          "tu" : "https:\/\/m.douguo.com\/ingredients\/料酒\/detailmaterial",
          "note" : "少许",
          "title" : "料酒"
        },
        {
          "title" : "大葱",
          "tu" : "https:\/\/m.douguo.com\/ingredients\/大葱\/detailmaterial",
          "note" : "少许"
        },
        {
          "title" : "黄油",
          "tu" : "https:\/\/m.douguo.com\/ingredients\/黄油\/detailmaterial",
          "note" : "少许"
        },
        {
          "title" : "肉松",
          "tu" : "https:\/\/m.douguo.com\/ingredients\/肉松\/detailmaterial",
          "note" : "适量"
        }
      ],
      "levelid" : 3,
      "recommend_label" : "3人学做",
      "views_count_text" : "6.2万",
      "vu" : "",
      "author" : "四念",
      "ipurl" : "",
      "title_ad" : [

      ],
      "thumb_path" : "https:\/\/i1.douguo.com\/upload\/caiku\/8\/7\/f\/300_8778cd5faff65353eeac7cf61d71980f.jpeg",
      "comments_count_text" : "2",
      "ecs" : 0,
      "rcs" : [

      ],
      "advice" : {
        "at" : "有助于组织的形成和生长～",
        "has" : [
          {
            "t" : "富含蛋白质",
            "url" : "recipes:\/\/www.douguo.com\/simplerecipelist?t=富含蛋白质&id=富含蛋白质"
          }
        ],
        "da" : {
          "iu" : "https:\/\/i1.douguo.com\/upload\/banner\/f\/4\/d\/f48877e53c37759bc12ac494be82ec8d.png",
          "t" : "查看详细分析",
          "url" : "https:\/\/m.douguo.com\/recipe\/nutrient_self\/1457139"
        }
      },
      "tips" : "鹅蛋有腥味，要加入少许料酒去腥。不要放多",
      "photo_path" : "https:\/\/i1.douguo.com\/upload\/caiku\/8\/7\/f\/600_8778cd5faff65353eeac7cf61d71980f.jpeg",
      "collect_status" : 0,
      "cook_difficulty" : "切墩(初级)",
      "rips" : 0,
      "old_comments" : [

      ],
      "ipia" : [

      ],
      "image" : "http:\/\/i1.douguo.net\/upload\/caiku\/8\/7\/f\/300_8778cd5faff65353eeac7cf61d71980f.jpeg",
      "rpt" : "",
      "favo_counts_text" : "441",
      "rpst" : "",
      "rdsps" : [

      ],
      "purl" : "",
      "sr" : "",
      "ipit" : 0,
      "pw" : 800,
      "top_mdsp" : [

      ],
      "dish_count_text" : "3",
      "hqu" : "recipes:\/\/www.douguo.com\/notedetail?id=21162253",
      "cookstorys" : [
        {
          "c" : "鹅蛋营养丰富，用黄油煎制热量足够。",
          "type" : 0,
          "u" : "",
          "color" : "",
          "icon" : "",
          "id" : 0
        }
      ],
      "mid_mdsp" : [

      ],
      "cook_id" : "1457139",
      "user" : {
        "lv" : 0,
        "diaries_count" : 0,
        "coursecount" : 0,
        "introduction" : "",
        "progress_image" : "",
        "qzone_nick" : "",
        "dishes_count" : 0,
        "user_cover" : "",
        "favor_diaries_count" : 0,
        "pc" : 0,
        "user_large_photo" : "http:\/\/tx1.douguo.net\/upload\/photo\/9\/4\/f\/yuan_u64115041505925064254.jpg",
        "lvl" : 4,
        "user_id" : "2603267",
        "birthday" : "",
        "qq_weibo_nick" : "",
        "regist_time" : "",
        "mobile" : "",
        "verified_image" : "",
        "subscription" : 0,
        "age" : "",
        "setted_email" : 0,
        "point" : 0,
        "verified" : 0,
        "recipes_count" : 0,
        "subscription_article_count" : 0,
        "weibo_nick" : "",
        "is_prime" : 0,
        "favorites_count" : 0,
        "user_photo" : "http:\/\/tx1.douguo.net\/upload\/photo\/9\/4\/f\/70_u64115041505925064254.jpg",
        "nick" : "四念",
        "following_count" : 0,
        "gender" : 1,
        "location" : 0,
        "verified_url" : "https:\/\/m.douguo.com\/user\/prodesc",
        "sign" : "",
        "fc" : 0,
        "avatar_medium" : "http:\/\/tx1.douguo.net\/upload\/photo\/9\/4\/f\/140_u64115041505925064254.jpg",
        "followers_count" : 0,
        "userid" : "2603267",
        "email" : ""
      },
      "cook_difficulty_image" : "https:\/\/i1.douguo.com\/upload\/banner\/1551424390.png",
      "rewarded_video_dsp" : [

      ],
      "thumb_height" : 0,
      "vc" : "62158",
      "sc" : 0,
      "ipci" : "",
      "rpid" : 0,
      "dish_count" : 3,
      "comments_count" : 2,
      "release_time" : "",
      "cook_time" : "10分钟左右",
      "btm_dsp" : [

      ],
      "author_photo" : "http:\/\/tx1.douguo.net\/upload\/photo\/9\/4\/f\/70_u64115041505925064254.jpg",
      "rate" : 4,
      "share_info" : {
        "s_d" : "肉松鹅蛋卷-会做饭很酷!",
        "infos" : [
          {
            "mini_program" : [

            ],
            "name" : "肉松鹅蛋卷-会做饭很酷!",
            "image" : "https:\/\/cp1.douguo.com\/upload\/caiku\/8\/7\/f\/8778cd5faff65353eeac7cf61d71980f.jpeg",
            "s_d" : "#学做饭用豆果美食# 我在@豆果美食 分享了【肉松鹅蛋卷-会做饭很酷!】，这菜真的很好吃，而且做法简单不难学，还不快来跟我学～查看图片了解菜谱（每天限量免费课程，想跟大师学厨艺就来这https:\/\/m.weibo.cn\/p\/100404i33631）#会做饭很酷# ",
            "object_id" : "1457139",
            "channel" : "1",
            "qr_image" : "",
            "s_u" : ""
          },
          {
            "qr_image" : "",
            "mini_program" : [

            ],
            "s_u" : "http:\/\/m.douguo.com\/cookbook\/1457139.html",
            "name" : "肉松鹅蛋卷-会做饭很酷!",
            "image" : "https:\/\/cp1.douguo.com\/upload\/caiku\/8\/7\/f\/8778cd5faff65353eeac7cf61d71980f.jpeg",
            "s_d" : "肉松鹅蛋卷-会做饭很酷!",
            "object_id" : "1457139",
            "channel" : "7"
          },
          {
            "image" : "https:\/\/cp1.douguo.com\/upload\/caiku\/8\/7\/f\/8778cd5faff65353eeac7cf61d71980f.jpeg",
            "channel" : "8",
            "mini_program" : [

            ],
            "name" : "肉松鹅蛋卷-会做饭很酷!",
            "s_u" : "http:\/\/m.douguo.com\/cookbook\/1457139.html",
            "qr_image" : "",
            "object_id" : "1457139",
            "s_d" : "肉松鹅蛋卷-会做饭很酷!"
          }
        ],
        "s_u" : "http:\/\/m.douguo.com\/cookbook\/1457139.html",
        "image" : "https:\/\/cp1.douguo.com\/upload\/caiku\/8\/7\/f\/8778cd5faff65353eeac7cf61d71980f.jpeg",
        "object_id" : "1457139",
        "mini_program" : [

        ],
        "qr_image" : "",
        "name" : "肉松鹅蛋卷-会做饭很酷!"
      },
      "original_photo_path" : "http:\/\/i1.douguo.net\/upload\/caiku\/8\/7\/f\/yuan_8778cd5faff65353eeac7cf61d71980f.jpeg",
      "ph" : 1067,
      "su" : "",
      "favo_counts" : 441,
      "rrps" : [

      ]
    }
  },
  "state" : "success",
  "status" : 0
}