{
  "result" : {
    "recipe" : {
      "tips" : "",
      "sc" : 0,
      "title_ad" : [

      ],
      "create_time" : "2019-07-22 13:49:37",
      "ipt" : "",
      "original_photo_path" : "http:\/\/i1.douguo.net\/upload\/caiku\/1\/0\/f\/yuan_10e2ac43a5acf7ed37037649575a58af.jpeg",
      "rate_show" : 0,
      "pw" : 1440,
      "related_ads" : [

      ],
      "vfurl" : "",
      "share_info" : {
        "object_id" : "2321249",
        "mini_program" : [

        ],
        "name" : "红酒烩鸡腿小蘑菇-会做饭很酷!",
        "qr_image" : "",
        "s_u" : "http:\/\/m.douguo.com\/cookbook\/2321249.html",
        "image" : "https:\/\/cp1.douguo.com\/upload\/caiku\/1\/0\/f\/10e2ac43a5acf7ed37037649575a58af.jpeg",
        "s_d" : "红酒烩鸡腿小蘑菇-会做饭很酷!",
        "infos" : [
          {
            "qr_image" : "",
            "s_d" : "#学做饭用豆果美食# 会做饭真是太酷了！我在@豆果美食 分享了【红酒烩鸡腿小蘑菇-会做饭很酷!】OMG！这是什么神仙美味啊~真的强烈推荐你们试一试～查看图片了解菜谱（每天限量免费课程，想跟大师学厨艺就来这https:\/\/m.weibo.cn\/p\/100404i33631）",
            "name" : "红酒烩鸡腿小蘑菇-会做饭很酷!",
            "object_id" : "2321249",
            "image" : "https:\/\/cp1.douguo.com\/upload\/caiku\/1\/0\/f\/10e2ac43a5acf7ed37037649575a58af.jpeg",
            "s_u" : "",
            "mini_program" : [

            ],
            "channel" : "1"
          },
          {
            "mini_program" : [

            ],
            "channel" : "7",
            "object_id" : "2321249",
            "image" : "https:\/\/cp1.douguo.com\/upload\/caiku\/1\/0\/f\/10e2ac43a5acf7ed37037649575a58af.jpeg",
            "s_u" : "http:\/\/m.douguo.com\/cookbook\/2321249.html",
            "s_d" : "红酒烩鸡腿小蘑菇-会做饭很酷!",
            "qr_image" : "",
            "name" : "红酒烩鸡腿小蘑菇-会做饭很酷!"
          },
          {
            "channel" : "8",
            "s_u" : "http:\/\/m.douguo.com\/cookbook\/2321249.html",
            "qr_image" : "",
            "s_d" : "红酒烩鸡腿小蘑菇-会做饭很酷!",
            "image" : "https:\/\/cp1.douguo.com\/upload\/caiku\/1\/0\/f\/10e2ac43a5acf7ed37037649575a58af.jpeg",
            "mini_program" : [

            ],
            "name" : "红酒烩鸡腿小蘑菇-会做饭很酷!",
            "object_id" : "2321249"
          }
        ]
      },
      "dish_count" : 0,
      "cookstep" : [
        {
          "image_height" : 1706,
          "image_width" : 1280,
          "thumb" : "https:\/\/i1.douguo.com\/upload\/caiku\/4\/7\/5\/140_4754b04018c3a411b657b1b7a6793485.jpeg",
          "content" : "鸡腿肉去骨用白胡椒、料酒、盐码好放冰箱里冷藏备用",
          "image" : "https:\/\/i1.douguo.com\/upload\/caiku\/4\/7\/5\/4754b04018c3a411b657b1b7a6793485.jpeg",
          "position" : 1,
          "frame" : "-1"
        },
        {
          "content" : "香菇、蘑菇洗净切好备用",
          "image" : "https:\/\/i1.douguo.com\/upload\/caiku\/b\/4\/d\/b4e385db45037ddc12ba90e68c69ea9d.jpeg",
          "frame" : "-1",
          "thumb" : "https:\/\/i1.douguo.com\/upload\/caiku\/b\/4\/d\/140_b4e385db45037ddc12ba90e68c69ea9d.jpeg",
          "image_width" : 1280,
          "position" : 2,
          "image_height" : 1706
        },
        {
          "image" : "https:\/\/i1.douguo.com\/upload\/caiku\/7\/c\/f\/7cac73c6c75066a362d644eb335f074f.jpeg",
          "frame" : "-1",
          "position" : 3,
          "image_width" : 1280,
          "content" : "洋葱、红萝卜切碎丁备用",
          "thumb" : "https:\/\/i1.douguo.com\/upload\/caiku\/7\/c\/f\/140_7cac73c6c75066a362d644eb335f074f.jpeg",
          "image_height" : 1706
        },
        {
          "image_height" : 1706,
          "frame" : "-1",
          "content" : "香菜洗净切段备用",
          "image" : "https:\/\/i1.douguo.com\/upload\/caiku\/7\/c\/e\/7c775a6c39941eb585f27b2010d6580e.jpeg",
          "position" : 4,
          "thumb" : "https:\/\/i1.douguo.com\/upload\/caiku\/7\/c\/e\/140_7c775a6c39941eb585f27b2010d6580e.jpeg",
          "image_width" : 1280
        },
        {
          "position" : 5,
          "frame" : "-1",
          "image_width" : 1280,
          "image_height" : 1706,
          "content" : "所有用料备齐姐喝茶观雨待会儿肥来...",
          "thumb" : "https:\/\/i1.douguo.com\/upload\/caiku\/4\/7\/3\/140_478e7dd515b6ad4f2dd99f5403858e13.jpeg",
          "image" : "https:\/\/i1.douguo.com\/upload\/caiku\/4\/7\/3\/478e7dd515b6ad4f2dd99f5403858e13.jpeg"
        },
        {
          "content" : "黄油化开鸡腿肉放入",
          "image_height" : 1706,
          "image_width" : 1280,
          "thumb" : "https:\/\/i1.douguo.com\/upload\/caiku\/d\/6\/5\/140_d68839f3c9d686d61fb2451bf4205195.jpeg",
          "image" : "https:\/\/i1.douguo.com\/upload\/caiku\/d\/6\/5\/d68839f3c9d686d61fb2451bf4205195.jpeg",
          "frame" : "-1",
          "position" : 6
        },
        {
          "image_width" : 1280,
          "content" : "鸡皮疙瘩贴近锅锅煎香出油去腻...",
          "image" : "https:\/\/i1.douguo.com\/upload\/caiku\/0\/0\/1\/005c4b0d37e4b4a33ccbbab6ba640941.jpeg",
          "thumb" : "https:\/\/i1.douguo.com\/upload\/caiku\/0\/0\/1\/140_005c4b0d37e4b4a33ccbbab6ba640941.jpeg",
          "position" : 7,
          "frame" : "-1",
          "image_height" : 1706
        },
        {
          "image_height" : 1706,
          "position" : 8,
          "content" : "加油适量滴老抽、白糖、白胡椒闷2分钟",
          "image" : "https:\/\/i1.douguo.com\/upload\/caiku\/4\/3\/2\/4355501c00e0c473f9a9d6e0bf71e8c2.jpeg",
          "thumb" : "https:\/\/i1.douguo.com\/upload\/caiku\/4\/3\/2\/140_4355501c00e0c473f9a9d6e0bf71e8c2.jpeg",
          "image_width" : 1280,
          "frame" : "-1"
        },
        {
          "content" : "鸡腿肉焖好后备用，将就刚才锅锅里滴油把蒜、洋葱丁炒香",
          "image_width" : 1280,
          "image" : "https:\/\/i1.douguo.com\/upload\/caiku\/3\/8\/f\/3857b15a5520e8ada5c53b5cfb6921ff.jpeg",
          "frame" : "-1",
          "thumb" : "https:\/\/i1.douguo.com\/upload\/caiku\/3\/8\/f\/140_3857b15a5520e8ada5c53b5cfb6921ff.jpeg",
          "image_height" : 1706,
          "position" : 9
        },
        {
          "position" : 10,
          "content" : "下小蘑菇，香菇煸炒一下出香味后加适量水、淡奶油（家里滴用完木有喏，牛奶也木有喏，只找到一盒椰奶被我好不留情面滴替代进去...）",
          "frame" : "-1",
          "image_width" : 1280,
          "image" : "https:\/\/i1.douguo.com\/upload\/caiku\/4\/7\/9\/4751c1dbad837ac0f895cfffa72356e9.jpeg",
          "thumb" : "https:\/\/i1.douguo.com\/upload\/caiku\/4\/7\/9\/140_4751c1dbad837ac0f895cfffa72356e9.jpeg",
          "image_height" : 1706
        },
        {
          "image_width" : 1280,
          "position" : 11,
          "thumb" : "https:\/\/i1.douguo.com\/upload\/caiku\/3\/2\/5\/140_3258f5cfb6293a07de8d5bcd193d0685.jpeg",
          "image_height" : 1706,
          "frame" : "-1",
          "image" : "https:\/\/i1.douguo.com\/upload\/caiku\/3\/2\/5\/3258f5cfb6293a07de8d5bcd193d0685.jpeg",
          "content" : "加入日本酱油"
        },
        {
          "image_width" : 1280,
          "frame" : "-1",
          "thumb" : "https:\/\/i1.douguo.com\/upload\/caiku\/7\/a\/f\/140_7a54c0fae70dbf40432bd9804cbcd83f.jpeg",
          "content" : "汤汁差不多快收好时再加入番茄酱",
          "position" : 12,
          "image_height" : 1706,
          "image" : "https:\/\/i1.douguo.com\/upload\/caiku\/7\/a\/f\/7a54c0fae70dbf40432bd9804cbcd83f.jpeg"
        },
        {
          "image" : "https:\/\/i1.douguo.com\/upload\/caiku\/7\/3\/6\/736700cf04dfc7a42e91611a573331c6.jpeg",
          "image_width" : 1280,
          "content" : "最后将备用的鸡腿，再放回锅锅里炖一小会儿",
          "image_height" : 1706,
          "position" : 13,
          "thumb" : "https:\/\/i1.douguo.com\/upload\/caiku\/7\/3\/6\/140_736700cf04dfc7a42e91611a573331c6.jpeg",
          "frame" : "-1"
        },
        {
          "image_width" : 1280,
          "content" : "最后将白米饭乘盘转入鸡腿蘑菇再淋上汤汁豆阔以掐饭喏...",
          "image" : "https:\/\/i1.douguo.com\/upload\/caiku\/6\/d\/e\/6de9c2ae76b0a1c19a3c41a50dbda91e.jpeg",
          "image_height" : 1706,
          "thumb" : "https:\/\/i1.douguo.com\/upload\/caiku\/6\/d\/e\/140_6de9c2ae76b0a1c19a3c41a50dbda91e.jpeg",
          "position" : 14,
          "frame" : "-1"
        }
      ],
      "thumb_path" : "https:\/\/i1.douguo.com\/upload\/caiku\/1\/0\/f\/300_10e2ac43a5acf7ed37037649575a58af.jpeg",
      "rrpt" : "",
      "cook_difficulty" : "切墩(初级)",
      "author_id" : 2344067,
      "user" : {
        "sign" : "",
        "introduction" : "",
        "subscription" : 0,
        "pc" : 0,
        "verified_url" : "https:\/\/m.douguo.com\/user\/prodesc",
        "setted_email" : 0,
        "qzone_nick" : "",
        "is_prime" : 0,
        "coursecount" : 0,
        "fc" : 0,
        "point" : 0,
        "subscription_article_count" : 0,
        "nick" : "宅女厨娘",
        "followers_count" : 0,
        "dishes_count" : 0,
        "birthday" : "",
        "user_large_photo" : "http:\/\/tx1.douguo.net\/upload\/photo\/f\/0\/e\/yuan_f09227b06f2a3b622a614e40bf131a4e.jpeg",
        "favor_diaries_count" : 0,
        "gender" : 2,
        "user_cover" : "",
        "user_id" : "2344067",
        "user_photo" : "http:\/\/tx1.douguo.net\/upload\/photo\/f\/0\/e\/70_f09227b06f2a3b622a614e40bf131a4e.jpeg",
        "email" : "",
        "verified_image" : "",
        "lvl" : 6,
        "lv" : 0,
        "recipes_count" : 0,
        "regist_time" : "",
        "favorites_count" : 0,
        "weibo_nick" : "",
        "diaries_count" : 0,
        "avatar_medium" : "http:\/\/tx1.douguo.net\/upload\/photo\/f\/0\/e\/140_f09227b06f2a3b622a614e40bf131a4e.jpeg",
        "age" : "",
        "mobile" : "",
        "progress_image" : "",
        "userid" : "2344067",
        "following_count" : 0,
        "verified" : 0,
        "location" : 0,
        "qq_weibo_nick" : ""
      },
      "recipe_list_tags" : [
        {
          "text" : "关注的人",
          "background_border_color" : "",
          "background_start_color" : "#F4F5F5",
          "text_color" : "#141515",
          "right_image" : "",
          "background_end_color" : "#F4F5F5",
          "jump_url" : ""
        }
      ],
      "vu" : "",
      "ipia" : [

      ],
      "cookwares" : [

      ],
      "rsm" : "该功能暂停使用",
      "display_ingredient" : 1,
      "ipoi" : "",
      "packages_id" : [

      ],
      "ssu" : "",
      "first_level_comment_count" : 13,
      "rips" : 0,
      "rcs" : [

      ],
      "release_time" : "",
      "eu" : "recipes:\/\/www.douguo.com\/postdetail?id=242016",
      "ph" : 1920,
      "recommend_label" : "1.1万人看过",
      "comments_count" : 27,
      "hqu" : "recipes:\/\/www.douguo.com\/notedetail?id=21162253",
      "ipit" : 0,
      "act_des" : "",
      "hq" : 0,
      "recommended" : 0,
      "guide_image" : "",
      "clicks" : "9789",
      "purl" : "",
      "rrps" : [

      ],
      "ss" : [

      ],
      "recent_comments" : [

      ],
      "cookstorys" : [
        {
          "type" : 0,
          "id" : 0,
          "u" : "",
          "icon" : "",
          "color" : "",
          "c" : "这个夏天咋豆天天下雨尼？炒鸡凉爽弄点开胃简便饭菜...好让我有时间赏雨️️️\n"
        }
      ],
      "story_dsp" : [

      ],
      "ipurl" : "",
      "rdsps" : [

      ],
      "vc" : "10857",
      "rewarded_video_dsp" : [

      ],
      "ecs" : 1,
      "dish_count_text" : "",
      "major" : [
        {
          "note" : "2个",
          "title" : "小鸡腿"
        },
        {
          "tu" : "https:\/\/m.douguo.com\/ingredients\/姜\/detailmaterial",
          "title" : "姜",
          "note" : "6片"
        },
        {
          "note" : "3瓣",
          "title" : "蒜",
          "tu" : "https:\/\/m.douguo.com\/ingredients\/蒜\/detailmaterial"
        },
        {
          "note" : "2汤匙",
          "title" : "生抽",
          "tu" : "https:\/\/m.douguo.com\/ingredients\/生抽\/detailmaterial"
        },
        {
          "note" : "1汤匙",
          "title" : "老抽",
          "tu" : "https:\/\/m.douguo.com\/ingredients\/老抽\/detailmaterial"
        },
        {
          "note" : "2汤匙",
          "title" : "料酒",
          "tu" : "https:\/\/m.douguo.com\/ingredients\/料酒\/detailmaterial"
        },
        {
          "title" : "洋葱",
          "tu" : "https:\/\/m.douguo.com\/ingredients\/洋葱\/detailmaterial",
          "note" : "1个"
        },
        {
          "note" : "半根",
          "title" : "红萝卜",
          "tu" : "https:\/\/m.douguo.com\/ingredients\/红萝卜\/detailmaterial"
        },
        {
          "note" : "20朵",
          "title" : "小蘑菇"
        },
        {
          "tu" : "https:\/\/m.douguo.com\/ingredients\/香菇\/detailmaterial",
          "note" : "10颗",
          "title" : "香菇"
        },
        {
          "title" : "蕃茄酱",
          "note" : "5汤匙"
        },
        {
          "title" : "红酒",
          "note" : "1小杯",
          "tu" : "https:\/\/m.douguo.com\/ingredients\/红酒\/detailmaterial"
        },
        {
          "note" : "一大块",
          "tu" : "https:\/\/m.douguo.com\/ingredients\/黄油\/detailmaterial",
          "title" : "黄油"
        },
        {
          "note" : "适量",
          "title" : "白胡椒"
        },
        {
          "tu" : "https:\/\/m.douguo.com\/ingredients\/香菜\/detailmaterial",
          "note" : "1根",
          "title" : "香菜"
        }
      ],
      "rate_count" : 0,
      "recipe_tags" : [

      ],
      "photo_path" : "https:\/\/i1.douguo.com\/upload\/caiku\/1\/0\/f\/600_10e2ac43a5acf7ed37037649575a58af.jpeg",
      "views_count_text" : "1.1万",
      "btm_dsp" : [

      ],
      "collect_status" : 0,
      "levelid" : 3,
      "top_mdsp" : [

      ],
      "author" : "宅女厨娘",
      "rpid" : 0,
      "favo_counts_text" : "30",
      "cookstory" : "这个夏天咋豆天天下雨尼？炒鸡凉爽弄点开胃简便饭菜...好让我有时间赏雨️️️\n",
      "dishes" : [

      ],
      "notes" : [

      ],
      "comments_count_text" : "27",
      "rpst" : "",
      "sr" : "",
      "brand_day_dsp" : [

      ],
      "rate" : 0,
      "author_photo" : "http:\/\/tx1.douguo.net\/upload\/photo\/f\/0\/e\/70_f09227b06f2a3b622a614e40bf131a4e.jpeg",
      "ipci" : "",
      "author_verified" : 0,
      "thumb_height" : 0,
      "cook_time_image" : "https:\/\/i1.douguo.com\/upload\/banner\/1551424341.png",
      "cook_id" : "2321249",
      "title" : "红酒烩鸡腿小蘑菇",
      "recommendation_tag" : "",
      "bs" : [

      ],
      "favo_counts" : 30,
      "image" : "http:\/\/i1.douguo.net\/upload\/caiku\/1\/0\/f\/300_10e2ac43a5acf7ed37037649575a58af.jpeg",
      "advice" : {
        "has" : [
          {
            "url" : "recipes:\/\/www.douguo.com\/simplerecipelist?t=低热量&id=低热量",
            "t" : "低热量"
          },
          {
            "url" : "recipes:\/\/www.douguo.com\/simplerecipelist?t=低脂&id=低脂",
            "t" : "低脂"
          }
        ],
        "da" : {
          "iu" : "https:\/\/i1.douguo.com\/upload\/banner\/f\/4\/d\/f48877e53c37759bc12ac494be82ec8d.png",
          "t" : "查看详细分析",
          "url" : "https:\/\/m.douguo.com\/recipe\/nutrient_self\/2321249"
        },
        "at" : "能有效控制体重～"
      },
      "tags" : [

      ],
      "rpt" : "",
      "old_comments" : [

      ],
      "v_u" : "",
      "cook_difficulty_image" : "https:\/\/i1.douguo.com\/upload\/banner\/1551424390.png",
      "mid_mdsp" : [

      ],
      "su" : "",
      "cook_time" : "10~30分钟",
      "minor" : [

      ],
      "comments" : [
        "{\n    ac = \"#999999\";\n    at = \"\\U8862\\U5dde\\U5e02\";\n    ccc = 1;\n    \"child_comments\" =     (\n                {\n            ac = \"#999999\";\n            at = \"\\U6210\\U90fd\\U5e02\";\n            ccc = 0;\n            city = \"\\U6210\\U90fd\\U5e02\";\n            cmc = 2;\n            content =             (\n                                {\n                    c = \" \\U54c8\\U54c8\\U54c8...\\U7ea2\\U9152\\Ud83c\\Udf77\\U4e0b\\U809a\\U5566\\Ud83d\\Ude1c\\Ud83d\\Ude1c\\Ud83d\\Ude1c\";\n                }\n            );\n            ia = 1;\n            id = 8126166;\n            \"ip_address_location\" = \"\";\n            like = 0;\n            \"like_count\" = 0;\n            \"reply_id\" = 8123501;\n            \"reply_user\" =             {\n                \"followers_count_text\" = \"\";\n                id = 24524830;\n                \"is_prime\" = 0;\n                lv = 0;\n                lvl = 1;\n                n = \"\\U9ed1\\U6f06\\U6f06\\U7684\\U9bb0\\U9c7c\";\n                p = \"http:\/\/tx1.douguo.net\/upload\/photo\/1\/1\/1\/70_f36e1204da7dee4b5ba01816c032b7cc.png\";\n                \"progress_image\" = \"\";\n                \"recipes_count_text\" = \"\";\n                relationship = \"-1\";\n                title = \"\";\n                v = 0;\n                \"verified_image\" = \"\";\n            };\n            \"sticker_icon\" =             (\n            );\n            time = \"2020-07-07 03:56:18\";\n            u =             {\n                \"followers_count_text\" = \"\";\n                id = 2344067;\n                \"is_prime\" = 0;\n                lv = 0;\n                lvl = 6;\n                n = \"\\U5b85\\U5973\\U53a8\\U5a18\";\n                p = \"http:\/\/tx1.douguo.net\/upload\/photo\/f\/0\/e\/70_f09227b06f2a3b622a614e40bf131a4e.jpeg\";\n                \"progress_image\" = \"\";\n                \"recipes_count_text\" = \"\";\n                relationship = \"-1\";\n                title = \"\";\n                v = 0;\n                \"verified_image\" = \"\";\n            };\n        }\n    );\n    city = \"\\U8862\\U5dde\\U5e02\";\n    cmc = 2;\n    content =     (\n                {\n            c = \"\\U7ea2\\U9152\\U5462\\U7ea2\\U9152\\U5462\";\n        }\n    );\n    ia = 0;\n    id = 8123501;\n    \"ip_address_location\" = \"\";\n    like = 0;\n    \"like_count\" = 0;\n    \"reply_id\" = 0;\n    \"sticker_icon\" =     (\n    );\n    time = \"2020-07-05 21:36:01\";\n    u =     {\n        \"followers_count_text\" = \"\";\n        id = 24524830;\n        \"is_prime\" = 0;\n        lv = 0;\n        lvl = 1;\n        n = \"\\U9ed1\\U6f06\\U6f06\\U7684\\U9bb0\\U9c7c\";\n        p = \"http:\/\/tx1.douguo.net\/upload\/photo\/1\/1\/1\/70_f36e1204da7dee4b5ba01816c032b7cc.png\";\n        \"progress_image\" = \"\";\n        \"recipes_count_text\" = \"\";\n        relationship = \"-1\";\n        title = \"\";\n        v = 0;\n        \"verified_image\" = \"\";\n    };\n}",
        "{\n    ac = \"#999999\";\n    at = \"\";\n    ccc = 1;\n    \"child_comments\" =     (\n                {\n            ac = \"#999999\";\n            at = \"\\U6210\\U90fd\\U5e02\";\n            ccc = 0;\n            city = \"\\U6210\\U90fd\\U5e02\";\n            cmc = 2;\n            content =             (\n                                {\n                    c = \" \\U5475\\U5475\\U5475...\\U8fd9\\U4e2a\\U5728\\U90a3\\U4e9b\\U5927\\U5496\\U53a8\\U90a3\\U8c46\\U662f\\U4e00\\U4e2a\\U7b80\\U9910\\Ud83d\\Ude1c\\Ud83d\\Ude1c\\Ud83d\\Ude1c\";\n                }\n            );\n            ia = 1;\n            id = 7328024;\n            \"ip_address_location\" = \"\";\n            like = 0;\n            \"like_count\" = 0;\n            \"reply_id\" = 7196109;\n            \"reply_user\" =             {\n                \"followers_count_text\" = \"\";\n                id = 18578106;\n                \"is_prime\" = 0;\n                lv = 0;\n                lvl = 3;\n                n = \"\\U5c0f\\U5c0f\\U6843\\U5b50123\";\n                p = \"http:\/\/tx1.douguo.net\/upload\/photo\/a\/8\/5\/70_u98595599527385184713.jpg\";\n                \"progress_image\" = \"\";\n                \"recipes_count_text\" = \"\";\n                relationship = \"-1\";\n                title = \"\";\n                v = 0;\n                \"verified_image\" = \"\";\n            };\n            \"sticker_icon\" =             (\n            );\n            time = \"2019-11-18 09:44:22\";\n            u =             {\n                \"followers_count_text\" = \"\";\n                id = 2344067;\n                \"is_prime\" = 0;\n                lv = 0;\n                lvl = 6;\n                n = \"\\U5b85\\U5973\\U53a8\\U5a18\";\n                p = \"http:\/\/tx1.douguo.net\/upload\/photo\/f\/0\/e\/70_f09227b06f2a3b622a614e40bf131a4e.jpeg\";\n                \"progress_image\" = \"\";\n                \"recipes_count_text\" = \"\";\n                relationship = \"-1\";\n                title = \"\";\n                v = 0;\n                \"verified_image\" = \"\";\n            };\n        }\n    );\n    city = \"\";\n    cmc = 2;\n    content =     (\n                {\n            c = \"\\U8fd9\\U83dc\\U505a\\U7684\\U4e5f\\U592a\\U7cbe\\U54c1\\U4e86\";\n        }\n    );\n    ia = 0;\n    id = 7196109;\n    \"ip_address_location\" = \"\";\n    like = 0;\n    \"like_count\" = 0;\n    \"reply_id\" = 0;\n    \"sticker_icon\" =     (\n    );\n    time = \"2019-10-17 20:54:27\";\n    u =     {\n        \"followers_count_text\" = \"\";\n        id = 18578106;\n        \"is_prime\" = 0;\n        lv = 0;\n        lvl = 3;\n        n = \"\\U5c0f\\U5c0f\\U6843\\U5b50123\";\n        p = \"http:\/\/tx1.douguo.net\/upload\/photo\/a\/8\/5\/70_u98595599527385184713.jpg\";\n        \"progress_image\" = \"\";\n        \"recipes_count_text\" = \"\";\n        relationship = \"-1\";\n        title = \"\";\n        v = 0;\n        \"verified_image\" = \"\";\n    };\n}",
        "{\n    ac = \"#999999\";\n    at = \"\";\n    ccc = 1;\n    \"child_comments\" =     (\n                {\n            ac = \"#999999\";\n            at = \"\\U6210\\U90fd\\U5e02\";\n            ccc = 0;\n            city = \"\\U6210\\U90fd\\U5e02\";\n            cmc = 2;\n            content =             (\n                                {\n                    c = \" \\U563f\\U563f\\U563f...\\U81e3\\U59be\\U968f\\U4fbf\\U5403\\Ud83d\\Ude1d\\Ud83d\\Ude1d\\Ud83d\\Ude1d\";\n                }\n            );\n            ia = 1;\n            id = 7328021;\n            \"ip_address_location\" = \"\";\n            like = 0;\n            \"like_count\" = 0;\n            \"reply_id\" = 7196110;\n            \"reply_user\" =             {\n                \"followers_count_text\" = \"\";\n                id = 18541398;\n                \"is_prime\" = 0;\n                lv = 0;\n                lvl = 2;\n                n = \"\\U540d\\U5b57\\U597d\\U96be\\U53bb\";\n                p = \"http:\/\/tx1.douguo.net\/upload\/photo\/2\/a\/9\/70_u19890237663150408220604.jpg\";\n                \"progress_image\" = \"\";\n                \"recipes_count_text\" = \"\";\n                relationship = \"-1\";\n                title = \"\";\n                v = 0;\n                \"verified_image\" = \"\";\n            };\n            \"sticker_icon\" =             (\n            );\n            time = \"2019-11-18 09:43:46\";\n            u =             {\n                \"followers_count_text\" = \"\";\n                id = 2344067;\n                \"is_prime\" = 0;\n                lv = 0;\n                lvl = 6;\n                n = \"\\U5b85\\U5973\\U53a8\\U5a18\";\n                p = \"http:\/\/tx1.douguo.net\/upload\/photo\/f\/0\/e\/70_f09227b06f2a3b622a614e40bf131a4e.jpeg\";\n                \"progress_image\" = \"\";\n                \"recipes_count_text\" = \"\";\n                relationship = \"-1\";\n                title = \"\";\n                v = 0;\n                \"verified_image\" = \"\";\n            };\n        }\n    );\n    city = \"\";\n    cmc = 2;\n    content =     (\n                {\n            c = \"\\U592a\\U7f8e\\U5473\\U4e86\\Uff0c\\U81e3\\U59be\\U4e0d\\U5403\\U505a\\U4e0d\\U5230\\U554a\";\n        }\n    );\n    ia = 0;\n    id = 7196110;\n    \"ip_address_location\" = \"\";\n    like = 0;\n    \"like_count\" = 0;\n    \"reply_id\" = 0;\n    \"sticker_icon\" =     (\n    );\n    time = \"2019-10-17 20:54:27\";\n    u =     {\n        \"followers_count_text\" = \"\";\n        id = 18541398;\n        \"is_prime\" = 0;\n        lv = 0;\n        lvl = 2;\n        n = \"\\U540d\\U5b57\\U597d\\U96be\\U53bb\";\n        p = \"http:\/\/tx1.douguo.net\/upload\/photo\/2\/a\/9\/70_u19890237663150408220604.jpg\";\n        \"progress_image\" = \"\";\n        \"recipes_count_text\" = \"\";\n        relationship = \"-1\";\n        title = \"\";\n        v = 0;\n        \"verified_image\" = \"\";\n    };\n}"
      ]
    }
  },
  "status" : 0,
  "state" : "success"
}