{
  "result" : {
    "recipe" : {
      "rdsps" : [

      ],
      "title_ad" : [

      ],
      "major" : [
        {
          "note" : "1000克",
          "tu" : "https:\/\/m.douguo.com\/ingredients\/比目鱼\/detailmaterial",
          "title" : "比目鱼"
        },
        {
          "note" : "各15克",
          "title" : "葱姜蒜",
          "tu" : "https:\/\/m.douguo.com\/ingredients\/葱姜蒜\/detailmaterial"
        },
        {
          "note" : "1勺",
          "title" : "蓓妮妈妈草莓果酱"
        },
        {
          "tu" : "https:\/\/m.douguo.com\/ingredients\/甜面酱\/detailmaterial",
          "title" : "甜面酱",
          "note" : "2勺"
        },
        {
          "note" : "2勺",
          "tu" : "https:\/\/m.douguo.com\/ingredients\/醋\/detailmaterial",
          "title" : "醋"
        },
        {
          "title" : "酱油",
          "note" : "3勺",
          "tu" : "https:\/\/m.douguo.com\/ingredients\/酱油\/detailmaterial"
        },
        {
          "title" : "盐",
          "note" : "4克",
          "tu" : "https:\/\/m.douguo.com\/ingredients\/盐\/detailmaterial"
        },
        {
          "note" : "20克",
          "title" : "食用油",
          "tu" : "https:\/\/m.douguo.com\/ingredients\/食用油\/detailmaterial"
        },
        {
          "title" : "八角",
          "note" : "1个",
          "tu" : "https:\/\/m.douguo.com\/ingredients\/八角\/detailmaterial"
        },
        {
          "title" : "面粉",
          "tu" : "https:\/\/m.douguo.com\/ingredients\/面粉\/detailmaterial",
          "note" : "30克"
        }
      ],
      "thumb_path" : "https:\/\/i1.douguo.com\/upload\/caiku\/e\/7\/b\/300_e776729f836ef56a084cb5c7aa08daab.jpg",
      "photo_path" : "https:\/\/i1.douguo.com\/upload\/caiku\/e\/7\/b\/600_e776729f836ef56a084cb5c7aa08daab.jpg",
      "author" : "优雅的长围巾",
      "ecs" : 0,
      "author_verified" : 1,
      "cook_time" : "",
      "rrps" : [

      ],
      "image" : "http:\/\/i1.douguo.net\/upload\/caiku\/e\/7\/b\/300_e776729f836ef56a084cb5c7aa08daab.jpg",
      "recommended" : 0,
      "act_des" : "",
      "rate" : 0,
      "cookstorys" : [
        {
          "id" : 0,
          "c" : "晚上因为有事需要外出，恐怕没有时间做晚饭了，于是午饭晚饭一起做熟，化冻了目鱼，再炒两个素菜，也算是妥妥的，酱烧目鱼，用家乡的甜面酱和蓓妮妈妈果酱炒制出香浓醇厚的酱汁，放入煎至两面金黄的目鱼块，鱼块先煎后烧，汤浓肉鲜，还有甜蜜的果香，蓓妮妈妈果酱自然香浓的味道，精良的制作工艺和美丽动人的天然色彩，征服食材征服味蕾。",
          "type" : 0,
          "icon" : "",
          "u" : "",
          "color" : ""
        },
        {
          "c" : "\n参与活动:",
          "u" : "",
          "type" : 0,
          "id" : 0,
          "icon" : "",
          "color" : ""
        },
        {
          "u" : "https:\/\/m.douguo.com\/activity\/ncpzj\/detail\/3492?isapp=1&open=0&_vs=1000300&&dg_refreshkey=publishnote",
          "type" : 0,
          "icon" : "",
          "c" : "#蓓妮妈妈花样果酱灵感｜初夏甜蜜大放送#",
          "id" : 0
        }
      ],
      "mid_mdsp" : [

      ],
      "comments_count" : 0,
      "vfurl" : "",
      "share_info" : {
        "mini_program" : [

        ],
        "s_u" : "http:\/\/m.douguo.com\/cookbook\/3197278.html",
        "infos" : [
          {
            "s_d" : "#学做饭用豆果美食# 会做饭好酷啊！我在@豆果美食 分享了【酱烧目鱼-会做饭很酷!】，今天也是厨艺满满的一天呢，快来和我一起学做美食吧！查看图片了解菜谱（更多美食秘籍点击https:\/\/m.weibo.cn\/p\/100404i33631获取）",
            "channel" : "1",
            "image" : "https:\/\/cp1.douguo.com\/upload\/caiku\/e\/7\/b\/e776729f836ef56a084cb5c7aa08daab.jpg",
            "s_u" : "",
            "object_id" : "3197278",
            "mini_program" : [

            ],
            "qr_image" : "",
            "name" : "酱烧目鱼-会做饭很酷!"
          },
          {
            "object_id" : "3197278",
            "qr_image" : "",
            "mini_program" : [

            ],
            "s_d" : "酱烧目鱼-会做饭很酷!",
            "channel" : "7",
            "s_u" : "http:\/\/m.douguo.com\/cookbook\/3197278.html",
            "name" : "酱烧目鱼-会做饭很酷!",
            "image" : "https:\/\/cp1.douguo.com\/upload\/caiku\/e\/7\/b\/e776729f836ef56a084cb5c7aa08daab.jpg"
          },
          {
            "image" : "https:\/\/cp1.douguo.com\/upload\/caiku\/e\/7\/b\/e776729f836ef56a084cb5c7aa08daab.jpg",
            "mini_program" : [

            ],
            "qr_image" : "",
            "name" : "酱烧目鱼-会做饭很酷!",
            "s_d" : "酱烧目鱼-会做饭很酷!",
            "object_id" : "3197278",
            "channel" : "8",
            "s_u" : "http:\/\/m.douguo.com\/cookbook\/3197278.html"
          }
        ],
        "s_d" : "酱烧目鱼-会做饭很酷!",
        "image" : "https:\/\/cp1.douguo.com\/upload\/caiku\/e\/7\/b\/e776729f836ef56a084cb5c7aa08daab.jpg",
        "name" : "酱烧目鱼-会做饭很酷!",
        "qr_image" : "",
        "object_id" : "3197278"
      },
      "top_mdsp" : [

      ],
      "display_ingredient" : 1,
      "sr" : "",
      "related_ads" : [

      ],
      "advice" : {
        "has" : [
          {
            "t" : "低饱和脂肪",
            "url" : "recipes:\/\/www.douguo.com\/simplerecipelist?t=低饱和脂肪&id=低饱和脂肪"
          },
          {
            "url" : "recipes:\/\/www.douguo.com\/simplerecipelist?t=低糖&id=低糖",
            "t" : "低糖"
          }
        ],
        "da" : {
          "url" : "https:\/\/m.douguo.com\/recipe\/nutrient_self\/3197278",
          "iu" : "https:\/\/i1.douguo.com\/upload\/banner\/f\/4\/d\/f48877e53c37759bc12ac494be82ec8d.png",
          "t" : "查看详细分析"
        },
        "at" : "可以预防血栓形成～"
      },
      "recommendation_tag" : "",
      "ss" : [

      ],
      "user" : {
        "verified_image" : "https:\/\/i1.douguo.com\/upload\/note\/d\/a\/a\/da84247847aebe48d9dd0fcdac88862a.png",
        "user_cover" : "",
        "location" : 0,
        "dishes_count" : 0,
        "diaries_count" : 0,
        "user_large_photo" : "http:\/\/tx1.douguo.net\/upload\/photo\/b\/1\/9\/yuan_u81810127339673230706.jpg",
        "introduction" : "",
        "mobile" : "",
        "qq_weibo_nick" : "",
        "setted_email" : 0,
        "recipes_count" : 0,
        "followers_count" : 0,
        "user_id" : "19245977",
        "subscription_article_count" : 0,
        "age" : "",
        "userid" : "19245977",
        "gender" : 2,
        "avatar_medium" : "http:\/\/tx1.douguo.net\/upload\/photo\/b\/1\/9\/140_u81810127339673230706.jpg",
        "weibo_nick" : "",
        "favor_diaries_count" : 0,
        "fc" : 0,
        "point" : 0,
        "subscription" : 0,
        "nick" : "优雅的长围巾",
        "pc" : 0,
        "lvl" : 7,
        "verified" : 1,
        "birthday" : "",
        "progress_image" : "",
        "is_prime" : 0,
        "following_count" : 0,
        "lv" : 0,
        "user_photo" : "http:\/\/tx1.douguo.net\/upload\/photo\/b\/1\/9\/70_u81810127339673230706.jpg",
        "email" : "",
        "coursecount" : 0,
        "verified_url" : "https:\/\/m.douguo.com\/user\/prodesc",
        "sign" : "",
        "favorites_count" : 0,
        "regist_time" : "",
        "qzone_nick" : ""
      },
      "tags" : [

      ],
      "rewarded_video_dsp" : [

      ],
      "views_count_text" : "11.2万",
      "ipurl" : "",
      "bs" : [

      ],
      "rcs" : [

      ],
      "original_photo_path" : "http:\/\/i1.douguo.net\/upload\/caiku\/e\/7\/b\/yuan_e776729f836ef56a084cb5c7aa08daab.jpg",
      "eu" : "recipes:\/\/www.douguo.com\/postdetail?id=242016",
      "title" : "酱烧目鱼",
      "rpst" : "",
      "dishes" : [

      ],
      "rpt" : "",
      "recommend_label" : "3639人刚刚收藏过",
      "brand_day_dsp" : [

      ],
      "btm_dsp" : [

      ],
      "pw" : 969,
      "purl" : "",
      "minor" : [

      ],
      "favo_counts_text" : "3639",
      "comments" : [

      ],
      "ipit" : 0,
      "ipci" : "",
      "clicks" : "1",
      "rrpt" : "",
      "rpid" : 0,
      "sc" : 0,
      "dish_count" : 0,
      "guide_image" : "",
      "recent_comments" : [

      ],
      "cook_difficulty" : "",
      "rips" : 0,
      "rsm" : "该功能暂停使用",
      "collect_status" : 0,
      "ipia" : [

      ],
      "rate_count" : 0,
      "author_id" : 19245977,
      "release_time" : "",
      "thumb_height" : 0,
      "rate_show" : 0,
      "notes" : [

      ],
      "favo_counts" : 3639,
      "old_comments" : [

      ],
      "cook_time_image" : "",
      "author_photo" : "http:\/\/tx1.douguo.net\/upload\/photo\/b\/1\/9\/70_u81810127339673230706.jpg",
      "create_time" : "2022-06-16 17:32:03",
      "tips" : "蓓妮妈妈果酱起到增香提鲜的作用，喜欢吃辣可以添加干辣椒。",
      "v_u" : "",
      "levelid" : 2,
      "cookwares" : [

      ],
      "su" : "",
      "recipe_tags" : [

      ],
      "hq" : 1,
      "recipe_list_tags" : [
        {
          "background_start_color" : "#F4F5F5",
          "right_image" : "",
          "jump_url" : "",
          "text" : "关注的人",
          "background_end_color" : "#F4F5F5",
          "background_border_color" : "",
          "text_color" : "#141515"
        },
        {
          "text" : "内容详细",
          "background_border_color" : "",
          "right_image" : "",
          "jump_url" : "",
          "text_color" : "#141515",
          "background_end_color" : "#F4F5F5",
          "background_start_color" : "#F4F5F5"
        }
      ],
      "story_dsp" : [

      ],
      "ssu" : "",
      "first_level_comment_count" : 0,
      "hqu" : "recipes:\/\/www.douguo.com\/notedetail?id=21162253",
      "vu" : "",
      "event" : {
        "name" : "蓓妮妈妈花样果酱灵感｜初夏甜蜜大放送",
        "id" : 3492,
        "url" : "https:\/\/m.douguo.com\/activity\/ncpzj\/detail\/3492?isapp=1&open=0&_vs=1000300&&dg_refreshkey=publishnote"
      },
      "comments_count_text" : "",
      "vc" : "112083",
      "cookstory" : "晚上因为有事需要外出，恐怕没有时间做晚饭了，于是午饭晚饭一起做熟，化冻了目鱼，再炒两个素菜，也算是妥妥的，酱烧目鱼，用家乡的甜面酱和蓓妮妈妈果酱炒制出香浓醇厚的酱汁，放入煎至两面金黄的目鱼块，鱼块先煎后烧，汤浓肉鲜，还有甜蜜的果香，蓓妮妈妈果酱自然香浓的味道，精良的制作工艺和美丽动人的天然色彩，征服食材征服味蕾。",
      "ph" : 1077,
      "cook_difficulty_image" : "",
      "ipoi" : "",
      "packages_id" : [

      ],
      "cookstep" : [
        {
          "image_height" : 997,
          "content" : "主料鱼收拾干净，控干水分。",
          "image_width" : 1280,
          "image" : "https:\/\/i1.douguo.com\/upload\/caiku\/8\/6\/e\/867394c6e0df2c7d18038da711378cae.jpg",
          "frame" : "-1",
          "position" : 1,
          "thumb" : "https:\/\/i1.douguo.com\/upload\/caiku\/8\/6\/e\/140_867394c6e0df2c7d18038da711378cae.jpg"
        },
        {
          "image_width" : 1280,
          "frame" : "-1",
          "image_height" : 983,
          "position" : 2,
          "image" : "https:\/\/i1.douguo.com\/upload\/caiku\/4\/0\/6\/409b4b44e0d60e3fb4db038489ce1656.jpg",
          "content" : "辅料葱姜蒜切片，蓓妮妈妈果酱准备好。",
          "thumb" : "https:\/\/i1.douguo.com\/upload\/caiku\/4\/0\/6\/140_409b4b44e0d60e3fb4db038489ce1656.jpg"
        },
        {
          "image_width" : 1280,
          "content" : "鱼切段，薄薄裹上一层面粉。",
          "image_height" : 1049,
          "image" : "https:\/\/i1.douguo.com\/upload\/caiku\/0\/c\/3\/0c9fb417506e9f2c0852de8970663d53.jpg",
          "frame" : "-1",
          "position" : 3,
          "thumb" : "https:\/\/i1.douguo.com\/upload\/caiku\/0\/c\/3\/140_0c9fb417506e9f2c0852de8970663d53.jpg"
        },
        {
          "content" : "起油锅放入食用油，油热后放入鱼块煎制。",
          "image" : "https:\/\/i1.douguo.com\/upload\/caiku\/f\/a\/3\/faee95e723d8f6c2ef9e3206384bd333.jpg",
          "image_height" : 968,
          "position" : 4,
          "image_width" : 1280,
          "thumb" : "https:\/\/i1.douguo.com\/upload\/caiku\/f\/a\/3\/140_faee95e723d8f6c2ef9e3206384bd333.jpg",
          "frame" : "-1"
        },
        {
          "content" : "煎至两面金黄色出锅。",
          "image_height" : 1024,
          "position" : 5,
          "thumb" : "https:\/\/i1.douguo.com\/upload\/caiku\/3\/b\/3\/140_3b294ad3f72068ac4f302af1c41b5783.jpg",
          "image" : "https:\/\/i1.douguo.com\/upload\/caiku\/3\/b\/3\/3b294ad3f72068ac4f302af1c41b5783.jpg",
          "frame" : "-1",
          "image_width" : 1280
        },
        {
          "content" : "再起油锅放入1勺食用油，放入葱姜蒜、八角炒出香味。",
          "image" : "https:\/\/i1.douguo.com\/upload\/caiku\/9\/f\/9\/9fb16ba24bc950731335b0ef7a6b25a9.jpg",
          "frame" : "-1",
          "image_height" : 946,
          "image_width" : 1280,
          "thumb" : "https:\/\/i1.douguo.com\/upload\/caiku\/9\/f\/9\/140_9fb16ba24bc950731335b0ef7a6b25a9.jpg",
          "position" : 6
        },
        {
          "frame" : "-1",
          "position" : 7,
          "content" : "放入甜面酱翻炒。",
          "image_width" : 1152,
          "thumb" : "https:\/\/i1.douguo.com\/upload\/caiku\/0\/d\/1\/140_0df28e8f90f16ed556d876e44c65bdc1.jpg",
          "image_height" : 1084,
          "image" : "https:\/\/i1.douguo.com\/upload\/caiku\/0\/d\/1\/0df28e8f90f16ed556d876e44c65bdc1.jpg"
        },
        {
          "position" : 8,
          "frame" : "-1",
          "content" : "倒入酱油提味，酱香浓郁。",
          "thumb" : "https:\/\/i1.douguo.com\/upload\/caiku\/3\/e\/9\/140_3e9e24e873fcfc7208c197d22fdf4ac9.jpg",
          "image" : "https:\/\/i1.douguo.com\/upload\/caiku\/3\/e\/9\/3e9e24e873fcfc7208c197d22fdf4ac9.jpg",
          "image_height" : 1099,
          "image_width" : 1280
        },
        {
          "thumb" : "https:\/\/i1.douguo.com\/upload\/caiku\/e\/1\/6\/140_e1ba1c89479d70ec451865eb5e297766.jpg",
          "content" : "倒入适量清水烧开。",
          "frame" : "-1",
          "image" : "https:\/\/i1.douguo.com\/upload\/caiku\/e\/1\/6\/e1ba1c89479d70ec451865eb5e297766.jpg",
          "image_height" : 1033,
          "position" : 9,
          "image_width" : 1280
        },
        {
          "image_height" : 1093,
          "position" : 10,
          "thumb" : "https:\/\/i1.douguo.com\/upload\/caiku\/b\/e\/9\/140_be3af549bbd635fafc7b8108b9286f89.jpg",
          "image" : "https:\/\/i1.douguo.com\/upload\/caiku\/b\/e\/9\/be3af549bbd635fafc7b8108b9286f89.jpg",
          "image_width" : 1280,
          "frame" : "-1",
          "content" : "蓓妮妈妈果酱，选择草莓口味。"
        },
        {
          "frame" : "-1",
          "content" : "放入蓓妮妈妈草莓果酱增香提鲜。",
          "image_width" : 1280,
          "position" : 11,
          "thumb" : "https:\/\/i1.douguo.com\/upload\/caiku\/f\/5\/0\/140_f5ad3532147ea60eed93b16266627e10.jpg",
          "image" : "https:\/\/i1.douguo.com\/upload\/caiku\/f\/5\/0\/f5ad3532147ea60eed93b16266627e10.jpg",
          "image_height" : 966
        },
        {
          "thumb" : "https:\/\/i1.douguo.com\/upload\/caiku\/7\/8\/8\/140_7865e6e2f8944b53e1d2a7c7aebf1b68.jpg",
          "frame" : "-1",
          "image_height" : 990,
          "content" : "放入煎好的鱼块。",
          "image" : "https:\/\/i1.douguo.com\/upload\/caiku\/7\/8\/8\/7865e6e2f8944b53e1d2a7c7aebf1b68.jpg",
          "position" : 12,
          "image_width" : 1280
        },
        {
          "frame" : "-1",
          "image" : "https:\/\/i1.douguo.com\/upload\/caiku\/3\/d\/8\/3d43c99a1846f9c10574566605327ed8.jpg",
          "image_height" : 1043,
          "position" : 13,
          "image_width" : 1280,
          "content" : "大火烧开。",
          "thumb" : "https:\/\/i1.douguo.com\/upload\/caiku\/3\/d\/8\/140_3d43c99a1846f9c10574566605327ed8.jpg"
        },
        {
          "image_width" : 1171,
          "image_height" : 894,
          "thumb" : "https:\/\/i1.douguo.com\/upload\/caiku\/4\/f\/1\/140_4fa1b5ffe6dbe73f032029cb90f0b0b1.jpg",
          "image" : "https:\/\/i1.douguo.com\/upload\/caiku\/4\/f\/1\/4fa1b5ffe6dbe73f032029cb90f0b0b1.jpg",
          "frame" : "-1",
          "position" : 14,
          "content" : "扣上盖子烧，加速入味成熟。"
        },
        {
          "position" : 15,
          "frame" : "-1",
          "image" : "https:\/\/i1.douguo.com\/upload\/caiku\/3\/8\/a\/38f615d2f1420c546d66e44c738c988a.jpg",
          "content" : "随着加热汤汁变得浓稠，顺锅边烹入醋，加盐调味，大火收汁即可，关火出锅。",
          "image_height" : 939,
          "image_width" : 1280,
          "thumb" : "https:\/\/i1.douguo.com\/upload\/caiku\/3\/8\/a\/140_38f615d2f1420c546d66e44c738c988a.jpg"
        },
        {
          "thumb" : "https:\/\/i1.douguo.com\/upload\/caiku\/9\/e\/6\/140_9e728ba02818644d09253ab8ae8feec6.jpg",
          "content" : "装盘上桌啦。",
          "image" : "https:\/\/i1.douguo.com\/upload\/caiku\/9\/e\/6\/9e728ba02818644d09253ab8ae8feec6.jpg",
          "frame" : "-1",
          "image_height" : 960,
          "image_width" : 1280,
          "position" : 16
        }
      ],
      "cook_id" : "3197278",
      "dish_count_text" : "",
      "ipt" : ""
    }
  },
  "state" : "success",
  "status" : 0
}