{
  "state" : "success",
  "result" : {
    "recipe" : {
      "cookstep" : [
        {
          "image_width" : 533,
          "thumb" : "https:\/\/i1.douguo.com\/upload\/caiku\/c\/d\/e\/140_cdd501b190996b9cc1094b5f1d131b8e.jpg",
          "position" : 1,
          "frame" : "-1",
          "image_height" : 800,
          "image" : "https:\/\/i1.douguo.com\/upload\/caiku\/c\/d\/e\/cdd501b190996b9cc1094b5f1d131b8e.jpg",
          "content" : "排骨洗干净晾干水。"
        },
        {
          "image" : "https:\/\/i1.douguo.com\/upload\/caiku\/3\/d\/9\/3da77628bbc1b2d4b05bd0f213983c99.jpg",
          "image_width" : 533,
          "thumb" : "https:\/\/i1.douguo.com\/upload\/caiku\/3\/d\/9\/140_3da77628bbc1b2d4b05bd0f213983c99.jpg",
          "frame" : "-1",
          "position" : 2,
          "content" : "加入3勺红糖。",
          "image_height" : 800
        },
        {
          "position" : 3,
          "image_height" : 800,
          "thumb" : "https:\/\/i1.douguo.com\/upload\/caiku\/6\/a\/7\/140_6aa6a7b1aedb8e2f10edbac81d91dc17.jpg",
          "image" : "https:\/\/i1.douguo.com\/upload\/caiku\/6\/a\/7\/6aa6a7b1aedb8e2f10edbac81d91dc17.jpg",
          "content" : "1勺蒜末",
          "image_width" : 533,
          "frame" : "-1"
        },
        {
          "image" : "https:\/\/i1.douguo.com\/upload\/caiku\/b\/b\/d\/bb0e132cb769bb7f056a9c4c7a9e44ad.jpg",
          "image_height" : 800,
          "frame" : "-1",
          "content" : "1勺酱油，适量盐。半勺辣椒面。不吃辣可不放。",
          "thumb" : "https:\/\/i1.douguo.com\/upload\/caiku\/b\/b\/d\/140_bb0e132cb769bb7f056a9c4c7a9e44ad.jpg",
          "position" : 4,
          "image_width" : 533
        },
        {
          "image_height" : 800,
          "image_width" : 533,
          "content" : "倒入半杯红酒。",
          "image" : "https:\/\/i1.douguo.com\/upload\/caiku\/a\/3\/c\/a3ed4b5255a18a1650990286f874c88c.jpg",
          "frame" : "-1",
          "thumb" : "https:\/\/i1.douguo.com\/upload\/caiku\/a\/3\/c\/140_a3ed4b5255a18a1650990286f874c88c.jpg",
          "position" : 5
        },
        {
          "position" : 6,
          "image_width" : 800,
          "image" : "https:\/\/i1.douguo.com\/upload\/caiku\/f\/1\/8\/f132909d3b739fa4895cb8f6c9e26c38.jpg",
          "frame" : "-1",
          "thumb" : "https:\/\/i1.douguo.com\/upload\/caiku\/f\/1\/8\/140_f132909d3b739fa4895cb8f6c9e26c38.jpg",
          "content" : "拌匀包上保鲜膜放冰箱冷藏半天。",
          "image_height" : 533
        },
        {
          "position" : 7,
          "frame" : "-1",
          "thumb" : "https:\/\/i1.douguo.com\/upload\/caiku\/2\/d\/d\/140_2d92a4d1c3b44bff7b9e1537a46b89ad.jpg",
          "image" : "https:\/\/i1.douguo.com\/upload\/caiku\/2\/d\/d\/2d92a4d1c3b44bff7b9e1537a46b89ad.jpg",
          "image_width" : 533,
          "content" : "取出来放1勺蜂蜜调色。",
          "image_height" : 800
        },
        {
          "thumb" : "https:\/\/i1.douguo.com\/upload\/caiku\/d\/e\/c\/140_de1288751c437c74f543246b5b6e0b7c.jpg",
          "content" : "用锡纸把每块排骨包起来。口别拧紧。",
          "frame" : "-1",
          "image" : "https:\/\/i1.douguo.com\/upload\/caiku\/d\/e\/c\/de1288751c437c74f543246b5b6e0b7c.jpg",
          "position" : 8,
          "image_width" : 533,
          "image_height" : 800
        },
        {
          "thumb" : "https:\/\/i1.douguo.com\/upload\/caiku\/3\/2\/1\/140_322d2a0f665fe19e8cfc58c482cc1061.jpg",
          "content" : "平底锅放少许油，一个个码进去。",
          "frame" : "-1",
          "image" : "https:\/\/i1.douguo.com\/upload\/caiku\/3\/2\/1\/322d2a0f665fe19e8cfc58c482cc1061.jpg",
          "position" : 9,
          "image_width" : 533,
          "image_height" : 800
        },
        {
          "thumb" : "https:\/\/i1.douguo.com\/upload\/caiku\/8\/4\/9\/140_84fa526a97fc8be32baaa4b5959d46f9.jpg",
          "image_height" : 800,
          "frame" : "-1",
          "image" : "https:\/\/i1.douguo.com\/upload\/caiku\/8\/4\/9\/84fa526a97fc8be32baaa4b5959d46f9.jpg",
          "image_width" : 533,
          "position" : 10,
          "content" : "大概两分钟左右，打开锡纸，排骨变色，把那些腌制的红酒汁舀进每个锡纸包里。再拧起来，中间可以给排骨翻个面。"
        },
        {
          "frame" : "-1",
          "content" : "中火大约15分钟左右，打开看，汤汁都收起来，油也冒出来。基本就好了。",
          "position" : 11,
          "thumb" : "https:\/\/i1.douguo.com\/upload\/caiku\/5\/e\/9\/140_5e5b2acb657e7d6a9228f53b1c8fef99.jpg",
          "image_height" : 800,
          "image" : "https:\/\/i1.douguo.com\/upload\/caiku\/5\/e\/9\/5e5b2acb657e7d6a9228f53b1c8fef99.jpg",
          "image_width" : 533
        },
        {
          "content" : "成品。",
          "image" : "https:\/\/i1.douguo.com\/upload\/caiku\/3\/4\/2\/348b614f3dd45fb9e21a0346899b22b2.jpg",
          "thumb" : "https:\/\/i1.douguo.com\/upload\/caiku\/3\/4\/2\/140_348b614f3dd45fb9e21a0346899b22b2.jpg",
          "position" : 12,
          "image_width" : 3456,
          "image_height" : 5184,
          "frame" : "-1"
        }
      ],
      "rips" : 0,
      "first_level_comment_count" : 85,
      "rate_count" : 3,
      "create_time" : "2015-05-25 14:05:14",
      "rcs" : [

      ],
      "cook_difficulty" : "配菜(中级)",
      "rrpt" : "",
      "cook_id" : "1185413",
      "minor" : [

      ],
      "image" : "http:\/\/i1.douguo.net\/upload\/caiku\/f\/6\/1\/300_f6080f2f2ae13bbd6b3b77b4b03af5b1.jpg",
      "favo_counts" : 14648,
      "rpid" : 0,
      "recommendation_tag" : "",
      "tags" : [
        "{\n    text = \"\\U5bb6\\U5e38\\U83dc\";\n}",
        "{\n    text = \"\\U8089\\U7c7b\";\n}",
        "{\n    text = \"\\U70e4\";\n}",
        "{\n    text = \"\\U9999\";\n}",
        "{\n    text = \"\\U5348\\U9910\";\n}",
        "{\n    text = \"\\U665a\\U9910\";\n}"
      ],
      "ph" : 1200,
      "collect_status" : 0,
      "ipurl" : "",
      "guide_image" : "",
      "related_ads" : [

      ],
      "su" : "",
      "recipe_list_tags" : [
        {
          "jump_url" : "",
          "background_border_color" : "",
          "right_image" : "",
          "text" : "关注的人",
          "background_start_color" : "#F4F5F5",
          "background_end_color" : "#F4F5F5",
          "text_color" : "#141515"
        },
        {
          "background_start_color" : "#F4F5F5",
          "jump_url" : "",
          "text" : "内容详细",
          "background_border_color" : "",
          "right_image" : "",
          "background_end_color" : "#F4F5F5",
          "text_color" : "#141515"
        }
      ],
      "hqu" : "recipes:\/\/www.douguo.com\/notedetail?id=21162253",
      "share_info" : {
        "s_d" : "平底锅版--烤排骨-会做饭很酷!",
        "image" : "https:\/\/cp1.douguo.com\/upload\/caiku\/f\/6\/1\/f6080f2f2ae13bbd6b3b77b4b03af5b1.jpg",
        "infos" : [
          {
            "s_d" : "#学做饭用豆果美食# 我在@豆果美食 分享了【平底锅版--烤排骨-会做饭很酷!】，这菜真的很好吃，而且做法简单不难学，还不快来跟我学～查看图片了解菜谱（每天限量免费课程，想跟大师学厨艺就来这https:\/\/m.weibo.cn\/p\/100404i33631）#会做饭很酷# ",
            "channel" : "1",
            "object_id" : "1185413",
            "image" : "https:\/\/cp1.douguo.com\/upload\/caiku\/f\/6\/1\/f6080f2f2ae13bbd6b3b77b4b03af5b1.jpg",
            "s_u" : "",
            "mini_program" : [

            ],
            "name" : "平底锅版--烤排骨-会做饭很酷!",
            "qr_image" : ""
          },
          {
            "object_id" : "1185413",
            "channel" : "7",
            "s_u" : "http:\/\/m.douguo.com\/cookbook\/1185413.html",
            "mini_program" : [

            ],
            "qr_image" : "",
            "name" : "平底锅版--烤排骨-会做饭很酷!",
            "image" : "https:\/\/cp1.douguo.com\/upload\/caiku\/f\/6\/1\/f6080f2f2ae13bbd6b3b77b4b03af5b1.jpg",
            "s_d" : "平底锅版--烤排骨-会做饭很酷!"
          },
          {
            "s_u" : "http:\/\/m.douguo.com\/cookbook\/1185413.html",
            "object_id" : "1185413",
            "channel" : "8",
            "image" : "https:\/\/cp1.douguo.com\/upload\/caiku\/f\/6\/1\/f6080f2f2ae13bbd6b3b77b4b03af5b1.jpg",
            "mini_program" : [

            ],
            "qr_image" : "",
            "s_d" : "平底锅版--烤排骨-会做饭很酷!",
            "name" : "平底锅版--烤排骨-会做饭很酷!"
          }
        ],
        "object_id" : "1185413",
        "qr_image" : "",
        "mini_program" : [

        ],
        "s_u" : "http:\/\/m.douguo.com\/cookbook\/1185413.html",
        "name" : "平底锅版--烤排骨-会做饭很酷!"
      },
      "dishes" : [

      ],
      "cook_time_image" : "https:\/\/i1.douguo.com\/upload\/banner\/1551424341.png",
      "release_time" : "",
      "photo_path" : "https:\/\/i1.douguo.com\/upload\/caiku\/f\/6\/1\/600_f6080f2f2ae13bbd6b3b77b4b03af5b1.jpg",
      "comments_count" : 157,
      "story_dsp" : [

      ],
      "purl" : "",
      "top_mdsp" : [

      ],
      "ipia" : [

      ],
      "sc" : 0,
      "cook_time" : "10-30分钟",
      "rsm" : "该功能暂停使用",
      "vfurl" : "",
      "title_ad" : [

      ],
      "cookwares" : [

      ],
      "title" : "平底锅版--烤排骨",
      "recent_comments" : [

      ],
      "favo_counts_text" : "1.5万",
      "dish_count_text" : "27",
      "author" : "西米Fiona",
      "ecs" : 0,
      "recommend_label" : "27人学做",
      "ss" : [

      ],
      "eu" : "recipes:\/\/www.douguo.com\/postdetail?id=242016",
      "views_count_text" : "78.2万",
      "rdsps" : [

      ],
      "comments" : [
        "{\n    ac = \"#999999\";\n    at = \"\";\n    ccc = 4;\n    \"child_comments\" =     (\n                {\n            ac = \"#999999\";\n            at = \"\";\n            ccc = 0;\n            city = \"\";\n            cmc = 2;\n            content =             (\n                                {\n                    c = \" \\U6211\\U5c31\\U7ffb\\U4e00\\U6b21\";\n                }\n            );\n            ia = 1;\n            id = 3032399;\n            \"ip_address_location\" = \"\";\n            like = 0;\n            \"like_count\" = 0;\n            \"reply_id\" = 3032363;\n            \"reply_user\" =             {\n                \"followers_count_text\" = \"\";\n                id = 10359102;\n                \"is_prime\" = 0;\n                lv = 0;\n                lvl = 2;\n                n = \"\\U5c0f\\U963f\\U524d!!\";\n                p = \"http:\/\/tx1.douguo.net\/upload\/photo\/3\/d\/f\/70_u36794783220086094221.jpeg\";\n                \"progress_image\" = \"\";\n                \"recipes_count_text\" = \"\";\n                relationship = \"-1\";\n                title = \"\";\n                v = 0;\n                \"verified_image\" = \"\";\n            };\n            \"sticker_icon\" =             (\n            );\n            time = \"2016-01-19 05:47:36\";\n            u =             {\n                \"followers_count_text\" = \"\";\n                id = 3964432;\n                \"is_prime\" = 0;\n                lv = 0;\n                lvl = 6;\n                n = \"\\U897f\\U7c73Fiona\";\n                p = \"http:\/\/tx1.douguo.net\/upload\/photo\/5\/e\/b\/70_u90825007652087073520.jpeg\";\n                \"progress_image\" = \"\";\n                \"recipes_count_text\" = \"\";\n                relationship = \"-1\";\n                title = \"\";\n                v = 1;\n                \"verified_image\" = \"\";\n            };\n        },\n                {\n            ac = \"#999999\";\n            at = \"\";\n            ccc = 0;\n            city = \"\";\n            cmc = 2;\n            content =             (\n                                {\n                    c = \" \\U545c\\U545c\\Uff0c\\U4e3a\\U4f55\\U6211\\U7684\\U7cca\\U4e86\\Uff0c\\U592a\\U4e11\\U4e86\";\n                }\n            );\n            ia = 0;\n            id = 3032568;\n            \"ip_address_location\" = \"\";\n            like = 0;\n            \"like_count\" = 0;\n            \"reply_id\" = 3032399;\n            \"reply_user\" =             {\n                \"followers_count_text\" = \"\";\n                id = 3964432;\n                \"is_prime\" = 0;\n                lv = 0;\n                lvl = 6;\n                n = \"\\U897f\\U7c73Fiona\";\n                p = \"http:\/\/tx1.douguo.net\/upload\/photo\/5\/e\/b\/70_u90825007652087073520.jpeg\";\n                \"progress_image\" = \"\";\n                \"recipes_count_text\" = \"\";\n                relationship = \"-1\";\n                title = \"\";\n                v = 1;\n                \"verified_image\" = \"\";\n            };\n            \"sticker_icon\" =             (\n            );\n            time = \"2016-01-19 06:40:51\";\n            u =             {\n                \"followers_count_text\" = \"\";\n                id = 10359102;\n                \"is_prime\" = 0;\n                lv = 0;\n                lvl = 2;\n                n = \"\\U5c0f\\U963f\\U524d!!\";\n                p = \"http:\/\/tx1.douguo.net\/upload\/photo\/3\/d\/f\/70_u36794783220086094221.jpeg\";\n                \"progress_image\" = \"\";\n                \"recipes_count_text\" = \"\";\n                relationship = \"-1\";\n                title = \"\";\n                v = 0;\n                \"verified_image\" = \"\";\n            };\n        }\n    );\n    city = \"\";\n    cmc = 2;\n    content =     (\n                {\n            c = \"\\U7b2c\\U4e8c\\U6b21\\U6478\\U7ea2\\U9152\\U6c41\\U4e4b\\U540e\\U662f\\U9700\\U8981\\U968f\\U65f6\\U7ffb\\Uff0c\\U8fd8\\U662f\\U5c31\\U7ffb\\U4e00\\U6b21\\U5c31\\U4e0d\\U5f04\\U5566\";\n        }\n    );\n    ia = 0;\n    id = 3032363;\n    \"ip_address_location\" = \"\";\n    like = 0;\n    \"like_count\" = 1;\n    \"reply_id\" = 0;\n    \"sticker_icon\" =     (\n    );\n    time = \"2016-01-19 05:36:21\";\n    u =     {\n        \"followers_count_text\" = \"\";\n        id = 10359102;\n        \"is_prime\" = 0;\n        lv = 0;\n        lvl = 2;\n        n = \"\\U5c0f\\U963f\\U524d!!\";\n        p = \"http:\/\/tx1.douguo.net\/upload\/photo\/3\/d\/f\/70_u36794783220086094221.jpeg\";\n        \"progress_image\" = \"\";\n        \"recipes_count_text\" = \"\";\n        relationship = \"-1\";\n        title = \"\";\n        v = 0;\n        \"verified_image\" = \"\";\n    };\n}",
        "{\n    ac = \"#999999\";\n    at = \"\";\n    ccc = 4;\n    \"child_comments\" =     (\n                {\n            ac = \"#999999\";\n            at = \"\";\n            ccc = 0;\n            city = \"\";\n            cmc = 2;\n            content =             (\n                                {\n                    c = \" \\U4f30\\U8ba1\\U662f\\U706b\\U5927\\U4e86\\U3002\\U9521\\U7eb8\\U6f0f\\U4e86\\U7684\\U8bdd\\Uff0c\\U6c64\\U6c41\\U6f0f\\U5230\\U9505\\U91cc\\Uff0c\\U8ddf\\U6cb9\\U6df7\\U7740\\U5c31\\U5bb9\\U6613\\U7cca\\U3002\";\n                }\n            );\n            ia = 1;\n            id = 2346512;\n            \"ip_address_location\" = \"\";\n            like = 0;\n            \"like_count\" = 0;\n            \"reply_id\" = 2346493;\n            \"reply_user\" =             {\n                \"followers_count_text\" = \"\";\n                id = 9717414;\n                \"is_prime\" = 0;\n                lv = 0;\n                lvl = 1;\n                n = \"\\U6881\\U5c71\\U4e0b\\U7684\\U83dc\\U83c7\\U3001\\U51c9\";\n                p = \"\";\n                \"progress_image\" = \"\";\n                \"recipes_count_text\" = \"\";\n                relationship = \"-1\";\n                title = \"\";\n                v = 0;\n                \"verified_image\" = \"\";\n            };\n            \"sticker_icon\" =             (\n            );\n            time = \"2015-06-13 06:12:28\";\n            u =             {\n                \"followers_count_text\" = \"\";\n                id = 3964432;\n                \"is_prime\" = 0;\n                lv = 0;\n                lvl = 6;\n                n = \"\\U897f\\U7c73Fiona\";\n                p = \"http:\/\/tx1.douguo.net\/upload\/photo\/5\/e\/b\/70_u90825007652087073520.jpeg\";\n                \"progress_image\" = \"\";\n                \"recipes_count_text\" = \"\";\n                relationship = \"-1\";\n                title = \"\";\n                v = 1;\n                \"verified_image\" = \"\";\n            };\n        },\n                {\n            ac = \"#999999\";\n            at = \"\";\n            ccc = 0;\n            city = \"\";\n            cmc = 2;\n            content =             (\n                                {\n                    c = \" \\U8bd5\\U4e86\\U8bd5\\U611f\\U89c9\\U91cc\\U9762\\U4e0d\\U592a\\U5165\\U5473\\U3002\\U4e0d\\U8fc7\\U5916\\U9762\\U90a3\\U4e2a\\U5473\\U9053\\U633a\\U597d\\U5403\\U7684\\U3002\\U4e0d\\U7528\\U9521\\U7eb8\\U80fd\\U4e0d\\U80fd\\U505a\\U51fa\\U8fd9\\U4e2a\\U5473\\U3002\\Uff1f\\Uff1f\";\n                }\n            );\n            ia = 0;\n            id = 2346612;\n            \"ip_address_location\" = \"\";\n            like = 0;\n            \"like_count\" = 0;\n            \"reply_id\" = 2346512;\n            \"reply_user\" =             {\n                \"followers_count_text\" = \"\";\n                id = 3964432;\n                \"is_prime\" = 0;\n                lv = 0;\n                lvl = 6;\n                n = \"\\U897f\\U7c73Fiona\";\n                p = \"http:\/\/tx1.douguo.net\/upload\/photo\/5\/e\/b\/70_u90825007652087073520.jpeg\";\n                \"progress_image\" = \"\";\n                \"recipes_count_text\" = \"\";\n                relationship = \"-1\";\n                title = \"\";\n                v = 1;\n                \"verified_image\" = \"\";\n            };\n            \"sticker_icon\" =             (\n            );\n            time = \"2015-06-13 06:53:29\";\n            u =             {\n                \"followers_count_text\" = \"\";\n                id = 9717414;\n                \"is_prime\" = 0;\n                lv = 0;\n                lvl = 1;\n                n = \"\\U6881\\U5c71\\U4e0b\\U7684\\U83dc\\U83c7\\U3001\\U51c9\";\n                p = \"\";\n                \"progress_image\" = \"\";\n                \"recipes_count_text\" = \"\";\n                relationship = \"-1\";\n                title = \"\";\n                v = 0;\n                \"verified_image\" = \"\";\n            };\n        }\n    );\n    city = \"\";\n    cmc = 2;\n    content =     (\n                {\n            c = \"\\U7528\\U4e86\\U539f\\U6765\\U4e00\\U534a\\U7684\\U65f6\\U95f4\\U3002\\U5fcd\\U4e0d\\U4f4f\\U8fd8\\U662f\\U5403\\U4e86\\U3002\\U5e94\\U8be5\\U719f\\U4e86\\U5427\";\n        }\n    );\n    ia = 0;\n    id = 2346493;\n    \"ip_address_location\" = \"\";\n    like = 0;\n    \"like_count\" = 0;\n    \"reply_id\" = 0;\n    \"sticker_icon\" =     (\n    );\n    time = \"2015-06-13 06:06:26\";\n    u =     {\n        \"followers_count_text\" = \"\";\n        id = 9717414;\n        \"is_prime\" = 0;\n        lv = 0;\n        lvl = 1;\n        n = \"\\U6881\\U5c71\\U4e0b\\U7684\\U83dc\\U83c7\\U3001\\U51c9\";\n        p = \"\";\n        \"progress_image\" = \"\";\n        \"recipes_count_text\" = \"\";\n        relationship = \"-1\";\n        title = \"\";\n        v = 0;\n        \"verified_image\" = \"\";\n    };\n}",
        "{\n    ac = \"#999999\";\n    at = \"\";\n    ccc = 4;\n    \"child_comments\" =     (\n                {\n            ac = \"#999999\";\n            at = \"\";\n            ccc = 0;\n            city = \"\";\n            cmc = 2;\n            content =             (\n                                {\n                    c = \" \\U76d6\";\n                }\n            );\n            ia = 1;\n            id = 2301599;\n            \"ip_address_location\" = \"\";\n            like = 0;\n            \"like_count\" = 0;\n            \"reply_id\" = 2301480;\n            \"reply_user\" =             {\n                \"followers_count_text\" = \"\";\n                id = 8936221;\n                \"is_prime\" = 0;\n                lv = 0;\n                lvl = 5;\n                n = \"Cammy\\U7f8e\\U98df\\U5f55\";\n                p = \"http:\/\/tx1.douguo.net\/upload\/photo\/3\/d\/3\/70_u28847278463925114005.jpeg\";\n                \"progress_image\" = \"\";\n                \"recipes_count_text\" = \"\";\n                relationship = \"-1\";\n                title = \"\";\n                v = 0;\n                \"verified_image\" = \"\";\n            };\n            \"sticker_icon\" =             (\n            );\n            time = \"2015-05-28 03:22:42\";\n            u =             {\n                \"followers_count_text\" = \"\";\n                id = 3964432;\n                \"is_prime\" = 0;\n                lv = 0;\n                lvl = 6;\n                n = \"\\U897f\\U7c73Fiona\";\n                p = \"http:\/\/tx1.douguo.net\/upload\/photo\/5\/e\/b\/70_u90825007652087073520.jpeg\";\n                \"progress_image\" = \"\";\n                \"recipes_count_text\" = \"\";\n                relationship = \"-1\";\n                title = \"\";\n                v = 1;\n                \"verified_image\" = \"\";\n            };\n        },\n                {\n            ac = \"#999999\";\n            at = \"\";\n            ccc = 0;\n            city = \"\";\n            cmc = 2;\n            content =             (\n                                {\n                    c = \" \\U9521\\U7eb8\\U4f1a\\U4e0d\\U4f1a\\U7cca\\Uff1f\\U4e00\\U5f00\\U59cb\\U5c31\\U7528\\U5927\\U706b\\Uff1f\";\n                }\n            );\n            ia = 0;\n            id = 2301611;\n            \"ip_address_location\" = \"\";\n            like = 0;\n            \"like_count\" = 0;\n            \"reply_id\" = 2301599;\n            \"reply_user\" =             {\n                \"followers_count_text\" = \"\";\n                id = 3964432;\n                \"is_prime\" = 0;\n                lv = 0;\n                lvl = 6;\n                n = \"\\U897f\\U7c73Fiona\";\n                p = \"http:\/\/tx1.douguo.net\/upload\/photo\/5\/e\/b\/70_u90825007652087073520.jpeg\";\n                \"progress_image\" = \"\";\n                \"recipes_count_text\" = \"\";\n                relationship = \"-1\";\n                title = \"\";\n                v = 1;\n                \"verified_image\" = \"\";\n            };\n            \"sticker_icon\" =             (\n            );\n            time = \"2015-05-28 03:27:32\";\n            u =             {\n                \"followers_count_text\" = \"\";\n                id = 8936221;\n                \"is_prime\" = 0;\n                lv = 0;\n                lvl = 5;\n                n = \"Cammy\\U7f8e\\U98df\\U5f55\";\n                p = \"http:\/\/tx1.douguo.net\/upload\/photo\/3\/d\/3\/70_u28847278463925114005.jpeg\";\n                \"progress_image\" = \"\";\n                \"recipes_count_text\" = \"\";\n                relationship = \"-1\";\n                title = \"\";\n                v = 0;\n                \"verified_image\" = \"\";\n            };\n        }\n    );\n    city = \"\";\n    cmc = 2;\n    content =     (\n                {\n            c = \"\\U7528\\U4e0d\\U7528\\U76d6\\U76d6\\U5b50\";\n        }\n    );\n    ia = 0;\n    id = 2301480;\n    \"ip_address_location\" = \"\";\n    like = 0;\n    \"like_count\" = 0;\n    \"reply_id\" = 0;\n    \"sticker_icon\" =     (\n    );\n    time = \"2015-05-28 02:33:50\";\n    u =     {\n        \"followers_count_text\" = \"\";\n        id = 8936221;\n        \"is_prime\" = 0;\n        lv = 0;\n        lvl = 5;\n        n = \"Cammy\\U7f8e\\U98df\\U5f55\";\n        p = \"http:\/\/tx1.douguo.net\/upload\/photo\/3\/d\/3\/70_u28847278463925114005.jpeg\";\n        \"progress_image\" = \"\";\n        \"recipes_count_text\" = \"\";\n        relationship = \"-1\";\n        title = \"\";\n        v = 0;\n        \"verified_image\" = \"\";\n    };\n}"
      ],
      "dish_count" : 27,
      "rrps" : [

      ],
      "ssu" : "",
      "clicks" : "766904",
      "brand_day_dsp" : [

      ],
      "act_des" : "",
      "thumb_path" : "https:\/\/i1.douguo.com\/upload\/caiku\/f\/6\/1\/300_f6080f2f2ae13bbd6b3b77b4b03af5b1.jpg",
      "author_verified" : 1,
      "levelid" : 2,
      "ipt" : "",
      "btm_dsp" : [

      ],
      "thumb_height" : 0,
      "ipoi" : "",
      "rpst" : "",
      "original_photo_path" : "http:\/\/i1.douguo.net\/upload\/caiku\/f\/6\/1\/yuan_f6080f2f2ae13bbd6b3b77b4b03af5b1.jpg",
      "recipe_tags" : [

      ],
      "vu" : "",
      "rate" : 4,
      "v_u" : "",
      "ipit" : 0,
      "sr" : "",
      "pw" : 800,
      "hq" : 1,
      "packages_id" : [

      ],
      "author_photo" : "http:\/\/tx1.douguo.net\/upload\/photo\/5\/e\/b\/70_u90825007652087073520.jpeg",
      "recommended" : 0,
      "bs" : [

      ],
      "author_id" : 3964432,
      "rpt" : "",
      "old_comments" : [

      ],
      "notes" : [

      ],
      "ipci" : "",
      "comments_count_text" : "157",
      "cookstory" : "夏天一到，连做饭都觉得懒。天津今天最高气温34度。好热。。\n最近烤箱基本收起来，可是想吃烤排骨，怎么办。\n用平底锅，15分钟，真的能做出那个味儿。锡纸包裹着，减少水分流失，让排骨更嫩。\n",
      "rewarded_video_dsp" : [

      ],
      "major" : [
        {
          "title" : "肋排",
          "note" : "400克"
        },
        {
          "tu" : "https:\/\/m.douguo.com\/ingredients\/红糖\/detailmaterial",
          "title" : "红糖",
          "note" : "3勺"
        },
        {
          "title" : "蒜末",
          "note" : "1勺"
        },
        {
          "title" : "盐",
          "note" : "适量",
          "tu" : "https:\/\/m.douguo.com\/ingredients\/盐\/detailmaterial"
        },
        {
          "note" : "1勺",
          "tu" : "https:\/\/m.douguo.com\/ingredients\/酱油\/detailmaterial",
          "title" : "酱油"
        },
        {
          "note" : "半杯",
          "tu" : "https:\/\/m.douguo.com\/ingredients\/红酒\/detailmaterial",
          "title" : "红酒"
        },
        {
          "note" : "半勺",
          "title" : "辣椒面（不吃辣可不放）"
        },
        {
          "title" : "蜂蜜",
          "tu" : "https:\/\/m.douguo.com\/ingredients\/蜂蜜\/detailmaterial",
          "note" : "1勺"
        }
      ],
      "cookstorys" : [
        {
          "c" : "夏天一到，连做饭都觉得懒。天津今天最高气温34度。好热。。\n最近烤箱基本收起来，可是想吃烤排骨，怎么办。\n用平底锅，15分钟，真的能做出那个味儿。锡纸包裹着，减少水分流失，让排骨更嫩。\n",
          "id" : 0,
          "color" : "",
          "icon" : "",
          "u" : "",
          "type" : 0
        }
      ],
      "rate_show" : 0,
      "tips" : "排骨选均匀的肋排，比较好做。中间打开锡纸时，注意烫手，用双筷子配合。",
      "advice" : {
        "has" : [
          {
            "t" : "富含蛋白质",
            "url" : "recipes:\/\/www.douguo.com\/simplerecipelist?t=富含蛋白质&id=富含蛋白质"
          },
          {
            "t" : "富含维生素B1",
            "url" : "recipes:\/\/www.douguo.com\/simplerecipelist?t=富含维生素B1&id=富含维生素B1"
          }
        ],
        "at" : "是组织形成和生长的主要营养素～",
        "da" : {
          "t" : "查看详细分析",
          "url" : "https:\/\/m.douguo.com\/recipe\/nutrient_self\/1185413",
          "iu" : "https:\/\/i1.douguo.com\/upload\/banner\/f\/4\/d\/f48877e53c37759bc12ac494be82ec8d.png"
        }
      },
      "cook_difficulty_image" : "https:\/\/i1.douguo.com\/upload\/banner\/1551424413.png",
      "vc" : "781720",
      "display_ingredient" : 1,
      "mid_mdsp" : [

      ],
      "user" : {
        "qq_weibo_nick" : "",
        "qzone_nick" : "",
        "sign" : "",
        "location" : 0,
        "birthday" : "",
        "verified_url" : "https:\/\/m.douguo.com\/user\/prodesc",
        "introduction" : "",
        "pc" : 0,
        "verified_image" : "https:\/\/i1.douguo.com\/upload\/note\/d\/a\/a\/da84247847aebe48d9dd0fcdac88862a.png",
        "avatar_medium" : "http:\/\/tx1.douguo.net\/upload\/photo\/5\/e\/b\/140_u90825007652087073520.jpeg",
        "recipes_count" : 0,
        "user_id" : "3964432",
        "dishes_count" : 0,
        "user_photo" : "http:\/\/tx1.douguo.net\/upload\/photo\/5\/e\/b\/70_u90825007652087073520.jpeg",
        "mobile" : "",
        "weibo_nick" : "",
        "fc" : 0,
        "email" : "",
        "verified" : 1,
        "subscription" : 0,
        "lvl" : 6,
        "regist_time" : "",
        "favorites_count" : 0,
        "coursecount" : 0,
        "is_prime" : 0,
        "gender" : 2,
        "progress_image" : "",
        "user_cover" : "",
        "lv" : 0,
        "userid" : "3964432",
        "age" : "",
        "favor_diaries_count" : 0,
        "followers_count" : 0,
        "point" : 0,
        "following_count" : 0,
        "diaries_count" : 0,
        "setted_email" : 0,
        "subscription_article_count" : 0,
        "nick" : "西米Fiona",
        "user_large_photo" : "http:\/\/tx1.douguo.net\/upload\/photo\/5\/e\/b\/yuan_u90825007652087073520.jpeg"
      }
    }
  },
  "status" : 0
}