{
  "status" : 0,
  "state" : "success",
  "result" : {
    "recipe" : {
      "old_comments" : [

      ],
      "brand_day_dsp" : [

      ],
      "thumb_path" : "https:\/\/i1.douguo.com\/upload\/caiku\/c\/7\/4\/300_c7a87a2f06d6801ec468bd82c662a414.jpeg",
      "cook_difficulty_image" : "https:\/\/i1.douguo.com\/upload\/banner\/1551424390.png",
      "pw" : 1440,
      "ipt" : "",
      "purl" : "",
      "create_time" : "2021-01-22 21:00:57",
      "display_ingredient" : 1,
      "recommended" : 0,
      "cook_time" : "10~30分钟",
      "author_id" : 23888374,
      "views_count_text" : "14.1万",
      "mid_mdsp" : [

      ],
      "rpst" : "",
      "cook_difficulty" : "切墩(初级)",
      "hqu" : "recipes:\/\/www.douguo.com\/notedetail?id=21162253",
      "comments_count" : 7,
      "cook_time_image" : "https:\/\/i1.douguo.com\/upload\/banner\/1551424341.png",
      "rdsps" : [

      ],
      "rcs" : [

      ],
      "top_mdsp" : [

      ],
      "author_photo" : "http:\/\/tx1.douguo.net\/upload\/photo\/3\/0\/1\/70_u593890272656193707.jpeg",
      "tips" : "这道菜一定要小火慢慢煮，泥鳅更入味",
      "act_des" : "",
      "ipoi" : "",
      "major" : [
        {
          "tu" : "https:\/\/m.douguo.com\/ingredients\/芋头\/detailmaterial",
          "note" : "7个",
          "title" : "芋头"
        },
        {
          "note" : "2根",
          "title" : "葱蒜"
        },
        {
          "note" : "10毫升",
          "tu" : "https:\/\/m.douguo.com\/ingredients\/色拉油\/detailmaterial",
          "title" : "色拉油"
        },
        {
          "title" : "盐",
          "tu" : "https:\/\/m.douguo.com\/ingredients\/盐\/detailmaterial",
          "note" : "3克"
        },
        {
          "note" : "3个",
          "title" : "蒜",
          "tu" : "https:\/\/m.douguo.com\/ingredients\/蒜\/detailmaterial"
        },
        {
          "title" : "泥鳅",
          "tu" : "https:\/\/m.douguo.com\/ingredients\/泥鳅\/detailmaterial",
          "note" : "10只"
        },
        {
          "note" : "2勺",
          "title" : "生抽",
          "tu" : "https:\/\/m.douguo.com\/ingredients\/生抽\/detailmaterial"
        },
        {
          "note" : "半勺",
          "tu" : "https:\/\/m.douguo.com\/ingredients\/老抽\/detailmaterial",
          "title" : "老抽"
        },
        {
          "title" : "太太乐鲍汁蚝油",
          "note" : "1勺"
        },
        {
          "note" : "适量",
          "tu" : "https:\/\/m.douguo.com\/ingredients\/剁椒\/detailmaterial",
          "title" : "剁椒"
        },
        {
          "note" : "3片",
          "title" : "桂叶"
        },
        {
          "note" : "少许",
          "title" : "胡椒粉",
          "tu" : "https:\/\/m.douguo.com\/ingredients\/胡椒粉\/detailmaterial"
        }
      ],
      "rate_count" : 0,
      "ipci" : "",
      "thumb_height" : 0,
      "rate_show" : 0,
      "ph" : 1920,
      "rrpt" : "",
      "recipe_list_tags" : [
        {
          "text" : "关注的人",
          "background_border_color" : "",
          "text_color" : "#141515",
          "right_image" : "",
          "jump_url" : "",
          "background_start_color" : "#F4F5F5",
          "background_end_color" : "#F4F5F5"
        },
        {
          "text" : "值得pick",
          "jump_url" : "",
          "background_start_color" : "#F4F5F5",
          "right_image" : "",
          "background_end_color" : "#F4F5F5",
          "background_border_color" : "",
          "text_color" : "#141515"
        },
        {
          "background_end_color" : "#F4F5F5",
          "jump_url" : "",
          "background_border_color" : "",
          "background_start_color" : "#F4F5F5",
          "right_image" : "",
          "text" : "内容详细",
          "text_color" : "#141515"
        }
      ],
      "cookstep" : [
        {
          "position" : 1,
          "content" : "芋头削皮洗净，切成滚刀块，锅里放入水，把芋艿倒入，开中大火煮",
          "frame" : "-1",
          "image_height" : 1706,
          "image_width" : 1280,
          "thumb" : "https:\/\/i1.douguo.com\/upload\/caiku\/b\/7\/2\/140_b7114973485ec2d7688f4b5cb51bc9e2.jpeg",
          "image" : "https:\/\/i1.douguo.com\/upload\/caiku\/b\/7\/2\/b7114973485ec2d7688f4b5cb51bc9e2.jpeg"
        },
        {
          "image_width" : 1280,
          "frame" : "-1",
          "content" : "煮至用筷子能轻松戳入就可以了",
          "image" : "https:\/\/i1.douguo.com\/upload\/caiku\/9\/5\/e\/95bd528c7cc0ba70f061a304b1acd5be.jpeg",
          "image_height" : 1706,
          "thumb" : "https:\/\/i1.douguo.com\/upload\/caiku\/9\/5\/e\/140_95bd528c7cc0ba70f061a304b1acd5be.jpeg",
          "position" : 2
        },
        {
          "frame" : "-1",
          "image_height" : 1706,
          "thumb" : "https:\/\/i1.douguo.com\/upload\/caiku\/8\/c\/d\/140_8cd73df4a13b8ac7dcae4c13be3e380d.jpeg",
          "image" : "https:\/\/i1.douguo.com\/upload\/caiku\/8\/c\/d\/8cd73df4a13b8ac7dcae4c13be3e380d.jpeg",
          "image_width" : 1280,
          "position" : 3,
          "content" : "把泥鳅放入砂锅，加点水，放入生姜丝"
        },
        {
          "image_height" : 1706,
          "position" : 4,
          "image" : "https:\/\/i1.douguo.com\/upload\/caiku\/0\/c\/5\/0c00ea5c711c49400f07196585c8bf65.jpeg",
          "frame" : "-1",
          "content" : "开中小火煮开",
          "image_width" : 1280,
          "thumb" : "https:\/\/i1.douguo.com\/upload\/caiku\/0\/c\/5\/140_0c00ea5c711c49400f07196585c8bf65.jpeg"
        },
        {
          "content" : "准备好食材，生姜切丝，大蒜拍扁切小粒，红辣椒切丝葱蒜切段",
          "image" : "https:\/\/i1.douguo.com\/upload\/caiku\/0\/e\/0\/0ed58730bb0e2670675af6113e2f0ff0.jpeg",
          "position" : 5,
          "image_height" : 1706,
          "thumb" : "https:\/\/i1.douguo.com\/upload\/caiku\/0\/e\/0\/140_0ed58730bb0e2670675af6113e2f0ff0.jpeg",
          "image_width" : 1280,
          "frame" : "-1"
        },
        {
          "thumb" : "https:\/\/i1.douguo.com\/upload\/caiku\/2\/1\/5\/140_21f2d624663182bbcf0ef97e6f3d0aa5.jpeg",
          "content" : "泥鳅水开撇去浮沫",
          "image_width" : 1280,
          "position" : 6,
          "image" : "https:\/\/i1.douguo.com\/upload\/caiku\/2\/1\/5\/21f2d624663182bbcf0ef97e6f3d0aa5.jpeg",
          "image_height" : 1706,
          "frame" : "-1"
        },
        {
          "content" : "把备好的香料倒入，葱蒜叶先不要倒入",
          "position" : 7,
          "image_width" : 1280,
          "thumb" : "https:\/\/i1.douguo.com\/upload\/caiku\/e\/a\/0\/140_eacdb9746f35b64225654d8144a3ba80.jpeg",
          "frame" : "-1",
          "image_height" : 1706,
          "image" : "https:\/\/i1.douguo.com\/upload\/caiku\/e\/a\/0\/eacdb9746f35b64225654d8144a3ba80.jpeg"
        },
        {
          "image_height" : 1706,
          "thumb" : "https:\/\/i1.douguo.com\/upload\/caiku\/e\/b\/e\/140_eb77a266cd3d400c50f57c362fb2b77e.jpeg",
          "image_width" : 1280,
          "frame" : "-1",
          "content" : "接着加入料酒",
          "position" : 8,
          "image" : "https:\/\/i1.douguo.com\/upload\/caiku\/e\/b\/e\/eb77a266cd3d400c50f57c362fb2b77e.jpeg"
        },
        {
          "thumb" : "https:\/\/i1.douguo.com\/upload\/caiku\/8\/3\/2\/140_8384fb582ab1e57fefe7314aa4462022.jpeg",
          "content" : "加入2勺生抽、半勺老抽",
          "frame" : "-1",
          "image_width" : 1280,
          "image_height" : 1706,
          "position" : 9,
          "image" : "https:\/\/i1.douguo.com\/upload\/caiku\/8\/3\/2\/8384fb582ab1e57fefe7314aa4462022.jpeg"
        },
        {
          "image_width" : 1280,
          "image" : "https:\/\/i1.douguo.com\/upload\/caiku\/3\/a\/f\/3a2342818700d8ba6a27c82d01f4b20f.jpeg",
          "content" : "加入太太乐鲍汁蚝油",
          "thumb" : "https:\/\/i1.douguo.com\/upload\/caiku\/3\/a\/f\/140_3a2342818700d8ba6a27c82d01f4b20f.jpeg",
          "position" : 10,
          "frame" : "-1",
          "image_height" : 1706
        },
        {
          "image_width" : 1280,
          "thumb" : "https:\/\/i1.douguo.com\/upload\/caiku\/d\/9\/a\/140_d93c6fe0ea4ddfa32ddb7f28878ae19a.jpeg",
          "content" : "加入剁椒",
          "position" : 11,
          "frame" : "-1",
          "image" : "https:\/\/i1.douguo.com\/upload\/caiku\/d\/9\/a\/d93c6fe0ea4ddfa32ddb7f28878ae19a.jpeg",
          "image_height" : 1706
        },
        {
          "content" : "加入一勺食用油、少许食盐和白胡椒粉",
          "image_width" : 1280,
          "thumb" : "https:\/\/i1.douguo.com\/upload\/caiku\/a\/3\/9\/140_a3e9b9c0c161165846dfcc4199d41aa9.jpeg",
          "image" : "https:\/\/i1.douguo.com\/upload\/caiku\/a\/3\/9\/a3e9b9c0c161165846dfcc4199d41aa9.jpeg",
          "position" : 12,
          "frame" : "-1",
          "image_height" : 1706
        },
        {
          "image_width" : 1280,
          "thumb" : "https:\/\/i1.douguo.com\/upload\/caiku\/3\/2\/5\/140_325c3b28f00c1d111c238247f8c3a515.jpeg",
          "image_height" : 1706,
          "frame" : "-1",
          "image" : "https:\/\/i1.douguo.com\/upload\/caiku\/3\/2\/5\/325c3b28f00c1d111c238247f8c3a515.jpeg",
          "position" : 13,
          "content" : "盖上锅盖开小火焖煮半个小时"
        },
        {
          "image_width" : 1280,
          "position" : 14,
          "thumb" : "https:\/\/i1.douguo.com\/upload\/caiku\/e\/d\/4\/140_ed895534ab79fe2927f2876f1bf3ab64.jpeg",
          "image" : "https:\/\/i1.douguo.com\/upload\/caiku\/e\/d\/4\/ed895534ab79fe2927f2876f1bf3ab64.jpeg",
          "frame" : "-1",
          "content" : "打开锅盖，用筷子提起泥鳅已经肉易脱骨就可以了",
          "image_height" : 1706
        },
        {
          "thumb" : "https:\/\/i1.douguo.com\/upload\/caiku\/a\/b\/f\/140_abb595e31fcc10ef0d90e1c35700a29f.jpeg",
          "image" : "https:\/\/i1.douguo.com\/upload\/caiku\/a\/b\/f\/abb595e31fcc10ef0d90e1c35700a29f.jpeg",
          "image_width" : 1280,
          "frame" : "-1",
          "position" : 15,
          "image_height" : 1706,
          "content" : "再倒入煮好的芋头，再焖煮10分钟就可以了"
        },
        {
          "image_height" : 1706,
          "content" : "最后撒上葱蒜叶就可以了，哇！热乎乎鲜香美味的泥鳅锅出锅了！",
          "image" : "https:\/\/i1.douguo.com\/upload\/caiku\/c\/e\/9\/ce7f38aff6c790adf2afd9839592faa9.jpeg",
          "thumb" : "https:\/\/i1.douguo.com\/upload\/caiku\/c\/e\/9\/140_ce7f38aff6c790adf2afd9839592faa9.jpeg",
          "frame" : "-1",
          "position" : 16,
          "image_width" : 1280
        },
        {
          "position" : 17,
          "image_width" : 1280,
          "thumb" : "https:\/\/i1.douguo.com\/upload\/caiku\/9\/4\/9\/140_94d06e2cee84509d58d40776c8132749.jpeg",
          "frame" : "-1",
          "image" : "https:\/\/i1.douguo.com\/upload\/caiku\/9\/4\/9\/94d06e2cee84509d58d40776c8132749.jpeg",
          "image_height" : 1706,
          "content" : "有没有想吃的"
        }
      ],
      "vu" : "",
      "dish_count_text" : "",
      "recent_comments" : [

      ],
      "author_verified" : 1,
      "btm_dsp" : [

      ],
      "clicks" : "134622",
      "rate" : 0,
      "original_photo_path" : "http:\/\/i1.douguo.net\/upload\/caiku\/c\/7\/4\/yuan_c7a87a2f06d6801ec468bd82c662a414.jpeg",
      "bs" : [

      ],
      "ssu" : "",
      "recipe_tags" : [

      ],
      "guide_image" : "",
      "image" : "http:\/\/i1.douguo.net\/upload\/caiku\/c\/7\/4\/300_c7a87a2f06d6801ec468bd82c662a414.jpeg",
      "recommendation_tag" : "",
      "related_ads" : [

      ],
      "rrps" : [

      ],
      "sc" : 0,
      "title_ad" : [

      ],
      "cookstorys" : [
        {
          "type" : 0,
          "color" : "",
          "id" : 0,
          "u" : "",
          "icon" : "",
          "c" : "泥鳅味道鲜美，而且补中益气，滋阴止渴、清热祛湿的功效，是一种高蛋白低脂肪食物，此外泥鳅中分泌的黏液即所谓“泥鳅滑液”有较好的抗菌消炎作用，可治小便不通，热淋便血、痈肿、中耳炎，被称为“水中人参”"
        },
        {
          "c" : "\n参与活动:",
          "icon" : "",
          "type" : 0,
          "u" : "",
          "color" : "",
          "id" : 0
        },
        {
          "u" : "https:\/\/m.douguo.com\/activity\/ncpzj\/detail\/2923?isapp=1&open=0&_vs=1000300&&dg_refreshkey=publishnote",
          "type" : 0,
          "c" : "#0元试用| 不再甩的太太乐鲍汁蚝油驾到#",
          "icon" : "",
          "id" : 0
        }
      ],
      "dish_count" : 0,
      "recommend_label" : "3979人刚刚收藏过",
      "collect_status" : 0,
      "rpid" : 0,
      "v_u" : "",
      "cookstory" : "泥鳅味道鲜美，而且补中益气，滋阴止渴、清热祛湿的功效，是一种高蛋白低脂肪食物，此外泥鳅中分泌的黏液即所谓“泥鳅滑液”有较好的抗菌消炎作用，可治小便不通，热淋便血、痈肿、中耳炎，被称为“水中人参”",
      "story_dsp" : [

      ],
      "user" : {
        "user_cover" : "",
        "subscription_article_count" : 0,
        "mobile" : "",
        "user_large_photo" : "http:\/\/tx1.douguo.net\/upload\/photo\/3\/0\/1\/yuan_u593890272656193707.jpeg",
        "introduction" : "",
        "qzone_nick" : "",
        "lvl" : 6,
        "regist_time" : "",
        "nick" : "平安果hcda",
        "lv" : 0,
        "gender" : 2,
        "favorites_count" : 0,
        "diaries_count" : 0,
        "verified_url" : "https:\/\/m.douguo.com\/user\/prodesc",
        "verified_image" : "https:\/\/i1.douguo.com\/upload\/note\/d\/a\/a\/da84247847aebe48d9dd0fcdac88862a.png",
        "avatar_medium" : "http:\/\/tx1.douguo.net\/upload\/photo\/3\/0\/1\/140_u593890272656193707.jpeg",
        "setted_email" : 0,
        "sign" : "",
        "user_id" : "23888374",
        "location" : 0,
        "followers_count" : 0,
        "userid" : "23888374",
        "point" : 0,
        "subscription" : 0,
        "birthday" : "",
        "following_count" : 0,
        "age" : "",
        "qq_weibo_nick" : "",
        "email" : "",
        "progress_image" : "",
        "recipes_count" : 0,
        "fc" : 0,
        "is_prime" : 0,
        "weibo_nick" : "",
        "verified" : 1,
        "favor_diaries_count" : 0,
        "coursecount" : 0,
        "user_photo" : "http:\/\/tx1.douguo.net\/upload\/photo\/3\/0\/1\/70_u593890272656193707.jpeg",
        "pc" : 0,
        "dishes_count" : 0
      },
      "cook_id" : "3055511",
      "cookwares" : [

      ],
      "first_level_comment_count" : 4,
      "favo_counts_text" : "3979",
      "author" : "平安果hcda",
      "advice" : {
        "da" : {
          "url" : "https:\/\/m.douguo.com\/recipe\/nutrient_self\/3055511",
          "iu" : "https:\/\/i1.douguo.com\/upload\/banner\/f\/4\/d\/f48877e53c37759bc12ac494be82ec8d.png",
          "t" : "查看详细分析"
        },
        "has" : [
          {
            "t" : "低胆固醇",
            "url" : "recipes:\/\/www.douguo.com\/simplerecipelist?t=低胆固醇&id=低胆固醇"
          },
          {
            "t" : "高盐",
            "url" : "recipes:\/\/www.douguo.com\/simplerecipelist?t=高盐&id=高盐"
          }
        ],
        "at" : "一道菜对心血管健康～"
      },
      "ipurl" : "",
      "dishes" : [

      ],
      "tags" : [

      ],
      "release_time" : "",
      "eu" : "recipes:\/\/www.douguo.com\/postdetail?id=242016",
      "vfurl" : "",
      "rsm" : "该功能暂停使用",
      "vc" : "141143",
      "rips" : 0,
      "su" : "",
      "rewarded_video_dsp" : [

      ],
      "title" : "   泥鳅煮芋头锅",
      "minor" : [

      ],
      "ecs" : 1,
      "ss" : [

      ],
      "comments_count_text" : "7",
      "levelid" : 2,
      "comments" : [
        "{\n    ac = \"#999999\";\n    at = \"\\U798f\\U5dde\\U5e02\";\n    ccc = 3;\n    \"child_comments\" =     (\n                {\n            ac = \"#999999\";\n            at = \"\\U4e0a\\U6d77\\U5e02\";\n            ccc = 0;\n            city = \"\\U4e0a\\U6d77\\U5e02\";\n            cmc = 2;\n            content =             (\n                                {\n                    c = \" \\U54c8\\U54c8\\Uff01\\U53ef\\U80fd\\U662f\\U8001\\U4e61\\U5427\\Uff01\\U4f60\\U662f\\U54ea\\U91cc\\U7684\\U5440\\Uff1f\";\n                }\n            );\n            ia = 1;\n            id = 8470058;\n            \"ip_address_location\" = \"\";\n            like = 0;\n            \"like_count\" = 0;\n            \"reply_id\" = 8469984;\n            \"reply_user\" =             {\n                \"followers_count_text\" = \"\";\n                id = 16805876;\n                \"is_prime\" = 0;\n                lv = 0;\n                lvl = 3;\n                n = \"\\U6a59\\U6db5\\U5988\\U5988\";\n                p = \"http:\/\/tx1.douguo.net\/upload\/photo\/5\/0\/6\/70_u57530079337010205432.jpeg\";\n                \"progress_image\" = \"\";\n                \"recipes_count_text\" = \"\";\n                relationship = \"-1\";\n                title = \"\";\n                v = 0;\n                \"verified_image\" = \"\";\n            };\n            \"sticker_icon\" =             (\n            );\n            time = \"2021-01-22 22:34:32\";\n            u =             {\n                \"followers_count_text\" = \"\";\n                id = 23888374;\n                \"is_prime\" = 0;\n                lv = 0;\n                lvl = 6;\n                n = \"\\U5e73\\U5b89\\U679chcda\";\n                p = \"http:\/\/tx1.douguo.net\/upload\/photo\/3\/0\/1\/70_u593890272656193707.jpeg\";\n                \"progress_image\" = \"\";\n                \"recipes_count_text\" = \"\";\n                relationship = \"-1\";\n                title = \"\";\n                v = 1;\n                \"verified_image\" = \"\";\n            };\n        },\n                {\n            ac = \"#999999\";\n            at = \"\\U798f\\U5dde\\U5e02\";\n            ccc = 0;\n            city = \"\\U798f\\U5dde\\U5e02\";\n            cmc = 2;\n            content =             (\n                                {\n                    c = \" \\U677e\\U6eaa\\U7684\\Uff0c\\U4f60\\U5462\";\n                }\n            );\n            ia = 0;\n            id = 8470290;\n            \"ip_address_location\" = \"\";\n            like = 0;\n            \"like_count\" = 0;\n            \"reply_id\" = 8470058;\n            \"reply_user\" =             {\n                \"followers_count_text\" = \"\";\n                id = 23888374;\n                \"is_prime\" = 0;\n                lv = 0;\n                lvl = 6;\n                n = \"\\U5e73\\U5b89\\U679chcda\";\n                p = \"http:\/\/tx1.douguo.net\/upload\/photo\/3\/0\/1\/70_u593890272656193707.jpeg\";\n                \"progress_image\" = \"\";\n                \"recipes_count_text\" = \"\";\n                relationship = \"-1\";\n                title = \"\";\n                v = 1;\n                \"verified_image\" = \"\";\n            };\n            \"sticker_icon\" =             (\n            );\n            time = \"2021-01-23 07:49:17\";\n            u =             {\n                \"followers_count_text\" = \"\";\n                id = 16805876;\n                \"is_prime\" = 0;\n                lv = 0;\n                lvl = 3;\n                n = \"\\U6a59\\U6db5\\U5988\\U5988\";\n                p = \"http:\/\/tx1.douguo.net\/upload\/photo\/5\/0\/6\/70_u57530079337010205432.jpeg\";\n                \"progress_image\" = \"\";\n                \"recipes_count_text\" = \"\";\n                relationship = \"-1\";\n                title = \"\";\n                v = 0;\n                \"verified_image\" = \"\";\n            };\n        }\n    );\n    city = \"\\U798f\\U5dde\\U5e02\";\n    cmc = 2;\n    content =     (\n                {\n            c = \"\\U662f\\U4e0d\\U662f\\U8001\\U4e61\\U5440\\Uff0c\\U770b\\U5230\\U4f60\\U7684\\U9999\\U53f6\\U548c\\U6211\\U4eec\\U90a3\\U8fb9\\U7684\\U4e00\\U6837\\U5462\\Uff01\\U6211\\U4eec\\U90a3\\U5f88\\U51fa\\U540d\\U7684\\U4e5f\\U662f\\U828b\\U5b50\\U6ce5\\U9cc5\\Ud83d\\Ude01\\Ud83d\\Ude01\";\n        }\n    );\n    ia = 0;\n    id = 8469984;\n    \"ip_address_location\" = \"\";\n    like = 0;\n    \"like_count\" = 0;\n    \"reply_id\" = 0;\n    \"sticker_icon\" =     (\n    );\n    time = \"2021-01-22 21:41:55\";\n    u =     {\n        \"followers_count_text\" = \"\";\n        id = 16805876;\n        \"is_prime\" = 0;\n        lv = 0;\n        lvl = 3;\n        n = \"\\U6a59\\U6db5\\U5988\\U5988\";\n        p = \"http:\/\/tx1.douguo.net\/upload\/photo\/5\/0\/6\/70_u57530079337010205432.jpeg\";\n        \"progress_image\" = \"\";\n        \"recipes_count_text\" = \"\";\n        relationship = \"-1\";\n        title = \"\";\n        v = 0;\n        \"verified_image\" = \"\";\n    };\n}",
        "{\n    ac = \"#999999\";\n    at = \"\";\n    ccc = 0;\n    \"child_comments\" =     (\n    );\n    city = \"\";\n    cmc = 2;\n    content =     (\n                {\n            c = \"\\U6211\\U60f3\\U8d77\\U4e86\\U98df\\U621f\\U4e4b\\U7075\\U54c8\\U54c8\\U54c8\\U54c8\";\n        }\n    );\n    ia = 0;\n    id = 8470026;\n    \"ip_address_location\" = \"\";\n    like = 0;\n    \"like_count\" = 1;\n    \"reply_id\" = 0;\n    \"sticker_icon\" =     (\n    );\n    time = \"2021-01-22 22:11:11\";\n    u =     {\n        \"followers_count_text\" = \"\";\n        id = 24558299;\n        \"is_prime\" = 0;\n        lv = 0;\n        lvl = 2;\n        n = \"\\U65ed\\U7f94\\U5988Q\";\n        p = \"http:\/\/tx1.douguo.net\/upload\/photo\/a\/f\/2\/70_u8767577422430103532.jpeg\";\n        \"progress_image\" = \"\";\n        \"recipes_count_text\" = \"\";\n        relationship = \"-1\";\n        title = \"\";\n        v = 0;\n        \"verified_image\" = \"\";\n    };\n}",
        "{\n    ac = \"#999999\";\n    at = \"\";\n    ccc = 0;\n    \"child_comments\" =     (\n    );\n    city = \"\";\n    cmc = 2;\n    content =     (\n                {\n            c = \"\\U8272\\U9999\\U5473\\U4ff1\\U5168\\U7684\\U7f8e\\U5473\\U7684\\U83dc\\U554a\";\n        }\n    );\n    ia = 0;\n    id = 8470008;\n    \"ip_address_location\" = \"\";\n    like = 0;\n    \"like_count\" = 0;\n    \"reply_id\" = 0;\n    \"sticker_icon\" =     (\n    );\n    time = \"2021-01-22 21:53:06\";\n    u =     {\n        \"followers_count_text\" = \"\";\n        id = 25307795;\n        \"is_prime\" = 0;\n        lv = 0;\n        lvl = 3;\n        n = 15164449391;\n        p = \"http:\/\/tx1.douguo.net\/upload\/photo\/1\/1\/1\/70_f7e594d7de9edf3c5d9eea15eb1067bb.png\";\n        \"progress_image\" = \"\";\n        \"recipes_count_text\" = \"\";\n        relationship = \"-1\";\n        title = \"\";\n        v = 0;\n        \"verified_image\" = \"\";\n    };\n}"
      ],
      "rpt" : "",
      "packages_id" : [

      ],
      "event" : {
        "id" : 2923,
        "name" : "0元试用| 不再甩的太太乐鲍汁蚝油驾到",
        "url" : "https:\/\/m.douguo.com\/activity\/ncpzj\/detail\/2923?isapp=1&open=0&_vs=1000300&&dg_refreshkey=publishnote"
      },
      "photo_path" : "https:\/\/i1.douguo.com\/upload\/caiku\/c\/7\/4\/600_c7a87a2f06d6801ec468bd82c662a414.jpeg",
      "notes" : [

      ],
      "share_info" : {
        "s_d" : "#百变鲜锋料理#   泥鳅煮芋头锅-会做饭很酷!",
        "mini_program" : [

        ],
        "name" : "#百变鲜锋料理#   泥鳅煮芋头锅-会做饭很酷!",
        "s_u" : "http:\/\/m.douguo.com\/cookbook\/3055511.html",
        "qr_image" : "",
        "object_id" : "3055511",
        "image" : "https:\/\/cp1.douguo.com\/upload\/caiku\/c\/7\/4\/c7a87a2f06d6801ec468bd82c662a414.jpeg",
        "infos" : [
          {
            "s_d" : "#学做饭用豆果美食# 我在@豆果美食 分享了【#百变鲜锋料理#   泥鳅煮芋头锅-会做饭很酷!】，帅哥美眉们～你们喜欢的美食来咯！快来跟我一起做吧～查看图片了解菜谱（想要获取更多美食就看这https:\/\/m.weibo.cn\/p\/100404i33631）#会做饭很酷#",
            "mini_program" : [

            ],
            "qr_image" : "",
            "name" : "#百变鲜锋料理#   泥鳅煮芋头锅-会做饭很酷!",
            "channel" : "1",
            "s_u" : "",
            "object_id" : "3055511",
            "image" : "https:\/\/cp1.douguo.com\/upload\/caiku\/c\/7\/4\/c7a87a2f06d6801ec468bd82c662a414.jpeg"
          },
          {
            "s_u" : "http:\/\/m.douguo.com\/cookbook\/3055511.html",
            "name" : "#百变鲜锋料理#   泥鳅煮芋头锅-会做饭很酷!",
            "qr_image" : "",
            "channel" : "7",
            "image" : "https:\/\/cp1.douguo.com\/upload\/caiku\/c\/7\/4\/c7a87a2f06d6801ec468bd82c662a414.jpeg",
            "s_d" : "#百变鲜锋料理#   泥鳅煮芋头锅-会做饭很酷!",
            "mini_program" : [

            ],
            "object_id" : "3055511"
          },
          {
            "s_u" : "http:\/\/m.douguo.com\/cookbook\/3055511.html",
            "name" : "#百变鲜锋料理#   泥鳅煮芋头锅-会做饭很酷!",
            "s_d" : "#百变鲜锋料理#   泥鳅煮芋头锅-会做饭很酷!",
            "mini_program" : [

            ],
            "object_id" : "3055511",
            "channel" : "8",
            "qr_image" : "",
            "image" : "https:\/\/cp1.douguo.com\/upload\/caiku\/c\/7\/4\/c7a87a2f06d6801ec468bd82c662a414.jpeg"
          }
        ]
      },
      "ipit" : 0,
      "favo_counts" : 3979,
      "sr" : "",
      "hq" : 1,
      "ipia" : [

      ]
    }
  }
}