{
  "status" : 0,
  "result" : {
    "recipe" : {
      "cook_difficulty" : "配菜(中级)",
      "old_comments" : [

      ],
      "ipit" : 0,
      "hq" : 1,
      "ipt" : "",
      "ph" : 800,
      "purl" : "",
      "cookstep" : [
        {
          "image_width" : 1280,
          "image" : "https:\/\/i1.douguo.com\/upload\/caiku\/4\/b\/2\/4b455c56cb349d0bac97cb47ee5bd5d2.jpeg",
          "position" : 1,
          "thumb" : "https:\/\/i1.douguo.com\/upload\/caiku\/4\/b\/2\/140_4b455c56cb349d0bac97cb47ee5bd5d2.jpeg",
          "frame" : "-1",
          "content" : "食材备好、称重",
          "image_height" : 981
        },
        {
          "content" : "分离蛋黄、蛋白。装蛋白的盆需要无水无油。",
          "image_height" : 1920,
          "image_width" : 1280,
          "thumb" : "https:\/\/i1.douguo.com\/upload\/caiku\/3\/0\/5\/140_30fe8caf6831fbb5f17d69f27c0d7cc5.jpeg",
          "frame" : "-1",
          "image" : "https:\/\/i1.douguo.com\/upload\/caiku\/3\/0\/5\/30fe8caf6831fbb5f17d69f27c0d7cc5.jpeg",
          "position" : 2
        },
        {
          "thumb" : "https:\/\/i1.douguo.com\/upload\/caiku\/c\/6\/9\/140_c652562332d9664d60b94fb81f7c98a9.jpeg",
          "frame" : "-1",
          "image_width" : 1280,
          "image_height" : 1706,
          "position" : 3,
          "image" : "https:\/\/i1.douguo.com\/upload\/caiku\/c\/6\/9\/c652562332d9664d60b94fb81f7c98a9.jpeg",
          "content" : "蛋黄中分别加入牛奶、玉米油，充分搅拌至乳化。"
        },
        {
          "thumb" : "https:\/\/i1.douguo.com\/upload\/caiku\/0\/5\/1\/140_0502c5e61e15cb1cebc612fcad2bf8b1.jpeg",
          "image_height" : 1627,
          "image_width" : 1280,
          "position" : 4,
          "content" : "分2-3次筛入低筋面粉，用Z字形搅拌均匀。",
          "image" : "https:\/\/i1.douguo.com\/upload\/caiku\/0\/5\/1\/0502c5e61e15cb1cebc612fcad2bf8b1.jpeg",
          "frame" : "-1"
        },
        {
          "image" : "https:\/\/i1.douguo.com\/upload\/caiku\/0\/5\/8\/055bb52c632d84f6bbecda6349044ed8.jpeg",
          "image_height" : 1248,
          "position" : 5,
          "frame" : "-1",
          "content" : "搅拌好的蛋黄糊是这种可以流动的状态，备用。",
          "image_width" : 1280,
          "thumb" : "https:\/\/i1.douguo.com\/upload\/caiku\/0\/5\/8\/140_055bb52c632d84f6bbecda6349044ed8.jpeg"
        },
        {
          "content" : "蛋清中加入几滴柠檬汁，用打蛋器打发。打发过程中分三次加入细砂糖，分别是蛋白液大气泡时、开始发白时、比较细腻时。",
          "image_height" : 1920,
          "image" : "https:\/\/i1.douguo.com\/upload\/caiku\/8\/2\/4\/82b302e0bf1ff8de222bade94782bcc4.jpeg",
          "image_width" : 1280,
          "thumb" : "https:\/\/i1.douguo.com\/upload\/caiku\/8\/2\/4\/140_82b302e0bf1ff8de222bade94782bcc4.jpeg",
          "position" : 6,
          "frame" : "-1"
        },
        {
          "position" : 7,
          "frame" : "-1",
          "thumb" : "https:\/\/i1.douguo.com\/upload\/caiku\/1\/7\/a\/140_17c212ec4fb089fa1a9649a32d27932a.jpeg",
          "image" : "https:\/\/i1.douguo.com\/upload\/caiku\/1\/7\/a\/17c212ec4fb089fa1a9649a32d27932a.jpeg",
          "image_height" : 1706,
          "image_width" : 1280,
          "content" : "蛋白打到硬性发泡状态，打蛋器提起来有直立的小尖钩。"
        },
        {
          "thumb" : "https:\/\/i1.douguo.com\/upload\/caiku\/1\/3\/b\/140_1336022e3c2f9a36b136c710ffa5781b.jpeg",
          "image" : "https:\/\/i1.douguo.com\/upload\/caiku\/1\/3\/b\/1336022e3c2f9a36b136c710ffa5781b.jpeg",
          "frame" : "-1",
          "image_width" : 1280,
          "image_height" : 1541,
          "position" : 8,
          "content" : "将三分之一蛋白加入蛋黄糊，用翻拌的手法（像炒菜那样）混合均匀。"
        },
        {
          "position" : 9,
          "frame" : "-1",
          "image_height" : 1597,
          "image" : "https:\/\/i1.douguo.com\/upload\/caiku\/b\/9\/d\/b91614319d73b58353fd60f98553024d.jpeg",
          "image_width" : 1280,
          "thumb" : "https:\/\/i1.douguo.com\/upload\/caiku\/b\/9\/d\/140_b91614319d73b58353fd60f98553024d.jpeg",
          "content" : "再将三分之一蛋白加入蛋黄液，翻拌均匀。"
        },
        {
          "image_width" : 1280,
          "content" : "最后将混合液体倒回至蛋白盆中，翻拌均匀，蛋糕糊就混合好了。将混合好的蛋糕糊倒入电饭煲内胆中。",
          "image_height" : 1706,
          "image" : "https:\/\/i1.douguo.com\/upload\/caiku\/9\/9\/6\/99e469d88b172c5147d3b21fc2e86626.jpeg",
          "frame" : "-1",
          "position" : 10,
          "thumb" : "https:\/\/i1.douguo.com\/upload\/caiku\/9\/9\/6\/140_99e469d88b172c5147d3b21fc2e86626.jpeg"
        },
        {
          "image_height" : 985,
          "image_width" : 1280,
          "thumb" : "https:\/\/i1.douguo.com\/upload\/caiku\/f\/2\/b\/140_f289baf3c38158573c30e3e574c6957b.jpeg",
          "content" : "电饭煲选择蛋糕功能，开工。没有蛋糕功能的，选择50分钟就好。",
          "image" : "https:\/\/i1.douguo.com\/upload\/caiku\/f\/2\/b\/f289baf3c38158573c30e3e574c6957b.jpeg",
          "position" : 11,
          "frame" : "-1"
        },
        {
          "image" : "https:\/\/i1.douguo.com\/upload\/caiku\/b\/c\/5\/bcef0d6821d377ddff89e0a50878d475.jpeg",
          "frame" : "-1",
          "position" : 12,
          "image_width" : 1280,
          "content" : "时间到，开盖瞬间。",
          "thumb" : "https:\/\/i1.douguo.com\/upload\/caiku\/b\/c\/5\/140_bcef0d6821d377ddff89e0a50878d475.jpeg",
          "image_height" : 1644
        },
        {
          "content" : "别急，将内胆倒扣10分钟晾凉。",
          "frame" : "-1",
          "image" : "https:\/\/i1.douguo.com\/upload\/caiku\/0\/6\/f\/06f8281f5d4aacee6a0161a865be4a6f.jpeg",
          "thumb" : "https:\/\/i1.douguo.com\/upload\/caiku\/0\/6\/f\/140_06f8281f5d4aacee6a0161a865be4a6f.jpeg",
          "image_width" : 1280,
          "position" : 13,
          "image_height" : 1388
        },
        {
          "position" : 14,
          "frame" : "-1",
          "image_height" : 960,
          "image_width" : 1280,
          "content" : "蛋糕略微回缩是正常的。",
          "thumb" : "https:\/\/i1.douguo.com\/upload\/caiku\/1\/7\/6\/140_17e53290c8e0e083b4bb8f3d398ace46.jpeg",
          "image" : "https:\/\/i1.douguo.com\/upload\/caiku\/1\/7\/6\/17e53290c8e0e083b4bb8f3d398ace46.jpeg"
        },
        {
          "image_height" : 1706,
          "frame" : "-1",
          "image" : "https:\/\/i1.douguo.com\/upload\/caiku\/7\/3\/d\/737899054f46e1c7a2befc0b0ece979d.jpeg",
          "content" : "但组织还是丰满细腻滴。",
          "position" : 15,
          "thumb" : "https:\/\/i1.douguo.com\/upload\/caiku\/7\/3\/d\/140_737899054f46e1c7a2befc0b0ece979d.jpeg",
          "image_width" : 1280
        },
        {
          "image_height" : 896,
          "image" : "https:\/\/i1.douguo.com\/upload\/caiku\/c\/1\/8\/c1990a7d3ea939807ce010243be55478.jpeg",
          "frame" : "-1",
          "image_width" : 1280,
          "content" : "开始享用，不辜负这个美好的下午时光。",
          "thumb" : "https:\/\/i1.douguo.com\/upload\/caiku\/c\/1\/8\/140_c1990a7d3ea939807ce010243be55478.jpeg",
          "position" : 16
        }
      ],
      "recipe_list_tags" : [
        {
          "text" : "关注的人",
          "background_start_color" : "#F4F5F5",
          "background_end_color" : "#F4F5F5",
          "text_color" : "#141515",
          "jump_url" : "",
          "background_border_color" : "",
          "right_image" : ""
        }
      ],
      "vfurl" : "",
      "recent_comments" : [

      ],
      "ipurl" : "",
      "author" : "Tina精致生活",
      "rrpt" : "",
      "top_mdsp" : [

      ],
      "ssu" : "",
      "recommendation_tag" : "",
      "cookwares" : [

      ],
      "thumb_height" : 0,
      "collect_status" : 0,
      "v_u" : "",
      "recommended" : 0,
      "dish_count" : 22,
      "hqu" : "recipes:\/\/www.douguo.com\/notedetail?id=21162253",
      "cook_id" : "2413652",
      "story_dsp" : [

      ],
      "ecs" : 1,
      "tips" : "",
      "vc" : "2295346",
      "advice" : {
        "has" : [
          {
            "url" : "recipes:\/\/www.douguo.com\/simplerecipelist?t=低盐&id=低盐",
            "t" : "低盐"
          }
        ],
        "da" : {
          "iu" : "https:\/\/i1.douguo.com\/upload\/banner\/f\/4\/d\/f48877e53c37759bc12ac494be82ec8d.png",
          "t" : "查看详细分析",
          "url" : "https:\/\/m.douguo.com\/recipe\/nutrient_self\/2413652"
        },
        "at" : "盐摄入过高有害健康～"
      },
      "guide_image" : "",
      "ipoi" : "",
      "minor" : [

      ],
      "rpid" : 0,
      "image" : "http:\/\/i1.douguo.net\/upload\/caiku\/0\/e\/1\/300_0e87efd0c6e11bf20ed12b292d1b6da1.jpeg",
      "rate" : 5,
      "clicks" : "2222079",
      "cookstory" : "蒸蛋糕，鹅黄色的外表，细腻绵软的内涵，清甜的蛋香味，是下午茶☕️不错的选择。用电饭煲蒸出来的蛋糕更加滋润，又不用担心调节火力，非常省心。",
      "rips" : 0,
      "dish_count_text" : "22",
      "share_info" : {
        "image" : "https:\/\/cp1.douguo.com\/upload\/caiku\/0\/e\/1\/0e87efd0c6e11bf20ed12b292d1b6da1.jpeg",
        "s_u" : "http:\/\/m.douguo.com\/cookbook\/2413652.html",
        "s_d" : "绵软细腻的电饭煲蒸蛋糕-会做饭很酷!",
        "mini_program" : [

        ],
        "qr_image" : "",
        "infos" : [
          {
            "channel" : "1",
            "qr_image" : "",
            "object_id" : "2413652",
            "mini_program" : [

            ],
            "s_d" : "#学做饭用豆果美食# 会做饭真是太酷了！我在@豆果美食 分享了【绵软细腻的电饭煲蒸蛋糕-会做饭很酷!】，看着是不是馋到不行呢～快来跟我学学吧！查看图片了解菜谱，（想要获取更多美食就看这https:\/\/m.weibo.cn\/p\/100404i33631）",
            "image" : "https:\/\/cp1.douguo.com\/upload\/caiku\/0\/e\/1\/0e87efd0c6e11bf20ed12b292d1b6da1.jpeg",
            "name" : "绵软细腻的电饭煲蒸蛋糕-会做饭很酷!",
            "s_u" : ""
          },
          {
            "mini_program" : [

            ],
            "qr_image" : "",
            "s_d" : "绵软细腻的电饭煲蒸蛋糕-会做饭很酷!",
            "channel" : "7",
            "s_u" : "http:\/\/m.douguo.com\/cookbook\/2413652.html",
            "name" : "绵软细腻的电饭煲蒸蛋糕-会做饭很酷!",
            "image" : "https:\/\/cp1.douguo.com\/upload\/caiku\/0\/e\/1\/0e87efd0c6e11bf20ed12b292d1b6da1.jpeg",
            "object_id" : "2413652"
          },
          {
            "name" : "绵软细腻的电饭煲蒸蛋糕-会做饭很酷!",
            "qr_image" : "",
            "mini_program" : [

            ],
            "image" : "https:\/\/cp1.douguo.com\/upload\/caiku\/0\/e\/1\/0e87efd0c6e11bf20ed12b292d1b6da1.jpeg",
            "object_id" : "2413652",
            "s_d" : "绵软细腻的电饭煲蒸蛋糕-会做饭很酷!",
            "s_u" : "http:\/\/m.douguo.com\/cookbook\/2413652.html",
            "channel" : "8"
          }
        ],
        "name" : "绵软细腻的电饭煲蒸蛋糕-会做饭很酷!",
        "object_id" : "2413652"
      },
      "related_ads" : [

      ],
      "major" : [
        {
          "note" : "6个",
          "tu" : "https:\/\/m.douguo.com\/ingredients\/鸡蛋\/detailmaterial",
          "title" : "鸡蛋"
        },
        {
          "title" : "低筋面粉",
          "tu" : "https:\/\/m.douguo.com\/ingredients\/低筋面粉\/detailmaterial",
          "note" : "135克"
        },
        {
          "tu" : "https:\/\/m.douguo.com\/ingredients\/牛奶\/detailmaterial",
          "note" : "85克",
          "title" : "牛奶"
        },
        {
          "tu" : "https:\/\/m.douguo.com\/ingredients\/细砂糖\/detailmaterial",
          "note" : "80克",
          "title" : "细砂糖"
        },
        {
          "title" : "玉米油",
          "tu" : "https:\/\/m.douguo.com\/ingredients\/玉米油\/detailmaterial",
          "note" : "75克"
        },
        {
          "note" : "几滴",
          "title" : "柠檬汁",
          "tu" : "https:\/\/m.douguo.com\/ingredients\/柠檬汁\/detailmaterial"
        }
      ],
      "sc" : 0,
      "packages_id" : [

      ],
      "recipe_tags" : [

      ],
      "ipia" : [

      ],
      "cookstorys" : [
        {
          "color" : "",
          "type" : 0,
          "id" : 0,
          "icon" : "",
          "c" : "蒸蛋糕，鹅黄色的外表，细腻绵软的内涵，清甜的蛋香味，是下午茶☕️不错的选择。用电饭煲蒸出来的蛋糕更加滋润，又不用担心调节火力，非常省心。",
          "u" : ""
        }
      ],
      "thumb_path" : "https:\/\/i1.douguo.com\/upload\/caiku\/0\/e\/1\/300_0e87efd0c6e11bf20ed12b292d1b6da1.jpeg",
      "rpst" : "",
      "eu" : "recipes:\/\/www.douguo.com\/postdetail?id=242016",
      "pw" : 600,
      "views_count_text" : "229.5万",
      "recommend_label" : "22人学做",
      "favo_counts_text" : "1.6万",
      "title_ad" : [

      ],
      "brand_day_dsp" : [

      ],
      "notes" : [

      ],
      "author_id" : 24439255,
      "levelid" : 2,
      "rate_show" : 0,
      "bs" : [

      ],
      "cook_time_image" : "https:\/\/i1.douguo.com\/upload\/banner\/1551423815.png",
      "tags" : [

      ],
      "photo_path" : "https:\/\/i1.douguo.com\/upload\/caiku\/0\/e\/1\/600_0e87efd0c6e11bf20ed12b292d1b6da1.jpeg",
      "ipci" : "",
      "ss" : [

      ],
      "comments_count_text" : "70",
      "release_time" : "",
      "rcs" : [

      ],
      "mid_mdsp" : [

      ],
      "rpt" : "",
      "sr" : "",
      "vu" : "",
      "favo_counts" : 15518,
      "rate_count" : 19,
      "first_level_comment_count" : 35,
      "display_ingredient" : 1,
      "author_verified" : 1,
      "su" : "",
      "comments" : [
        "{\n    ac = \"#999999\";\n    at = \"\";\n    ccc = 6;\n    \"child_comments\" =     (\n                {\n            ac = \"#999999\";\n            at = \"\\U5317\\U4eac\\U5e02\";\n            ccc = 0;\n            city = \"\\U5317\\U4eac\\U5e02\";\n            cmc = 2;\n            content =             (\n                                {\n                    c = \" \\U8272\\U62c9\\U6cb9\\Uff0c\\U53ef\\U4ee5\\U7684\";\n                }\n            );\n            ia = 1;\n            id = 7797376;\n            \"ip_address_location\" = \"\";\n            like = 0;\n            \"like_count\" = 0;\n            \"reply_id\" = 7797372;\n            \"reply_user\" =             {\n                \"followers_count_text\" = \"\";\n                id = 23213466;\n                \"is_prime\" = 0;\n                lv = 0;\n                lvl = 1;\n                n = \"\\U3002vpdx\";\n                p = \"\";\n                \"progress_image\" = \"\";\n                \"recipes_count_text\" = \"\";\n                relationship = \"-1\";\n                title = \"\";\n                v = 0;\n                \"verified_image\" = \"\";\n            };\n            \"sticker_icon\" =             (\n            );\n            time = \"2020-03-20 00:16:22\";\n            u =             {\n                \"followers_count_text\" = \"\";\n                id = 24439255;\n                \"is_prime\" = 0;\n                lv = 0;\n                lvl = 6;\n                n = \"Tina\\U7cbe\\U81f4\\U751f\\U6d3b\";\n                p = \"http:\/\/tx1.douguo.net\/upload\/photo\/8\/7\/c\/70_u72854607351707153443.jpeg\";\n                \"progress_image\" = \"\";\n                \"recipes_count_text\" = \"\";\n                relationship = \"-1\";\n                title = \"\";\n                v = 1;\n                \"verified_image\" = \"\";\n            };\n        },\n                {\n            ac = \"#999999\";\n            at = \"\";\n            ccc = 0;\n            city = \"\";\n            cmc = 2;\n            content =             (\n                                {\n                    c = \" \\U53ef\\U4ee5\\U7528\\U82b1\\U751f\\U6cb9\\U5417\";\n                }\n            );\n            ia = 0;\n            id = 7807121;\n            \"ip_address_location\" = \"\";\n            like = 0;\n            \"like_count\" = 0;\n            \"reply_id\" = 7797372;\n            \"reply_user\" =             {\n                \"followers_count_text\" = \"\";\n                id = 23213466;\n                \"is_prime\" = 0;\n                lv = 0;\n                lvl = 1;\n                n = \"\\U3002vpdx\";\n                p = \"\";\n                \"progress_image\" = \"\";\n                \"recipes_count_text\" = \"\";\n                relationship = \"-1\";\n                title = \"\";\n                v = 0;\n                \"verified_image\" = \"\";\n            };\n            \"sticker_icon\" =             (\n            );\n            time = \"2020-03-22 23:17:37\";\n            u =             {\n                \"followers_count_text\" = \"\";\n                id = 18938855;\n                \"is_prime\" = 0;\n                lv = 0;\n                lvl = 1;\n                n = \"\\U5404\\U81ea\\U5b89\\U597dkdip\";\n                p = \"http:\/\/tx1.douguo.net\/upload\/photo\/a\/f\/d\/70_u77653605436847235931.jpg\";\n                \"progress_image\" = \"\";\n                \"recipes_count_text\" = \"\";\n                relationship = \"-1\";\n                title = \"\";\n                v = 0;\n                \"verified_image\" = \"\";\n            };\n        }\n    );\n    city = \"\";\n    cmc = 2;\n    content =     (\n                {\n            c = \"\\U7389\\U7c73\\U6cb9\\U53ef\\U4ee5\\U7528\\U91d1\\U9f99\\U9c7c\\U98df\\U7528\\U6cb9\\U5417\";\n        }\n    );\n    ia = 0;\n    id = 7797372;\n    \"ip_address_location\" = \"\";\n    like = 0;\n    \"like_count\" = 0;\n    \"reply_id\" = 0;\n    \"sticker_icon\" =     (\n    );\n    time = \"2020-03-20 00:12:21\";\n    u =     {\n        \"followers_count_text\" = \"\";\n        id = 23213466;\n        \"is_prime\" = 0;\n        lv = 0;\n        lvl = 1;\n        n = \"\\U3002vpdx\";\n        p = \"\";\n        \"progress_image\" = \"\";\n        \"recipes_count_text\" = \"\";\n        relationship = \"-1\";\n        title = \"\";\n        v = 0;\n        \"verified_image\" = \"\";\n    };\n}",
        "{\n    ac = \"#999999\";\n    at = \"\\U5e38\\U5dde\\U5e02\";\n    ccc = 5;\n    \"child_comments\" =     (\n                {\n            ac = \"#999999\";\n            at = \"\\U5317\\U4eac\\U5e02\";\n            ccc = 0;\n            city = \"\\U5317\\U4eac\\U5e02\";\n            cmc = 2;\n            content =             (\n                                {\n                    c = \" \\U6211\\U6ca1\\U6709\\U9884\\U70ed\\U54e6\";\n                }\n            );\n            ia = 1;\n            id = 7701283;\n            \"ip_address_location\" = \"\";\n            like = 0;\n            \"like_count\" = 0;\n            \"reply_id\" = 7701268;\n            \"reply_user\" =             {\n                \"followers_count_text\" = \"\";\n                id = 20067833;\n                \"is_prime\" = 0;\n                lv = 0;\n                lvl = 1;\n                n = \"\\U4e00\\U7b11\\U800c\\U8fc7ywoc\";\n                p = \"http:\/\/tx1.douguo.net\/upload\/photo\/c\/4\/d\/70_u92422074743854132545.jpg\";\n                \"progress_image\" = \"\";\n                \"recipes_count_text\" = \"\";\n                relationship = \"-1\";\n                title = \"\";\n                v = 0;\n                \"verified_image\" = \"\";\n            };\n            \"sticker_icon\" =             (\n            );\n            time = \"2020-03-01 16:37:24\";\n            u =             {\n                \"followers_count_text\" = \"\";\n                id = 24439255;\n                \"is_prime\" = 0;\n                lv = 0;\n                lvl = 6;\n                n = \"Tina\\U7cbe\\U81f4\\U751f\\U6d3b\";\n                p = \"http:\/\/tx1.douguo.net\/upload\/photo\/8\/7\/c\/70_u72854607351707153443.jpeg\";\n                \"progress_image\" = \"\";\n                \"recipes_count_text\" = \"\";\n                relationship = \"-1\";\n                title = \"\";\n                v = 1;\n                \"verified_image\" = \"\";\n            };\n        },\n                {\n            ac = \"#999999\";\n            at = \"\";\n            ccc = 0;\n            city = \"\";\n            cmc = 2;\n            content =             (\n                                {\n                    c = \" \\U597d\\U7684\\Ud83d\\Ude04\";\n                }\n            );\n            ia = 0;\n            id = 7752879;\n            \"ip_address_location\" = \"\";\n            like = 0;\n            \"like_count\" = 0;\n            \"reply_id\" = 7701283;\n            \"reply_user\" =             {\n                \"followers_count_text\" = \"\";\n                id = 24439255;\n                \"is_prime\" = 0;\n                lv = 0;\n                lvl = 6;\n                n = \"Tina\\U7cbe\\U81f4\\U751f\\U6d3b\";\n                p = \"http:\/\/tx1.douguo.net\/upload\/photo\/8\/7\/c\/70_u72854607351707153443.jpeg\";\n                \"progress_image\" = \"\";\n                \"recipes_count_text\" = \"\";\n                relationship = \"-1\";\n                title = \"\";\n                v = 1;\n                \"verified_image\" = \"\";\n            };\n            \"sticker_icon\" =             (\n            );\n            time = \"2020-03-07 16:45:28\";\n            u =             {\n                \"followers_count_text\" = \"\";\n                id = 20067833;\n                \"is_prime\" = 0;\n                lv = 0;\n                lvl = 1;\n                n = \"\\U4e00\\U7b11\\U800c\\U8fc7ywoc\";\n                p = \"http:\/\/tx1.douguo.net\/upload\/photo\/c\/4\/d\/70_u92422074743854132545.jpg\";\n                \"progress_image\" = \"\";\n                \"recipes_count_text\" = \"\";\n                relationship = \"-1\";\n                title = \"\";\n                v = 0;\n                \"verified_image\" = \"\";\n            };\n        }\n    );\n    city = \"\\U5e38\\U5dde\\U5e02\";\n    cmc = 2;\n    content =     (\n                {\n            c = \"\\U7535\\U996d\\U9505\\U8981\\U9884\\U70ed\\U5417\";\n        }\n    );\n    ia = 0;\n    id = 7701268;\n    \"ip_address_location\" = \"\";\n    like = 0;\n    \"like_count\" = 0;\n    \"reply_id\" = 0;\n    \"sticker_icon\" =     (\n    );\n    time = \"2020-03-01 16:35:20\";\n    u =     {\n        \"followers_count_text\" = \"\";\n        id = 20067833;\n        \"is_prime\" = 0;\n        lv = 0;\n        lvl = 1;\n        n = \"\\U4e00\\U7b11\\U800c\\U8fc7ywoc\";\n        p = \"http:\/\/tx1.douguo.net\/upload\/photo\/c\/4\/d\/70_u92422074743854132545.jpg\";\n        \"progress_image\" = \"\";\n        \"recipes_count_text\" = \"\";\n        relationship = \"-1\";\n        title = \"\";\n        v = 0;\n        \"verified_image\" = \"\";\n    };\n}",
        "{\n    ac = \"#999999\";\n    at = \"\\U868c\\U57e0\\U5e02\";\n    ccc = 2;\n    \"child_comments\" =     (\n                {\n            ac = \"#999999\";\n            at = \"\\U5317\\U4eac\\U5e02\";\n            ccc = 0;\n            city = \"\\U5317\\U4eac\\U5e02\";\n            cmc = 2;\n            content =             (\n                                {\n                    c = \" \\U53ef\\U4ee5\\U7684\\Uff0c\\U8fd9\\U4e24\\U79cd\\U90fd\\U5c5e\\U4e8e\\U65e0\\U8272\\U65e0\\U5473\\U7684\\U6cb9\";\n                }\n            );\n            ia = 1;\n            id = 7685952;\n            \"ip_address_location\" = \"\";\n            like = 0;\n            \"like_count\" = 0;\n            \"reply_id\" = 7685628;\n            \"reply_user\" =             {\n                \"followers_count_text\" = \"\";\n                id = 22751522;\n                \"is_prime\" = 0;\n                lv = 0;\n                lvl = 1;\n                n = \"\\U662f\\U5c0f\\U65f6\\U95f4\\U9e2d\";\n                p = \"http:\/\/tx1.douguo.net\/upload\/photo\/4\/9\/6\/70_u38562192658676105535.jpeg\";\n                \"progress_image\" = \"\";\n                \"recipes_count_text\" = \"\";\n                relationship = \"-1\";\n                title = \"\";\n                v = 0;\n                \"verified_image\" = \"\";\n            };\n            \"sticker_icon\" =             (\n            );\n            time = \"2020-02-27 16:49:18\";\n            u =             {\n                \"followers_count_text\" = \"\";\n                id = 24439255;\n                \"is_prime\" = 0;\n                lv = 0;\n                lvl = 6;\n                n = \"Tina\\U7cbe\\U81f4\\U751f\\U6d3b\";\n                p = \"http:\/\/tx1.douguo.net\/upload\/photo\/8\/7\/c\/70_u72854607351707153443.jpeg\";\n                \"progress_image\" = \"\";\n                \"recipes_count_text\" = \"\";\n                relationship = \"-1\";\n                title = \"\";\n                v = 1;\n                \"verified_image\" = \"\";\n            };\n        },\n                {\n            ac = \"#999999\";\n            at = \"\";\n            ccc = 0;\n            city = \"\";\n            cmc = 2;\n            content =             (\n                                {\n                    c = \" \\U53ef\\U4ee5\\U4e0d\\U653e\\U6cb9\\U5417\";\n                }\n            );\n            ia = 0;\n            id = 7807139;\n            \"ip_address_location\" = \"\";\n            like = 0;\n            \"like_count\" = 0;\n            \"reply_id\" = 7685952;\n            \"reply_user\" =             {\n                \"followers_count_text\" = \"\";\n                id = 24439255;\n                \"is_prime\" = 0;\n                lv = 0;\n                lvl = 6;\n                n = \"Tina\\U7cbe\\U81f4\\U751f\\U6d3b\";\n                p = \"http:\/\/tx1.douguo.net\/upload\/photo\/8\/7\/c\/70_u72854607351707153443.jpeg\";\n                \"progress_image\" = \"\";\n                \"recipes_count_text\" = \"\";\n                relationship = \"-1\";\n                title = \"\";\n                v = 1;\n                \"verified_image\" = \"\";\n            };\n            \"sticker_icon\" =             (\n            );\n            time = \"2020-03-22 23:19:33\";\n            u =             {\n                \"followers_count_text\" = \"\";\n                id = 18938855;\n                \"is_prime\" = 0;\n                lv = 0;\n                lvl = 1;\n                n = \"\\U5404\\U81ea\\U5b89\\U597dkdip\";\n                p = \"http:\/\/tx1.douguo.net\/upload\/photo\/a\/f\/d\/70_u77653605436847235931.jpg\";\n                \"progress_image\" = \"\";\n                \"recipes_count_text\" = \"\";\n                relationship = \"-1\";\n                title = \"\";\n                v = 0;\n                \"verified_image\" = \"\";\n            };\n        }\n    );\n    city = \"\\U868c\\U57e0\\U5e02\";\n    cmc = 2;\n    content =     (\n                {\n            c = \"\\U7389\\U7c73\\U6cb9\\U53ef\\U4ee5\\U7528\\U8272\\U62c9\\U6cb9\\U4ee3\\U66ff\\U5417\\Uff1f\";\n        }\n    );\n    ia = 0;\n    id = 7685628;\n    \"ip_address_location\" = \"\";\n    like = 0;\n    \"like_count\" = 0;\n    \"reply_id\" = 0;\n    \"sticker_icon\" =     (\n    );\n    time = \"2020-02-27 15:41:31\";\n    u =     {\n        \"followers_count_text\" = \"\";\n        id = 22751522;\n        \"is_prime\" = 0;\n        lv = 0;\n        lvl = 1;\n        n = \"\\U662f\\U5c0f\\U65f6\\U95f4\\U9e2d\";\n        p = \"http:\/\/tx1.douguo.net\/upload\/photo\/4\/9\/6\/70_u38562192658676105535.jpeg\";\n        \"progress_image\" = \"\";\n        \"recipes_count_text\" = \"\";\n        relationship = \"-1\";\n        title = \"\";\n        v = 0;\n        \"verified_image\" = \"\";\n    };\n}"
      ],
      "cook_difficulty_image" : "https:\/\/i1.douguo.com\/upload\/banner\/1551424413.png",
      "rdsps" : [

      ],
      "btm_dsp" : [

      ],
      "rsm" : "该功能暂停使用",
      "act_des" : "",
      "comments_count" : 70,
      "create_time" : "2020-02-27 01:06:56",
      "user" : {
        "following_count" : 0,
        "mobile" : "",
        "avatar_medium" : "http:\/\/tx1.douguo.net\/upload\/photo\/8\/7\/c\/140_u72854607351707153443.jpeg",
        "favorites_count" : 0,
        "is_prime" : 0,
        "user_cover" : "",
        "verified_image" : "https:\/\/i1.douguo.com\/upload\/note\/d\/a\/a\/da84247847aebe48d9dd0fcdac88862a.png",
        "lvl" : 6,
        "lv" : 0,
        "favor_diaries_count" : 0,
        "user_photo" : "http:\/\/tx1.douguo.net\/upload\/photo\/8\/7\/c\/70_u72854607351707153443.jpeg",
        "qzone_nick" : "",
        "birthday" : "",
        "weibo_nick" : "",
        "introduction" : "",
        "dishes_count" : 0,
        "point" : 0,
        "qq_weibo_nick" : "",
        "user_large_photo" : "http:\/\/tx1.douguo.net\/upload\/photo\/8\/7\/c\/yuan_u72854607351707153443.jpeg",
        "verified_url" : "https:\/\/m.douguo.com\/user\/prodesc",
        "verified" : 1,
        "progress_image" : "",
        "fc" : 0,
        "sign" : "",
        "user_id" : "24439255",
        "age" : "",
        "coursecount" : 0,
        "nick" : "Tina精致生活",
        "pc" : 0,
        "location" : 0,
        "email" : "",
        "gender" : 2,
        "recipes_count" : 0,
        "regist_time" : "",
        "userid" : "24439255",
        "setted_email" : 0,
        "diaries_count" : 0,
        "followers_count" : 0,
        "subscription_article_count" : 0,
        "subscription" : 0
      },
      "rewarded_video_dsp" : [

      ],
      "dishes" : [

      ],
      "title" : "绵软细腻的电饭煲蒸蛋糕",
      "cook_time" : "1小时以上",
      "author_photo" : "http:\/\/tx1.douguo.net\/upload\/photo\/8\/7\/c\/70_u72854607351707153443.jpeg",
      "original_photo_path" : "http:\/\/i1.douguo.net\/upload\/caiku\/0\/e\/1\/yuan_0e87efd0c6e11bf20ed12b292d1b6da1.jpeg",
      "rrps" : [

      ]
    }
  },
  "state" : "success"
}