{
  "status" : 0,
  "result" : {
    "recipe" : {
      "photo_path" : "https:\/\/i1.douguo.com\/upload\/caiku\/2\/d\/b\/600_1605286274453.jpg",
      "pw" : 960,
      "major" : [
        {
          "title" : "肥牛片",
          "note" : "8片"
        },
        {
          "title" : "蟹肉棒",
          "note" : "5个"
        },
        {
          "title" : "蛋饺",
          "note" : "5个"
        },
        {
          "note" : "5长片",
          "title" : "胡萝卜片"
        },
        {
          "note" : "5长片",
          "tu" : "https:\/\/m.douguo.com\/ingredients\/黄瓜\/detailmaterial",
          "title" : "黄瓜"
        },
        {
          "title" : "家乐菌菇浓汤宝",
          "note" : "1个"
        },
        {
          "tu" : "https:\/\/m.douguo.com\/ingredients\/粉丝\/detailmaterial",
          "title" : "粉丝",
          "note" : "50g"
        },
        {
          "title" : "金针菇",
          "note" : "150g",
          "tu" : "https:\/\/m.douguo.com\/ingredients\/金针菇\/detailmaterial"
        },
        {
          "title" : "鹿茸菇",
          "note" : "100g"
        },
        {
          "title" : "蓬蒿菜",
          "note" : "6棵"
        },
        {
          "note" : "6张",
          "title" : "娃娃菜叶片"
        },
        {
          "title" : "番茄酱或（辣椒酱）",
          "note" : "随意"
        }
      ],
      "recommend_label" : "5268人刚刚收藏过",
      "recipe_list_tags" : [
        {
          "background_border_color" : "",
          "jump_url" : "",
          "text_color" : "#141515",
          "text" : "关注的人",
          "right_image" : "",
          "background_start_color" : "#F4F5F5",
          "background_end_color" : "#F4F5F5"
        },
        {
          "text_color" : "#141515",
          "right_image" : "",
          "background_start_color" : "#F4F5F5",
          "text" : "内容详细",
          "background_border_color" : "",
          "jump_url" : "",
          "background_end_color" : "#F4F5F5"
        }
      ],
      "packages_id" : [

      ],
      "dishes" : [

      ],
      "mid_mdsp" : [

      ],
      "rrpt" : "",
      "recipe_tags" : [

      ],
      "purl" : "",
      "act_des" : "",
      "cook_time" : "30~60分钟",
      "cook_id" : "3012766",
      "recent_comments" : [

      ],
      "cookwares" : [

      ],
      "create_time" : "2020-11-14 07:40:58",
      "brand_day_dsp" : [

      ],
      "sr" : "",
      "vfurl" : "https:\/\/vplay.douguo.com\/lggoVim8b0rB5K86KarefJTE6XA3__640x486.mp4",
      "rpt" : "",
      "v_u" : "",
      "author_photo" : "http:\/\/tx1.douguo.net\/upload\/photo\/f\/4\/a\/70_f49d39d6e6d8901b56001d68d0f6a90a.jpg",
      "author_id" : 7293137,
      "views_count_text" : "22.1万",
      "rate" : 0,
      "thumb_path" : "https:\/\/i1.douguo.com\/upload\/caiku\/2\/d\/b\/300_1605286274453.jpg",
      "recommendation_tag" : "",
      "ipit" : 0,
      "ipoi" : "",
      "share_info" : {
        "object_id" : "3012766",
        "mini_program" : [

        ],
        "name" : "#橄榄中国味 感恩添美味#花田锅-会做饭很酷!",
        "infos" : [
          {
            "mini_program" : [

            ],
            "qr_image" : "",
            "s_u" : "",
            "channel" : "1",
            "name" : "#橄榄中国味 感恩添美味#花田锅-会做饭很酷!",
            "object_id" : "3012766",
            "s_d" : "#学做饭用豆果美食# 会做饭真是好酷啊！我在@豆果美食 分享了【#橄榄中国味 感恩添美味#花田锅-会做饭很酷!】，快来康康我这道菜做的怎么样～美味停不下来！查看图片了解菜谱（你喜欢的美食都在这里！https:\/\/m.weibo.cn\/p\/100404i33631）",
            "image" : "https:\/\/cp1.douguo.com\/upload\/caiku\/2\/d\/b\/1605286274453.jpg"
          },
          {
            "name" : "#橄榄中国味 感恩添美味#花田锅-会做饭很酷!",
            "qr_image" : "",
            "channel" : "7",
            "mini_program" : [

            ],
            "s_d" : "#橄榄中国味 感恩添美味#花田锅-会做饭很酷!",
            "image" : "https:\/\/cp1.douguo.com\/upload\/caiku\/2\/d\/b\/1605286274453.jpg",
            "s_u" : "http:\/\/m.douguo.com\/cookbook\/3012766.html",
            "object_id" : "3012766"
          },
          {
            "qr_image" : "",
            "name" : "#橄榄中国味 感恩添美味#花田锅-会做饭很酷!",
            "channel" : "8",
            "s_u" : "http:\/\/m.douguo.com\/cookbook\/3012766.html",
            "image" : "https:\/\/cp1.douguo.com\/upload\/caiku\/2\/d\/b\/1605286274453.jpg",
            "object_id" : "3012766",
            "mini_program" : [

            ],
            "s_d" : "#橄榄中国味 感恩添美味#花田锅-会做饭很酷!"
          }
        ],
        "image" : "https:\/\/cp1.douguo.com\/upload\/caiku\/2\/d\/b\/1605286274453.jpg",
        "qr_image" : "",
        "s_d" : "#橄榄中国味 感恩添美味#花田锅-会做饭很酷!",
        "s_u" : "http:\/\/m.douguo.com\/cookbook\/3012766.html"
      },
      "rate_show" : 0,
      "vc" : "220591",
      "favo_counts" : 5268,
      "dish_count_text" : "",
      "cook_difficulty" : "配菜(中级)",
      "first_level_comment_count" : 1,
      "ipt" : "",
      "comments_count" : 2,
      "rate_count" : 0,
      "thumb_height" : 0,
      "ipci" : "",
      "cook_time_image" : "https:\/\/i1.douguo.com\/upload\/banner\/1551424318.png",
      "top_mdsp" : [

      ],
      "ipurl" : "",
      "sc" : 0,
      "image" : "http:\/\/i1.douguo.net\/upload\/caiku\/2\/d\/b\/300_1605286274453.jpg",
      "vu" : "https:\/\/vplay.douguo.com\/lggoVim8b0rB5K86KarefJTE6XA3",
      "ipia" : [

      ],
      "rips" : 0,
      "rewarded_video_dsp" : [

      ],
      "display_ingredient" : 1,
      "rdsps" : [

      ],
      "tags" : [

      ],
      "minor" : [

      ],
      "ph" : 726,
      "ss" : [

      ],
      "guide_image" : "",
      "hqu" : "recipes:\/\/www.douguo.com\/notedetail?id=21162253",
      "cookstep" : [
        {
          "image" : "https:\/\/i1.douguo.com\/upload\/caiku\/b\/6\/3\/b671a5cf5cce780d238cd944c8b8a7e3.jpg",
          "position" : 1,
          "thumb" : "https:\/\/i1.douguo.com\/upload\/caiku\/b\/6\/3\/140_b671a5cf5cce780d238cd944c8b8a7e3.jpg",
          "image_height" : 600,
          "image_width" : 800,
          "content" : "准备好食材",
          "frame" : "-1"
        },
        {
          "frame" : "-1",
          "thumb" : "https:\/\/i1.douguo.com\/upload\/caiku\/5\/5\/d\/140_55532a2bdf8c155669a00d215dc6732d.jpg",
          "content" : "砂锅一个，把白菜铺上",
          "position" : 2,
          "image" : "https:\/\/i1.douguo.com\/upload\/caiku\/5\/5\/d\/55532a2bdf8c155669a00d215dc6732d.jpg",
          "image_height" : 960,
          "image_width" : 1280
        },
        {
          "image_height" : 600,
          "frame" : "-1",
          "thumb" : "https:\/\/i1.douguo.com\/upload\/caiku\/5\/2\/0\/140_526e8e548a02d4dcab77fa6c6eb765c0.jpg",
          "image" : "https:\/\/i1.douguo.com\/upload\/caiku\/5\/2\/0\/526e8e548a02d4dcab77fa6c6eb765c0.jpg",
          "image_width" : 800,
          "position" : 3,
          "content" : "加入粉丝"
        },
        {
          "image_width" : 800,
          "content" : "把黄瓜卷上蟹肉棒，胡萝卜和肥牛片卷上金针菇，按照自己喜欢的摆盘好所有食材。",
          "position" : 4,
          "image" : "https:\/\/i1.douguo.com\/upload\/caiku\/8\/e\/0\/8eb47977792a11b799522d5887c84150.jpg",
          "thumb" : "https:\/\/i1.douguo.com\/upload\/caiku\/8\/e\/0\/140_8eb47977792a11b799522d5887c84150.jpg",
          "image_height" : 600,
          "frame" : "-1"
        },
        {
          "content" : "准备家乐菌菇浓汤宝用热水调匀倒入锅内。",
          "image" : "https:\/\/i1.douguo.com\/upload\/caiku\/3\/9\/9\/399906d24de4713da916b01c56dfb6f9.jpg",
          "position" : 5,
          "frame" : "-1",
          "image_width" : 800,
          "image_height" : 600,
          "thumb" : "https:\/\/i1.douguo.com\/upload\/caiku\/3\/9\/9\/140_399906d24de4713da916b01c56dfb6f9.jpg"
        },
        {
          "frame" : "-1",
          "image" : "https:\/\/i1.douguo.com\/upload\/caiku\/f\/8\/4\/f82547f323c00b14f40b318fa725e9d4.jpg",
          "thumb" : "https:\/\/i1.douguo.com\/upload\/caiku\/f\/8\/4\/140_f82547f323c00b14f40b318fa725e9d4.jpg",
          "image_width" : 800,
          "image_height" : 600,
          "content" : "水放到八分满，煮到所有食材熟就可以",
          "position" : 6
        },
        {
          "image" : "https:\/\/i1.douguo.com\/upload\/caiku\/4\/8\/e\/48702c52ad38858e181a0ec5766712de.jpg",
          "image_width" : 1280,
          "frame" : "-1",
          "position" : 7,
          "image_height" : 960,
          "thumb" : "https:\/\/i1.douguo.com\/upload\/caiku\/4\/8\/e\/140_48702c52ad38858e181a0ec5766712de.jpg",
          "content" : "蘸上自己喜欢的酱汁。"
        }
      ],
      "original_photo_path" : "http:\/\/i1.douguo.net\/upload\/caiku\/2\/d\/b\/yuan_1605286274453.jpg",
      "story_dsp" : [

      ],
      "title_ad" : [

      ],
      "title" : "花田锅",
      "bs" : [

      ],
      "user" : {
        "lv" : 0,
        "diaries_count" : 0,
        "email" : "",
        "coursecount" : 0,
        "progress_image" : "",
        "qzone_nick" : "",
        "dishes_count" : 0,
        "user_cover" : "",
        "favor_diaries_count" : 0,
        "pc" : 0,
        "user_large_photo" : "http:\/\/tx1.douguo.net\/upload\/photo\/f\/4\/a\/yuan_f49d39d6e6d8901b56001d68d0f6a90a.jpg",
        "lvl" : 7,
        "user_id" : "7293137",
        "birthday" : "",
        "qq_weibo_nick" : "",
        "regist_time" : "",
        "mobile" : "",
        "recipes_count" : 0,
        "setted_email" : 0,
        "age" : "",
        "subscription" : 0,
        "verified" : 1,
        "verified_image" : "https:\/\/i1.douguo.com\/upload\/note\/d\/a\/a\/da84247847aebe48d9dd0fcdac88862a.png",
        "point" : 0,
        "subscription_article_count" : 0,
        "weibo_nick" : "",
        "is_prime" : 0,
        "favorites_count" : 0,
        "user_photo" : "http:\/\/tx1.douguo.net\/upload\/photo\/f\/4\/a\/70_f49d39d6e6d8901b56001d68d0f6a90a.jpg",
        "nick" : "吴妈厨房",
        "following_count" : 0,
        "gender" : 2,
        "location" : 0,
        "verified_url" : "https:\/\/m.douguo.com\/user\/prodesc",
        "sign" : "",
        "avatar_medium" : "http:\/\/tx1.douguo.net\/upload\/photo\/f\/4\/a\/140_f49d39d6e6d8901b56001d68d0f6a90a.jpg",
        "fc" : 0,
        "followers_count" : 0,
        "userid" : "7293137",
        "introduction" : ""
      },
      "ecs" : 1,
      "rpid" : 0,
      "rrps" : [

      ],
      "su" : "",
      "cookstory" : "家乐菌菇浓汤宝很鲜美，美食和颜值并存的一锅汤。",
      "old_comments" : [

      ],
      "author" : "吴妈厨房",
      "comments_count_text" : "2",
      "favo_counts_text" : "5268",
      "cook_difficulty_image" : "https:\/\/i1.douguo.com\/upload\/banner\/1551424413.png",
      "rpst" : "",
      "rsm" : "该功能暂停使用",
      "tips" : "胡萝卜用刨刀刨长片后，用盐腌制十分钟，让胡萝卜软，这样就可以卷起食物。",
      "clicks" : "218818",
      "related_ads" : [

      ],
      "cookstorys" : [
        {
          "icon" : "",
          "c" : "家乐菌菇浓汤宝很鲜美，美食和颜值并存的一锅汤。",
          "color" : "",
          "u" : "",
          "id" : 0,
          "type" : 0
        },
        {
          "type" : 0,
          "u" : "",
          "id" : 0,
          "color" : "",
          "c" : "\n参与活动:",
          "icon" : ""
        },
        {
          "id" : 0,
          "c" : "#全年包油 | 橄榄中国味，感恩添美味#",
          "u" : "https:\/\/m.douguo.com\/activity\/ncpzj\/detail\/2837?isapp=1&open=0&_vs=1000300&&dg_refreshkey=publishnote",
          "icon" : "",
          "type" : 0
        }
      ],
      "ssu" : "",
      "btm_dsp" : [

      ],
      "hq" : 1,
      "author_verified" : 1,
      "comments" : [
        "{\n    ac = \"#999999\";\n    at = \"\";\n    ccc = 1;\n    \"child_comments\" =     (\n                {\n            ac = \"#999999\";\n            at = \"\\U82cf\\U5dde\\U5e02\";\n            ccc = 0;\n            city = \"\\U82cf\\U5dde\\U5e02\";\n            cmc = 2;\n            content =             (\n                                {\n                    c = \" \\Ud83d\\Ude0b\\Ud83d\\Ude0b\\Ud83d\\Ude0b\\Ud83c\\Udf39\\Ud83c\\Udf39\\Ud83c\\Udf39\\Ud83c\\Udf39\";\n                }\n            );\n            ia = 1;\n            id = 8343501;\n            \"ip_address_location\" = \"\";\n            like = 0;\n            \"like_count\" = 0;\n            \"reply_id\" = 8343449;\n            \"reply_user\" =             {\n                \"followers_count_text\" = \"\";\n                id = 23554583;\n                \"is_prime\" = 0;\n                lv = 0;\n                lvl = 4;\n                n = \"\\U8c46\\U7c89224113dczm\";\n                p = \"http:\/\/tx1.douguo.net\/upload\/photo\/e\/9\/6\/70_u1710717269400329150212.jpg\";\n                \"progress_image\" = \"\";\n                \"recipes_count_text\" = \"\";\n                relationship = \"-1\";\n                title = \"\";\n                v = 0;\n                \"verified_image\" = \"\";\n            };\n            \"sticker_icon\" =             (\n            );\n            time = \"2020-11-14 08:58:32\";\n            u =             {\n                \"followers_count_text\" = \"\";\n                id = 7293137;\n                \"is_prime\" = 0;\n                lv = 0;\n                lvl = 7;\n                n = \"\\U5434\\U5988\\U53a8\\U623f\";\n                p = \"http:\/\/tx1.douguo.net\/upload\/photo\/f\/4\/a\/70_f49d39d6e6d8901b56001d68d0f6a90a.jpg\";\n                \"progress_image\" = \"\";\n                \"recipes_count_text\" = \"\";\n                relationship = \"-1\";\n                title = \"\";\n                v = 1;\n                \"verified_image\" = \"\";\n            };\n        }\n    );\n    city = \"\";\n    cmc = 2;\n    content =     (\n                {\n            c = \"\\U5927\\U534a\\U591c\\U7684\\U770b\\U5230\\Uff0c\\U53e3\\U6c34\\U6d41\\U4e00\\U5e8a\";\n        }\n    );\n    ia = 0;\n    id = 8343449;\n    \"ip_address_location\" = \"\";\n    like = 0;\n    \"like_count\" = 0;\n    \"reply_id\" = 0;\n    \"sticker_icon\" =     (\n    );\n    time = \"2020-11-14 07:42:05\";\n    u =     {\n        \"followers_count_text\" = \"\";\n        id = 23554583;\n        \"is_prime\" = 0;\n        lv = 0;\n        lvl = 4;\n        n = \"\\U8c46\\U7c89224113dczm\";\n        p = \"http:\/\/tx1.douguo.net\/upload\/photo\/e\/9\/6\/70_u1710717269400329150212.jpg\";\n        \"progress_image\" = \"\";\n        \"recipes_count_text\" = \"\";\n        relationship = \"-1\";\n        title = \"\";\n        v = 0;\n        \"verified_image\" = \"\";\n    };\n}"
      ],
      "event" : {
        "url" : "https:\/\/m.douguo.com\/activity\/ncpzj\/detail\/2837?isapp=1&open=0&_vs=1000300&&dg_refreshkey=publishnote",
        "id" : 2837,
        "name" : "全年包油 | 橄榄中国味，感恩添美味"
      },
      "rcs" : [

      ],
      "recommended" : 0,
      "levelid" : 2,
      "collect_status" : 0,
      "dish_count" : 0,
      "eu" : "recipes:\/\/www.douguo.com\/postdetail?id=242016",
      "release_time" : "",
      "notes" : [

      ]
    }
  },
  "state" : "success"
}