{
  "state" : "success",
  "result" : {
    "recipe" : {
      "ipt" : "",
      "cook_id" : "1568222",
      "eu" : "recipes:\/\/www.douguo.com\/postdetail?id=242016",
      "author_id" : 10493123,
      "btm_dsp" : [

      ],
      "ipurl" : "",
      "sr" : "",
      "comments" : [
        "{\n    ac = \"#999999\";\n    at = \"\";\n    ccc = 2;\n    \"child_comments\" =     (\n                {\n            ac = \"#999999\";\n            at = \"\";\n            ccc = 0;\n            city = \"\";\n            cmc = 2;\n            content =             (\n                                {\n                    c = \"  \\U5f88\\U7b80\\U5355\\U7684\\U4eb2\\U5f88\\U5bb9\\U6613\\U505a\\U7684\\U3002\";\n                }\n            );\n            ia = 1;\n            id = 4848619;\n            \"ip_address_location\" = \"\";\n            like = 0;\n            \"like_count\" = 0;\n            \"reply_id\" = 4848587;\n            \"reply_user\" =             {\n                \"followers_count_text\" = \"\";\n                id = 18479993;\n                \"is_prime\" = 0;\n                lv = 0;\n                lvl = 2;\n                n = Triskit;\n                p = \"http:\/\/tx1.douguo.net\/upload\/photo\/d\/9\/6\/70_u05128124681403092523.jpg\";\n                \"progress_image\" = \"\";\n                \"recipes_count_text\" = \"\";\n                relationship = \"-1\";\n                title = \"\";\n                v = 0;\n                \"verified_image\" = \"\";\n            };\n            \"sticker_icon\" =             (\n            );\n            time = \"2017-06-20 17:13:35\";\n            u =             {\n                \"followers_count_text\" = \"\";\n                id = 10493123;\n                \"is_prime\" = 0;\n                lv = 0;\n                lvl = 7;\n                n = \"\\U7f57\\U4e01\\U4e01\";\n                p = \"http:\/\/tx1.douguo.net\/upload\/photo\/c\/6\/9\/70_u37492852182601094716.jpg\";\n                \"progress_image\" = \"\";\n                \"recipes_count_text\" = \"\";\n                relationship = \"-1\";\n                title = \"\";\n                v = 0;\n                \"verified_image\" = \"\";\n            };\n        },\n                {\n            ac = \"#999999\";\n            at = \"\";\n            ccc = 0;\n            city = \"\";\n            cmc = 2;\n            content =             (\n                                {\n                    c = \"  \\U52a0\\U6cb9\\U2196(^\\U03c9^)\\U2197\";\n                }\n            );\n            ia = 1;\n            id = 4848620;\n            \"ip_address_location\" = \"\";\n            like = 0;\n            \"like_count\" = 0;\n            \"reply_id\" = 4848587;\n            \"reply_user\" =             {\n                \"followers_count_text\" = \"\";\n                id = 18479993;\n                \"is_prime\" = 0;\n                lv = 0;\n                lvl = 2;\n                n = Triskit;\n                p = \"http:\/\/tx1.douguo.net\/upload\/photo\/d\/9\/6\/70_u05128124681403092523.jpg\";\n                \"progress_image\" = \"\";\n                \"recipes_count_text\" = \"\";\n                relationship = \"-1\";\n                title = \"\";\n                v = 0;\n                \"verified_image\" = \"\";\n            };\n            \"sticker_icon\" =             (\n            );\n            time = \"2017-06-20 17:13:40\";\n            u =             {\n                \"followers_count_text\" = \"\";\n                id = 10493123;\n                \"is_prime\" = 0;\n                lv = 0;\n                lvl = 7;\n                n = \"\\U7f57\\U4e01\\U4e01\";\n                p = \"http:\/\/tx1.douguo.net\/upload\/photo\/c\/6\/9\/70_u37492852182601094716.jpg\";\n                \"progress_image\" = \"\";\n                \"recipes_count_text\" = \"\";\n                relationship = \"-1\";\n                title = \"\";\n                v = 0;\n                \"verified_image\" = \"\";\n            };\n        }\n    );\n    city = \"\";\n    cmc = 2;\n    content =     (\n                {\n            c = \"\\U8fd9\\U4e2a\\U4e5f\\U592a\\U8d5e\\U4e86\\U5427\\Uff0c\\U6211\\U4e5f\\U53bb\\U505a\\Uff0c\\U5c31\\U662f\\U4e0d\\U77e5\\U9053\\U80fd\\U4e0d\\U80fd\\U505a\\U597d\";\n        }\n    );\n    ia = 0;\n    id = 4848587;\n    \"ip_address_location\" = \"\";\n    like = 0;\n    \"like_count\" = 0;\n    \"reply_id\" = 0;\n    \"sticker_icon\" =     (\n    );\n    time = \"2017-06-20 17:07:05\";\n    u =     {\n        \"followers_count_text\" = \"\";\n        id = 18479993;\n        \"is_prime\" = 0;\n        lv = 0;\n        lvl = 2;\n        n = Triskit;\n        p = \"http:\/\/tx1.douguo.net\/upload\/photo\/d\/9\/6\/70_u05128124681403092523.jpg\";\n        \"progress_image\" = \"\";\n        \"recipes_count_text\" = \"\";\n        relationship = \"-1\";\n        title = \"\";\n        v = 0;\n        \"verified_image\" = \"\";\n    };\n}"
      ],
      "hq" : 0,
      "tags" : [

      ],
      "author" : "罗丁丁",
      "vu" : "",
      "story_dsp" : [

      ],
      "create_time" : "2017-06-20 21:50:07",
      "release_time" : "",
      "rewarded_video_dsp" : [

      ],
      "recommend_label" : "3.0万人看过",
      "dish_count_text" : "",
      "rcs" : [

      ],
      "cook_time" : "",
      "thumb_path" : "https:\/\/i1.douguo.com\/upload\/caiku\/7\/9\/4\/300_79a11cd090720a39d64f2d7b2a7c9b14.jpg",
      "rrps" : [

      ],
      "original_photo_path" : "http:\/\/i1.douguo.net\/upload\/caiku\/7\/9\/4\/yuan_79a11cd090720a39d64f2d7b2a7c9b14.jpg",
      "ipit" : 0,
      "author_photo" : "http:\/\/tx1.douguo.net\/upload\/photo\/c\/6\/9\/70_u37492852182601094716.jpg",
      "su" : "",
      "comments_count" : 3,
      "dishes" : [

      ],
      "rate" : 0,
      "title" : "烤青橘子",
      "act_des" : "",
      "v_u" : "",
      "vfurl" : "",
      "notes" : [

      ],
      "cookstory" : "烤青橘蜂蜜饮，话痰镇咳，有痰寒咳不用怕。给宝宝止咳的小偏方……效果不错哦！我已是第三次烤烤青橘子了。",
      "old_comments" : [

      ],
      "favo_counts_text" : "116",
      "minor" : [

      ],
      "rpt" : "",
      "cookstorys" : [
        {
          "type" : 0,
          "id" : 0,
          "u" : "",
          "c" : "烤青橘蜂蜜饮，话痰镇咳，有痰寒咳不用怕。给宝宝止咳的小偏方……效果不错哦！我已是第三次烤烤青橘子了。",
          "icon" : "",
          "color" : ""
        }
      ],
      "ipia" : [

      ],
      "rate_show" : 0,
      "pw" : 720,
      "author_verified" : 0,
      "rpid" : 0,
      "display_ingredient" : 1,
      "bs" : [

      ],
      "comments_count_text" : "3",
      "related_ads" : [

      ],
      "clicks" : "26133",
      "rsm" : "该功能暂停使用",
      "user" : {
        "user_id" : "10493123",
        "recipes_count" : 0,
        "regist_time" : "",
        "verified" : 0,
        "pc" : 0,
        "age" : "",
        "user_large_photo" : "http:\/\/tx1.douguo.net\/upload\/photo\/c\/6\/9\/yuan_u37492852182601094716.jpg",
        "lvl" : 7,
        "lv" : 0,
        "location" : 0,
        "userid" : "10493123",
        "qq_weibo_nick" : "",
        "fc" : 0,
        "introduction" : "",
        "nick" : "罗丁丁",
        "point" : 0,
        "progress_image" : "",
        "birthday" : "",
        "coursecount" : 0,
        "setted_email" : 0,
        "mobile" : "",
        "subscription_article_count" : 0,
        "weibo_nick" : "",
        "gender" : 2,
        "following_count" : 0,
        "favorites_count" : 0,
        "diaries_count" : 0,
        "user_cover" : "",
        "qzone_nick" : "",
        "subscription" : 0,
        "verified_url" : "https:\/\/m.douguo.com\/user\/prodesc",
        "sign" : "",
        "dishes_count" : 0,
        "followers_count" : 0,
        "is_prime" : 0,
        "user_photo" : "http:\/\/tx1.douguo.net\/upload\/photo\/c\/6\/9\/70_u37492852182601094716.jpg",
        "favor_diaries_count" : 0,
        "email" : "",
        "verified_image" : "",
        "avatar_medium" : "http:\/\/tx1.douguo.net\/upload\/photo\/c\/6\/9\/140_u37492852182601094716.jpg"
      },
      "views_count_text" : "3.0万",
      "image" : "http:\/\/i1.douguo.net\/upload\/caiku\/7\/9\/4\/300_79a11cd090720a39d64f2d7b2a7c9b14.jpg",
      "guide_image" : "",
      "favo_counts" : 116,
      "title_ad" : [

      ],
      "cook_difficulty" : "",
      "dish_count" : 0,
      "ssu" : "",
      "sc" : 0,
      "thumb_height" : 0,
      "mid_mdsp" : [

      ],
      "recommended" : 0,
      "brand_day_dsp" : [

      ],
      "photo_path" : "https:\/\/i1.douguo.com\/upload\/caiku\/7\/9\/4\/600_79a11cd090720a39d64f2d7b2a7c9b14.jpg",
      "top_mdsp" : [

      ],
      "rpst" : "",
      "ph" : 720,
      "ss" : [

      ],
      "ipoi" : "",
      "recent_comments" : [

      ],
      "ipci" : "",
      "tips" : "喝蜂蜜尽量不要用不锈钢调羹用木勺是最好最健康的……",
      "cook_time_image" : "",
      "levelid" : 3,
      "packages_id" : [

      ],
      "major" : [
        {
          "title" : "青桔子",
          "note" : "4个"
        },
        {
          "title" : "锡纸",
          "note" : "4张"
        },
        {
          "tu" : "https:\/\/m.douguo.com\/ingredients\/蜂蜜\/detailmaterial",
          "note" : "四勺",
          "title" : "蜂蜜"
        },
        {
          "note" : "7克",
          "title" : "洗洁精"
        }
      ],
      "recipe_list_tags" : [
        {
          "text_color" : "#141515",
          "jump_url" : "",
          "right_image" : "",
          "background_end_color" : "#F4F5F5",
          "background_border_color" : "",
          "text" : "关注的人",
          "background_start_color" : "#F4F5F5"
        },
        {
          "background_start_color" : "#F4F5F5",
          "right_image" : "",
          "jump_url" : "",
          "text_color" : "#141515",
          "background_border_color" : "",
          "background_end_color" : "#F4F5F5",
          "text" : "内容详细"
        }
      ],
      "share_info" : {
        "mini_program" : [

        ],
        "name" : "烤青橘子-会做饭很酷!",
        "image" : "https:\/\/cp1.douguo.com\/upload\/caiku\/7\/9\/4\/79a11cd090720a39d64f2d7b2a7c9b14.jpg",
        "infos" : [
          {
            "object_id" : "1568222",
            "s_u" : "",
            "s_d" : "#学做饭用豆果美食# 我在@豆果美食 分享了【烤青橘子-会做饭很酷!】，这菜真的很好吃，而且做法简单不难学，还不快来跟我学～查看图片了解菜谱（每天限量免费课程，想跟大师学厨艺就来这https:\/\/m.weibo.cn\/p\/100404i33631）#会做饭很酷# ",
            "mini_program" : [

            ],
            "qr_image" : "",
            "channel" : "1",
            "name" : "烤青橘子-会做饭很酷!",
            "image" : "https:\/\/cp1.douguo.com\/upload\/caiku\/7\/9\/4\/79a11cd090720a39d64f2d7b2a7c9b14.jpg"
          },
          {
            "mini_program" : [

            ],
            "image" : "https:\/\/cp1.douguo.com\/upload\/caiku\/7\/9\/4\/79a11cd090720a39d64f2d7b2a7c9b14.jpg",
            "s_u" : "http:\/\/m.douguo.com\/cookbook\/1568222.html",
            "qr_image" : "",
            "name" : "烤青橘子-会做饭很酷!",
            "channel" : "7",
            "s_d" : "烤青橘子-会做饭很酷!",
            "object_id" : "1568222"
          },
          {
            "channel" : "8",
            "mini_program" : [

            ],
            "image" : "https:\/\/cp1.douguo.com\/upload\/caiku\/7\/9\/4\/79a11cd090720a39d64f2d7b2a7c9b14.jpg",
            "s_u" : "http:\/\/m.douguo.com\/cookbook\/1568222.html",
            "object_id" : "1568222",
            "qr_image" : "",
            "name" : "烤青橘子-会做饭很酷!",
            "s_d" : "烤青橘子-会做饭很酷!"
          }
        ],
        "s_d" : "烤青橘子-会做饭很酷!",
        "object_id" : "1568222",
        "qr_image" : "",
        "s_u" : "http:\/\/m.douguo.com\/cookbook\/1568222.html"
      },
      "rdsps" : [

      ],
      "cookwares" : [

      ],
      "rate_count" : 0,
      "rips" : 0,
      "vc" : "29705",
      "recipe_tags" : [

      ],
      "ecs" : 0,
      "first_level_comment_count" : 1,
      "rrpt" : "",
      "recommendation_tag" : "",
      "purl" : "",
      "hqu" : "recipes:\/\/www.douguo.com\/notedetail?id=21162253",
      "collect_status" : 0,
      "cook_difficulty_image" : "",
      "cookstep" : [
        {
          "image_width" : 720,
          "position" : 1,
          "image" : "https:\/\/i1.douguo.com\/upload\/caiku\/a\/8\/c\/a86c1806272fbeb1faefabf70d9b551c.jpg",
          "thumb" : "https:\/\/i1.douguo.com\/upload\/caiku\/a\/8\/c\/140_a86c1806272fbeb1faefabf70d9b551c.jpg",
          "image_height" : 720,
          "content" : "准备好4个青橘子，橘子最好要黄皮的会好点比较甜，这个时候没有，用青橘也可以。",
          "frame" : "-1"
        },
        {
          "thumb" : "https:\/\/i1.douguo.com\/upload\/caiku\/7\/4\/a\/140_74996d3c2ad03523435965cc4f4a0b2a.jpg",
          "image_height" : 720,
          "frame" : "-1",
          "position" : 2,
          "image" : "https:\/\/i1.douguo.com\/upload\/caiku\/7\/4\/a\/74996d3c2ad03523435965cc4f4a0b2a.jpg",
          "content" : "事先用洗洁精洗会干净点",
          "image_width" : 720
        },
        {
          "image_height" : 959,
          "content" : "用纸巾擦干用铝箔包好",
          "image_width" : 720,
          "image" : "https:\/\/i1.douguo.com\/upload\/caiku\/5\/8\/f\/580c55862af109f55d3b5ecf3de4713f.jpg",
          "frame" : "-1",
          "thumb" : "https:\/\/i1.douguo.com\/upload\/caiku\/5\/8\/f\/140_580c55862af109f55d3b5ecf3de4713f.jpg",
          "position" : 3
        },
        {
          "position" : 4,
          "image_height" : 959,
          "image" : "https:\/\/i1.douguo.com\/upload\/caiku\/f\/f\/b\/ff1ede531b8b1b5238b99139b6364ceb.jpg",
          "thumb" : "https:\/\/i1.douguo.com\/upload\/caiku\/f\/f\/b\/140_ff1ede531b8b1b5238b99139b6364ceb.jpg",
          "frame" : "-1",
          "image_width" : 720,
          "content" : "事先美的烤箱150度上下管预热5分钟"
        },
        {
          "frame" : "-1",
          "position" : 5,
          "image_width" : 720,
          "thumb" : "https:\/\/i1.douguo.com\/upload\/caiku\/7\/8\/d\/140_784f562e83b924ea256b7249b297c9cd.jpg",
          "image_height" : 959,
          "image" : "https:\/\/i1.douguo.com\/upload\/caiku\/7\/8\/d\/784f562e83b924ea256b7249b297c9cd.jpg",
          "content" : "预热好美的烤箱后青橘送入烤23分钟150温度上下管"
        },
        {
          "thumb" : "https:\/\/i1.douguo.com\/upload\/caiku\/3\/d\/9\/140_3dda3b441280d80e265445ab69916479.jpg",
          "frame" : "-1",
          "content" : "烤出来的橘子苦干苦干的加4小勺蜂蜜立马变甜大宝爱喝。他还没咳嗽事先給他做预防",
          "image_height" : 959,
          "image" : "https:\/\/i1.douguo.com\/upload\/caiku\/3\/d\/9\/3dda3b441280d80e265445ab69916479.jpg",
          "image_width" : 720,
          "position" : 6
        },
        {
          "image" : "https:\/\/i1.douguo.com\/upload\/caiku\/6\/1\/b\/618023077e5b0c80dc809a08910c62bb.jpg",
          "position" : 7,
          "content" : "我直接把橘子调羹压汁手也一起挤",
          "image_height" : 959,
          "thumb" : "https:\/\/i1.douguo.com\/upload\/caiku\/6\/1\/b\/140_618023077e5b0c80dc809a08910c62bb.jpg",
          "frame" : "-1",
          "image_width" : 720
        },
        {
          "image_height" : 959,
          "position" : 8,
          "image_width" : 720,
          "thumb" : "https:\/\/i1.douguo.com\/upload\/caiku\/a\/e\/8\/140_ae987ffbdd7bc2003ece6e95f2aefd08.jpg",
          "content" : "搅拌均匀即可立马饮用味道好级了，蜂蜜最好用木勺哦",
          "image" : "https:\/\/i1.douguo.com\/upload\/caiku\/a\/e\/8\/ae987ffbdd7bc2003ece6e95f2aefd08.jpg",
          "frame" : "-1"
        },
        {
          "content" : "成品图。止咳蜂蜜橘子汁",
          "image" : "https:\/\/i1.douguo.com\/upload\/caiku\/8\/b\/d\/8b0421327fc4c8f5ed944f280407a35d.jpg",
          "position" : 9,
          "frame" : "-1",
          "image_width" : 720,
          "image_height" : 720,
          "thumb" : "https:\/\/i1.douguo.com\/upload\/caiku\/8\/b\/d\/140_8b0421327fc4c8f5ed944f280407a35d.jpg"
        }
      ]
    }
  },
  "status" : 0
}