{
  "status" : 0,
  "state" : "success",
  "result" : {
    "recipe" : {
      "cookstory" : "很多时候不想吃饭，又怕不健康，就会起来煮个泡面，想着怕胖营养均衡一点，就加了虾仁和菠菜哈哈，就变成了这个了。",
      "major" : [
        {
          "note" : "1包",
          "tu" : "https:\/\/m.douguo.com\/ingredients\/方便面\/detailmaterial",
          "title" : "方便面"
        },
        {
          "note" : "10个",
          "title" : "虾仁",
          "tu" : "https:\/\/m.douguo.com\/ingredients\/虾仁\/detailmaterial"
        },
        {
          "title" : "菠菜",
          "note" : "1把",
          "tu" : "https:\/\/m.douguo.com\/ingredients\/菠菜\/detailmaterial"
        },
        {
          "note" : "2勺",
          "title" : "珍选捞汁"
        }
      ],
      "release_time" : "",
      "v_u" : "",
      "sr" : "",
      "hq" : 1,
      "related_ads" : [

      ],
      "su" : "",
      "ipci" : "",
      "share_info" : {
        "mini_program" : [

        ],
        "infos" : [
          {
            "object_id" : "3267076",
            "s_d" : "#学做饭用豆果美食# 会做饭真是太酷了！我在@豆果美食 分享了【#夏日餐桌降温企划#拌个青菜方便面-会做饭很酷!】，这道菜真的神仙美味！喜欢的一定要试试绝对不会错的！～查看图片了解菜谱（快来点击https:\/\/m.weibo.cn\/p\/100404i33631和我一起修炼厨艺吧）",
            "s_u" : "",
            "qr_image" : "",
            "mini_program" : [

            ],
            "name" : "#夏日餐桌降温企划#拌个青菜方便面-会做饭很酷!",
            "image" : "https:\/\/cp1.douguo.com\/upload\/caiku\/6\/9\/e\/69d03f81ffc1f7af4a001c83614a0a8e.jpg",
            "channel" : "1"
          },
          {
            "s_d" : "#夏日餐桌降温企划#拌个青菜方便面-会做饭很酷!",
            "object_id" : "3267076",
            "name" : "#夏日餐桌降温企划#拌个青菜方便面-会做饭很酷!",
            "qr_image" : "",
            "mini_program" : [

            ],
            "image" : "https:\/\/cp1.douguo.com\/upload\/caiku\/6\/9\/e\/69d03f81ffc1f7af4a001c83614a0a8e.jpg",
            "channel" : "7",
            "s_u" : "http:\/\/m.douguo.com\/cookbook\/3267076.html"
          },
          {
            "s_d" : "#夏日餐桌降温企划#拌个青菜方便面-会做饭很酷!",
            "s_u" : "http:\/\/m.douguo.com\/cookbook\/3267076.html",
            "object_id" : "3267076",
            "name" : "#夏日餐桌降温企划#拌个青菜方便面-会做饭很酷!",
            "qr_image" : "",
            "channel" : "8",
            "image" : "https:\/\/cp1.douguo.com\/upload\/caiku\/6\/9\/e\/69d03f81ffc1f7af4a001c83614a0a8e.jpg",
            "mini_program" : [

            ]
          }
        ],
        "name" : "#夏日餐桌降温企划#拌个青菜方便面-会做饭很酷!",
        "image" : "https:\/\/cp1.douguo.com\/upload\/caiku\/6\/9\/e\/69d03f81ffc1f7af4a001c83614a0a8e.jpg",
        "s_d" : "#夏日餐桌降温企划#拌个青菜方便面-会做饭很酷!",
        "s_u" : "http:\/\/m.douguo.com\/cookbook\/3267076.html",
        "qr_image" : "",
        "object_id" : "3267076"
      },
      "ecs" : 1,
      "dish_count" : 0,
      "ipt" : "",
      "purl" : "",
      "comments" : [

      ],
      "guide_image" : "",
      "rips" : 0,
      "comments_count_text" : "",
      "cookwares" : [

      ],
      "collect_status" : 0,
      "rewarded_video_dsp" : [

      ],
      "pw" : 960,
      "rdsps" : [

      ],
      "rpst" : "",
      "rate_count" : 0,
      "ss" : [

      ],
      "vfurl" : "",
      "first_level_comment_count" : 0,
      "notes" : [

      ],
      "top_mdsp" : [

      ],
      "recent_comments" : [

      ],
      "ph" : 1280,
      "rcs" : [

      ],
      "cook_difficulty" : "切墩(初级)",
      "rrpt" : "",
      "comments_count" : 0,
      "btm_dsp" : [

      ],
      "clicks" : "1",
      "ipoi" : "",
      "levelid" : 2,
      "image" : "http:\/\/i1.douguo.net\/upload\/caiku\/6\/9\/e\/300_69d03f81ffc1f7af4a001c83614a0a8e.jpg",
      "cook_time_image" : "https:\/\/i1.douguo.com\/upload\/banner\/1551424358.png",
      "ipit" : 0,
      "recommended" : 0,
      "rpt" : "",
      "dish_count_text" : "",
      "event" : {
        "id" : 3830,
        "name" : "与珍选捞汁一起给餐桌降降温，400位面霸等你来报名",
        "url" : "https:\/\/m.douguo.com\/activity\/ncpzj\/detail\/3830?isapp=1&open=0&_vs=1000300&&dg_refreshkey=publishnote"
      },
      "author_photo" : "http:\/\/tx1.douguo.net\/upload\/photo\/d\/b\/6\/70_u72605334547719110554.jpeg",
      "cook_time" : "10分钟左右",
      "rate_show" : 0,
      "cookstorys" : [
        {
          "color" : "",
          "type" : 0,
          "icon" : "",
          "id" : 0,
          "c" : "很多时候不想吃饭，又怕不健康，就会起来煮个泡面，想着怕胖营养均衡一点，就加了虾仁和菠菜哈哈，就变成了这个了。",
          "u" : ""
        },
        {
          "icon" : "",
          "c" : "\n参与活动:",
          "id" : 0,
          "u" : "",
          "color" : "",
          "type" : 0
        },
        {
          "icon" : "",
          "type" : 0,
          "id" : 0,
          "c" : "#与珍选捞汁一起给餐桌降降温，400位面霸等你来报名#",
          "u" : "https:\/\/m.douguo.com\/activity\/ncpzj\/detail\/3830?isapp=1&open=0&_vs=1000300&&dg_refreshkey=publishnote"
        }
      ],
      "rpid" : 0,
      "recommendation_tag" : "",
      "author" : "六月的快乐",
      "tags" : [

      ],
      "bs" : [

      ],
      "create_time" : "2023-08-12 19:44:46",
      "hqu" : "recipes:\/\/www.douguo.com\/notedetail?id=21162253",
      "author_verified" : 0,
      "mid_mdsp" : [

      ],
      "ssu" : "",
      "views_count_text" : "8.6万",
      "author_id" : 2917759,
      "recommend_label" : "2799人刚刚收藏过",
      "sc" : 0,
      "eu" : "recipes:\/\/www.douguo.com\/postdetail?id=242016",
      "recipe_tags" : [

      ],
      "vc" : "86073",
      "display_ingredient" : 1,
      "story_dsp" : [

      ],
      "vu" : "",
      "favo_counts" : 2799,
      "rate" : 0,
      "title" : "拌个青菜方便面",
      "old_comments" : [

      ],
      "brand_day_dsp" : [

      ],
      "user" : {
        "point" : 0,
        "user_photo" : "http:\/\/tx1.douguo.net\/upload\/photo\/d\/b\/6\/70_u72605334547719110554.jpeg",
        "fc" : 0,
        "recipes_count" : 0,
        "setted_email" : 0,
        "weibo_nick" : "",
        "verified_image" : "",
        "age" : "",
        "subscription" : 0,
        "verified_url" : "https:\/\/m.douguo.com\/user\/prodesc",
        "qzone_nick" : "",
        "dishes_count" : 0,
        "diaries_count" : 0,
        "is_prime" : 0,
        "following_count" : 0,
        "sign" : "",
        "regist_time" : "",
        "verified" : 0,
        "birthday" : "",
        "userid" : "2917759",
        "location" : 0,
        "subscription_article_count" : 0,
        "pc" : 0,
        "favor_diaries_count" : 0,
        "mobile" : "",
        "nick" : "六月的快乐",
        "progress_image" : "",
        "qq_weibo_nick" : "",
        "coursecount" : 0,
        "followers_count" : 0,
        "introduction" : "",
        "lv" : 0,
        "favorites_count" : 0,
        "gender" : 2,
        "lvl" : 6,
        "email" : "",
        "user_large_photo" : "http:\/\/tx1.douguo.net\/upload\/photo\/d\/b\/6\/yuan_u72605334547719110554.jpeg",
        "avatar_medium" : "http:\/\/tx1.douguo.net\/upload\/photo\/d\/b\/6\/140_u72605334547719110554.jpeg",
        "user_id" : "2917759",
        "user_cover" : ""
      },
      "cookstep" : [
        {
          "thumb" : "https:\/\/i1.douguo.com\/upload\/caiku\/6\/f\/7\/140_6fe3b939a0febf084e1b6418c9c43667.jpg",
          "content" : "方便面加粉包不加油包，煮熟",
          "image_width" : 960,
          "image" : "https:\/\/i1.douguo.com\/upload\/caiku\/6\/f\/7\/6fe3b939a0febf084e1b6418c9c43667.jpg",
          "position" : 1,
          "image_height" : 1280,
          "frame" : "-1"
        },
        {
          "image_height" : 960,
          "thumb" : "https:\/\/i1.douguo.com\/upload\/caiku\/d\/b\/8\/140_db1fa79052c9a941a74d4b096eec0508.jpg",
          "content" : "同时煮了点虾仁",
          "position" : 2,
          "image" : "https:\/\/i1.douguo.com\/upload\/caiku\/d\/b\/8\/db1fa79052c9a941a74d4b096eec0508.jpg",
          "image_width" : 1280,
          "frame" : "-1"
        },
        {
          "thumb" : "https:\/\/i1.douguo.com\/upload\/caiku\/4\/5\/3\/140_45d5c93f062a56f8fd055f8c3e6ad6f3.jpg",
          "image_width" : 960,
          "position" : 3,
          "image" : "https:\/\/i1.douguo.com\/upload\/caiku\/4\/5\/3\/45d5c93f062a56f8fd055f8c3e6ad6f3.jpg",
          "content" : "菠菜切段焯水后过凉水，攥干水分",
          "image_height" : 1280,
          "frame" : "-1"
        },
        {
          "image_height" : 1280,
          "image_width" : 960,
          "position" : 4,
          "content" : "加入精选捞汁，如果给大人吃可以加点辣椒油",
          "image" : "https:\/\/i1.douguo.com\/upload\/caiku\/6\/8\/1\/688b5e48d8a052910221e798a78df551.jpg",
          "thumb" : "https:\/\/i1.douguo.com\/upload\/caiku\/6\/8\/1\/140_688b5e48d8a052910221e798a78df551.jpg",
          "frame" : "-1"
        },
        {
          "content" : "开吃",
          "image_height" : 1280,
          "image_width" : 960,
          "position" : 5,
          "thumb" : "https:\/\/i1.douguo.com\/upload\/caiku\/d\/f\/d\/140_dfed2a1b911dd5c07109d4b97658482d.jpg",
          "image" : "https:\/\/i1.douguo.com\/upload\/caiku\/d\/f\/d\/dfed2a1b911dd5c07109d4b97658482d.jpg",
          "frame" : "-1"
        }
      ],
      "ipia" : [

      ],
      "packages_id" : [

      ],
      "minor" : [

      ],
      "recipe_list_tags" : [
        {
          "background_start_color" : "#F4F5F5",
          "background_end_color" : "#F4F5F5",
          "text" : "关注的人",
          "background_border_color" : "",
          "right_image" : "",
          "jump_url" : "",
          "text_color" : "#141515"
        },
        {
          "background_start_color" : "#F4F5F5",
          "jump_url" : "",
          "right_image" : "",
          "text" : "内容详细",
          "text_color" : "#141515",
          "background_end_color" : "#F4F5F5",
          "background_border_color" : ""
        }
      ],
      "original_photo_path" : "http:\/\/i1.douguo.net\/upload\/caiku\/6\/9\/e\/yuan_69d03f81ffc1f7af4a001c83614a0a8e.jpg",
      "photo_path" : "https:\/\/i1.douguo.com\/upload\/caiku\/6\/9\/e\/600_69d03f81ffc1f7af4a001c83614a0a8e.jpg",
      "cook_id" : "3267076",
      "favo_counts_text" : "2799",
      "cook_difficulty_image" : "https:\/\/i1.douguo.com\/upload\/banner\/1551424390.png",
      "thumb_path" : "https:\/\/i1.douguo.com\/upload\/caiku\/6\/9\/e\/300_69d03f81ffc1f7af4a001c83614a0a8e.jpg",
      "act_des" : "",
      "dishes" : [

      ],
      "thumb_height" : 0,
      "tips" : "无需技巧",
      "ipurl" : "",
      "rrps" : [

      ],
      "rsm" : "该功能暂停使用",
      "title_ad" : [

      ]
    }
  }
}