{
  "state" : "success",
  "status" : 0,
  "result" : {
    "recipe" : {
      "top_mdsp" : [

      ],
      "dishes" : [

      ],
      "rsm" : "该功能暂停使用",
      "brand_day_dsp" : [

      ],
      "ipia" : [

      ],
      "major" : [
        {
          "note" : "1个",
          "title" : "鸡蛋",
          "tu" : "https:\/\/m.douguo.com\/ingredients\/鸡蛋\/detailmaterial"
        },
        {
          "note" : "35g",
          "title" : "低筋面粉",
          "tu" : "https:\/\/m.douguo.com\/ingredients\/低筋面粉\/detailmaterial"
        },
        {
          "tu" : "https:\/\/m.douguo.com\/ingredients\/糖粉\/detailmaterial",
          "note" : "25g",
          "title" : "糖粉"
        }
      ],
      "cookstorys" : [
        {
          "id" : 0,
          "icon" : "",
          "type" : 0,
          "color" : "",
          "c" : "超级简单又好吃的手指饼干来喽，很酥脆，大人孩子都喜欢。我做来给宝宝吃的，大家也可以做了用于提拉米苏或者蛋糕的围边，都挺好的。初入烘焙，请多指教，谢谢。",
          "u" : ""
        }
      ],
      "mid_mdsp" : [

      ],
      "rpst" : "",
      "thumb_height" : 0,
      "cookstory" : "超级简单又好吃的手指饼干来喽，很酥脆，大人孩子都喜欢。我做来给宝宝吃的，大家也可以做了用于提拉米苏或者蛋糕的围边，都挺好的。初入烘焙，请多指教，谢谢。",
      "rdsps" : [

      ],
      "rate_show" : 0,
      "title" : "手指饼干（3种材料10分钟的小美食）",
      "collect_status" : 0,
      "minor" : [

      ],
      "create_time" : "2016-11-22 18:12:16",
      "comments_count" : 3,
      "favo_counts_text" : "56",
      "hq" : 0,
      "rate" : 0,
      "pw" : 800,
      "views_count_text" : "1.5万",
      "favo_counts" : 56,
      "share_info" : {
        "object_id" : "1478973",
        "s_u" : "http:\/\/m.douguo.com\/cookbook\/1478973.html",
        "s_d" : "手指饼干（3种材料10分钟的小美食）-会做饭很酷!",
        "image" : "https:\/\/cp1.douguo.com\/upload\/caiku\/f\/7\/8\/f72ecdfb0826ca8ef9375ed21290c5c8.jpg",
        "mini_program" : [

        ],
        "name" : "手指饼干（3种材料10分钟的小美食）-会做饭很酷!",
        "qr_image" : "",
        "infos" : [
          {
            "object_id" : "1478973",
            "s_d" : "#学做饭用豆果美食# 会做饭真是太酷了！我在@豆果美食 分享了【手指饼干（3种材料10分钟的小美食）-会做饭很酷!】，这道菜真的神仙美味！喜欢的一定要试试绝对不会错的！～查看图片了解菜谱（快来点击https:\/\/m.weibo.cn\/p\/100404i33631和我一起修炼厨艺吧）",
            "image" : "https:\/\/cp1.douguo.com\/upload\/caiku\/f\/7\/8\/f72ecdfb0826ca8ef9375ed21290c5c8.jpg",
            "s_u" : "",
            "qr_image" : "",
            "name" : "手指饼干（3种材料10分钟的小美食）-会做饭很酷!",
            "channel" : "1",
            "mini_program" : [

            ]
          },
          {
            "image" : "https:\/\/cp1.douguo.com\/upload\/caiku\/f\/7\/8\/f72ecdfb0826ca8ef9375ed21290c5c8.jpg",
            "qr_image" : "",
            "name" : "手指饼干（3种材料10分钟的小美食）-会做饭很酷!",
            "object_id" : "1478973",
            "s_u" : "http:\/\/m.douguo.com\/cookbook\/1478973.html",
            "s_d" : "手指饼干（3种材料10分钟的小美食）-会做饭很酷!",
            "mini_program" : [

            ],
            "channel" : "7"
          },
          {
            "mini_program" : [

            ],
            "name" : "手指饼干（3种材料10分钟的小美食）-会做饭很酷!",
            "image" : "https:\/\/cp1.douguo.com\/upload\/caiku\/f\/7\/8\/f72ecdfb0826ca8ef9375ed21290c5c8.jpg",
            "qr_image" : "",
            "object_id" : "1478973",
            "s_d" : "手指饼干（3种材料10分钟的小美食）-会做饭很酷!",
            "channel" : "8",
            "s_u" : "http:\/\/m.douguo.com\/cookbook\/1478973.html"
          }
        ]
      },
      "eu" : "recipes:\/\/www.douguo.com\/postdetail?id=242016",
      "photo_path" : "https:\/\/i1.douguo.com\/upload\/caiku\/f\/7\/8\/600_f72ecdfb0826ca8ef9375ed21290c5c8.jpg",
      "cook_id" : "1478973",
      "ipoi" : "",
      "vc" : "14514",
      "levelid" : 3,
      "tags" : [

      ],
      "user" : {
        "lv" : 0,
        "gender" : 2,
        "fc" : 0,
        "userid" : "16823009",
        "nick" : "贝贝的小脚丫",
        "verified_image" : "",
        "introduction" : "",
        "progress_image" : "",
        "age" : "",
        "location" : 0,
        "mobile" : "",
        "email" : "",
        "verified_url" : "https:\/\/m.douguo.com\/user\/prodesc",
        "coursecount" : 0,
        "avatar_medium" : "http:\/\/tx1.douguo.net\/upload\/photo\/9\/c\/6\/140_u57696571766244164102.jpg",
        "recipes_count" : 0,
        "diaries_count" : 0,
        "weibo_nick" : "",
        "pc" : 0,
        "sign" : "",
        "verified" : 0,
        "favor_diaries_count" : 0,
        "dishes_count" : 0,
        "point" : 0,
        "user_id" : "16823009",
        "following_count" : 0,
        "user_cover" : "",
        "user_large_photo" : "http:\/\/tx1.douguo.net\/upload\/photo\/9\/c\/6\/yuan_u57696571766244164102.jpg",
        "qq_weibo_nick" : "",
        "user_photo" : "http:\/\/tx1.douguo.net\/upload\/photo\/9\/c\/6\/70_u57696571766244164102.jpg",
        "subscription_article_count" : 0,
        "birthday" : "",
        "is_prime" : 0,
        "qzone_nick" : "",
        "regist_time" : "",
        "favorites_count" : 0,
        "followers_count" : 0,
        "subscription" : 0,
        "setted_email" : 0,
        "lvl" : 1
      },
      "cook_difficulty_image" : "https:\/\/i1.douguo.com\/upload\/banner\/1551424390.png",
      "recipe_tags" : [

      ],
      "purl" : "",
      "recent_comments" : [

      ],
      "rrps" : [

      ],
      "rcs" : [

      ],
      "ph" : 1422,
      "advice" : {
        "da" : {
          "url" : "https:\/\/m.douguo.com\/recipe\/nutrient_self\/1478973",
          "t" : "查看详细分析",
          "iu" : "https:\/\/i1.douguo.com\/upload\/banner\/f\/4\/d\/f48877e53c37759bc12ac494be82ec8d.png"
        },
        "has" : [
          {
            "t" : "低盐",
            "url" : "recipes:\/\/www.douguo.com\/simplerecipelist?t=低盐&id=低盐"
          }
        ],
        "at" : "盐摄入过高有害健康～"
      },
      "original_photo_path" : "http:\/\/i1.douguo.net\/upload\/caiku\/f\/7\/8\/yuan_f72ecdfb0826ca8ef9375ed21290c5c8.jpg",
      "ipt" : "",
      "v_u" : "",
      "story_dsp" : [

      ],
      "related_ads" : [

      ],
      "author_id" : 16823009,
      "ipurl" : "",
      "act_des" : "",
      "recipe_list_tags" : [
        {
          "text_color" : "#141515",
          "right_image" : "",
          "background_border_color" : "",
          "background_end_color" : "#F4F5F5",
          "jump_url" : "",
          "text" : "关注的人",
          "background_start_color" : "#F4F5F5"
        },
        {
          "right_image" : "",
          "jump_url" : "",
          "background_border_color" : "",
          "text" : "内容详细",
          "background_start_color" : "#F4F5F5",
          "text_color" : "#141515",
          "background_end_color" : "#F4F5F5"
        }
      ],
      "sc" : 0,
      "rpid" : 0,
      "cook_time" : "10分钟左右",
      "title_ad" : [

      ],
      "vu" : "",
      "packages_id" : [

      ],
      "guide_image" : "",
      "author_verified" : 0,
      "ssu" : "",
      "cookwares" : [

      ],
      "comments_count_text" : "3",
      "bs" : [

      ],
      "old_comments" : [

      ],
      "cook_time_image" : "https:\/\/i1.douguo.com\/upload\/banner\/1551424358.png",
      "recommended" : 0,
      "ipci" : "",
      "vfurl" : "",
      "ipit" : 0,
      "hqu" : "recipes:\/\/www.douguo.com\/notedetail?id=21162253",
      "rewarded_video_dsp" : [

      ],
      "clicks" : "13484",
      "rips" : 0,
      "first_level_comment_count" : 2,
      "recommendation_tag" : "",
      "btm_dsp" : [

      ],
      "author_photo" : "http:\/\/tx1.douguo.net\/upload\/photo\/9\/c\/6\/70_u57696571766244164102.jpg",
      "thumb_path" : "https:\/\/i1.douguo.com\/upload\/caiku\/f\/7\/8\/300_f72ecdfb0826ca8ef9375ed21290c5c8.jpg",
      "sr" : "",
      "cook_difficulty" : "切墩(初级)",
      "notes" : [

      ],
      "comments" : [
        "{\n    ac = \"#999999\";\n    at = \"\";\n    ccc = 1;\n    \"child_comments\" =     (\n                {\n            ac = \"#999999\";\n            at = \"\";\n            ccc = 0;\n            city = \"\";\n            cmc = 2;\n            content =             (\n                                {\n                    c = \" \\U55ef\\U55ef\\Uff0c\\U5f88\\U7b80\\U5355\\U5462\\Uff0c\\U4e5f\\U7279\\U522b\\U597d\\U5403\";\n                }\n            );\n            ia = 1;\n            id = 4286798;\n            \"ip_address_location\" = \"\";\n            like = 0;\n            \"like_count\" = 0;\n            \"reply_id\" = 4286665;\n            \"reply_user\" =             {\n                \"followers_count_text\" = \"\";\n                id = 18876763;\n                \"is_prime\" = 0;\n                lv = 0;\n                lvl = 5;\n                n = \"\\U5c0f\\U897f_andie\";\n                p = \"http:\/\/tx1.douguo.net\/upload\/photo\/d\/1\/f\/70_u76847067709326222530.jpeg\";\n                \"progress_image\" = \"\";\n                \"recipes_count_text\" = \"\";\n                relationship = \"-1\";\n                title = \"\";\n                v = 0;\n                \"verified_image\" = \"\";\n            };\n            \"sticker_icon\" =             (\n            );\n            time = \"2016-11-22 11:02:37\";\n            u =             {\n                \"followers_count_text\" = \"\";\n                id = 16823009;\n                \"is_prime\" = 0;\n                lv = 0;\n                lvl = 1;\n                n = \"\\U8d1d\\U8d1d\\U7684\\U5c0f\\U811a\\U4e2b\";\n                p = \"http:\/\/tx1.douguo.net\/upload\/photo\/9\/c\/6\/70_u57696571766244164102.jpg\";\n                \"progress_image\" = \"\";\n                \"recipes_count_text\" = \"\";\n                relationship = \"-1\";\n                title = \"\";\n                v = 0;\n                \"verified_image\" = \"\";\n            };\n        }\n    );\n    city = \"\";\n    cmc = 2;\n    content =     (\n                {\n            c = \"\\U771f\\U7684\\U5f88\\U7b80\\U5355\\U5462~\\U5468\\U672b\\U6211\\U4e5f\\U8bd5\\U8bd5 \";\n        }\n    );\n    ia = 0;\n    id = 4286665;\n    \"ip_address_location\" = \"\";\n    like = 0;\n    \"like_count\" = 0;\n    \"reply_id\" = 0;\n    \"sticker_icon\" =     (\n    );\n    time = \"2016-11-22 10:17:17\";\n    u =     {\n        \"followers_count_text\" = \"\";\n        id = 18876763;\n        \"is_prime\" = 0;\n        lv = 0;\n        lvl = 5;\n        n = \"\\U5c0f\\U897f_andie\";\n        p = \"http:\/\/tx1.douguo.net\/upload\/photo\/d\/1\/f\/70_u76847067709326222530.jpeg\";\n        \"progress_image\" = \"\";\n        \"recipes_count_text\" = \"\";\n        relationship = \"-1\";\n        title = \"\";\n        v = 0;\n        \"verified_image\" = \"\";\n    };\n}",
        "{\n    ac = \"#999999\";\n    at = \"\";\n    ccc = 0;\n    \"child_comments\" =     (\n    );\n    city = \"\";\n    cmc = 2;\n    content =     (\n                {\n            c = \"\\U8d5e\\U8d5e\\U54d2~ \";\n        }\n    );\n    ia = 0;\n    id = 6046846;\n    \"ip_address_location\" = \"\";\n    like = 0;\n    \"like_count\" = 0;\n    \"reply_id\" = 0;\n    \"sticker_icon\" =     (\n    );\n    time = \"2018-09-15 16:03:38\";\n    u =     {\n        \"followers_count_text\" = \"\";\n        id = 18470161;\n        \"is_prime\" = 0;\n        lv = 0;\n        lvl = 3;\n        n = \"w\\U6dfc\\U6dfc\\U5988\";\n        p = \"http:\/\/tx1.douguo.net\/upload\/photo\/b\/f\/b\/70_u12798141445370408143622.jpg\";\n        \"progress_image\" = \"\";\n        \"recipes_count_text\" = \"\";\n        relationship = \"-1\";\n        title = \"\";\n        v = 0;\n        \"verified_image\" = \"\";\n    };\n}"
      ],
      "rrpt" : "",
      "rpt" : "",
      "display_ingredient" : 1,
      "ecs" : 1,
      "dish_count_text" : "",
      "recommend_label" : "1.5万人看过",
      "author" : "贝贝的小脚丫",
      "ss" : [

      ],
      "tips" : "烤好后的手指饼干凉了以后就密封好，不然容易返潮就不酥脆了。混合蛋白蛋黄糊的时候就可以预热烤箱了（我预热了三分钟）。面糊挤好形状后就可以马上进入烤箱才不会影响面糊的膨胀。（自己边做饼干边拍照，还有一个9个月大的宝宝在身边转来转去的，拍照技术不好，勿喷）",
      "release_time" : "",
      "cookstep" : [
        {
          "thumb" : "https:\/\/i1.douguo.com\/upload\/caiku\/8\/8\/a\/140_881907f2eaf830bb2cacccded137deea.jpg",
          "frame" : "-1",
          "image_width" : 800,
          "image_height" : 1422,
          "image" : "https:\/\/i1.douguo.com\/upload\/caiku\/8\/8\/a\/881907f2eaf830bb2cacccded137deea.jpg",
          "content" : "原料就这3样，我家没有糖粉了，我就用研磨机磨了一些白砂糖。",
          "position" : 1
        },
        {
          "image" : "https:\/\/i1.douguo.com\/upload\/caiku\/c\/c\/f\/cc8832d25854ccffa6a726197fbffd1f.jpg",
          "image_height" : 450,
          "thumb" : "https:\/\/i1.douguo.com\/upload\/caiku\/c\/c\/f\/140_cc8832d25854ccffa6a726197fbffd1f.jpg",
          "content" : "蛋白，蛋黄分别装在无水无油的容器里。",
          "image_width" : 800,
          "position" : 2,
          "frame" : "-1"
        },
        {
          "content" : "蛋黄加入少许糖粉。",
          "image" : "https:\/\/i1.douguo.com\/upload\/caiku\/5\/1\/0\/518451adc951e644f6ba4578f9137e10.jpg",
          "frame" : "-1",
          "position" : 3,
          "image_width" : 800,
          "thumb" : "https:\/\/i1.douguo.com\/upload\/caiku\/5\/1\/0\/140_518451adc951e644f6ba4578f9137e10.jpg",
          "image_height" : 1422
        },
        {
          "image" : "https:\/\/i1.douguo.com\/upload\/caiku\/a\/c\/7\/ac76531b5547e6437e908c096a291357.jpg",
          "thumb" : "https:\/\/i1.douguo.com\/upload\/caiku\/a\/c\/7\/140_ac76531b5547e6437e908c096a291357.jpg",
          "position" : 4,
          "image_height" : 1422,
          "image_width" : 800,
          "frame" : "-1",
          "content" : "用手动打蛋器打散，将糖粉和蛋黄完全融合，使蛋黄变得粘稠。"
        },
        {
          "frame" : "-1",
          "content" : "蛋白打至起粗泡时加入1\/3的糖粉。",
          "image_width" : 800,
          "image_height" : 1422,
          "thumb" : "https:\/\/i1.douguo.com\/upload\/caiku\/2\/9\/8\/140_299ac9295c1869c10177682ff10c6958.jpg",
          "position" : 5,
          "image" : "https:\/\/i1.douguo.com\/upload\/caiku\/2\/9\/8\/299ac9295c1869c10177682ff10c6958.jpg"
        },
        {
          "image" : "https:\/\/i1.douguo.com\/upload\/caiku\/d\/c\/a\/dc091e3dc42cc83186fc21e307d08a8a.jpg",
          "frame" : "-1",
          "thumb" : "https:\/\/i1.douguo.com\/upload\/caiku\/d\/c\/a\/140_dc091e3dc42cc83186fc21e307d08a8a.jpg",
          "image_height" : 1422,
          "image_width" : 800,
          "content" : "打至细腻时再加入1\/3的糖粉。",
          "position" : 6
        },
        {
          "image_height" : 0,
          "content" : "蛋白出现纹路时加入剩下的糖粉。",
          "thumb" : "",
          "image_width" : 0,
          "position" : 7,
          "image" : "",
          "frame" : "-1"
        },
        {
          "image_width" : 800,
          "content" : "蛋白打至提起打蛋头时，立起尖角既可。",
          "image" : "https:\/\/i1.douguo.com\/upload\/caiku\/1\/9\/5\/19fec5ccd3bdf750a6d30b02f980e8b5.jpg",
          "frame" : "-1",
          "image_height" : 1422,
          "position" : 8,
          "thumb" : "https:\/\/i1.douguo.com\/upload\/caiku\/1\/9\/5\/140_19fec5ccd3bdf750a6d30b02f980e8b5.jpg"
        },
        {
          "frame" : "-1",
          "image_height" : 450,
          "image" : "https:\/\/i1.douguo.com\/upload\/caiku\/9\/0\/0\/90445a475110a908e736a6fa38a82ee0.jpg",
          "position" : 9,
          "image_width" : 800,
          "content" : "取一少半蛋白霜拌入蛋黄糊中，边十字划动边转动容器翻拌。",
          "thumb" : "https:\/\/i1.douguo.com\/upload\/caiku\/9\/0\/0\/140_90445a475110a908e736a6fa38a82ee0.jpg"
        },
        {
          "image_height" : 1422,
          "position" : 10,
          "thumb" : "https:\/\/i1.douguo.com\/upload\/caiku\/0\/9\/a\/140_091142bdf5fa8315f25a00e056a0c10a.jpg",
          "image" : "https:\/\/i1.douguo.com\/upload\/caiku\/0\/9\/a\/091142bdf5fa8315f25a00e056a0c10a.jpg",
          "image_width" : 800,
          "content" : "将拌好的蛋糊再倒入蛋白盆中，继续翻拌均匀，注意翻拌手法，切勿过度翻拌，以防消泡。",
          "frame" : "-1"
        },
        {
          "frame" : "-1",
          "position" : 11,
          "image" : "https:\/\/i1.douguo.com\/upload\/caiku\/d\/8\/f\/d8ac92953d087518a5b4cd13b60ee3ef.jpg",
          "thumb" : "https:\/\/i1.douguo.com\/upload\/caiku\/d\/8\/f\/140_d8ac92953d087518a5b4cd13b60ee3ef.jpg",
          "image_height" : 1422,
          "image_width" : 800,
          "content" : "加入过筛后的低筋面粉，翻拌均匀。（因为我在做饼干时，我家宝宝正在妈～木，妈～木的叫我，所以我没有过筛啊，省略步骤了，其实做了这么多，觉得不过筛也一样，大家自己决定哈。）"
        },
        {
          "image_height" : 450,
          "content" : "将面糊倒入裱花袋中。",
          "frame" : "-1",
          "image" : "https:\/\/i1.douguo.com\/upload\/caiku\/c\/f\/4\/cfb98e214be83a008a20e3f16995a5f4.jpg",
          "image_width" : 800,
          "position" : 12,
          "thumb" : "https:\/\/i1.douguo.com\/upload\/caiku\/c\/f\/4\/140_cfb98e214be83a008a20e3f16995a5f4.jpg"
        },
        {
          "thumb" : "https:\/\/i1.douguo.com\/upload\/caiku\/4\/d\/7\/140_4dcce01c68ef7cc7e7acb7a28b70d5a7.jpg",
          "image_width" : 800,
          "image_height" : 450,
          "frame" : "-1",
          "content" : "将裱花袋剪一个口子，大小自己决定，在铺好的油纸或者硅胶垫上挤好想要的大小或形状。",
          "position" : 13,
          "image" : "https:\/\/i1.douguo.com\/upload\/caiku\/4\/d\/7\/4dcce01c68ef7cc7e7acb7a28b70d5a7.jpg"
        },
        {
          "image" : "https:\/\/i1.douguo.com\/upload\/caiku\/b\/7\/7\/b7585325efc689f29c75bfb9b52730d7.jpg",
          "thumb" : "https:\/\/i1.douguo.com\/upload\/caiku\/b\/7\/7\/140_b7585325efc689f29c75bfb9b52730d7.jpg",
          "image_height" : 450,
          "content" : "送入已经预热好的烤箱，上下火，170--180度，10分钟即可。",
          "frame" : "-1",
          "image_width" : 800,
          "position" : 14
        },
        {
          "image" : "https:\/\/i1.douguo.com\/upload\/caiku\/8\/2\/5\/8255ba68549f82cc330bed14b789ff15.jpg",
          "position" : 15,
          "content" : "烤好后的饼干在烤箱里停留五到十分钟，取出即可。",
          "thumb" : "https:\/\/i1.douguo.com\/upload\/caiku\/8\/2\/5\/140_8255ba68549f82cc330bed14b789ff15.jpg",
          "frame" : "-1",
          "image_height" : 450,
          "image_width" : 800
        },
        {
          "thumb" : "https:\/\/i1.douguo.com\/upload\/caiku\/9\/6\/7\/140_9690295ddba9008cc5dbb3a238ddaa47.jpg",
          "position" : 16,
          "image" : "https:\/\/i1.douguo.com\/upload\/caiku\/9\/6\/7\/9690295ddba9008cc5dbb3a238ddaa47.jpg",
          "frame" : "-1",
          "image_width" : 800,
          "content" : "特别酥脆好吃的饼干，刚出炉的饼干我家宝宝一下子就吃了4个，大宝也很喜欢，和妹妹争着吃呢。",
          "image_height" : 1422
        }
      ],
      "dish_count" : 0,
      "image" : "http:\/\/i1.douguo.net\/upload\/caiku\/f\/7\/8\/300_f72ecdfb0826ca8ef9375ed21290c5c8.jpg",
      "su" : "",
      "rate_count" : 0
    }
  }
}