{
  "state" : "success",
  "status" : 0,
  "result" : {
    "recipe" : {
      "tags" : [

      ],
      "thumb_path" : "https:\/\/i1.douguo.com\/upload\/caiku\/9\/a\/d\/300_9a45374481729d7cdab14d54f750668d.jpg",
      "cookstory" : "",
      "top_mdsp" : [

      ],
      "ipia" : [

      ],
      "major" : [
        {
          "note" : "300克",
          "tu" : "https:\/\/m.douguo.com\/ingredients\/中筋面粉\/detailmaterial",
          "title" : "中筋面粉"
        },
        {
          "note" : "2克",
          "tu" : "https:\/\/m.douguo.com\/ingredients\/酵母\/detailmaterial",
          "title" : "酵母"
        },
        {
          "tu" : "https:\/\/m.douguo.com\/ingredients\/温水\/detailmaterial",
          "title" : "温水",
          "note" : "150克"
        },
        {
          "tu" : "https:\/\/m.douguo.com\/ingredients\/细砂糖\/detailmaterial",
          "note" : "15克",
          "title" : "细砂糖"
        },
        {
          "note" : "适量",
          "title" : "果蔬粉"
        }
      ],
      "recommendation_tag" : "",
      "first_level_comment_count" : 9,
      "recommend_label" : "4861人刚刚收藏过",
      "dishes" : [

      ],
      "vfurl" : "",
      "rrps" : [

      ],
      "comments_count_text" : "9",
      "rcs" : [

      ],
      "rdsps" : [

      ],
      "cookwares" : [

      ],
      "btm_dsp" : [

      ],
      "recipe_tags" : [

      ],
      "comments" : [
        "{\n    ac = \"#999999\";\n    at = \"\";\n    ccc = 0;\n    \"child_comments\" =     (\n    );\n    city = \"\";\n    cmc = 2;\n    content =     (\n                {\n            c = \"\\U554a\\U54c8\\U54c8 \\U53ef\\U7231\";\n        }\n    );\n    ia = 0;\n    id = 7738965;\n    \"ip_address_location\" = \"\";\n    like = 0;\n    \"like_count\" = 0;\n    \"reply_id\" = 0;\n    \"sticker_icon\" =     (\n    );\n    time = \"2020-03-06 00:06:46\";\n    u =     {\n        \"followers_count_text\" = \"\";\n        id = 11149500;\n        \"is_prime\" = 0;\n        lv = 0;\n        lvl = 4;\n        n = \"\\U8c46\\U8c46\\U7c89\\U7c89\\U7c89\";\n        p = \"http:\/\/tx1.douguo.net\/upload\/photo\/c\/6\/b\/70_u41023234494478201024.jpg\";\n        \"progress_image\" = \"\";\n        \"recipes_count_text\" = \"\";\n        relationship = \"-1\";\n        title = \"\";\n        v = 0;\n        \"verified_image\" = \"\";\n    };\n}",
        "{\n    ac = \"#999999\";\n    at = \"\\U5317\\U4eac\\U5e02\";\n    ccc = 0;\n    \"child_comments\" =     (\n    );\n    city = \"\\U5317\\U4eac\\U5e02\";\n    cmc = 2;\n    content =     (\n                {\n            c = \"\\U53ef\\U7231\\U5440\";\n        }\n    );\n    ia = 0;\n    id = 7691926;\n    \"ip_address_location\" = \"\";\n    like = 0;\n    \"like_count\" = 0;\n    \"reply_id\" = 0;\n    \"sticker_icon\" =     (\n    );\n    time = \"2020-02-28 20:54:02\";\n    u =     {\n        \"followers_count_text\" = \"\";\n        id = 22723607;\n        \"is_prime\" = 0;\n        lv = 0;\n        lvl = 6;\n        n = \"\\U67da\\U5b50\\U5988_\\U5c0f\\U660e\";\n        p = \"http:\/\/tx1.douguo.net\/upload\/photo\/f\/b\/d\/70_u37863433964596001159.jpeg\";\n        \"progress_image\" = \"\";\n        \"recipes_count_text\" = \"\";\n        relationship = \"-1\";\n        title = \"\";\n        v = 0;\n        \"verified_image\" = \"\";\n    };\n}",
        "{\n    ac = \"#999999\";\n    at = \"\";\n    ccc = 0;\n    \"child_comments\" =     (\n    );\n    city = \"\";\n    cmc = 2;\n    content =     (\n                {\n            c = \"\\U54c7 \\U5e94\\U8be5\\U5f88\\U597d\\U5403\";\n        }\n    );\n    ia = 0;\n    id = 7462516;\n    \"ip_address_location\" = \"\";\n    like = 0;\n    \"like_count\" = 0;\n    \"reply_id\" = 0;\n    \"sticker_icon\" =     (\n    );\n    time = \"2019-12-21 12:37:00\";\n    u =     {\n        \"followers_count_text\" = \"\";\n        id = 18449840;\n        \"is_prime\" = 0;\n        lv = 0;\n        lvl = 3;\n        n = \"\\U9a6c\\U5fae\";\n        p = \"http:\/\/tx1.douguo.net\/upload\/photo\/4\/f\/f\/70_u72262247236902235730.jpg\";\n        \"progress_image\" = \"\";\n        \"recipes_count_text\" = \"\";\n        relationship = \"-1\";\n        title = \"\";\n        v = 0;\n        \"verified_image\" = \"\";\n    };\n}"
      ],
      "create_time" : "2019-12-20 20:20:28",
      "cook_id" : "2386626",
      "minor" : [

      ],
      "ecs" : 0,
      "title" : "圣诞风小包子",
      "rate" : 0,
      "bs" : [

      ],
      "ipurl" : "",
      "rpt" : "",
      "recommended" : 0,
      "v_u" : "",
      "su" : "",
      "old_comments" : [

      ],
      "related_ads" : [

      ],
      "cookstep" : [
        {
          "image" : "https:\/\/i1.douguo.com\/upload\/caiku\/f\/5\/6\/f5fc06578946418a80173a06f0cde116.jpg",
          "position" : 1,
          "frame" : "-1",
          "image_width" : 800,
          "thumb" : "https:\/\/i1.douguo.com\/upload\/caiku\/f\/5\/6\/140_f5fc06578946418a80173a06f0cde116.jpg",
          "image_height" : 587,
          "content" : "面粉、酵母和细砂糖搅拌均匀"
        },
        {
          "image_width" : 1080,
          "frame" : "-1",
          "thumb" : "https:\/\/i1.douguo.com\/upload\/caiku\/a\/7\/5\/140_a75d047daa22b1814c8e54466338cf55.jpg",
          "image_height" : 1142,
          "image" : "https:\/\/i1.douguo.com\/upload\/caiku\/a\/7\/5\/a75d047daa22b1814c8e54466338cf55.jpg",
          "position" : 2,
          "content" : "慢慢加入温水 用筷子搅拌成絮状"
        },
        {
          "position" : 3,
          "content" : "发酵至两倍大 拉开呈蜂窝状",
          "image_height" : 1004,
          "frame" : "-1",
          "image_width" : 800,
          "thumb" : "https:\/\/i1.douguo.com\/upload\/caiku\/3\/6\/a\/140_3632e3ec3830d4cfd3e4d7f8a54af42a.jpg",
          "image" : "https:\/\/i1.douguo.com\/upload\/caiku\/3\/6\/a\/3632e3ec3830d4cfd3e4d7f8a54af42a.jpg"
        },
        {
          "image_width" : 800,
          "frame" : "-1",
          "content" : "取出排气分成12份\n一份加入抹茶粉揉匀\n一份2\/3加入红曲粉揉匀",
          "image" : "https:\/\/i1.douguo.com\/upload\/caiku\/7\/a\/f\/7ad37f3c38177615b33139f18750afaf.jpg",
          "image_height" : 600,
          "thumb" : "https:\/\/i1.douguo.com\/upload\/caiku\/7\/a\/f\/140_7ad37f3c38177615b33139f18750afaf.jpg",
          "position" : 4
        },
        {
          "frame" : "-1",
          "image_height" : 600,
          "thumb" : "https:\/\/i1.douguo.com\/upload\/caiku\/9\/9\/e\/140_995d44f32134499110fb7fc0ec618a3e.jpg",
          "image" : "https:\/\/i1.douguo.com\/upload\/caiku\/9\/9\/e\/995d44f32134499110fb7fc0ec618a3e.jpg",
          "image_width" : 800,
          "position" : 5,
          "content" : "取一个面团揉圆 \n用红色面团做出袜子"
        },
        {
          "image" : "https:\/\/i1.douguo.com\/upload\/caiku\/f\/5\/4\/f543e9de576430f1e82ee28a80e37374.jpg",
          "content" : "绿色面团用模具切出形状",
          "image_height" : 600,
          "thumb" : "https:\/\/i1.douguo.com\/upload\/caiku\/f\/5\/4\/140_f543e9de576430f1e82ee28a80e37374.jpg",
          "position" : 6,
          "image_width" : 800,
          "frame" : "-1"
        },
        {
          "image_height" : 960,
          "thumb" : "https:\/\/i1.douguo.com\/upload\/caiku\/d\/1\/8\/140_d1ec2ec99b40f1afa041a247d6f863a8.jpg",
          "position" : 7,
          "image_width" : 1280,
          "content" : "做出图片的样子",
          "image" : "https:\/\/i1.douguo.com\/upload\/caiku\/d\/1\/8\/d1ec2ec99b40f1afa041a247d6f863a8.jpg",
          "frame" : "-1"
        },
        {
          "image_width" : 1080,
          "image_height" : 810,
          "image" : "https:\/\/i1.douguo.com\/upload\/caiku\/e\/3\/5\/e3281c3f1fa2bdf5920dfddbe4089ab5.jpg",
          "content" : "加上小帽子就完成啦\n还能用饼干模具压花贴上",
          "thumb" : "https:\/\/i1.douguo.com\/upload\/caiku\/e\/3\/5\/140_e3281c3f1fa2bdf5920dfddbe4089ab5.jpg",
          "frame" : "-1",
          "position" : 8
        },
        {
          "image_width" : 800,
          "image" : "https:\/\/i1.douguo.com\/upload\/caiku\/3\/1\/2\/31e4ba84a404c4758ef71069aa1b3a12.jpg",
          "content" : "依次做好放入蒸锅",
          "position" : 9,
          "thumb" : "https:\/\/i1.douguo.com\/upload\/caiku\/3\/1\/2\/140_31e4ba84a404c4758ef71069aa1b3a12.jpg",
          "frame" : "-1",
          "image_height" : 600
        },
        {
          "image" : "https:\/\/i1.douguo.com\/upload\/caiku\/2\/0\/2\/20ec6b62201944fd9feb20c8b3506762.jpg",
          "frame" : "-1",
          "image_width" : 800,
          "content" : "大火蒸15分钟闷2分钟即可",
          "position" : 10,
          "thumb" : "https:\/\/i1.douguo.com\/upload\/caiku\/2\/0\/2\/140_20ec6b62201944fd9feb20c8b3506762.jpg",
          "image_height" : 1734
        }
      ],
      "levelid" : 2,
      "recent_comments" : [

      ],
      "user" : {
        "email" : "",
        "subscription_article_count" : 0,
        "followers_count" : 0,
        "weibo_nick" : "",
        "lvl" : 6,
        "recipes_count" : 0,
        "dishes_count" : 0,
        "avatar_medium" : "http:\/\/tx1.douguo.net\/upload\/photo\/b\/c\/4\/140_u95013121576454163048.jpeg",
        "fc" : 0,
        "birthday" : "",
        "setted_email" : 0,
        "userid" : "20255407",
        "coursecount" : 0,
        "qq_weibo_nick" : "",
        "progress_image" : "",
        "favor_diaries_count" : 0,
        "point" : 0,
        "user_cover" : "",
        "introduction" : "",
        "diaries_count" : 0,
        "favorites_count" : 0,
        "following_count" : 0,
        "user_id" : "20255407",
        "regist_time" : "",
        "mobile" : "",
        "age" : "",
        "nick" : "燕子的洋",
        "sign" : "",
        "gender" : 2,
        "user_large_photo" : "http:\/\/tx1.douguo.net\/upload\/photo\/b\/c\/4\/yuan_u95013121576454163048.jpeg",
        "pc" : 0,
        "lv" : 0,
        "qzone_nick" : "",
        "is_prime" : 0,
        "verified_image" : "https:\/\/i1.douguo.com\/upload\/note\/d\/a\/a\/da84247847aebe48d9dd0fcdac88862a.png",
        "subscription" : 0,
        "verified_url" : "https:\/\/m.douguo.com\/user\/prodesc",
        "user_photo" : "http:\/\/tx1.douguo.net\/upload\/photo\/b\/c\/4\/70_u95013121576454163048.jpeg",
        "verified" : 1,
        "location" : 0
      },
      "event" : {
        "id" : 0
      },
      "release_time" : "",
      "dish_count" : 0,
      "original_photo_path" : "http:\/\/i1.douguo.net\/upload\/caiku\/9\/a\/d\/yuan_9a45374481729d7cdab14d54f750668d.jpg",
      "sc" : 0,
      "hq" : 1,
      "recipe_list_tags" : [
        {
          "text" : "关注的人",
          "jump_url" : "",
          "right_image" : "",
          "background_start_color" : "#F4F5F5",
          "background_end_color" : "#F4F5F5",
          "background_border_color" : "",
          "text_color" : "#141515"
        }
      ],
      "thumb_height" : 0,
      "ph" : 600,
      "rate_count" : 0,
      "ss" : [

      ],
      "act_des" : "",
      "dish_count_text" : "",
      "rewarded_video_dsp" : [

      ],
      "rsm" : "该功能暂停使用",
      "purl" : "",
      "vc" : "220934",
      "pw" : 800,
      "rpst" : "",
      "cook_time" : "1小时以上",
      "photo_path" : "https:\/\/i1.douguo.com\/upload\/caiku\/9\/a\/d\/600_9a45374481729d7cdab14d54f750668d.jpg",
      "cook_difficulty_image" : "https:\/\/i1.douguo.com\/upload\/banner\/1551424390.png",
      "cookstorys" : [

      ],
      "clicks" : "217717",
      "author_id" : 20255407,
      "brand_day_dsp" : [

      ],
      "author" : "燕子的洋",
      "favo_counts" : 4861,
      "sr" : "",
      "eu" : "recipes:\/\/www.douguo.com\/postdetail?id=242016",
      "ipt" : "",
      "tips" : "",
      "author_verified" : 1,
      "image" : "http:\/\/i1.douguo.net\/upload\/caiku\/9\/a\/d\/300_9a45374481729d7cdab14d54f750668d.jpg",
      "title_ad" : [

      ],
      "ipci" : "",
      "display_ingredient" : 1,
      "author_photo" : "http:\/\/tx1.douguo.net\/upload\/photo\/b\/c\/4\/70_u95013121576454163048.jpeg",
      "views_count_text" : "22.1万",
      "notes" : [

      ],
      "ipit" : 0,
      "cook_difficulty" : "切墩(初级)",
      "comments_count" : 9,
      "mid_mdsp" : [

      ],
      "rate_show" : 0,
      "share_info" : {
        "infos" : [
          {
            "qr_image" : "",
            "image" : "https:\/\/cp1.douguo.com\/upload\/caiku\/9\/a\/d\/9a45374481729d7cdab14d54f750668d.jpg",
            "s_u" : "",
            "s_d" : "#学做饭用豆果美食# 我在@豆果美食 分享了【#今天吃什么#圣诞风小包子-会做饭很酷!】，哟，集美们～你看这是神仙美味～快跟着我做一份，做一份！查看图片了解菜谱（更多美食秘籍点击https:\/\/m.weibo.cn\/p\/100404i33631获取）#会做饭很酷# ",
            "object_id" : "2386626",
            "mini_program" : [

            ],
            "channel" : "1",
            "name" : "#今天吃什么#圣诞风小包子-会做饭很酷!"
          },
          {
            "s_u" : "http:\/\/m.douguo.com\/cookbook\/2386626.html",
            "channel" : "7",
            "object_id" : "2386626",
            "qr_image" : "",
            "name" : "#今天吃什么#圣诞风小包子-会做饭很酷!",
            "image" : "https:\/\/cp1.douguo.com\/upload\/caiku\/9\/a\/d\/9a45374481729d7cdab14d54f750668d.jpg",
            "s_d" : "#今天吃什么#圣诞风小包子-会做饭很酷!",
            "mini_program" : [

            ]
          },
          {
            "s_d" : "#今天吃什么#圣诞风小包子-会做饭很酷!",
            "qr_image" : "",
            "mini_program" : [

            ],
            "channel" : "8",
            "s_u" : "http:\/\/m.douguo.com\/cookbook\/2386626.html",
            "object_id" : "2386626",
            "name" : "#今天吃什么#圣诞风小包子-会做饭很酷!",
            "image" : "https:\/\/cp1.douguo.com\/upload\/caiku\/9\/a\/d\/9a45374481729d7cdab14d54f750668d.jpg"
          }
        ],
        "mini_program" : [

        ],
        "qr_image" : "",
        "image" : "https:\/\/cp1.douguo.com\/upload\/caiku\/9\/a\/d\/9a45374481729d7cdab14d54f750668d.jpg",
        "object_id" : "2386626",
        "s_d" : "#今天吃什么#圣诞风小包子-会做饭很酷!",
        "s_u" : "http:\/\/m.douguo.com\/cookbook\/2386626.html",
        "name" : "#今天吃什么#圣诞风小包子-会做饭很酷!"
      },
      "advice" : {
        "da" : {
          "t" : "查看详细分析",
          "url" : "https:\/\/m.douguo.com\/recipe\/nutrient_self\/2386626",
          "iu" : "https:\/\/i1.douguo.com\/upload\/banner\/f\/4\/d\/f48877e53c37759bc12ac494be82ec8d.png"
        },
        "has" : [
          {
            "t" : "低脂",
            "url" : "recipes:\/\/www.douguo.com\/simplerecipelist?t=低脂&id=低脂"
          },
          {
            "t" : "低饱和脂肪",
            "url" : "recipes:\/\/www.douguo.com\/simplerecipelist?t=低饱和脂肪&id=低饱和脂肪"
          }
        ],
        "at" : "健身人群可以吃～"
      },
      "rrpt" : "",
      "rips" : 0,
      "vu" : "",
      "story_dsp" : [

      ],
      "collect_status" : 0,
      "rpid" : 0,
      "ipoi" : "",
      "guide_image" : "",
      "packages_id" : [

      ],
      "favo_counts_text" : "4861",
      "hqu" : "recipes:\/\/www.douguo.com\/notedetail?id=21162253",
      "cook_time_image" : "https:\/\/i1.douguo.com\/upload\/banner\/1551423815.png",
      "ssu" : ""
    }
  }
}