{
  "status" : 0,
  "result" : {
    "recipe" : {
      "cook_time_image" : "https:\/\/i1.douguo.com\/upload\/banner\/1551424318.png",
      "ipurl" : "",
      "title_ad" : [

      ],
      "pw" : 1284,
      "rate_count" : 0,
      "ipit" : 0,
      "ipia" : [

      ],
      "tips" : "萝卜丝先腌出水分 再冲洗一下 能去除生萝卜的臭味。也可以擦丝后 烫熟 。（但烫熟的萝卜丝口感没有生萝卜丝好）\n鸡蛋中加入白胡椒粉 起到去腥的作用，炒好的鸡蛋碎要完全放凉再拌入馅料。\n粉条用开水烫熟 拌馅时更容易入味。\n葱末用热油爆香 拌馅时葱香味更浓。\n包好的包子生胚要经过2次发酵 再入蒸锅蒸。",
      "vc" : "131575",
      "btm_dsp" : [

      ],
      "release_time" : "",
      "related_ads" : [

      ],
      "recommended" : 0,
      "recommendation_tag" : "",
      "rcs" : [

      ],
      "author" : "虫懒懒",
      "rrpt" : "",
      "eu" : "recipes:\/\/www.douguo.com\/postdetail?id=242016",
      "notes" : [

      ],
      "rpid" : 0,
      "original_photo_path" : "http:\/\/i1.douguo.net\/upload\/caiku\/f\/1\/d\/yuan_f11e9b2e5851aa64ad37d77823efc5dd.jpeg",
      "views_count_text" : "13.2万",
      "vu" : "",
      "purl" : "",
      "recommend_label" : "5400人刚刚收藏过",
      "levelid" : 2,
      "author_photo" : "http:\/\/tx1.douguo.net\/upload\/photo\/c\/8\/6\/70_u20524080673637183526.jpeg",
      "image" : "http:\/\/i1.douguo.net\/upload\/caiku\/f\/1\/d\/300_f11e9b2e5851aa64ad37d77823efc5dd.jpeg",
      "dish_count" : 0,
      "clicks" : "1",
      "favo_counts" : 5400,
      "guide_image" : "",
      "share_info" : {
        "object_id" : "3265990",
        "infos" : [
          {
            "channel" : "1",
            "s_d" : "#学做饭用豆果美食# 会做饭真是好酷啊！我在@豆果美食 分享了【#名厨汁味正当夏#发面大包子 （萝卜丝粉条 鸡蛋馅）-会做饭很酷!】，快来康康我这道菜做的怎么样～美味停不下来！查看图片了解菜谱（你喜欢的美食都在这里！https:\/\/m.weibo.cn\/p\/100404i33631）",
            "image" : "https:\/\/cp1.douguo.com\/upload\/caiku\/f\/1\/d\/f11e9b2e5851aa64ad37d77823efc5dd.jpeg",
            "mini_program" : [

            ],
            "qr_image" : "",
            "s_u" : "",
            "name" : "#名厨汁味正当夏#发面大包子 （萝卜丝粉条 鸡蛋馅）-会做饭很酷!",
            "object_id" : "3265990"
          },
          {
            "image" : "https:\/\/cp1.douguo.com\/upload\/caiku\/f\/1\/d\/f11e9b2e5851aa64ad37d77823efc5dd.jpeg",
            "qr_image" : "",
            "name" : "#名厨汁味正当夏#发面大包子 （萝卜丝粉条 鸡蛋馅）-会做饭很酷!",
            "mini_program" : [

            ],
            "s_u" : "http:\/\/m.douguo.com\/cookbook\/3265990.html",
            "object_id" : "3265990",
            "channel" : "7",
            "s_d" : "#名厨汁味正当夏#发面大包子 （萝卜丝粉条 鸡蛋馅）-会做饭很酷!"
          },
          {
            "channel" : "8",
            "qr_image" : "",
            "image" : "https:\/\/cp1.douguo.com\/upload\/caiku\/f\/1\/d\/f11e9b2e5851aa64ad37d77823efc5dd.jpeg",
            "mini_program" : [

            ],
            "s_d" : "#名厨汁味正当夏#发面大包子 （萝卜丝粉条 鸡蛋馅）-会做饭很酷!",
            "s_u" : "http:\/\/m.douguo.com\/cookbook\/3265990.html",
            "name" : "#名厨汁味正当夏#发面大包子 （萝卜丝粉条 鸡蛋馅）-会做饭很酷!",
            "object_id" : "3265990"
          }
        ],
        "s_u" : "http:\/\/m.douguo.com\/cookbook\/3265990.html",
        "mini_program" : [

        ],
        "image" : "https:\/\/cp1.douguo.com\/upload\/caiku\/f\/1\/d\/f11e9b2e5851aa64ad37d77823efc5dd.jpeg",
        "qr_image" : "",
        "name" : "#名厨汁味正当夏#发面大包子 （萝卜丝粉条 鸡蛋馅）-会做饭很酷!",
        "s_d" : "#名厨汁味正当夏#发面大包子 （萝卜丝粉条 鸡蛋馅）-会做饭很酷!"
      },
      "sr" : "",
      "cook_difficulty_image" : "https:\/\/i1.douguo.com\/upload\/banner\/1551424413.png",
      "ecs" : 1,
      "cook_difficulty" : "配菜(中级)",
      "v_u" : "",
      "event" : {
        "url" : "https:\/\/m.douguo.com\/activity\/ncpzj\/detail\/3819?isapp=1&open=0&_vs=1000300&&dg_refreshkey=publishnote",
        "id" : 3819,
        "name" : "【有奖征集+免费申领】味达美·名厨汁味正当夏"
      },
      "display_ingredient" : 1,
      "cookstorys" : [
        {
          "type" : 0,
          "u" : "",
          "c" : "今天这款发面包子 皮薄又暄软 素馅也鲜香\n从发面 到调馅 再到包成包子入蒸锅 看似复杂其实一点都不难 ……",
          "color" : "",
          "id" : 0,
          "icon" : ""
        },
        {
          "color" : "",
          "type" : 0,
          "icon" : "",
          "u" : "",
          "c" : "\n参与活动:",
          "id" : 0
        },
        {
          "u" : "https:\/\/m.douguo.com\/activity\/ncpzj\/detail\/3819?isapp=1&open=0&_vs=1000300&&dg_refreshkey=publishnote",
          "c" : "#【有奖征集+免费申领】味达美·名厨汁味正当夏#",
          "type" : 0,
          "id" : 0,
          "icon" : ""
        }
      ],
      "comments_count_text" : "",
      "tags" : [

      ],
      "hq" : 1,
      "vfurl" : "https:\/\/vplay.douguo.com\/lnyy6KSb4-lMODKb3rp9I6nG3pjO__640x362.mp4",
      "create_time" : "2023-08-06 16:21:33",
      "author_verified" : 1,
      "comments" : [

      ],
      "rips" : 0,
      "brand_day_dsp" : [

      ],
      "ph" : 717,
      "story_dsp" : [

      ],
      "mid_mdsp" : [

      ],
      "hqu" : "recipes:\/\/www.douguo.com\/notedetail?id=21162253",
      "rate" : 0,
      "cook_time" : "30~60分钟",
      "title" : "发面大包子 （萝卜丝粉条 鸡蛋馅）",
      "rrps" : [

      ],
      "first_level_comment_count" : 0,
      "recipe_list_tags" : [
        {
          "text_color" : "#141515",
          "right_image" : "",
          "background_border_color" : "",
          "jump_url" : "",
          "background_end_color" : "#F4F5F5",
          "text" : "关注的人",
          "background_start_color" : "#F4F5F5"
        },
        {
          "jump_url" : "",
          "text" : "内容详细",
          "background_border_color" : "",
          "right_image" : "",
          "background_end_color" : "#F4F5F5",
          "background_start_color" : "#F4F5F5",
          "text_color" : "#141515"
        }
      ],
      "comments_count" : 0,
      "dish_count_text" : "",
      "cookstep" : [
        {
          "frame" : "-1",
          "thumb" : "https:\/\/i1.douguo.com\/upload\/caiku\/7\/d\/b\/140_7d30595561d37a28c78f95525a0c308b.jpeg",
          "image_width" : 3840,
          "image_height" : 2880,
          "content" : "面粉中 加入酵母粉 白糖（帮助发酵） \n少量多次加入温水 拌成面絮 \n面絮揉成光滑的面团 盖上盖子 温暖处发酵1小时以上。",
          "image" : "https:\/\/i1.douguo.com\/upload\/caiku\/7\/d\/b\/7d30595561d37a28c78f95525a0c308b.jpeg",
          "position" : 1
        },
        {
          "position" : 2,
          "image_height" : 2880,
          "thumb" : "https:\/\/i1.douguo.com\/upload\/caiku\/9\/9\/4\/140_990cdd073def5dab33dd3b2394df6794.jpeg",
          "image_width" : 3840,
          "image" : "https:\/\/i1.douguo.com\/upload\/caiku\/9\/9\/4\/990cdd073def5dab33dd3b2394df6794.jpeg",
          "content" : "青萝卜削皮 擦成粗丝。\n萝卜丝中撒入1勺食盐 \n搅拌均匀 腌制15分钟。",
          "frame" : "-1"
        },
        {
          "image_height" : 2154,
          "content" : "提前泡软的红薯粉条 放入碗中 倒入开水",
          "position" : 3,
          "thumb" : "https:\/\/i1.douguo.com\/upload\/caiku\/8\/3\/f\/140_839a175283760d2181d301e6a53ce60f.jpeg",
          "image_width" : 3840,
          "frame" : "-1",
          "image" : "https:\/\/i1.douguo.com\/upload\/caiku\/8\/3\/f\/839a175283760d2181d301e6a53ce60f.jpeg"
        },
        {
          "position" : 4,
          "content" : "盖上盖子 焖3分钟左右",
          "frame" : "-1",
          "image_height" : 2127,
          "image" : "https:\/\/i1.douguo.com\/upload\/caiku\/8\/f\/1\/8fea4756d0c40a7812eb34873dc06c21.jpeg",
          "thumb" : "https:\/\/i1.douguo.com\/upload\/caiku\/8\/f\/1\/140_8fea4756d0c40a7812eb34873dc06c21.jpeg",
          "image_width" : 3840
        },
        {
          "position" : 5,
          "image" : "https:\/\/i1.douguo.com\/upload\/caiku\/b\/3\/c\/b3a288d7b8a5cd68ae7055cb3f74dddc.jpeg",
          "thumb" : "https:\/\/i1.douguo.com\/upload\/caiku\/b\/3\/c\/140_b3a288d7b8a5cd68ae7055cb3f74dddc.jpeg",
          "image_width" : 3840,
          "frame" : "-1",
          "content" : "碗中磕入3颗鸡蛋 加入1小勺白胡椒粉 \n鸡蛋搅打成蛋液 \n炒锅烧热 放油 倒入蛋液 炒熟。\n鸡蛋炒熟 炒碎 关火放凉 备用。",
          "image_height" : 2880
        },
        {
          "content" : "腌出水的萝卜丝 加入清水 冲洗一下 \n捞出萝卜丝 攥干水分  \n攥干水的萝卜丝切碎 装入料理盆中",
          "image_width" : 3840,
          "frame" : "-1",
          "image_height" : 2880,
          "thumb" : "https:\/\/i1.douguo.com\/upload\/caiku\/f\/c\/4\/140_fc800d922ad461cf74e7a323a12d4844.jpeg",
          "position" : 6,
          "image" : "https:\/\/i1.douguo.com\/upload\/caiku\/f\/c\/4\/fc800d922ad461cf74e7a323a12d4844.jpeg"
        },
        {
          "thumb" : "https:\/\/i1.douguo.com\/upload\/caiku\/2\/f\/3\/140_2fe5471eb3d3ee19e908c8660aaad523.jpeg",
          "image_height" : 2880,
          "position" : 7,
          "image_width" : 3840,
          "content" : "烫熟的粉条 过冷水 完全过凉后 捞出 切碎。\n粉条碎中 加入1小勺十三香 1勺蚝油 2勺生抽",
          "frame" : "-1",
          "image" : "https:\/\/i1.douguo.com\/upload\/caiku\/2\/f\/3\/2fe5471eb3d3ee19e908c8660aaad523.jpeg"
        },
        {
          "image_width" : 3840,
          "image_height" : 2880,
          "thumb" : "https:\/\/i1.douguo.com\/upload\/caiku\/9\/9\/d\/140_99b352788c6796be3e8effb9cf7b4d0d.jpeg",
          "frame" : "-1",
          "image" : "https:\/\/i1.douguo.com\/upload\/caiku\/9\/9\/d\/99b352788c6796be3e8effb9cf7b4d0d.jpeg",
          "position" : 8,
          "content" : "调料拌匀 再淋入少许香油 \n搅拌至粉条碎均匀裹满香油"
        },
        {
          "position" : 9,
          "image" : "https:\/\/i1.douguo.com\/upload\/caiku\/0\/5\/7\/054296f36cf241e336ed089686153657.jpeg",
          "image_height" : 2880,
          "image_width" : 3840,
          "thumb" : "https:\/\/i1.douguo.com\/upload\/caiku\/0\/5\/7\/140_054296f36cf241e336ed089686153657.jpeg",
          "frame" : "-1",
          "content" : "切碎的萝卜丝  拌好的粉条碎和放凉的鸡蛋 放入料理盆 \n加入30克虾皮 \n放入葱末\n食用油烧热 趁热浇在葱末上 炸出葱香味"
        },
        {
          "content" : "馅料搅拌均匀 \n加入食盐 拌匀后 完成调馅。",
          "image_height" : 2880,
          "frame" : "-1",
          "position" : 10,
          "thumb" : "https:\/\/i1.douguo.com\/upload\/caiku\/2\/6\/6\/140_267cead0d58f96d1d1251c671de44b16.jpeg",
          "image" : "https:\/\/i1.douguo.com\/upload\/caiku\/2\/6\/6\/267cead0d58f96d1d1251c671de44b16.jpeg",
          "image_width" : 3840
        },
        {
          "content" : "发酵好的面团 取出 揉面排气 。\n面团再次揉光滑 搓成长条  揪成小面剂 \n面剂子按扁 擀成包子皮",
          "thumb" : "https:\/\/i1.douguo.com\/upload\/caiku\/d\/7\/b\/140_d79b8431bd4cae5e5074fce9bdaa184b.jpeg",
          "frame" : "-1",
          "image" : "https:\/\/i1.douguo.com\/upload\/caiku\/d\/7\/b\/d79b8431bd4cae5e5074fce9bdaa184b.jpeg",
          "image_width" : 3840,
          "position" : 11,
          "image_height" : 2880
        },
        {
          "position" : 12,
          "thumb" : "https:\/\/i1.douguo.com\/upload\/caiku\/2\/1\/c\/140_212c2c9e4ee5327101a0bbd56bab03bc.jpeg",
          "frame" : "-1",
          "image_width" : 3840,
          "image" : "https:\/\/i1.douguo.com\/upload\/caiku\/2\/1\/c\/212c2c9e4ee5327101a0bbd56bab03bc.jpeg",
          "content" : "取一张包子皮 盛入调好的馅料 \n均匀捏褶 包成包子",
          "image_height" : 2880
        },
        {
          "image_width" : 3840,
          "thumb" : "https:\/\/i1.douguo.com\/upload\/caiku\/f\/b\/8\/140_fb7cc382f1bfa6aa2eaaca88c9ff8a68.jpeg",
          "content" : "包好的包子生胚摆入蒸屉 2次发酵20分钟",
          "frame" : "-1",
          "image_height" : 2166,
          "image" : "https:\/\/i1.douguo.com\/upload\/caiku\/f\/b\/8\/fb7cc382f1bfa6aa2eaaca88c9ff8a68.jpeg",
          "position" : 13
        },
        {
          "position" : 14,
          "image_height" : 2121,
          "image" : "https:\/\/i1.douguo.com\/upload\/caiku\/e\/e\/7\/eec7992e3c515bf445c22ca78df99997.jpeg",
          "thumb" : "https:\/\/i1.douguo.com\/upload\/caiku\/e\/e\/7\/140_eec7992e3c515bf445c22ca78df99997.jpeg",
          "content" : "包子经过2次发酵 蒸锅烧至上汽 计时20分钟",
          "image_width" : 3840,
          "frame" : "-1"
        },
        {
          "content" : "蒸锅计时结束 关火 继续焖蒸8分钟 即可开锅",
          "image_width" : 3840,
          "position" : 15,
          "image" : "https:\/\/i1.douguo.com\/upload\/caiku\/c\/8\/7\/c8c2a53e1b1daf33556d8721cde84ff7.jpeg",
          "image_height" : 2157,
          "frame" : "-1",
          "thumb" : "https:\/\/i1.douguo.com\/upload\/caiku\/c\/8\/7\/140_c8c2a53e1b1daf33556d8721cde84ff7.jpeg"
        },
        {
          "position" : 16,
          "content" : "✅完成✅",
          "thumb" : "https:\/\/i1.douguo.com\/upload\/caiku\/e\/6\/0\/140_e6420076222a2f612f25062d7b0dd9d0.jpeg",
          "image_width" : 3840,
          "frame" : "-1",
          "image" : "https:\/\/i1.douguo.com\/upload\/caiku\/e\/6\/0\/e6420076222a2f612f25062d7b0dd9d0.jpeg",
          "image_height" : 2160
        }
      ],
      "favo_counts_text" : "5400",
      "su" : "",
      "ipt" : "",
      "ss" : [

      ],
      "rdsps" : [

      ],
      "packages_id" : [

      ],
      "thumb_path" : "https:\/\/i1.douguo.com\/upload\/caiku\/f\/1\/d\/300_f11e9b2e5851aa64ad37d77823efc5dd.jpeg",
      "cook_id" : "3265990",
      "act_des" : "",
      "rsm" : "该功能暂停使用",
      "recipe_tags" : [

      ],
      "old_comments" : [

      ],
      "rewarded_video_dsp" : [

      ],
      "author_id" : 7726216,
      "ssu" : "",
      "thumb_height" : 0,
      "cookwares" : [

      ],
      "minor" : [

      ],
      "top_mdsp" : [

      ],
      "cookstory" : "今天这款发面包子 皮薄又暄软 素馅也鲜香\n从发面 到调馅 再到包成包子入蒸锅 看似复杂其实一点都不难 ……",
      "photo_path" : "https:\/\/i1.douguo.com\/upload\/caiku\/f\/1\/d\/600_f11e9b2e5851aa64ad37d77823efc5dd.jpeg",
      "user" : {
        "verified_url" : "https:\/\/m.douguo.com\/user\/prodesc",
        "verified" : 1,
        "user_id" : "7726216",
        "following_count" : 0,
        "nick" : "虫懒懒",
        "qq_weibo_nick" : "",
        "userid" : "7726216",
        "avatar_medium" : "http:\/\/tx1.douguo.net\/upload\/photo\/c\/8\/6\/140_u20524080673637183526.jpeg",
        "followers_count" : 0,
        "birthday" : "",
        "regist_time" : "",
        "point" : 0,
        "setted_email" : 0,
        "diaries_count" : 0,
        "lvl" : 8,
        "location" : 0,
        "fc" : 0,
        "age" : "",
        "coursecount" : 0,
        "weibo_nick" : "",
        "gender" : 2,
        "is_prime" : 0,
        "subscription" : 0,
        "progress_image" : "",
        "user_photo" : "http:\/\/tx1.douguo.net\/upload\/photo\/c\/8\/6\/70_u20524080673637183526.jpeg",
        "subscription_article_count" : 0,
        "mobile" : "",
        "user_cover" : "",
        "sign" : "",
        "qzone_nick" : "",
        "favor_diaries_count" : 0,
        "favorites_count" : 0,
        "introduction" : "",
        "user_large_photo" : "http:\/\/tx1.douguo.net\/upload\/photo\/c\/8\/6\/yuan_u20524080673637183526.jpeg",
        "dishes_count" : 0,
        "recipes_count" : 0,
        "lv" : 0,
        "email" : "",
        "pc" : 0,
        "verified_image" : "https:\/\/i1.douguo.com\/upload\/note\/d\/a\/a\/da84247847aebe48d9dd0fcdac88862a.png"
      },
      "rpst" : "",
      "bs" : [

      ],
      "sc" : 0,
      "ipoi" : "",
      "collect_status" : 0,
      "dishes" : [

      ],
      "ipci" : "",
      "major" : [
        {
          "title" : "发面面团",
          "note" : ""
        },
        {
          "note" : "500克",
          "title" : "面粉",
          "tu" : "https:\/\/m.douguo.com\/ingredients\/面粉\/detailmaterial"
        },
        {
          "title" : "酵母",
          "note" : "5g",
          "tu" : "https:\/\/m.douguo.com\/ingredients\/酵母\/detailmaterial"
        },
        {
          "note" : "10克",
          "tu" : "https:\/\/m.douguo.com\/ingredients\/白糖\/detailmaterial",
          "title" : "白糖"
        },
        {
          "note" : "260克",
          "tu" : "https:\/\/m.douguo.com\/ingredients\/温水\/detailmaterial",
          "title" : "温水"
        },
        {
          "note" : "",
          "title" : "馅料"
        },
        {
          "title" : "青萝卜",
          "tu" : "https:\/\/m.douguo.com\/ingredients\/青萝卜\/detailmaterial",
          "note" : "1个"
        },
        {
          "title" : "红薯粉条",
          "note" : "1把"
        },
        {
          "title" : "鸡蛋",
          "tu" : "https:\/\/m.douguo.com\/ingredients\/鸡蛋\/detailmaterial",
          "note" : "3个"
        },
        {
          "note" : "30克",
          "tu" : "https:\/\/m.douguo.com\/ingredients\/虾皮\/detailmaterial",
          "title" : "虾皮"
        },
        {
          "title" : "小葱",
          "tu" : "https:\/\/m.douguo.com\/ingredients\/小葱\/detailmaterial",
          "note" : "2根"
        },
        {
          "note" : "1大勺",
          "title" : "热油"
        },
        {
          "tu" : "https:\/\/m.douguo.com\/ingredients\/盐\/detailmaterial",
          "title" : "盐",
          "note" : "6克"
        },
        {
          "title" : "十三香",
          "tu" : "https:\/\/m.douguo.com\/ingredients\/十三香\/detailmaterial",
          "note" : "1小勺"
        },
        {
          "title" : "味达美秘制鲜蚝油",
          "note" : "1汤"
        },
        {
          "note" : "2汤勺",
          "title" : "生抽",
          "tu" : "https:\/\/m.douguo.com\/ingredients\/生抽\/detailmaterial"
        },
        {
          "title" : "香油",
          "tu" : "https:\/\/m.douguo.com\/ingredients\/香油\/detailmaterial",
          "note" : "适量"
        }
      ],
      "recent_comments" : [

      ],
      "rpt" : "",
      "rate_show" : 0
    }
  },
  "state" : "success"
}