{
  "result" : {
    "recipe" : {
      "cook_difficulty" : "",
      "old_comments" : [

      ],
      "ipit" : 0,
      "cook_time" : "",
      "ipt" : "",
      "ph" : 1098,
      "purl" : "",
      "recipe_list_tags" : [
        {
          "background_start_color" : "#F4F5F5",
          "text_color" : "#141515",
          "text" : "关注的人",
          "background_border_color" : "",
          "background_end_color" : "#F4F5F5",
          "jump_url" : "",
          "right_image" : ""
        }
      ],
      "cookstep" : [
        {
          "position" : 1,
          "frame" : "-1",
          "image_height" : 654,
          "image" : "https:\/\/i1.douguo.com\/upload\/caiku\/4\/a\/4\/4a586d03ffff9b2c05e71d9fe26ef3e4.jpg",
          "image_width" : 799,
          "thumb" : "https:\/\/i1.douguo.com\/upload\/caiku\/4\/a\/4\/140_4a586d03ffff9b2c05e71d9fe26ef3e4.jpg",
          "content" : "空心菜去掉叶子，洗干净备用"
        },
        {
          "thumb" : "https:\/\/i1.douguo.com\/upload\/caiku\/a\/1\/b\/140_a17a71e78b56d3d98b533d11086e53eb.jpg",
          "image" : "https:\/\/i1.douguo.com\/upload\/caiku\/a\/1\/b\/a17a71e78b56d3d98b533d11086e53eb.jpg",
          "image_width" : 800,
          "frame" : "-1",
          "image_height" : 599,
          "position" : 2,
          "content" : "洗干净的空心菜梗切成小段"
        },
        {
          "position" : 3,
          "frame" : "-1",
          "thumb" : "https:\/\/i1.douguo.com\/upload\/caiku\/e\/5\/b\/140_e5403aa840af20d815054665f5c79abb.jpg",
          "image" : "https:\/\/i1.douguo.com\/upload\/caiku\/e\/5\/b\/e5403aa840af20d815054665f5c79abb.jpg",
          "image_height" : 800,
          "image_width" : 800,
          "content" : "辣椒和大蒜切碎"
        },
        {
          "image_width" : 1215,
          "content" : "锅里入油，先放大蒜和辣椒炒香",
          "image_height" : 1215,
          "image" : "https:\/\/i1.douguo.com\/upload\/caiku\/2\/9\/2\/297cfa2ab54ce8cf187698348600e632.jpg",
          "frame" : "-1",
          "thumb" : "https:\/\/i1.douguo.com\/upload\/caiku\/2\/9\/2\/140_297cfa2ab54ce8cf187698348600e632.jpg",
          "position" : 4
        },
        {
          "image" : "https:\/\/i1.douguo.com\/upload\/caiku\/4\/4\/8\/44059421202f1ca6e3324e3db1e0a168.jpg",
          "frame" : "-1",
          "position" : 5,
          "thumb" : "https:\/\/i1.douguo.com\/upload\/caiku\/4\/4\/8\/140_44059421202f1ca6e3324e3db1e0a168.jpg",
          "content" : "接着放入空心菜梗翻炒一会儿，放入适量盐鸡精",
          "image_width" : 800,
          "image_height" : 506
        },
        {
          "content" : "成品",
          "image" : "https:\/\/i1.douguo.com\/upload\/caiku\/b\/d\/4\/bdf02901e1e8fc41ee28952eee2a1e94.jpg",
          "frame" : "-1",
          "thumb" : "https:\/\/i1.douguo.com\/upload\/caiku\/b\/d\/4\/140_bdf02901e1e8fc41ee28952eee2a1e94.jpg",
          "position" : 6,
          "image_width" : 800,
          "image_height" : 632
        }
      ],
      "vfurl" : "",
      "recent_comments" : [

      ],
      "ipurl" : "",
      "author" : "凡妈小厨房",
      "rrpt" : "",
      "top_mdsp" : [

      ],
      "ssu" : "",
      "recommendation_tag" : "",
      "cookwares" : [

      ],
      "thumb_height" : 0,
      "collect_status" : 0,
      "cook_id" : "1577118",
      "recommended" : 0,
      "hqu" : "recipes:\/\/www.douguo.com\/notedetail?id=21162253",
      "dish_count" : 8,
      "v_u" : "",
      "ecs" : 0,
      "story_dsp" : [

      ],
      "tips" : "",
      "vc" : "1430290",
      "advice" : {
        "da" : {
          "url" : "https:\/\/m.douguo.com\/recipe\/nutrient_self\/1577118",
          "t" : "查看详细分析",
          "iu" : "https:\/\/i1.douguo.com\/upload\/banner\/f\/4\/d\/f48877e53c37759bc12ac494be82ec8d.png"
        },
        "has" : [
          {
            "url" : "recipes:\/\/www.douguo.com\/simplerecipelist?t=低脂&id=低脂",
            "t" : "低脂"
          },
          {
            "url" : "recipes:\/\/www.douguo.com\/simplerecipelist?t=富含维生素C&id=富含维生素C",
            "t" : "富含维生素C"
          }
        ],
        "at" : "健身人群可以吃～"
      },
      "guide_image" : "",
      "rpid" : 0,
      "ipoi" : "",
      "minor" : [

      ],
      "image" : "http:\/\/i1.douguo.net\/upload\/caiku\/5\/9\/0\/300_5981b8bd6cd09e9fb6bd27558490c120.jpg",
      "rate" : 5,
      "clicks" : "1414258",
      "cookstory" : "空心菜含有丰富的维生素A原、B族维生素、维生素C及烟酸和蛋白质、脂肪、钙、磷、铁等。具有促进肠蠕动、通便解毒之功效。",
      "rips" : 0,
      "share_info" : {
        "qr_image" : "",
        "object_id" : "1577118",
        "s_d" : "素炒空心菜梗-会做饭很酷!",
        "image" : "https:\/\/cp1.douguo.com\/upload\/caiku\/5\/9\/0\/5981b8bd6cd09e9fb6bd27558490c120.jpg",
        "infos" : [
          {
            "mini_program" : [

            ],
            "channel" : "1",
            "object_id" : "1577118",
            "qr_image" : "",
            "s_d" : "#学做饭用豆果美食# 我在@豆果美食 分享了【素炒空心菜梗-会做饭很酷!】，这菜真的很好吃，而且做法简单不难学，还不快来跟我学～查看图片了解菜谱（每天限量免费课程，想跟大师学厨艺就来这https:\/\/m.weibo.cn\/p\/100404i33631）#会做饭很酷# ",
            "name" : "素炒空心菜梗-会做饭很酷!",
            "s_u" : "",
            "image" : "https:\/\/cp1.douguo.com\/upload\/caiku\/5\/9\/0\/5981b8bd6cd09e9fb6bd27558490c120.jpg"
          },
          {
            "s_u" : "http:\/\/m.douguo.com\/cookbook\/1577118.html",
            "mini_program" : [

            ],
            "s_d" : "素炒空心菜梗-会做饭很酷!",
            "object_id" : "1577118",
            "channel" : "7",
            "qr_image" : "",
            "image" : "https:\/\/cp1.douguo.com\/upload\/caiku\/5\/9\/0\/5981b8bd6cd09e9fb6bd27558490c120.jpg",
            "name" : "素炒空心菜梗-会做饭很酷!"
          },
          {
            "channel" : "8",
            "qr_image" : "",
            "s_u" : "http:\/\/m.douguo.com\/cookbook\/1577118.html",
            "mini_program" : [

            ],
            "image" : "https:\/\/cp1.douguo.com\/upload\/caiku\/5\/9\/0\/5981b8bd6cd09e9fb6bd27558490c120.jpg",
            "s_d" : "素炒空心菜梗-会做饭很酷!",
            "object_id" : "1577118",
            "name" : "素炒空心菜梗-会做饭很酷!"
          }
        ],
        "mini_program" : [

        ],
        "s_u" : "http:\/\/m.douguo.com\/cookbook\/1577118.html",
        "name" : "素炒空心菜梗-会做饭很酷!"
      },
      "ipia" : [

      ],
      "related_ads" : [

      ],
      "major" : [
        {
          "note" : "500克",
          "title" : "空心菜梗"
        },
        {
          "title" : "大蒜",
          "tu" : "https:\/\/m.douguo.com\/ingredients\/大蒜\/detailmaterial",
          "note" : "半个"
        },
        {
          "note" : "3-4个",
          "tu" : "https:\/\/m.douguo.com\/ingredients\/小米椒\/detailmaterial",
          "title" : "小米椒"
        }
      ],
      "sc" : 0,
      "dish_count_text" : "8",
      "recipe_tags" : [

      ],
      "cookstorys" : [
        {
          "type" : 0,
          "u" : "",
          "icon" : "",
          "color" : "",
          "c" : "空心菜含有丰富的维生素A原、B族维生素、维生素C及烟酸和蛋白质、脂肪、钙、磷、铁等。具有促进肠蠕动、通便解毒之功效。",
          "id" : 0
        }
      ],
      "packages_id" : [

      ],
      "thumb_path" : "https:\/\/i1.douguo.com\/upload\/caiku\/5\/9\/0\/300_5981b8bd6cd09e9fb6bd27558490c120.jpg",
      "rpst" : "",
      "eu" : "recipes:\/\/www.douguo.com\/postdetail?id=242016",
      "pw" : 1523,
      "views_count_text" : "143.0万",
      "recommend_label" : "8人学做",
      "author_id" : 17639536,
      "favo_counts_text" : "5647",
      "ipci" : "",
      "notes" : [

      ],
      "rewarded_video_dsp" : [

      ],
      "levelid" : 2,
      "cook_time_image" : "",
      "comments_count_text" : "7",
      "tags" : [

      ],
      "comments" : [
        "{\n    ac = \"#999999\";\n    at = \"\";\n    ccc = 1;\n    \"child_comments\" =     (\n                {\n            ac = \"#999999\";\n            at = \"\\U8861\\U9633\\U5e02\";\n            ccc = 0;\n            city = \"\\U8861\\U9633\\U5e02\";\n            cmc = 2;\n            content =             (\n                                {\n                    c = \" \\U5c31\\U8fd9\\U6837\\U7092\\U6700\\U539f\\U6c41\\U539f\\U5473\\Uff0c\\U4f60\\U4f1a\\U4e0d\\U4f1a\\U5403\\n\";\n                }\n            );\n            ia = 0;\n            id = 8016391;\n            \"ip_address_location\" = \"\";\n            like = 0;\n            \"like_count\" = 0;\n            \"reply_id\" = 5888028;\n            \"reply_user\" =             {\n                \"followers_count_text\" = \"\";\n                id = 22425171;\n                \"is_prime\" = 0;\n                lv = 0;\n                lvl = 1;\n                n = \"\\U8c46\\U7c895005702849\";\n                p = \"\";\n                \"progress_image\" = \"\";\n                \"recipes_count_text\" = \"\";\n                relationship = \"-1\";\n                title = \"\";\n                v = 0;\n                \"verified_image\" = \"\";\n            };\n            \"sticker_icon\" =             (\n            );\n            time = \"2020-05-26 18:47:14\";\n            u =             {\n                \"followers_count_text\" = \"\";\n                id = 23754316;\n                \"is_prime\" = 0;\n                lv = 0;\n                lvl = 1;\n                n = \"\\U8c46\\U7c899661892444\";\n                p = \"\";\n                \"progress_image\" = \"\";\n                \"recipes_count_text\" = \"\";\n                relationship = \"-1\";\n                title = \"\";\n                v = 0;\n                \"verified_image\" = \"\";\n            };\n        }\n    );\n    city = \"\";\n    cmc = 2;\n    content =     (\n                {\n            c = \"\\U7092\\U7a7a\\U5fc3\\U83dc\\U6897\\U4e0d\\U653e\\U9178\\U6885\\Uff0c\\U7c73\\U918b\\Uff0c\\U8017\\U6cb9\\Uff0c\\U4f60\\U5403\\U5f97\\U4e0b\\Uff0c\\U5c31\\U8fd9\\U4e2a\\U7092\\U6cd5\\U4e5f\\U597d\\U653e\\U51fa\\U6765\\Uff0c\\U5475\\U5475\\U4e86\\U3002\";\n        }\n    );\n    ia = 0;\n    id = 5888028;\n    \"ip_address_location\" = \"\";\n    like = 0;\n    \"like_count\" = 1;\n    \"reply_id\" = 0;\n    \"sticker_icon\" =     (\n    );\n    time = \"2018-07-28 16:03:01\";\n    u =     {\n        \"followers_count_text\" = \"\";\n        id = 22425171;\n        \"is_prime\" = 0;\n        lv = 0;\n        lvl = 1;\n        n = \"\\U8c46\\U7c895005702849\";\n        p = \"\";\n        \"progress_image\" = \"\";\n        \"recipes_count_text\" = \"\";\n        relationship = \"-1\";\n        title = \"\";\n        v = 0;\n        \"verified_image\" = \"\";\n    };\n}",
        "{\n    ac = \"#999999\";\n    at = \"\\U6c88\\U9633\\U5e02\";\n    ccc = 0;\n    \"child_comments\" =     (\n    );\n    city = \"\\U6c88\\U9633\\U5e02\";\n    cmc = 2;\n    content =     (\n                {\n            c = \"\\U7528\\U918b\\U6413\\U4e00\\U4e0b\\Uff0c\\U5207\\U6bb5\\U518d\\U7092\\U3002\\U633a\\U597d\\U5403\\U7684\\U3002\";\n        }\n    );\n    ia = 0;\n    id = 8954591;\n    \"ip_address_location\" = \"\";\n    like = 0;\n    \"like_count\" = 0;\n    \"reply_id\" = 0;\n    \"sticker_icon\" =     (\n    );\n    time = \"2022-07-08 17:04:00\";\n    u =     {\n        \"followers_count_text\" = \"\";\n        id = 17032139;\n        \"is_prime\" = 0;\n        lv = 0;\n        lvl = 1;\n        n = \"\\U738b\\U96c5\\U4e3dnmao\";\n        p = \"http:\/\/tx1.douguo.net\/upload\/photo\/c\/8\/b\/70_u59569557220576130134.jpg\";\n        \"progress_image\" = \"\";\n        \"recipes_count_text\" = \"\";\n        relationship = \"-1\";\n        title = \"\";\n        v = 0;\n        \"verified_image\" = \"\";\n    };\n}",
        "{\n    ac = \"#999999\";\n    at = \"\";\n    ccc = 0;\n    \"child_comments\" =     (\n    );\n    city = \"\";\n    cmc = 2;\n    content =     (\n                {\n            c = \"\\U5fc3\\U60c5\\U4e0d\\U597d\\U65f6\\U6211\\U5c31\\U4f1a\\U6765\\U770b\\U5403\\U7684\\Uff0c\\U770b\\U5230\\U8fd9\\U4e2a\\U83dc\\U4ee5\\U540e\\U771f\\U7684\\U4e16\\U754c\\U90fd\\U6674\\U6717\\U5566\";\n        }\n    );\n    ia = 0;\n    id = 5619439;\n    \"ip_address_location\" = \"\";\n    like = 0;\n    \"like_count\" = 0;\n    \"reply_id\" = 0;\n    \"sticker_icon\" =     (\n    );\n    time = \"2018-04-21 16:46:26\";\n    u =     {\n        \"followers_count_text\" = \"\";\n        id = 18474269;\n        \"is_prime\" = 0;\n        lv = 0;\n        lvl = 3;\n        n = dabaoma430;\n        p = \"http:\/\/tx1.douguo.net\/upload\/photo\/3\/a\/0\/70_3a7af79718b8ed15c5d70e793055d7e0.jpeg\";\n        \"progress_image\" = \"\";\n        \"recipes_count_text\" = \"\";\n        relationship = \"-1\";\n        title = \"\";\n        v = 0;\n        \"verified_image\" = \"\";\n    };\n}"
      ],
      "photo_path" : "https:\/\/i1.douguo.com\/upload\/caiku\/5\/9\/0\/600_5981b8bd6cd09e9fb6bd27558490c120.jpg",
      "rate_show" : 0,
      "ss" : [

      ],
      "bs" : [

      ],
      "release_time" : "",
      "sr" : "",
      "mid_mdsp" : [

      ],
      "rcs" : [

      ],
      "favo_counts" : 5647,
      "vu" : "",
      "rpt" : "",
      "rate_count" : 7,
      "author_verified" : 1,
      "first_level_comment_count" : 6,
      "display_ingredient" : 1,
      "su" : "",
      "brand_day_dsp" : [

      ],
      "cook_difficulty_image" : "",
      "btm_dsp" : [

      ],
      "rsm" : "该功能暂停使用",
      "rdsps" : [

      ],
      "act_des" : "",
      "comments_count" : 7,
      "create_time" : "2017-07-12 00:03:15",
      "user" : {
        "following_count" : 0,
        "mobile" : "",
        "avatar_medium" : "http:\/\/tx1.douguo.net\/upload\/photo\/d\/0\/6\/140_u65211479190670203729.jpg",
        "lvl" : 6,
        "favorites_count" : 0,
        "verified_image" : "https:\/\/i1.douguo.com\/upload\/note\/d\/a\/a\/da84247847aebe48d9dd0fcdac88862a.png",
        "user_cover" : "",
        "nick" : "凡妈小厨房",
        "lv" : 0,
        "favor_diaries_count" : 0,
        "user_photo" : "http:\/\/tx1.douguo.net\/upload\/photo\/d\/0\/6\/70_u65211479190670203729.jpg",
        "qzone_nick" : "",
        "birthday" : "",
        "introduction" : "",
        "is_prime" : 0,
        "sign" : "",
        "dishes_count" : 0,
        "coursecount" : 0,
        "user_large_photo" : "http:\/\/tx1.douguo.net\/upload\/photo\/d\/0\/6\/yuan_u65211479190670203729.jpg",
        "verified_url" : "https:\/\/m.douguo.com\/user\/prodesc",
        "user_id" : "17639536",
        "verified" : 1,
        "qq_weibo_nick" : "",
        "progress_image" : "",
        "fc" : 0,
        "age" : "",
        "point" : 0,
        "weibo_nick" : "",
        "location" : 0,
        "pc" : 0,
        "email" : "",
        "gender" : 2,
        "recipes_count" : 0,
        "regist_time" : "",
        "userid" : "17639536",
        "setted_email" : 0,
        "diaries_count" : 0,
        "followers_count" : 0,
        "subscription_article_count" : 0,
        "subscription" : 0
      },
      "title_ad" : [

      ],
      "title" : "素炒空心菜梗",
      "dishes" : [

      ],
      "hq" : 1,
      "author_photo" : "http:\/\/tx1.douguo.net\/upload\/photo\/d\/0\/6\/70_u65211479190670203729.jpg",
      "original_photo_path" : "http:\/\/i1.douguo.net\/upload\/caiku\/5\/9\/0\/yuan_5981b8bd6cd09e9fb6bd27558490c120.jpg",
      "rrps" : [

      ]
    }
  },
  "state" : "success",
  "status" : 0
}