{
  "result" : {
    "recipe" : {
      "author_id" : 25427427,
      "cook_time" : "",
      "first_level_comment_count" : 6,
      "ecs" : 1,
      "mid_mdsp" : [

      ],
      "cook_difficulty" : "",
      "ipt" : "",
      "packages_id" : [

      ],
      "title_ad" : [

      ],
      "hq" : 0,
      "collect_status" : 0,
      "dish_count" : 0,
      "tags" : [

      ],
      "levelid" : 3,
      "thumb_height" : 0,
      "cookwares" : [

      ],
      "create_time" : "2020-07-27 16:07:22",
      "share_info" : {
        "infos" : [
          {
            "image" : "https:\/\/cp1.douguo.com\/upload\/caiku\/8\/5\/9\/85f7df222a4cccfac87e2509053bb0d9.jpeg",
            "qr_image" : "",
            "s_d" : "#学做饭用豆果美食# 会做饭真是太酷了！我在@豆果美食 分享了【鸽子蛋姜薯薏米甜汤-会做饭很酷!】，这道菜真的神仙美味！喜欢的一定要试试绝对不会错的！～查看图片了解菜谱（快来点击https:\/\/m.weibo.cn\/p\/100404i33631和我一起修炼厨艺吧）",
            "object_id" : "2533759",
            "channel" : "1",
            "s_u" : "",
            "mini_program" : [

            ],
            "name" : "鸽子蛋姜薯薏米甜汤-会做饭很酷!"
          },
          {
            "qr_image" : "",
            "image" : "https:\/\/cp1.douguo.com\/upload\/caiku\/8\/5\/9\/85f7df222a4cccfac87e2509053bb0d9.jpeg",
            "object_id" : "2533759",
            "mini_program" : [

            ],
            "channel" : "7",
            "s_d" : "鸽子蛋姜薯薏米甜汤-会做饭很酷!",
            "s_u" : "http:\/\/m.douguo.com\/cookbook\/2533759.html",
            "name" : "鸽子蛋姜薯薏米甜汤-会做饭很酷!"
          },
          {
            "s_d" : "鸽子蛋姜薯薏米甜汤-会做饭很酷!",
            "name" : "鸽子蛋姜薯薏米甜汤-会做饭很酷!",
            "mini_program" : [

            ],
            "object_id" : "2533759",
            "channel" : "8",
            "image" : "https:\/\/cp1.douguo.com\/upload\/caiku\/8\/5\/9\/85f7df222a4cccfac87e2509053bb0d9.jpeg",
            "s_u" : "http:\/\/m.douguo.com\/cookbook\/2533759.html",
            "qr_image" : ""
          }
        ],
        "qr_image" : "",
        "mini_program" : [

        ],
        "object_id" : "2533759",
        "s_u" : "http:\/\/m.douguo.com\/cookbook\/2533759.html",
        "s_d" : "鸽子蛋姜薯薏米甜汤-会做饭很酷!",
        "image" : "https:\/\/cp1.douguo.com\/upload\/caiku\/8\/5\/9\/85f7df222a4cccfac87e2509053bb0d9.jpeg",
        "name" : "鸽子蛋姜薯薏米甜汤-会做饭很酷!"
      },
      "rpt" : "",
      "ipci" : "",
      "rate" : 0,
      "related_ads" : [

      ],
      "rdsps" : [

      ],
      "brand_day_dsp" : [

      ],
      "guide_image" : "",
      "recipe_list_tags" : [
        {
          "jump_url" : "",
          "background_end_color" : "#F4F5F5",
          "background_border_color" : "",
          "text_color" : "#141515",
          "right_image" : "",
          "background_start_color" : "#F4F5F5",
          "text" : "关注的人"
        }
      ],
      "major" : [
        {
          "tu" : "https:\/\/m.douguo.com\/ingredients\/薏米\/detailmaterial",
          "title" : "薏米",
          "note" : "1碗"
        },
        {
          "title" : "姜薯",
          "note" : "300g"
        },
        {
          "note" : "8个",
          "tu" : "https:\/\/m.douguo.com\/ingredients\/鸽子蛋\/detailmaterial",
          "title" : "鸽子蛋"
        },
        {
          "note" : "适量",
          "tu" : "https:\/\/m.douguo.com\/ingredients\/糖\/detailmaterial",
          "title" : "糖"
        }
      ],
      "sc" : 0,
      "title" : "鸽子蛋姜薯薏米甜汤",
      "rips" : 0,
      "btm_dsp" : [

      ],
      "ss" : [

      ],
      "author_photo" : "http:\/\/tx1.douguo.net\/upload\/photo\/c\/8\/3\/70_u87901729356383201215.jpeg",
      "rcs" : [

      ],
      "vc" : "28713",
      "ipurl" : "",
      "rpid" : 0,
      "ipoi" : "",
      "author_verified" : 0,
      "ipit" : 0,
      "release_time" : "",
      "purl" : "",
      "minor" : [

      ],
      "views_count_text" : "2.9万",
      "sr" : "",
      "recommend_label" : "2.9万人看过",
      "story_dsp" : [

      ],
      "comments_count" : 12,
      "hqu" : "recipes:\/\/www.douguo.com\/notedetail?id=21162253",
      "ipia" : [

      ],
      "user" : {
        "qzone_nick" : "",
        "lvl" : 6,
        "is_prime" : 0,
        "dishes_count" : 0,
        "regist_time" : "",
        "favorites_count" : 0,
        "sign" : "",
        "verified_image" : "",
        "point" : 0,
        "setted_email" : 0,
        "following_count" : 0,
        "birthday" : "",
        "progress_image" : "",
        "verified_url" : "https:\/\/m.douguo.com\/user\/prodesc",
        "subscription_article_count" : 0,
        "verified" : 0,
        "user_cover" : "",
        "followers_count" : 0,
        "recipes_count" : 0,
        "age" : "",
        "lv" : 0,
        "diaries_count" : 0,
        "subscription" : 0,
        "qq_weibo_nick" : "",
        "coursecount" : 0,
        "pc" : 0,
        "user_large_photo" : "http:\/\/tx1.douguo.net\/upload\/photo\/c\/8\/3\/yuan_u87901729356383201215.jpeg",
        "gender" : 2,
        "nick" : "兜里还有糖138",
        "fc" : 0,
        "avatar_medium" : "http:\/\/tx1.douguo.net\/upload\/photo\/c\/8\/3\/140_u87901729356383201215.jpeg",
        "favor_diaries_count" : 0,
        "weibo_nick" : "",
        "location" : 0,
        "email" : "",
        "introduction" : "",
        "user_id" : "25427427",
        "mobile" : "",
        "user_photo" : "http:\/\/tx1.douguo.net\/upload\/photo\/c\/8\/3\/70_u87901729356383201215.jpeg",
        "userid" : "25427427"
      },
      "old_comments" : [

      ],
      "cook_difficulty_image" : "",
      "comments_count_text" : "12",
      "eu" : "recipes:\/\/www.douguo.com\/postdetail?id=242016",
      "recommendation_tag" : "",
      "vu" : "https:\/\/vplay.douguo.com\/FtEEs2TJuit8Cxe6ZE9K67YVn89Z",
      "bs" : [

      ],
      "rpst" : "",
      "ssu" : "",
      "thumb_path" : "https:\/\/i1.douguo.com\/upload\/caiku\/8\/5\/9\/300_85f7df222a4cccfac87e2509053bb0d9.jpeg",
      "cook_id" : "2533759",
      "favo_counts" : 101,
      "cookstep" : [
        {
          "position" : 1,
          "image_height" : 1440,
          "content" : "鸽子蛋洗干净，锅里放入适量的冷水，小火煮10分钟。然后关火闷2分钟",
          "image" : "https:\/\/i1.douguo.com\/upload\/caiku\/e\/a\/f\/ea15e0c2c2dacc383aade5e157ed4c1f.jpeg",
          "thumb" : "https:\/\/i1.douguo.com\/upload\/caiku\/e\/a\/f\/140_ea15e0c2c2dacc383aade5e157ed4c1f.jpeg",
          "frame" : "-1",
          "image_width" : 1080
        },
        {
          "position" : 2,
          "frame" : "-1",
          "image_height" : 1440,
          "content" : "姜薯买去皮的",
          "thumb" : "https:\/\/i1.douguo.com\/upload\/caiku\/f\/c\/a\/140_fc5d3694ecf3f44c08b972a3c499ee8a.jpeg",
          "image" : "https:\/\/i1.douguo.com\/upload\/caiku\/f\/c\/a\/fc5d3694ecf3f44c08b972a3c499ee8a.jpeg",
          "image_width" : 1080
        },
        {
          "image_height" : 1440,
          "content" : "薏米洗干净，用清水浸泡2个小时",
          "position" : 3,
          "thumb" : "https:\/\/i1.douguo.com\/upload\/caiku\/1\/2\/e\/140_128f856a481972f3f71f840bc484a34e.jpeg",
          "image_width" : 1080,
          "frame" : "-1",
          "image" : "https:\/\/i1.douguo.com\/upload\/caiku\/1\/2\/e\/128f856a481972f3f71f840bc484a34e.jpeg"
        },
        {
          "position" : 4,
          "content" : "薏米放入高压锅，放入适量的，大火烧开转小火压半个小时左右",
          "frame" : "-1",
          "image_height" : 1440,
          "image" : "https:\/\/i1.douguo.com\/upload\/caiku\/f\/f\/c\/ffa6f06650fb4afa4cc3b5be2505748c.jpeg",
          "thumb" : "https:\/\/i1.douguo.com\/upload\/caiku\/f\/f\/c\/140_ffa6f06650fb4afa4cc3b5be2505748c.jpeg",
          "image_width" : 1080
        },
        {
          "position" : 5,
          "image" : "https:\/\/i1.douguo.com\/upload\/caiku\/a\/e\/7\/ae54f424668dcc03906cadb3b221dc07.jpeg",
          "thumb" : "https:\/\/i1.douguo.com\/upload\/caiku\/a\/e\/7\/140_ae54f424668dcc03906cadb3b221dc07.jpeg",
          "frame" : "-1",
          "image_width" : 1080,
          "content" : "开小火把姜薯削片，加入适量的糖",
          "image_height" : 1440
        },
        {
          "content" : "中火烧开",
          "frame" : "-1",
          "image_width" : 1080,
          "image_height" : 1440,
          "thumb" : "https:\/\/i1.douguo.com\/upload\/caiku\/9\/9\/e\/140_992738d504978f0381582ae2e252d8ce.jpeg",
          "position" : 6,
          "image" : "https:\/\/i1.douguo.com\/upload\/caiku\/9\/9\/e\/992738d504978f0381582ae2e252d8ce.jpeg"
        },
        {
          "content" : "掠去浮沫",
          "image_height" : 1440,
          "frame" : "-1",
          "position" : 7,
          "thumb" : "https:\/\/i1.douguo.com\/upload\/caiku\/6\/a\/e\/140_6a61a100015f8e165862707b7d5bdfae.jpeg",
          "image" : "https:\/\/i1.douguo.com\/upload\/caiku\/6\/a\/e\/6a61a100015f8e165862707b7d5bdfae.jpeg",
          "image_width" : 1080
        },
        {
          "image_width" : 1280,
          "thumb" : "https:\/\/i1.douguo.com\/upload\/caiku\/6\/4\/1\/140_642e398fe8c1405d68eef49eddb74a71.jpeg",
          "content" : "最后加入去好皮鸽子",
          "frame" : "-1",
          "image_height" : 960,
          "image" : "https:\/\/i1.douguo.com\/upload\/caiku\/6\/4\/1\/642e398fe8c1405d68eef49eddb74a71.jpeg",
          "position" : 8
        },
        {
          "thumb" : "https:\/\/i1.douguo.com\/upload\/caiku\/9\/8\/9\/140_98136569d061117eedc51797508b1b89.jpeg",
          "image_height" : 1440,
          "position" : 9,
          "image_width" : 1080,
          "content" : "煮好盛出可以开吃。",
          "frame" : "-1",
          "image" : "https:\/\/i1.douguo.com\/upload\/caiku\/9\/8\/9\/98136569d061117eedc51797508b1b89.jpeg"
        }
      ],
      "recipe_tags" : [

      ],
      "rrps" : [

      ],
      "image" : "http:\/\/i1.douguo.net\/upload\/caiku\/8\/5\/9\/300_85f7df222a4cccfac87e2509053bb0d9.jpeg",
      "dishes" : [

      ],
      "display_ingredient" : 1,
      "ph" : 1440,
      "dish_count_text" : "",
      "tips" : "",
      "v_u" : "",
      "vfurl" : "https:\/\/vplay.douguo.com\/FtEEs2TJuit8Cxe6ZE9K67YVn89Z__484x640.mp4",
      "comments" : [
        "{\n    ac = \"#999999\";\n    at = \"\\U9752\\U5c9b\\U5e02\";\n    ccc = 2;\n    \"child_comments\" =     (\n                {\n            ac = \"#999999\";\n            at = \"\\U6c55\\U5934\\U5e02\";\n            ccc = 0;\n            city = \"\\U6c55\\U5934\\U5e02\";\n            cmc = 2;\n            content =             (\n                                {\n                    c = \" \\U662f\\U7684\\U54c8\\Uff0c\\U4e00\\U4e2a5\\U5143\\Ud83d\\Ude1c\";\n                }\n            );\n            ia = 1;\n            id = 8169685;\n            \"ip_address_location\" = \"\";\n            like = 0;\n            \"like_count\" = 0;\n            \"reply_id\" = 8169066;\n            \"reply_user\" =             {\n                \"followers_count_text\" = \"\";\n                id = 25224522;\n                \"is_prime\" = 0;\n                lv = 0;\n                lvl = 7;\n                n = \"kimchi\\U5c31\\U662f\\U6ce1\\U83dc\";\n                p = \"http:\/\/tx1.douguo.net\/upload\/photo\/5\/3\/7\/70_536433286a7f13f9a28f9a548644ee57.jpg\";\n                \"progress_image\" = \"\";\n                \"recipes_count_text\" = \"\";\n                relationship = \"-1\";\n                title = \"\";\n                v = 1;\n                \"verified_image\" = \"\";\n            };\n            \"sticker_icon\" =             (\n            );\n            time = \"2020-07-27 20:16:26\";\n            u =             {\n                \"followers_count_text\" = \"\";\n                id = 25427427;\n                \"is_prime\" = 0;\n                lv = 0;\n                lvl = 6;\n                n = \"\\U515c\\U91cc\\U8fd8\\U6709\\U7cd6138\";\n                p = \"http:\/\/tx1.douguo.net\/upload\/photo\/c\/8\/3\/70_u87901729356383201215.jpeg\";\n                \"progress_image\" = \"\";\n                \"recipes_count_text\" = \"\";\n                relationship = \"-1\";\n                title = \"\";\n                v = 0;\n                \"verified_image\" = \"\";\n            };\n        },\n                {\n            ac = \"#999999\";\n            at = \"\\U9752\\U5c9b\\U5e02\";\n            ccc = 0;\n            city = \"\\U9752\\U5c9b\\U5e02\";\n            cmc = 2;\n            content =             (\n                                {\n                    c = \" \\U8fd8\\U771f\\U662f\\U7b2c\\U4e00\\U6b21\\U89c1\\Ud83d\\Ude0a\";\n                }\n            );\n            ia = 0;\n            id = 8169855;\n            \"ip_address_location\" = \"\";\n            like = 0;\n            \"like_count\" = 0;\n            \"reply_id\" = 8169685;\n            \"reply_user\" =             {\n                \"followers_count_text\" = \"\";\n                id = 25427427;\n                \"is_prime\" = 0;\n                lv = 0;\n                lvl = 6;\n                n = \"\\U515c\\U91cc\\U8fd8\\U6709\\U7cd6138\";\n                p = \"http:\/\/tx1.douguo.net\/upload\/photo\/c\/8\/3\/70_u87901729356383201215.jpeg\";\n                \"progress_image\" = \"\";\n                \"recipes_count_text\" = \"\";\n                relationship = \"-1\";\n                title = \"\";\n                v = 0;\n                \"verified_image\" = \"\";\n            };\n            \"sticker_icon\" =             (\n            );\n            time = \"2020-07-27 21:41:03\";\n            u =             {\n                \"followers_count_text\" = \"\";\n                id = 25224522;\n                \"is_prime\" = 0;\n                lv = 0;\n                lvl = 7;\n                n = \"kimchi\\U5c31\\U662f\\U6ce1\\U83dc\";\n                p = \"http:\/\/tx1.douguo.net\/upload\/photo\/5\/3\/7\/70_536433286a7f13f9a28f9a548644ee57.jpg\";\n                \"progress_image\" = \"\";\n                \"recipes_count_text\" = \"\";\n                relationship = \"-1\";\n                title = \"\";\n                v = 1;\n                \"verified_image\" = \"\";\n            };\n        }\n    );\n    city = \"\\U9752\\U5c9b\\U5e02\";\n    cmc = 2;\n    content =     (\n                {\n            c = \"\\U9e3d\\U5b50\\U86cb\\U662f\\U900f\\U660e\\U7684\\Uff1f\";\n        }\n    );\n    ia = 0;\n    id = 8169066;\n    \"ip_address_location\" = \"\";\n    like = 0;\n    \"like_count\" = 0;\n    \"reply_id\" = 0;\n    \"sticker_icon\" =     (\n    );\n    time = \"2020-07-27 16:47:45\";\n    u =     {\n        \"followers_count_text\" = \"\";\n        id = 25224522;\n        \"is_prime\" = 0;\n        lv = 0;\n        lvl = 7;\n        n = \"kimchi\\U5c31\\U662f\\U6ce1\\U83dc\";\n        p = \"http:\/\/tx1.douguo.net\/upload\/photo\/5\/3\/7\/70_536433286a7f13f9a28f9a548644ee57.jpg\";\n        \"progress_image\" = \"\";\n        \"recipes_count_text\" = \"\";\n        relationship = \"-1\";\n        title = \"\";\n        v = 1;\n        \"verified_image\" = \"\";\n    };\n}",
        "{\n    ac = \"#999999\";\n    at = \"\\U4e0a\\U6d77\\U5e02\";\n    ccc = 1;\n    \"child_comments\" =     (\n                {\n            ac = \"#999999\";\n            at = \"\\U6c55\\U5934\\U5e02\";\n            ccc = 0;\n            city = \"\\U6c55\\U5934\\U5e02\";\n            cmc = 2;\n            content =             (\n                                {\n                    c = \" \\U8c22\\U8c22\\U4eb2\\U7231\\U7684\\U2764\\Ufe0f\\U2764\\Ufe0f\\U2764\\Ufe0f\\Ud83c\\Udf39\\Ud83c\\Udf39\";\n                }\n            );\n            ia = 1;\n            id = 8173617;\n            \"ip_address_location\" = \"\";\n            like = 0;\n            \"like_count\" = 0;\n            \"reply_id\" = 8173564;\n            \"reply_user\" =             {\n                \"followers_count_text\" = \"\";\n                id = 16883452;\n                \"is_prime\" = 0;\n                lv = 0;\n                lvl = 6;\n                n = \"Yukie\\U5bb6\\U7684\\U70df\\U706b\\U6c14\";\n                p = \"http:\/\/tx1.douguo.net\/upload\/photo\/1\/6\/7\/70_166b734f7b0bfac036d585d3409ecd57.jpeg\";\n                \"progress_image\" = \"\";\n                \"recipes_count_text\" = \"\";\n                relationship = \"-1\";\n                title = \"\";\n                v = 0;\n                \"verified_image\" = \"\";\n            };\n            \"sticker_icon\" =             (\n            );\n            time = \"2020-07-29 20:05:21\";\n            u =             {\n                \"followers_count_text\" = \"\";\n                id = 25427427;\n                \"is_prime\" = 0;\n                lv = 0;\n                lvl = 6;\n                n = \"\\U515c\\U91cc\\U8fd8\\U6709\\U7cd6138\";\n                p = \"http:\/\/tx1.douguo.net\/upload\/photo\/c\/8\/3\/70_u87901729356383201215.jpeg\";\n                \"progress_image\" = \"\";\n                \"recipes_count_text\" = \"\";\n                relationship = \"-1\";\n                title = \"\";\n                v = 0;\n                \"verified_image\" = \"\";\n            };\n        }\n    );\n    city = \"\\U4e0a\\U6d77\\U5e02\";\n    cmc = 2;\n    content =     (\n                {\n            c = \"\\U706b\\U5019\\U6070\\U5230\\U597d\\U5904\\Ud83d\\Udcaf\";\n        }\n    );\n    ia = 0;\n    id = 8173564;\n    \"ip_address_location\" = \"\";\n    like = 0;\n    \"like_count\" = 0;\n    \"reply_id\" = 0;\n    \"sticker_icon\" =     (\n    );\n    time = \"2020-07-29 19:31:38\";\n    u =     {\n        \"followers_count_text\" = \"\";\n        id = 16883452;\n        \"is_prime\" = 0;\n        lv = 0;\n        lvl = 6;\n        n = \"Yukie\\U5bb6\\U7684\\U70df\\U706b\\U6c14\";\n        p = \"http:\/\/tx1.douguo.net\/upload\/photo\/1\/6\/7\/70_166b734f7b0bfac036d585d3409ecd57.jpeg\";\n        \"progress_image\" = \"\";\n        \"recipes_count_text\" = \"\";\n        relationship = \"-1\";\n        title = \"\";\n        v = 0;\n        \"verified_image\" = \"\";\n    };\n}",
        "{\n    ac = \"#999999\";\n    at = \"\";\n    ccc = 1;\n    \"child_comments\" =     (\n                {\n            ac = \"#999999\";\n            at = \"\\U6c55\\U5934\\U5e02\";\n            ccc = 0;\n            city = \"\\U6c55\\U5934\\U5e02\";\n            cmc = 2;\n            content =             (\n                                {\n                    c = \" \\U8c22\\U8c22\\U4eb2\\U7231\\U7684\\Uff0c\\U4e48\\U4e48\\U54d2\\Ud83d\\Ude18\\Ud83d\\Ude18\\Ud83d\\Ude18\";\n                }\n            );\n            ia = 1;\n            id = 8169682;\n            \"ip_address_location\" = \"\";\n            like = 0;\n            \"like_count\" = 0;\n            \"reply_id\" = 8169152;\n            \"reply_user\" =             {\n                \"followers_count_text\" = \"\";\n                id = 24533794;\n                \"is_prime\" = 0;\n                lv = 0;\n                lvl = 2;\n                n = \"\\U6726\\U80e7\\U7684\\U82bd\\U83dc\\U5f88\\U6709\\U624d\\U80fd\";\n                p = \"http:\/\/tx1.douguo.net\/upload\/photo\/1\/1\/1\/70_c5e6bc6d975d5c79761c921e97768271.png\";\n                \"progress_image\" = \"\";\n                \"recipes_count_text\" = \"\";\n                relationship = \"-1\";\n                title = \"\";\n                v = 0;\n                \"verified_image\" = \"\";\n            };\n            \"sticker_icon\" =             (\n            );\n            time = \"2020-07-27 20:15:56\";\n            u =             {\n                \"followers_count_text\" = \"\";\n                id = 25427427;\n                \"is_prime\" = 0;\n                lv = 0;\n                lvl = 6;\n                n = \"\\U515c\\U91cc\\U8fd8\\U6709\\U7cd6138\";\n                p = \"http:\/\/tx1.douguo.net\/upload\/photo\/c\/8\/3\/70_u87901729356383201215.jpeg\";\n                \"progress_image\" = \"\";\n                \"recipes_count_text\" = \"\";\n                relationship = \"-1\";\n                title = \"\";\n                v = 0;\n                \"verified_image\" = \"\";\n            };\n        }\n    );\n    city = \"\";\n    cmc = 2;\n    content =     (\n                {\n            c = \"\\U8ddf\\U5916\\U9762\\U5e97\\U91cc\\U5356\\U7684\\U6bd4\\U8d77\\U6765 \\U6beb\\U4e0d\\U900a\\U8272\\U554a\";\n        }\n    );\n    ia = 0;\n    id = 8169152;\n    \"ip_address_location\" = \"\";\n    like = 0;\n    \"like_count\" = 0;\n    \"reply_id\" = 0;\n    \"sticker_icon\" =     (\n    );\n    time = \"2020-07-27 17:15:13\";\n    u =     {\n        \"followers_count_text\" = \"\";\n        id = 24533794;\n        \"is_prime\" = 0;\n        lv = 0;\n        lvl = 2;\n        n = \"\\U6726\\U80e7\\U7684\\U82bd\\U83dc\\U5f88\\U6709\\U624d\\U80fd\";\n        p = \"http:\/\/tx1.douguo.net\/upload\/photo\/1\/1\/1\/70_c5e6bc6d975d5c79761c921e97768271.png\";\n        \"progress_image\" = \"\";\n        \"recipes_count_text\" = \"\";\n        relationship = \"-1\";\n        title = \"\";\n        v = 0;\n        \"verified_image\" = \"\";\n    };\n}"
      ],
      "original_photo_path" : "http:\/\/i1.douguo.net\/upload\/caiku\/8\/5\/9\/yuan_85f7df222a4cccfac87e2509053bb0d9.jpeg",
      "act_des" : "",
      "author" : "兜里还有糖138",
      "su" : "",
      "rate_show" : 0,
      "top_mdsp" : [

      ],
      "recent_comments" : [

      ],
      "rsm" : "该功能暂停使用",
      "pw" : 1080,
      "recommended" : 0,
      "cookstorys" : [

      ],
      "rrpt" : "",
      "cookstory" : "",
      "notes" : [

      ],
      "favo_counts_text" : "101",
      "rewarded_video_dsp" : [

      ],
      "rate_count" : 0,
      "clicks" : "21978",
      "cook_time_image" : "",
      "photo_path" : "https:\/\/i1.douguo.com\/upload\/caiku\/8\/5\/9\/600_85f7df222a4cccfac87e2509053bb0d9.jpeg"
    }
  },
  "status" : 0,
  "state" : "success"
}