{
  "result" : {
    "recipe" : {
      "cook_id" : "3252209",
      "eu" : "recipes:\/\/www.douguo.com\/postdetail?id=242016",
      "author_id" : 26535876,
      "rewarded_video_dsp" : [

      ],
      "btm_dsp" : [

      ],
      "ipurl" : "",
      "author" : "木易炊烟",
      "cookstep" : [
        {
          "frame" : "-1",
          "image_height" : 2880,
          "thumb" : "https:\/\/i1.douguo.com\/upload\/caiku\/3\/6\/4\/140_3606b8d4a0f002bd15e04d3e06876834.jpeg",
          "image" : "https:\/\/i1.douguo.com\/upload\/caiku\/3\/6\/4\/3606b8d4a0f002bd15e04d3e06876834.jpeg",
          "position" : 1,
          "image_width" : 3840,
          "content" : "准备好各种材料备用。"
        },
        {
          "image_width" : 3840,
          "image_height" : 2880,
          "image" : "https:\/\/i1.douguo.com\/upload\/caiku\/c\/5\/5\/c528cab0677bc9237bd6b187a61e2bc5.jpeg",
          "content" : "草菇洗净切片、生姜、葱白和蒜也切碎备用。",
          "thumb" : "https:\/\/i1.douguo.com\/upload\/caiku\/c\/5\/5\/140_c528cab0677bc9237bd6b187a61e2bc5.jpeg",
          "position" : 2,
          "frame" : "-1"
        },
        {
          "position" : 3,
          "image_height" : 2880,
          "thumb" : "https:\/\/i1.douguo.com\/upload\/caiku\/e\/2\/c\/140_e2b867da4f6809e6b7360f8462572cfc.jpeg",
          "content" : "锅中倒入适量清水加少许盐煮开后倒入毛豆煮一分钟后",
          "image_width" : 3840,
          "frame" : "-1",
          "image" : "https:\/\/i1.douguo.com\/upload\/caiku\/e\/2\/c\/e2b867da4f6809e6b7360f8462572cfc.jpeg"
        },
        {
          "frame" : "-1",
          "image_height" : 2880,
          "image_width" : 3840,
          "content" : "把草菇倒入锅中一起再焯水一分钟左右",
          "thumb" : "https:\/\/i1.douguo.com\/upload\/caiku\/0\/f\/a\/140_0f18ede2b3ea0657a0056e5aff8380ba.jpeg",
          "image" : "https:\/\/i1.douguo.com\/upload\/caiku\/0\/f\/a\/0f18ede2b3ea0657a0056e5aff8380ba.jpeg",
          "position" : 4
        },
        {
          "image_height" : 2880,
          "image_width" : 3840,
          "content" : "将焯好水的毛豆和草菇，捞出用冷水冲洗一下沥干水份备用。",
          "position" : 5,
          "thumb" : "https:\/\/i1.douguo.com\/upload\/caiku\/9\/3\/d\/140_93469129c4e5b91691071a5eb67a537d.jpeg",
          "frame" : "-1",
          "image" : "https:\/\/i1.douguo.com\/upload\/caiku\/9\/3\/d\/93469129c4e5b91691071a5eb67a537d.jpeg"
        },
        {
          "content" : "热锅中倒入适量油爆香葱姜蒜",
          "thumb" : "https:\/\/i1.douguo.com\/upload\/caiku\/f\/5\/e\/140_f573c3e793ae6ba42bcd87c871531b9e.jpeg",
          "position" : 6,
          "image" : "https:\/\/i1.douguo.com\/upload\/caiku\/f\/5\/e\/f573c3e793ae6ba42bcd87c871531b9e.jpeg",
          "image_width" : 3840,
          "image_height" : 2880,
          "frame" : "-1"
        },
        {
          "frame" : "-1",
          "image_width" : 3840,
          "thumb" : "https:\/\/i1.douguo.com\/upload\/caiku\/6\/8\/f\/140_681a3edbc61f92375dbb10f42201a36f.jpeg",
          "image" : "https:\/\/i1.douguo.com\/upload\/caiku\/6\/8\/f\/681a3edbc61f92375dbb10f42201a36f.jpeg",
          "position" : 7,
          "content" : "把前面沥干水份毛豆和草菇倒入一起翻炒片刻",
          "image_height" : 2880
        },
        {
          "thumb" : "https:\/\/i1.douguo.com\/upload\/caiku\/2\/6\/e\/140_26a41a84729406ea6065a5bc6525533e.jpeg",
          "frame" : "-1",
          "image_width" : 3840,
          "image" : "https:\/\/i1.douguo.com\/upload\/caiku\/2\/6\/e\/26a41a84729406ea6065a5bc6525533e.jpeg",
          "content" : "将河虾也倒入锅中翻炒几下",
          "position" : 8,
          "image_height" : 2880
        },
        {
          "content" : "倒入料酒后再次翻炒片刻",
          "image_height" : 2880,
          "position" : 9,
          "frame" : "-1",
          "thumb" : "https:\/\/i1.douguo.com\/upload\/caiku\/2\/4\/6\/140_24083b2a157b49bb49ef8576b3bbb366.jpeg",
          "image" : "https:\/\/i1.douguo.com\/upload\/caiku\/2\/4\/6\/24083b2a157b49bb49ef8576b3bbb366.jpeg",
          "image_width" : 3840
        },
        {
          "image" : "https:\/\/i1.douguo.com\/upload\/caiku\/2\/8\/c\/28d97dc7ea19afd760177d058887d63c.jpeg",
          "image_width" : 3840,
          "thumb" : "https:\/\/i1.douguo.com\/upload\/caiku\/2\/8\/c\/140_28d97dc7ea19afd760177d058887d63c.jpeg",
          "content" : "倒入一点点热水，和适量的盐，盖上锅盖煮一会会即可食用。",
          "image_height" : 2880,
          "position" : 10,
          "frame" : "-1"
        },
        {
          "frame" : "-1",
          "position" : 11,
          "image" : "https:\/\/i1.douguo.com\/upload\/caiku\/e\/a\/2\/ea800669923087b49d744bf8215b2af2.jpeg",
          "image_height" : 2880,
          "thumb" : "https:\/\/i1.douguo.com\/upload\/caiku\/e\/a\/2\/140_ea800669923087b49d744bf8215b2af2.jpeg",
          "content" : "天气渐渐转热 来一道做法简单、味道清爽鲜美的草菇毛豆炒河虾也不错哦……",
          "image_width" : 3840
        }
      ],
      "packages_id" : [

      ],
      "tags" : [

      ],
      "recipe_tags" : [
        "{\n    \"background_border_color\" = \"\";\n    \"background_end_color\" = \"#F5D39F\";\n    \"background_start_color\" = \"#FAE9CD\";\n    \"jump_url\" = \"recipes:\/\/www.douguo.com\/introdietitian\";\n    \"left_image\" = \"https:\/\/i1.douguo.com\/upload\/caiku\/4\/e\/8\/4ec0a3547dfdb0e8541ff7b7b61b2578.png\";\n    \"right_image\" = \"https:\/\/i1.douguo.com\/upload\/caiku\/0\/a\/b\/0a317d98c713e7e7d0d47ed003f2d93b.png\";\n    text = \"\\U51cf\\U8102\\U83dc\\U8c31\";\n    \"text_color\" = \"#413C32\";\n}"
      ],
      "vu" : "",
      "story_dsp" : [

      ],
      "release_time" : "",
      "create_time" : "2023-05-19 14:16:04",
      "vc" : "11286",
      "recommend_label" : "1人学做",
      "dish_count_text" : "1",
      "su" : "",
      "cook_time" : "",
      "thumb_path" : "https:\/\/i1.douguo.com\/upload\/caiku\/9\/a\/7\/300_9ad6c5a39ed0a2debe152f76486e21a7.jpeg",
      "rcs" : [

      ],
      "original_photo_path" : "http:\/\/i1.douguo.net\/upload\/caiku\/9\/a\/7\/yuan_9ad6c5a39ed0a2debe152f76486e21a7.jpeg",
      "ipit" : 0,
      "rrps" : [

      ],
      "author_photo" : "http:\/\/tx1.douguo.net\/upload\/photo\/5\/2\/d\/70_u17275607521751191456.jpeg",
      "comments_count" : 0,
      "dishes" : [

      ],
      "rate" : 5,
      "title" : "草菇毛豆炒河虾",
      "act_des" : "",
      "v_u" : "",
      "vfurl" : "",
      "notes" : [

      ],
      "cookstory" : "一道做法简单，味道清爽鲜美、营养丰富家烧菜，喜欢你可以试试哦……",
      "old_comments" : [

      ],
      "favo_counts_text" : "349",
      "minor" : [

      ],
      "ipia" : [

      ],
      "rpt" : "",
      "cookstorys" : [
        {
          "u" : "",
          "color" : "",
          "icon" : "",
          "id" : 0,
          "c" : "一道做法简单，味道清爽鲜美、营养丰富家烧菜，喜欢你可以试试哦……",
          "type" : 0
        }
      ],
      "rate_show" : 0,
      "pw" : 1920,
      "author_verified" : 0,
      "rpid" : 0,
      "display_ingredient" : 1,
      "bs" : [

      ],
      "title_ad" : [

      ],
      "related_ads" : [

      ],
      "clicks" : "1",
      "rsm" : "该功能暂停使用",
      "views_count_text" : "1.1万",
      "favo_counts" : 349,
      "user" : {
        "age" : "",
        "nick" : "木易炊烟",
        "verified" : 0,
        "sign" : "",
        "lvl" : 6,
        "diaries_count" : 0,
        "mobile" : "",
        "regist_time" : "",
        "location" : 0,
        "user_large_photo" : "http:\/\/tx1.douguo.net\/upload\/photo\/5\/2\/d\/yuan_u17275607521751191456.jpeg",
        "fc" : 0,
        "point" : 0,
        "avatar_medium" : "http:\/\/tx1.douguo.net\/upload\/photo\/5\/2\/d\/140_u17275607521751191456.jpeg",
        "recipes_count" : 0,
        "dishes_count" : 0,
        "verified_image" : "",
        "qzone_nick" : "",
        "setted_email" : 0,
        "gender" : 2,
        "following_count" : 0,
        "introduction" : "",
        "lv" : 0,
        "birthday" : "",
        "progress_image" : "",
        "subscription" : 0,
        "subscription_article_count" : 0,
        "followers_count" : 0,
        "favor_diaries_count" : 0,
        "coursecount" : 0,
        "email" : "",
        "user_cover" : "",
        "favorites_count" : 0,
        "qq_weibo_nick" : "",
        "userid" : "26535876",
        "weibo_nick" : "",
        "pc" : 0,
        "user_id" : "26535876",
        "is_prime" : 0,
        "verified_url" : "https:\/\/m.douguo.com\/user\/prodesc",
        "user_photo" : "http:\/\/tx1.douguo.net\/upload\/photo\/5\/2\/d\/70_u17275607521751191456.jpeg"
      },
      "guide_image" : "",
      "comments_count_text" : "",
      "image" : "http:\/\/i1.douguo.net\/upload\/caiku\/9\/a\/7\/300_9ad6c5a39ed0a2debe152f76486e21a7.jpeg",
      "thumb_height" : 0,
      "cook_difficulty" : "",
      "ssu" : "",
      "sc" : 0,
      "dish_count" : 1,
      "mid_mdsp" : [

      ],
      "recommended" : 0,
      "brand_day_dsp" : [

      ],
      "rpst" : "",
      "photo_path" : "https:\/\/i1.douguo.com\/upload\/caiku\/9\/a\/7\/600_9ad6c5a39ed0a2debe152f76486e21a7.jpeg",
      "top_mdsp" : [

      ],
      "advice" : {
        "da" : {
          "iu" : "https:\/\/i1.douguo.com\/upload\/banner\/f\/4\/d\/f48877e53c37759bc12ac494be82ec8d.png",
          "t" : "查看详细分析",
          "url" : "https:\/\/m.douguo.com\/recipe\/nutrient_self\/3252209"
        },
        "at" : "能有效控制体重～",
        "has" : [
          {
            "url" : "recipes:\/\/www.douguo.com\/simplerecipelist?t=低脂&id=低脂",
            "t" : "低脂"
          },
          {
            "t" : "低糖",
            "url" : "recipes:\/\/www.douguo.com\/simplerecipelist?t=低糖&id=低糖"
          }
        ]
      },
      "ph" : 1440,
      "ss" : [

      ],
      "ipoi" : "",
      "recent_comments" : [

      ],
      "ipci" : "",
      "share_info" : {
        "infos" : [
          {
            "mini_program" : [

            ],
            "s_d" : "#学做饭用豆果美食# 我在@豆果美食 分享了【草菇毛豆炒河虾-会做饭很酷!】，色香味俱全说的就是这道菜！查看图片了解菜谱（快来点击https:\/\/m.weibo.cn\/p\/100404i33631和我一起修炼厨艺吧）#会做饭很酷# ",
            "channel" : "1",
            "s_u" : "",
            "name" : "草菇毛豆炒河虾-会做饭很酷!",
            "qr_image" : "",
            "object_id" : "3252209",
            "image" : "https:\/\/cp1.douguo.com\/upload\/caiku\/9\/a\/7\/9ad6c5a39ed0a2debe152f76486e21a7.jpeg"
          },
          {
            "s_u" : "http:\/\/m.douguo.com\/cookbook\/3252209.html",
            "channel" : "7",
            "object_id" : "3252209",
            "qr_image" : "",
            "s_d" : "草菇毛豆炒河虾-会做饭很酷!",
            "name" : "草菇毛豆炒河虾-会做饭很酷!",
            "image" : "https:\/\/cp1.douguo.com\/upload\/caiku\/9\/a\/7\/9ad6c5a39ed0a2debe152f76486e21a7.jpeg",
            "mini_program" : [

            ]
          },
          {
            "s_d" : "草菇毛豆炒河虾-会做饭很酷!",
            "mini_program" : [

            ],
            "image" : "https:\/\/cp1.douguo.com\/upload\/caiku\/9\/a\/7\/9ad6c5a39ed0a2debe152f76486e21a7.jpeg",
            "s_u" : "http:\/\/m.douguo.com\/cookbook\/3252209.html",
            "object_id" : "3252209",
            "qr_image" : "",
            "name" : "草菇毛豆炒河虾-会做饭很酷!",
            "channel" : "8"
          }
        ],
        "object_id" : "3252209",
        "mini_program" : [

        ],
        "s_u" : "http:\/\/m.douguo.com\/cookbook\/3252209.html",
        "qr_image" : "",
        "s_d" : "草菇毛豆炒河虾-会做饭很酷!",
        "name" : "草菇毛豆炒河虾-会做饭很酷!",
        "image" : "https:\/\/cp1.douguo.com\/upload\/caiku\/9\/a\/7\/9ad6c5a39ed0a2debe152f76486e21a7.jpeg"
      },
      "cook_time_image" : "",
      "levelid" : 2,
      "tips" : "毛豆焯水的时候稍微长一点，草菇不要太久。",
      "major" : [
        {
          "note" : "300克",
          "tu" : "https:\/\/m.douguo.com\/ingredients\/河虾\/detailmaterial",
          "title" : "河虾"
        },
        {
          "note" : "100克",
          "tu" : "https:\/\/m.douguo.com\/ingredients\/草菇\/detailmaterial",
          "title" : "草菇"
        },
        {
          "note" : "100克",
          "title" : "毛豆仁"
        },
        {
          "title" : "葱白",
          "note" : "2-3根"
        },
        {
          "title" : "姜",
          "tu" : "https:\/\/m.douguo.com\/ingredients\/姜\/detailmaterial",
          "note" : "2-3片"
        },
        {
          "tu" : "https:\/\/m.douguo.com\/ingredients\/蒜\/detailmaterial",
          "title" : "蒜",
          "note" : "1瓣"
        },
        {
          "tu" : "https:\/\/m.douguo.com\/ingredients\/盐\/detailmaterial",
          "title" : "盐",
          "note" : "适量"
        },
        {
          "tu" : "https:\/\/m.douguo.com\/ingredients\/料酒\/detailmaterial",
          "note" : "1勺",
          "title" : "料酒"
        }
      ],
      "recipe_list_tags" : [
        {
          "background_end_color" : "#F5D39F",
          "background_border_color" : "",
          "text_color" : "#413C32",
          "jump_url" : "recipes:\/\/www.douguo.com\/introdietitian",
          "right_image" : "https:\/\/i1.douguo.com\/upload\/caiku\/0\/a\/b\/0a317d98c713e7e7d0d47ed003f2d93b.png",
          "background_start_color" : "#FAE9CD",
          "text" : "减脂菜谱"
        },
        {
          "right_image" : "",
          "text_color" : "#141515",
          "background_end_color" : "#F4F5F5",
          "text" : "关注的人",
          "background_border_color" : "",
          "background_start_color" : "#F4F5F5",
          "jump_url" : ""
        },
        {
          "jump_url" : "",
          "text" : "内容详细",
          "background_end_color" : "#F4F5F5",
          "right_image" : "",
          "text_color" : "#141515",
          "background_start_color" : "#F4F5F5",
          "background_border_color" : ""
        }
      ],
      "cookwares" : [

      ],
      "rdsps" : [

      ],
      "rrpt" : "",
      "rips" : 0,
      "hq" : 1,
      "sr" : "",
      "rate_count" : 1,
      "ecs" : 1,
      "first_level_comment_count" : 0,
      "purl" : "",
      "recommendation_tag" : "",
      "comments" : [

      ],
      "collect_status" : 0,
      "hqu" : "recipes:\/\/www.douguo.com\/notedetail?id=21162253",
      "cook_difficulty_image" : "",
      "ipt" : ""
    }
  },
  "status" : 0,
  "state" : "success"
}