{
  "status" : 0,
  "result" : {
    "recipe" : {
      "sc" : 0,
      "tags" : [

      ],
      "ecs" : 1,
      "mid_mdsp" : [

      ],
      "ipia" : [

      ],
      "rate_show" : 0,
      "eu" : "recipes:\/\/www.douguo.com\/postdetail?id=242016",
      "rsm" : "该功能暂停使用",
      "rpid" : 0,
      "notes" : [

      ],
      "sr" : "",
      "cook_difficulty_image" : "",
      "dish_count_text" : "1",
      "old_comments" : [

      ],
      "views_count_text" : "9.4万",
      "recommended" : 0,
      "ph" : 458,
      "cookstep" : [
        {
          "position" : 1,
          "image_height" : 1706,
          "content" : "几块冷水入锅放入料酒、姜片、葱段大火煮开焯水，撇去浮沫；捞出控水备用；\n\n热锅凉油，放入葱姜蒜、花椒粉炒出香味，放一小块牛油火锅底料炒香炒化；",
          "thumb" : "https:\/\/i1.douguo.com\/upload\/caiku\/1\/2\/2\/140_125243b78f45afceebaaa7060cdbfd02.jpeg",
          "frame" : "-1",
          "image" : "https:\/\/i1.douguo.com\/upload\/caiku\/1\/2\/2\/125243b78f45afceebaaa7060cdbfd02.jpeg",
          "image_width" : 1280
        },
        {
          "image" : "https:\/\/i1.douguo.com\/upload\/caiku\/9\/4\/c\/941c4c2bde760653f24fdb8d09e901cc.jpeg",
          "position" : 2,
          "thumb" : "https:\/\/i1.douguo.com\/upload\/caiku\/9\/4\/c\/140_941c4c2bde760653f24fdb8d09e901cc.jpeg",
          "content" : "放入鸡块大火翻炒，再放入干辣椒、花椒、大料继续炒出鸡块的水分；",
          "frame" : "-1",
          "image_height" : 1706,
          "image_width" : 1280
        },
        {
          "position" : 3,
          "image" : "https:\/\/i1.douguo.com\/upload\/caiku\/a\/4\/1\/a4c14a4fc2338807873e5d0f48a8cfb1.jpeg",
          "image_width" : 1280,
          "content" : "调入生抽、老抽、蚝油、白糖、翻炒均匀；",
          "thumb" : "https:\/\/i1.douguo.com\/upload\/caiku\/a\/4\/1\/140_a4c14a4fc2338807873e5d0f48a8cfb1.jpeg",
          "image_height" : 1706,
          "frame" : "-1"
        },
        {
          "image_width" : 1280,
          "image" : "https:\/\/i1.douguo.com\/upload\/caiku\/f\/d\/4\/fd547670ea9dcee675c12f16b1d5c9f4.jpeg",
          "frame" : "-1",
          "image_height" : 1706,
          "position" : 4,
          "thumb" : "https:\/\/i1.douguo.com\/upload\/caiku\/f\/d\/4\/140_fd547670ea9dcee675c12f16b1d5c9f4.jpeg",
          "content" : "加入适量的温水大火烧开；"
        },
        {
          "thumb" : "https:\/\/i1.douguo.com\/upload\/caiku\/1\/2\/2\/140_12acf1e94b65f974be2fe599fbca5012.jpeg",
          "image" : "https:\/\/i1.douguo.com\/upload\/caiku\/1\/2\/2\/12acf1e94b65f974be2fe599fbca5012.jpeg",
          "position" : 5,
          "image_width" : 1280,
          "content" : "改中小火盖上锅盖炖15分钟；",
          "image_height" : 1706,
          "frame" : "-1"
        },
        {
          "frame" : "-1",
          "image_height" : 1706,
          "position" : 6,
          "content" : "改大火收汁，出锅前放入青红椒、根据自己的口味调入适量盐，就做好了～",
          "image" : "https:\/\/i1.douguo.com\/upload\/caiku\/e\/9\/3\/e9f843ad3d909087341ff9fd728a8373.jpeg",
          "thumb" : "https:\/\/i1.douguo.com\/upload\/caiku\/e\/9\/3\/140_e9f843ad3d909087341ff9fd728a8373.jpeg",
          "image_width" : 1280
        }
      ],
      "guide_image" : "",
      "v_u" : "",
      "image" : "http:\/\/i1.douguo.net\/upload\/caiku\/9\/d\/7\/300_9d5fc27462664fa6a22af0b858ec4497.jpeg",
      "photo_path" : "https:\/\/i1.douguo.com\/upload\/caiku\/9\/d\/7\/600_9d5fc27462664fa6a22af0b858ec4497.jpeg",
      "rrps" : [

      ],
      "btm_dsp" : [

      ],
      "title" : "火锅鸡块",
      "rcs" : [

      ],
      "rpt" : "",
      "related_ads" : [

      ],
      "user" : {
        "weibo_nick" : "",
        "is_prime" : 0,
        "qq_weibo_nick" : "",
        "sign" : "",
        "avatar_medium" : "http:\/\/tx1.douguo.net\/upload\/photo\/e\/2\/e\/140_e230d82db956a9c4ab9a903fcec35b1e.jpeg",
        "fc" : 0,
        "mobile" : "",
        "setted_email" : 0,
        "qzone_nick" : "",
        "email" : "",
        "nick" : "夏天的草li",
        "dishes_count" : 0,
        "diaries_count" : 0,
        "favorites_count" : 0,
        "coursecount" : 0,
        "lvl" : 7,
        "subscription_article_count" : 0,
        "age" : "",
        "subscription" : 0,
        "lv" : 0,
        "verified_url" : "https:\/\/m.douguo.com\/user\/prodesc",
        "followers_count" : 0,
        "point" : 0,
        "user_id" : "15953641",
        "recipes_count" : 0,
        "verified_image" : "",
        "userid" : "15953641",
        "user_large_photo" : "http:\/\/tx1.douguo.net\/upload\/photo\/e\/2\/e\/yuan_e230d82db956a9c4ab9a903fcec35b1e.jpeg",
        "pc" : 0,
        "verified" : 0,
        "regist_time" : "",
        "progress_image" : "",
        "following_count" : 0,
        "location" : 0,
        "birthday" : "",
        "user_cover" : "",
        "gender" : 2,
        "user_photo" : "http:\/\/tx1.douguo.net\/upload\/photo\/e\/2\/e\/70_e230d82db956a9c4ab9a903fcec35b1e.jpeg",
        "favor_diaries_count" : 0,
        "introduction" : ""
      },
      "ipt" : "",
      "brand_day_dsp" : [

      ],
      "thumb_path" : "https:\/\/i1.douguo.com\/upload\/caiku\/9\/d\/7\/300_9d5fc27462664fa6a22af0b858ec4497.jpeg",
      "cookstorys" : [

      ],
      "share_info" : {
        "s_d" : "火锅鸡块-会做饭很酷!",
        "infos" : [
          {
            "name" : "火锅鸡块-会做饭很酷!",
            "qr_image" : "",
            "channel" : "1",
            "image" : "https:\/\/cp1.douguo.com\/upload\/caiku\/9\/d\/7\/9d5fc27462664fa6a22af0b858ec4497.jpeg",
            "mini_program" : [

            ],
            "object_id" : "3146237",
            "s_d" : "#学做饭用豆果美食# 我在@豆果美食 分享了【火锅鸡块-会做饭很酷!】，这菜真的很好吃，而且做法简单不难学，还不快来跟我学～查看图片了解菜谱（每天限量免费课程，想跟大师学厨艺就来这https:\/\/m.weibo.cn\/p\/100404i33631）#会做饭很酷# ",
            "s_u" : ""
          },
          {
            "object_id" : "3146237",
            "image" : "https:\/\/cp1.douguo.com\/upload\/caiku\/9\/d\/7\/9d5fc27462664fa6a22af0b858ec4497.jpeg",
            "s_u" : "http:\/\/m.douguo.com\/cookbook\/3146237.html",
            "channel" : "7",
            "name" : "火锅鸡块-会做饭很酷!",
            "mini_program" : [

            ],
            "qr_image" : "",
            "s_d" : "火锅鸡块-会做饭很酷!"
          },
          {
            "mini_program" : [

            ],
            "qr_image" : "",
            "channel" : "8",
            "s_d" : "火锅鸡块-会做饭很酷!",
            "name" : "火锅鸡块-会做饭很酷!",
            "object_id" : "3146237",
            "s_u" : "http:\/\/m.douguo.com\/cookbook\/3146237.html",
            "image" : "https:\/\/cp1.douguo.com\/upload\/caiku\/9\/d\/7\/9d5fc27462664fa6a22af0b858ec4497.jpeg"
          }
        ],
        "image" : "https:\/\/cp1.douguo.com\/upload\/caiku\/9\/d\/7\/9d5fc27462664fa6a22af0b858ec4497.jpeg",
        "name" : "火锅鸡块-会做饭很酷!",
        "object_id" : "3146237",
        "s_u" : "http:\/\/m.douguo.com\/cookbook\/3146237.html",
        "qr_image" : "",
        "mini_program" : [

        ]
      },
      "vc" : "94119",
      "favo_counts_text" : "653",
      "packages_id" : [

      ],
      "original_photo_path" : "http:\/\/i1.douguo.net\/upload\/caiku\/9\/d\/7\/yuan_9d5fc27462664fa6a22af0b858ec4497.jpeg",
      "major" : [
        {
          "title" : "大鸡腿",
          "note" : "2个克"
        },
        {
          "note" : "各一个个",
          "title" : "青红椒"
        },
        {
          "title" : "葱姜蒜",
          "tu" : "https:\/\/m.douguo.com\/ingredients\/葱姜蒜\/detailmaterial",
          "note" : "适量"
        },
        {
          "title" : "料酒",
          "tu" : "https:\/\/m.douguo.com\/ingredients\/料酒\/detailmaterial",
          "note" : "一勺"
        },
        {
          "title" : "生抽",
          "note" : "两勺",
          "tu" : "https:\/\/m.douguo.com\/ingredients\/生抽\/detailmaterial"
        },
        {
          "note" : "一块",
          "title" : "牛油火锅底料"
        },
        {
          "tu" : "https:\/\/m.douguo.com\/ingredients\/蚝油\/detailmaterial",
          "title" : "蚝油",
          "note" : "一勺"
        },
        {
          "tu" : "https:\/\/m.douguo.com\/ingredients\/干辣椒\/detailmaterial",
          "title" : "干辣椒",
          "note" : "5-6个"
        },
        {
          "tu" : "https:\/\/m.douguo.com\/ingredients\/老抽\/detailmaterial",
          "note" : "适量",
          "title" : "老抽"
        },
        {
          "title" : "花椒大料",
          "note" : "适量"
        },
        {
          "title" : "白糖",
          "note" : "半勺",
          "tu" : "https:\/\/m.douguo.com\/ingredients\/白糖\/detailmaterial"
        }
      ],
      "comments_count" : 4,
      "ipit" : 0,
      "author_photo" : "http:\/\/tx1.douguo.net\/upload\/photo\/e\/2\/e\/70_e230d82db956a9c4ab9a903fcec35b1e.jpeg",
      "thumb_height" : 0,
      "hq" : 1,
      "create_time" : "2021-11-12 14:04:01",
      "recent_comments" : [

      ],
      "recommend_label" : "1人学做",
      "rdsps" : [

      ],
      "cookwares" : [

      ],
      "ipci" : "",
      "act_des" : "",
      "ssu" : "",
      "dishes" : [

      ],
      "tips" : "",
      "rrpt" : "",
      "vu" : "",
      "advice" : {
        "da" : {
          "iu" : "https:\/\/i1.douguo.com\/upload\/banner\/f\/4\/d\/f48877e53c37759bc12ac494be82ec8d.png",
          "url" : "https:\/\/m.douguo.com\/recipe\/nutrient_self\/3146237",
          "t" : "查看详细分析"
        },
        "has" : [
          {
            "url" : "recipes:\/\/www.douguo.com\/simplerecipelist?t=低脂&id=低脂",
            "t" : "低脂"
          },
          {
            "t" : "高盐",
            "url" : "recipes:\/\/www.douguo.com\/simplerecipelist?t=高盐&id=高盐"
          }
        ],
        "at" : "健身人群可以吃～"
      },
      "favo_counts" : 653,
      "su" : "",
      "vfurl" : "",
      "bs" : [

      ],
      "recommendation_tag" : "",
      "display_ingredient" : 1,
      "recipe_tags" : [

      ],
      "rips" : 0,
      "comments" : [
        "{\n    ac = \"#999999\";\n    at = \"\\U70df\\U53f0\\U5e02\";\n    ccc = 0;\n    \"child_comments\" =     (\n    );\n    city = \"\\U70df\\U53f0\\U5e02\";\n    cmc = 2;\n    content =     (\n                {\n            c = \"\\U7f8e\\U5473\";\n        }\n    );\n    ia = 0;\n    id = 8900054;\n    \"ip_address_location\" = \"\";\n    like = 0;\n    \"like_count\" = 0;\n    \"reply_id\" = 0;\n    \"sticker_icon\" =     (\n    );\n    time = \"2021-12-26 20:30:01\";\n    u =     {\n        \"followers_count_text\" = \"\";\n        id = 26953469;\n        \"is_prime\" = 0;\n        lv = 0;\n        lvl = 5;\n        n = \"\\U6e05\\U97f5\\U7684\\U53a8\\U623f\";\n        p = \"http:\/\/tx1.douguo.net\/upload\/photo\/1\/1\/1\/70_da99586a01ee8f149594edfc88fa013b.png\";\n        \"progress_image\" = \"\";\n        \"recipes_count_text\" = \"\";\n        relationship = \"-1\";\n        title = \"\";\n        v = 0;\n        \"verified_image\" = \"\";\n    };\n}",
        "{\n    ac = \"#999999\";\n    at = \"\";\n    ccc = 0;\n    \"child_comments\" =     (\n    );\n    city = \"\";\n    cmc = 2;\n    content =     (\n                {\n            c = \"\\U4fd7\\U8bdd\\U8bf4\\U7f8e\\U98df\\U5c31\\U8981\\U5206\\U4eab\\U51fa\\U6765\\Uff0c\\U8d5e\\Ud83c\\Udf39\";\n        }\n    );\n    ia = 0;\n    id = 8899697;\n    \"ip_address_location\" = \"\";\n    like = 0;\n    \"like_count\" = 0;\n    \"reply_id\" = 0;\n    \"sticker_icon\" =     (\n    );\n    time = \"2021-12-26 12:50:19\";\n    u =     {\n        \"followers_count_text\" = \"\";\n        id = 27022788;\n        \"is_prime\" = 0;\n        lv = 0;\n        lvl = 6;\n        n = \"Marlene.Huang\";\n        p = \"http:\/\/tx1.douguo.net\/upload\/photo\/8\/e\/7\/70_u38773069457734235526.jpg\";\n        \"progress_image\" = \"\";\n        \"recipes_count_text\" = \"\";\n        relationship = \"-1\";\n        title = \"\";\n        v = 1;\n        \"verified_image\" = \"\";\n    };\n}",
        "{\n    ac = \"#999999\";\n    at = \"\";\n    ccc = 1;\n    \"child_comments\" =     (\n                {\n            ac = \"#999999\";\n            at = \"\\U592a\\U539f\\U5e02\";\n            ccc = 0;\n            city = \"\\U592a\\U539f\\U5e02\";\n            cmc = 2;\n            content =             (\n                                {\n                    c = \" \\U5ba2\\U6c14\\U5566\";\n                }\n            );\n            ia = 1;\n            id = 8858596;\n            \"ip_address_location\" = \"\";\n            like = 0;\n            \"like_count\" = 0;\n            \"reply_id\" = 8858582;\n            \"reply_user\" =             {\n                \"followers_count_text\" = \"\";\n                id = 23567336;\n                \"is_prime\" = 0;\n                lv = 0;\n                lvl = 3;\n                n = \"\\U6728\\U7a3c\";\n                p = \"http:\/\/tx1.douguo.net\/upload\/photo\/8\/1\/a\/70_u2979620752000329171503.jpg\";\n                \"progress_image\" = \"\";\n                \"recipes_count_text\" = \"\";\n                relationship = \"-1\";\n                title = \"\";\n                v = 0;\n                \"verified_image\" = \"\";\n            };\n            \"sticker_icon\" =             (\n            );\n            time = \"2021-11-12 14:32:58\";\n            u =             {\n                \"followers_count_text\" = \"\";\n                id = 15953641;\n                \"is_prime\" = 0;\n                lv = 0;\n                lvl = 7;\n                n = \"\\U590f\\U5929\\U7684\\U8349li\";\n                p = \"http:\/\/tx1.douguo.net\/upload\/photo\/e\/2\/e\/70_e230d82db956a9c4ab9a903fcec35b1e.jpeg\";\n                \"progress_image\" = \"\";\n                \"recipes_count_text\" = \"\";\n                relationship = \"-1\";\n                title = \"\";\n                v = 0;\n                \"verified_image\" = \"\";\n            };\n        }\n    );\n    city = \"\";\n    cmc = 2;\n    content =     (\n                {\n            c = \"\\U8c22\\U8c22\\U60a8\\U7684\\U65b9\\U5b50\\Uff0c\\U6211\\U4e5f\\U505a\\U8bd5\\U8bd5\";\n        }\n    );\n    ia = 0;\n    id = 8858582;\n    \"ip_address_location\" = \"\";\n    like = 0;\n    \"like_count\" = 0;\n    \"reply_id\" = 0;\n    \"sticker_icon\" =     (\n    );\n    time = \"2021-11-12 14:19:08\";\n    u =     {\n        \"followers_count_text\" = \"\";\n        id = 23567336;\n        \"is_prime\" = 0;\n        lv = 0;\n        lvl = 3;\n        n = \"\\U6728\\U7a3c\";\n        p = \"http:\/\/tx1.douguo.net\/upload\/photo\/8\/1\/a\/70_u2979620752000329171503.jpg\";\n        \"progress_image\" = \"\";\n        \"recipes_count_text\" = \"\";\n        relationship = \"-1\";\n        title = \"\";\n        v = 0;\n        \"verified_image\" = \"\";\n    };\n}"
      ],
      "recipe_list_tags" : [
        {
          "text" : "关注的人",
          "background_border_color" : "",
          "background_end_color" : "#F4F5F5",
          "right_image" : "",
          "text_color" : "#141515",
          "jump_url" : "",
          "background_start_color" : "#F4F5F5"
        }
      ],
      "story_dsp" : [

      ],
      "top_mdsp" : [

      ],
      "rate_count" : 1,
      "pw" : 654,
      "release_time" : "",
      "cook_difficulty" : "",
      "rate" : 5,
      "rewarded_video_dsp" : [

      ],
      "author_verified" : 0,
      "first_level_comment_count" : 3,
      "author_id" : 15953641,
      "hqu" : "recipes:\/\/www.douguo.com\/notedetail?id=21162253",
      "dish_count" : 1,
      "purl" : "",
      "comments_count_text" : "4",
      "clicks" : "22376",
      "ipoi" : "",
      "minor" : [

      ],
      "cook_time" : "",
      "cook_id" : "3146237",
      "cook_time_image" : "",
      "ss" : [

      ],
      "rpst" : "",
      "author" : "夏天的草li",
      "levelid" : 2,
      "cookstory" : "",
      "collect_status" : 0,
      "ipurl" : "",
      "title_ad" : [

      ]
    }
  },
  "state" : "success"
}