{
  "state" : "success",
  "result" : {
    "recipe" : {
      "title_ad" : [

      ],
      "create_time" : "2015-03-24 15:25:06",
      "story_dsp" : [

      ],
      "levelid" : 2,
      "cook_difficulty" : "掌勺(高级)",
      "recommend_label" : "1248人刚刚收藏过",
      "tips" : "1.猪耳焯过水之后放冷水或冰水中洗净捞出再卤才能使肉弹牙有嚼劲儿。2.猪耳卤制的时间不宜过长，四十分钟左右即可。",
      "comments" : [
        "{\n    ac = \"#999999\";\n    at = \"\";\n    ccc = 2;\n    \"child_comments\" =     (\n                {\n            ac = \"#999999\";\n            at = \"\";\n            ccc = 0;\n            city = \"\";\n            cmc = 2;\n            content =             (\n                                {\n                    c = \" \\U6211\\U90fd\\U6709\\U5199\\U4f60\\U4e5f\\U53ef\\U4ee5\\U52a0\\U70b9\\U5364\\U6c64\\U8fdb\\U53bb\\U3002\";\n                }\n            );\n            ia = 1;\n            id = 2126309;\n            \"ip_address_location\" = \"\";\n            like = 0;\n            \"like_count\" = 0;\n            \"reply_id\" = 2126246;\n            \"reply_user\" =             {\n                \"followers_count_text\" = \"\";\n                id = 7251443;\n                \"is_prime\" = 0;\n                lv = 0;\n                lvl = 2;\n                n = \"\\U6d41\\U6c13\\U4f1a\\U6b66\\U672f\";\n                p = \"http:\/\/tx1.douguo.net\/upload\/photo\/c\/9\/4\/70_u17303699629927072825.jpg\";\n                \"progress_image\" = \"\";\n                \"recipes_count_text\" = \"\";\n                relationship = \"-1\";\n                title = \"\";\n                v = 0;\n                \"verified_image\" = \"\";\n            };\n            \"sticker_icon\" =             (\n            );\n            time = \"2015-03-24 10:01:04\";\n            u =             {\n                \"followers_count_text\" = \"\";\n                id = 5226548;\n                \"is_prime\" = 0;\n                lv = 0;\n                lvl = 5;\n                n = \"CocoWu\\U53ef\\U53ef\";\n                p = \"http:\/\/tx1.douguo.net\/upload\/photo\/7\/1\/1\/70_u08034410640062141534.jpg\";\n                \"progress_image\" = \"\";\n                \"recipes_count_text\" = \"\";\n                relationship = \"-1\";\n                title = \"\";\n                v = 0;\n                \"verified_image\" = \"\";\n            };\n        },\n                {\n            ac = \"#999999\";\n            at = \"\";\n            ccc = 0;\n            city = \"\";\n            cmc = 2;\n            content =             (\n                                {\n                    c = \" \\U6536\\U5230\\U2026\";\n                }\n            );\n            ia = 0;\n            id = 2126347;\n            \"ip_address_location\" = \"\";\n            like = 0;\n            \"like_count\" = 0;\n            \"reply_id\" = 2126309;\n            \"reply_user\" =             {\n                \"followers_count_text\" = \"\";\n                id = 5226548;\n                \"is_prime\" = 0;\n                lv = 0;\n                lvl = 5;\n                n = \"CocoWu\\U53ef\\U53ef\";\n                p = \"http:\/\/tx1.douguo.net\/upload\/photo\/7\/1\/1\/70_u08034410640062141534.jpg\";\n                \"progress_image\" = \"\";\n                \"recipes_count_text\" = \"\";\n                relationship = \"-1\";\n                title = \"\";\n                v = 0;\n                \"verified_image\" = \"\";\n            };\n            \"sticker_icon\" =             (\n            );\n            time = \"2015-03-24 10:10:26\";\n            u =             {\n                \"followers_count_text\" = \"\";\n                id = 7251443;\n                \"is_prime\" = 0;\n                lv = 0;\n                lvl = 2;\n                n = \"\\U6d41\\U6c13\\U4f1a\\U6b66\\U672f\";\n                p = \"http:\/\/tx1.douguo.net\/upload\/photo\/c\/9\/4\/70_u17303699629927072825.jpg\";\n                \"progress_image\" = \"\";\n                \"recipes_count_text\" = \"\";\n                relationship = \"-1\";\n                title = \"\";\n                v = 0;\n                \"verified_image\" = \"\";\n            };\n        }\n    );\n    city = \"\";\n    cmc = 2;\n    content =     (\n                {\n            c = \"\\U600e\\U4e48\\U8c03\\U51c9\\U62cc\\U83dc\\U7684\\U6c41\";\n        }\n    );\n    ia = 0;\n    id = 2126246;\n    \"ip_address_location\" = \"\";\n    like = 0;\n    \"like_count\" = 0;\n    \"reply_id\" = 0;\n    \"sticker_icon\" =     (\n    );\n    time = \"2015-03-24 09:38:38\";\n    u =     {\n        \"followers_count_text\" = \"\";\n        id = 7251443;\n        \"is_prime\" = 0;\n        lv = 0;\n        lvl = 2;\n        n = \"\\U6d41\\U6c13\\U4f1a\\U6b66\\U672f\";\n        p = \"http:\/\/tx1.douguo.net\/upload\/photo\/c\/9\/4\/70_u17303699629927072825.jpg\";\n        \"progress_image\" = \"\";\n        \"recipes_count_text\" = \"\";\n        relationship = \"-1\";\n        title = \"\";\n        v = 0;\n        \"verified_image\" = \"\";\n    };\n}",
        "{\n    ac = \"#999999\";\n    at = \"\";\n    ccc = 1;\n    \"child_comments\" =     (\n                {\n            ac = \"#999999\";\n            at = \"\\U6df1\\U5733\\U5e02\";\n            ccc = 0;\n            city = \"\\U6df1\\U5733\\U5e02\";\n            cmc = 2;\n            content =             (\n                                {\n                    c = \" \\U90fd\\U884c\\U554a\\Ud83d\\Ude04\";\n                }\n            );\n            ia = 1;\n            id = 8369664;\n            \"ip_address_location\" = \"\";\n            like = 0;\n            \"like_count\" = 0;\n            \"reply_id\" = 8361657;\n            \"reply_user\" =             {\n                \"followers_count_text\" = \"\";\n                id = 25166508;\n                \"is_prime\" = 0;\n                lv = 0;\n                lvl = 1;\n                n = \"\\U6d6a\\U6f2b\\U7684\\U836f\\U98df\\U53ca\\U5176\\U5b83\\U5f88\\U89d2\\U843d\\U91cc\";\n                p = \"http:\/\/tx1.douguo.net\/upload\/photo\/1\/1\/1\/70_365cb5ec653b194c05b1053281d6b854.png\";\n                \"progress_image\" = \"\";\n                \"recipes_count_text\" = \"\";\n                relationship = \"-1\";\n                title = \"\";\n                v = 0;\n                \"verified_image\" = \"\";\n            };\n            \"sticker_icon\" =             (\n            );\n            time = \"2020-11-26 23:02:22\";\n            u =             {\n                \"followers_count_text\" = \"\";\n                id = 5226548;\n                \"is_prime\" = 0;\n                lv = 0;\n                lvl = 5;\n                n = \"CocoWu\\U53ef\\U53ef\";\n                p = \"http:\/\/tx1.douguo.net\/upload\/photo\/7\/1\/1\/70_u08034410640062141534.jpg\";\n                \"progress_image\" = \"\";\n                \"recipes_count_text\" = \"\";\n                relationship = \"-1\";\n                title = \"\";\n                v = 0;\n                \"verified_image\" = \"\";\n            };\n        }\n    );\n    city = \"\";\n    cmc = 2;\n    content =     (\n                {\n            c = \"\\U7b2c\\U4e8c\\U6b21\\U4e0b\\U9505\\U7096\\U716e\\U7684\\U65f6\\U5019\\U662f\\U51b7\\U6c34\\U4e0b\\U9505\\U5417\\Uff1f\";\n        }\n    );\n    ia = 0;\n    id = 8361657;\n    \"ip_address_location\" = \"\";\n    like = 0;\n    \"like_count\" = 0;\n    \"reply_id\" = 0;\n    \"sticker_icon\" =     (\n    );\n    time = \"2020-11-24 09:49:18\";\n    u =     {\n        \"followers_count_text\" = \"\";\n        id = 25166508;\n        \"is_prime\" = 0;\n        lv = 0;\n        lvl = 1;\n        n = \"\\U6d6a\\U6f2b\\U7684\\U836f\\U98df\\U53ca\\U5176\\U5b83\\U5f88\\U89d2\\U843d\\U91cc\";\n        p = \"http:\/\/tx1.douguo.net\/upload\/photo\/1\/1\/1\/70_365cb5ec653b194c05b1053281d6b854.png\";\n        \"progress_image\" = \"\";\n        \"recipes_count_text\" = \"\";\n        relationship = \"-1\";\n        title = \"\";\n        v = 0;\n        \"verified_image\" = \"\";\n    };\n}",
        "{\n    ac = \"#999999\";\n    at = \"\";\n    ccc = 1;\n    \"child_comments\" =     (\n                {\n            ac = \"#999999\";\n            at = \"\";\n            ccc = 0;\n            city = \"\";\n            cmc = 2;\n            content =             (\n                                {\n                    c = \"  \\U8c22\\U8c22\\U3002\\U53ef\\U4ee5\\U8bd5\\U4e0b\";\n                }\n            );\n            ia = 1;\n            id = 4288880;\n            \"ip_address_location\" = \"\";\n            like = 0;\n            \"like_count\" = 0;\n            \"reply_id\" = 4288873;\n            \"reply_user\" =             {\n                \"followers_count_text\" = \"\";\n                id = 19091833;\n                \"is_prime\" = 0;\n                lv = 0;\n                lvl = 1;\n                n = \"\\U58f9\\U8aa0\\U8afe\\Ue032\\U58f9\\U8f29\\U7d19\\Ue034\\U261e\\U56cd\\Ue428\";\n                p = \"\";\n                \"progress_image\" = \"\";\n                \"recipes_count_text\" = \"\";\n                relationship = \"-1\";\n                title = \"\";\n                v = 0;\n                \"verified_image\" = \"\";\n            };\n            \"sticker_icon\" =             (\n            );\n            time = \"2016-11-23 00:17:01\";\n            u =             {\n                \"followers_count_text\" = \"\";\n                id = 5226548;\n                \"is_prime\" = 0;\n                lv = 0;\n                lvl = 5;\n                n = \"CocoWu\\U53ef\\U53ef\";\n                p = \"http:\/\/tx1.douguo.net\/upload\/photo\/7\/1\/1\/70_u08034410640062141534.jpg\";\n                \"progress_image\" = \"\";\n                \"recipes_count_text\" = \"\";\n                relationship = \"-1\";\n                title = \"\";\n                v = 0;\n                \"verified_image\" = \"\";\n            };\n        }\n    );\n    city = \"\";\n    cmc = 2;\n    content =     (\n                {\n            c = \"\\U8272\\U9999\\U805a\\U5168\\Uff0c\\U5473\\U9053\\U5e94\\U8be5\\U5f88\\U597d\";\n        }\n    );\n    ia = 0;\n    id = 4288873;\n    \"ip_address_location\" = \"\";\n    like = 0;\n    \"like_count\" = 0;\n    \"reply_id\" = 0;\n    \"sticker_icon\" =     (\n    );\n    time = \"2016-11-23 00:09:27\";\n    u =     {\n        \"followers_count_text\" = \"\";\n        id = 19091833;\n        \"is_prime\" = 0;\n        lv = 0;\n        lvl = 1;\n        n = \"\\U58f9\\U8aa0\\U8afe\\Ue032\\U58f9\\U8f29\\U7d19\\Ue034\\U261e\\U56cd\\Ue428\";\n        p = \"\";\n        \"progress_image\" = \"\";\n        \"recipes_count_text\" = \"\";\n        relationship = \"-1\";\n        title = \"\";\n        v = 0;\n        \"verified_image\" = \"\";\n    };\n}"
      ],
      "thumb_height" : 0,
      "ipit" : 0,
      "original_photo_path" : "http:\/\/i1.douguo.net\/upload\/caiku\/c\/a\/7\/yuan_cadf2c78456a4d6619b7e0fb7ba0ad77.jpg",
      "rsm" : "该功能暂停使用",
      "act_des" : "",
      "ssu" : "",
      "image" : "http:\/\/i1.douguo.net\/upload\/caiku\/c\/a\/7\/300_cadf2c78456a4d6619b7e0fb7ba0ad77.jpg",
      "title" : "家乡凉拌菜  含卤菜卤制方法",
      "advice" : {
        "da" : {
          "url" : "https:\/\/m.douguo.com\/recipe\/nutrient_self\/1140873",
          "t" : "查看详细分析",
          "iu" : "https:\/\/i1.douguo.com\/upload\/banner\/f\/4\/d\/f48877e53c37759bc12ac494be82ec8d.png"
        },
        "at" : "可以预防血栓形成～",
        "has" : [
          {
            "url" : "recipes:\/\/www.douguo.com\/simplerecipelist?t=低饱和脂肪&id=低饱和脂肪",
            "t" : "低饱和脂肪"
          },
          {
            "t" : "高盐",
            "url" : "recipes:\/\/www.douguo.com\/simplerecipelist?t=高盐&id=高盐"
          }
        ]
      },
      "comments_count" : 13,
      "first_level_comment_count" : 8,
      "rpst" : "",
      "major" : [
        {
          "note" : "1个",
          "tu" : "https:\/\/m.douguo.com\/ingredients\/猪耳朵\/detailmaterial",
          "title" : "猪耳朵"
        },
        {
          "note" : "半个",
          "tu" : "https:\/\/m.douguo.com\/ingredients\/猪头皮\/detailmaterial",
          "title" : "猪头皮"
        },
        {
          "tu" : "https:\/\/m.douguo.com\/ingredients\/生抽\/detailmaterial",
          "title" : "生抽",
          "note" : "2汤匙"
        },
        {
          "tu" : "https:\/\/m.douguo.com\/ingredients\/老抽\/detailmaterial",
          "title" : "老抽",
          "note" : "1汤匙"
        },
        {
          "tu" : "https:\/\/m.douguo.com\/ingredients\/冰糖\/detailmaterial",
          "note" : "8—10颗",
          "title" : "冰糖"
        },
        {
          "title" : "大蒜",
          "tu" : "https:\/\/m.douguo.com\/ingredients\/大蒜\/detailmaterial",
          "note" : "半头"
        },
        {
          "note" : "2—3条",
          "tu" : "https:\/\/m.douguo.com\/ingredients\/小葱\/detailmaterial",
          "title" : "小葱"
        },
        {
          "tu" : "https:\/\/m.douguo.com\/ingredients\/姜\/detailmaterial",
          "note" : "3—4片",
          "title" : "姜"
        },
        {
          "tu" : "https:\/\/m.douguo.com\/ingredients\/桂皮\/detailmaterial",
          "title" : "桂皮",
          "note" : "1小段"
        },
        {
          "tu" : "https:\/\/m.douguo.com\/ingredients\/花椒\/detailmaterial",
          "title" : "花椒",
          "note" : "半把"
        },
        {
          "note" : "4—5片",
          "tu" : "https:\/\/m.douguo.com\/ingredients\/香叶\/detailmaterial",
          "title" : "香叶"
        },
        {
          "title" : "丁香",
          "tu" : "https:\/\/m.douguo.com\/ingredients\/丁香\/detailmaterial",
          "note" : "少许"
        },
        {
          "title" : "八角",
          "note" : "2—3个",
          "tu" : "https:\/\/m.douguo.com\/ingredients\/八角\/detailmaterial"
        },
        {
          "note" : "少许",
          "title" : "小茴香"
        },
        {
          "title" : "以下为拌菜所需调料：",
          "note" : ""
        },
        {
          "note" : "适量",
          "title" : "盐",
          "tu" : "https:\/\/m.douguo.com\/ingredients\/盐\/detailmaterial"
        },
        {
          "note" : "适量",
          "tu" : "https:\/\/m.douguo.com\/ingredients\/五香粉\/detailmaterial",
          "title" : "五香粉"
        },
        {
          "note" : "适量",
          "title" : "芝麻香油"
        },
        {
          "tu" : "https:\/\/m.douguo.com\/ingredients\/生抽\/detailmaterial",
          "note" : "少许",
          "title" : "生抽"
        },
        {
          "note" : "适量",
          "title" : "香醋",
          "tu" : "https:\/\/m.douguo.com\/ingredients\/香醋\/detailmaterial"
        },
        {
          "note" : "适量",
          "title" : "牛肉粉"
        },
        {
          "title" : "郫县豆瓣或辣椒粉",
          "note" : "适量"
        },
        {
          "title" : "食用油",
          "note" : "适量",
          "tu" : "https:\/\/m.douguo.com\/ingredients\/食用油\/detailmaterial"
        },
        {
          "title" : "蒜末",
          "note" : "适量"
        },
        {
          "tu" : "https:\/\/m.douguo.com\/ingredients\/糖\/detailmaterial",
          "note" : "少许",
          "title" : "糖"
        },
        {
          "title" : "小葱末",
          "note" : "适量"
        },
        {
          "title" : "指天椒末",
          "note" : "适量"
        }
      ],
      "top_mdsp" : [

      ],
      "favo_counts" : 1248,
      "cookstorys" : [
        {
          "type" : 0,
          "color" : "",
          "id" : 0,
          "u" : "",
          "icon" : "",
          "c" : "这个时候的南方有很多人已经穿上短袖。天气一天天热起来又到了吃凉拌菜的时候。"
        }
      ],
      "collect_status" : 0,
      "related_ads" : [

      ],
      "display_ingredient" : 1,
      "ipt" : "",
      "v_u" : "",
      "views_count_text" : "14.4万",
      "author_verified" : 0,
      "author" : "CocoWu可可",
      "packages_id" : [

      ],
      "rdsps" : [

      ],
      "minor" : [

      ],
      "dishes" : [

      ],
      "dish_count" : 0,
      "vfurl" : "",
      "rpt" : "",
      "rrpt" : "",
      "ss" : [

      ],
      "tags" : [
        "{\n    text = \"\\U5bb6\\U5e38\\U83dc\";\n}",
        "{\n    text = \"\\U51c9\\U83dc\";\n}",
        "{\n    text = \"\\U62cc\";\n}",
        "{\n    text = \"\\U5348\\U9910\";\n}",
        "{\n    text = \"\\U665a\\U9910\";\n}",
        "{\n    text = \"\\U670b\\U53cb\\U805a\\U9910\";\n}",
        "{\n    text = \"\\U4e00\\U5bb6\\U4e09\\U53e3\";\n}",
        "{\n    text = \"\\U5ddd\\U83dc\";\n}",
        "{\n    text = \"\\U7ca4\\U83dc\";\n}",
        "{\n    text = \"\\U716e\";\n}",
        "{\n    text = \"\\U5364\";\n}",
        "{\n    text = \"\\U9999\";\n}",
        "{\n    text = \"\\U4e94\\U9999\";\n}",
        "{\n    text = \"\\U723d\\U53e3\";\n}"
      ],
      "sc" : 0,
      "photo_path" : "https:\/\/i1.douguo.com\/upload\/caiku\/c\/a\/7\/600_cadf2c78456a4d6619b7e0fb7ba0ad77.jpg",
      "cook_difficulty_image" : "https:\/\/i1.douguo.com\/upload\/banner\/1551424430.png",
      "cook_time" : "30–60分钟",
      "guide_image" : "",
      "rate" : 0,
      "cookwares" : [

      ],
      "rewarded_video_dsp" : [

      ],
      "su" : "",
      "dish_count_text" : "",
      "rrps" : [

      ],
      "btm_dsp" : [

      ],
      "comments_count_text" : "13",
      "rate_count" : 0,
      "user" : {
        "lv" : 0,
        "user_photo" : "http:\/\/tx1.douguo.net\/upload\/photo\/7\/1\/1\/70_u08034410640062141534.jpg",
        "nick" : "CocoWu可可",
        "verified" : 0,
        "is_prime" : 0,
        "point" : 0,
        "recipes_count" : 0,
        "gender" : 2,
        "coursecount" : 0,
        "introduction" : "",
        "favor_diaries_count" : 0,
        "birthday" : "",
        "setted_email" : 0,
        "lvl" : 5,
        "progress_image" : "",
        "qq_weibo_nick" : "",
        "weibo_nick" : "",
        "favorites_count" : 0,
        "verified_image" : "",
        "age" : "",
        "followers_count" : 0,
        "sign" : "",
        "user_id" : "5226548",
        "avatar_medium" : "http:\/\/tx1.douguo.net\/upload\/photo\/7\/1\/1\/140_u08034410640062141534.jpg",
        "diaries_count" : 0,
        "pc" : 0,
        "fc" : 0,
        "user_large_photo" : "http:\/\/tx1.douguo.net\/upload\/photo\/7\/1\/1\/yuan_u08034410640062141534.jpg",
        "qzone_nick" : "",
        "user_cover" : "",
        "following_count" : 0,
        "mobile" : "",
        "email" : "",
        "subscription" : 0,
        "userid" : "5226548",
        "regist_time" : "",
        "verified_url" : "https:\/\/m.douguo.com\/user\/prodesc",
        "subscription_article_count" : 0,
        "location" : 0,
        "dishes_count" : 0
      },
      "mid_mdsp" : [

      ],
      "brand_day_dsp" : [

      ],
      "ecs" : 0,
      "sr" : "",
      "recipe_list_tags" : [
        {
          "text_color" : "#141515",
          "jump_url" : "",
          "text" : "关注的人",
          "background_start_color" : "#F4F5F5",
          "right_image" : "",
          "background_end_color" : "#F4F5F5",
          "background_border_color" : ""
        },
        {
          "text_color" : "#141515",
          "jump_url" : "",
          "background_end_color" : "#F4F5F5",
          "text" : "内容详细",
          "background_border_color" : "",
          "background_start_color" : "#F4F5F5",
          "right_image" : ""
        }
      ],
      "rpid" : 0,
      "cook_time_image" : "https:\/\/i1.douguo.com\/upload\/banner\/1551424318.png",
      "ipoi" : "",
      "hq" : 1,
      "thumb_path" : "https:\/\/i1.douguo.com\/upload\/caiku\/c\/a\/7\/300_cadf2c78456a4d6619b7e0fb7ba0ad77.jpg",
      "clicks" : "125102",
      "release_time" : "",
      "recommendation_tag" : "",
      "recent_comments" : [

      ],
      "cookstory" : "这个时候的南方有很多人已经穿上短袖。天气一天天热起来又到了吃凉拌菜的时候。",
      "ph" : 600,
      "purl" : "",
      "old_comments" : [

      ],
      "ipci" : "",
      "cook_id" : "1140873",
      "vu" : "",
      "ipia" : [

      ],
      "ipurl" : "",
      "cookstep" : [
        {
          "content" : "锅中放入几片姜，把猪耳朵放入锅中煮开五分钟捞出。",
          "image_height" : 1067,
          "image" : "https:\/\/i1.douguo.com\/upload\/caiku\/e\/4\/d\/e4b8e8c6c11f75fc1b1d642dceafe23d.jpg",
          "position" : 1,
          "thumb" : "https:\/\/i1.douguo.com\/upload\/caiku\/e\/4\/d\/140_e4b8e8c6c11f75fc1b1d642dceafe23d.jpg",
          "image_width" : 800,
          "frame" : "-1"
        },
        {
          "image_width" : 800,
          "image_height" : 600,
          "thumb" : "https:\/\/i1.douguo.com\/upload\/caiku\/d\/8\/7\/140_d88d8ba8913a622fcd853663efdfc047.jpg",
          "position" : 2,
          "image" : "https:\/\/i1.douguo.com\/upload\/caiku\/d\/8\/7\/d88d8ba8913a622fcd853663efdfc047.jpg",
          "content" : "焯过水的猪儿放入冰水中降温再次洗净。",
          "frame" : "-1"
        },
        {
          "image_width" : 800,
          "frame" : "-1",
          "thumb" : "https:\/\/i1.douguo.com\/upload\/caiku\/5\/d\/5\/140_5de5b45c0f1a6cd9cc7dccf770b558b5.jpg",
          "content" : "把洗净的猪耳朵重新放到干净的锅中。",
          "position" : 3,
          "image_height" : 1067,
          "image" : "https:\/\/i1.douguo.com\/upload\/caiku\/5\/d\/5\/5de5b45c0f1a6cd9cc7dccf770b558b5.jpg"
        },
        {
          "content" : "准备卤料。",
          "position" : 4,
          "image" : "https:\/\/i1.douguo.com\/upload\/caiku\/1\/8\/e\/18460cd9b8b28f395c2b3ae805df94de.jpg",
          "thumb" : "https:\/\/i1.douguo.com\/upload\/caiku\/1\/8\/e\/140_18460cd9b8b28f395c2b3ae805df94de.jpg",
          "frame" : "-1",
          "image_height" : 1067,
          "image_width" : 800
        },
        {
          "image_width" : 800,
          "frame" : "-1",
          "position" : 5,
          "image" : "https:\/\/i1.douguo.com\/upload\/caiku\/6\/2\/e\/62d8467fa02b2f07fc2eda939fa4f35e.jpg",
          "thumb" : "https:\/\/i1.douguo.com\/upload\/caiku\/6\/2\/e\/140_62d8467fa02b2f07fc2eda939fa4f35e.jpg",
          "image_height" : 1067,
          "content" : "然后把所有的配料放入锅中。"
        },
        {
          "position" : 6,
          "content" : "注入没过猪儿的水，大火烧开卤40分钟左右",
          "thumb" : "https:\/\/i1.douguo.com\/upload\/caiku\/b\/6\/9\/140_b654d29db5c42dc627ed1e5d362e96a9.jpg",
          "frame" : "-1",
          "image_height" : 1067,
          "image" : "https:\/\/i1.douguo.com\/upload\/caiku\/b\/6\/9\/b654d29db5c42dc627ed1e5d362e96a9.jpg",
          "image_width" : 800
        },
        {
          "frame" : "-1",
          "thumb" : "https:\/\/i1.douguo.com\/upload\/caiku\/7\/5\/5\/140_755764052dc53af9680c43050ba9e345.jpg",
          "image" : "https:\/\/i1.douguo.com\/upload\/caiku\/7\/5\/5\/755764052dc53af9680c43050ba9e345.jpg",
          "image_width" : 800,
          "position" : 7,
          "image_height" : 600,
          "content" : "卤好的猪耳捞出晾凉。"
        },
        {
          "image" : "https:\/\/i1.douguo.com\/upload\/caiku\/1\/f\/2\/1f9bc3316cd8eb42916b6f03d061efe2.jpg",
          "content" : "放凉的猪耳切片。",
          "image_height" : 1067,
          "thumb" : "https:\/\/i1.douguo.com\/upload\/caiku\/1\/f\/2\/140_1f9bc3316cd8eb42916b6f03d061efe2.jpg",
          "position" : 8,
          "image_width" : 800,
          "frame" : "-1"
        },
        {
          "image_height" : 1067,
          "thumb" : "https:\/\/i1.douguo.com\/upload\/caiku\/6\/2\/2\/140_62ec1056f528114d16ca440974391032.jpg",
          "position" : 9,
          "image_width" : 800,
          "content" : "把配菜切好放入锅中焯水一分钟捞出过凉水，控干水分和猪耳一起放入碗中。（配菜根据自己喜欢放。我放的莴笋和金针菇。）",
          "image" : "https:\/\/i1.douguo.com\/upload\/caiku\/6\/2\/2\/62ec1056f528114d16ca440974391032.jpg",
          "frame" : "-1"
        },
        {
          "image_width" : 800,
          "image_height" : 1067,
          "image" : "https:\/\/i1.douguo.com\/upload\/caiku\/5\/b\/4\/5b86114aafb1277cdaa6f22a5b96b124.jpg",
          "content" : "加入适量的盐，生抽，芝麻香油，牛肉粉，香醋，五香粉和少许的糖。葱末和指天椒末也放入。",
          "thumb" : "https:\/\/i1.douguo.com\/upload\/caiku\/5\/b\/4\/140_5b86114aafb1277cdaa6f22a5b96b124.jpg",
          "frame" : "-1",
          "position" : 10
        },
        {
          "image_width" : 800,
          "image" : "https:\/\/i1.douguo.com\/upload\/caiku\/f\/7\/9\/f7223200aa1cbd4eeb1fc8153a4b28b9.jpg",
          "content" : "烧锅放入少许的油，然后放入郫县豆瓣或辣椒粉炒出红油，关火之前加入蒜末翻匀。然后倒入拌菜中。",
          "position" : 11,
          "thumb" : "https:\/\/i1.douguo.com\/upload\/caiku\/f\/7\/9\/140_f7223200aa1cbd4eeb1fc8153a4b28b9.jpg",
          "frame" : "-1",
          "image_height" : 1067
        },
        {
          "image" : "https:\/\/i1.douguo.com\/upload\/caiku\/c\/5\/9\/c5db0be35bfaef6ca9d51703369ab759.jpg",
          "frame" : "-1",
          "image_width" : 800,
          "content" : "拌匀之后装入盘中，开动啦！",
          "position" : 12,
          "thumb" : "https:\/\/i1.douguo.com\/upload\/caiku\/c\/5\/9\/140_c5db0be35bfaef6ca9d51703369ab759.jpg",
          "image_height" : 600
        }
      ],
      "author_photo" : "http:\/\/tx1.douguo.net\/upload\/photo\/7\/1\/1\/70_u08034410640062141534.jpg",
      "rcs" : [

      ],
      "author_id" : 5226548,
      "bs" : [

      ],
      "recipe_tags" : [

      ],
      "pw" : 800,
      "share_info" : {
        "mini_program" : [

        ],
        "object_id" : "1140873",
        "s_u" : "http:\/\/m.douguo.com\/cookbook\/1140873.html",
        "image" : "https:\/\/cp1.douguo.com\/upload\/caiku\/c\/a\/7\/cadf2c78456a4d6619b7e0fb7ba0ad77.jpg",
        "name" : "＃寻人启事＃家乡凉拌菜  含卤菜卤制方法-会做饭很酷!",
        "s_d" : "＃寻人启事＃家乡凉拌菜  含卤菜卤制方法-会做饭很酷!",
        "infos" : [
          {
            "mini_program" : [

            ],
            "image" : "https:\/\/cp1.douguo.com\/upload\/caiku\/c\/a\/7\/cadf2c78456a4d6619b7e0fb7ba0ad77.jpg",
            "s_d" : "#学做饭用豆果美食# 会做饭好酷啊！我在@豆果美食 分享了【＃寻人启事＃家乡凉拌菜  含卤菜卤制方法-会做饭很酷!】，今天也是厨艺满满的一天呢，快来和我一起学做美食吧！查看图片了解菜谱（更多美食秘籍点击https:\/\/m.weibo.cn\/p\/100404i33631获取）",
            "name" : "＃寻人启事＃家乡凉拌菜  含卤菜卤制方法-会做饭很酷!",
            "channel" : "1",
            "s_u" : "",
            "qr_image" : "",
            "object_id" : "1140873"
          },
          {
            "name" : "＃寻人启事＃家乡凉拌菜  含卤菜卤制方法-会做饭很酷!",
            "qr_image" : "",
            "s_u" : "http:\/\/m.douguo.com\/cookbook\/1140873.html",
            "mini_program" : [

            ],
            "channel" : "7",
            "s_d" : "＃寻人启事＃家乡凉拌菜  含卤菜卤制方法-会做饭很酷!",
            "object_id" : "1140873",
            "image" : "https:\/\/cp1.douguo.com\/upload\/caiku\/c\/a\/7\/cadf2c78456a4d6619b7e0fb7ba0ad77.jpg"
          },
          {
            "object_id" : "1140873",
            "channel" : "8",
            "s_d" : "＃寻人启事＃家乡凉拌菜  含卤菜卤制方法-会做饭很酷!",
            "qr_image" : "",
            "image" : "https:\/\/cp1.douguo.com\/upload\/caiku\/c\/a\/7\/cadf2c78456a4d6619b7e0fb7ba0ad77.jpg",
            "name" : "＃寻人启事＃家乡凉拌菜  含卤菜卤制方法-会做饭很酷!",
            "s_u" : "http:\/\/m.douguo.com\/cookbook\/1140873.html",
            "mini_program" : [

            ]
          }
        ],
        "qr_image" : ""
      },
      "notes" : [

      ],
      "eu" : "recipes:\/\/www.douguo.com\/postdetail?id=242016",
      "favo_counts_text" : "1248",
      "event" : {
        "id" : 0
      },
      "vc" : "143931",
      "recommended" : 0,
      "rips" : 0,
      "hqu" : "recipes:\/\/www.douguo.com\/notedetail?id=21162253",
      "rate_show" : 0
    }
  },
  "status" : 0
}