{
  "status" : 0,
  "result" : {
    "recipe" : {
      "dish_count_text" : "",
      "recipe_tags" : [

      ],
      "share_info" : {
        "name" : "汪汪雪米饼｜一碗剩饭就能做！鲜香松脆，一抿就化！-会做饭很酷!",
        "s_u" : "http:\/\/m.douguo.com\/cookbook\/3267619.html",
        "image" : "https:\/\/cp1.douguo.com\/upload\/caiku\/6\/f\/c\/6f0a1cdecd5064f86a371b8b1bd9273c.jpeg",
        "infos" : [
          {
            "qr_image" : "",
            "s_d" : "#学做饭用豆果美食# 会做饭真是太酷了！我在@豆果美食 分享了【汪汪雪米饼｜一碗剩饭就能做！鲜香松脆，一抿就化！-会做饭很酷!】，看着是不是馋到不行呢～快来跟我学学吧！查看图片了解菜谱，（想要获取更多美食就看这https:\/\/m.weibo.cn\/p\/100404i33631）",
            "name" : "汪汪雪米饼｜一碗剩饭就能做！鲜香松脆，一抿就化！-会做饭很酷!",
            "channel" : "1",
            "object_id" : "3267619",
            "mini_program" : [

            ],
            "image" : "https:\/\/cp1.douguo.com\/upload\/caiku\/6\/f\/c\/6f0a1cdecd5064f86a371b8b1bd9273c.jpeg",
            "s_u" : ""
          },
          {
            "qr_image" : "",
            "object_id" : "3267619",
            "image" : "https:\/\/cp1.douguo.com\/upload\/caiku\/6\/f\/c\/6f0a1cdecd5064f86a371b8b1bd9273c.jpeg",
            "s_d" : "汪汪雪米饼｜一碗剩饭就能做！鲜香松脆，一抿就化！-会做饭很酷!",
            "mini_program" : [

            ],
            "channel" : "7",
            "name" : "汪汪雪米饼｜一碗剩饭就能做！鲜香松脆，一抿就化！-会做饭很酷!",
            "s_u" : "http:\/\/m.douguo.com\/cookbook\/3267619.html"
          },
          {
            "s_u" : "http:\/\/m.douguo.com\/cookbook\/3267619.html",
            "channel" : "8",
            "object_id" : "3267619",
            "mini_program" : [

            ],
            "image" : "https:\/\/cp1.douguo.com\/upload\/caiku\/6\/f\/c\/6f0a1cdecd5064f86a371b8b1bd9273c.jpeg",
            "name" : "汪汪雪米饼｜一碗剩饭就能做！鲜香松脆，一抿就化！-会做饭很酷!",
            "s_d" : "汪汪雪米饼｜一碗剩饭就能做！鲜香松脆，一抿就化！-会做饭很酷!",
            "qr_image" : ""
          }
        ],
        "object_id" : "3267619",
        "mini_program" : [

        ],
        "s_d" : "汪汪雪米饼｜一碗剩饭就能做！鲜香松脆，一抿就化！-会做饭很酷!",
        "qr_image" : ""
      },
      "ph" : 645,
      "su" : "",
      "cook_id" : "3267619",
      "release_time" : "",
      "hq" : 1,
      "comments_count" : 0,
      "packages_id" : [

      ],
      "user" : {
        "verified_url" : "https:\/\/m.douguo.com\/user\/prodesc",
        "coursecount" : 0,
        "diaries_count" : 0,
        "location" : 0,
        "age" : "",
        "following_count" : 0,
        "favor_diaries_count" : 0,
        "qzone_nick" : "",
        "sign" : "",
        "introduction" : "",
        "subscription" : 0,
        "verified" : 1,
        "lv" : 0,
        "mobile" : "",
        "regist_time" : "",
        "subscription_article_count" : 0,
        "avatar_medium" : "http:\/\/tx1.douguo.net\/upload\/photo\/4\/8\/4\/140_48477301a10c9f72ef49df49292115f4.jpeg",
        "nick" : "kaoker烘焙日记",
        "user_large_photo" : "http:\/\/tx1.douguo.net\/upload\/photo\/4\/8\/4\/yuan_48477301a10c9f72ef49df49292115f4.jpeg",
        "is_prime" : 0,
        "setted_email" : 0,
        "progress_image" : "",
        "pc" : 0,
        "lvl" : 6,
        "weibo_nick" : "",
        "user_photo" : "http:\/\/tx1.douguo.net\/upload\/photo\/4\/8\/4\/70_48477301a10c9f72ef49df49292115f4.jpeg",
        "gender" : 2,
        "followers_count" : 0,
        "userid" : "27115149",
        "dishes_count" : 0,
        "user_id" : "27115149",
        "verified_image" : "https:\/\/i1.douguo.com\/upload\/note\/d\/a\/a\/da84247847aebe48d9dd0fcdac88862a.png",
        "fc" : 0,
        "user_cover" : "",
        "recipes_count" : 0,
        "point" : 0,
        "favorites_count" : 0,
        "qq_weibo_nick" : "",
        "email" : "",
        "birthday" : ""
      },
      "rrpt" : "",
      "ipurl" : "",
      "recent_comments" : [

      ],
      "cook_difficulty_image" : "https:\/\/i1.douguo.com\/upload\/banner\/1551424390.png",
      "rdsps" : [

      ],
      "rsm" : "该功能暂停使用",
      "photo_path" : "https:\/\/i1.douguo.com\/upload\/caiku\/6\/f\/c\/600_6f0a1cdecd5064f86a371b8b1bd9273c.jpeg",
      "ipoi" : "",
      "vc" : "22336",
      "btm_dsp" : [

      ],
      "ipci" : "",
      "brand_day_dsp" : [

      ],
      "ssu" : "",
      "cook_time" : "1小时以上",
      "old_comments" : [

      ],
      "vfurl" : "",
      "rrps" : [

      ],
      "ipt" : "",
      "recommend_label" : "2.2万人看过",
      "first_level_comment_count" : 0,
      "image" : "http:\/\/i1.douguo.net\/upload\/caiku\/6\/f\/c\/300_6f0a1cdecd5064f86a371b8b1bd9273c.jpeg",
      "author" : "kaoker烘焙日记",
      "rips" : 0,
      "rate_show" : 0,
      "guide_image" : "",
      "notes" : [

      ],
      "rate_count" : 0,
      "ipit" : 0,
      "cookwares" : [

      ],
      "clicks" : "1",
      "author_id" : 27115149,
      "rpid" : 0,
      "ipia" : [

      ],
      "bs" : [

      ],
      "hqu" : "recipes:\/\/www.douguo.com\/notedetail?id=21162253",
      "cookstory" : "小时候每次收到旺旺大礼包，都觉得格外惊喜。最喜欢吃雪米饼！万万没想到，用剩饭就能做！还格外松脆！小鱼老师教我们用剩饭做的这款米饼，只要减去配方里的糖和盐，就能给小朋友当辅食。操作简单，原料可控，还可以做各种形状！没有宝宝不喜欢！ ",
      "purl" : "",
      "author_verified" : 1,
      "original_photo_path" : "http:\/\/i1.douguo.net\/upload\/caiku\/6\/f\/c\/yuan_6f0a1cdecd5064f86a371b8b1bd9273c.jpeg",
      "author_photo" : "http:\/\/tx1.douguo.net\/upload\/photo\/4\/8\/4\/70_48477301a10c9f72ef49df49292115f4.jpeg",
      "tags" : [

      ],
      "thumb_height" : 0,
      "title" : "汪汪雪米饼｜一碗剩饭就能做！鲜香松脆，一抿就化！",
      "thumb_path" : "https:\/\/i1.douguo.com\/upload\/caiku\/6\/f\/c\/300_6f0a1cdecd5064f86a371b8b1bd9273c.jpeg",
      "favo_counts" : 863,
      "act_des" : "",
      "pw" : 1079,
      "v_u" : "",
      "story_dsp" : [

      ],
      "display_ingredient" : 1,
      "cookstep" : [
        {
          "content" : "用料理机将除蛋清以外的所有材料打成糊。",
          "image_height" : 338,
          "image" : "https:\/\/i1.douguo.com\/upload\/caiku\/3\/1\/3\/3154a8cbada9fcfa85fbc0250fffdda3.gif",
          "image_width" : 600,
          "thumb" : "https:\/\/i1.douguo.com\/upload\/caiku\/3\/1\/3\/3154a8cbada9fcfa85fbc0250fffdda3.gif",
          "position" : 1,
          "frame" : "-1"
        },
        {
          "position" : 2,
          "frame" : "-1",
          "image_height" : 338,
          "image" : "https:\/\/i1.douguo.com\/upload\/caiku\/6\/b\/6\/6bb1cf2c45e9a15fadda185add7655d6.gif",
          "image_width" : 600,
          "thumb" : "https:\/\/i1.douguo.com\/upload\/caiku\/6\/b\/6\/6bb1cf2c45e9a15fadda185add7655d6.gif",
          "content" : "打发蛋清至能倒立的状态。"
        },
        {
          "content" : "混合蛋清和米糊、放入裱花袋，在烤盘上挤出自己喜欢的形状。",
          "frame" : "-1",
          "thumb" : "https:\/\/i1.douguo.com\/upload\/caiku\/6\/0\/a\/6031b2c3238fa10d9ff2453521df39ea.gif",
          "image" : "https:\/\/i1.douguo.com\/upload\/caiku\/6\/0\/a\/6031b2c3238fa10d9ff2453521df39ea.gif",
          "image_height" : 338,
          "position" : 3,
          "image_width" : 600
        },
        {
          "thumb" : "https:\/\/i1.douguo.com\/upload\/caiku\/a\/a\/1\/aabde8a4e9a66817931f4a8685c017c1.gif",
          "image" : "https:\/\/i1.douguo.com\/upload\/caiku\/a\/a\/1\/aabde8a4e9a66817931f4a8685c017c1.gif",
          "frame" : "-1",
          "image_width" : 600,
          "image_height" : 338,
          "position" : 4,
          "content" : "100°烘烤80min，取出晾凉。"
        }
      ],
      "top_mdsp" : [

      ],
      "recipe_list_tags" : [
        {
          "right_image" : "",
          "background_start_color" : "#F4F5F5",
          "jump_url" : "",
          "text_color" : "#141515",
          "background_end_color" : "#F4F5F5",
          "text" : "关注的人",
          "background_border_color" : ""
        }
      ],
      "recommendation_tag" : "",
      "mid_mdsp" : [

      ],
      "rate" : 0,
      "ss" : [

      ],
      "cook_time_image" : "https:\/\/i1.douguo.com\/upload\/banner\/1551423815.png",
      "favo_counts_text" : "863",
      "vu" : "",
      "levelid" : 2,
      "rpt" : "",
      "sc" : 0,
      "views_count_text" : "2.2万",
      "eu" : "recipes:\/\/www.douguo.com\/postdetail?id=242016",
      "dishes" : [

      ],
      "title_ad" : [

      ],
      "ecs" : 1,
      "create_time" : "2023-08-15 11:13:11",
      "dish_count" : 0,
      "rcs" : [

      ],
      "recommended" : 0,
      "sr" : "",
      "major" : [
        {
          "note" : "150克",
          "title" : "剩饭"
        },
        {
          "title" : "水",
          "tu" : "https:\/\/m.douguo.com\/ingredients\/水\/detailmaterial",
          "note" : "160克"
        },
        {
          "note" : "8克",
          "title" : "淀粉"
        },
        {
          "note" : "4克",
          "title" : "糖",
          "tu" : "https:\/\/m.douguo.com\/ingredients\/糖\/detailmaterial"
        },
        {
          "tu" : "https:\/\/m.douguo.com\/ingredients\/盐\/detailmaterial",
          "note" : "1克",
          "title" : "盐"
        },
        {
          "tu" : "https:\/\/m.douguo.com\/ingredients\/蛋清\/detailmaterial",
          "title" : "蛋清",
          "note" : "2个"
        }
      ],
      "comments" : [

      ],
      "comments_count_text" : "",
      "rpst" : "",
      "minor" : [

      ],
      "collect_status" : 0,
      "related_ads" : [

      ],
      "rewarded_video_dsp" : [

      ],
      "cook_difficulty" : "切墩(初级)",
      "cookstorys" : [
        {
          "c" : "小时候每次收到旺旺大礼包，都觉得格外惊喜。最喜欢吃雪米饼！万万没想到，用剩饭就能做！还格外松脆！小鱼老师教我们用剩饭做的这款米饼，只要减去配方里的糖和盐，就能给小朋友当辅食。操作简单，原料可控，还可以做各种形状！没有宝宝不喜欢！ ",
          "icon" : "",
          "type" : 0,
          "u" : "",
          "id" : 0,
          "color" : ""
        }
      ],
      "tips" : "*这里的水可以换成果蔬汁或者高汤\n*如果是给小朋友做辅食，可以不添加糖和盐"
    }
  },
  "state" : "success"
}