{
  "status" : 0,
  "result" : {
    "recipe" : {
      "cook_difficulty" : "配菜(中级)",
      "old_comments" : [

      ],
      "ipit" : 0,
      "rrps" : [

      ],
      "ipt" : "",
      "ph" : 1920,
      "recent_comments" : [

      ],
      "recipe_list_tags" : [
        {
          "background_start_color" : "#F4F5F5",
          "text_color" : "#141515",
          "text" : "关注的人",
          "background_border_color" : "",
          "background_end_color" : "#F4F5F5",
          "jump_url" : "",
          "right_image" : ""
        }
      ],
      "purl" : "",
      "vfurl" : "",
      "cookstep" : [
        {
          "content" : "蛋黄蛋清分离，分别装在无水无油的容器里（先把蛋白液放冰箱冷藏）",
          "image" : "https:\/\/i1.douguo.com\/upload\/caiku\/0\/7\/6\/07223142bb0dd5780a957780bb6c0dc6.jpeg",
          "frame" : "-1",
          "thumb" : "https:\/\/i1.douguo.com\/upload\/caiku\/0\/7\/6\/140_07223142bb0dd5780a957780bb6c0dc6.jpeg",
          "position" : 1,
          "image_width" : 1280,
          "image_height" : 960
        },
        {
          "image" : "https:\/\/i1.douguo.com\/upload\/caiku\/f\/0\/2\/f0d9c7566dc15c315f33355a748b2.jpeg",
          "frame" : "-1",
          "position" : 2,
          "thumb" : "https:\/\/i1.douguo.com\/upload\/caiku\/f\/0\/2\/140_f0d9c7566dc15c315f33355a748b2.jpeg",
          "content" : "蛋黄加入玉米油搅拌均匀",
          "image_width" : 0,
          "image_height" : 0
        },
        {
          "image_height" : 1280,
          "image_width" : 1280,
          "thumb" : "https:\/\/i1.douguo.com\/upload\/caiku\/e\/c\/a\/140_ecf5057c7e34366aa3fabf038a2f029a.jpeg",
          "content" : "加入百利甜酒和牛奶搅拌融合在一起",
          "image" : "https:\/\/i1.douguo.com\/upload\/caiku\/e\/c\/a\/ecf5057c7e34366aa3fabf038a2f029a.jpeg",
          "position" : 3,
          "frame" : "-1"
        },
        {
          "content" : "加入10克白砂糖",
          "image" : "https:\/\/i1.douguo.com\/upload\/caiku\/1\/3\/c\/1307b78f0609258702d41f4b14b16cec.jpeg",
          "image_width" : 1280,
          "thumb" : "https:\/\/i1.douguo.com\/upload\/caiku\/1\/3\/c\/140_1307b78f0609258702d41f4b14b16cec.jpeg",
          "image_height" : 1280,
          "frame" : "-1",
          "position" : 4
        },
        {
          "position" : 5,
          "frame" : "-1",
          "image_width" : 1280,
          "image_height" : 1280,
          "content" : "筛入低筋面粉",
          "thumb" : "https:\/\/i1.douguo.com\/upload\/caiku\/2\/6\/d\/140_261694d1ca45b66f8666ea49beab601d.jpeg",
          "image" : "https:\/\/i1.douguo.com\/upload\/caiku\/2\/6\/d\/261694d1ca45b66f8666ea49beab601d.jpeg"
        },
        {
          "image_height" : 1280,
          "frame" : "-1",
          "thumb" : "https:\/\/i1.douguo.com\/upload\/caiku\/e\/7\/2\/140_e701910b20c9ab3f54877174a7409b02.jpeg",
          "content" : "再筛入草莓粉",
          "position" : 6,
          "image" : "https:\/\/i1.douguo.com\/upload\/caiku\/e\/7\/2\/e701910b20c9ab3f54877174a7409b02.jpeg",
          "image_width" : 1280
        },
        {
          "image_height" : 1280,
          "frame" : "-1",
          "image" : "https:\/\/i1.douguo.com\/upload\/caiku\/4\/7\/a\/4734b2706c6228246a4ee473ae121c3a.jpeg",
          "content" : "用“z”字形搅拌至无颗粒状",
          "thumb" : "https:\/\/i1.douguo.com\/upload\/caiku\/4\/7\/a\/140_4734b2706c6228246a4ee473ae121c3a.jpeg",
          "position" : 7,
          "image_width" : 1280
        },
        {
          "content" : "取出蛋白液，挤入两滴柠檬汁",
          "thumb" : "https:\/\/i1.douguo.com\/upload\/caiku\/b\/d\/9\/140_bd0715fcc6df7ffb65a491b915870ce9.jpeg",
          "image" : "https:\/\/i1.douguo.com\/upload\/caiku\/b\/d\/9\/bd0715fcc6df7ffb65a491b915870ce9.jpeg",
          "frame" : "-1",
          "image_width" : 1280,
          "position" : 8,
          "image_height" : 1280
        },
        {
          "image_height" : 1280,
          "thumb" : "https:\/\/i1.douguo.com\/upload\/caiku\/f\/7\/f\/140_f73248c2094843c060d74fb8fc373c8f.jpeg",
          "frame" : "-1",
          "content" : "加入白砂糖（白砂糖再打发蛋白过程中分三次加入）",
          "position" : 9,
          "image_width" : 1280,
          "image" : "https:\/\/i1.douguo.com\/upload\/caiku\/f\/7\/f\/f73248c2094843c060d74fb8fc373c8f.jpeg"
        },
        {
          "image_width" : 1280,
          "image" : "https:\/\/i1.douguo.com\/upload\/caiku\/6\/d\/2\/6d250ef7550d9629edaa7af0b8689092.jpeg",
          "thumb" : "https:\/\/i1.douguo.com\/upload\/caiku\/6\/d\/2\/140_6d250ef7550d9629edaa7af0b8689092.jpeg",
          "position" : 10,
          "content" : "电动打蛋器低速打发然后➕白砂糖，打发至有纹路又再加最后一次白砂糖",
          "image_height" : 1280,
          "frame" : "-1"
        },
        {
          "frame" : "-1",
          "content" : "高速打发至干性发泡，有小尖头而且不会掉下来就可以了",
          "image_width" : 1280,
          "image" : "https:\/\/i1.douguo.com\/upload\/caiku\/b\/0\/f\/b04997377efb58fda4b706e5ccdcdbaf.jpeg",
          "image_height" : 1280,
          "position" : 11,
          "thumb" : "https:\/\/i1.douguo.com\/upload\/caiku\/b\/0\/f\/140_b04997377efb58fda4b706e5ccdcdbaf.jpeg"
        },
        {
          "content" : "取打发好的三分之一的蛋白霜加入蛋黄液",
          "image_width" : 1280,
          "image" : "https:\/\/i1.douguo.com\/upload\/caiku\/6\/d\/6\/6de8dcae7e72d011a134c85af48837f6.jpeg",
          "image_height" : 1280,
          "thumb" : "https:\/\/i1.douguo.com\/upload\/caiku\/6\/d\/6\/140_6de8dcae7e72d011a134c85af48837f6.jpeg",
          "position" : 12,
          "frame" : "-1"
        },
        {
          "image_width" : 1280,
          "position" : 13,
          "image_height" : 1280,
          "thumb" : "https:\/\/i1.douguo.com\/upload\/caiku\/f\/7\/c\/140_f7bb55430dcd1ebc9ca801278c5c963c.jpeg",
          "content" : "从下往上翻拌均匀（千万不要画圈搅拌！会消泡）",
          "image" : "https:\/\/i1.douguo.com\/upload\/caiku\/f\/7\/c\/f7bb55430dcd1ebc9ca801278c5c963c.jpeg",
          "frame" : "-1"
        },
        {
          "frame" : "-1",
          "image" : "https:\/\/i1.douguo.com\/upload\/caiku\/5\/e\/3\/5e216119f1f01a3eb63134d88fa09123.jpeg",
          "image_height" : 1280,
          "content" : "搅拌均匀的蛋黄液倒入剩余的蛋白霜里",
          "image_width" : 1280,
          "thumb" : "https:\/\/i1.douguo.com\/upload\/caiku\/5\/e\/3\/140_5e216119f1f01a3eb63134d88fa09123.jpeg",
          "position" : 14
        },
        {
          "content" : "以同样翻拌的手法翻拌均匀",
          "image" : "https:\/\/i1.douguo.com\/upload\/caiku\/2\/b\/e\/2b31ba00765ec0f009d3b784b653301e.jpeg",
          "image_height" : 1280,
          "thumb" : "https:\/\/i1.douguo.com\/upload\/caiku\/2\/b\/e\/140_2b31ba00765ec0f009d3b784b653301e.jpeg",
          "image_width" : 1280,
          "frame" : "-1",
          "position" : 15
        },
        {
          "content" : "倒入6寸蛋糕模，然后大力震几下，震出气泡",
          "image_width" : 1280,
          "frame" : "-1",
          "position" : 16,
          "image_height" : 1280,
          "thumb" : "https:\/\/i1.douguo.com\/upload\/caiku\/a\/4\/2\/140_a4d17ad1c2066c166336241326e08a32.jpeg",
          "image" : "https:\/\/i1.douguo.com\/upload\/caiku\/a\/4\/2\/a4d17ad1c2066c166336241326e08a32.jpeg"
        },
        {
          "image_width" : 1280,
          "content" : "烤箱提前160°预热，然后烤25-30分钟（各家烤箱脾气不一样，自行调整哦）",
          "image" : "https:\/\/i1.douguo.com\/upload\/caiku\/7\/2\/d\/72db3f642b94aefee78af7566d4efedd.jpeg",
          "thumb" : "https:\/\/i1.douguo.com\/upload\/caiku\/7\/2\/d\/140_72db3f642b94aefee78af7566d4efedd.jpeg",
          "position" : 17,
          "frame" : "-1",
          "image_height" : 960
        },
        {
          "image_height" : 1280,
          "position" : 18,
          "image" : "https:\/\/i1.douguo.com\/upload\/caiku\/d\/8\/5\/d88ee92ea08a0ee3c8de70e6052f9535.jpeg",
          "content" : "取出烤好的戚风用力震一下，然后倒扣放凉再脱模",
          "thumb" : "https:\/\/i1.douguo.com\/upload\/caiku\/d\/8\/5\/140_d88ee92ea08a0ee3c8de70e6052f9535.jpeg",
          "image_width" : 1280,
          "frame" : "-1"
        },
        {
          "content" : "在戚风的中心挖个洞",
          "image_width" : 1280,
          "image" : "https:\/\/i1.douguo.com\/upload\/caiku\/b\/c\/5\/bc60cd393530a6a69e06cdbd8e00f0f5.jpeg",
          "frame" : "-1",
          "image_height" : 1280,
          "thumb" : "https:\/\/i1.douguo.com\/upload\/caiku\/b\/c\/5\/140_bc60cd393530a6a69e06cdbd8e00f0f5.jpeg",
          "position" : 19
        },
        {
          "position" : 20,
          "content" : "把打发好的奶油（我在打发奶油的时候加了少许盐）涂在上面",
          "frame" : "-1",
          "image_width" : 1280,
          "image" : "https:\/\/i1.douguo.com\/upload\/caiku\/d\/6\/0\/d64aaf111b3847d8374375953d5124b0.jpeg",
          "image_height" : 1280,
          "thumb" : "https:\/\/i1.douguo.com\/upload\/caiku\/d\/6\/0\/140_d64aaf111b3847d8374375953d5124b0.jpeg"
        },
        {
          "position" : 21,
          "frame" : "-1",
          "thumb" : "https:\/\/i1.douguo.com\/upload\/caiku\/1\/d\/9\/140_1d6cb4e97bcf1f240cd4ac64b6377dc9.jpeg",
          "image_height" : 1280,
          "image_width" : 1280,
          "image" : "https:\/\/i1.douguo.com\/upload\/caiku\/1\/d\/9\/1d6cb4e97bcf1f240cd4ac64b6377dc9.jpeg",
          "content" : "放上提前煮好的黑珍珠"
        },
        {
          "frame" : "-1",
          "image_width" : 1280,
          "thumb" : "https:\/\/i1.douguo.com\/upload\/caiku\/f\/3\/d\/140_f3fef30d9ab0883c3492fc35da5e321d.jpeg",
          "position" : 22,
          "content" : "再抹上奶油，放上奥利奥饼干等装饰，珍珠爆浆蛋糕就做好啦！",
          "image_height" : 1280,
          "image" : "https:\/\/i1.douguo.com\/upload\/caiku\/f\/3\/d\/f3fef30d9ab0883c3492fc35da5e321d.jpeg"
        },
        {
          "image" : "https:\/\/i1.douguo.com\/upload\/caiku\/c\/b\/2\/cbbb0dada4647d2c809ae822e9f25e82.jpeg",
          "content" : "好好吃～",
          "image_width" : 1280,
          "image_height" : 1280,
          "position" : 23,
          "thumb" : "https:\/\/i1.douguo.com\/upload\/caiku\/c\/b\/2\/140_cbbb0dada4647d2c809ae822e9f25e82.jpeg",
          "frame" : "-1"
        },
        {
          "thumb" : "https:\/\/i1.douguo.com\/upload\/caiku\/3\/c\/9\/140_3c2867ba5d593d7ebc4896bb6d82daf9.jpeg",
          "image_width" : 1280,
          "image" : "https:\/\/i1.douguo.com\/upload\/caiku\/3\/c\/9\/3c2867ba5d593d7ebc4896bb6d82daf9.jpeg",
          "position" : 24,
          "content" : "最后 祝我生日快乐\n哈哈  一个人的生日也很满足❤️",
          "frame" : "-1",
          "image_height" : 1280
        }
      ],
      "author" : "零绘辰",
      "ipurl" : "",
      "rrpt" : "",
      "top_mdsp" : [

      ],
      "recommendation_tag" : "",
      "ssu" : "",
      "thumb_height" : 0,
      "cookwares" : [

      ],
      "collect_status" : 0,
      "cook_id" : "2432439",
      "recommended" : 0,
      "hqu" : "recipes:\/\/www.douguo.com\/notedetail?id=21162253",
      "dish_count" : 0,
      "v_u" : "",
      "story_dsp" : [

      ],
      "ecs" : 0,
      "tips" : "",
      "vc" : "26053",
      "advice" : {
        "has" : [

        ],
        "da" : {
          "iu" : "https:\/\/i1.douguo.com\/upload\/banner\/f\/4\/d\/f48877e53c37759bc12ac494be82ec8d.png",
          "t" : "查看详细分析",
          "url" : "https:\/\/m.douguo.com\/recipe\/nutrient_self\/2432439"
        }
      },
      "guide_image" : "",
      "rpid" : 0,
      "ipoi" : "",
      "minor" : [

      ],
      "image" : "http:\/\/i1.douguo.net\/upload\/caiku\/1\/2\/8\/300_12b9bd8c69edf57a7daed4703aa25228.jpeg",
      "rate" : 0,
      "clicks" : "15799",
      "cookstory" : "恰逢今天是自己的生日 想吃蛋糕～\n于是乎自己动手倒腾起来了～\n戚风蛋糕加入了百利草莓奶油味的甜酒～\n口感真的很赞！\n也算是百利甜酒的另一种喝法吧哈哈",
      "rips" : 0,
      "dish_count_text" : "",
      "share_info" : {
        "object_id" : "2432439",
        "mini_program" : [

        ],
        "name" : "黑珍珠流心爆浆百利草莓味蛋糕-会做饭很酷!",
        "qr_image" : "",
        "s_u" : "http:\/\/m.douguo.com\/cookbook\/2432439.html",
        "image" : "https:\/\/cp1.douguo.com\/upload\/caiku\/1\/2\/8\/12b9bd8c69edf57a7daed4703aa25228.jpeg",
        "s_d" : "黑珍珠流心爆浆百利草莓味蛋糕-会做饭很酷!",
        "infos" : [
          {
            "mini_program" : [

            ],
            "object_id" : "2432439",
            "channel" : "1",
            "image" : "https:\/\/cp1.douguo.com\/upload\/caiku\/1\/2\/8\/12b9bd8c69edf57a7daed4703aa25228.jpeg",
            "s_u" : "",
            "s_d" : "#学做饭用豆果美食# 会做饭好酷啊！我在@豆果美食 分享了【黑珍珠流心爆浆百利草莓味蛋糕-会做饭很酷!】，今天也是厨艺满满的一天呢，快来和我一起学做美食吧！查看图片了解菜谱（更多美食秘籍点击https:\/\/m.weibo.cn\/p\/100404i33631获取）",
            "qr_image" : "",
            "name" : "黑珍珠流心爆浆百利草莓味蛋糕-会做饭很酷!"
          },
          {
            "channel" : "7",
            "mini_program" : [

            ],
            "object_id" : "2432439",
            "name" : "黑珍珠流心爆浆百利草莓味蛋糕-会做饭很酷!",
            "s_d" : "黑珍珠流心爆浆百利草莓味蛋糕-会做饭很酷!",
            "qr_image" : "",
            "image" : "https:\/\/cp1.douguo.com\/upload\/caiku\/1\/2\/8\/12b9bd8c69edf57a7daed4703aa25228.jpeg",
            "s_u" : "http:\/\/m.douguo.com\/cookbook\/2432439.html"
          },
          {
            "channel" : "8",
            "s_u" : "http:\/\/m.douguo.com\/cookbook\/2432439.html",
            "qr_image" : "",
            "s_d" : "黑珍珠流心爆浆百利草莓味蛋糕-会做饭很酷!",
            "image" : "https:\/\/cp1.douguo.com\/upload\/caiku\/1\/2\/8\/12b9bd8c69edf57a7daed4703aa25228.jpeg",
            "mini_program" : [

            ],
            "object_id" : "2432439",
            "name" : "黑珍珠流心爆浆百利草莓味蛋糕-会做饭很酷!"
          }
        ]
      },
      "related_ads" : [

      ],
      "major" : [
        {
          "note" : "3只",
          "title" : "戚风蛋糕：鸡蛋"
        },
        {
          "title" : "细砂糖",
          "tu" : "https:\/\/m.douguo.com\/ingredients\/细砂糖\/detailmaterial",
          "note" : "60克"
        },
        {
          "note" : "10克",
          "title" : "牛奶",
          "tu" : "https:\/\/m.douguo.com\/ingredients\/牛奶\/detailmaterial"
        },
        {
          "note" : "30克",
          "tu" : "https:\/\/m.douguo.com\/ingredients\/色拉油\/detailmaterial",
          "title" : "色拉油"
        },
        {
          "note" : "50克",
          "tu" : "https:\/\/m.douguo.com\/ingredients\/低筋面粉\/detailmaterial",
          "title" : "低筋面粉"
        },
        {
          "note" : "30克",
          "title" : "百利草莓奶油酒"
        },
        {
          "tu" : "https:\/\/m.douguo.com\/ingredients\/柠檬汁\/detailmaterial",
          "note" : "少许",
          "title" : "柠檬汁"
        },
        {
          "title" : "黑珍珠",
          "note" : "适量"
        },
        {
          "tu" : "https:\/\/m.douguo.com\/ingredients\/盐\/detailmaterial",
          "title" : "盐",
          "note" : "1克"
        },
        {
          "note" : "一块",
          "title" : "奥利奥饼干"
        },
        {
          "tu" : "https:\/\/m.douguo.com\/ingredients\/淡奶油\/detailmaterial",
          "note" : "80克",
          "title" : "淡奶油"
        }
      ],
      "packages_id" : [

      ],
      "sc" : 0,
      "recipe_tags" : [

      ],
      "ipia" : [

      ],
      "cookstorys" : [
        {
          "id" : 0,
          "u" : "",
          "type" : 0,
          "c" : "恰逢今天是自己的生日 想吃蛋糕～\n于是乎自己动手倒腾起来了～\n戚风蛋糕加入了百利草莓奶油味的甜酒～\n口感真的很赞！\n也算是百利甜酒的另一种喝法吧哈哈",
          "icon" : "",
          "color" : ""
        }
      ],
      "thumb_path" : "https:\/\/i1.douguo.com\/upload\/caiku\/1\/2\/8\/300_12b9bd8c69edf57a7daed4703aa25228.jpeg",
      "rpst" : "",
      "eu" : "recipes:\/\/www.douguo.com\/postdetail?id=242016",
      "pw" : 1920,
      "views_count_text" : "2.6万",
      "recommend_label" : "2.6万人看过",
      "bs" : [

      ],
      "title_ad" : [

      ],
      "brand_day_dsp" : [

      ],
      "ipci" : "",
      "rewarded_video_dsp" : [

      ],
      "rate_show" : 0,
      "favo_counts_text" : "433",
      "notes" : [

      ],
      "comments_count_text" : "1",
      "comments" : [
        "{\n    ac = \"#999999\";\n    at = \"\";\n    ccc = 0;\n    \"child_comments\" =     (\n    );\n    city = \"\";\n    cmc = 2;\n    content =     (\n                {\n            c = \"\\U660e\\U5929\\U5c31\\U5403\\U8fd9\\U4e2a\\U5427\";\n        }\n    );\n    ia = 0;\n    id = 7780269;\n    \"ip_address_location\" = \"\";\n    like = 0;\n    \"like_count\" = 0;\n    \"reply_id\" = 0;\n    \"sticker_icon\" =     (\n    );\n    time = \"2020-03-14 21:57:04\";\n    u =     {\n        \"followers_count_text\" = \"\";\n        id = 24529214;\n        \"is_prime\" = 0;\n        lv = 0;\n        lvl = 1;\n        n = \"KYUHYUN_wsa\";\n        p = \"http:\/\/tx1.douguo.net\/upload\/photo\/8\/a\/3\/70_u24411796750331234406.jpg\";\n        \"progress_image\" = \"\";\n        \"recipes_count_text\" = \"\";\n        relationship = \"-1\";\n        title = \"\";\n        v = 0;\n        \"verified_image\" = \"\";\n    };\n}"
      ],
      "photo_path" : "https:\/\/i1.douguo.com\/upload\/caiku\/1\/2\/8\/600_12b9bd8c69edf57a7daed4703aa25228.jpeg",
      "author_id" : 17801298,
      "ss" : [

      ],
      "tags" : [

      ],
      "release_time" : "",
      "sr" : "",
      "mid_mdsp" : [

      ],
      "rpt" : "",
      "favo_counts" : 433,
      "vu" : "",
      "rcs" : [

      ],
      "author_verified" : 1,
      "display_ingredient" : 1,
      "first_level_comment_count" : 1,
      "rate_count" : 0,
      "su" : "",
      "cook_time_image" : "https:\/\/i1.douguo.com\/upload\/banner\/1551424318.png",
      "cook_difficulty_image" : "https:\/\/i1.douguo.com\/upload\/banner\/1551424413.png",
      "rdsps" : [

      ],
      "btm_dsp" : [

      ],
      "rsm" : "该功能暂停使用",
      "act_des" : "",
      "comments_count" : 1,
      "user" : {
        "is_prime" : 0,
        "dishes_count" : 0,
        "user_photo" : "http:\/\/tx1.douguo.net\/upload\/photo\/b\/3\/4\/70_u66686357949054112441.jpeg",
        "gender" : 2,
        "introduction" : "",
        "followers_count" : 0,
        "mobile" : "",
        "qq_weibo_nick" : "",
        "nick" : "零绘辰",
        "email" : "",
        "verified" : 1,
        "avatar_medium" : "http:\/\/tx1.douguo.net\/upload\/photo\/b\/3\/4\/140_u66686357949054112441.jpeg",
        "recipes_count" : 0,
        "regist_time" : "",
        "qzone_nick" : "",
        "weibo_nick" : "",
        "point" : 0,
        "user_large_photo" : "http:\/\/tx1.douguo.net\/upload\/photo\/b\/3\/4\/yuan_u66686357949054112441.jpeg",
        "fc" : 0,
        "progress_image" : "",
        "subscription" : 0,
        "coursecount" : 0,
        "verified_image" : "https:\/\/i1.douguo.com\/upload\/note\/d\/a\/a\/da84247847aebe48d9dd0fcdac88862a.png",
        "favorites_count" : 0,
        "sign" : "",
        "user_cover" : "",
        "following_count" : 0,
        "setted_email" : 0,
        "lvl" : 6,
        "location" : 0,
        "lv" : 0,
        "user_id" : "17801298",
        "birthday" : "",
        "subscription_article_count" : 0,
        "userid" : "17801298",
        "verified_url" : "https:\/\/m.douguo.com\/user\/prodesc",
        "age" : "",
        "favor_diaries_count" : 0,
        "pc" : 0,
        "diaries_count" : 0
      },
      "create_time" : "2020-03-14 21:12:20",
      "levelid" : 2,
      "dishes" : [

      ],
      "title" : "黑珍珠流心爆浆百利草莓味蛋糕",
      "hq" : 1,
      "author_photo" : "http:\/\/tx1.douguo.net\/upload\/photo\/b\/3\/4\/70_u66686357949054112441.jpeg",
      "original_photo_path" : "http:\/\/i1.douguo.net\/upload\/caiku\/1\/2\/8\/yuan_12b9bd8c69edf57a7daed4703aa25228.jpeg",
      "cook_time" : "30~60分钟"
    }
  },
  "state" : "success"
}