{
  "state" : "success",
  "result" : {
    "recipe" : {
      "comments_count_text" : "11",
      "hqu" : "recipes:\/\/www.douguo.com\/notedetail?id=21162253",
      "author_photo" : "http:\/\/tx1.douguo.net\/upload\/photo\/6\/1\/a\/70_u9441703886553140016.jpeg",
      "recommend_label" : "4619人刚刚收藏过",
      "collect_status" : 0,
      "rrps" : [

      ],
      "ipt" : "",
      "vc" : "169289",
      "cookstory" : "相信很多80后儿时的回忆中都会有一种酸酸甜甜的味道，那就是糖水罐头。对于现在的孩子来说很常见很普通，可是对于那时的我来说却是不可多得的美味，一般只有生病的时候妈妈才会买一瓶给我尝尝。\n现在我自己玩美食，为了孩子吃的健康安全喜欢能自己做的尽量自己做，因为市面的糖水罐头添加剂、糖份太多了，还是自制的吃的更放心。今天来跟大家分享一下橘子罐头的做法，富含维C，既美味又能帮助孩子增强抵抗力。",
      "release_time" : "",
      "first_level_comment_count" : 6,
      "minor" : [

      ],
      "vu" : "",
      "title_ad" : [

      ],
      "cook_id" : "2310218",
      "tips" : "1.剥橘子的时候可以适当去掉橘肉外面的白色经络，这样煮出来的糖水不会有苦味；\n2.冰糖用量根据自己的口味来增减；\n3.糖水完全冷却后放入冰箱冷藏后再吃口味更佳。",
      "ph" : 1440,
      "cook_difficulty" : "切墩(初级)",
      "recommendation_tag" : "",
      "v_u" : "",
      "comments_count" : 11,
      "purl" : "",
      "cook_time_image" : "https:\/\/i1.douguo.com\/upload\/banner\/1551424341.png",
      "create_time" : "2019-06-21 15:52:00",
      "ipoi" : "",
      "title" : "橘味甜滋滋~橘子罐头",
      "cookstep" : [
        {
          "image_width" : 4000,
          "frame" : "-1",
          "thumb" : "https:\/\/i1.douguo.com\/upload\/caiku\/e\/6\/2\/140_e66fadf2109b13b3cdf14745bfdb3af2.jpg",
          "image_height" : 2666,
          "position" : 1,
          "image" : "https:\/\/i1.douguo.com\/upload\/caiku\/e\/6\/2\/e66fadf2109b13b3cdf14745bfdb3af2.jpg",
          "content" : "准备好食材；"
        },
        {
          "position" : 2,
          "content" : "橘子去皮一瓣瓣剥开；",
          "image_height" : 2666,
          "frame" : "-1",
          "image_width" : 4000,
          "thumb" : "https:\/\/i1.douguo.com\/upload\/caiku\/c\/e\/8\/140_ceb11bc38e3dfa4e3efc24c218abec48.jpg",
          "image" : "https:\/\/i1.douguo.com\/upload\/caiku\/c\/e\/8\/ceb11bc38e3dfa4e3efc24c218abec48.jpg"
        },
        {
          "image_width" : 4000,
          "frame" : "-1",
          "content" : "将冰糖、水倒入锅中开煮；",
          "image" : "https:\/\/i1.douguo.com\/upload\/caiku\/c\/2\/f\/c2685acef529fc5c0d24bfda9846750f.jpg",
          "image_height" : 2666,
          "thumb" : "https:\/\/i1.douguo.com\/upload\/caiku\/c\/2\/f\/140_c2685acef529fc5c0d24bfda9846750f.jpg",
          "position" : 3
        },
        {
          "frame" : "-1",
          "image_height" : 2666,
          "thumb" : "https:\/\/i1.douguo.com\/upload\/caiku\/e\/2\/0\/140_e2cb0ae4f8ed820214ba04f614359ba0.jpg",
          "image" : "https:\/\/i1.douguo.com\/upload\/caiku\/e\/2\/0\/e2cb0ae4f8ed820214ba04f614359ba0.jpg",
          "image_width" : 4000,
          "position" : 4,
          "content" : "煮至冰糖融化，倒入橘瓣"
        },
        {
          "image_width" : 4000,
          "image_height" : 2666,
          "thumb" : "https:\/\/i1.douguo.com\/upload\/caiku\/8\/7\/e\/140_87599cc059655f0faa6ae5049f820cee.jpg",
          "position" : 5,
          "image" : "https:\/\/i1.douguo.com\/upload\/caiku\/8\/7\/e\/87599cc059655f0faa6ae5049f820cee.jpg",
          "content" : "煮沸后撇去浮沫，继续炖煮10分钟左右；",
          "frame" : "-1"
        },
        {
          "image_width" : 4000,
          "frame" : "-1",
          "thumb" : "https:\/\/i1.douguo.com\/upload\/caiku\/b\/5\/b\/140_b5901fe2ac71cd6c76ac17a152187a2b.jpg",
          "content" : "关火冷却至不烫嘴后，加入天然博士针叶樱桃粉搅拌均匀即可食用；",
          "position" : 6,
          "image_height" : 2666,
          "image" : "https:\/\/i1.douguo.com\/upload\/caiku\/b\/5\/b\/b5901fe2ac71cd6c76ac17a152187a2b.jpg"
        },
        {
          "thumb" : "https:\/\/i1.douguo.com\/upload\/caiku\/a\/4\/3\/140_a4733ddca88b4bf48e41a41d609b1443.JPG",
          "image_height" : 2688,
          "frame" : "-1",
          "image_width" : 3584,
          "position" : 7,
          "content" : "成品；",
          "image" : "https:\/\/i1.douguo.com\/upload\/caiku\/a\/4\/3\/a4733ddca88b4bf48e41a41d609b1443.JPG"
        },
        {
          "thumb" : "https:\/\/i1.douguo.com\/upload\/caiku\/f\/8\/8\/140_f869ef3c20c41211eeee6bf74181f8f8.JPG",
          "content" : "成品；",
          "image_height" : 2688,
          "position" : 8,
          "image_width" : 3584,
          "image" : "https:\/\/i1.douguo.com\/upload\/caiku\/f\/8\/8\/f869ef3c20c41211eeee6bf74181f8f8.JPG",
          "frame" : "-1"
        },
        {
          "content" : "酸酸甜甜的自制糖水，添加了天然博士针叶樱桃粉，维C满满让营养更丰富，增强孩子身体抵抗力。",
          "position" : 9,
          "image_width" : 3584,
          "thumb" : "https:\/\/i1.douguo.com\/upload\/caiku\/3\/4\/7\/140_341f751ba1c82912bd599227bb20a2e7.JPG",
          "frame" : "-1",
          "image_height" : 2688,
          "image" : "https:\/\/i1.douguo.com\/upload\/caiku\/3\/4\/7\/341f751ba1c82912bd599227bb20a2e7.JPG"
        }
      ],
      "notes" : [

      ],
      "recommended" : 0,
      "rate_count" : 0,
      "comments" : [
        "{\n    ac = \"#999999\";\n    at = \"\";\n    ccc = 1;\n    \"child_comments\" =     (\n                {\n            ac = \"#999999\";\n            at = \"\\U676d\\U5dde\\U5e02\";\n            ccc = 0;\n            city = \"\\U676d\\U5dde\\U5e02\";\n            cmc = 2;\n            content =             (\n                                {\n                    c = \" \\U8c22\\U8c22\";\n                }\n            );\n            ia = 1;\n            id = 6683576;\n            \"ip_address_location\" = \"\";\n            like = 0;\n            \"like_count\" = 0;\n            \"reply_id\" = 6683078;\n            \"reply_user\" =             {\n                \"followers_count_text\" = \"\";\n                id = 23625145;\n                \"is_prime\" = 0;\n                lv = 0;\n                lvl = 3;\n                n = \"\\U5e78\\U798f\\U9694\\U58c1\";\n                p = \"http:\/\/tx1.douguo.net\/upload\/photo\/2\/c\/d\/70_u8733830738050330012632.jpg\";\n                \"progress_image\" = \"\";\n                \"recipes_count_text\" = \"\";\n                relationship = \"-1\";\n                title = \"\";\n                v = 0;\n                \"verified_image\" = \"\";\n            };\n            \"sticker_icon\" =             (\n            );\n            time = \"2019-06-21 20:13:21\";\n            u =             {\n                \"followers_count_text\" = \"\";\n                id = 4117352;\n                \"is_prime\" = 0;\n                lv = 0;\n                lvl = 6;\n                n = \"\\U5b89\\U5b9d\\U7684\\U864e\\U5988\";\n                p = \"http:\/\/tx1.douguo.net\/upload\/photo\/6\/1\/a\/70_u9441703886553140016.jpeg\";\n                \"progress_image\" = \"\";\n                \"recipes_count_text\" = \"\";\n                relationship = \"-1\";\n                title = \"\";\n                v = 1;\n                \"verified_image\" = \"\";\n            };\n        }\n    );\n    city = \"\";\n    cmc = 2;\n    content =     (\n                {\n            c = \"\\U770b\\U7740\\U4e0d\\U9519\\U5462~\\U7ee7\\U7eed\\U52a0\\U6cb9\\U54e6~ \";\n        }\n    );\n    ia = 0;\n    id = 6683078;\n    \"ip_address_location\" = \"\";\n    like = 0;\n    \"like_count\" = 0;\n    \"reply_id\" = 0;\n    \"sticker_icon\" =     (\n    );\n    time = \"2019-06-21 18:04:35\";\n    u =     {\n        \"followers_count_text\" = \"\";\n        id = 23625145;\n        \"is_prime\" = 0;\n        lv = 0;\n        lvl = 3;\n        n = \"\\U5e78\\U798f\\U9694\\U58c1\";\n        p = \"http:\/\/tx1.douguo.net\/upload\/photo\/2\/c\/d\/70_u8733830738050330012632.jpg\";\n        \"progress_image\" = \"\";\n        \"recipes_count_text\" = \"\";\n        relationship = \"-1\";\n        title = \"\";\n        v = 0;\n        \"verified_image\" = \"\";\n    };\n}",
        "{\n    ac = \"#999999\";\n    at = \"\";\n    ccc = 1;\n    \"child_comments\" =     (\n                {\n            ac = \"#999999\";\n            at = \"\\U676d\\U5dde\\U5e02\";\n            ccc = 0;\n            city = \"\\U676d\\U5dde\\U5e02\";\n            cmc = 2;\n            content =             (\n                                {\n                    c = \" \\U7b80\\U5355\\U6613\\U5b66\\Ud83d\\Ude1c\";\n                }\n            );\n            ia = 1;\n            id = 6683135;\n            \"ip_address_location\" = \"\";\n            like = 0;\n            \"like_count\" = 0;\n            \"reply_id\" = 6682891;\n            \"reply_user\" =             {\n                \"followers_count_text\" = \"\";\n                id = 18464966;\n                \"is_prime\" = 0;\n                lv = 0;\n                lvl = 4;\n                n = Hh5201314;\n                p = \"http:\/\/tx1.douguo.net\/upload\/photo\/2\/b\/9\/70_u12279537684080408140639.jpg\";\n                \"progress_image\" = \"\";\n                \"recipes_count_text\" = \"\";\n                relationship = \"-1\";\n                title = \"\";\n                v = 0;\n                \"verified_image\" = \"\";\n            };\n            \"sticker_icon\" =             (\n            );\n            time = \"2019-06-21 18:17:50\";\n            u =             {\n                \"followers_count_text\" = \"\";\n                id = 4117352;\n                \"is_prime\" = 0;\n                lv = 0;\n                lvl = 6;\n                n = \"\\U5b89\\U5b9d\\U7684\\U864e\\U5988\";\n                p = \"http:\/\/tx1.douguo.net\/upload\/photo\/6\/1\/a\/70_u9441703886553140016.jpeg\";\n                \"progress_image\" = \"\";\n                \"recipes_count_text\" = \"\";\n                relationship = \"-1\";\n                title = \"\";\n                v = 1;\n                \"verified_image\" = \"\";\n            };\n        }\n    );\n    city = \"\";\n    cmc = 2;\n    content =     (\n                {\n            c = \"\\U679c\\U65ad\\U7684\\U6536\\U85cf\\U8d77\\U6765\\U4e86\";\n        }\n    );\n    ia = 0;\n    id = 6682891;\n    \"ip_address_location\" = \"\";\n    like = 0;\n    \"like_count\" = 0;\n    \"reply_id\" = 0;\n    \"sticker_icon\" =     (\n    );\n    time = \"2019-06-21 17:22:26\";\n    u =     {\n        \"followers_count_text\" = \"\";\n        id = 18464966;\n        \"is_prime\" = 0;\n        lv = 0;\n        lvl = 4;\n        n = Hh5201314;\n        p = \"http:\/\/tx1.douguo.net\/upload\/photo\/2\/b\/9\/70_u12279537684080408140639.jpg\";\n        \"progress_image\" = \"\";\n        \"recipes_count_text\" = \"\";\n        relationship = \"-1\";\n        title = \"\";\n        v = 0;\n        \"verified_image\" = \"\";\n    };\n}",
        "{\n    ac = \"#999999\";\n    at = \"\";\n    ccc = 1;\n    \"child_comments\" =     (\n                {\n            ac = \"#999999\";\n            at = \"\\U676d\\U5dde\\U5e02\";\n            ccc = 0;\n            city = \"\\U676d\\U5dde\\U5e02\";\n            cmc = 2;\n            content =             (\n                                {\n                    c = \" \\Ud83d\\Ude1c\\Ud83d\\Ude1c\";\n                }\n            );\n            ia = 1;\n            id = 6683134;\n            \"ip_address_location\" = \"\";\n            like = 0;\n            \"like_count\" = 0;\n            \"reply_id\" = 6682737;\n            \"reply_user\" =             {\n                \"followers_count_text\" = \"\";\n                id = 23636849;\n                \"is_prime\" = 0;\n                lv = 0;\n                lvl = 6;\n                n = V2qcaw;\n                p = \"http:\/\/tx1.douguo.net\/upload\/photo\/d\/3\/7\/70_u9898832421830330023323.jpg\";\n                \"progress_image\" = \"\";\n                \"recipes_count_text\" = \"\";\n                relationship = \"-1\";\n                title = \"\";\n                v = 0;\n                \"verified_image\" = \"\";\n            };\n            \"sticker_icon\" =             (\n            );\n            time = \"2019-06-21 18:17:36\";\n            u =             {\n                \"followers_count_text\" = \"\";\n                id = 4117352;\n                \"is_prime\" = 0;\n                lv = 0;\n                lvl = 6;\n                n = \"\\U5b89\\U5b9d\\U7684\\U864e\\U5988\";\n                p = \"http:\/\/tx1.douguo.net\/upload\/photo\/6\/1\/a\/70_u9441703886553140016.jpeg\";\n                \"progress_image\" = \"\";\n                \"recipes_count_text\" = \"\";\n                relationship = \"-1\";\n                title = \"\";\n                v = 1;\n                \"verified_image\" = \"\";\n            };\n        }\n    );\n    city = \"\";\n    cmc = 2;\n    content =     (\n                {\n            c = \"\\U4e00\\U770b\\U5c31\\U662f\\U8d44\\U6df1\\U5403\\U8d27~\";\n        }\n    );\n    ia = 0;\n    id = 6682737;\n    \"ip_address_location\" = \"\";\n    like = 0;\n    \"like_count\" = 0;\n    \"reply_id\" = 0;\n    \"sticker_icon\" =     (\n    );\n    time = \"2019-06-21 16:43:07\";\n    u =     {\n        \"followers_count_text\" = \"\";\n        id = 23636849;\n        \"is_prime\" = 0;\n        lv = 0;\n        lvl = 6;\n        n = V2qcaw;\n        p = \"http:\/\/tx1.douguo.net\/upload\/photo\/d\/3\/7\/70_u9898832421830330023323.jpg\";\n        \"progress_image\" = \"\";\n        \"recipes_count_text\" = \"\";\n        relationship = \"-1\";\n        title = \"\";\n        v = 0;\n        \"verified_image\" = \"\";\n    };\n}"
      ],
      "act_des" : "",
      "rips" : 0,
      "author_verified" : 1,
      "old_comments" : [

      ],
      "recent_comments" : [

      ],
      "sr" : "",
      "favo_counts_text" : "4619",
      "thumb_path" : "https:\/\/i1.douguo.com\/upload\/caiku\/a\/8\/9\/300_a8388f7f3825755db7a5bdda975634b9.jpeg",
      "user" : {
        "sign" : "",
        "lvl" : 6,
        "gender" : 2,
        "subscription_article_count" : 0,
        "dishes_count" : 0,
        "birthday" : "",
        "email" : "",
        "is_prime" : 0,
        "point" : 0,
        "introduction" : "",
        "userid" : "4117352",
        "user_photo" : "http:\/\/tx1.douguo.net\/upload\/photo\/6\/1\/a\/70_u9441703886553140016.jpeg",
        "favorites_count" : 0,
        "setted_email" : 0,
        "verified_image" : "https:\/\/i1.douguo.com\/upload\/note\/d\/a\/a\/da84247847aebe48d9dd0fcdac88862a.png",
        "user_id" : "4117352",
        "nick" : "安宝的虎妈",
        "qzone_nick" : "",
        "recipes_count" : 0,
        "avatar_medium" : "http:\/\/tx1.douguo.net\/upload\/photo\/6\/1\/a\/140_u9441703886553140016.jpeg",
        "diaries_count" : 0,
        "regist_time" : "",
        "progress_image" : "",
        "coursecount" : 0,
        "subscription" : 0,
        "location" : 0,
        "user_cover" : "",
        "favor_diaries_count" : 0,
        "following_count" : 0,
        "age" : "",
        "fc" : 0,
        "weibo_nick" : "",
        "user_large_photo" : "http:\/\/tx1.douguo.net\/upload\/photo\/6\/1\/a\/yuan_u9441703886553140016.jpeg",
        "qq_weibo_nick" : "",
        "verified_url" : "https:\/\/m.douguo.com\/user\/prodesc",
        "verified" : 1,
        "lv" : 0,
        "followers_count" : 0,
        "mobile" : "",
        "pc" : 0
      },
      "views_count_text" : "16.9万",
      "ipia" : [

      ],
      "su" : "",
      "rdsps" : [

      ],
      "clicks" : "165422",
      "pw" : 1920,
      "dish_count" : 0,
      "bs" : [

      ],
      "ecs" : 0,
      "levelid" : 3,
      "btm_dsp" : [

      ],
      "story_dsp" : [

      ],
      "cookwares" : [

      ],
      "rate_show" : 0,
      "packages_id" : [

      ],
      "share_info" : {
        "object_id" : "2310218",
        "infos" : [
          {
            "object_id" : "2310218",
            "channel" : "1",
            "name" : "橘味甜滋滋~橘子罐头-会做饭很酷!",
            "mini_program" : [

            ],
            "s_u" : "",
            "qr_image" : "",
            "image" : "https:\/\/cp1.douguo.com\/upload\/caiku\/a\/8\/9\/a8388f7f3825755db7a5bdda975634b9.jpeg",
            "s_d" : "#学做饭用豆果美食# 会做饭真是太酷了！我在@豆果美食 分享了【橘味甜滋滋~橘子罐头-会做饭很酷!】，这道菜真的神仙美味！喜欢的一定要试试绝对不会错的！～查看图片了解菜谱（快来点击https:\/\/m.weibo.cn\/p\/100404i33631和我一起修炼厨艺吧）"
          },
          {
            "s_d" : "橘味甜滋滋~橘子罐头-会做饭很酷!",
            "mini_program" : [

            ],
            "s_u" : "http:\/\/m.douguo.com\/cookbook\/2310218.html",
            "channel" : "7",
            "name" : "橘味甜滋滋~橘子罐头-会做饭很酷!",
            "object_id" : "2310218",
            "qr_image" : "",
            "image" : "https:\/\/cp1.douguo.com\/upload\/caiku\/a\/8\/9\/a8388f7f3825755db7a5bdda975634b9.jpeg"
          },
          {
            "qr_image" : "",
            "s_d" : "橘味甜滋滋~橘子罐头-会做饭很酷!",
            "object_id" : "2310218",
            "image" : "https:\/\/cp1.douguo.com\/upload\/caiku\/a\/8\/9\/a8388f7f3825755db7a5bdda975634b9.jpeg",
            "s_u" : "http:\/\/m.douguo.com\/cookbook\/2310218.html",
            "name" : "橘味甜滋滋~橘子罐头-会做饭很酷!",
            "mini_program" : [

            ],
            "channel" : "8"
          }
        ],
        "image" : "https:\/\/cp1.douguo.com\/upload\/caiku\/a\/8\/9\/a8388f7f3825755db7a5bdda975634b9.jpeg",
        "qr_image" : "",
        "name" : "橘味甜滋滋~橘子罐头-会做饭很酷!",
        "mini_program" : [

        ],
        "s_u" : "http:\/\/m.douguo.com\/cookbook\/2310218.html",
        "s_d" : "橘味甜滋滋~橘子罐头-会做饭很酷!"
      },
      "rcs" : [

      ],
      "ipit" : 0,
      "rrpt" : "",
      "cookstorys" : [
        {
          "c" : "相信很多80后儿时的回忆中都会有一种酸酸甜甜的味道，那就是糖水罐头。对于现在的孩子来说很常见很普通，可是对于那时的我来说却是不可多得的美味，一般只有生病的时候妈妈才会买一瓶给我尝尝。\n现在我自己玩美食，为了孩子吃的健康安全喜欢能自己做的尽量自己做，因为市面的糖水罐头添加剂、糖份太多了，还是自制的吃的更放心。今天来跟大家分享一下橘子罐头的做法，富含维C，既美味又能帮助孩子增强抵抗力。",
          "icon" : "",
          "type" : 0,
          "u" : "",
          "color" : "",
          "id" : 0
        }
      ],
      "guide_image" : "",
      "cook_time" : "10-30分钟",
      "sc" : 0,
      "author" : "安宝的虎妈",
      "ssu" : "",
      "rsm" : "该功能暂停使用",
      "major" : [
        {
          "note" : "6个",
          "title" : "橘子"
        },
        {
          "note" : "100g",
          "tu" : "https:\/\/m.douguo.com\/ingredients\/冰糖\/detailmaterial",
          "title" : "冰糖"
        },
        {
          "title" : "天然博士针叶樱桃粉",
          "note" : "3g"
        },
        {
          "tu" : "https:\/\/m.douguo.com\/ingredients\/清水\/detailmaterial",
          "note" : "适量",
          "title" : "清水"
        }
      ],
      "related_ads" : [

      ],
      "ss" : [

      ],
      "rate" : 0,
      "favo_counts" : 4619,
      "eu" : "recipes:\/\/www.douguo.com\/postdetail?id=242016",
      "tags" : [

      ],
      "hq" : 0,
      "rewarded_video_dsp" : [

      ],
      "mid_mdsp" : [

      ],
      "recipe_list_tags" : [
        {
          "text" : "关注的人",
          "right_image" : "",
          "background_border_color" : "",
          "text_color" : "#141515",
          "jump_url" : "",
          "background_start_color" : "#F4F5F5",
          "background_end_color" : "#F4F5F5"
        },
        {
          "jump_url" : "",
          "text" : "内容详细",
          "right_image" : "",
          "background_start_color" : "#F4F5F5",
          "background_end_color" : "#F4F5F5",
          "background_border_color" : "",
          "text_color" : "#141515"
        }
      ],
      "dishes" : [

      ],
      "cook_difficulty_image" : "https:\/\/i1.douguo.com\/upload\/banner\/1551424390.png",
      "photo_path" : "https:\/\/i1.douguo.com\/upload\/caiku\/a\/8\/9\/600_a8388f7f3825755db7a5bdda975634b9.jpeg",
      "thumb_height" : 0,
      "vfurl" : "",
      "original_photo_path" : "http:\/\/i1.douguo.net\/upload\/caiku\/a\/8\/9\/yuan_a8388f7f3825755db7a5bdda975634b9.jpeg",
      "rpid" : 0,
      "rpst" : "",
      "author_id" : 4117352,
      "brand_day_dsp" : [

      ],
      "image" : "http:\/\/i1.douguo.net\/upload\/caiku\/a\/8\/9\/300_a8388f7f3825755db7a5bdda975634b9.jpeg",
      "rpt" : "",
      "ipci" : "",
      "top_mdsp" : [

      ],
      "display_ingredient" : 1,
      "dish_count_text" : "",
      "recipe_tags" : [

      ],
      "ipurl" : ""
    }
  },
  "status" : 0
}