{
  "status" : 0,
  "result" : {
    "recipe" : {
      "cook_difficulty" : "切墩(初级)",
      "rpt" : "",
      "old_comments" : [

      ],
      "cook_time" : "30-60分钟",
      "rips" : 0,
      "first_level_comment_count" : 0,
      "sc" : 0,
      "packages_id" : [

      ],
      "related_ads" : [

      ],
      "thumb_path" : "https:\/\/i1.douguo.com\/upload\/caiku\/b\/f\/c\/300_bf4ba53e875a50338ebc151741b4491c.jpg",
      "rrpt" : "",
      "user" : {
        "weibo_nick" : "",
        "is_prime" : 0,
        "qq_weibo_nick" : "",
        "avatar_medium" : "http:\/\/tx1.douguo.net\/upload\/photo\/f\/a\/b\/140_u71003748879762005947.jpg",
        "mobile" : "",
        "sign" : "",
        "fc" : 0,
        "setted_email" : 0,
        "qzone_nick" : "",
        "email" : "",
        "nick" : "晓厨喂猫啦",
        "diaries_count" : 0,
        "dishes_count" : 0,
        "favorites_count" : 0,
        "lvl" : 6,
        "age" : "",
        "subscription_article_count" : 0,
        "coursecount" : 0,
        "subscription" : 0,
        "lv" : 0,
        "verified_url" : "https:\/\/m.douguo.com\/user\/prodesc",
        "point" : 0,
        "followers_count" : 0,
        "user_id" : "27416788",
        "recipes_count" : 0,
        "pc" : 0,
        "userid" : "27416788",
        "user_large_photo" : "http:\/\/tx1.douguo.net\/upload\/photo\/f\/a\/b\/yuan_u71003748879762005947.jpg",
        "verified" : 1,
        "verified_image" : "https:\/\/i1.douguo.com\/upload\/note\/d\/a\/a\/da84247847aebe48d9dd0fcdac88862a.png",
        "regist_time" : "",
        "progress_image" : "",
        "following_count" : 0,
        "location" : 0,
        "birthday" : "",
        "user_cover" : "",
        "gender" : 2,
        "user_photo" : "http:\/\/tx1.douguo.net\/upload\/photo\/f\/a\/b\/70_u71003748879762005947.jpg",
        "favor_diaries_count" : 0,
        "introduction" : ""
      },
      "clicks" : "1",
      "image" : "http:\/\/i1.douguo.net\/upload\/caiku\/b\/f\/c\/300_bf4ba53e875a50338ebc151741b4491c.jpg",
      "thumb_height" : 0,
      "tags" : [

      ],
      "recommendation_tag" : "",
      "views_count_text" : "1.6万",
      "comments" : [

      ],
      "vu" : "",
      "cookwares" : [

      ],
      "vfurl" : "",
      "eu" : "recipes:\/\/www.douguo.com\/postdetail?id=242016",
      "cook_difficulty_image" : "https:\/\/i1.douguo.com\/upload\/banner\/1551424390.png",
      "major" : [
        {
          "title" : "面粉",
          "note" : "200克",
          "tu" : "https:\/\/m.douguo.com\/ingredients\/面粉\/detailmaterial"
        },
        {
          "note" : "适量",
          "tu" : "https:\/\/m.douguo.com\/ingredients\/水\/detailmaterial",
          "title" : "水"
        }
      ],
      "recipe_tags" : [

      ],
      "favo_counts_text" : "819",
      "title" : "传统手工擀面条",
      "original_photo_path" : "http:\/\/i1.douguo.net\/upload\/caiku\/b\/f\/c\/yuan_bf4ba53e875a50338ebc151741b4491c.jpg",
      "top_mdsp" : [

      ],
      "display_ingredient" : 1,
      "recommended" : 0,
      "ecs" : 0,
      "ipoi" : "",
      "vc" : "16361",
      "comments_count_text" : "",
      "tips" : "",
      "ss" : [

      ],
      "ipt" : "",
      "pw" : 6016,
      "release_time" : "",
      "recipe_list_tags" : [
        {
          "right_image" : "",
          "text_color" : "#141515",
          "jump_url" : "",
          "background_border_color" : "",
          "background_start_color" : "#F4F5F5",
          "text" : "关注的人",
          "background_end_color" : "#F4F5F5"
        }
      ],
      "purl" : "",
      "recommend_label" : "1.6万人看过",
      "sr" : "",
      "collect_status" : 0,
      "rpst" : "",
      "ipia" : [

      ],
      "ssu" : "",
      "dish_count" : 0,
      "rrps" : [

      ],
      "su" : "",
      "author_id" : 27416788,
      "hqu" : "recipes:\/\/www.douguo.com\/notedetail?id=21162253",
      "cookstep" : [
        {
          "image_height" : 3384,
          "position" : 1,
          "image" : "https:\/\/i1.douguo.com\/upload\/caiku\/f\/e\/d\/fe169794a23c3f3e8e4cab5b8f18855d.jpg",
          "content" : "用凉水将面粉活成比较硬的面团；",
          "frame" : "-1",
          "thumb" : "https:\/\/i1.douguo.com\/upload\/caiku\/f\/e\/d\/140_fe169794a23c3f3e8e4cab5b8f18855d.jpg",
          "image_width" : 6016
        },
        {
          "image_height" : 3384,
          "thumb" : "https:\/\/i1.douguo.com\/upload\/caiku\/9\/a\/b\/140_9a245e109e92da62ff8e1611f09e135b.jpg",
          "frame" : "-1",
          "image" : "https:\/\/i1.douguo.com\/upload\/caiku\/9\/a\/b\/9a245e109e92da62ff8e1611f09e135b.jpg",
          "image_width" : 6016,
          "position" : 2,
          "content" : "案板上撒上干面粉，将面团擀成比饺子面硬的面饼；"
        },
        {
          "position" : 3,
          "image_width" : 6016,
          "content" : "将Q弹硬的面团擀成面片；",
          "thumb" : "https:\/\/i1.douguo.com\/upload\/caiku\/b\/1\/7\/140_b19635f835a8e21f0f18b7a56fcd1c77.jpg",
          "image" : "https:\/\/i1.douguo.com\/upload\/caiku\/b\/1\/7\/b19635f835a8e21f0f18b7a56fcd1c77.jpg",
          "image_height" : 3384,
          "frame" : "-1"
        },
        {
          "image_width" : 6016,
          "frame" : "-1",
          "thumb" : "https:\/\/i1.douguo.com\/upload\/caiku\/5\/3\/b\/140_538f7e94bc5aab825f4dc029e04b2f6b.jpg",
          "position" : 4,
          "image_height" : 3384,
          "content" : "差不多之后卷在擀面杖上，擀成更大的面片儿；",
          "image" : "https:\/\/i1.douguo.com\/upload\/caiku\/5\/3\/b\/538f7e94bc5aab825f4dc029e04b2f6b.jpg"
        },
        {
          "content" : "将面片撑开，撒上面粉，以免一直擀薄厚不均匀；",
          "image_width" : 6016,
          "thumb" : "https:\/\/i1.douguo.com\/upload\/caiku\/5\/2\/a\/140_52a94ae1122fb05acb2713d6e7a73caa.jpg",
          "image" : "https:\/\/i1.douguo.com\/upload\/caiku\/5\/2\/a\/52a94ae1122fb05acb2713d6e7a73caa.jpg",
          "position" : 5,
          "frame" : "-1",
          "image_height" : 3384
        },
        {
          "content" : "撒上面粉换一边卷起，继续卷在擀面杖上，由中间向两边将面擀开；擀成和擀面杖直径一样长的，薄厚均匀的面片儿；",
          "image" : "https:\/\/i1.douguo.com\/upload\/caiku\/9\/a\/0\/9a89d1e0a2aaea6e3212892de8e22e00.jpg",
          "frame" : "-1",
          "thumb" : "https:\/\/i1.douguo.com\/upload\/caiku\/9\/a\/0\/140_9a89d1e0a2aaea6e3212892de8e22e00.jpg",
          "image_height" : 3384,
          "image_width" : 6016,
          "position" : 6
        },
        {
          "thumb" : "https:\/\/i1.douguo.com\/upload\/caiku\/0\/b\/b\/140_0b6558231e3a9756dabf6f39ad6c260b.jpg",
          "image_height" : 3384,
          "image" : "https:\/\/i1.douguo.com\/upload\/caiku\/0\/b\/b\/0b6558231e3a9756dabf6f39ad6c260b.jpg",
          "content" : "把面片儿叠起来；",
          "image_width" : 6016,
          "position" : 7,
          "frame" : "-1"
        },
        {
          "image_height" : 3384,
          "thumb" : "https:\/\/i1.douguo.com\/upload\/caiku\/3\/9\/e\/140_395900f9daaf6a2d9ed6396add8c2dbe.jpg",
          "content" : "切成宽窄相等的面条；",
          "image_width" : 6016,
          "position" : 8,
          "frame" : "-1",
          "image" : "https:\/\/i1.douguo.com\/upload\/caiku\/3\/9\/e\/395900f9daaf6a2d9ed6396add8c2dbe.jpg"
        },
        {
          "image" : "https:\/\/i1.douguo.com\/upload\/caiku\/3\/4\/2\/34740f4f3e7f55765022336d937a5c62.jpg",
          "frame" : "-1",
          "position" : 9,
          "image_width" : 6016,
          "thumb" : "https:\/\/i1.douguo.com\/upload\/caiku\/3\/4\/2\/140_34740f4f3e7f55765022336d937a5c62.jpg",
          "image_height" : 3384,
          "content" : "把面条散开；"
        },
        {
          "frame" : "-1",
          "image" : "https:\/\/i1.douguo.com\/upload\/caiku\/a\/c\/0\/acebe0dfd2d1de7cabf5edc4e9768b20.jpg",
          "content" : "就是集市上很难买到的手工面条了。",
          "image_width" : 6016,
          "thumb" : "https:\/\/i1.douguo.com\/upload\/caiku\/a\/c\/0\/140_acebe0dfd2d1de7cabf5edc4e9768b20.jpg",
          "image_height" : 3384,
          "position" : 10
        },
        {
          "position" : 11,
          "image_height" : 3384,
          "content" : "在锅中煮熟，可以搭配各种菜肴酱料的夏季午饭。",
          "frame" : "-1",
          "image" : "https:\/\/i1.douguo.com\/upload\/caiku\/e\/9\/4\/e958d9175bd9c31dac5ea638ad6a43a4.jpg",
          "thumb" : "https:\/\/i1.douguo.com\/upload\/caiku\/e\/9\/4\/140_e958d9175bd9c31dac5ea638ad6a43a4.jpg",
          "image_width" : 6016
        }
      ],
      "rdsps" : [

      ],
      "bs" : [

      ],
      "guide_image" : "",
      "author_photo" : "http:\/\/tx1.douguo.net\/upload\/photo\/f\/a\/b\/70_u71003748879762005947.jpg",
      "notes" : [

      ],
      "v_u" : "",
      "cookstory" : "传统手工擀面条，比在超市和集市上买来的面条筋道，更有面粉的口感，这条经验介绍怎么做擀面条。",
      "cook_time_image" : "https:\/\/i1.douguo.com\/upload\/banner\/1551424318.png",
      "levelid" : 2,
      "ph" : 3384,
      "btm_dsp" : [

      ],
      "rpid" : 0,
      "rcs" : [

      ],
      "comments_count" : 0,
      "act_des" : "",
      "minor" : [

      ],
      "author_verified" : 1,
      "photo_path" : "https:\/\/i1.douguo.com\/upload\/caiku\/b\/f\/c\/600_bf4ba53e875a50338ebc151741b4491c.jpg",
      "author" : "晓厨喂猫啦",
      "share_info" : {
        "qr_image" : "",
        "s_d" : "传统手工擀面条-会做饭很酷!",
        "object_id" : "3266174",
        "infos" : [
          {
            "s_d" : "#学做饭用豆果美食# 会做饭真是好酷啊！我在@豆果美食 分享了【传统手工擀面条-会做饭很酷!】，快来康康我这道菜做的怎么样～美味停不下来！查看图片了解菜谱（你喜欢的美食都在这里！https:\/\/m.weibo.cn\/p\/100404i33631）",
            "object_id" : "3266174",
            "s_u" : "",
            "mini_program" : [

            ],
            "qr_image" : "",
            "image" : "https:\/\/cp1.douguo.com\/upload\/caiku\/b\/f\/c\/bf4ba53e875a50338ebc151741b4491c.jpg",
            "name" : "传统手工擀面条-会做饭很酷!",
            "channel" : "1"
          },
          {
            "mini_program" : [

            ],
            "s_d" : "传统手工擀面条-会做饭很酷!",
            "name" : "传统手工擀面条-会做饭很酷!",
            "channel" : "7",
            "object_id" : "3266174",
            "image" : "https:\/\/cp1.douguo.com\/upload\/caiku\/b\/f\/c\/bf4ba53e875a50338ebc151741b4491c.jpg",
            "s_u" : "http:\/\/m.douguo.com\/cookbook\/3266174.html",
            "qr_image" : ""
          },
          {
            "s_d" : "传统手工擀面条-会做饭很酷!",
            "name" : "传统手工擀面条-会做饭很酷!",
            "s_u" : "http:\/\/m.douguo.com\/cookbook\/3266174.html",
            "object_id" : "3266174",
            "mini_program" : [

            ],
            "image" : "https:\/\/cp1.douguo.com\/upload\/caiku\/b\/f\/c\/bf4ba53e875a50338ebc151741b4491c.jpg",
            "qr_image" : "",
            "channel" : "8"
          }
        ],
        "image" : "https:\/\/cp1.douguo.com\/upload\/caiku\/b\/f\/c\/bf4ba53e875a50338ebc151741b4491c.jpg",
        "name" : "传统手工擀面条-会做饭很酷!",
        "s_u" : "http:\/\/m.douguo.com\/cookbook\/3266174.html",
        "mini_program" : [

        ]
      },
      "rewarded_video_dsp" : [

      ],
      "dishes" : [

      ],
      "favo_counts" : 819,
      "rsm" : "该功能暂停使用",
      "ipurl" : "",
      "rate" : 0,
      "hq" : 1,
      "rate_count" : 0,
      "story_dsp" : [

      ],
      "create_time" : "2023-08-07 17:39:14",
      "brand_day_dsp" : [

      ],
      "rate_show" : 0,
      "ipit" : 0,
      "cook_id" : "3266174",
      "cookstorys" : [
        {
          "color" : "",
          "u" : "",
          "c" : "传统手工擀面条，比在超市和集市上买来的面条筋道，更有面粉的口感，这条经验介绍怎么做擀面条。",
          "id" : 0,
          "icon" : "",
          "type" : 0
        }
      ],
      "title_ad" : [

      ],
      "mid_mdsp" : [

      ],
      "dish_count_text" : "",
      "recent_comments" : [

      ],
      "ipci" : ""
    }
  },
  "state" : "success"
}