{
  "result" : {
    "recipe" : {
      "ecs" : 0,
      "favo_counts_text" : "1.2万",
      "image" : "http:\/\/i1.douguo.net\/upload\/caiku\/9\/4\/1\/300_94064bc50c8f7c08a11bea79a227d0c1.jpeg",
      "tags" : [

      ],
      "v_u" : "",
      "mid_mdsp" : [

      ],
      "create_time" : "2020-01-08 18:49:01",
      "rate_show" : 0,
      "display_ingredient" : 1,
      "top_mdsp" : [

      ],
      "release_time" : "",
      "cook_id" : "2391388",
      "hqu" : "recipes:\/\/www.douguo.com\/notedetail?id=21162253",
      "hq" : 1,
      "bs" : [

      ],
      "rate" : 5,
      "rips" : 0,
      "recipe_list_tags" : [
        {
          "right_image" : "",
          "background_border_color" : "",
          "text_color" : "#141515",
          "text" : "关注的人",
          "background_end_color" : "#F4F5F5",
          "jump_url" : "",
          "background_start_color" : "#F4F5F5"
        },
        {
          "text_color" : "#141515",
          "background_end_color" : "#F4F5F5",
          "background_border_color" : "",
          "text" : "内容详细",
          "right_image" : "",
          "background_start_color" : "#F4F5F5",
          "jump_url" : ""
        }
      ],
      "rate_count" : 4,
      "cookstory" : " 让不爱喝豆浆的小朋友，喝不够的紫薯豆浆你喝过吗？快来试一试。晨起一杯热腾腾的豆浆，窗外旭日东升，是富有生机的一天之始。很多小朋友不爱喝豆浆，觉得寡淡无味，但是豆浆的营养是很高的，且容易被人体消化吸收，还含有维生素A、B、 D、E、磷、等微量元素。豆浆里含有铁、钙等矿物质，尤其是其所含的钙，虽不及豆腐，但比其他任何乳类都高，非常适合于各种人群，包括老人、成年人和青少年等等。冬饮豆浆，祛寒暖胃，滋养进补，黄豆里，加上花青素超高的紫薯和补脾暖胃的山药，一起打成豆浆饮用，对脾胃和皮肤保养也大有好处，冬日里一杯暖暖的豆浆，不止可以驱除寒冷，还可以暖身暖胃。 ",
      "cook_time" : "10~30分钟",
      "brand_day_dsp" : [

      ],
      "ipurl" : "",
      "recommended" : 0,
      "thumb_path" : "https:\/\/i1.douguo.com\/upload\/caiku\/9\/4\/1\/300_94064bc50c8f7c08a11bea79a227d0c1.jpeg",
      "recipe_tags" : [

      ],
      "old_comments" : [

      ],
      "related_ads" : [

      ],
      "rcs" : [

      ],
      "comments_count" : 24,
      "sc" : 0,
      "photo_path" : "https:\/\/i1.douguo.com\/upload\/caiku\/9\/4\/1\/600_94064bc50c8f7c08a11bea79a227d0c1.jpeg",
      "rsm" : "该功能暂停使用",
      "cookstep" : [
        {
          "image_width" : 1280,
          "image" : "https:\/\/i1.douguo.com\/upload\/caiku\/6\/2\/c\/62a36741f2c2bff18f509cc0ad4d0f8c.jpeg",
          "position" : 1,
          "thumb" : "https:\/\/i1.douguo.com\/upload\/caiku\/6\/2\/c\/140_62a36741f2c2bff18f509cc0ad4d0f8c.jpeg",
          "image_height" : 960,
          "content" : "准备好所用的食材，紫薯削皮洗净，山药削皮洗净，山药削皮的时候，注意带上一次性手套，山药的黏液接触皮肤会引起瘙痒，如果中招，可以用白醋清洗皮肤。",
          "frame" : "-1"
        },
        {
          "content" : "把紫薯用刀切成小块，山药也切成小块，黄豆清洗干净，备用。",
          "position" : 2,
          "thumb" : "https:\/\/i1.douguo.com\/upload\/caiku\/4\/6\/a\/140_46dda7f075c921bc643700bd86f28cba.jpeg",
          "frame" : "-1",
          "image_height" : 960,
          "image_width" : 1280,
          "image" : "https:\/\/i1.douguo.com\/upload\/caiku\/4\/6\/a\/46dda7f075c921bc643700bd86f28cba.jpeg"
        },
        {
          "image_height" : 994,
          "image_width" : 1280,
          "image" : "https:\/\/i1.douguo.com\/upload\/caiku\/9\/d\/8\/9d953d9d6833bd361d1fe61b6ea208d8.jpeg",
          "frame" : "-1",
          "position" : 3,
          "thumb" : "https:\/\/i1.douguo.com\/upload\/caiku\/9\/d\/8\/140_9d953d9d6833bd361d1fe61b6ea208d8.jpeg",
          "content" : "把紫薯块、山药块、黄豆粒、清水一起放入破壁机玻璃杯里。"
        },
        {
          "frame" : "-1",
          "image_height" : 960,
          "image_width" : 1280,
          "content" : "旋紧破壁机盖子，控制面板设置豆浆功能，显示屏显示28分钟，点击启动就可以了。",
          "image" : "https:\/\/i1.douguo.com\/upload\/caiku\/5\/b\/f\/5b80f74e05bb62d5eb2cc491bec0970f.jpeg",
          "thumb" : "https:\/\/i1.douguo.com\/upload\/caiku\/5\/b\/f\/140_5b80f74e05bb62d5eb2cc491bec0970f.jpeg",
          "position" : 4
        },
        {
          "image_width" : 1280,
          "image_height" : 960,
          "frame" : "-1",
          "image" : "https:\/\/i1.douguo.com\/upload\/caiku\/1\/0\/1\/10b11e7be5f9851b8dab5896abef9cf1.jpeg",
          "thumb" : "https:\/\/i1.douguo.com\/upload\/caiku\/1\/0\/1\/140_10b11e7be5f9851b8dab5896abef9cf1.jpeg",
          "content" : "这个时候可以去忙别的，28分钟机子自动停止，打开盖子豆浆就做好了，用勺子舀起来一看，光滑细腻。",
          "position" : 5
        },
        {
          "image_width" : 1280,
          "image" : "https:\/\/i1.douguo.com\/upload\/caiku\/0\/8\/3\/08ed1d0c8b75c4dbcc82648eeeafe573.jpeg",
          "frame" : "-1",
          "content" : "直接倒入碗里，一点渣渣没有，喜欢甜的可以加少许冰糖或者砂糖搅匀。",
          "image_height" : 960,
          "position" : 6,
          "thumb" : "https:\/\/i1.douguo.com\/upload\/caiku\/0\/8\/3\/140_08ed1d0c8b75c4dbcc82648eeeafe573.jpeg"
        },
        {
          "image" : "https:\/\/i1.douguo.com\/upload\/caiku\/9\/a\/8\/9abcd984119a3857eb48890fa5afa718.jpeg",
          "content" : "原味的味道也很赞，我直接喝的原味的。",
          "image_height" : 853,
          "position" : 7,
          "image_width" : 1280,
          "frame" : "-1",
          "thumb" : "https:\/\/i1.douguo.com\/upload\/caiku\/9\/a\/8\/140_9abcd984119a3857eb48890fa5afa718.jpeg"
        },
        {
          "frame" : "-1",
          "thumb" : "https:\/\/i1.douguo.com\/upload\/caiku\/e\/d\/a\/140_ed4e3599d6a5da5f0bc5158dd4b4301a.jpeg",
          "position" : 8,
          "image_height" : 853,
          "image_width" : 1280,
          "content" : "女儿喜欢甜味。",
          "image" : "https:\/\/i1.douguo.com\/upload\/caiku\/e\/d\/a\/ed4e3599d6a5da5f0bc5158dd4b4301a.jpeg"
        },
        {
          "frame" : "-1",
          "image_width" : 1280,
          "position" : 9,
          "image" : "https:\/\/i1.douguo.com\/upload\/caiku\/0\/b\/c\/0b12498f20293d12cd81eb730c40039c.jpeg",
          "content" : "高颜值，补脾健胃。",
          "image_height" : 853,
          "thumb" : "https:\/\/i1.douguo.com\/upload\/caiku\/0\/b\/c\/140_0b12498f20293d12cd81eb730c40039c.jpeg"
        }
      ],
      "rrps" : [

      ],
      "user" : {
        "introduction" : "",
        "mobile" : "",
        "age" : "",
        "setted_email" : 0,
        "birthday" : "",
        "email" : "",
        "diaries_count" : 0,
        "is_prime" : 0,
        "followers_count" : 0,
        "dishes_count" : 0,
        "lvl" : 6,
        "lv" : 0,
        "weibo_nick" : "",
        "qq_weibo_nick" : "",
        "recipes_count" : 0,
        "subscription_article_count" : 0,
        "gender" : 2,
        "verified_url" : "https:\/\/m.douguo.com\/user\/prodesc",
        "coursecount" : 0,
        "sign" : "",
        "favorites_count" : 0,
        "subscription" : 0,
        "user_id" : "4627059",
        "verified" : 1,
        "user_large_photo" : "http:\/\/tx1.douguo.net\/upload\/photo\/1\/8\/5\/yuan_u03094747839948212603.jpeg",
        "progress_image" : "",
        "pc" : 0,
        "verified_image" : "https:\/\/i1.douguo.com\/upload\/note\/d\/a\/a\/da84247847aebe48d9dd0fcdac88862a.png",
        "point" : 0,
        "qzone_nick" : "",
        "regist_time" : "",
        "userid" : "4627059",
        "following_count" : 0,
        "nick" : "海风的韵味",
        "user_photo" : "http:\/\/tx1.douguo.net\/upload\/photo\/1\/8\/5\/70_u03094747839948212603.jpeg",
        "fc" : 0,
        "location" : 0,
        "favor_diaries_count" : 0,
        "user_cover" : "",
        "avatar_medium" : "http:\/\/tx1.douguo.net\/upload\/photo\/1\/8\/5\/140_u03094747839948212603.jpeg"
      },
      "author_id" : 4627059,
      "original_photo_path" : "http:\/\/i1.douguo.net\/upload\/caiku\/9\/4\/1\/yuan_94064bc50c8f7c08a11bea79a227d0c1.jpeg",
      "sr" : "",
      "rewarded_video_dsp" : [

      ],
      "purl" : "",
      "rpid" : 0,
      "collect_status" : 0,
      "levelid" : 2,
      "thumb_height" : 0,
      "pw" : 600,
      "ipoi" : "",
      "recent_comments" : [

      ],
      "tips" : "1、这个食材配料适合1升的破壁机，煮出来的豆浆4.5寸的饭碗，可以倒三碗，如果人多可以加量。\n2、没有破壁机的同学，可以用豆浆机，做出来味道一样的。",
      "ipit" : 0,
      "ipci" : "",
      "vc" : "1764294",
      "act_des" : "",
      "vfurl" : "",
      "vu" : "",
      "recommendation_tag" : "",
      "author_photo" : "http:\/\/tx1.douguo.net\/upload\/photo\/1\/8\/5\/70_u03094747839948212603.jpeg",
      "story_dsp" : [

      ],
      "share_info" : {
        "s_d" : "#一道菜表白豆果美食#补脾健胃紫薯山药豆浆-会做饭很酷!",
        "infos" : [
          {
            "mini_program" : [

            ],
            "image" : "https:\/\/cp1.douguo.com\/upload\/caiku\/9\/4\/1\/94064bc50c8f7c08a11bea79a227d0c1.jpeg",
            "s_u" : "",
            "name" : "#一道菜表白豆果美食#补脾健胃紫薯山药豆浆-会做饭很酷!",
            "qr_image" : "",
            "channel" : "1",
            "s_d" : "#学做饭用豆果美食# 我在@豆果美食 分享了【#一道菜表白豆果美食#补脾健胃紫薯山药豆浆-会做饭很酷!】，哟，集美们～你看这是神仙美味～快跟着我做一份，做一份！查看图片了解菜谱（更多美食秘籍点击https:\/\/m.weibo.cn\/p\/100404i33631获取）#会做饭很酷# ",
            "object_id" : "2391388"
          },
          {
            "name" : "#一道菜表白豆果美食#补脾健胃紫薯山药豆浆-会做饭很酷!",
            "object_id" : "2391388",
            "s_u" : "http:\/\/m.douguo.com\/cookbook\/2391388.html",
            "qr_image" : "",
            "mini_program" : [

            ],
            "image" : "https:\/\/cp1.douguo.com\/upload\/caiku\/9\/4\/1\/94064bc50c8f7c08a11bea79a227d0c1.jpeg",
            "channel" : "7",
            "s_d" : "#一道菜表白豆果美食#补脾健胃紫薯山药豆浆-会做饭很酷!"
          },
          {
            "qr_image" : "",
            "image" : "https:\/\/cp1.douguo.com\/upload\/caiku\/9\/4\/1\/94064bc50c8f7c08a11bea79a227d0c1.jpeg",
            "object_id" : "2391388",
            "channel" : "8",
            "mini_program" : [

            ],
            "s_u" : "http:\/\/m.douguo.com\/cookbook\/2391388.html",
            "name" : "#一道菜表白豆果美食#补脾健胃紫薯山药豆浆-会做饭很酷!",
            "s_d" : "#一道菜表白豆果美食#补脾健胃紫薯山药豆浆-会做饭很酷!"
          }
        ],
        "s_u" : "http:\/\/m.douguo.com\/cookbook\/2391388.html",
        "object_id" : "2391388",
        "name" : "#一道菜表白豆果美食#补脾健胃紫薯山药豆浆-会做饭很酷!",
        "qr_image" : "",
        "mini_program" : [

        ],
        "image" : "https:\/\/cp1.douguo.com\/upload\/caiku\/9\/4\/1\/94064bc50c8f7c08a11bea79a227d0c1.jpeg"
      },
      "title" : "补脾健胃紫薯山药豆浆",
      "cook_difficulty" : "切墩(初级)",
      "event" : {
        "id" : 0
      },
      "major" : [
        {
          "note" : "25克",
          "title" : "黄豆",
          "tu" : "https:\/\/m.douguo.com\/ingredients\/黄豆\/detailmaterial"
        },
        {
          "title" : "紫薯",
          "note" : "45克"
        },
        {
          "title" : "山药",
          "note" : "45克",
          "tu" : "https:\/\/m.douguo.com\/ingredients\/山药\/detailmaterial"
        },
        {
          "note" : "780克",
          "tu" : "https:\/\/m.douguo.com\/ingredients\/清水\/detailmaterial",
          "title" : "清水"
        }
      ],
      "packages_id" : [

      ],
      "notes" : [

      ],
      "favo_counts" : 12390,
      "minor" : [

      ],
      "btm_dsp" : [

      ],
      "ipia" : [

      ],
      "dish_count" : 4,
      "recommend_label" : "4人学做",
      "ss" : [

      ],
      "dish_count_text" : "4",
      "eu" : "recipes:\/\/www.douguo.com\/postdetail?id=242016",
      "dishes" : [

      ],
      "ssu" : "",
      "rdsps" : [

      ],
      "title_ad" : [

      ],
      "views_count_text" : "176.4万",
      "su" : "",
      "cook_difficulty_image" : "https:\/\/i1.douguo.com\/upload\/banner\/1551424390.png",
      "rpt" : "",
      "cookstorys" : [
        {
          "id" : 0,
          "color" : "",
          "icon" : "",
          "type" : 0,
          "c" : " 让不爱喝豆浆的小朋友，喝不够的紫薯豆浆你喝过吗？快来试一试。晨起一杯热腾腾的豆浆，窗外旭日东升，是富有生机的一天之始。很多小朋友不爱喝豆浆，觉得寡淡无味，但是豆浆的营养是很高的，且容易被人体消化吸收，还含有维生素A、B、 D、E、磷、等微量元素。豆浆里含有铁、钙等矿物质，尤其是其所含的钙，虽不及豆腐，但比其他任何乳类都高，非常适合于各种人群，包括老人、成年人和青少年等等。冬饮豆浆，祛寒暖胃，滋养进补，黄豆里，加上花青素超高的紫薯和补脾暖胃的山药，一起打成豆浆饮用，对脾胃和皮肤保养也大有好处，冬日里一杯暖暖的豆浆，不止可以驱除寒冷，还可以暖身暖胃。 ",
          "u" : ""
        }
      ],
      "first_level_comment_count" : 16,
      "cook_time_image" : "https:\/\/i1.douguo.com\/upload\/banner\/1551424341.png",
      "rrpt" : "",
      "ipt" : "",
      "ph" : 400,
      "clicks" : "1698375",
      "guide_image" : "",
      "cookwares" : [

      ],
      "author_verified" : 1,
      "comments" : [
        "{\n    ac = \"#999999\";\n    at = \"\\U4e1c\\U839e\\U5e02\";\n    ccc = 5;\n    \"child_comments\" =     (\n                {\n            ac = \"#999999\";\n            at = \"\\U4e34\\U6c82\\U5e02\";\n            ccc = 1;\n            city = \"\\U4e34\\U6c82\\U5e02\";\n            cmc = 2;\n            content =             (\n                                {\n                    c = \" \\U98df\\U6750\\U91cc\\U7684\\U6bcf\\U79cd\\U514b\\U6570\\U90fd\\U662f\\U6211\\U505a\\U7684\\U7b14\\U8bb0\\Uff0c\\U4f60\\U7684\\Ud83d\\Udc40\\U53ea\\U7528\\U6765\\U770b\\U56fe\\U6765\\U561b\\Uff1f\\U8981\\U4e0d\\U8981\\U6765\\U8bd5\\U8bd5\";\n                }\n            );\n            ia = 1;\n            id = 7672484;\n            \"ip_address_location\" = \"\";\n            like = 0;\n            \"like_count\" = 0;\n            \"reply_id\" = 7671363;\n            \"reply_user\" =             {\n                \"followers_count_text\" = \"\";\n                id = 25019508;\n                \"is_prime\" = 0;\n                lv = 0;\n                lvl = 4;\n                n = \"\\U8106\\U5f31\\U7684\\U897f\\U7c73\\U5f88\\U5feb\\U56de\\U6765\";\n                p = \"http:\/\/tx1.douguo.net\/upload\/photo\/9\/e\/3\/70_u82017813699927094212.jpg\";\n                \"progress_image\" = \"\";\n                \"recipes_count_text\" = \"\";\n                relationship = \"-1\";\n                title = \"\";\n                v = 0;\n                \"verified_image\" = \"\";\n            };\n            \"sticker_icon\" =             (\n            );\n            time = \"2020-02-24 22:20:17\";\n            u =             {\n                \"followers_count_text\" = \"\";\n                id = 4627059;\n                \"is_prime\" = 1;\n                lv = 0;\n                lvl = 6;\n                n = \"\\U6d77\\U98ce\\U7684\\U97f5\\U5473\";\n                p = \"http:\/\/tx1.douguo.net\/upload\/photo\/1\/8\/5\/70_u03094747839948212603.jpeg\";\n                \"progress_image\" = \"\";\n                \"recipes_count_text\" = \"\";\n                relationship = \"-1\";\n                title = \"\";\n                v = 1;\n                \"verified_image\" = \"\";\n            };\n        },\n                {\n            ac = \"#999999\";\n            at = \"\\U4e1c\\U839e\\U5e02\";\n            ccc = 0;\n            city = \"\\U4e1c\\U839e\\U5e02\";\n            cmc = 2;\n            content =             (\n                                {\n                    c = \" \\U6211\\U5c31\\U662f\\U6309\\U7167\\U4f60\\U7684\\U7b14\\U8bb0\\U505a\\U4e86\\U624d\\U53d1\\U73b045g\\U7d2b\\U85af\\U548c\\U5c71\\U836f\\U90fd\\U6ca1\\U6709\\U4f60\\U56fe\\U7247\\U7684\\U4e00\\U534a\\U7684\\U91cf\\Uff0c\\U5173\\U952e\\U6211\\U8fd8\\U662f\\U505a\\U4e86\\U51fa\\U6765\\U53d1\\U73b0\\U989c\\U8272\\U6de1\\U4e86\\U624d\\U4ed4\\U7ec6\\U770b\\U4f60\\U7684\\U56fe\\U7247\\U597d\\U5417\\Uff0c\\U4f60\\U514b\\U6570\\U672c\\U6765\\U90fd\\U662f\\U4e71\\U5199\\U7684\\Uff0c\\U5982\\U679c\\U4f60\\U752845g\\U7d2b\\U85af\\U914d780ml\\U6c34\\U53ef\\U4ee5\\U6253\\U51fa\\U8fd9\\U4e48\\U6d53\\U7684\\U7d2b\\U8272\\U624d\\U662f\\U795e\\U5947\\U4e86\";\n                }\n            );\n            ia = 0;\n            id = 7672727;\n            \"ip_address_location\" = \"\";\n            like = 0;\n            \"like_count\" = 0;\n            \"reply_id\" = 7672484;\n            \"reply_user\" =             {\n                \"followers_count_text\" = \"\";\n                id = 4627059;\n                \"is_prime\" = 1;\n                lv = 0;\n                lvl = 6;\n                n = \"\\U6d77\\U98ce\\U7684\\U97f5\\U5473\";\n                p = \"http:\/\/tx1.douguo.net\/upload\/photo\/1\/8\/5\/70_u03094747839948212603.jpeg\";\n                \"progress_image\" = \"\";\n                \"recipes_count_text\" = \"\";\n                relationship = \"-1\";\n                title = \"\";\n                v = 1;\n                \"verified_image\" = \"\";\n            };\n            \"sticker_icon\" =             (\n            );\n            time = \"2020-02-24 23:09:58\";\n            u =             {\n                \"followers_count_text\" = \"\";\n                id = 25019508;\n                \"is_prime\" = 0;\n                lv = 0;\n                lvl = 4;\n                n = \"\\U8106\\U5f31\\U7684\\U897f\\U7c73\\U5f88\\U5feb\\U56de\\U6765\";\n                p = \"http:\/\/tx1.douguo.net\/upload\/photo\/9\/e\/3\/70_u82017813699927094212.jpg\";\n                \"progress_image\" = \"\";\n                \"recipes_count_text\" = \"\";\n                relationship = \"-1\";\n                title = \"\";\n                v = 0;\n                \"verified_image\" = \"\";\n            };\n        }\n    );\n    city = \"\\U4e1c\\U839e\\U5e02\";\n    cmc = 2;\n    content =     (\n                {\n            c = \"\\U4f60\\U8fd9\\U4e2a\\U514b\\U6570\\U4e71\\U5199\\U7684\\U554a\\Uff0c\\U8fd9\\U4e48\\U591a\\U7d2b\\U85af\\U600e\\U4e48\\U53ef\\U80fd45\\U514b\";\n        }\n    );\n    ia = 0;\n    id = 7671363;\n    \"ip_address_location\" = \"\";\n    like = 0;\n    \"like_count\" = 0;\n    \"reply_id\" = 0;\n    \"sticker_icon\" =     (\n    );\n    time = \"2020-02-24 18:49:04\";\n    u =     {\n        \"followers_count_text\" = \"\";\n        id = 25019508;\n        \"is_prime\" = 0;\n        lv = 0;\n        lvl = 4;\n        n = \"\\U8106\\U5f31\\U7684\\U897f\\U7c73\\U5f88\\U5feb\\U56de\\U6765\";\n        p = \"http:\/\/tx1.douguo.net\/upload\/photo\/9\/e\/3\/70_u82017813699927094212.jpg\";\n        \"progress_image\" = \"\";\n        \"recipes_count_text\" = \"\";\n        relationship = \"-1\";\n        title = \"\";\n        v = 0;\n        \"verified_image\" = \"\";\n    };\n}",
        "{\n    ac = \"#999999\";\n    at = \"\\U5317\\U4eac\\U5e02\";\n    ccc = 0;\n    \"child_comments\" =     (\n    );\n    city = \"\\U5317\\U4eac\\U5e02\";\n    cmc = 2;\n    content =     (\n                {\n            c = \"tight4@\";\n        }\n    );\n    ia = 0;\n    id = 8991077;\n    \"ip_address_location\" = \"\\U5317\\U4eac\\U5e02\";\n    like = 0;\n    \"like_count\" = 1;\n    \"reply_id\" = 0;\n    \"sticker_icon\" =     (\n    );\n    time = \"2022-12-22 19:14:52\";\n    u =     {\n        \"followers_count_text\" = \"\";\n        id = 10744410;\n        \"is_prime\" = 0;\n        lv = 0;\n        lvl = 1;\n        n = \"\\U732a\\U732a348\";\n        p = \"http:\/\/tx1.douguo.net\/upload\/photo\/0\/7\/2\/70_u38773856466224101206.jpg\";\n        \"progress_image\" = \"\";\n        \"recipes_count_text\" = \"\";\n        relationship = \"-1\";\n        title = \"\";\n        v = 0;\n        \"verified_image\" = \"\";\n    };\n}",
        "{\n    ac = \"#999999\";\n    at = \"\\U5b81\\U6ce2\\U5e02\";\n    ccc = 0;\n    \"child_comments\" =     (\n    );\n    city = \"\\U5b81\\U6ce2\\U5e02\";\n    cmc = 2;\n    content =     (\n                {\n            c = \"\\U4e0d\\U9519\";\n        }\n    );\n    ia = 0;\n    id = 7567562;\n    \"ip_address_location\" = \"\";\n    like = 0;\n    \"like_count\" = 1;\n    \"reply_id\" = 0;\n    \"sticker_icon\" =     (\n    );\n    time = \"2020-01-30 18:38:01\";\n    u =     {\n        \"followers_count_text\" = \"\";\n        id = 19684580;\n        \"is_prime\" = 0;\n        lv = 0;\n        lvl = 8;\n        n = \"\\U5e74\\U7cd5\\U963f\\U7237\";\n        p = \"http:\/\/tx1.douguo.net\/upload\/photo\/e\/9\/9\/70_u87476021424708074152.jpg\";\n        \"progress_image\" = \"\";\n        \"recipes_count_text\" = \"\";\n        relationship = \"-1\";\n        title = \"\";\n        v = 0;\n        \"verified_image\" = \"\";\n    };\n}"
      ],
      "author" : "海风的韵味",
      "comments_count_text" : "24",
      "advice" : {
        "at" : "能有效控制体重～",
        "has" : [
          {
            "url" : "recipes:\/\/www.douguo.com\/simplerecipelist?t=低热量&id=低热量",
            "t" : "低热量"
          },
          {
            "t" : "低糖",
            "url" : "recipes:\/\/www.douguo.com\/simplerecipelist?t=低糖&id=低糖"
          }
        ],
        "da" : {
          "iu" : "https:\/\/i1.douguo.com\/upload\/banner\/f\/4\/d\/f48877e53c37759bc12ac494be82ec8d.png",
          "t" : "查看详细分析",
          "url" : "https:\/\/m.douguo.com\/recipe\/nutrient_self\/2391388"
        }
      },
      "rpst" : ""
    }
  },
  "status" : 0,
  "state" : "success"
}