{
  "status" : 0,
  "state" : "success",
  "result" : {
    "recipe" : {
      "dish_count" : 0,
      "minor" : [

      ],
      "cookstory" : "五红紫米粽子是种纯素的健康粽子，五红材料里的红枣、花生、莲子、红腰豆，红豆都有补血、养颜、健脾、排毒等功效，配搭紫、白糯米又可暖胃和气，平时大家吃的八宝粥就是这些材料煮成的，不过我将它们用叶子包起来做成粽子的模样，粉粉糯糯，不放糖也有甘甜味，蘸些蜂蜜、糖浆，又有吃甜点的感觉，如果倒入牛奶或者是椰奶的话，又会成为一个超味美的糖水，五红紫米粽子就是个很百变的粽子！",
      "comments_count" : 0,
      "act_des" : "",
      "rpst" : "",
      "cook_time" : "1小时以上",
      "mid_mdsp" : [

      ],
      "author_id" : 5252290,
      "original_photo_path" : "http:\/\/i1.douguo.net\/upload\/caiku\/1\/9\/3\/yuan_1919983cfb5fdca7bc9f082277f2b413.jpg",
      "rrpt" : "",
      "user" : {
        "dishes_count" : 0,
        "introduction" : "",
        "favor_diaries_count" : 0,
        "regist_time" : "",
        "verified_url" : "https:\/\/m.douguo.com\/user\/prodesc",
        "user_large_photo" : "http:\/\/tx1.douguo.net\/upload\/photo\/a\/f\/a\/yuan_u08147770469375194545.jpg",
        "pc" : 0,
        "email" : "",
        "fc" : 0,
        "verified_image" : "",
        "lvl" : 6,
        "sign" : "",
        "user_photo" : "http:\/\/tx1.douguo.net\/upload\/photo\/a\/f\/a\/70_u08147770469375194545.jpg",
        "nick" : "火镀红叶",
        "age" : "",
        "verified" : 0,
        "user_cover" : "",
        "qq_weibo_nick" : "",
        "userid" : "5252290",
        "followers_count" : 0,
        "weibo_nick" : "",
        "coursecount" : 0,
        "point" : 0,
        "favorites_count" : 0,
        "following_count" : 0,
        "recipes_count" : 0,
        "subscription_article_count" : 0,
        "progress_image" : "",
        "lv" : 0,
        "avatar_medium" : "http:\/\/tx1.douguo.net\/upload\/photo\/a\/f\/a\/140_u08147770469375194545.jpg",
        "qzone_nick" : "",
        "birthday" : "",
        "is_prime" : 0,
        "location" : 0,
        "diaries_count" : 0,
        "gender" : 2,
        "mobile" : "",
        "user_id" : "5252290",
        "subscription" : 0,
        "setted_email" : 0
      },
      "dishes" : [

      ],
      "rate_show" : 0,
      "purl" : "",
      "event" : {
        "id" : 3805,
        "name" : "浓情端午 粽粽有赏",
        "url" : "https:\/\/m.douguo.com\/activity\/ncpzj\/detail\/3805?isapp=1&open=0&_vs=1000300&&dg_refreshkey=publishnote"
      },
      "rate" : 0,
      "collect_status" : 0,
      "recommendation_tag" : "",
      "cookstorys" : [
        {
          "type" : 0,
          "icon" : "",
          "c" : "五红紫米粽子是种纯素的健康粽子，五红材料里的红枣、花生、莲子、红腰豆，红豆都有补血、养颜、健脾、排毒等功效，配搭紫、白糯米又可暖胃和气，平时大家吃的八宝粥就是这些材料煮成的，不过我将它们用叶子包起来做成粽子的模样，粉粉糯糯，不放糖也有甘甜味，蘸些蜂蜜、糖浆，又有吃甜点的感觉，如果倒入牛奶或者是椰奶的话，又会成为一个超味美的糖水，五红紫米粽子就是个很百变的粽子！",
          "id" : 0,
          "u" : "",
          "color" : ""
        },
        {
          "c" : "\n参与活动:",
          "id" : 0,
          "color" : "",
          "icon" : "",
          "type" : 0,
          "u" : ""
        },
        {
          "id" : 0,
          "icon" : "",
          "c" : "#浓情端午 粽粽有赏#",
          "u" : "https:\/\/m.douguo.com\/activity\/ncpzj\/detail\/3805?isapp=1&open=0&_vs=1000300&&dg_refreshkey=publishnote",
          "type" : 0
        }
      ],
      "v_u" : "",
      "ssu" : "",
      "recipe_tags" : [

      ],
      "rpid" : 0,
      "thumb_height" : 0,
      "cook_difficulty" : "配菜(中级)",
      "release_time" : "",
      "cook_difficulty_image" : "https:\/\/i1.douguo.com\/upload\/banner\/1551424413.png",
      "tips" : "",
      "recommended" : 0,
      "cook_time_image" : "https:\/\/i1.douguo.com\/upload\/banner\/1551423815.png",
      "levelid" : 2,
      "notes" : [

      ],
      "comments" : [

      ],
      "su" : "",
      "rate_count" : 0,
      "old_comments" : [

      ],
      "create_time" : "2023-06-22 21:48:22",
      "ipit" : 0,
      "vu" : "",
      "sc" : 0,
      "display_ingredient" : 1,
      "recent_comments" : [

      ],
      "advice" : {
        "at" : "可以预防血栓形成～",
        "has" : [
          {
            "t" : "低饱和脂肪",
            "url" : "recipes:\/\/www.douguo.com\/simplerecipelist?t=低饱和脂肪&id=低饱和脂肪"
          },
          {
            "url" : "recipes:\/\/www.douguo.com\/simplerecipelist?t=0胆固醇&id=0胆固醇",
            "t" : "0胆固醇"
          }
        ],
        "da" : {
          "t" : "查看详细分析",
          "iu" : "https:\/\/i1.douguo.com\/upload\/banner\/f\/4\/d\/f48877e53c37759bc12ac494be82ec8d.png",
          "url" : "https:\/\/m.douguo.com\/recipe\/nutrient_self\/3259512"
        }
      },
      "author_verified" : 0,
      "ph" : 533,
      "share_info" : {
        "image" : "https:\/\/cp1.douguo.com\/upload\/caiku\/1\/9\/3\/1919983cfb5fdca7bc9f082277f2b413.jpg",
        "qr_image" : "",
        "name" : "#浓情端午 粽粽有赏# 五红紫米粽子-会做饭很酷!",
        "object_id" : "3259512",
        "infos" : [
          {
            "channel" : "1",
            "image" : "https:\/\/cp1.douguo.com\/upload\/caiku\/1\/9\/3\/1919983cfb5fdca7bc9f082277f2b413.jpg",
            "object_id" : "3259512",
            "qr_image" : "",
            "mini_program" : [

            ],
            "name" : "#浓情端午 粽粽有赏# 五红紫米粽子-会做饭很酷!",
            "s_d" : "#学做饭用豆果美食#  我在@豆果美食 分享了【#浓情端午 粽粽有赏# 五红紫米粽子-会做饭很酷!】，制作美食的过程承载了我生活中的热情，和我一起感受这份小确幸吧！查看图片了解菜谱（你喜欢的美食都在这里！https:\/\/m.weibo.cn\/p\/100404i33631）#会做饭很酷# ",
            "s_u" : ""
          },
          {
            "channel" : "7",
            "qr_image" : "",
            "s_u" : "http:\/\/m.douguo.com\/cookbook\/3259512.html",
            "s_d" : "#浓情端午 粽粽有赏# 五红紫米粽子-会做饭很酷!",
            "mini_program" : [

            ],
            "image" : "https:\/\/cp1.douguo.com\/upload\/caiku\/1\/9\/3\/1919983cfb5fdca7bc9f082277f2b413.jpg",
            "object_id" : "3259512",
            "name" : "#浓情端午 粽粽有赏# 五红紫米粽子-会做饭很酷!"
          },
          {
            "s_d" : "#浓情端午 粽粽有赏# 五红紫米粽子-会做饭很酷!",
            "object_id" : "3259512",
            "qr_image" : "",
            "mini_program" : [

            ],
            "name" : "#浓情端午 粽粽有赏# 五红紫米粽子-会做饭很酷!",
            "channel" : "8",
            "image" : "https:\/\/cp1.douguo.com\/upload\/caiku\/1\/9\/3\/1919983cfb5fdca7bc9f082277f2b413.jpg",
            "s_u" : "http:\/\/m.douguo.com\/cookbook\/3259512.html"
          }
        ],
        "s_d" : "#浓情端午 粽粽有赏# 五红紫米粽子-会做饭很酷!",
        "mini_program" : [

        ],
        "s_u" : "http:\/\/m.douguo.com\/cookbook\/3259512.html"
      },
      "recommend_label" : "3033人刚刚收藏过",
      "cook_id" : "3259512",
      "related_ads" : [

      ],
      "cookstep" : [
        {
          "thumb" : "https:\/\/i1.douguo.com\/upload\/caiku\/d\/2\/a\/140_d281a0f9d894bf75590b70d546b8c97a.jpg",
          "image" : "https:\/\/i1.douguo.com\/upload\/caiku\/d\/2\/a\/d281a0f9d894bf75590b70d546b8c97a.jpg",
          "image_width" : 533,
          "frame" : "-1",
          "image_height" : 800,
          "position" : 1,
          "content" : "#浓情端午 粽粽有赏# 五红紫米粽子"
        },
        {
          "position" : 2,
          "frame" : "-1",
          "image_height" : 533,
          "image" : "https:\/\/i1.douguo.com\/upload\/caiku\/0\/0\/e\/00b9ffdf723d131b28f80d1f5be4756e.jpg",
          "image_width" : 800,
          "thumb" : "https:\/\/i1.douguo.com\/upload\/caiku\/0\/0\/e\/140_00b9ffdf723d131b28f80d1f5be4756e.jpg",
          "content" : "#浓情端午 粽粽有赏# 五红紫米粽子"
        },
        {
          "content" : "五红紫米粽子所需的简单材料，白糯米、红枣无需发水，紫糯米、红枣、花生、莲子、红腰豆，红豆、粽子叶则需用水发透，并晾去水分才使用",
          "image_height" : 2448,
          "image" : "https:\/\/i1.douguo.com\/upload\/caiku\/a\/9\/9\/a9115355eebfa5db3a6754cb8071e6b9.jpg",
          "image_width" : 3264,
          "thumb" : "https:\/\/i1.douguo.com\/upload\/caiku\/a\/9\/9\/140_a9115355eebfa5db3a6754cb8071e6b9.jpg",
          "position" : 3,
          "frame" : "-1"
        },
        {
          "image_width" : 3260,
          "content" : "取一片较大的粽叶，交叉一下做出漏斗状，倒入适量紫糯米与白糯米",
          "image_height" : 2446,
          "image" : "https:\/\/i1.douguo.com\/upload\/caiku\/a\/3\/f\/a310a84628d00f5b601d1e707a9fd8bf.jpg",
          "frame" : "-1",
          "position" : 4,
          "thumb" : "https:\/\/i1.douguo.com\/upload\/caiku\/a\/3\/f\/140_a310a84628d00f5b601d1e707a9fd8bf.jpg"
        },
        {
          "image" : "https:\/\/i1.douguo.com\/upload\/caiku\/b\/0\/d\/b0cb64e4163e4825aeba13ca675520cd.jpg",
          "frame" : "-1",
          "position" : 5,
          "content" : "撒入适量的红豆",
          "image_width" : 3264,
          "thumb" : "https:\/\/i1.douguo.com\/upload\/caiku\/b\/0\/d\/140_b0cb64e4163e4825aeba13ca675520cd.jpg",
          "image_height" : 2448
        },
        {
          "image_height" : 2240,
          "image_width" : 2988,
          "thumb" : "https:\/\/i1.douguo.com\/upload\/caiku\/6\/4\/1\/140_64b25496dba4ee110e14af2f04bc7bf1.jpg",
          "content" : "再放点红枣、花生、莲子、红腰豆等等材料",
          "image" : "https:\/\/i1.douguo.com\/upload\/caiku\/6\/4\/1\/64b25496dba4ee110e14af2f04bc7bf1.jpg",
          "position" : 6,
          "frame" : "-1"
        },
        {
          "content" : "最后需用双色糯米封顶。再把叶子包好材料，用棉绳扎好",
          "image" : "https:\/\/i1.douguo.com\/upload\/caiku\/a\/d\/8\/ad674f80a870448e5b866827e21397e8.jpg",
          "frame" : "-1",
          "thumb" : "https:\/\/i1.douguo.com\/upload\/caiku\/a\/d\/8\/140_ad674f80a870448e5b866827e21397e8.jpg",
          "image_width" : 3264,
          "position" : 7,
          "image_height" : 2448
        },
        {
          "position" : 8,
          "frame" : "-1",
          "image_height" : 2448,
          "image_width" : 3264,
          "content" : "取一个锅，加适量清水，大火烧开后放进五红紫米粽，中火煮2小时以上，中途最好能翻动一下，如遇水变少了，可加进开水继续煮",
          "thumb" : "https:\/\/i1.douguo.com\/upload\/caiku\/b\/0\/9\/140_b0ea2a1fc66e192229a018f089056be9.jpg",
          "image" : "https:\/\/i1.douguo.com\/upload\/caiku\/b\/0\/9\/b0ea2a1fc66e192229a018f089056be9.jpg"
        },
        {
          "image_height" : 2448,
          "frame" : "-1",
          "image" : "https:\/\/i1.douguo.com\/upload\/caiku\/b\/7\/c\/b7b376f39a5e4cd651917f4cb4ca4efc.jpg",
          "content" : "熟透的五红紫米粽子关火后直接倒掉水分，晾凉",
          "position" : 9,
          "thumb" : "https:\/\/i1.douguo.com\/upload\/caiku\/b\/7\/c\/140_b7b376f39a5e4cd651917f4cb4ca4efc.jpg",
          "image_width" : 3264
        },
        {
          "image_height" : 533,
          "image" : "https:\/\/i1.douguo.com\/upload\/caiku\/1\/e\/1\/1edcb204938366acf6e8aedae2f38921.jpg",
          "frame" : "-1",
          "image_width" : 800,
          "content" : "因为五红紫米粽子是完全没有味道的，吃的时候需要蘸些蜂蜜、糖浆之类食用，当然能吃无糖的更加好。",
          "thumb" : "https:\/\/i1.douguo.com\/upload\/caiku\/1\/e\/1\/140_1edcb204938366acf6e8aedae2f38921.jpg",
          "position" : 10
        }
      ],
      "eu" : "recipes:\/\/www.douguo.com\/postdetail?id=242016",
      "ipci" : "",
      "ipt" : "",
      "hqu" : "recipes:\/\/www.douguo.com\/notedetail?id=21162253",
      "dish_count_text" : "",
      "rcs" : [

      ],
      "first_level_comment_count" : 0,
      "clicks" : "1",
      "sr" : "",
      "views_count_text" : "9.7万",
      "cookwares" : [

      ],
      "comments_count_text" : "",
      "title" : " 五红紫米粽子",
      "rrps" : [

      ],
      "ipia" : [

      ],
      "rpt" : "",
      "rdsps" : [

      ],
      "major" : [
        {
          "title" : "紫糯米",
          "note" : "2碗"
        },
        {
          "title" : "白糯米",
          "note" : "1碗"
        },
        {
          "title" : "红枣",
          "note" : "适量",
          "tu" : "https:\/\/m.douguo.com\/ingredients\/红枣\/detailmaterial"
        },
        {
          "note" : "适量",
          "title" : "花生"
        },
        {
          "tu" : "https:\/\/m.douguo.com\/ingredients\/莲子\/detailmaterial",
          "note" : "适量",
          "title" : "莲子"
        },
        {
          "tu" : "https:\/\/m.douguo.com\/ingredients\/红腰豆\/detailmaterial",
          "note" : "适量",
          "title" : "红腰豆"
        },
        {
          "title" : "红豆",
          "tu" : "https:\/\/m.douguo.com\/ingredients\/红豆\/detailmaterial",
          "note" : "适量"
        },
        {
          "note" : "适量",
          "title" : "粽叶"
        },
        {
          "title" : "蜂蜜",
          "tu" : "https:\/\/m.douguo.com\/ingredients\/蜂蜜\/detailmaterial",
          "note" : "适量"
        }
      ],
      "author" : "火镀红叶",
      "vfurl" : "",
      "ipoi" : "",
      "vc" : "97059",
      "pw" : 800,
      "rewarded_video_dsp" : [

      ],
      "hq" : 1,
      "guide_image" : "",
      "rsm" : "该功能暂停使用",
      "story_dsp" : [

      ],
      "btm_dsp" : [

      ],
      "favo_counts" : 3033,
      "thumb_path" : "https:\/\/i1.douguo.com\/upload\/caiku\/1\/9\/3\/300_1919983cfb5fdca7bc9f082277f2b413.jpg",
      "photo_path" : "https:\/\/i1.douguo.com\/upload\/caiku\/1\/9\/3\/600_1919983cfb5fdca7bc9f082277f2b413.jpg",
      "favo_counts_text" : "3033",
      "tags" : [

      ],
      "ipurl" : "",
      "packages_id" : [

      ],
      "author_photo" : "http:\/\/tx1.douguo.net\/upload\/photo\/a\/f\/a\/70_u08147770469375194545.jpg",
      "recipe_list_tags" : [
        {
          "text" : "关注的人",
          "background_border_color" : "",
          "background_start_color" : "#F4F5F5",
          "text_color" : "#141515",
          "right_image" : "",
          "background_end_color" : "#F4F5F5",
          "jump_url" : ""
        }
      ],
      "title_ad" : [

      ],
      "bs" : [

      ],
      "image" : "http:\/\/i1.douguo.net\/upload\/caiku\/1\/9\/3\/300_1919983cfb5fdca7bc9f082277f2b413.jpg",
      "top_mdsp" : [

      ],
      "rips" : 0,
      "ss" : [

      ],
      "brand_day_dsp" : [

      ],
      "ecs" : 0
    }
  }
}