{
  "state" : "success",
  "result" : {
    "recipe" : {
      "author_verified" : 0,
      "recommendation_tag" : "",
      "ipurl" : "",
      "release_time" : "",
      "rsm" : "该功能暂停使用",
      "clicks" : "39043",
      "rpst" : "",
      "photo_path" : "https:\/\/i1.douguo.com\/upload\/caiku\/1\/5\/9\/600_15307100e9a932e15a105e5f6b9ff819.jpg",
      "old_comments" : [

      ],
      "rpt" : "",
      "rcs" : [

      ],
      "notes" : [

      ],
      "author_id" : 3656276,
      "levelid" : 3,
      "collect_status" : 0,
      "views_count_text" : "4.3万",
      "rrpt" : "",
      "cook_difficulty_image" : "https:\/\/i1.douguo.com\/upload\/banner\/1551424390.png",
      "purl" : "",
      "minor" : [

      ],
      "user" : {
        "introduction" : "",
        "favorites_count" : 0,
        "userid" : "3656276",
        "user_photo" : "http:\/\/tx1.douguo.net\/upload\/photo\/0\/a\/6\/70_u85379514822939205905.jpg",
        "lv" : 0,
        "diaries_count" : 0,
        "lvl" : 6,
        "weibo_nick" : "",
        "followers_count" : 0,
        "qzone_nick" : "",
        "verified" : 0,
        "point" : 0,
        "setted_email" : 0,
        "location" : 0,
        "progress_image" : "",
        "favor_diaries_count" : 0,
        "regist_time" : "",
        "subscription_article_count" : 0,
        "verified_url" : "https:\/\/m.douguo.com\/user\/prodesc",
        "birthday" : "",
        "pc" : 0,
        "user_cover" : "",
        "age" : "",
        "avatar_medium" : "http:\/\/tx1.douguo.net\/upload\/photo\/0\/a\/6\/140_u85379514822939205905.jpg",
        "fc" : 0,
        "email" : "",
        "following_count" : 0,
        "dishes_count" : 0,
        "qq_weibo_nick" : "",
        "nick" : "星天部落",
        "user_id" : "3656276",
        "coursecount" : 0,
        "mobile" : "",
        "is_prime" : 0,
        "recipes_count" : 0,
        "sign" : "",
        "user_large_photo" : "http:\/\/tx1.douguo.net\/upload\/photo\/0\/a\/6\/yuan_u85379514822939205905.jpg",
        "gender" : 2,
        "verified_image" : "",
        "subscription" : 0
      },
      "author_photo" : "http:\/\/tx1.douguo.net\/upload\/photo\/0\/a\/6\/70_u85379514822939205905.jpg",
      "rips" : 0,
      "tags" : [
        "{\n    text = \"\\U5bb6\\U5e38\\U83dc\";\n}",
        "{\n    text = \"\\U6e58\\U83dc\";\n}",
        "{\n    text = \"\\U7092\";\n}",
        "{\n    text = \"\\U5bb6\\U5e38\\U5473\";\n}",
        "{\n    text = \"\\U5348\\U9910\";\n}"
      ],
      "sr" : "",
      "cookstorys" : [

      ],
      "ipit" : 0,
      "top_mdsp" : [

      ],
      "comments_count_text" : "4",
      "cookwares" : [

      ],
      "favo_counts" : 300,
      "recent_comments" : [

      ],
      "dish_count_text" : "",
      "ssu" : "",
      "recommended" : 0,
      "bs" : [

      ],
      "brand_day_dsp" : [

      ],
      "ipci" : "",
      "ipoi" : "",
      "title" : "苋菜菜条",
      "vu" : "",
      "dish_count" : 0,
      "hqu" : "recipes:\/\/www.douguo.com\/notedetail?id=21162253",
      "original_photo_path" : "http:\/\/i1.douguo.net\/upload\/caiku\/1\/5\/9\/yuan_15307100e9a932e15a105e5f6b9ff819.jpg",
      "ph" : 1079,
      "image" : "http:\/\/i1.douguo.net\/upload\/caiku\/1\/5\/9\/300_15307100e9a932e15a105e5f6b9ff819.jpg",
      "rate_show" : 0,
      "related_ads" : [

      ],
      "ss" : [

      ],
      "vc" : "43466",
      "first_level_comment_count" : 3,
      "su" : "",
      "rate" : 0,
      "ipia" : [

      ],
      "advice" : {
        "da" : {
          "url" : "https:\/\/m.douguo.com\/recipe\/nutrient_self\/1419498",
          "iu" : "https:\/\/i1.douguo.com\/upload\/banner\/f\/4\/d\/f48877e53c37759bc12ac494be82ec8d.png",
          "t" : "查看详细分析"
        },
        "has" : [
          {
            "t" : "低糖",
            "url" : "recipes:\/\/www.douguo.com\/simplerecipelist?t=低糖&id=低糖"
          },
          {
            "url" : "recipes:\/\/www.douguo.com\/simplerecipelist?t=高盐&id=高盐",
            "t" : "高盐"
          }
        ],
        "at" : "能帮助你减脂、控血糖～"
      },
      "major" : [
        {
          "note" : "适量",
          "title" : "苋菜，鸡蛋，香油，盐"
        },
        {
          "note" : "",
          "tu" : "https:\/\/m.douguo.com\/ingredients\/面粉\/detailmaterial",
          "title" : "面粉"
        }
      ],
      "act_des" : "",
      "cook_time_image" : "https:\/\/i1.douguo.com\/upload\/banner\/1551424318.png",
      "guide_image" : "",
      "cook_difficulty" : "切墩(初级)",
      "recipe_tags" : [

      ],
      "eu" : "recipes:\/\/www.douguo.com\/postdetail?id=242016",
      "rdsps" : [

      ],
      "title_ad" : [

      ],
      "pw" : 800,
      "rewarded_video_dsp" : [

      ],
      "ecs" : 0,
      "cook_id" : "1419498",
      "ipt" : "",
      "comments" : [
        "{\n    ac = \"#999999\";\n    at = \"\";\n    ccc = 1;\n    \"child_comments\" =     (\n                {\n            ac = \"#999999\";\n            at = \"\";\n            ccc = 0;\n            city = \"\";\n            cmc = 2;\n            content =             (\n                                {\n                    c = \" \\U6cb3\\U5357\\U5b89\\U9633\\U53eb\\U83dc\\U6761\\Uff0c\\U53ef\\U4ee5\\U5377\\U7684\\U83dc\\U5f88\\U591a\\U3002\";\n                }\n            );\n            ia = 1;\n            id = 3891799;\n            \"ip_address_location\" = \"\";\n            like = 0;\n            \"like_count\" = 0;\n            \"reply_id\" = 3886049;\n            \"reply_user\" =             {\n                \"followers_count_text\" = \"\";\n                id = 17023711;\n                \"is_prime\" = 0;\n                lv = 0;\n                lvl = 6;\n                n = \"\\U5403\\U561b\\U561b\\U4e61\";\n                p = \"http:\/\/tx1.douguo.net\/upload\/photo\/f\/b\/c\/70_u5948912429334004011455.jpg\";\n                \"progress_image\" = \"\";\n                \"recipes_count_text\" = \"\";\n                relationship = \"-1\";\n                title = \"\";\n                v = 0;\n                \"verified_image\" = \"\";\n            };\n            \"sticker_icon\" =             (\n            );\n            time = \"2016-07-29 22:29:54\";\n            u =             {\n                \"followers_count_text\" = \"\";\n                id = 3656276;\n                \"is_prime\" = 0;\n                lv = 0;\n                lvl = 6;\n                n = \"\\U661f\\U5929\\U90e8\\U843d\";\n                p = \"http:\/\/tx1.douguo.net\/upload\/photo\/0\/a\/6\/70_u85379514822939205905.jpg\";\n                \"progress_image\" = \"\";\n                \"recipes_count_text\" = \"\";\n                relationship = \"-1\";\n                title = \"\";\n                v = 0;\n                \"verified_image\" = \"\";\n            };\n        }\n    );\n    city = \"\";\n    cmc = 2;\n    content =     (\n                {\n            c = \"\\U83dc\\U6761\\U662f\\U54ea\\U91cc\\U7684\\U53eb\\U6cd5\\U554a\\Uff0c\\U597d\\U5947 \";\n        }\n    );\n    ia = 0;\n    id = 3886049;\n    \"ip_address_location\" = \"\";\n    like = 0;\n    \"like_count\" = 0;\n    \"reply_id\" = 0;\n    \"sticker_icon\" =     (\n    );\n    time = \"2016-07-29 00:15:10\";\n    u =     {\n        \"followers_count_text\" = \"\";\n        id = 17023711;\n        \"is_prime\" = 0;\n        lv = 0;\n        lvl = 6;\n        n = \"\\U5403\\U561b\\U561b\\U4e61\";\n        p = \"http:\/\/tx1.douguo.net\/upload\/photo\/f\/b\/c\/70_u5948912429334004011455.jpg\";\n        \"progress_image\" = \"\";\n        \"recipes_count_text\" = \"\";\n        relationship = \"-1\";\n        title = \"\";\n        v = 0;\n        \"verified_image\" = \"\";\n    };\n}",
        "{\n    ac = \"#999999\";\n    at = \"\";\n    ccc = 0;\n    \"child_comments\" =     (\n    );\n    city = \"\";\n    cmc = 2;\n    content =     (\n                {\n            c = \"\\U98df\\U6750\\U8c46\\U679c\\U4e70\\U7684\\U5417\";\n        }\n    );\n    ia = 0;\n    id = 6675549;\n    \"ip_address_location\" = \"\";\n    like = 0;\n    \"like_count\" = 0;\n    \"reply_id\" = 0;\n    \"sticker_icon\" =     (\n    );\n    time = \"2019-06-19 22:44:10\";\n    u =     {\n        \"followers_count_text\" = \"\";\n        id = 18571081;\n        \"is_prime\" = 0;\n        lv = 0;\n        lvl = 6;\n        n = \"\\U82f9\\U679c\\U77f3\\U5934\";\n        p = \"http:\/\/tx1.douguo.net\/upload\/photo\/5\/8\/8\/70_u21955338407020409000812.jpg\";\n        \"progress_image\" = \"\";\n        \"recipes_count_text\" = \"\";\n        relationship = \"-1\";\n        title = \"\";\n        v = 0;\n        \"verified_image\" = \"\";\n    };\n}",
        "{\n    ac = \"#999999\";\n    at = \"\";\n    ccc = 0;\n    \"child_comments\" =     (\n    );\n    city = \"\";\n    cmc = 2;\n    content =     (\n                {\n            c = \"\\U83dc\\U6761\\U5728\\U6211\\U4eec\\U5b89\\U9633\\U662f\\U5f88\\U53d7\\U6b22\\U8fce\\U7684\\U9762\\U98df\\U54e6\\Uff0c\\U559c\\U6b22\\U5317\\U74dc\\U4e1d\\U7684\";\n        }\n    );\n    ia = 0;\n    id = 4351770;\n    \"ip_address_location\" = \"\";\n    like = 0;\n    \"like_count\" = 0;\n    \"reply_id\" = 0;\n    \"sticker_icon\" =     (\n    );\n    time = \"2016-12-13 13:39:48\";\n    u =     {\n        \"followers_count_text\" = \"\";\n        id = 19191252;\n        \"is_prime\" = 0;\n        lv = 0;\n        lvl = 1;\n        n = \"\\U59e8\\U5440\\U5440\\U5440\";\n        p = \"\";\n        \"progress_image\" = \"\";\n        \"recipes_count_text\" = \"\";\n        relationship = \"-1\";\n        title = \"\";\n        v = 0;\n        \"verified_image\" = \"\";\n    };\n}"
      ],
      "sc" : 0,
      "author" : "星天部落",
      "btm_dsp" : [

      ],
      "comments_count" : 4,
      "cookstep" : [
        {
          "position" : 1,
          "image" : "https:\/\/i1.douguo.com\/upload\/caiku\/6\/2\/c\/62e32ab6213a8b72a5ead852cd58d3cc.jpg",
          "frame" : "-1",
          "image_width" : 800,
          "thumb" : "https:\/\/i1.douguo.com\/upload\/caiku\/6\/2\/c\/140_62e32ab6213a8b72a5ead852cd58d3cc.jpg",
          "image_height" : 593,
          "content" : "苋菜摘好，清洗干净，开水烫一下，剁碎，加香油和盐拌匀。鸡蛋炒好，倒入苋菜中，再次拌匀。"
        },
        {
          "image_width" : 800,
          "position" : 2,
          "image" : "https:\/\/i1.douguo.com\/upload\/caiku\/b\/c\/7\/bcb8ba38355e67b464c4ed6fd678a1d7.jpg",
          "thumb" : "https:\/\/i1.douguo.com\/upload\/caiku\/b\/c\/7\/140_bcb8ba38355e67b464c4ed6fd678a1d7.jpg",
          "image_height" : 593,
          "frame" : "-1",
          "content" : "面粉倒入盆里，用温水和成面团，醒一会儿。"
        },
        {
          "image_width" : 800,
          "frame" : "-1",
          "thumb" : "https:\/\/i1.douguo.com\/upload\/caiku\/4\/1\/8\/140_4177462382f03fac12968e2fe57e1278.jpg",
          "image_height" : 1079,
          "position" : 3,
          "image" : "https:\/\/i1.douguo.com\/upload\/caiku\/4\/1\/8\/4177462382f03fac12968e2fe57e1278.jpg",
          "content" : "醒好的面团分割成小块，按扁，擀成圆片。"
        },
        {
          "position" : 4,
          "content" : "把馅放在面片上，平铺均匀。",
          "image_height" : 1079,
          "frame" : "-1",
          "image_width" : 800,
          "thumb" : "https:\/\/i1.douguo.com\/upload\/caiku\/c\/a\/5\/140_ca41da0887e20a8d9184486f3c9aff75.jpg",
          "image" : "https:\/\/i1.douguo.com\/upload\/caiku\/c\/a\/5\/ca41da0887e20a8d9184486f3c9aff75.jpg"
        },
        {
          "image_width" : 800,
          "frame" : "-1",
          "content" : "从一头卷起面片，把馅包在里面。",
          "image" : "https:\/\/i1.douguo.com\/upload\/caiku\/c\/7\/7\/c733030508c9d8ec66714d4e4f5a85a7.jpg",
          "image_height" : 1079,
          "thumb" : "https:\/\/i1.douguo.com\/upload\/caiku\/c\/7\/7\/140_c733030508c9d8ec66714d4e4f5a85a7.jpg",
          "position" : 5
        },
        {
          "frame" : "-1",
          "image_height" : 1079,
          "thumb" : "https:\/\/i1.douguo.com\/upload\/caiku\/d\/0\/d\/140_d08442e16102eb1fb63e40622e9f773d.jpg",
          "image" : "https:\/\/i1.douguo.com\/upload\/caiku\/d\/0\/d\/d08442e16102eb1fb63e40622e9f773d.jpg",
          "image_width" : 800,
          "position" : 6,
          "content" : "上锅蒸大约15分钟即可。"
        }
      ],
      "thumb_height" : 0,
      "story_dsp" : [

      ],
      "create_time" : "2016-07-28 22:29:20",
      "cook_time" : "30–60分钟",
      "tips" : "",
      "share_info" : {
        "infos" : [
          {
            "s_d" : "#学做饭用豆果美食# 会做饭真是太酷了！我在@豆果美食 分享了【苋菜菜条-会做饭很酷!】，这道菜真的神仙美味！喜欢的一定要试试绝对不会错的！～查看图片了解菜谱（快来点击https:\/\/m.weibo.cn\/p\/100404i33631和我一起修炼厨艺吧）",
            "mini_program" : [

            ],
            "name" : "苋菜菜条-会做饭很酷!",
            "object_id" : "1419498",
            "image" : "https:\/\/cp1.douguo.com\/upload\/caiku\/1\/5\/9\/15307100e9a932e15a105e5f6b9ff819.jpg",
            "s_u" : "",
            "channel" : "1",
            "qr_image" : ""
          },
          {
            "image" : "https:\/\/cp1.douguo.com\/upload\/caiku\/1\/5\/9\/15307100e9a932e15a105e5f6b9ff819.jpg",
            "mini_program" : [

            ],
            "object_id" : "1419498",
            "qr_image" : "",
            "channel" : "7",
            "name" : "苋菜菜条-会做饭很酷!",
            "s_d" : "苋菜菜条-会做饭很酷!",
            "s_u" : "http:\/\/m.douguo.com\/cookbook\/1419498.html"
          },
          {
            "s_u" : "http:\/\/m.douguo.com\/cookbook\/1419498.html",
            "mini_program" : [

            ],
            "object_id" : "1419498",
            "s_d" : "苋菜菜条-会做饭很酷!",
            "image" : "https:\/\/cp1.douguo.com\/upload\/caiku\/1\/5\/9\/15307100e9a932e15a105e5f6b9ff819.jpg",
            "channel" : "8",
            "qr_image" : "",
            "name" : "苋菜菜条-会做饭很酷!"
          }
        ],
        "object_id" : "1419498",
        "image" : "https:\/\/cp1.douguo.com\/upload\/caiku\/1\/5\/9\/15307100e9a932e15a105e5f6b9ff819.jpg",
        "s_d" : "苋菜菜条-会做饭很酷!",
        "mini_program" : [

        ],
        "name" : "苋菜菜条-会做饭很酷!",
        "qr_image" : "",
        "s_u" : "http:\/\/m.douguo.com\/cookbook\/1419498.html"
      },
      "cookstory" : "",
      "mid_mdsp" : [

      ],
      "recommend_label" : "4.3万人看过",
      "v_u" : "",
      "rrps" : [

      ],
      "display_ingredient" : 1,
      "hq" : 0,
      "thumb_path" : "https:\/\/i1.douguo.com\/upload\/caiku\/1\/5\/9\/300_15307100e9a932e15a105e5f6b9ff819.jpg",
      "vfurl" : "",
      "favo_counts_text" : "300",
      "rpid" : 0,
      "dishes" : [

      ],
      "packages_id" : [

      ],
      "rate_count" : 0,
      "recipe_list_tags" : [
        {
          "background_start_color" : "#F4F5F5",
          "text_color" : "#141515",
          "background_border_color" : "",
          "background_end_color" : "#F4F5F5",
          "right_image" : "",
          "text" : "关注的人",
          "jump_url" : ""
        }
      ]
    }
  },
  "status" : 0
}