{
  "result" : {
    "recipe" : {
      "favo_counts" : 5376,
      "create_time" : "2019-11-06 10:14:11",
      "sr" : "",
      "hqu" : "recipes:\/\/www.douguo.com\/notedetail?id=21162253",
      "recipe_list_tags" : [
        {
          "text_color" : "#141515",
          "background_start_color" : "#F4F5F5",
          "background_border_color" : "",
          "background_end_color" : "#F4F5F5",
          "text" : "关注的人",
          "jump_url" : "",
          "right_image" : ""
        },
        {
          "right_image" : "",
          "jump_url" : "",
          "background_border_color" : "",
          "text" : "内容详细",
          "background_end_color" : "#F4F5F5",
          "background_start_color" : "#F4F5F5",
          "text_color" : "#141515"
        }
      ],
      "title" : "香焖小河虾",
      "title_ad" : [

      ],
      "cook_id" : "2359290",
      "ipit" : 0,
      "tags" : [

      ],
      "author_verified" : 1,
      "btm_dsp" : [

      ],
      "guide_image" : "",
      "vc" : "310088",
      "favo_counts_text" : "5376",
      "rdsps" : [

      ],
      "ipurl" : "",
      "packages_id" : [

      ],
      "related_ads" : [

      ],
      "display_ingredient" : 1,
      "su" : "",
      "image" : "http:\/\/i1.douguo.net\/upload\/caiku\/7\/5\/f\/300_7510daae64adbb526ae8d761e672232f.jpg",
      "brand_day_dsp" : [

      ],
      "story_dsp" : [

      ],
      "rrps" : [

      ],
      "levelid" : 2,
      "rewarded_video_dsp" : [

      ],
      "sc" : 0,
      "rrpt" : "",
      "minor" : [

      ],
      "recommended" : 0,
      "ipt" : "",
      "dishes" : [

      ],
      "comments" : [
        "{\n    ac = \"#999999\";\n    at = \"\\U5e38\\U5dde\\U5e02\";\n    ccc = 1;\n    \"child_comments\" =     (\n                {\n            ac = \"#999999\";\n            at = \"\\U957f\\U6c99\\U5e02\";\n            ccc = 0;\n            city = \"\\U957f\\U6c99\\U5e02\";\n            cmc = 2;\n            content =             (\n                                {\n                    c = \" \\U666e\\U901a\\U7535\\U996d\\U9505\\U4e5f\\U53ef\\U4ee5\\Uff0c\\U76f4\\U63a5\\U6309\\U716e\\U996d\\U952e\\U7116\";\n                }\n            );\n            ia = 1;\n            id = 7291980;\n            \"ip_address_location\" = \"\";\n            like = 0;\n            \"like_count\" = 0;\n            \"reply_id\" = 7291823;\n            \"reply_user\" =             {\n                \"followers_count_text\" = \"\";\n                id = 18431007;\n                \"is_prime\" = 0;\n                lv = 0;\n                lvl = 2;\n                n = \"\\U963f\\U55b5\";\n                p = \"http:\/\/tx1.douguo.net\/upload\/photo\/b\/1\/1\/70_u72533296328293173417.jpg\";\n                \"progress_image\" = \"\";\n                \"recipes_count_text\" = \"\";\n                relationship = \"-1\";\n                title = \"\";\n                v = 0;\n                \"verified_image\" = \"\";\n            };\n            \"sticker_icon\" =             (\n            );\n            time = \"2019-11-08 13:39:55\";\n            u =             {\n                \"followers_count_text\" = \"\";\n                id = 19388085;\n                \"is_prime\" = 0;\n                lv = 0;\n                lvl = 6;\n                n = \"\\U598d\\U5abd\\U7f8e\\U98df\";\n                p = \"http:\/\/tx1.douguo.net\/upload\/photo\/9\/4\/1\/70_u83714782719756160502.jpeg\";\n                \"progress_image\" = \"\";\n                \"recipes_count_text\" = \"\";\n                relationship = \"-1\";\n                title = \"\";\n                v = 1;\n                \"verified_image\" = \"\";\n            };\n        }\n    );\n    city = \"\\U5e38\\U5dde\\U5e02\";\n    cmc = 2;\n    content =     (\n                {\n            c = \"\\U7535\\U996d\\U9505\\U6ca1\\U8fd9\\U529f\\U80fd\";\n        }\n    );\n    ia = 0;\n    id = 7291823;\n    \"ip_address_location\" = \"\";\n    like = 0;\n    \"like_count\" = 0;\n    \"reply_id\" = 0;\n    \"sticker_icon\" =     (\n    );\n    time = \"2019-11-08 12:38:02\";\n    u =     {\n        \"followers_count_text\" = \"\";\n        id = 18431007;\n        \"is_prime\" = 0;\n        lv = 0;\n        lvl = 2;\n        n = \"\\U963f\\U55b5\";\n        p = \"http:\/\/tx1.douguo.net\/upload\/photo\/b\/1\/1\/70_u72533296328293173417.jpg\";\n        \"progress_image\" = \"\";\n        \"recipes_count_text\" = \"\";\n        relationship = \"-1\";\n        title = \"\";\n        v = 0;\n        \"verified_image\" = \"\";\n    };\n}",
        "{\n    ac = \"#999999\";\n    at = \"\";\n    ccc = 1;\n    \"child_comments\" =     (\n                {\n            ac = \"#999999\";\n            at = \"\\U957f\\U6c99\\U5e02\";\n            ccc = 0;\n            city = \"\\U957f\\U6c99\\U5e02\";\n            cmc = 2;\n            content =             (\n                                {\n                    c = \" \\U597d\\U5440\\U597d\\U5440\";\n                }\n            );\n            ia = 1;\n            id = 7289797;\n            \"ip_address_location\" = \"\";\n            like = 0;\n            \"like_count\" = 0;\n            \"reply_id\" = 7289603;\n            \"reply_user\" =             {\n                \"followers_count_text\" = \"\";\n                id = 23580855;\n                \"is_prime\" = 0;\n                lv = 0;\n                lvl = 3;\n                n = \"\\U4f55\\U59a8tvqa\";\n                p = \"http:\/\/tx1.douguo.net\/upload\/photo\/5\/4\/a\/70_u4324923537180329193429.jpg\";\n                \"progress_image\" = \"\";\n                \"recipes_count_text\" = \"\";\n                relationship = \"-1\";\n                title = \"\";\n                v = 0;\n                \"verified_image\" = \"\";\n            };\n            \"sticker_icon\" =             (\n            );\n            time = \"2019-11-07 20:55:56\";\n            u =             {\n                \"followers_count_text\" = \"\";\n                id = 19388085;\n                \"is_prime\" = 0;\n                lv = 0;\n                lvl = 6;\n                n = \"\\U598d\\U5abd\\U7f8e\\U98df\";\n                p = \"http:\/\/tx1.douguo.net\/upload\/photo\/9\/4\/1\/70_u83714782719756160502.jpeg\";\n                \"progress_image\" = \"\";\n                \"recipes_count_text\" = \"\";\n                relationship = \"-1\";\n                title = \"\";\n                v = 1;\n                \"verified_image\" = \"\";\n            };\n        }\n    );\n    city = \"\";\n    cmc = 2;\n    content =     (\n                {\n            c = \"\\U597d\\U68d2\\U597d\\U68d2\\Uff0c\\U5411\\U4f60\\U5b66\\U4e60\\Uff0c\\U591a\\U591a\\U4ea4\\U6d41\";\n        }\n    );\n    ia = 0;\n    id = 7289603;\n    \"ip_address_location\" = \"\";\n    like = 0;\n    \"like_count\" = 0;\n    \"reply_id\" = 0;\n    \"sticker_icon\" =     (\n    );\n    time = \"2019-11-07 20:06:48\";\n    u =     {\n        \"followers_count_text\" = \"\";\n        id = 23580855;\n        \"is_prime\" = 0;\n        lv = 0;\n        lvl = 3;\n        n = \"\\U4f55\\U59a8tvqa\";\n        p = \"http:\/\/tx1.douguo.net\/upload\/photo\/5\/4\/a\/70_u4324923537180329193429.jpg\";\n        \"progress_image\" = \"\";\n        \"recipes_count_text\" = \"\";\n        relationship = \"-1\";\n        title = \"\";\n        v = 0;\n        \"verified_image\" = \"\";\n    };\n}",
        "{\n    ac = \"#999999\";\n    at = \"\";\n    ccc = 1;\n    \"child_comments\" =     (\n                {\n            ac = \"#999999\";\n            at = \"\\U957f\\U6c99\\U5e02\";\n            ccc = 0;\n            city = \"\\U957f\\U6c99\\U5e02\";\n            cmc = 2;\n            content =             (\n                                {\n                    c = \" \\U8fc7\\U5956\\U5566\\Ud83d\\Ude07\";\n                }\n            );\n            ia = 1;\n            id = 7289795;\n            \"ip_address_location\" = \"\";\n            like = 0;\n            \"like_count\" = 0;\n            \"reply_id\" = 7289538;\n            \"reply_user\" =             {\n                \"followers_count_text\" = \"\";\n                id = 23542131;\n                \"is_prime\" = 0;\n                lv = 0;\n                lvl = 4;\n                n = \"\\U9c7c\\U866b\\U804a\";\n                p = \"http:\/\/tx1.douguo.net\/upload\/photo\/b\/5\/f\/70_u47115727030329131956.jpg\";\n                \"progress_image\" = \"\";\n                \"recipes_count_text\" = \"\";\n                relationship = \"-1\";\n                title = \"\";\n                v = 0;\n                \"verified_image\" = \"\";\n            };\n            \"sticker_icon\" =             (\n            );\n            time = \"2019-11-07 20:55:42\";\n            u =             {\n                \"followers_count_text\" = \"\";\n                id = 19388085;\n                \"is_prime\" = 0;\n                lv = 0;\n                lvl = 6;\n                n = \"\\U598d\\U5abd\\U7f8e\\U98df\";\n                p = \"http:\/\/tx1.douguo.net\/upload\/photo\/9\/4\/1\/70_u83714782719756160502.jpeg\";\n                \"progress_image\" = \"\";\n                \"recipes_count_text\" = \"\";\n                relationship = \"-1\";\n                title = \"\";\n                v = 1;\n                \"verified_image\" = \"\";\n            };\n        }\n    );\n    city = \"\";\n    cmc = 2;\n    content =     (\n                {\n            c = \"\\U4ec0\\U4e48\\U98df\\U6750\\U5230\\U4f60\\U8fd9\\U91cc\\U90fd\\U662f\\U4e00\\U9053\\U7f8e\\U5473\";\n        }\n    );\n    ia = 0;\n    id = 7289538;\n    \"ip_address_location\" = \"\";\n    like = 0;\n    \"like_count\" = 0;\n    \"reply_id\" = 0;\n    \"sticker_icon\" =     (\n    );\n    time = \"2019-11-07 19:54:45\";\n    u =     {\n        \"followers_count_text\" = \"\";\n        id = 23542131;\n        \"is_prime\" = 0;\n        lv = 0;\n        lvl = 4;\n        n = \"\\U9c7c\\U866b\\U804a\";\n        p = \"http:\/\/tx1.douguo.net\/upload\/photo\/b\/5\/f\/70_u47115727030329131956.jpg\";\n        \"progress_image\" = \"\";\n        \"recipes_count_text\" = \"\";\n        relationship = \"-1\";\n        title = \"\";\n        v = 0;\n        \"verified_image\" = \"\";\n    };\n}"
      ],
      "cook_time_image" : "https:\/\/i1.douguo.com\/upload\/banner\/1551424358.png",
      "rpt" : "",
      "rate_count" : 0,
      "release_time" : "",
      "collect_status" : 0,
      "cook_difficulty_image" : "https:\/\/i1.douguo.com\/upload\/banner\/1551424390.png",
      "v_u" : "",
      "top_mdsp" : [

      ],
      "notes" : [

      ],
      "recipe_tags" : [

      ],
      "ecs" : 0,
      "rpst" : "",
      "author_id" : 19388085,
      "vfurl" : "",
      "bs" : [

      ],
      "ipoi" : "",
      "views_count_text" : "31.0万",
      "rate_show" : 0,
      "share_info" : {
        "s_u" : "http:\/\/m.douguo.com\/cookbook\/2359290.html",
        "name" : "香焖小河虾-会做饭很酷!",
        "infos" : [
          {
            "object_id" : "2359290",
            "name" : "香焖小河虾-会做饭很酷!",
            "mini_program" : [

            ],
            "s_d" : "#学做饭用豆果美食# 会做饭真是太酷了！我在@豆果美食 分享了【香焖小河虾-会做饭很酷!】，看着是不是馋到不行呢～快来跟我学学吧！查看图片了解菜谱，（想要获取更多美食就看这https:\/\/m.weibo.cn\/p\/100404i33631）",
            "channel" : "1",
            "qr_image" : "",
            "s_u" : "",
            "image" : "https:\/\/cp1.douguo.com\/upload\/caiku\/7\/5\/f\/7510daae64adbb526ae8d761e672232f.jpg"
          },
          {
            "qr_image" : "",
            "image" : "https:\/\/cp1.douguo.com\/upload\/caiku\/7\/5\/f\/7510daae64adbb526ae8d761e672232f.jpg",
            "s_d" : "香焖小河虾-会做饭很酷!",
            "name" : "香焖小河虾-会做饭很酷!",
            "s_u" : "http:\/\/m.douguo.com\/cookbook\/2359290.html",
            "mini_program" : [

            ],
            "channel" : "7",
            "object_id" : "2359290"
          },
          {
            "mini_program" : [

            ],
            "s_d" : "香焖小河虾-会做饭很酷!",
            "image" : "https:\/\/cp1.douguo.com\/upload\/caiku\/7\/5\/f\/7510daae64adbb526ae8d761e672232f.jpg",
            "object_id" : "2359290",
            "name" : "香焖小河虾-会做饭很酷!",
            "s_u" : "http:\/\/m.douguo.com\/cookbook\/2359290.html",
            "channel" : "8",
            "qr_image" : ""
          }
        ],
        "qr_image" : "",
        "image" : "https:\/\/cp1.douguo.com\/upload\/caiku\/7\/5\/f\/7510daae64adbb526ae8d761e672232f.jpg",
        "object_id" : "2359290",
        "s_d" : "香焖小河虾-会做饭很酷!",
        "mini_program" : [

        ]
      },
      "mid_mdsp" : [

      ],
      "eu" : "recipes:\/\/www.douguo.com\/postdetail?id=242016",
      "original_photo_path" : "http:\/\/i1.douguo.net\/upload\/caiku\/7\/5\/f\/yuan_7510daae64adbb526ae8d761e672232f.jpg",
      "cook_difficulty" : "切墩(初级)",
      "thumb_height" : 0,
      "pw" : 800,
      "rate" : 0,
      "photo_path" : "https:\/\/i1.douguo.com\/upload\/caiku\/7\/5\/f\/600_7510daae64adbb526ae8d761e672232f.jpg",
      "hq" : 1,
      "recommendation_tag" : "",
      "comments_count_text" : "25",
      "author_photo" : "http:\/\/tx1.douguo.net\/upload\/photo\/9\/4\/1\/70_u83714782719756160502.jpeg",
      "user" : {
        "location" : 0,
        "progress_image" : "",
        "favorites_count" : 0,
        "mobile" : "",
        "subscription_article_count" : 0,
        "followers_count" : 0,
        "gender" : 2,
        "setted_email" : 0,
        "dishes_count" : 0,
        "user_large_photo" : "http:\/\/tx1.douguo.net\/upload\/photo\/9\/4\/1\/yuan_u83714782719756160502.jpeg",
        "user_cover" : "",
        "lvl" : 6,
        "user_id" : "19388085",
        "avatar_medium" : "http:\/\/tx1.douguo.net\/upload\/photo\/9\/4\/1\/140_u83714782719756160502.jpeg",
        "regist_time" : "",
        "qzone_nick" : "",
        "is_prime" : 0,
        "user_photo" : "http:\/\/tx1.douguo.net\/upload\/photo\/9\/4\/1\/70_u83714782719756160502.jpeg",
        "lv" : 0,
        "nick" : "妍媽美食",
        "verified" : 1,
        "fc" : 0,
        "weibo_nick" : "",
        "verified_image" : "https:\/\/i1.douguo.com\/upload\/note\/d\/a\/a\/da84247847aebe48d9dd0fcdac88862a.png",
        "age" : "",
        "diaries_count" : 0,
        "email" : "",
        "verified_url" : "https:\/\/m.douguo.com\/user\/prodesc",
        "subscription" : 0,
        "introduction" : "",
        "following_count" : 0,
        "pc" : 0,
        "coursecount" : 0,
        "qq_weibo_nick" : "",
        "sign" : "",
        "recipes_count" : 0,
        "userid" : "19388085",
        "favor_diaries_count" : 0,
        "birthday" : "",
        "point" : 0
      },
      "dish_count_text" : "",
      "ipci" : "",
      "recommend_label" : "5376人刚刚收藏过",
      "cookwares" : [

      ],
      "old_comments" : [

      ],
      "dish_count" : 0,
      "vu" : "",
      "cookstep" : [
        {
          "thumb" : "https:\/\/i1.douguo.com\/upload\/caiku\/1\/f\/9\/140_1f160d005e531be01c00746cb0d7f909.jpg",
          "image_height" : 600,
          "position" : 1,
          "frame" : "-1",
          "image" : "https:\/\/i1.douguo.com\/upload\/caiku\/1\/f\/9\/1f160d005e531be01c00746cb0d7f909.jpg",
          "content" : "准备食材如图。",
          "image_width" : 800
        },
        {
          "content" : "先处理河虾，用厨房剪剪去虾须和头上尖尖的部位，这个部位特别刺手，吃起来很容易扎到嘴巴，建议去掉。",
          "position" : 2,
          "image_width" : 800,
          "thumb" : "https:\/\/i1.douguo.com\/upload\/caiku\/a\/d\/7\/140_ad401fb3eefdf4fa38338688c0686347.jpg",
          "frame" : "-1",
          "image_height" : 600,
          "image" : "https:\/\/i1.douguo.com\/upload\/caiku\/a\/d\/7\/ad401fb3eefdf4fa38338688c0686347.jpg"
        },
        {
          "image" : "https:\/\/i1.douguo.com\/upload\/caiku\/5\/0\/2\/5060ac4940ffa019dcab49f4bbd22b62.jpg",
          "image_width" : 800,
          "frame" : "-1",
          "image_height" : 600,
          "thumb" : "https:\/\/i1.douguo.com\/upload\/caiku\/5\/0\/2\/140_5060ac4940ffa019dcab49f4bbd22b62.jpg",
          "content" : "生姜和大蒜全部切好，青蒜叶另外切好放一边备用。",
          "position" : 3
        },
        {
          "position" : 4,
          "thumb" : "https:\/\/i1.douguo.com\/upload\/caiku\/7\/2\/3\/140_7221f24cbcf1446f6a552ec9fb34b573.jpg",
          "image_height" : 600,
          "image" : "https:\/\/i1.douguo.com\/upload\/caiku\/7\/2\/3\/7221f24cbcf1446f6a552ec9fb34b573.jpg",
          "content" : "将清理干净的河虾放入盆中，加入料酒和胡椒粉腌制10分钟。",
          "image_width" : 800,
          "frame" : "-1"
        },
        {
          "image" : "https:\/\/i1.douguo.com\/upload\/caiku\/6\/a\/0\/6a5bec0a9b5873b34ec94f49641caff0.jpg",
          "frame" : "-1",
          "position" : 5,
          "image_width" : 800,
          "content" : "巧釜脱糖电饭煲里倒入适量油，将姜蒜铺在电饭煲外胆锅底。",
          "thumb" : "https:\/\/i1.douguo.com\/upload\/caiku\/6\/a\/0\/140_6a5bec0a9b5873b34ec94f49641caff0.jpg",
          "image_height" : 600
        },
        {
          "image" : "https:\/\/i1.douguo.com\/upload\/caiku\/0\/3\/d\/03ba3b46669277ede54344f93a7e387d.jpg",
          "frame" : "-1",
          "image_height" : 600,
          "thumb" : "https:\/\/i1.douguo.com\/upload\/caiku\/0\/3\/d\/140_03ba3b46669277ede54344f93a7e387d.jpg",
          "content" : "倒入小河虾。",
          "image_width" : 800,
          "position" : 6
        },
        {
          "position" : 7,
          "content" : "提前调一碗简单的酱汁：生抽1汤匙+耗油1汤匙+几滴老抽+清水1汤匙兑匀，倒入电饭煲内。",
          "image_width" : 800,
          "image_height" : 600,
          "thumb" : "https:\/\/i1.douguo.com\/upload\/caiku\/8\/d\/a\/140_8d0312644f854e22b771e4dda50d778a.jpg",
          "image" : "https:\/\/i1.douguo.com\/upload\/caiku\/8\/d\/a\/8d0312644f854e22b771e4dda50d778a.jpg",
          "frame" : "-1"
        },
        {
          "image" : "https:\/\/i1.douguo.com\/upload\/caiku\/f\/c\/2\/fc361337ecda48abb68c781c0334d042.jpg",
          "image_width" : 800,
          "frame" : "-1",
          "thumb" : "https:\/\/i1.douguo.com\/upload\/caiku\/f\/c\/2\/140_fc361337ecda48abb68c781c0334d042.jpg",
          "image_height" : 600,
          "position" : 8,
          "content" : "盖好盖子，选择蒸肉类功能键。"
        },
        {
          "content" : "15分钟后开盖，倒入青蒜叶，继续盖盖焖5分钟即可。",
          "image" : "https:\/\/i1.douguo.com\/upload\/caiku\/0\/2\/5\/02e2e8d2c32bf499cd27f7a7d8fedd45.jpg",
          "position" : 9,
          "frame" : "-1",
          "image_width" : 800,
          "image_height" : 600,
          "thumb" : "https:\/\/i1.douguo.com\/upload\/caiku\/0\/2\/5\/140_02e2e8d2c32bf499cd27f7a7d8fedd45.jpg"
        },
        {
          "frame" : "-1",
          "image" : "https:\/\/i1.douguo.com\/upload\/caiku\/4\/7\/7\/4784055dec620ff9bcb8a582a65552c7.jpg",
          "image_height" : 533,
          "thumb" : "https:\/\/i1.douguo.com\/upload\/caiku\/4\/7\/7\/140_4784055dec620ff9bcb8a582a65552c7.jpg",
          "image_width" : 800,
          "content" : "成品！",
          "position" : 10
        },
        {
          "image" : "https:\/\/i1.douguo.com\/upload\/caiku\/5\/c\/2\/5c37132185928a9d4b582889ef25e532.jpg",
          "image_width" : 800,
          "frame" : "-1",
          "position" : 11,
          "image_height" : 533,
          "thumb" : "https:\/\/i1.douguo.com\/upload\/caiku\/5\/c\/2\/140_5c37132185928a9d4b582889ef25e532.jpg",
          "content" : "好吃又营养！"
        }
      ],
      "rpid" : 0,
      "ipia" : [

      ],
      "recent_comments" : [

      ],
      "cookstory" : "市场买菜时，无意中看到市场有野生小河虾，就特意买了半斤回来尝尝鲜!小河虾不同于基围虾等，它生长在河道和沟渠中，个头比较小，但营养也是特别丰富的，加一点酱料焖制，非常香呢!",
      "rcs" : [

      ],
      "rips" : 0,
      "rsm" : "该功能暂停使用",
      "clicks" : "297984",
      "author" : "妍媽美食",
      "ssu" : "",
      "cook_time" : "10分钟左右",
      "purl" : "",
      "act_des" : "",
      "major" : [
        {
          "note" : "250g",
          "title" : "新鲜小河虾"
        },
        {
          "tu" : "https:\/\/m.douguo.com\/ingredients\/生姜\/detailmaterial",
          "note" : "一段",
          "title" : "生姜"
        },
        {
          "title" : "青蒜",
          "tu" : "https:\/\/m.douguo.com\/ingredients\/青蒜\/detailmaterial",
          "note" : "一根"
        },
        {
          "title" : "蒜头",
          "tu" : "https:\/\/m.douguo.com\/ingredients\/蒜头\/detailmaterial",
          "note" : "4瓣"
        },
        {
          "tu" : "https:\/\/m.douguo.com\/ingredients\/料酒\/detailmaterial",
          "note" : "1汤匙",
          "title" : "料酒"
        },
        {
          "title" : "胡椒粉",
          "note" : "3克",
          "tu" : "https:\/\/m.douguo.com\/ingredients\/胡椒粉\/detailmaterial"
        },
        {
          "tu" : "https:\/\/m.douguo.com\/ingredients\/生抽\/detailmaterial",
          "title" : "生抽",
          "note" : "1汤匙"
        },
        {
          "tu" : "https:\/\/m.douguo.com\/ingredients\/清水\/detailmaterial",
          "title" : "清水",
          "note" : "1汤匙"
        },
        {
          "tu" : "https:\/\/m.douguo.com\/ingredients\/老抽\/detailmaterial",
          "title" : "老抽",
          "note" : "几滴"
        }
      ],
      "cookstorys" : [
        {
          "color" : "",
          "id" : 0,
          "u" : "",
          "type" : 0,
          "c" : "市场买菜时，无意中看到市场有野生小河虾，就特意买了半斤回来尝尝鲜!小河虾不同于基围虾等，它生长在河道和沟渠中，个头比较小，但营养也是特别丰富的，加一点酱料焖制，非常香呢!",
          "icon" : ""
        }
      ],
      "advice" : {
        "da" : {
          "t" : "查看详细分析",
          "iu" : "https:\/\/i1.douguo.com\/upload\/banner\/f\/4\/d\/f48877e53c37759bc12ac494be82ec8d.png",
          "url" : "https:\/\/m.douguo.com\/recipe\/nutrient_self\/2359290"
        },
        "at" : "健身人群可以吃～",
        "has" : [
          {
            "t" : "低脂",
            "url" : "recipes:\/\/www.douguo.com\/simplerecipelist?t=低脂&id=低脂"
          },
          {
            "t" : "高盐",
            "url" : "recipes:\/\/www.douguo.com\/simplerecipelist?t=高盐&id=高盐"
          }
        ]
      },
      "comments_count" : 25,
      "thumb_path" : "https:\/\/i1.douguo.com\/upload\/caiku\/7\/5\/f\/300_7510daae64adbb526ae8d761e672232f.jpg",
      "ph" : 533,
      "ss" : [

      ],
      "tips" : "河虾比较鲜美，加了酱汁，可以不用放额外的盐了。",
      "first_level_comment_count" : 20
    }
  },
  "state" : "success",
  "status" : 0
}