{
  "result" : {
    "recipe" : {
      "cook_difficulty" : "",
      "old_comments" : [

      ],
      "ipit" : 0,
      "author_photo" : "http:\/\/tx1.douguo.net\/upload\/photo\/5\/6\/6\/70_56b4006c9b607edff091fc8d2e7e1356.jpeg",
      "ipt" : "",
      "ph" : 1067,
      "recent_comments" : [

      ],
      "cookstep" : [
        {
          "position" : 1,
          "frame" : "-1",
          "image_height" : 2448,
          "image" : "https:\/\/i1.douguo.com\/upload\/caiku\/f\/d\/9\/fd07033f61b28006d0ab4460c179f0d9.jpg",
          "image_width" : 3264,
          "thumb" : "https:\/\/i1.douguo.com\/upload\/caiku\/f\/d\/9\/140_fd07033f61b28006d0ab4460c179f0d9.jpg",
          "content" : "鱼儿鱼儿水中游~~~游来游去游进锅"
        },
        {
          "image_width" : 3264,
          "frame" : "-1",
          "thumb" : "https:\/\/i1.douguo.com\/upload\/caiku\/b\/8\/b\/140_b8c497a1fd51db50f7d65171a1236d7b.jpg",
          "image" : "https:\/\/i1.douguo.com\/upload\/caiku\/b\/8\/b\/b8c497a1fd51db50f7d65171a1236d7b.jpg",
          "image_height" : 2448,
          "position" : 2,
          "content" : "鲤鱼杀好洗洗"
        },
        {
          "image_width" : 3264,
          "content" : "切成块，买的鱼大了鱼头鱼尾巴我就没要了",
          "image_height" : 2448,
          "image" : "https:\/\/i1.douguo.com\/upload\/caiku\/5\/e\/a\/5e9506074e5434d7f0ddaa6208f132ba.jpg",
          "frame" : "-1",
          "thumb" : "https:\/\/i1.douguo.com\/upload\/caiku\/5\/e\/a\/140_5e9506074e5434d7f0ddaa6208f132ba.jpg",
          "position" : 3
        },
        {
          "image_height" : 2448,
          "image_width" : 3264,
          "thumb" : "https:\/\/i1.douguo.com\/upload\/caiku\/c\/a\/8\/140_caf60857d743637ebb512a45cf653948.jpg",
          "content" : "地瓜粉",
          "image" : "https:\/\/i1.douguo.com\/upload\/caiku\/c\/a\/8\/caf60857d743637ebb512a45cf653948.jpg",
          "position" : 4,
          "frame" : "-1"
        },
        {
          "image" : "https:\/\/i1.douguo.com\/upload\/caiku\/0\/a\/b\/0a6c0393f10263b52e2e419878d3c0db.jpg",
          "frame" : "-1",
          "position" : 5,
          "thumb" : "https:\/\/i1.douguo.com\/upload\/caiku\/0\/a\/b\/140_0a6c0393f10263b52e2e419878d3c0db.jpg",
          "content" : "这个做法，鱼我不推荐腌。一腌鱼失去水分感觉老了\n洒上少许胡椒粉，倒下地瓜粉抓匀",
          "image_width" : 3264,
          "image_height" : 2448
        },
        {
          "content" : "八分油下鱼开炸",
          "image" : "https:\/\/i1.douguo.com\/upload\/caiku\/4\/6\/0\/46258659aa6597cec12d7da04a41b940.jpg",
          "frame" : "-1",
          "thumb" : "https:\/\/i1.douguo.com\/upload\/caiku\/4\/6\/0\/140_46258659aa6597cec12d7da04a41b940.jpg",
          "position" : 6,
          "image_width" : 3264,
          "image_height" : 2448
        },
        {
          "image_height" : 2448,
          "frame" : "-1",
          "thumb" : "https:\/\/i1.douguo.com\/upload\/caiku\/9\/0\/f\/140_90943f9c8d80535b0a719eecaee25fdf.jpg",
          "position" : 7,
          "content" : "全炸好后热油复炸一次",
          "image" : "https:\/\/i1.douguo.com\/upload\/caiku\/9\/0\/f\/90943f9c8d80535b0a719eecaee25fdf.jpg",
          "image_width" : 3264
        },
        {
          "image" : "https:\/\/i1.douguo.com\/upload\/caiku\/a\/b\/7\/abd219f0f52a5dc4925058f8db1f8177.jpg",
          "content" : "看着相当不错",
          "frame" : "-1",
          "thumb" : "https:\/\/i1.douguo.com\/upload\/caiku\/a\/b\/7\/140_abd219f0f52a5dc4925058f8db1f8177.jpg",
          "image_height" : 1350,
          "image_width" : 1800,
          "position" : 8
        },
        {
          "position" : 9,
          "frame" : "-1",
          "image_height" : 1350,
          "image_width" : 1800,
          "content" : "留少许油下半碗水，下白糖，老陈醋，酱油煮到差不多 下点水淀粉勾兌下。倒下鱼搅拌，起锅",
          "thumb" : "https:\/\/i1.douguo.com\/upload\/caiku\/1\/5\/b\/140_1568c6f9c549bcb2a8a18c532cae040b.jpg",
          "image" : "https:\/\/i1.douguo.com\/upload\/caiku\/1\/5\/b\/1568c6f9c549bcb2a8a18c532cae040b.jpg"
        },
        {
          "frame" : "-1",
          "image_height" : 1784,
          "image" : "https:\/\/i1.douguo.com\/upload\/caiku\/3\/e\/c\/3e9c287c71a6290aacf7a80e48376e7c.jpg",
          "content" : "装盘洒点芝麻",
          "thumb" : "https:\/\/i1.douguo.com\/upload\/caiku\/3\/e\/c\/140_3e9c287c71a6290aacf7a80e48376e7c.jpg",
          "position" : 10,
          "image_width" : 1338
        }
      ],
      "recipe_list_tags" : [
        {
          "background_start_color" : "#F4F5F5",
          "text_color" : "#141515",
          "text" : "关注的人",
          "background_border_color" : "",
          "background_end_color" : "#F4F5F5",
          "jump_url" : "",
          "right_image" : ""
        },
        {
          "right_image" : "",
          "text" : "内容详细",
          "background_border_color" : "",
          "background_start_color" : "#F4F5F5",
          "text_color" : "#141515",
          "jump_url" : "",
          "background_end_color" : "#F4F5F5"
        }
      ],
      "vfurl" : "",
      "purl" : "",
      "rrpt" : "",
      "ipurl" : "",
      "author" : "豆帝煮",
      "recommendation_tag" : "",
      "ssu" : "",
      "top_mdsp" : [

      ],
      "cookwares" : [

      ],
      "thumb_height" : 0,
      "collect_status" : 0,
      "cook_id" : "1091951",
      "recommended" : 0,
      "hqu" : "recipes:\/\/www.douguo.com\/notedetail?id=21162253",
      "dish_count" : 7,
      "v_u" : "",
      "ecs" : 0,
      "story_dsp" : [

      ],
      "vc" : "178396",
      "tips" : "切鱼小心手",
      "rpid" : 0,
      "ipoi" : "",
      "minor" : [
        "{\n    note = \"3\\U5319\";\n    title = \"\\U5473\\U6781\\U9c9c\\U9171\\U6cb9\";\n}",
        "{\n    note = \"2\\U5319\";\n    title = \"\\U767d\\U7cd6\";\n    tu = \"https:\/\/https:\/\/m.douguo.com\/ingredients\/\\U767d\\U7cd6\/detailmaterial\";\n}",
        "{\n    note = \"\\U5c0f\\U91cf\";\n    title = \"\\U5730\\U74dc\\U7c89\";\n}",
        "{\n    note = \"\\U5c11\\U8bb8\";\n    title = \"\\U829d\\U9ebb\";\n    tu = \"https:\/\/https:\/\/m.douguo.com\/ingredients\/\\U829d\\U9ebb\/detailmaterial\";\n}",
        "{\n    note = \"\\U5c11\\U8bb8\";\n    title = \"\\U80e1\\U6912\\U7c89\";\n    tu = \"https:\/\/https:\/\/m.douguo.com\/ingredients\/\\U80e1\\U6912\\U7c89\/detailmaterial\";\n}",
        "{\n    note = \"2\\U5319\";\n    title = \"\\U8001\\U9648\\U918b\";\n}"
      ],
      "guide_image" : "",
      "image" : "http:\/\/i1.douguo.net\/upload\/caiku\/7\/0\/7\/300_70c84f4c1879b127d32c320aee849ad7.jpg",
      "rate" : 3,
      "clicks" : "158924",
      "cookstory" : "今天路过菜市场看见鱼不错就买了一只，选择了口味清鲜的做法",
      "rips" : 0,
      "ipia" : [

      ],
      "dish_count_text" : "7",
      "share_info" : {
        "image" : "https:\/\/cp1.douguo.com\/upload\/caiku\/7\/0\/7\/70c84f4c1879b127d32c320aee849ad7.jpg",
        "s_u" : "http:\/\/m.douguo.com\/cookbook\/1091951.html",
        "s_d" : "糖醋鲤鱼-会做饭很酷!",
        "qr_image" : "",
        "mini_program" : [

        ],
        "infos" : [
          {
            "channel" : "1",
            "qr_image" : "",
            "object_id" : "1091951",
            "mini_program" : [

            ],
            "s_d" : "#学做饭用豆果美食# 我在@豆果美食 分享了【糖醋鲤鱼-会做饭很酷!】，帅哥美眉们～你们喜欢的美食来咯！快来跟我一起做吧～查看图片了解菜谱（想要获取更多美食就看这https:\/\/m.weibo.cn\/p\/100404i33631）#会做饭很酷#",
            "image" : "https:\/\/cp1.douguo.com\/upload\/caiku\/7\/0\/7\/70c84f4c1879b127d32c320aee849ad7.jpg",
            "name" : "糖醋鲤鱼-会做饭很酷!",
            "s_u" : ""
          },
          {
            "mini_program" : [

            ],
            "qr_image" : "",
            "s_d" : "糖醋鲤鱼-会做饭很酷!",
            "channel" : "7",
            "s_u" : "http:\/\/m.douguo.com\/cookbook\/1091951.html",
            "name" : "糖醋鲤鱼-会做饭很酷!",
            "image" : "https:\/\/cp1.douguo.com\/upload\/caiku\/7\/0\/7\/70c84f4c1879b127d32c320aee849ad7.jpg",
            "object_id" : "1091951"
          },
          {
            "name" : "糖醋鲤鱼-会做饭很酷!",
            "qr_image" : "",
            "mini_program" : [

            ],
            "image" : "https:\/\/cp1.douguo.com\/upload\/caiku\/7\/0\/7\/70c84f4c1879b127d32c320aee849ad7.jpg",
            "object_id" : "1091951",
            "s_d" : "糖醋鲤鱼-会做饭很酷!",
            "s_u" : "http:\/\/m.douguo.com\/cookbook\/1091951.html",
            "channel" : "8"
          }
        ],
        "object_id" : "1091951",
        "name" : "糖醋鲤鱼-会做饭很酷!"
      },
      "major" : [
        {
          "note" : "一只",
          "tu" : "https:\/\/m.douguo.com\/ingredients\/鲤鱼\/detailmaterial",
          "title" : "鲤鱼"
        }
      ],
      "sc" : 0,
      "related_ads" : [

      ],
      "recipe_tags" : [

      ],
      "cookstorys" : [
        {
          "type" : 0,
          "id" : 0,
          "u" : "",
          "icon" : "",
          "color" : "",
          "c" : "今天路过菜市场看见鱼不错就买了一只，选择了口味清鲜的做法"
        }
      ],
      "packages_id" : [

      ],
      "thumb_path" : "https:\/\/i1.douguo.com\/upload\/caiku\/7\/0\/7\/300_70c84f4c1879b127d32c320aee849ad7.jpg",
      "rpst" : "",
      "eu" : "recipes:\/\/www.douguo.com\/postdetail?id=242016",
      "pw" : 800,
      "views_count_text" : "17.8万",
      "recommend_label" : "7人学做",
      "bs" : [

      ],
      "title_ad" : [

      ],
      "brand_day_dsp" : [

      ],
      "notes" : [

      ],
      "rewarded_video_dsp" : [

      ],
      "comments_count_text" : "22",
      "levelid" : 2,
      "author_id" : 4729041,
      "ipci" : "",
      "tags" : [
        "{\n    text = \"\\U5bb6\\U5e38\\U83dc\";\n}",
        "{\n    text = \"\\U6c34\\U4ea7\";\n}",
        "{\n    text = \"\\U9178\\U751c\";\n}"
      ],
      "cook_time_image" : "",
      "photo_path" : "https:\/\/i1.douguo.com\/upload\/caiku\/7\/0\/7\/600_70c84f4c1879b127d32c320aee849ad7.jpg",
      "ss" : [

      ],
      "rate_show" : 0,
      "release_time" : "",
      "sr" : "",
      "mid_mdsp" : [

      ],
      "rpt" : "",
      "favo_counts" : 1675,
      "vu" : "",
      "rcs" : [

      ],
      "author_verified" : 1,
      "display_ingredient" : 1,
      "first_level_comment_count" : 7,
      "rate_count" : 1,
      "su" : "",
      "comments" : [
        "{\n    ac = \"#999999\";\n    at = \"\";\n    ccc = 10;\n    \"child_comments\" =     (\n                {\n            ac = \"#999999\";\n            at = \"\";\n            ccc = 0;\n            city = \"\";\n            cmc = 2;\n            content =             (\n                                {\n                    c = \"  T^T\\Uff0c\\U8fd8\\U4e0d\\U591f\\U2026\\U2026\";\n                }\n            );\n            ia = 1;\n            id = 1927697;\n            \"ip_address_location\" = \"\";\n            like = 0;\n            \"like_count\" = 0;\n            \"reply_id\" = 1927690;\n            \"reply_user\" =             {\n                \"followers_count_text\" = \"\";\n                id = 5874162;\n                \"is_prime\" = 0;\n                lv = 0;\n                lvl = 5;\n                n = \"\\U5b87\\U58f0\\U7231\\U7f8e\\U98df\";\n                p = \"http:\/\/tx1.douguo.net\/upload\/photo\/4\/f\/3\/70_u1155483683011205432.jpg\";\n                \"progress_image\" = \"\";\n                \"recipes_count_text\" = \"\";\n                relationship = \"-1\";\n                title = \"\";\n                v = 0;\n                \"verified_image\" = \"\";\n            };\n            \"sticker_icon\" =             (\n            );\n            time = \"2015-01-05 01:18:47\";\n            u =             {\n                \"followers_count_text\" = \"\";\n                id = 4729041;\n                \"is_prime\" = 0;\n                lv = 0;\n                lvl = 6;\n                n = \"\\U8c46\\U5e1d\\U716e\";\n                p = \"http:\/\/tx1.douguo.net\/upload\/photo\/5\/6\/6\/70_56b4006c9b607edff091fc8d2e7e1356.jpeg\";\n                \"progress_image\" = \"\";\n                \"recipes_count_text\" = \"\";\n                relationship = \"-1\";\n                title = \"\";\n                v = 1;\n                \"verified_image\" = \"\";\n            };\n        },\n                {\n            ac = \"#999999\";\n            at = \"\";\n            ccc = 0;\n            city = \"\";\n            cmc = 2;\n            content =             (\n                                {\n                    c = \" \\U53ef\\U4ee5\\U5c1d\\U8bd5\\U4e00\\U4e0b\\U660e\\U5feb\\U8272\\U8c03\\U7684!\";\n                }\n            );\n            ia = 0;\n            id = 1927715;\n            \"ip_address_location\" = \"\";\n            like = 0;\n            \"like_count\" = 0;\n            \"reply_id\" = 1927697;\n            \"reply_user\" =             {\n                \"followers_count_text\" = \"\";\n                id = 4729041;\n                \"is_prime\" = 0;\n                lv = 0;\n                lvl = 6;\n                n = \"\\U8c46\\U5e1d\\U716e\";\n                p = \"http:\/\/tx1.douguo.net\/upload\/photo\/5\/6\/6\/70_56b4006c9b607edff091fc8d2e7e1356.jpeg\";\n                \"progress_image\" = \"\";\n                \"recipes_count_text\" = \"\";\n                relationship = \"-1\";\n                title = \"\";\n                v = 1;\n                \"verified_image\" = \"\";\n            };\n            \"sticker_icon\" =             (\n            );\n            time = \"2015-01-05 01:25:36\";\n            u =             {\n                \"followers_count_text\" = \"\";\n                id = 5874162;\n                \"is_prime\" = 0;\n                lv = 0;\n                lvl = 5;\n                n = \"\\U5b87\\U58f0\\U7231\\U7f8e\\U98df\";\n                p = \"http:\/\/tx1.douguo.net\/upload\/photo\/4\/f\/3\/70_u1155483683011205432.jpg\";\n                \"progress_image\" = \"\";\n                \"recipes_count_text\" = \"\";\n                relationship = \"-1\";\n                title = \"\";\n                v = 0;\n                \"verified_image\" = \"\";\n            };\n        }\n    );\n    city = \"\";\n    cmc = 2;\n    content =     (\n                {\n            c = \"\\U8c46\\U961f\\U7684\\U62cd\\U7167\\U6c34\\U5e73\\U8d8a\\U6765\\U8d8a\\U9ad8\\U4e86\\U2026\";\n        }\n    );\n    ia = 0;\n    id = 1927690;\n    \"ip_address_location\" = \"\";\n    like = 0;\n    \"like_count\" = 0;\n    \"reply_id\" = 0;\n    \"sticker_icon\" =     (\n    );\n    time = \"2015-01-05 01:16:52\";\n    u =     {\n        \"followers_count_text\" = \"\";\n        id = 5874162;\n        \"is_prime\" = 0;\n        lv = 0;\n        lvl = 5;\n        n = \"\\U5b87\\U58f0\\U7231\\U7f8e\\U98df\";\n        p = \"http:\/\/tx1.douguo.net\/upload\/photo\/4\/f\/3\/70_u1155483683011205432.jpg\";\n        \"progress_image\" = \"\";\n        \"recipes_count_text\" = \"\";\n        relationship = \"-1\";\n        title = \"\";\n        v = 0;\n        \"verified_image\" = \"\";\n    };\n}",
        "{\n    ac = \"#999999\";\n    at = \"\";\n    ccc = 3;\n    \"child_comments\" =     (\n                {\n            ac = \"#999999\";\n            at = \"\";\n            ccc = 0;\n            city = \"\";\n            cmc = 2;\n            content =             (\n                                {\n                    c = \" \\U89c1\\U7b11\\U4e86\\U4f60\\U90fd\\U4e0d\\U53d1\\U83dc\\U8c31 \";\n                }\n            );\n            ia = 1;\n            id = 1927179;\n            \"ip_address_location\" = \"\";\n            like = 0;\n            \"like_count\" = 0;\n            \"reply_id\" = 1927163;\n            \"reply_user\" =             {\n                \"followers_count_text\" = \"\";\n                id = 5225460;\n                \"is_prime\" = 0;\n                lv = 0;\n                lvl = 6;\n                n = \"\\U590f\\U5929\\U7684\\U8584\\U83774\";\n                p = \"http:\/\/tx1.douguo.net\/upload\/photo\/9\/6\/6\/70_u08029776525304204515.jpg\";\n                \"progress_image\" = \"\";\n                \"recipes_count_text\" = \"\";\n                relationship = \"-1\";\n                title = \"\";\n                v = 0;\n                \"verified_image\" = \"\";\n            };\n            \"sticker_icon\" =             (\n            );\n            time = \"2015-01-04 15:58:34\";\n            u =             {\n                \"followers_count_text\" = \"\";\n                id = 4729041;\n                \"is_prime\" = 0;\n                lv = 0;\n                lvl = 6;\n                n = \"\\U8c46\\U5e1d\\U716e\";\n                p = \"http:\/\/tx1.douguo.net\/upload\/photo\/5\/6\/6\/70_56b4006c9b607edff091fc8d2e7e1356.jpeg\";\n                \"progress_image\" = \"\";\n                \"recipes_count_text\" = \"\";\n                relationship = \"-1\";\n                title = \"\";\n                v = 1;\n                \"verified_image\" = \"\";\n            };\n        },\n                {\n            ac = \"#999999\";\n            at = \"\";\n            ccc = 0;\n            city = \"\";\n            cmc = 2;\n            content =             (\n                                {\n                    c = \" \\U592a\\U9ebb\\U70e6\\U4e86\\Uff0c\\U6211\\U505a\\U7684\\U83dc\\U5f88\\U7b80\\U5355\\Uff0c\\U5927\\U5bb6\\U90fd\\U4f1a\";\n                }\n            );\n            ia = 0;\n            id = 1927187;\n            \"ip_address_location\" = \"\";\n            like = 0;\n            \"like_count\" = 0;\n            \"reply_id\" = 1927179;\n            \"reply_user\" =             {\n                \"followers_count_text\" = \"\";\n                id = 4729041;\n                \"is_prime\" = 0;\n                lv = 0;\n                lvl = 6;\n                n = \"\\U8c46\\U5e1d\\U716e\";\n                p = \"http:\/\/tx1.douguo.net\/upload\/photo\/5\/6\/6\/70_56b4006c9b607edff091fc8d2e7e1356.jpeg\";\n                \"progress_image\" = \"\";\n                \"recipes_count_text\" = \"\";\n                relationship = \"-1\";\n                title = \"\";\n                v = 1;\n                \"verified_image\" = \"\";\n            };\n            \"sticker_icon\" =             (\n            );\n            time = \"2015-01-04 16:02:13\";\n            u =             {\n                \"followers_count_text\" = \"\";\n                id = 5225460;\n                \"is_prime\" = 0;\n                lv = 0;\n                lvl = 6;\n                n = \"\\U590f\\U5929\\U7684\\U8584\\U83774\";\n                p = \"http:\/\/tx1.douguo.net\/upload\/photo\/9\/6\/6\/70_u08029776525304204515.jpg\";\n                \"progress_image\" = \"\";\n                \"recipes_count_text\" = \"\";\n                relationship = \"-1\";\n                title = \"\";\n                v = 0;\n                \"verified_image\" = \"\";\n            };\n        }\n    );\n    city = \"\";\n    cmc = 2;\n    content =     (\n                {\n            c = \"\\U8c46\\U8c46\\U7684\\U83dc\\U8d8a\\U505a\\U8d8a\\U597d\\U4e86\";\n        }\n    );\n    ia = 0;\n    id = 1927163;\n    \"ip_address_location\" = \"\";\n    like = 0;\n    \"like_count\" = 0;\n    \"reply_id\" = 0;\n    \"sticker_icon\" =     (\n    );\n    time = \"2015-01-04 15:50:25\";\n    u =     {\n        \"followers_count_text\" = \"\";\n        id = 5225460;\n        \"is_prime\" = 0;\n        lv = 0;\n        lvl = 6;\n        n = \"\\U590f\\U5929\\U7684\\U8584\\U83774\";\n        p = \"http:\/\/tx1.douguo.net\/upload\/photo\/9\/6\/6\/70_u08029776525304204515.jpg\";\n        \"progress_image\" = \"\";\n        \"recipes_count_text\" = \"\";\n        relationship = \"-1\";\n        title = \"\";\n        v = 0;\n        \"verified_image\" = \"\";\n    };\n}",
        "{\n    ac = \"#999999\";\n    at = \"\";\n    ccc = 1;\n    \"child_comments\" =     (\n                {\n            ac = \"#999999\";\n            at = \"\";\n            ccc = 0;\n            city = \"\";\n            cmc = 2;\n            content =             (\n                                {\n                    c = \"  \\U505a\\U7684\\U53e3\\U5473\\U4e0d\\U4e00\\U6837\\Uff0c\\U4e0d\\U9700\\U8981\\U756a\\U8304\\U9171\";\n                }\n            );\n            ia = 1;\n            id = 2139051;\n            \"ip_address_location\" = \"\";\n            like = 0;\n            \"like_count\" = 0;\n            \"reply_id\" = 2139040;\n            \"reply_user\" =             {\n                \"followers_count_text\" = \"\";\n                id = 8725103;\n                \"is_prime\" = 0;\n                lv = 0;\n                lvl = 1;\n                n = \"\\U6cf0\\U8fbe\\U5bb6\\U946b\";\n                p = \"http:\/\/tx1.douguo.net\/upload\/photo\/5\/6\/3\/70_u27545255288819201103.jpg\";\n                \"progress_image\" = \"\";\n                \"recipes_count_text\" = \"\";\n                relationship = \"-1\";\n                title = \"\";\n                v = 0;\n                \"verified_image\" = \"\";\n            };\n            \"sticker_icon\" =             (\n            );\n            time = \"2015-03-29 12:42:25\";\n            u =             {\n                \"followers_count_text\" = \"\";\n                id = 4729041;\n                \"is_prime\" = 0;\n                lv = 0;\n                lvl = 6;\n                n = \"\\U8c46\\U5e1d\\U716e\";\n                p = \"http:\/\/tx1.douguo.net\/upload\/photo\/5\/6\/6\/70_56b4006c9b607edff091fc8d2e7e1356.jpeg\";\n                \"progress_image\" = \"\";\n                \"recipes_count_text\" = \"\";\n                relationship = \"-1\";\n                title = \"\";\n                v = 1;\n                \"verified_image\" = \"\";\n            };\n        }\n    );\n    city = \"\";\n    cmc = 2;\n    content =     (\n                {\n            c = \"\\U4e0d\\U653e\\U756a\\U8304\\U9171\\U5417\";\n        }\n    );\n    ia = 0;\n    id = 2139040;\n    \"ip_address_location\" = \"\";\n    like = 0;\n    \"like_count\" = 0;\n    \"reply_id\" = 0;\n    \"sticker_icon\" =     (\n    );\n    time = \"2015-03-29 12:39:54\";\n    u =     {\n        \"followers_count_text\" = \"\";\n        id = 8725103;\n        \"is_prime\" = 0;\n        lv = 0;\n        lvl = 1;\n        n = \"\\U6cf0\\U8fbe\\U5bb6\\U946b\";\n        p = \"http:\/\/tx1.douguo.net\/upload\/photo\/5\/6\/3\/70_u27545255288819201103.jpg\";\n        \"progress_image\" = \"\";\n        \"recipes_count_text\" = \"\";\n        relationship = \"-1\";\n        title = \"\";\n        v = 0;\n        \"verified_image\" = \"\";\n    };\n}"
      ],
      "cook_difficulty_image" : "",
      "btm_dsp" : [

      ],
      "rsm" : "该功能暂停使用",
      "rdsps" : [

      ],
      "act_des" : "",
      "comments_count" : 22,
      "create_time" : "2015-01-04 20:55:51",
      "user" : {
        "following_count" : 0,
        "mobile" : "",
        "avatar_medium" : "http:\/\/tx1.douguo.net\/upload\/photo\/5\/6\/6\/140_56b4006c9b607edff091fc8d2e7e1356.jpeg",
        "lvl" : 6,
        "favorites_count" : 0,
        "verified_image" : "https:\/\/i1.douguo.com\/upload\/note\/d\/a\/a\/da84247847aebe48d9dd0fcdac88862a.png",
        "user_cover" : "",
        "nick" : "豆帝煮",
        "lv" : 0,
        "favor_diaries_count" : 0,
        "user_photo" : "http:\/\/tx1.douguo.net\/upload\/photo\/5\/6\/6\/70_56b4006c9b607edff091fc8d2e7e1356.jpeg",
        "qzone_nick" : "",
        "birthday" : "",
        "introduction" : "",
        "is_prime" : 0,
        "sign" : "",
        "dishes_count" : 0,
        "coursecount" : 0,
        "user_large_photo" : "http:\/\/tx1.douguo.net\/upload\/photo\/5\/6\/6\/yuan_56b4006c9b607edff091fc8d2e7e1356.jpeg",
        "verified_url" : "https:\/\/m.douguo.com\/user\/prodesc",
        "user_id" : "4729041",
        "verified" : 1,
        "qq_weibo_nick" : "",
        "progress_image" : "",
        "fc" : 0,
        "age" : "",
        "point" : 0,
        "weibo_nick" : "",
        "location" : 0,
        "pc" : 0,
        "email" : "",
        "gender" : 1,
        "recipes_count" : 0,
        "regist_time" : "",
        "userid" : "4729041",
        "setted_email" : 0,
        "diaries_count" : 0,
        "followers_count" : 0,
        "subscription_article_count" : 0,
        "subscription" : 0
      },
      "favo_counts_text" : "1675",
      "dishes" : [

      ],
      "title" : "糖醋鲤鱼",
      "cook_time" : "",
      "hq" : 1,
      "original_photo_path" : "http:\/\/i1.douguo.net\/upload\/caiku\/7\/0\/7\/yuan_70c84f4c1879b127d32c320aee849ad7.jpg",
      "rrps" : [

      ]
    }
  },
  "status" : 0,
  "state" : "success"
}