{
  "status" : 0,
  "result" : {
    "recipe" : {
      "sr" : "",
      "title" : "盐水虾",
      "rpt" : "",
      "title_ad" : [

      ],
      "rpid" : 0,
      "author_photo" : "http:\/\/tx1.douguo.net\/upload\/photo\/8\/8\/0\/70_u35569582296112174833.jpg",
      "display_ingredient" : 1,
      "eu" : "recipes:\/\/www.douguo.com\/postdetail?id=242016",
      "comments_count_text" : "4",
      "ss" : [

      ],
      "top_mdsp" : [

      ],
      "author_verified" : 0,
      "bs" : [

      ],
      "author_id" : 10107712,
      "author" : "豆粉5695826",
      "cook_id" : "1585888",
      "advice" : {
        "at" : "有助于构成或修复人体组织～",
        "has" : [
          {
            "t" : "富含蛋白质",
            "url" : "recipes:\/\/www.douguo.com\/simplerecipelist?t=富含蛋白质&id=富含蛋白质"
          },
          {
            "t" : "低脂",
            "url" : "recipes:\/\/www.douguo.com\/simplerecipelist?t=低脂&id=低脂"
          }
        ],
        "da" : {
          "t" : "查看详细分析",
          "iu" : "https:\/\/i1.douguo.com\/upload\/banner\/f\/4\/d\/f48877e53c37759bc12ac494be82ec8d.png",
          "url" : "https:\/\/m.douguo.com\/recipe\/nutrient_self\/1585888"
        }
      },
      "rrpt" : "",
      "rewarded_video_dsp" : [

      ],
      "recent_comments" : [

      ],
      "ecs" : 0,
      "original_photo_path" : "http:\/\/i1.douguo.net\/upload\/caiku\/1\/2\/1\/yuan_12c9c4758c6ae434d9bf338d342840f1.jpeg",
      "views_count_text" : "3.0万",
      "recommend_label" : "3.0万人看过",
      "pw" : 800,
      "v_u" : "",
      "dishes" : [

      ],
      "dish_count" : 0,
      "ipit" : 0,
      "purl" : "",
      "favo_counts_text" : "110",
      "cook_time" : "",
      "hq" : 0,
      "old_comments" : [

      ],
      "cookstorys" : [
        {
          "type" : 0,
          "u" : "",
          "icon" : "",
          "color" : "",
          "id" : 0,
          "c" : "又到了 吃虾的季节。补钙 不长胖 哈哈"
        }
      ],
      "share_info" : {
        "name" : "盐水虾-会做饭很酷!",
        "s_u" : "http:\/\/m.douguo.com\/cookbook\/1585888.html",
        "infos" : [
          {
            "mini_program" : [

            ],
            "s_u" : "",
            "qr_image" : "",
            "s_d" : "#学做饭用豆果美食# 会做饭真是太酷了！我在@豆果美食 分享了【盐水虾-会做饭很酷!】，这道菜真的神仙美味！喜欢的一定要试试绝对不会错的！～查看图片了解菜谱（快来点击https:\/\/m.weibo.cn\/p\/100404i33631和我一起修炼厨艺吧）",
            "object_id" : "1585888",
            "channel" : "1",
            "image" : "https:\/\/cp1.douguo.com\/upload\/caiku\/1\/2\/1\/12c9c4758c6ae434d9bf338d342840f1.jpeg",
            "name" : "盐水虾-会做饭很酷!"
          },
          {
            "name" : "盐水虾-会做饭很酷!",
            "channel" : "7",
            "mini_program" : [

            ],
            "object_id" : "1585888",
            "image" : "https:\/\/cp1.douguo.com\/upload\/caiku\/1\/2\/1\/12c9c4758c6ae434d9bf338d342840f1.jpeg",
            "s_u" : "http:\/\/m.douguo.com\/cookbook\/1585888.html",
            "s_d" : "盐水虾-会做饭很酷!",
            "qr_image" : ""
          },
          {
            "object_id" : "1585888",
            "image" : "https:\/\/cp1.douguo.com\/upload\/caiku\/1\/2\/1\/12c9c4758c6ae434d9bf338d342840f1.jpeg",
            "s_d" : "盐水虾-会做饭很酷!",
            "channel" : "8",
            "s_u" : "http:\/\/m.douguo.com\/cookbook\/1585888.html",
            "qr_image" : "",
            "name" : "盐水虾-会做饭很酷!",
            "mini_program" : [

            ]
          }
        ],
        "s_d" : "盐水虾-会做饭很酷!",
        "image" : "https:\/\/cp1.douguo.com\/upload\/caiku\/1\/2\/1\/12c9c4758c6ae434d9bf338d342840f1.jpeg",
        "qr_image" : "",
        "mini_program" : [

        ],
        "object_id" : "1585888"
      },
      "tags" : [

      ],
      "comments" : [
        "{\n    ac = \"#999999\";\n    at = \"\";\n    ccc = 0;\n    \"child_comments\" =     (\n    );\n    city = \"\";\n    cmc = 2;\n    content =     (\n                {\n            c = \"\\U6211\\U4e00\\U76f4\\U5728\\U5237\\U8c46\\U679c\\U73a9\\U5462\\Uff0c\\U5c31\\U770b\\U5230\\U4f60\\U7684\\U83dc\\U8c31~~ \";\n        }\n    );\n    ia = 0;\n    id = 5466888;\n    \"ip_address_location\" = \"\";\n    like = 0;\n    \"like_count\" = 0;\n    \"reply_id\" = 0;\n    \"sticker_icon\" =     (\n    );\n    time = \"2018-03-23 02:29:31\";\n    u =     {\n        \"followers_count_text\" = \"\";\n        id = 18499282;\n        \"is_prime\" = 0;\n        lv = 0;\n        lvl = 3;\n        n = \"\\U6dd1\\U6dd1\\U6dd1\\U6dd1\\U5973\\U8303\";\n        p = \"http:\/\/tx1.douguo.net\/upload\/photo\/a\/6\/6\/70_u15698968738640408172957.jpg\";\n        \"progress_image\" = \"\";\n        \"recipes_count_text\" = \"\";\n        relationship = \"-1\";\n        title = \"\";\n        v = 0;\n        \"verified_image\" = \"\";\n    };\n}",
        "{\n    ac = \"#999999\";\n    at = \"\";\n    ccc = 0;\n    \"child_comments\" =     (\n    );\n    city = \"\";\n    cmc = 2;\n    content =     (\n                {\n            c = \"\\U591a\\U5927\\U624d\\U80fd\\U5403\";\n        }\n    );\n    ia = 0;\n    id = 5466889;\n    \"ip_address_location\" = \"\";\n    like = 0;\n    \"like_count\" = 0;\n    \"reply_id\" = 0;\n    \"sticker_icon\" =     (\n    );\n    time = \"2018-03-23 02:29:31\";\n    u =     {\n        \"followers_count_text\" = \"\";\n        id = 18531791;\n        \"is_prime\" = 0;\n        lv = 0;\n        lvl = 4;\n        n = \"\\U6709\\U8da3\\U7684\\U7a7f\\U5fc3\\U83b2\\U5f88\\U53e4\\U8463\";\n        p = \"http:\/\/tx1.douguo.net\/upload\/photo\/1\/1\/1\/70_308819173261b0de241dc8e387792732.png\";\n        \"progress_image\" = \"\";\n        \"recipes_count_text\" = \"\";\n        relationship = \"-1\";\n        title = \"\";\n        v = 0;\n        \"verified_image\" = \"\";\n    };\n}",
        "{\n    ac = \"#999999\";\n    at = \"\";\n    ccc = 0;\n    \"child_comments\" =     (\n    );\n    city = \"\";\n    cmc = 2;\n    content =     (\n                {\n            c = \"\\U597d\\U68d2\\U554a~~ \";\n        }\n    );\n    ia = 0;\n    id = 4953875;\n    \"ip_address_location\" = \"\";\n    like = 0;\n    \"like_count\" = 0;\n    \"reply_id\" = 0;\n    \"sticker_icon\" =     (\n    );\n    time = \"2017-07-30 14:07:05\";\n    u =     {\n        \"followers_count_text\" = \"\";\n        id = 18478041;\n        \"is_prime\" = 0;\n        lv = 0;\n        lvl = 4;\n        n = \"\\U751c\\U751c\\U7684\\U5348\\U540e\";\n        p = \"http:\/\/tx1.douguo.net\/upload\/photo\/9\/7\/6\/70_u03855638276974175627.jpg\";\n        \"progress_image\" = \"\";\n        \"recipes_count_text\" = \"\";\n        relationship = \"-1\";\n        title = \"\";\n        v = 0;\n        \"verified_image\" = \"\";\n    };\n}"
      ],
      "recommended" : 0,
      "dish_count_text" : "",
      "cookstory" : "又到了 吃虾的季节。补钙 不长胖 哈哈",
      "thumb_height" : 0,
      "rcs" : [

      ],
      "rips" : 0,
      "tips" : "",
      "create_time" : "2017-07-30 20:34:46",
      "cook_difficulty_image" : "",
      "packages_id" : [

      ],
      "ipurl" : "",
      "user" : {
        "subscription" : 0,
        "following_count" : 0,
        "dishes_count" : 0,
        "verified" : 0,
        "verified_url" : "https:\/\/m.douguo.com\/user\/prodesc",
        "diaries_count" : 0,
        "progress_image" : "",
        "avatar_medium" : "http:\/\/tx1.douguo.net\/upload\/photo\/8\/8\/0\/140_u35569582296112174833.jpg",
        "age" : "",
        "user_large_photo" : "http:\/\/tx1.douguo.net\/upload\/photo\/8\/8\/0\/yuan_u35569582296112174833.jpg",
        "userid" : "10107712",
        "pc" : 0,
        "introduction" : "",
        "qq_weibo_nick" : "",
        "favorites_count" : 0,
        "verified_image" : "",
        "sign" : "",
        "qzone_nick" : "",
        "recipes_count" : 0,
        "user_photo" : "http:\/\/tx1.douguo.net\/upload\/photo\/8\/8\/0\/70_u35569582296112174833.jpg",
        "coursecount" : 0,
        "lv" : 0,
        "regist_time" : "",
        "birthday" : "",
        "mobile" : "",
        "user_id" : "10107712",
        "weibo_nick" : "",
        "is_prime" : 0,
        "email" : "",
        "followers_count" : 0,
        "setted_email" : 0,
        "nick" : "豆粉5695826",
        "lvl" : 6,
        "favor_diaries_count" : 0,
        "user_cover" : "",
        "point" : 0,
        "location" : 0,
        "gender" : 2,
        "fc" : 0,
        "subscription_article_count" : 0
      },
      "btm_dsp" : [

      ],
      "ipia" : [

      ],
      "rate_count" : 0,
      "rrps" : [

      ],
      "minor" : [

      ],
      "photo_path" : "https:\/\/i1.douguo.com\/upload\/caiku\/1\/2\/1\/600_12c9c4758c6ae434d9bf338d342840f1.jpeg",
      "image" : "http:\/\/i1.douguo.net\/upload\/caiku\/1\/2\/1\/300_12c9c4758c6ae434d9bf338d342840f1.jpeg",
      "mid_mdsp" : [

      ],
      "major" : [
        {
          "title" : "河虾",
          "tu" : "https:\/\/m.douguo.com\/ingredients\/河虾\/detailmaterial",
          "note" : "500g"
        },
        {
          "title" : "葱",
          "tu" : "https:\/\/m.douguo.com\/ingredients\/葱\/detailmaterial",
          "note" : "三四根"
        },
        {
          "note" : "4g",
          "tu" : "https:\/\/m.douguo.com\/ingredients\/姜\/detailmaterial",
          "title" : "姜"
        },
        {
          "note" : "一个",
          "tu" : "https:\/\/m.douguo.com\/ingredients\/八角\/detailmaterial",
          "title" : "八角"
        },
        {
          "title" : "盐",
          "tu" : "https:\/\/m.douguo.com\/ingredients\/盐\/detailmaterial",
          "note" : "多一点（好入味）"
        },
        {
          "title" : "花椒",
          "tu" : "https:\/\/m.douguo.com\/ingredients\/花椒\/detailmaterial",
          "note" : "2g"
        }
      ],
      "recipe_list_tags" : [
        {
          "jump_url" : "",
          "text_color" : "#141515",
          "background_end_color" : "#F4F5F5",
          "text" : "关注的人",
          "background_start_color" : "#F4F5F5",
          "background_border_color" : "",
          "right_image" : ""
        }
      ],
      "collect_status" : 0,
      "vfurl" : "",
      "recipe_tags" : [

      ],
      "rpst" : "",
      "favo_counts" : 110,
      "brand_day_dsp" : [

      ],
      "ipci" : "",
      "cook_time_image" : "",
      "ipoi" : "",
      "act_des" : "",
      "related_ads" : [

      ],
      "cook_difficulty" : "",
      "cookstep" : [
        {
          "content" : "又到了 吃虾的季节。补钙 不长胖 哈哈。 活虾 冲洗。洗净",
          "frame" : "-1",
          "image_width" : 1440,
          "image_height" : 1920,
          "thumb" : "https:\/\/i1.douguo.com\/upload\/caiku\/2\/4\/3\/140_242ae2fc592054300d0622dc82324353.jpeg",
          "position" : 1,
          "image" : "https:\/\/i1.douguo.com\/upload\/caiku\/2\/4\/3\/242ae2fc592054300d0622dc82324353.jpeg"
        },
        {
          "thumb" : "https:\/\/i1.douguo.com\/upload\/caiku\/1\/1\/2\/140_11859c394c4339e249a8e029fab14c12.jpeg",
          "image_width" : 800,
          "position" : 2,
          "image_height" : 600,
          "content" : "放上述调料。加水 末过 虾。煮。 开锅后。再煮5分钟",
          "image" : "https:\/\/i1.douguo.com\/upload\/caiku\/1\/1\/2\/11859c394c4339e249a8e029fab14c12.jpeg",
          "frame" : "-1"
        },
        {
          "thumb" : "https:\/\/i1.douguo.com\/upload\/caiku\/8\/f\/0\/140_8f964866d98227cb8a915b0ea4ce7770.jpeg",
          "image_height" : 600,
          "position" : 3,
          "image_width" : 800,
          "content" : "营养没脂肪。我自己能剥半碗",
          "frame" : "-1",
          "image" : "https:\/\/i1.douguo.com\/upload\/caiku\/8\/f\/0\/8f964866d98227cb8a915b0ea4ce7770.jpeg"
        },
        {
          "image_width" : 800,
          "image_height" : 600,
          "thumb" : "https:\/\/i1.douguo.com\/upload\/caiku\/2\/7\/1\/140_2708b465448359528773711496825e71.jpeg",
          "image" : "https:\/\/i1.douguo.com\/upload\/caiku\/2\/7\/1\/2708b465448359528773711496825e71.jpeg",
          "frame" : "-1",
          "position" : 4,
          "content" : "午饭。就是它了"
        }
      ],
      "cookwares" : [

      ],
      "sc" : 0,
      "story_dsp" : [

      ],
      "release_time" : "",
      "vc" : "30303",
      "comments_count" : 4,
      "ipt" : "",
      "clicks" : "28064",
      "hqu" : "recipes:\/\/www.douguo.com\/notedetail?id=21162253",
      "ph" : 600,
      "rate" : 0,
      "thumb_path" : "https:\/\/i1.douguo.com\/upload\/caiku\/1\/2\/1\/300_12c9c4758c6ae434d9bf338d342840f1.jpeg",
      "recommendation_tag" : "",
      "first_level_comment_count" : 4,
      "rsm" : "该功能暂停使用",
      "vu" : "",
      "ssu" : "",
      "rdsps" : [

      ],
      "rate_show" : 0,
      "levelid" : 3,
      "su" : "",
      "guide_image" : "",
      "notes" : [

      ]
    }
  },
  "state" : "success"
}