{
  "result" : {
    "recipe" : {
      "recent_comments" : [

      ],
      "cook_time" : "10~30分钟",
      "user" : {
        "subscription_article_count" : 0,
        "user_photo" : "http:\/\/tx1.douguo.net\/upload\/photo\/1\/9\/8\/70_u74420362351028124115.jpeg",
        "user_large_photo" : "http:\/\/tx1.douguo.net\/upload\/photo\/1\/9\/8\/yuan_u74420362351028124115.jpeg",
        "followers_count" : 0,
        "qzone_nick" : "",
        "point" : 0,
        "avatar_medium" : "http:\/\/tx1.douguo.net\/upload\/photo\/1\/9\/8\/140_u74420362351028124115.jpeg",
        "user_cover" : "",
        "verified_image" : "https:\/\/i1.douguo.com\/upload\/note\/d\/a\/a\/da84247847aebe48d9dd0fcdac88862a.png",
        "weibo_nick" : "",
        "recipes_count" : 0,
        "introduction" : "",
        "qq_weibo_nick" : "",
        "setted_email" : 0,
        "birthday" : "",
        "following_count" : 0,
        "favor_diaries_count" : 0,
        "is_prime" : 0,
        "user_id" : "18700917",
        "userid" : "18700917",
        "verified" : 1,
        "location" : 0,
        "lv" : 0,
        "email" : "",
        "dishes_count" : 0,
        "age" : "",
        "mobile" : "",
        "fc" : 0,
        "verified_url" : "https:\/\/m.douguo.com\/user\/prodesc",
        "gender" : 2,
        "subscription" : 0,
        "progress_image" : "",
        "sign" : "",
        "favorites_count" : 0,
        "pc" : 0,
        "lvl" : 7,
        "nick" : "清欢ssk",
        "diaries_count" : 0,
        "regist_time" : "",
        "coursecount" : 0
      },
      "favo_counts_text" : "2143",
      "sc" : 0,
      "ipia" : [

      ],
      "advice" : {
        "da" : {
          "url" : "https:\/\/m.douguo.com\/recipe\/nutrient_self\/3008702",
          "iu" : "https:\/\/i1.douguo.com\/upload\/banner\/f\/4\/d\/f48877e53c37759bc12ac494be82ec8d.png",
          "t" : "查看详细分析"
        },
        "at" : "是组织形成和生长的主要营养素～",
        "has" : [
          {
            "url" : "recipes:\/\/www.douguo.com\/simplerecipelist?t=富含蛋白质&id=富含蛋白质",
            "t" : "富含蛋白质"
          },
          {
            "t" : "富含铁",
            "url" : "recipes:\/\/www.douguo.com\/simplerecipelist?t=富含铁&id=富含铁"
          }
        ]
      },
      "sr" : "",
      "thumb_path" : "https:\/\/i1.douguo.com\/upload\/caiku\/4\/9\/5\/300_49bdf3d937bff84dc614aa0101835855.jpeg",
      "rdsps" : [

      ],
      "ipurl" : "",
      "ipit" : 0,
      "act_des" : "",
      "rrps" : [

      ],
      "views_count_text" : "56.3万",
      "title_ad" : [

      ],
      "rips" : 0,
      "ss" : [

      ],
      "vc" : "562865",
      "levelid" : 2,
      "comments_count" : 11,
      "rate" : 5,
      "cook_difficulty_image" : "",
      "packages_id" : [

      ],
      "old_comments" : [

      ],
      "recommendation_tag" : "",
      "vu" : "",
      "favo_counts" : 2143,
      "btm_dsp" : [

      ],
      "hq" : 1,
      "cookstory" : "鱼香肉丝，一道吃过就让人念念不忘的美味川菜。作为深受食客喜爱的川菜，鱼香肉丝奇就奇在无“鱼”却能品出鱼味。要吃出鱼味，全靠一碗鱼香汁来调味。鱼香汁的调味并不复杂，用的全是厨房里常备的调味品：一汤匙的料酒，一汤匙的酱油，一汤匙的香醋，一汤匙的白糖，两汤匙的水淀粉，两汤匙的鲜汤混合即成。鱼香汁虽然取材简单，却能搭配出奇妙的口感，仅仅是在鱼香汁烹入热锅的顷刻间，一股夹杂着“咸甜酸辣”的香味便随着锅里的热气升腾开来，令人生津开胃。\n\n鱼香肉丝做法并不难，但要做出“咸甜酸微辣”、“红油满溢”的鱼香肉丝，有三个要点：一是选材：选择口感鲜嫩的里脊肉；泡红椒下锅前细细剁碎，这样才能炒出鲜亮的红油。二是火候：要猛火快炒，火要够大，锅气要足，这样炒出的菜味道自然不差；三是比例：鱼香肉丝讲究“见油不见汤”，鱼香汁的调料比例要拿捏好；姜、蒜要剁碎，同泡椒一起下锅炒到香酥，炒出辛香味，让人吃到嘴里不觉辛辣。",
      "ssu" : "",
      "author_photo" : "http:\/\/tx1.douguo.net\/upload\/photo\/1\/9\/8\/70_u74420362351028124115.jpeg",
      "dish_count_text" : "1",
      "rrpt" : "",
      "notes" : [

      ],
      "eu" : "recipes:\/\/www.douguo.com\/postdetail?id=242016",
      "ph" : 1440,
      "top_mdsp" : [

      ],
      "guide_image" : "",
      "vfurl" : "",
      "thumb_height" : 0,
      "recipe_tags" : [

      ],
      "dishes" : [

      ],
      "rate_show" : 0,
      "author" : "清欢ssk",
      "rsm" : "该功能暂停使用",
      "comments" : [
        "{\n    ac = \"#999999\";\n    at = \"\\U957f\\U6625\\U5e02\";\n    ccc = 2;\n    \"child_comments\" =     (\n                {\n            ac = \"#999999\";\n            at = \"\\U5357\\U660c\\U5e02\";\n            ccc = 0;\n            city = \"\\U5357\\U660c\\U5e02\";\n            cmc = 2;\n            content =             (\n                                {\n                    c = \" \\Ud83d\\Ude0b\";\n                }\n            );\n            ia = 1;\n            id = 8623777;\n            \"ip_address_location\" = \"\";\n            like = 0;\n            \"like_count\" = 0;\n            \"reply_id\" = 8623549;\n            \"reply_user\" =             {\n                \"followers_count_text\" = \"\";\n                id = 11662454;\n                \"is_prime\" = 0;\n                lv = 0;\n                lvl = 6;\n                n = \"\\U96ea\\U82acliu\";\n                p = \"http:\/\/tx1.douguo.net\/upload\/photo\/c\/a\/7\/70_u44475204704828094109.jpg\";\n                \"progress_image\" = \"\";\n                \"recipes_count_text\" = \"\";\n                relationship = \"-1\";\n                title = \"\";\n                v = 0;\n                \"verified_image\" = \"\";\n            };\n            \"sticker_icon\" =             (\n            );\n            time = \"2021-04-19 16:22:57\";\n            u =             {\n                \"followers_count_text\" = \"\";\n                id = 18700917;\n                \"is_prime\" = 0;\n                lv = 0;\n                lvl = 7;\n                n = \"\\U6e05\\U6b22ssk\";\n                p = \"http:\/\/tx1.douguo.net\/upload\/photo\/1\/9\/8\/70_u74420362351028124115.jpeg\";\n                \"progress_image\" = \"\";\n                \"recipes_count_text\" = \"\";\n                relationship = \"-1\";\n                title = \"\";\n                v = 1;\n                \"verified_image\" = \"\";\n            };\n        },\n                {\n            ac = \"#999999\";\n            at = \"\\U5357\\U660c\\U5e02\";\n            ccc = 0;\n            city = \"\\U5357\\U660c\\U5e02\";\n            cmc = 2;\n            content =             (\n                                {\n                    c = \" \\Ud83d\\Ude18\";\n                }\n            );\n            ia = 1;\n            id = 8623902;\n            \"ip_address_location\" = \"\";\n            like = 0;\n            \"like_count\" = 0;\n            \"reply_id\" = 8623549;\n            \"reply_user\" =             {\n                \"followers_count_text\" = \"\";\n                id = 11662454;\n                \"is_prime\" = 0;\n                lv = 0;\n                lvl = 6;\n                n = \"\\U96ea\\U82acliu\";\n                p = \"http:\/\/tx1.douguo.net\/upload\/photo\/c\/a\/7\/70_u44475204704828094109.jpg\";\n                \"progress_image\" = \"\";\n                \"recipes_count_text\" = \"\";\n                relationship = \"-1\";\n                title = \"\";\n                v = 0;\n                \"verified_image\" = \"\";\n            };\n            \"sticker_icon\" =             (\n            );\n            time = \"2021-04-19 17:26:09\";\n            u =             {\n                \"followers_count_text\" = \"\";\n                id = 18700917;\n                \"is_prime\" = 0;\n                lv = 0;\n                lvl = 7;\n                n = \"\\U6e05\\U6b22ssk\";\n                p = \"http:\/\/tx1.douguo.net\/upload\/photo\/1\/9\/8\/70_u74420362351028124115.jpeg\";\n                \"progress_image\" = \"\";\n                \"recipes_count_text\" = \"\";\n                relationship = \"-1\";\n                title = \"\";\n                v = 1;\n                \"verified_image\" = \"\";\n            };\n        }\n    );\n    city = \"\\U957f\\U6625\\U5e02\";\n    cmc = 2;\n    content =     (\n                {\n            c = \"\\U8fd9\\U4e2a\\U597d\\U6709\\U98df\\U6b32\\U554a\\Uff0c\\U71c3\\U7206\\U4e86\\Uff0c\\U53e3\\U6c34\\U90fd\\U6d41\\U51fa\\U6765\\U4e86\";\n        }\n    );\n    ia = 0;\n    id = 8623549;\n    \"ip_address_location\" = \"\";\n    like = 0;\n    \"like_count\" = 0;\n    \"reply_id\" = 0;\n    \"sticker_icon\" =     (\n    );\n    time = \"2021-04-19 15:21:58\";\n    u =     {\n        \"followers_count_text\" = \"\";\n        id = 11662454;\n        \"is_prime\" = 0;\n        lv = 0;\n        lvl = 6;\n        n = \"\\U96ea\\U82acliu\";\n        p = \"http:\/\/tx1.douguo.net\/upload\/photo\/c\/a\/7\/70_u44475204704828094109.jpg\";\n        \"progress_image\" = \"\";\n        \"recipes_count_text\" = \"\";\n        relationship = \"-1\";\n        title = \"\";\n        v = 0;\n        \"verified_image\" = \"\";\n    };\n}",
        "{\n    ac = \"#999999\";\n    at = \"\\U798f\\U5dde\\U5e02\";\n    ccc = 1;\n    \"child_comments\" =     (\n                {\n            ac = \"#999999\";\n            at = \"\\U5357\\U660c\\U5e02\";\n            ccc = 0;\n            city = \"\\U5357\\U660c\\U5e02\";\n            cmc = 2;\n            content =             (\n                                {\n                    c = \" \\U662f\\U54d2\\Ud83d\\Ude0b\";\n                }\n            );\n            ia = 1;\n            id = 8652003;\n            \"ip_address_location\" = \"\";\n            like = 0;\n            \"like_count\" = 0;\n            \"reply_id\" = 8651991;\n            \"reply_user\" =             {\n                \"followers_count_text\" = \"\";\n                id = 22345004;\n                \"is_prime\" = 0;\n                lv = 0;\n                lvl = 2;\n                n = \"\\U8c46\\U7c893970435620\";\n                p = \"http:\/\/tx1.douguo.net\/upload\/photo\/c\/2\/c\/70_c2b159b62043dee1e4393c9867c8508c.jpeg\";\n                \"progress_image\" = \"\";\n                \"recipes_count_text\" = \"\";\n                relationship = \"-1\";\n                title = \"\";\n                v = 0;\n                \"verified_image\" = \"\";\n            };\n            \"sticker_icon\" =             (\n            );\n            time = \"2021-05-06 23:53:42\";\n            u =             {\n                \"followers_count_text\" = \"\";\n                id = 18700917;\n                \"is_prime\" = 0;\n                lv = 0;\n                lvl = 7;\n                n = \"\\U6e05\\U6b22ssk\";\n                p = \"http:\/\/tx1.douguo.net\/upload\/photo\/1\/9\/8\/70_u74420362351028124115.jpeg\";\n                \"progress_image\" = \"\";\n                \"recipes_count_text\" = \"\";\n                relationship = \"-1\";\n                title = \"\";\n                v = 1;\n                \"verified_image\" = \"\";\n            };\n        }\n    );\n    city = \"\\U798f\\U5dde\\U5e02\";\n    cmc = 2;\n    content =     (\n                {\n            c = \"\\U7389\\U5170\\U7247\\U662f\\U5565\\Uff1f\\U6c34\\U716e\\U7b0b\\Uff1f\";\n        }\n    );\n    ia = 0;\n    id = 8651991;\n    \"ip_address_location\" = \"\";\n    like = 0;\n    \"like_count\" = 0;\n    \"reply_id\" = 0;\n    \"sticker_icon\" =     (\n    );\n    time = \"2021-05-06 23:31:31\";\n    u =     {\n        \"followers_count_text\" = \"\";\n        id = 22345004;\n        \"is_prime\" = 0;\n        lv = 0;\n        lvl = 2;\n        n = \"\\U8c46\\U7c893970435620\";\n        p = \"http:\/\/tx1.douguo.net\/upload\/photo\/c\/2\/c\/70_c2b159b62043dee1e4393c9867c8508c.jpeg\";\n        \"progress_image\" = \"\";\n        \"recipes_count_text\" = \"\";\n        relationship = \"-1\";\n        title = \"\";\n        v = 0;\n        \"verified_image\" = \"\";\n    };\n}",
        "{\n    ac = \"#999999\";\n    at = \"\";\n    ccc = 1;\n    \"child_comments\" =     (\n                {\n            ac = \"#999999\";\n            at = \"\\U5357\\U660c\\U5e02\";\n            ccc = 0;\n            city = \"\\U5357\\U660c\\U5e02\";\n            cmc = 2;\n            content =             (\n                                {\n                    c = \" \\U7ecf\\U5178\\U7684\\U83dc\\U8c31\\Ud83d\\Ude0b\";\n                }\n            );\n            ia = 1;\n            id = 8326856;\n            \"ip_address_location\" = \"\";\n            like = 0;\n            \"like_count\" = 0;\n            \"reply_id\" = 8326835;\n            \"reply_user\" =             {\n                \"followers_count_text\" = \"\";\n                id = 25683997;\n                \"is_prime\" = 0;\n                lv = 0;\n                lvl = 1;\n                n = \"\\U5bab\\U54c1\\U6d77\\U53c2Lucky\";\n                p = \"http:\/\/tx1.douguo.net\/upload\/photo\/6\/9\/b\/70_u94259206833230094753.jpg\";\n                \"progress_image\" = \"\";\n                \"recipes_count_text\" = \"\";\n                relationship = \"-1\";\n                title = \"\";\n                v = 0;\n                \"verified_image\" = \"\";\n            };\n            \"sticker_icon\" =             (\n            );\n            time = \"2020-11-05 09:26:58\";\n            u =             {\n                \"followers_count_text\" = \"\";\n                id = 18700917;\n                \"is_prime\" = 0;\n                lv = 0;\n                lvl = 7;\n                n = \"\\U6e05\\U6b22ssk\";\n                p = \"http:\/\/tx1.douguo.net\/upload\/photo\/1\/9\/8\/70_u74420362351028124115.jpeg\";\n                \"progress_image\" = \"\";\n                \"recipes_count_text\" = \"\";\n                relationship = \"-1\";\n                title = \"\";\n                v = 1;\n                \"verified_image\" = \"\";\n            };\n        }\n    );\n    city = \"\";\n    cmc = 2;\n    content =     (\n                {\n            c = \"\\U6d41\\U4f20\\U4e45\\U8fdc\\U7684\\U83dc\\U80b4\\U3002\";\n        }\n    );\n    ia = 0;\n    id = 8326835;\n    \"ip_address_location\" = \"\";\n    like = 0;\n    \"like_count\" = 0;\n    \"reply_id\" = 0;\n    \"sticker_icon\" =     (\n    );\n    time = \"2020-11-05 09:09:55\";\n    u =     {\n        \"followers_count_text\" = \"\";\n        id = 25683997;\n        \"is_prime\" = 0;\n        lv = 0;\n        lvl = 1;\n        n = \"\\U5bab\\U54c1\\U6d77\\U53c2Lucky\";\n        p = \"http:\/\/tx1.douguo.net\/upload\/photo\/6\/9\/b\/70_u94259206833230094753.jpg\";\n        \"progress_image\" = \"\";\n        \"recipes_count_text\" = \"\";\n        relationship = \"-1\";\n        title = \"\";\n        v = 0;\n        \"verified_image\" = \"\";\n    };\n}"
      ],
      "v_u" : "",
      "share_info" : {
        "name" : "念念不忘的美味川菜：鱼香肉丝-会做饭很酷!",
        "mini_program" : [

        ],
        "qr_image" : "",
        "s_u" : "http:\/\/m.douguo.com\/cookbook\/3008702.html",
        "s_d" : "念念不忘的美味川菜：鱼香肉丝-会做饭很酷!",
        "object_id" : "3008702",
        "image" : "https:\/\/cp1.douguo.com\/upload\/caiku\/4\/9\/5\/49bdf3d937bff84dc614aa0101835855.jpeg",
        "infos" : [
          {
            "s_u" : "",
            "object_id" : "3008702",
            "mini_program" : [

            ],
            "qr_image" : "",
            "s_d" : "#学做饭用豆果美食# 会做饭真是太酷了！我在@豆果美食 分享了【念念不忘的美味川菜：鱼香肉丝-会做饭很酷!】OMG！这是什么神仙美味啊~真的强烈推荐你们试一试～查看图片了解菜谱（每天限量免费课程，想跟大师学厨艺就来这https:\/\/m.weibo.cn\/p\/100404i33631）",
            "channel" : "1",
            "name" : "念念不忘的美味川菜：鱼香肉丝-会做饭很酷!",
            "image" : "https:\/\/cp1.douguo.com\/upload\/caiku\/4\/9\/5\/49bdf3d937bff84dc614aa0101835855.jpeg"
          },
          {
            "s_u" : "http:\/\/m.douguo.com\/cookbook\/3008702.html",
            "s_d" : "念念不忘的美味川菜：鱼香肉丝-会做饭很酷!",
            "name" : "念念不忘的美味川菜：鱼香肉丝-会做饭很酷!",
            "mini_program" : [

            ],
            "channel" : "7",
            "image" : "https:\/\/cp1.douguo.com\/upload\/caiku\/4\/9\/5\/49bdf3d937bff84dc614aa0101835855.jpeg",
            "qr_image" : "",
            "object_id" : "3008702"
          },
          {
            "s_d" : "念念不忘的美味川菜：鱼香肉丝-会做饭很酷!",
            "qr_image" : "",
            "s_u" : "http:\/\/m.douguo.com\/cookbook\/3008702.html",
            "image" : "https:\/\/cp1.douguo.com\/upload\/caiku\/4\/9\/5\/49bdf3d937bff84dc614aa0101835855.jpeg",
            "object_id" : "3008702",
            "name" : "念念不忘的美味川菜：鱼香肉丝-会做饭很酷!",
            "mini_program" : [

            ],
            "channel" : "8"
          }
        ]
      },
      "ecs" : 1,
      "comments_count_text" : "11",
      "author_id" : 18700917,
      "bs" : [

      ],
      "create_time" : "2020-11-02 20:35:41",
      "recommended" : 0,
      "cookwares" : [

      ],
      "display_ingredient" : 1,
      "recommend_label" : "1人学做",
      "tags" : [

      ],
      "major" : [
        {
          "note" : "200克",
          "title" : "猪里脊肉"
        },
        {
          "tu" : "https:\/\/m.douguo.com\/ingredients\/黑木耳\/detailmaterial",
          "note" : "50克",
          "title" : "黑木耳"
        },
        {
          "title" : "玉兰片",
          "tu" : "https:\/\/m.douguo.com\/ingredients\/玉兰片\/detailmaterial",
          "note" : "50克"
        },
        {
          "title" : "葱花",
          "note" : "适量",
          "tu" : "https:\/\/m.douguo.com\/ingredients\/葱花\/detailmaterial"
        },
        {
          "title" : "姜末",
          "note" : "适量"
        },
        {
          "note" : "适量",
          "title" : "蒜末"
        },
        {
          "title" : "泡红辣椒",
          "note" : "适量"
        },
        {
          "tu" : "https:\/\/m.douguo.com\/ingredients\/盐\/detailmaterial",
          "note" : "适量",
          "title" : "盐"
        },
        {
          "tu" : "https:\/\/m.douguo.com\/ingredients\/醋\/detailmaterial",
          "title" : "醋",
          "note" : "1勺"
        },
        {
          "tu" : "https:\/\/m.douguo.com\/ingredients\/酱油\/detailmaterial",
          "title" : "酱油",
          "note" : "1勺"
        },
        {
          "title" : "白糖",
          "tu" : "https:\/\/m.douguo.com\/ingredients\/白糖\/detailmaterial",
          "note" : "1勺"
        },
        {
          "tu" : "https:\/\/m.douguo.com\/ingredients\/料酒\/detailmaterial",
          "note" : "1勺",
          "title" : "料酒"
        },
        {
          "title" : "水淀粉",
          "note" : "2勺"
        },
        {
          "title" : "鲜汤",
          "note" : "2勺"
        },
        {
          "tu" : "https:\/\/m.douguo.com\/ingredients\/味精\/detailmaterial",
          "title" : "味精",
          "note" : "适量"
        },
        {
          "tu" : "https:\/\/m.douguo.com\/ingredients\/植物油\/detailmaterial",
          "title" : "植物油",
          "note" : "适量"
        }
      ],
      "mid_mdsp" : [

      ],
      "cook_difficulty" : "",
      "rate_count" : 1,
      "clicks" : "551186",
      "pw" : 1920,
      "hqu" : "recipes:\/\/www.douguo.com\/notedetail?id=21162253",
      "ipci" : "",
      "rpt" : "",
      "original_photo_path" : "http:\/\/i1.douguo.net\/upload\/caiku\/4\/9\/5\/yuan_49bdf3d937bff84dc614aa0101835855.jpeg",
      "rcs" : [

      ],
      "title" : "念念不忘的美味川菜：鱼香肉丝",
      "collect_status" : 0,
      "release_time" : "",
      "minor" : [

      ],
      "cook_id" : "3008702",
      "ipt" : "",
      "su" : "",
      "first_level_comment_count" : 5,
      "rpid" : 0,
      "cookstep" : [
        {
          "image_width" : 1280,
          "image" : "https:\/\/i1.douguo.com\/upload\/caiku\/d\/e\/e\/deb61cd2af013d3331c163bcc8681e1e.jpeg",
          "image_height" : 960,
          "thumb" : "https:\/\/i1.douguo.com\/upload\/caiku\/d\/e\/e\/140_deb61cd2af013d3331c163bcc8681e1e.jpeg",
          "content" : "准备好食材：猪肉洗净，切丝；黑木耳、玉兰片水发后洗净，切丝。",
          "position" : 1,
          "frame" : "-1"
        },
        {
          "image_width" : 1280,
          "thumb" : "https:\/\/i1.douguo.com\/upload\/caiku\/e\/d\/e\/140_ed3711eae2059ec809e0aae8596ca59e.jpeg",
          "content" : "泡红辣椒切成细末，葱切花、姜蒜切末；",
          "frame" : "-1",
          "image" : "https:\/\/i1.douguo.com\/upload\/caiku\/e\/d\/e\/ed3711eae2059ec809e0aae8596ca59e.jpeg",
          "image_height" : 960,
          "position" : 2
        },
        {
          "thumb" : "https:\/\/i1.douguo.com\/upload\/caiku\/4\/c\/3\/140_4c50dd5429926cdf0692aafe1df157c3.jpeg",
          "image_height" : 1006,
          "content" : "将肉丝用料酒、盐、水淀粉拌匀腌渍入味；",
          "image" : "https:\/\/i1.douguo.com\/upload\/caiku\/4\/c\/3\/4c50dd5429926cdf0692aafe1df157c3.jpeg",
          "frame" : "-1",
          "position" : 3,
          "image_width" : 1242
        },
        {
          "image_height" : 960,
          "position" : 4,
          "thumb" : "https:\/\/i1.douguo.com\/upload\/caiku\/c\/4\/6\/140_c4aacc149a232f3a77bafc65edcdcea6.jpeg",
          "image_width" : 1280,
          "image" : "https:\/\/i1.douguo.com\/upload\/caiku\/c\/4\/6\/c4aacc149a232f3a77bafc65edcdcea6.jpeg",
          "frame" : "-1",
          "content" : "白糖、醋、酱油、水淀粉、鲜汤、味精对成芡汁；"
        },
        {
          "position" : 5,
          "image_width" : 1280,
          "content" : "锅内倒油烧热，放肉丝迅速炒散，",
          "frame" : "-1",
          "thumb" : "https:\/\/i1.douguo.com\/upload\/caiku\/4\/6\/4\/140_4651f92e05464762b57ae65106947604.jpeg",
          "image_height" : 860,
          "image" : "https:\/\/i1.douguo.com\/upload\/caiku\/4\/6\/4\/4651f92e05464762b57ae65106947604.jpeg"
        },
        {
          "thumb" : "https:\/\/i1.douguo.com\/upload\/caiku\/3\/b\/5\/140_3b5dedee80f1b77b586305dc68119565.jpeg",
          "frame" : "-1",
          "image_height" : 921,
          "content" : "再放入切成细末的泡红辣椒、姜末、蒜末同炒出香味；",
          "image" : "https:\/\/i1.douguo.com\/upload\/caiku\/3\/b\/5\/3b5dedee80f1b77b586305dc68119565.jpeg",
          "position" : 6,
          "image_width" : 1280
        },
        {
          "frame" : "-1",
          "image" : "https:\/\/i1.douguo.com\/upload\/caiku\/1\/a\/3\/1a6c22049a74e194bc75b74768f63723.jpeg",
          "position" : 7,
          "image_height" : 960,
          "image_width" : 1280,
          "thumb" : "https:\/\/i1.douguo.com\/upload\/caiku\/1\/a\/3\/140_1a6c22049a74e194bc75b74768f63723.jpeg",
          "content" : "加入玉兰丝、"
        },
        {
          "image_height" : 876,
          "image_width" : 1280,
          "position" : 8,
          "image" : "https:\/\/i1.douguo.com\/upload\/caiku\/9\/8\/c\/98c3a243b4a83be063c4f2d4818f6e2c.jpeg",
          "frame" : "-1",
          "thumb" : "https:\/\/i1.douguo.com\/upload\/caiku\/9\/8\/c\/140_98c3a243b4a83be063c4f2d4818f6e2c.jpeg",
          "content" : "黑木耳丝，"
        },
        {
          "image_width" : 1280,
          "content" : "翻炒片刻，",
          "position" : 9,
          "image_height" : 960,
          "image" : "https:\/\/i1.douguo.com\/upload\/caiku\/1\/e\/9\/1ee193aaeba1725efc3e49a83b657eb9.jpeg",
          "frame" : "-1",
          "thumb" : "https:\/\/i1.douguo.com\/upload\/caiku\/1\/e\/9\/140_1ee193aaeba1725efc3e49a83b657eb9.jpeg"
        },
        {
          "image" : "https:\/\/i1.douguo.com\/upload\/caiku\/0\/5\/8\/051ebb279cac308a98629980e41ca558.jpeg",
          "image_height" : 960,
          "image_width" : 1280,
          "position" : 10,
          "frame" : "-1",
          "content" : "倒入对好的芡汁炒匀，",
          "thumb" : "https:\/\/i1.douguo.com\/upload\/caiku\/0\/5\/8\/140_051ebb279cac308a98629980e41ca558.jpeg"
        },
        {
          "image_height" : 890,
          "content" : "撒上葱花即可。",
          "image_width" : 1280,
          "image" : "https:\/\/i1.douguo.com\/upload\/caiku\/8\/2\/9\/82bd5534703937cb30c2137e506c48a9.jpeg",
          "frame" : "-1",
          "thumb" : "https:\/\/i1.douguo.com\/upload\/caiku\/8\/2\/9\/140_82bd5534703937cb30c2137e506c48a9.jpeg",
          "position" : 11
        },
        {
          "image_width" : 1280,
          "frame" : "-1",
          "image_height" : 960,
          "position" : 12,
          "image" : "https:\/\/i1.douguo.com\/upload\/caiku\/0\/7\/f\/079ba78fb3ad093a887e9ae44c495f7f.jpeg",
          "content" : "酸辣咸甜，生津开胃。",
          "thumb" : "https:\/\/i1.douguo.com\/upload\/caiku\/0\/7\/f\/140_079ba78fb3ad093a887e9ae44c495f7f.jpeg"
        },
        {
          "content" : "吃一口，唇齿含香，令人念念不忘！",
          "image" : "https:\/\/i1.douguo.com\/upload\/caiku\/8\/6\/8\/86790e15e4704905a748bbb249480e58.jpeg",
          "frame" : "-1",
          "image_height" : 960,
          "image_width" : 1280,
          "thumb" : "https:\/\/i1.douguo.com\/upload\/caiku\/8\/6\/8\/140_86790e15e4704905a748bbb249480e58.jpeg",
          "position" : 13
        }
      ],
      "cookstorys" : [
        {
          "color" : "",
          "c" : "鱼香肉丝，一道吃过就让人念念不忘的美味川菜。作为深受食客喜爱的川菜，鱼香肉丝奇就奇在无“鱼”却能品出鱼味。要吃出鱼味，全靠一碗鱼香汁来调味。鱼香汁的调味并不复杂，用的全是厨房里常备的调味品：一汤匙的料酒，一汤匙的酱油，一汤匙的香醋，一汤匙的白糖，两汤匙的水淀粉，两汤匙的鲜汤混合即成。鱼香汁虽然取材简单，却能搭配出奇妙的口感，仅仅是在鱼香汁烹入热锅的顷刻间，一股夹杂着“咸甜酸辣”的香味便随着锅里的热气升腾开来，令人生津开胃。\n\n鱼香肉丝做法并不难，但要做出“咸甜酸微辣”、“红油满溢”的鱼香肉丝，有三个要点：一是选材：选择口感鲜嫩的里脊肉；泡红椒下锅前细细剁碎，这样才能炒出鲜亮的红油。二是火候：要猛火快炒，火要够大，锅气要足，这样炒出的菜味道自然不差；三是比例：鱼香肉丝讲究“见油不见汤”，鱼香汁的调料比例要拿捏好；姜、蒜要剁碎，同泡椒一起下锅炒到香酥，炒出辛香味，让人吃到嘴里不觉辛辣。",
          "u" : "",
          "type" : 0,
          "id" : 0,
          "icon" : ""
        }
      ],
      "recipe_list_tags" : [
        {
          "text" : "关注的人",
          "background_start_color" : "#F4F5F5",
          "right_image" : "",
          "background_end_color" : "#F4F5F5",
          "text_color" : "#141515",
          "background_border_color" : "",
          "jump_url" : ""
        },
        {
          "background_end_color" : "#F4F5F5",
          "jump_url" : "",
          "text_color" : "#141515",
          "background_start_color" : "#F4F5F5",
          "background_border_color" : "",
          "right_image" : "",
          "text" : "内容详细"
        }
      ],
      "related_ads" : [

      ],
      "purl" : "",
      "image" : "http:\/\/i1.douguo.net\/upload\/caiku\/4\/9\/5\/300_49bdf3d937bff84dc614aa0101835855.jpeg",
      "tips" : "1、猪里脊冷藏后在解冻状态更好切丝；\n\n2、肉丝不要切得过细，否则在烹饪时容易碎烂；\n\n3、泡红椒要切成细末，这样才能炒出鲜亮红油。",
      "author_verified" : 1,
      "story_dsp" : [

      ],
      "dish_count" : 1,
      "brand_day_dsp" : [

      ],
      "photo_path" : "https:\/\/i1.douguo.com\/upload\/caiku\/4\/9\/5\/600_49bdf3d937bff84dc614aa0101835855.jpeg",
      "rpst" : "",
      "ipoi" : "",
      "rewarded_video_dsp" : [

      ],
      "cook_time_image" : "https:\/\/i1.douguo.com\/upload\/banner\/1551424341.png"
    }
  },
  "state" : "success",
  "status" : 0
}