{
  "result" : {
    "recipe" : {
      "recommendation_tag" : "",
      "author_verified" : 1,
      "ipurl" : "",
      "rsm" : "该功能暂停使用",
      "clicks" : "534759",
      "release_time" : "",
      "notes" : [

      ],
      "photo_path" : "https:\/\/i1.douguo.com\/upload\/caiku\/1\/b\/9\/600_1b602d5f491244fbbf0abf4e843ba319.jpg",
      "old_comments" : [

      ],
      "rpt" : "",
      "rcs" : [

      ],
      "rpst" : "",
      "author_id" : 21947429,
      "levelid" : 2,
      "collect_status" : 0,
      "rrpt" : "",
      "cook_difficulty_image" : "https:\/\/i1.douguo.com\/upload\/banner\/1551424390.png",
      "views_count_text" : "54.7万",
      "purl" : "",
      "minor" : [

      ],
      "cookstorys" : [
        {
          "id" : 0,
          "color" : "",
          "type" : 0,
          "u" : "",
          "icon" : "",
          "c" : "南瓜含有丰富的蛋白质、胡萝卜素、维生素B，维生素C和钙，磷等物质，还可以提高机体免疫力，润肺益气，驱虫解毒，美容等功效。 \n\n最喜欢的就是这道韩式南瓜粥了，喜欢它丝丝细滑的口感，做法也是十分的简单，不用去店里吃了，在家就可以轻松制作，加入了牛奶更是添加了浓浓的奶香，更加丝滑，细润！"
        }
      ],
      "author_photo" : "http:\/\/tx1.douguo.net\/upload\/photo\/b\/3\/2\/70_b367a7ca76e5738843c0bbcae5b5f2d2.jpeg",
      "rips" : 0,
      "user" : {
        "email" : "",
        "dishes_count" : 0,
        "weibo_nick" : "",
        "lv" : 0,
        "recipes_count" : 0,
        "user_cover" : "",
        "user_id" : "21947429",
        "pc" : 0,
        "lvl" : 5,
        "subscription_article_count" : 0,
        "nick" : "林雪小厨房",
        "mobile" : "",
        "user_large_photo" : "http:\/\/tx1.douguo.net\/upload\/photo\/b\/3\/2\/yuan_b367a7ca76e5738843c0bbcae5b5f2d2.jpeg",
        "userid" : "21947429",
        "verified_image" : "https:\/\/i1.douguo.com\/upload\/note\/d\/a\/a\/da84247847aebe48d9dd0fcdac88862a.png",
        "location" : 0,
        "introduction" : "",
        "followers_count" : 0,
        "favor_diaries_count" : 0,
        "subscription" : 0,
        "diaries_count" : 0,
        "birthday" : "",
        "point" : 0,
        "verified_url" : "https:\/\/m.douguo.com\/user\/prodesc",
        "gender" : 2,
        "regist_time" : "",
        "avatar_medium" : "http:\/\/tx1.douguo.net\/upload\/photo\/b\/3\/2\/140_b367a7ca76e5738843c0bbcae5b5f2d2.jpeg",
        "qzone_nick" : "",
        "favorites_count" : 0,
        "coursecount" : 0,
        "user_photo" : "http:\/\/tx1.douguo.net\/upload\/photo\/b\/3\/2\/70_b367a7ca76e5738843c0bbcae5b5f2d2.jpeg",
        "fc" : 0,
        "setted_email" : 0,
        "qq_weibo_nick" : "",
        "progress_image" : "",
        "sign" : "",
        "is_prime" : 0,
        "following_count" : 0,
        "age" : "",
        "verified" : 1
      },
      "ipit" : 0,
      "tags" : [

      ],
      "top_mdsp" : [

      ],
      "sr" : "",
      "cookwares" : [

      ],
      "comments_count_text" : "24",
      "favo_counts" : 5651,
      "recent_comments" : [

      ],
      "dish_count_text" : "1",
      "bs" : [

      ],
      "title" : "美容牛奶南瓜粥（完爆韩式料理）",
      "brand_day_dsp" : [

      ],
      "ipoi" : "",
      "ipci" : "",
      "vu" : "",
      "ssu" : "",
      "recommended" : 0,
      "dish_count" : 1,
      "act_des" : "",
      "original_photo_path" : "http:\/\/i1.douguo.net\/upload\/caiku\/1\/b\/9\/yuan_1b602d5f491244fbbf0abf4e843ba319.jpg",
      "hqu" : "recipes:\/\/www.douguo.com\/notedetail?id=21162253",
      "related_ads" : [

      ],
      "image" : "http:\/\/i1.douguo.net\/upload\/caiku\/1\/b\/9\/300_1b602d5f491244fbbf0abf4e843ba319.jpg",
      "rate_show" : 0,
      "su" : "",
      "cook_difficulty" : "切墩(初级)",
      "vc" : "546845",
      "first_level_comment_count" : 18,
      "rate" : 5,
      "ipia" : [

      ],
      "guide_image" : "",
      "major" : [
        {
          "note" : "200g",
          "tu" : "https:\/\/m.douguo.com\/ingredients\/南瓜\/detailmaterial",
          "title" : "南瓜"
        },
        {
          "tu" : "https:\/\/m.douguo.com\/ingredients\/牛奶\/detailmaterial",
          "note" : "250g",
          "title" : "牛奶"
        },
        {
          "tu" : "https:\/\/m.douguo.com\/ingredients\/冰糖\/detailmaterial",
          "note" : "根据自己口味",
          "title" : "冰糖"
        },
        {
          "tu" : "https:\/\/m.douguo.com\/ingredients\/糯米粉\/detailmaterial",
          "title" : "糯米粉",
          "note" : "30g"
        }
      ],
      "advice" : {
        "da" : {
          "url" : "https:\/\/m.douguo.com\/recipe\/nutrient_self\/2293599",
          "t" : "查看详细分析",
          "iu" : "https:\/\/i1.douguo.com\/upload\/banner\/f\/4\/d\/f48877e53c37759bc12ac494be82ec8d.png"
        },
        "has" : [
          {
            "t" : "低脂",
            "url" : "recipes:\/\/www.douguo.com\/simplerecipelist?t=低脂&id=低脂"
          },
          {
            "url" : "recipes:\/\/www.douguo.com\/simplerecipelist?t=低盐&id=低盐",
            "t" : "低盐"
          }
        ],
        "at" : "健身人群可以吃～"
      },
      "cook_time_image" : "https:\/\/i1.douguo.com\/upload\/banner\/1551424358.png",
      "ss" : [

      ],
      "recipe_tags" : [

      ],
      "ph" : 853,
      "eu" : "recipes:\/\/www.douguo.com\/postdetail?id=242016",
      "rdsps" : [

      ],
      "title_ad" : [

      ],
      "pw" : 1280,
      "rewarded_video_dsp" : [

      ],
      "comments_count" : 24,
      "ecs" : 0,
      "ipt" : "",
      "comments" : [
        "{\n    ac = \"#999999\";\n    at = \"\\U627f\\U5fb7\\U5e02\";\n    ccc = 2;\n    \"child_comments\" =     (\n                {\n            ac = \"#999999\";\n            at = \"\\U91cd\\U5e86\\U5e02\";\n            ccc = 0;\n            city = \"\\U91cd\\U5e86\\U5e02\";\n            cmc = 2;\n            content =             (\n                                {\n                    c = \" \\U4e0d\\U653e\\U7684\\U8bdd\\U5c31\\U662f\\U6c34\\U4e00\\U6837\";\n                }\n            );\n            ia = 1;\n            id = 6559401;\n            \"ip_address_location\" = \"\";\n            like = 0;\n            \"like_count\" = 0;\n            \"reply_id\" = 6558447;\n            \"reply_user\" =             {\n                \"followers_count_text\" = \"\";\n                id = 22813705;\n                \"is_prime\" = 0;\n                lv = 0;\n                lvl = 1;\n                n = \"\\U8c46\\U7c89854538\";\n                p = \"\";\n                \"progress_image\" = \"\";\n                \"recipes_count_text\" = \"\";\n                relationship = \"-1\";\n                title = \"\";\n                v = 0;\n                \"verified_image\" = \"\";\n            };\n            \"sticker_icon\" =             (\n            );\n            time = \"2019-04-29 08:21:28\";\n            u =             {\n                \"followers_count_text\" = \"\";\n                id = 21947429;\n                \"is_prime\" = 0;\n                lv = 0;\n                lvl = 5;\n                n = \"\\U6797\\U96ea\\U5c0f\\U53a8\\U623f\";\n                p = \"http:\/\/tx1.douguo.net\/upload\/photo\/b\/3\/2\/70_b367a7ca76e5738843c0bbcae5b5f2d2.jpeg\";\n                \"progress_image\" = \"\";\n                \"recipes_count_text\" = \"\";\n                relationship = \"-1\";\n                title = \"\";\n                v = 1;\n                \"verified_image\" = \"\";\n            };\n        },\n                {\n            ac = \"#999999\";\n            at = \"\\U7126\\U4f5c\\U5e02\";\n            ccc = 0;\n            city = \"\\U7126\\U4f5c\\U5e02\";\n            cmc = 2;\n            content =             (\n                                {\n                    c = \" \\U7cef\\U7c73\\U7c89\\U662f\\U4e0d\\U662f\\U5c31\\U662f\\U4e00\\U4e2a\\U589e\\U7a20\\U7684\\U4f5c\\U7528\\U554a\";\n                }\n            );\n            ia = 0;\n            id = 6782510;\n            \"ip_address_location\" = \"\";\n            like = 0;\n            \"like_count\" = 0;\n            \"reply_id\" = 6559401;\n            \"reply_user\" =             {\n                \"followers_count_text\" = \"\";\n                id = 21947429;\n                \"is_prime\" = 0;\n                lv = 0;\n                lvl = 5;\n                n = \"\\U6797\\U96ea\\U5c0f\\U53a8\\U623f\";\n                p = \"http:\/\/tx1.douguo.net\/upload\/photo\/b\/3\/2\/70_b367a7ca76e5738843c0bbcae5b5f2d2.jpeg\";\n                \"progress_image\" = \"\";\n                \"recipes_count_text\" = \"\";\n                relationship = \"-1\";\n                title = \"\";\n                v = 1;\n                \"verified_image\" = \"\";\n            };\n            \"sticker_icon\" =             (\n            );\n            time = \"2019-07-16 22:09:18\";\n            u =             {\n                \"followers_count_text\" = \"\";\n                id = 16326198;\n                \"is_prime\" = 0;\n                lv = 0;\n                lvl = 1;\n                n = \"\\U5c0f\\U5b50\\U4f60\\U597d\";\n                p = \"http:\/\/tx1.douguo.net\/upload\/photo\/4\/1\/2\/70_u53441617745954201958.jpg\";\n                \"progress_image\" = \"\";\n                \"recipes_count_text\" = \"\";\n                relationship = \"-1\";\n                title = \"\";\n                v = 0;\n                \"verified_image\" = \"\";\n            };\n        }\n    );\n    city = \"\\U627f\\U5fb7\\U5e02\";\n    cmc = 2;\n    content =     (\n                {\n            c = \"\\U4e0d\\U7528\\U7cef\\U7c73\\U7c89\\U53ef\\U4ee5\\U4e48\";\n        }\n    );\n    ia = 0;\n    id = 6558447;\n    \"ip_address_location\" = \"\";\n    like = 0;\n    \"like_count\" = 0;\n    \"reply_id\" = 0;\n    \"sticker_icon\" =     (\n    );\n    time = \"2019-04-28 20:00:25\";\n    u =     {\n        \"followers_count_text\" = \"\";\n        id = 22813705;\n        \"is_prime\" = 0;\n        lv = 0;\n        lvl = 1;\n        n = \"\\U8c46\\U7c89854538\";\n        p = \"\";\n        \"progress_image\" = \"\";\n        \"recipes_count_text\" = \"\";\n        relationship = \"-1\";\n        title = \"\";\n        v = 0;\n        \"verified_image\" = \"\";\n    };\n}",
        "{\n    ac = \"#999999\";\n    at = \"\\U9102\\U5c14\\U591a\\U65af\\U5e02\";\n    ccc = 1;\n    \"child_comments\" =     (\n                {\n            ac = \"#999999\";\n            at = \"\\U91cd\\U5e86\\U5e02\";\n            ccc = 0;\n            city = \"\\U91cd\\U5e86\\U5e02\";\n            cmc = 2;\n            content =             (\n                                {\n                    c = \" \\U6700\\U597d\\U4e0d\\U8981\";\n                }\n            );\n            ia = 1;\n            id = 7962769;\n            \"ip_address_location\" = \"\";\n            like = 0;\n            \"like_count\" = 0;\n            \"reply_id\" = 7962229;\n            \"reply_user\" =             {\n                \"followers_count_text\" = \"\";\n                id = 25480007;\n                \"is_prime\" = 0;\n                lv = 0;\n                lvl = 1;\n                n = \"\\U75af\\U72c2\\U7684\\U67f4\\U9e21\\U86cb\";\n                p = \"http:\/\/tx1.douguo.net\/upload\/photo\/1\/1\/1\/70_97119ebfe9308f3a32e469b1b0b28f49.png\";\n                \"progress_image\" = \"\";\n                \"recipes_count_text\" = \"\";\n                relationship = \"-1\";\n                title = \"\";\n                v = 0;\n                \"verified_image\" = \"\";\n            };\n            \"sticker_icon\" =             (\n            );\n            time = \"2020-05-10 07:20:48\";\n            u =             {\n                \"followers_count_text\" = \"\";\n                id = 21947429;\n                \"is_prime\" = 0;\n                lv = 0;\n                lvl = 5;\n                n = \"\\U6797\\U96ea\\U5c0f\\U53a8\\U623f\";\n                p = \"http:\/\/tx1.douguo.net\/upload\/photo\/b\/3\/2\/70_b367a7ca76e5738843c0bbcae5b5f2d2.jpeg\";\n                \"progress_image\" = \"\";\n                \"recipes_count_text\" = \"\";\n                relationship = \"-1\";\n                title = \"\";\n                v = 1;\n                \"verified_image\" = \"\";\n            };\n        }\n    );\n    city = \"\\U9102\\U5c14\\U591a\\U65af\\U5e02\";\n    cmc = 2;\n    content =     (\n                {\n            c = \"\\U7cef\\U7c73\\U996d\\U53ef\\U4ee5\\U7528\\U6dc0\\U7c89\\U4ee3\\U66ff\\U5417\";\n        }\n    );\n    ia = 0;\n    id = 7962229;\n    \"ip_address_location\" = \"\";\n    like = 0;\n    \"like_count\" = 1;\n    \"reply_id\" = 0;\n    \"sticker_icon\" =     (\n    );\n    time = \"2020-05-09 22:03:25\";\n    u =     {\n        \"followers_count_text\" = \"\";\n        id = 25480007;\n        \"is_prime\" = 0;\n        lv = 0;\n        lvl = 1;\n        n = \"\\U75af\\U72c2\\U7684\\U67f4\\U9e21\\U86cb\";\n        p = \"http:\/\/tx1.douguo.net\/upload\/photo\/1\/1\/1\/70_97119ebfe9308f3a32e469b1b0b28f49.png\";\n        \"progress_image\" = \"\";\n        \"recipes_count_text\" = \"\";\n        relationship = \"-1\";\n        title = \"\";\n        v = 0;\n        \"verified_image\" = \"\";\n    };\n}",
        "{\n    ac = \"#999999\";\n    at = \"\\U5317\\U4eac\\U5e02\";\n    ccc = 1;\n    \"child_comments\" =     (\n                {\n            ac = \"#999999\";\n            at = \"\\U5409\\U5b89\\U5e02\";\n            ccc = 0;\n            city = \"\\U5409\\U5b89\\U5e02\";\n            cmc = 2;\n            content =             (\n                                {\n                    c = \" \\U4f60\\U53ef\\U4ee5\\U8bd5\\U8bd5\";\n                }\n            );\n            ia = 1;\n            id = 6651454;\n            \"ip_address_location\" = \"\";\n            like = 0;\n            \"like_count\" = 0;\n            \"reply_id\" = 6651040;\n            \"reply_user\" =             {\n                \"followers_count_text\" = \"\";\n                id = 22155944;\n                \"is_prime\" = 0;\n                lv = 0;\n                lvl = 5;\n                n = \"\\U7231\\U5403\\U7684\\U72d0\\U72f8fox\";\n                p = \"http:\/\/tx1.douguo.net\/upload\/photo\/c\/4\/3\/70_u28089991864762175601.jpg\";\n                \"progress_image\" = \"\";\n                \"recipes_count_text\" = \"\";\n                relationship = \"-1\";\n                title = \"\";\n                v = 0;\n                \"verified_image\" = \"\";\n            };\n            \"sticker_icon\" =             (\n            );\n            time = \"2019-06-09 07:13:00\";\n            u =             {\n                \"followers_count_text\" = \"\";\n                id = 21947429;\n                \"is_prime\" = 0;\n                lv = 0;\n                lvl = 5;\n                n = \"\\U6797\\U96ea\\U5c0f\\U53a8\\U623f\";\n                p = \"http:\/\/tx1.douguo.net\/upload\/photo\/b\/3\/2\/70_b367a7ca76e5738843c0bbcae5b5f2d2.jpeg\";\n                \"progress_image\" = \"\";\n                \"recipes_count_text\" = \"\";\n                relationship = \"-1\";\n                title = \"\";\n                v = 1;\n                \"verified_image\" = \"\";\n            };\n        }\n    );\n    city = \"\\U5317\\U4eac\\U5e02\";\n    cmc = 2;\n    content =     (\n                {\n            c = \"\\U53ef\\U4ee5\\U653e\\U5728\\U7834\\U58c1\\U673a\\U91cc\\U6253\\U788e\\U5417\\Uff1f\";\n        }\n    );\n    ia = 0;\n    id = 6651040;\n    \"ip_address_location\" = \"\";\n    like = 0;\n    \"like_count\" = 0;\n    \"reply_id\" = 0;\n    \"sticker_icon\" =     (\n    );\n    time = \"2019-06-08 22:40:07\";\n    u =     {\n        \"followers_count_text\" = \"\";\n        id = 22155944;\n        \"is_prime\" = 0;\n        lv = 0;\n        lvl = 5;\n        n = \"\\U7231\\U5403\\U7684\\U72d0\\U72f8fox\";\n        p = \"http:\/\/tx1.douguo.net\/upload\/photo\/c\/4\/3\/70_u28089991864762175601.jpg\";\n        \"progress_image\" = \"\";\n        \"recipes_count_text\" = \"\";\n        relationship = \"-1\";\n        title = \"\";\n        v = 0;\n        \"verified_image\" = \"\";\n    };\n}"
      ],
      "author" : "林雪小厨房",
      "cook_id" : "2293599",
      "btm_dsp" : [

      ],
      "sc" : 0,
      "cookstep" : [
        {
          "content" : "老南瓜一块，去皮。",
          "image" : "https:\/\/i1.douguo.com\/upload\/caiku\/c\/7\/6\/c7be281adbc1a5a821e88db0577c8af6.jpg",
          "thumb" : "https:\/\/i1.douguo.com\/upload\/caiku\/c\/7\/6\/140_c7be281adbc1a5a821e88db0577c8af6.jpg",
          "position" : 1,
          "frame" : "-1",
          "image_width" : 800,
          "image_height" : 533
        },
        {
          "image_height" : 533,
          "image" : "https:\/\/i1.douguo.com\/upload\/caiku\/a\/d\/d\/aded3aef1b3e103cb1283ca63ceeba6d.jpg",
          "position" : 2,
          "content" : "去皮后的南瓜切块。",
          "frame" : "-1",
          "image_width" : 800,
          "thumb" : "https:\/\/i1.douguo.com\/upload\/caiku\/a\/d\/d\/140_aded3aef1b3e103cb1283ca63ceeba6d.jpg"
        },
        {
          "image_height" : 533,
          "content" : "放入辅食机蒸熟，或者蒸锅也可以的。",
          "thumb" : "https:\/\/i1.douguo.com\/upload\/caiku\/3\/9\/d\/140_396232c1dabff10eda0c6542cfa3315d.jpg",
          "position" : 3,
          "frame" : "-1",
          "image" : "https:\/\/i1.douguo.com\/upload\/caiku\/3\/9\/d\/396232c1dabff10eda0c6542cfa3315d.jpg",
          "image_width" : 800
        },
        {
          "image_width" : 800,
          "content" : "蒸熟的南瓜和牛奶一起放入奶锅中。",
          "thumb" : "https:\/\/i1.douguo.com\/upload\/caiku\/4\/5\/c\/140_454fce09a595607f63effed8b2cb682c.jpg",
          "image_height" : 533,
          "image" : "https:\/\/i1.douguo.com\/upload\/caiku\/4\/5\/c\/454fce09a595607f63effed8b2cb682c.jpg",
          "frame" : "-1",
          "position" : 4
        },
        {
          "position" : 5,
          "image" : "https:\/\/i1.douguo.com\/upload\/caiku\/a\/3\/6\/a36054ddac0c32c202fcd9df6c883726.jpg",
          "image_width" : 800,
          "image_height" : 533,
          "thumb" : "https:\/\/i1.douguo.com\/upload\/caiku\/a\/3\/6\/140_a36054ddac0c32c202fcd9df6c883726.jpg",
          "content" : "用料理棒打成牛奶南瓜糊，小火加热至微微沸腾。",
          "frame" : "-1"
        },
        {
          "position" : 6,
          "image" : "https:\/\/i1.douguo.com\/upload\/caiku\/2\/f\/c\/2fbe54d528d276ceac86729021f3395c.jpg",
          "frame" : "-1",
          "image_width" : 800,
          "thumb" : "https:\/\/i1.douguo.com\/upload\/caiku\/2\/f\/c\/140_2fbe54d528d276ceac86729021f3395c.jpg",
          "image_height" : 533,
          "content" : "期间放入几块冰糖调味。"
        },
        {
          "image_width" : 1280,
          "position" : 7,
          "image" : "https:\/\/i1.douguo.com\/upload\/caiku\/3\/5\/3\/35e9835cbda554425c3ee39fda227383.jpg",
          "thumb" : "https:\/\/i1.douguo.com\/upload\/caiku\/3\/5\/3\/140_35e9835cbda554425c3ee39fda227383.jpg",
          "image_height" : 853,
          "frame" : "-1",
          "content" : "糯米粉用冷水调开。"
        },
        {
          "image_width" : 800,
          "frame" : "-1",
          "thumb" : "https:\/\/i1.douguo.com\/upload\/caiku\/2\/1\/1\/140_21b62f91d215d8a1b3f42b89bc6e65d1.jpg",
          "image_height" : 533,
          "position" : 8,
          "image" : "https:\/\/i1.douguo.com\/upload\/caiku\/2\/1\/1\/21b62f91d215d8a1b3f42b89bc6e65d1.jpg",
          "content" : "分次倒入奶锅中，边到边搅拌，煮至浓稠关火。如果觉得太稠了可以适当加水调整。"
        },
        {
          "position" : 9,
          "content" : "我放了自己喜欢吃的燕麦，口感更丰富。",
          "frame" : "-1",
          "image_height" : 533,
          "image_width" : 800,
          "thumb" : "https:\/\/i1.douguo.com\/upload\/caiku\/6\/f\/6\/140_6f2acde27caef5cb7748c206610c0026.jpg",
          "image" : "https:\/\/i1.douguo.com\/upload\/caiku\/6\/f\/6\/6f2acde27caef5cb7748c206610c0026.jpg"
        },
        {
          "image_width" : 800,
          "frame" : "-1",
          "content" : "特别细腻，润滑。",
          "image" : "https:\/\/i1.douguo.com\/upload\/caiku\/2\/9\/e\/290c5a27d17f52695184f9e785b07a7e.jpg",
          "image_height" : 533,
          "thumb" : "https:\/\/i1.douguo.com\/upload\/caiku\/2\/9\/e\/140_290c5a27d17f52695184f9e785b07a7e.jpg",
          "position" : 10
        }
      ],
      "thumb_height" : 0,
      "story_dsp" : [

      ],
      "share_info" : {
        "infos" : [
          {
            "s_d" : "#学做饭用豆果美食# 我在@豆果美食 分享了【美容牛奶南瓜粥（完爆韩式料理）-会做饭很酷!】，这菜真的很好吃，而且做法简单不难学，还不快来跟我学～查看图片了解菜谱（每天限量免费课程，想跟大师学厨艺就来这https:\/\/m.weibo.cn\/p\/100404i33631）#会做饭很酷# ",
            "mini_program" : [

            ],
            "name" : "美容牛奶南瓜粥（完爆韩式料理）-会做饭很酷!",
            "s_u" : "",
            "qr_image" : "",
            "image" : "https:\/\/cp1.douguo.com\/upload\/caiku\/1\/b\/9\/1b602d5f491244fbbf0abf4e843ba319.jpg",
            "object_id" : "2293599",
            "channel" : "1"
          },
          {
            "qr_image" : "",
            "s_d" : "美容牛奶南瓜粥（完爆韩式料理）-会做饭很酷!",
            "mini_program" : [

            ],
            "channel" : "7",
            "object_id" : "2293599",
            "name" : "美容牛奶南瓜粥（完爆韩式料理）-会做饭很酷!",
            "s_u" : "http:\/\/m.douguo.com\/cookbook\/2293599.html",
            "image" : "https:\/\/cp1.douguo.com\/upload\/caiku\/1\/b\/9\/1b602d5f491244fbbf0abf4e843ba319.jpg"
          },
          {
            "qr_image" : "",
            "mini_program" : [

            ],
            "image" : "https:\/\/cp1.douguo.com\/upload\/caiku\/1\/b\/9\/1b602d5f491244fbbf0abf4e843ba319.jpg",
            "s_u" : "http:\/\/m.douguo.com\/cookbook\/2293599.html",
            "s_d" : "美容牛奶南瓜粥（完爆韩式料理）-会做饭很酷!",
            "object_id" : "2293599",
            "channel" : "8",
            "name" : "美容牛奶南瓜粥（完爆韩式料理）-会做饭很酷!"
          }
        ],
        "qr_image" : "",
        "image" : "https:\/\/cp1.douguo.com\/upload\/caiku\/1\/b\/9\/1b602d5f491244fbbf0abf4e843ba319.jpg",
        "mini_program" : [

        ],
        "object_id" : "2293599",
        "s_d" : "美容牛奶南瓜粥（完爆韩式料理）-会做饭很酷!",
        "s_u" : "http:\/\/m.douguo.com\/cookbook\/2293599.html",
        "name" : "美容牛奶南瓜粥（完爆韩式料理）-会做饭很酷!"
      },
      "cook_time" : "10分钟左右",
      "create_time" : "2019-04-26 23:45:35",
      "cookstory" : "南瓜含有丰富的蛋白质、胡萝卜素、维生素B，维生素C和钙，磷等物质，还可以提高机体免疫力，润肺益气，驱虫解毒，美容等功效。 \n\n最喜欢的就是这道韩式南瓜粥了，喜欢它丝丝细滑的口感，做法也是十分的简单，不用去店里吃了，在家就可以轻松制作，加入了牛奶更是添加了浓浓的奶香，更加丝滑，细润！",
      "tips" : "很简单的一道早餐，我家的两个娃都特别喜欢吃！",
      "mid_mdsp" : [

      ],
      "recommend_label" : "1人学做",
      "v_u" : "",
      "rrps" : [

      ],
      "display_ingredient" : 1,
      "hq" : 1,
      "vfurl" : "",
      "favo_counts_text" : "5651",
      "thumb_path" : "https:\/\/i1.douguo.com\/upload\/caiku\/1\/b\/9\/300_1b602d5f491244fbbf0abf4e843ba319.jpg",
      "rpid" : 0,
      "dishes" : [

      ],
      "packages_id" : [

      ],
      "rate_count" : 1,
      "recipe_list_tags" : [
        {
          "text_color" : "#141515",
          "jump_url" : "",
          "text" : "关注的人",
          "background_border_color" : "",
          "background_end_color" : "#F4F5F5",
          "background_start_color" : "#F4F5F5",
          "right_image" : ""
        },
        {
          "right_image" : "",
          "background_border_color" : "",
          "background_start_color" : "#F4F5F5",
          "background_end_color" : "#F4F5F5",
          "jump_url" : "",
          "text" : "内容详细",
          "text_color" : "#141515"
        }
      ]
    }
  },
  "status" : 0,
  "state" : "success"
}