{
  "status" : 0,
  "result" : {
    "recipe" : {
      "related_ads" : [

      ],
      "cook_difficulty" : "",
      "cookstep" : [
        {
          "image_height" : 450,
          "frame" : "-1",
          "thumb" : "https:\/\/i1.douguo.com\/upload\/caiku\/d\/b\/9\/140_dbaa448d7786a177b63ea75a72fa1829.jpg",
          "position" : 1,
          "image_width" : 800,
          "content" : "糖粉过筛，筛入油里，用打蛋器低速混匀。油糖混匀后，打入一个鸡蛋，用打蛋器低速打发。",
          "image" : "https:\/\/i1.douguo.com\/upload\/caiku\/d\/b\/9\/dbaa448d7786a177b63ea75a72fa1829.jpg"
        },
        {
          "image" : "https:\/\/i1.douguo.com\/upload\/caiku\/a\/9\/c\/a919409243dcf181d1a87594b0d0ed5c.jpg",
          "image_width" : 800,
          "image_height" : 450,
          "thumb" : "https:\/\/i1.douguo.com\/upload\/caiku\/a\/9\/c\/140_a919409243dcf181d1a87594b0d0ed5c.jpg",
          "content" : "油糖蛋混合物打发时，渐渐变得粘稠，转头转动时有清晰的梯田纹路。",
          "position" : 2,
          "frame" : "-1"
        },
        {
          "content" : "持续搅打，直到提起打蛋器能拉出细丝，滴落形成的纹路不会轻易消失。这样就可以进行下一步了。",
          "image_height" : 1422,
          "position" : 3,
          "thumb" : "https:\/\/i1.douguo.com\/upload\/caiku\/9\/a\/4\/140_9ad25e27b5aeb35249cc983b3528a524.jpg",
          "image" : "https:\/\/i1.douguo.com\/upload\/caiku\/9\/a\/4\/9ad25e27b5aeb35249cc983b3528a524.jpg",
          "frame" : "-1",
          "image_width" : 800
        },
        {
          "image_width" : 800,
          "image_height" : 450,
          "thumb" : "https:\/\/i1.douguo.com\/upload\/caiku\/9\/b\/0\/140_9b4783d015752e6e99e3d08d78bd2ff0.jpg",
          "image" : "https:\/\/i1.douguo.com\/upload\/caiku\/9\/b\/0\/9b4783d015752e6e99e3d08d78bd2ff0.jpg",
          "frame" : "-1",
          "position" : 4,
          "content" : "筛入粉类(奶粉，泡打粉，低粉，盐)，用刮刀简单混匀。"
        },
        {
          "position" : 5,
          "frame" : "-1",
          "image" : "https:\/\/i1.douguo.com\/upload\/caiku\/4\/b\/8\/4b7980b88534c07ded94a7f0519f41c8.jpg",
          "content" : "刮刀翻拌均匀。不要过度揉搓，拌到没有干粉就好。",
          "image_height" : 450,
          "image_width" : 800,
          "thumb" : "https:\/\/i1.douguo.com\/upload\/caiku\/4\/b\/8\/140_4b7980b88534c07ded94a7f0519f41c8.jpg"
        },
        {
          "image_height" : 450,
          "content" : "将拌好的面团擀成面片，接下来的就随意发挥吧，用自己喜欢的饼干模子印出花纹。此时可预热烤箱，150度五分钟。",
          "image_width" : 800,
          "position" : 6,
          "frame" : "-1",
          "image" : "https:\/\/i1.douguo.com\/upload\/caiku\/e\/3\/9\/e334a52151b238eb085741b62c09d629.jpg",
          "thumb" : "https:\/\/i1.douguo.com\/upload\/caiku\/e\/3\/9\/140_e334a52151b238eb085741b62c09d629.jpg"
        },
        {
          "frame" : "-1",
          "image_width" : 800,
          "content" : "擀的面皮厚度足够，面团的塑型好的话，面片直接就可以印在模具上了，然后直接转移到烤盘上，超级方便哦。",
          "image" : "https:\/\/i1.douguo.com\/upload\/caiku\/d\/4\/4\/d4fad7d4d2c945074b747497d78d8be4.jpg",
          "position" : 7,
          "thumb" : "https:\/\/i1.douguo.com\/upload\/caiku\/d\/4\/4\/140_d4fad7d4d2c945074b747497d78d8be4.jpg",
          "image_height" : 450
        },
        {
          "content" : "如果由于种种原因，面皮粘不到模具上怎么办呢？那就用刮刀的锐角挑起面片的一角，让面片依附在刮刀上之后再转移到烤盘咯，用勺子柄也可以，尽量别用手扒拉它，手温度高，可能会破坏形状。",
          "image" : "https:\/\/i1.douguo.com\/upload\/caiku\/e\/d\/9\/edae26838af83814eeebcd88dc15a8a9.jpg",
          "position" : 8,
          "frame" : "-1",
          "image_height" : 1422,
          "thumb" : "https:\/\/i1.douguo.com\/upload\/caiku\/e\/d\/9\/140_edae26838af83814eeebcd88dc15a8a9.jpg",
          "image_width" : 800
        },
        {
          "frame" : "-1",
          "image" : "https:\/\/i1.douguo.com\/upload\/caiku\/c\/b\/d\/cb75d3ec859120780a9719dfbdb7f0ed.jpg",
          "image_height" : 450,
          "image_width" : 800,
          "content" : "转移面片~继续转移面片~",
          "position" : 9,
          "thumb" : "https:\/\/i1.douguo.com\/upload\/caiku\/c\/b\/d\/140_cb75d3ec859120780a9719dfbdb7f0ed.jpg"
        },
        {
          "position" : 10,
          "frame" : "-1",
          "thumb" : "https:\/\/i1.douguo.com\/upload\/caiku\/c\/b\/9\/140_cb179771e51adcadb16c81f9234ecd09.jpg",
          "image_height" : 1422,
          "image_width" : 800,
          "image" : "https:\/\/i1.douguo.com\/upload\/caiku\/c\/b\/9\/cb179771e51adcadb16c81f9234ecd09.jpg",
          "content" : "因为家里人喜欢吃芝麻，所以我表面撒了些炒熟的白芝麻，这个随意。烤盘铺好之后，入烤箱，150度，15分钟左右。不清楚烤箱属性的童鞋，还请务必守着烤箱，烤箱功率不同，时间也会有差异。"
        },
        {
          "image" : "https:\/\/i1.douguo.com\/upload\/caiku\/4\/c\/a\/4c3b7beb03d81f9c0a2723f0763133fa.jpg",
          "image_height" : 450,
          "frame" : "-1",
          "position" : 11,
          "content" : "烤到表面上色，就可以出炉晾凉了。",
          "image_width" : 800,
          "thumb" : "https:\/\/i1.douguo.com\/upload\/caiku\/4\/c\/a\/140_4c3b7beb03d81f9c0a2723f0763133fa.jpg"
        }
      ],
      "original_photo_path" : "http:\/\/i1.douguo.net\/upload\/caiku\/1\/7\/9\/yuan_178a7967a9565d434e5f6bb53b454719.jpg",
      "ssu" : "",
      "author_photo" : "http:\/\/tx1.douguo.net\/upload\/photo\/2\/8\/7\/70_u84336174998883201718.jpg",
      "ph" : 538,
      "sc" : 0,
      "recent_comments" : [

      ],
      "v_u" : "",
      "rewarded_video_dsp" : [

      ],
      "create_time" : "2015-05-11 18:21:46",
      "share_info" : {
        "s_d" : "牛奶饼干(无黄油◆详细傻瓜版)-会做饭很酷!",
        "mini_program" : [

        ],
        "image" : "https:\/\/cp1.douguo.com\/upload\/caiku\/1\/7\/9\/178a7967a9565d434e5f6bb53b454719.jpg",
        "s_u" : "http:\/\/m.douguo.com\/cookbook\/1175745.html",
        "object_id" : "1175745",
        "infos" : [
          {
            "object_id" : "1175745",
            "s_u" : "",
            "name" : "牛奶饼干(无黄油◆详细傻瓜版)-会做饭很酷!",
            "s_d" : "#学做饭用豆果美食#  我在@豆果美食 分享了【牛奶饼干(无黄油◆详细傻瓜版)-会做饭很酷!】，制作美食的过程承载了我生活中的热情，和我一起感受这份小确幸吧！查看图片了解菜谱（你喜欢的美食都在这里！https:\/\/m.weibo.cn\/p\/100404i33631）#会做饭很酷# ",
            "channel" : "1",
            "mini_program" : [

            ],
            "qr_image" : "",
            "image" : "https:\/\/cp1.douguo.com\/upload\/caiku\/1\/7\/9\/178a7967a9565d434e5f6bb53b454719.jpg"
          },
          {
            "qr_image" : "",
            "s_u" : "http:\/\/m.douguo.com\/cookbook\/1175745.html",
            "mini_program" : [

            ],
            "object_id" : "1175745",
            "name" : "牛奶饼干(无黄油◆详细傻瓜版)-会做饭很酷!",
            "image" : "https:\/\/cp1.douguo.com\/upload\/caiku\/1\/7\/9\/178a7967a9565d434e5f6bb53b454719.jpg",
            "s_d" : "牛奶饼干(无黄油◆详细傻瓜版)-会做饭很酷!",
            "channel" : "7"
          },
          {
            "qr_image" : "",
            "object_id" : "1175745",
            "channel" : "8",
            "s_u" : "http:\/\/m.douguo.com\/cookbook\/1175745.html",
            "image" : "https:\/\/cp1.douguo.com\/upload\/caiku\/1\/7\/9\/178a7967a9565d434e5f6bb53b454719.jpg",
            "name" : "牛奶饼干(无黄油◆详细傻瓜版)-会做饭很酷!",
            "mini_program" : [

            ],
            "s_d" : "牛奶饼干(无黄油◆详细傻瓜版)-会做饭很酷!"
          }
        ],
        "qr_image" : "",
        "name" : "牛奶饼干(无黄油◆详细傻瓜版)-会做饭很酷!"
      },
      "cookstory" : "无奈，家里某人非常讨厌黄油味，为她还得另做一份无黄油的饼干。参考了高速哥的配方，没有黄油的饼干一样酥酥脆脆的，浓郁的蛋奶味，很好吃哟。看到有部分童鞋做不成功哈，做之前一定要看清楚后面的小贴士哦。另外，油糖蛋没有打发好之前，绝对不可以进行下一步哟！",
      "views_count_text" : "54.4万",
      "photo_path" : "https:\/\/i1.douguo.com\/upload\/caiku\/1\/7\/9\/600_178a7967a9565d434e5f6bb53b454719.jpg",
      "cook_id" : "1175745",
      "rdsps" : [

      ],
      "cook_time_image" : "",
      "ipia" : [

      ],
      "favo_counts" : 12083,
      "user" : {
        "dishes_count" : 0,
        "favor_diaries_count" : 0,
        "is_prime" : 0,
        "lvl" : 1,
        "fc" : 0,
        "setted_email" : 0,
        "verified_image" : "",
        "followers_count" : 0,
        "email" : "",
        "recipes_count" : 0,
        "qq_weibo_nick" : "",
        "progress_image" : "",
        "pc" : 0,
        "regist_time" : "",
        "introduction" : "",
        "avatar_medium" : "http:\/\/tx1.douguo.net\/upload\/photo\/2\/8\/7\/140_u84336174998883201718.jpg",
        "verified_url" : "https:\/\/m.douguo.com\/user\/prodesc",
        "birthday" : "",
        "mobile" : "",
        "gender" : 2,
        "following_count" : 0,
        "point" : 0,
        "verified" : 0,
        "userid" : "3599708",
        "nick" : "Muffie米菲miffy",
        "qzone_nick" : "",
        "coursecount" : 0,
        "user_photo" : "http:\/\/tx1.douguo.net\/upload\/photo\/2\/8\/7\/70_u84336174998883201718.jpg",
        "user_cover" : "",
        "location" : 0,
        "sign" : "",
        "age" : "",
        "subscription_article_count" : 0,
        "user_large_photo" : "http:\/\/tx1.douguo.net\/upload\/photo\/2\/8\/7\/yuan_u84336174998883201718.jpg",
        "weibo_nick" : "",
        "lv" : 0,
        "user_id" : "3599708",
        "diaries_count" : 0,
        "favorites_count" : 0,
        "subscription" : 0
      },
      "event" : {
        "id" : 0
      },
      "dishes" : [

      ],
      "clicks" : "502897",
      "rate_show" : 1,
      "collect_status" : 0,
      "cookwares" : [

      ],
      "cookstorys" : [
        {
          "id" : 0,
          "c" : "无奈，家里某人非常讨厌黄油味，为她还得另做一份无黄油的饼干。参考了高速哥的配方，没有黄油的饼干一样酥酥脆脆的，浓郁的蛋奶味，很好吃哟。看到有部分童鞋做不成功哈，做之前一定要看清楚后面的小贴士哦。另外，油糖蛋没有打发好之前，绝对不可以进行下一步哟！",
          "color" : "",
          "icon" : "",
          "type" : 0,
          "u" : ""
        }
      ],
      "vfurl" : "",
      "comments" : [
        "{\n    ac = \"#999999\";\n    at = \"\";\n    ccc = 5;\n    \"child_comments\" =     (\n                {\n            ac = \"#999999\";\n            at = \"\";\n            ccc = 0;\n            city = \"\";\n            cmc = 2;\n            content =             (\n                                {\n                    c = \" \\U7cd6\\U6ca1\\U6709\\U5f7b\\U5e95\\U6eb6\\U5316\\U7684\\U8bdd\\Uff0c \\U5c31\\U4f1a\\U662f\\U6563\\U7684\\U54e6\\Uff0c\\U6240\\U4ee5\\Uff0c\\U4e0d\\U80fd\\U7528\\U7802\\U7cd6\";\n                }\n            );\n            ia = 1;\n            id = 2319212;\n            \"ip_address_location\" = \"\";\n            like = 0;\n            \"like_count\" = 0;\n            \"reply_id\" = 2316857;\n            \"reply_user\" =             {\n                \"followers_count_text\" = \"\";\n                id = 9476138;\n                \"is_prime\" = 0;\n                lv = 0;\n                lvl = 2;\n                n = joy883;\n                p = \"http:\/\/tx1.douguo.net\/upload\/photo\/e\/1\/2\/70_u31928777475562160344.jpg\";\n                \"progress_image\" = \"\";\n                \"recipes_count_text\" = \"\";\n                relationship = \"-1\";\n                title = \"\";\n                v = 0;\n                \"verified_image\" = \"\";\n            };\n            \"sticker_icon\" =             (\n            );\n            time = \"2015-06-03 11:10:25\";\n            u =             {\n                \"followers_count_text\" = \"\";\n                id = 3599708;\n                \"is_prime\" = 0;\n                lv = 0;\n                lvl = 1;\n                n = \"Muffie\\U7c73\\U83f2miffy\";\n                p = \"http:\/\/tx1.douguo.net\/upload\/photo\/2\/8\/7\/70_u84336174998883201718.jpg\";\n                \"progress_image\" = \"\";\n                \"recipes_count_text\" = \"\";\n                relationship = \"-1\";\n                title = \"\";\n                v = 0;\n                \"verified_image\" = \"\";\n            };\n        },\n                {\n            ac = \"#999999\";\n            at = \"\";\n            ccc = 0;\n            city = \"\";\n            cmc = 2;\n            content =             (\n                                {\n                    c = \" \\U662f\\U7cd6\\U7c89\\Uff0c\\U8fd8\\U6709\\U5176\\U4ed6\\U539f\\U56e0\\U5417\\Uff1f\\U9762\\U56e2\\U80fd\\U6324\\U51fa\\U6cb9\\Uff0c\\U70e4\\U51fa\\U6765\\U5f88\\U786c\";\n                }\n            );\n            ia = 0;\n            id = 2321374;\n            \"ip_address_location\" = \"\";\n            like = 0;\n            \"like_count\" = 0;\n            \"reply_id\" = 2319212;\n            \"reply_user\" =             {\n                \"followers_count_text\" = \"\";\n                id = 3599708;\n                \"is_prime\" = 0;\n                lv = 0;\n                lvl = 1;\n                n = \"Muffie\\U7c73\\U83f2miffy\";\n                p = \"http:\/\/tx1.douguo.net\/upload\/photo\/2\/8\/7\/70_u84336174998883201718.jpg\";\n                \"progress_image\" = \"\";\n                \"recipes_count_text\" = \"\";\n                relationship = \"-1\";\n                title = \"\";\n                v = 0;\n                \"verified_image\" = \"\";\n            };\n            \"sticker_icon\" =             (\n            );\n            time = \"2015-06-04 06:37:26\";\n            u =             {\n                \"followers_count_text\" = \"\";\n                id = 9476138;\n                \"is_prime\" = 0;\n                lv = 0;\n                lvl = 2;\n                n = joy883;\n                p = \"http:\/\/tx1.douguo.net\/upload\/photo\/e\/1\/2\/70_u31928777475562160344.jpg\";\n                \"progress_image\" = \"\";\n                \"recipes_count_text\" = \"\";\n                relationship = \"-1\";\n                title = \"\";\n                v = 0;\n                \"verified_image\" = \"\";\n            };\n        }\n    );\n    city = \"\";\n    cmc = 2;\n    content =     (\n                {\n            c = \"\\U4e3a\\U4ec0\\U4e48\\U6d3b\\U4e0d\\U6210\\U9762\\U56e2\\Uff0c\\U4e00\\U76f4\\U662f\\U6563\\U7684\";\n        }\n    );\n    ia = 0;\n    id = 2316857;\n    \"ip_address_location\" = \"\";\n    like = 0;\n    \"like_count\" = 0;\n    \"reply_id\" = 0;\n    \"sticker_icon\" =     (\n    );\n    time = \"2015-06-02 15:34:05\";\n    u =     {\n        \"followers_count_text\" = \"\";\n        id = 9476138;\n        \"is_prime\" = 0;\n        lv = 0;\n        lvl = 2;\n        n = joy883;\n        p = \"http:\/\/tx1.douguo.net\/upload\/photo\/e\/1\/2\/70_u31928777475562160344.jpg\";\n        \"progress_image\" = \"\";\n        \"recipes_count_text\" = \"\";\n        relationship = \"-1\";\n        title = \"\";\n        v = 0;\n        \"verified_image\" = \"\";\n    };\n}",
        "{\n    ac = \"#999999\";\n    at = \"\";\n    ccc = 3;\n    \"child_comments\" =     (\n                {\n            ac = \"#999999\";\n            at = \"\";\n            ccc = 0;\n            city = \"\";\n            cmc = 2;\n            content =             (\n                                {\n                    c = \" \\U4e0d\\U592a\\U63a8\\U8350\\U653e\\U6db2\\U4f53\\U5976\\U3002\\U6ca1\\U6709\\U5976\\U7c89\\U7684\\U8bdd\\Uff0c\\U4e0d\\U52a0\\U5976\\U7c89\\U4e5f\\U53ef\\U4ee5\\Uff0c\\U5976\\U7c89\\U7684\\U91cf\\U7528\\U4f4e\\U7c89\\U8865\\U4e0a\\U3002\\U4e0d\\U540c\\U7684\\U9762\\U7c89\\U5438\\U6c34\\U6027\\U4e0d\\U540c\\Uff0c\\U5982\\U679c\\U975e\\U8981\\U52a0\\U6db2\\U4f53\\U5976\\Uff0c\\U90a3\\U5c31\\U53ea\\U80fd\\U81ea\\U5df1\\U53c2\\U8003\\U9762\\U56e2\\U7684\\U8f6f\\U786c\\U5ea6\\Uff0c\\U5c0f\\U5fc3\\U5730\\U52a0\\U4e86\\U3002\";\n                }\n            );\n            ia = 1;\n            id = 2368553;\n            \"ip_address_location\" = \"\";\n            like = 0;\n            \"like_count\" = 0;\n            \"reply_id\" = 2354362;\n            \"reply_user\" =             {\n                \"followers_count_text\" = \"\";\n                id = 9474151;\n                \"is_prime\" = 0;\n                lv = 0;\n                lvl = 1;\n                n = \"AN___\\U60c5\\U6df1\\U51e0\\U8bb8\";\n                p = \"http:\/\/tx1.douguo.net\/upload\/photo\/1\/4\/e\/70_149d59cd55d84be2ab840690be4ddefe.jpg\";\n                \"progress_image\" = \"\";\n                \"recipes_count_text\" = \"\";\n                relationship = \"-1\";\n                title = \"\";\n                v = 0;\n                \"verified_image\" = \"\";\n            };\n            \"sticker_icon\" =             (\n            );\n            time = \"2015-06-21 16:08:20\";\n            u =             {\n                \"followers_count_text\" = \"\";\n                id = 3599708;\n                \"is_prime\" = 0;\n                lv = 0;\n                lvl = 1;\n                n = \"Muffie\\U7c73\\U83f2miffy\";\n                p = \"http:\/\/tx1.douguo.net\/upload\/photo\/2\/8\/7\/70_u84336174998883201718.jpg\";\n                \"progress_image\" = \"\";\n                \"recipes_count_text\" = \"\";\n                relationship = \"-1\";\n                title = \"\";\n                v = 0;\n                \"verified_image\" = \"\";\n            };\n        },\n                {\n            ac = \"#999999\";\n            at = \"\";\n            ccc = 0;\n            city = \"\";\n            cmc = 2;\n            content =             (\n                                {\n                    c = \" \\U8c22\\U8c22\\U5566\\Uff01\\U90a3\\U6211\\U5c31\\U7528\\U5b9d\\U5b9d\\U7684\\U5976\\U7c89\\U5427\";\n                }\n            );\n            ia = 0;\n            id = 2369208;\n            \"ip_address_location\" = \"\";\n            like = 0;\n            \"like_count\" = 0;\n            \"reply_id\" = 2368553;\n            \"reply_user\" =             {\n                \"followers_count_text\" = \"\";\n                id = 3599708;\n                \"is_prime\" = 0;\n                lv = 0;\n                lvl = 1;\n                n = \"Muffie\\U7c73\\U83f2miffy\";\n                p = \"http:\/\/tx1.douguo.net\/upload\/photo\/2\/8\/7\/70_u84336174998883201718.jpg\";\n                \"progress_image\" = \"\";\n                \"recipes_count_text\" = \"\";\n                relationship = \"-1\";\n                title = \"\";\n                v = 0;\n                \"verified_image\" = \"\";\n            };\n            \"sticker_icon\" =             (\n            );\n            time = \"2015-06-22 03:20:16\";\n            u =             {\n                \"followers_count_text\" = \"\";\n                id = 9474151;\n                \"is_prime\" = 0;\n                lv = 0;\n                lvl = 1;\n                n = \"AN___\\U60c5\\U6df1\\U51e0\\U8bb8\";\n                p = \"http:\/\/tx1.douguo.net\/upload\/photo\/1\/4\/e\/70_149d59cd55d84be2ab840690be4ddefe.jpg\";\n                \"progress_image\" = \"\";\n                \"recipes_count_text\" = \"\";\n                relationship = \"-1\";\n                title = \"\";\n                v = 0;\n                \"verified_image\" = \"\";\n            };\n        }\n    );\n    city = \"\";\n    cmc = 2;\n    content =     (\n                {\n            c = \"\\U5982\\U679c\\U4e0d\\U7528\\U5976\\U7c89\\Uff0c\\U6362\\U6210\\U9c9c\\U5976\\Uff0c\\U8981\\U653e\\U591a\\U5c11\\Uff1f\";\n        }\n    );\n    ia = 0;\n    id = 2354362;\n    \"ip_address_location\" = \"\";\n    like = 0;\n    \"like_count\" = 1;\n    \"reply_id\" = 0;\n    \"sticker_icon\" =     (\n    );\n    time = \"2015-06-16 03:02:19\";\n    u =     {\n        \"followers_count_text\" = \"\";\n        id = 9474151;\n        \"is_prime\" = 0;\n        lv = 0;\n        lvl = 1;\n        n = \"AN___\\U60c5\\U6df1\\U51e0\\U8bb8\";\n        p = \"http:\/\/tx1.douguo.net\/upload\/photo\/1\/4\/e\/70_149d59cd55d84be2ab840690be4ddefe.jpg\";\n        \"progress_image\" = \"\";\n        \"recipes_count_text\" = \"\";\n        relationship = \"-1\";\n        title = \"\";\n        v = 0;\n        \"verified_image\" = \"\";\n    };\n}",
        "{\n    ac = \"#999999\";\n    at = \"\";\n    ccc = 3;\n    \"child_comments\" =     (\n                {\n            ac = \"#999999\";\n            at = \"\";\n            ccc = 0;\n            city = \"\";\n            cmc = 2;\n            content =             (\n                                {\n                    c = \" \\U4e0d\\U63a8\\U8350\\U7528\\U7802\\U7cd6\\Uff0c\\U5e38\\U6e29\\U4e0b\\U7802\\U7cd6\\U5f88\\U96be\\U6eb6\\U89e3\";\n                }\n            );\n            ia = 1;\n            id = 2306331;\n            \"ip_address_location\" = \"\";\n            like = 0;\n            \"like_count\" = 0;\n            \"reply_id\" = 2306198;\n            \"reply_user\" =             {\n                \"followers_count_text\" = \"\";\n                id = 9342782;\n                \"is_prime\" = 0;\n                lv = 0;\n                lvl = 1;\n                n = \"\\U8981\\U4e48\\Ufe4e\\U3000\\U4e0d\\U5f00\\U59cb\\U309c\";\n                p = \"http:\/\/tx1.douguo.net\/upload\/photo\/4\/a\/6\/70_u31086301726131163117.jpg\";\n                \"progress_image\" = \"\";\n                \"recipes_count_text\" = \"\";\n                relationship = \"-1\";\n                title = \"\";\n                v = 0;\n                \"verified_image\" = \"\";\n            };\n            \"sticker_icon\" =             (\n            );\n            time = \"2015-05-29 16:06:42\";\n            u =             {\n                \"followers_count_text\" = \"\";\n                id = 3599708;\n                \"is_prime\" = 0;\n                lv = 0;\n                lvl = 1;\n                n = \"Muffie\\U7c73\\U83f2miffy\";\n                p = \"http:\/\/tx1.douguo.net\/upload\/photo\/2\/8\/7\/70_u84336174998883201718.jpg\";\n                \"progress_image\" = \"\";\n                \"recipes_count_text\" = \"\";\n                relationship = \"-1\";\n                title = \"\";\n                v = 0;\n                \"verified_image\" = \"\";\n            };\n        },\n                {\n            ac = \"#999999\";\n            at = \"\";\n            ccc = 0;\n            city = \"\";\n            cmc = 2;\n            content =             (\n                                {\n                    c = \" \\U6cb9\\U53ef\\U4ee5\\U9002\\U5f53\\U51cf\\U91cf\\Uff0c\\U51cf10~20g\\U662f\\U53ef\\U4ee5\\U7684\";\n                }\n            );\n            ia = 1;\n            id = 2306337;\n            \"ip_address_location\" = \"\";\n            like = 0;\n            \"like_count\" = 0;\n            \"reply_id\" = 2306198;\n            \"reply_user\" =             {\n                \"followers_count_text\" = \"\";\n                id = 9342782;\n                \"is_prime\" = 0;\n                lv = 0;\n                lvl = 1;\n                n = \"\\U8981\\U4e48\\Ufe4e\\U3000\\U4e0d\\U5f00\\U59cb\\U309c\";\n                p = \"http:\/\/tx1.douguo.net\/upload\/photo\/4\/a\/6\/70_u31086301726131163117.jpg\";\n                \"progress_image\" = \"\";\n                \"recipes_count_text\" = \"\";\n                relationship = \"-1\";\n                title = \"\";\n                v = 0;\n                \"verified_image\" = \"\";\n            };\n            \"sticker_icon\" =             (\n            );\n            time = \"2015-05-29 16:08:16\";\n            u =             {\n                \"followers_count_text\" = \"\";\n                id = 3599708;\n                \"is_prime\" = 0;\n                lv = 0;\n                lvl = 1;\n                n = \"Muffie\\U7c73\\U83f2miffy\";\n                p = \"http:\/\/tx1.douguo.net\/upload\/photo\/2\/8\/7\/70_u84336174998883201718.jpg\";\n                \"progress_image\" = \"\";\n                \"recipes_count_text\" = \"\";\n                relationship = \"-1\";\n                title = \"\";\n                v = 0;\n                \"verified_image\" = \"\";\n            };\n        }\n    );\n    city = \"\";\n    cmc = 2;\n    content =     (\n                {\n            c = \"\\U7528\\U7802\\U7cd6\\U4ee3\\U66ff\\U7cd6\\U7c89\\U53ef\\U4ee5\\U5417\\Uff0c\\U8fd8\\U6709\\U6cb9\\U53ef\\U4ee5\\U51cf\\U91cf\\U5417\\Uff1f\";\n        }\n    );\n    ia = 0;\n    id = 2306198;\n    \"ip_address_location\" = \"\";\n    like = 0;\n    \"like_count\" = 0;\n    \"reply_id\" = 0;\n    \"sticker_icon\" =     (\n    );\n    time = \"2015-05-29 15:06:31\";\n    u =     {\n        \"followers_count_text\" = \"\";\n        id = 9342782;\n        \"is_prime\" = 0;\n        lv = 0;\n        lvl = 1;\n        n = \"\\U8981\\U4e48\\Ufe4e\\U3000\\U4e0d\\U5f00\\U59cb\\U309c\";\n        p = \"http:\/\/tx1.douguo.net\/upload\/photo\/4\/a\/6\/70_u31086301726131163117.jpg\";\n        \"progress_image\" = \"\";\n        \"recipes_count_text\" = \"\";\n        relationship = \"-1\";\n        title = \"\";\n        v = 0;\n        \"verified_image\" = \"\";\n    };\n}"
      ],
      "rate" : 4,
      "tags" : [
        "{\n    text = \"\\U70d8\\U7119\";\n}",
        "{\n    text = \"\\U96f6\\U98df\";\n}",
        "{\n    text = \"\\U997c\\U5e72\";\n}",
        "{\n    text = \"\\U70e4\\U7bb1\\U98df\\U8c31\";\n}",
        "{\n    text = \"\\U70e4\";\n}",
        "{\n    text = \"\\U9999\\U9165\";\n}",
        "{\n    text = \"\\U5976\\U9999\";\n}",
        "{\n    text = \"\\U4e0b\\U5348\\U8336\";\n}",
        "{\n    text = \"\\U897f\\U9910\";\n}",
        "{\n    text = \"\\U62cc\";\n}",
        "{\n    text = \"\\U751c\";\n}"
      ],
      "vc" : "543909",
      "mid_mdsp" : [

      ],
      "cook_difficulty_image" : "",
      "rrpt" : "",
      "release_time" : "",
      "advice" : {
        "has" : [
          {
            "url" : "recipes:\/\/www.douguo.com\/simplerecipelist?t=高热量&id=高热量",
            "t" : "高热量"
          },
          {
            "url" : "recipes:\/\/www.douguo.com\/simplerecipelist?t=高脂肪&id=高脂肪",
            "t" : "高脂肪"
          }
        ],
        "at" : "适量即可～",
        "da" : {
          "url" : "https:\/\/m.douguo.com\/recipe\/nutrient_self\/1175745",
          "iu" : "https:\/\/i1.douguo.com\/upload\/banner\/f\/4\/d\/f48877e53c37759bc12ac494be82ec8d.png",
          "t" : "查看详细分析"
        }
      },
      "rrps" : [

      ],
      "tips" : "◆配方口感偏甜，但是也有人觉得甜度刚刚好，糖粉用量可以减，但是，不要低于60g咯~◆配方的面团是偏干的，适合用饼干模具，不太适合裱花，要裱花的话，可以加一些淡奶油来调节面团的软硬度，但是植物油的用量不能再加了。◆忌用砂糖，一定要用细腻的糖粉或者糖霜，否则无法打发成功，或者出现面粉和不成团的情况。",
      "btm_dsp" : [

      ],
      "recipe_list_tags" : [
        {
          "right_image" : "",
          "text_color" : "#141515",
          "background_border_color" : "",
          "text" : "关注的人",
          "background_end_color" : "#F4F5F5",
          "background_start_color" : "#F4F5F5",
          "jump_url" : ""
        },
        {
          "jump_url" : "",
          "background_start_color" : "#F4F5F5",
          "background_border_color" : "",
          "text_color" : "#141515",
          "right_image" : "",
          "text" : "内容详细",
          "background_end_color" : "#F4F5F5"
        }
      ],
      "display_ingredient" : 1,
      "recommend_label" : "160人学做",
      "bs" : [

      ],
      "author_id" : 3599708,
      "rips" : 0,
      "rate_count" : 51,
      "ipt" : "",
      "rpid" : 0,
      "rcs" : [

      ],
      "ipurl" : "",
      "title_ad" : [

      ],
      "author_verified" : 0,
      "rsm" : "该功能暂停使用",
      "comments_count_text" : "107",
      "favo_counts_text" : "1.2万",
      "pw" : 799,
      "ipit" : 0,
      "hq" : 1,
      "thumb_path" : "https:\/\/i1.douguo.com\/upload\/caiku\/1\/7\/9\/300_178a7967a9565d434e5f6bb53b454719.jpg",
      "rpt" : "",
      "ecs" : 0,
      "guide_image" : "",
      "ss" : [

      ],
      "recipe_tags" : [

      ],
      "recommended" : 0,
      "act_des" : "",
      "minor" : [

      ],
      "su" : "",
      "dish_count_text" : "160",
      "comments_count" : 107,
      "rpst" : "",
      "purl" : "",
      "hqu" : "recipes:\/\/www.douguo.com\/notedetail?id=21162253",
      "major" : [
        {
          "tu" : "https:\/\/m.douguo.com\/ingredients\/低粉\/detailmaterial",
          "title" : "低粉",
          "note" : "180g"
        },
        {
          "tu" : "https:\/\/m.douguo.com\/ingredients\/植物油\/detailmaterial",
          "note" : "95g",
          "title" : "植物油"
        },
        {
          "note" : "20g",
          "title" : "奶粉(无糖)"
        },
        {
          "tu" : "https:\/\/m.douguo.com\/ingredients\/糖粉\/detailmaterial",
          "note" : "70g",
          "title" : "糖粉"
        },
        {
          "title" : "全蛋",
          "note" : "50g"
        },
        {
          "title" : "无铝泡打粉",
          "note" : "1g"
        },
        {
          "tu" : "https:\/\/m.douguo.com\/ingredients\/食盐\/detailmaterial",
          "title" : "食盐",
          "note" : "1g"
        }
      ],
      "author" : "Muffie米菲miffy",
      "thumb_height" : 0,
      "story_dsp" : [

      ],
      "title" : "牛奶饼干(无黄油◆详细傻瓜版)",
      "eu" : "recipes:\/\/www.douguo.com\/postdetail?id=242016",
      "sr" : "",
      "image" : "http:\/\/i1.douguo.net\/upload\/caiku\/1\/7\/9\/300_178a7967a9565d434e5f6bb53b454719.jpg",
      "old_comments" : [

      ],
      "brand_day_dsp" : [

      ],
      "notes" : [

      ],
      "levelid" : 2,
      "top_mdsp" : [

      ],
      "dish_count" : 160,
      "first_level_comment_count" : 72,
      "ipoi" : "",
      "ipci" : "",
      "cook_time" : "",
      "recommendation_tag" : "",
      "packages_id" : [

      ],
      "vu" : ""
    }
  },
  "state" : "success"
}