{
  "result" : {
    "recipe" : {
      "cook_difficulty" : "",
      "v_u" : "",
      "favo_counts" : 1328,
      "vc" : "132272",
      "purl" : "",
      "story_dsp" : [

      ],
      "vfurl" : "",
      "related_ads" : [

      ],
      "top_mdsp" : [

      ],
      "mid_mdsp" : [

      ],
      "dish_count_text" : "3",
      "recommended" : 0,
      "notes" : [

      ],
      "ss" : [

      ],
      "image" : "http:\/\/i1.douguo.net\/upload\/caiku\/7\/7\/0\/300_77dd19782e576af0c51ea3b7b7131f00.jpg",
      "rate_show" : 0,
      "cookstory" : "两根油条，一碗豆花\n无法割舍的晨之美。\n",
      "original_photo_path" : "http:\/\/i1.douguo.net\/upload\/caiku\/7\/7\/0\/yuan_77dd19782e576af0c51ea3b7b7131f00.jpg",
      "user" : {
        "mobile" : "",
        "user_id" : "10973463",
        "point" : 0,
        "age" : "",
        "followers_count" : 0,
        "fc" : 0,
        "user_photo" : "http:\/\/tx1.douguo.net\/upload\/photo\/f\/6\/e\/70_u4006446931631908211605.jpg",
        "lv" : 0,
        "diaries_count" : 0,
        "verified_url" : "https:\/\/m.douguo.com\/user\/prodesc",
        "userid" : "10973463",
        "is_prime" : 0,
        "introduction" : "",
        "user_large_photo" : "http:\/\/tx1.douguo.net\/upload\/photo\/f\/6\/e\/yuan_u4006446931631908211605.jpg",
        "weibo_nick" : "",
        "email" : "",
        "birthday" : "",
        "user_cover" : "",
        "recipes_count" : 0,
        "progress_image" : "",
        "verified" : 1,
        "lvl" : 6,
        "qzone_nick" : "",
        "qq_weibo_nick" : "",
        "coursecount" : 0,
        "gender" : 1,
        "regist_time" : "",
        "setted_email" : 0,
        "sign" : "",
        "avatar_medium" : "http:\/\/tx1.douguo.net\/upload\/photo\/f\/6\/e\/140_u4006446931631908211605.jpg",
        "pc" : 0,
        "location" : 0,
        "following_count" : 0,
        "favor_diaries_count" : 0,
        "favorites_count" : 0,
        "dishes_count" : 0,
        "nick" : "姜叔的日食记",
        "verified_image" : "https:\/\/i1.douguo.com\/upload\/note\/d\/a\/a\/da84247847aebe48d9dd0fcdac88862a.png",
        "subscription" : 0,
        "subscription_article_count" : 0
      },
      "guide_image" : "",
      "sc" : 0,
      "first_level_comment_count" : 8,
      "rdsps" : [

      ],
      "packages_id" : [

      ],
      "rrps" : [

      ],
      "clicks" : "125247",
      "recipe_list_tags" : [
        {
          "text" : "关注的人",
          "background_border_color" : "",
          "text_color" : "#141515",
          "background_start_color" : "#F4F5F5",
          "background_end_color" : "#F4F5F5",
          "jump_url" : "",
          "right_image" : ""
        }
      ],
      "share_info" : {
        "image" : "https:\/\/cp1.douguo.com\/upload\/caiku\/7\/7\/0\/77dd19782e576af0c51ea3b7b7131f00.jpg",
        "qr_image" : "",
        "object_id" : "1268192",
        "mini_program" : [

        ],
        "infos" : [
          {
            "name" : "甜咸豆腐脑｜日食记-会做饭很酷!",
            "s_u" : "",
            "qr_image" : "",
            "mini_program" : [

            ],
            "object_id" : "1268192",
            "channel" : "1",
            "s_d" : "#学做饭用豆果美食# 我在@豆果美食 分享了【甜咸豆腐脑｜日食记-会做饭很酷!】，哟，集美们～你看这是神仙美味～快跟着我做一份，做一份！查看图片了解菜谱（更多美食秘籍点击https:\/\/m.weibo.cn\/p\/100404i33631获取）#会做饭很酷# ",
            "image" : "https:\/\/cp1.douguo.com\/upload\/caiku\/7\/7\/0\/77dd19782e576af0c51ea3b7b7131f00.jpg"
          },
          {
            "object_id" : "1268192",
            "s_d" : "甜咸豆腐脑｜日食记-会做饭很酷!",
            "mini_program" : [

            ],
            "name" : "甜咸豆腐脑｜日食记-会做饭很酷!",
            "qr_image" : "",
            "s_u" : "http:\/\/m.douguo.com\/cookbook\/1268192.html",
            "image" : "https:\/\/cp1.douguo.com\/upload\/caiku\/7\/7\/0\/77dd19782e576af0c51ea3b7b7131f00.jpg",
            "channel" : "7"
          },
          {
            "qr_image" : "",
            "s_d" : "甜咸豆腐脑｜日食记-会做饭很酷!",
            "mini_program" : [

            ],
            "s_u" : "http:\/\/m.douguo.com\/cookbook\/1268192.html",
            "channel" : "8",
            "image" : "https:\/\/cp1.douguo.com\/upload\/caiku\/7\/7\/0\/77dd19782e576af0c51ea3b7b7131f00.jpg",
            "object_id" : "1268192",
            "name" : "甜咸豆腐脑｜日食记-会做饭很酷!"
          }
        ],
        "s_u" : "http:\/\/m.douguo.com\/cookbook\/1268192.html",
        "name" : "甜咸豆腐脑｜日食记-会做饭很酷!",
        "s_d" : "甜咸豆腐脑｜日食记-会做饭很酷!"
      },
      "ipia" : [

      ],
      "cook_time" : "",
      "collect_status" : 0,
      "pw" : 610,
      "old_comments" : [

      ],
      "author_verified" : 1,
      "display_ingredient" : 1,
      "thumb_height" : 0,
      "cookwares" : [

      ],
      "ssu" : "",
      "su" : "",
      "recommend_label" : "3人学做",
      "ipurl" : "",
      "recommendation_tag" : "",
      "rpid" : 0,
      "act_des" : "",
      "btm_dsp" : [

      ],
      "vu" : "",
      "rrpt" : "",
      "tips" : "",
      "comments_count_text" : "10",
      "rsm" : "该功能暂停使用",
      "views_count_text" : "13.2万",
      "author_photo" : "http:\/\/tx1.douguo.net\/upload\/photo\/f\/6\/e\/70_u4006446931631908211605.jpg",
      "advice" : {
        "has" : [
          {
            "t" : "0胆固醇",
            "url" : "recipes:\/\/www.douguo.com\/simplerecipelist?t=0胆固醇&id=0胆固醇"
          },
          {
            "t" : "富含膳食纤维",
            "url" : "recipes:\/\/www.douguo.com\/simplerecipelist?t=富含膳食纤维&id=富含膳食纤维"
          }
        ],
        "da" : {
          "t" : "查看详细分析",
          "url" : "https:\/\/m.douguo.com\/recipe\/nutrient_self\/1268192",
          "iu" : "https:\/\/i1.douguo.com\/upload\/banner\/f\/4\/d\/f48877e53c37759bc12ac494be82ec8d.png"
        },
        "at" : "适合三高人群哦～"
      },
      "hqu" : "recipes:\/\/www.douguo.com\/notedetail?id=21162253",
      "ipit" : 0,
      "tags" : [
        "{\n    text = \"\\U8c46\\U5236\\U54c1\";\n}",
        "{\n    text = \"\\U5c0f\\U5403\";\n}",
        "{\n    text = \"\\U65e9\\U9910\\U98df\\U8c31\";\n}"
      ],
      "comments" : [
        "{\n    ac = \"#999999\";\n    at = \"\";\n    ccc = 2;\n    \"child_comments\" =     (\n                {\n            ac = \"#999999\";\n            at = \"\";\n            ccc = 0;\n            city = \"\";\n            cmc = 2;\n            content =             (\n                                {\n                    c = \" \\U751f\\U8c46\\U6d46\\U6709\\U6bd2 \\U4e00\\U5b9a\\U8981\\U505a\\U719f\";\n                }\n            );\n            ia = 0;\n            id = 2708707;\n            \"ip_address_location\" = \"\";\n            like = 0;\n            \"like_count\" = 0;\n            \"reply_id\" = 2708014;\n            \"reply_user\" =             {\n                \"followers_count_text\" = \"\";\n                id = 5983593;\n                \"is_prime\" = 0;\n                lv = 0;\n                lvl = 1;\n                n = \"\\U56de\\U5f52\\U5e78\\U798f\";\n                p = \"http:\/\/tx1.douguo.net\/upload\/photo\/6\/2\/2\/70_u12168157307758224319.jpg\";\n                \"progress_image\" = \"\";\n                \"recipes_count_text\" = \"\";\n                relationship = \"-1\";\n                title = \"\";\n                v = 0;\n                \"verified_image\" = \"\";\n            };\n            \"sticker_icon\" =             (\n            );\n            time = \"2015-10-08 23:23:29\";\n            u =             {\n                \"followers_count_text\" = \"\";\n                id = 11334903;\n                \"is_prime\" = 0;\n                lv = 0;\n                lvl = 1;\n                n = \"\\U963fSir\\U4e8b\\U591a\\U591a\";\n                p = \"http:\/\/tx1.douguo.net\/upload\/photo\/3\/f\/6\/70_3f31fb3d67d082233bc0449286f98396.jpg\";\n                \"progress_image\" = \"\";\n                \"recipes_count_text\" = \"\";\n                relationship = \"-1\";\n                title = \"\";\n                v = 0;\n                \"verified_image\" = \"\";\n            };\n        },\n                {\n            ac = \"#999999\";\n            at = \"\";\n            ccc = 0;\n            city = \"\";\n            cmc = 2;\n            content =             (\n                                {\n                    c = \" \\U716e\\U719f\\U667e\\U523085\\U5ea6-90\\U5ea6\\U5bb6\\U5185\\U916f\";\n                }\n            );\n            ia = 0;\n            id = 4652005;\n            \"ip_address_location\" = \"\";\n            like = 0;\n            \"like_count\" = 0;\n            \"reply_id\" = 2708014;\n            \"reply_user\" =             {\n                \"followers_count_text\" = \"\";\n                id = 5983593;\n                \"is_prime\" = 0;\n                lv = 0;\n                lvl = 1;\n                n = \"\\U56de\\U5f52\\U5e78\\U798f\";\n                p = \"http:\/\/tx1.douguo.net\/upload\/photo\/6\/2\/2\/70_u12168157307758224319.jpg\";\n                \"progress_image\" = \"\";\n                \"recipes_count_text\" = \"\";\n                relationship = \"-1\";\n                title = \"\";\n                v = 0;\n                \"verified_image\" = \"\";\n            };\n            \"sticker_icon\" =             (\n            );\n            time = \"2017-04-18 15:28:53\";\n            u =             {\n                \"followers_count_text\" = \"\";\n                id = 2851502;\n                \"is_prime\" = 0;\n                lv = 0;\n                lvl = 1;\n                n = \"\\U7231\\U5403\\U5927\\U8c61\\U7684\\U8001\\U9f20\";\n                p = \"http:\/\/tx1.douguo.net\/upload\/photo\/a\/2\/8\/70_u70921981692188191726.jpg\";\n                \"progress_image\" = \"\";\n                \"recipes_count_text\" = \"\";\n                relationship = \"-1\";\n                title = \"\";\n                v = 0;\n                \"verified_image\" = \"\";\n            };\n        }\n    );\n    city = \"\";\n    cmc = 2;\n    content =     (\n                {\n            c = \"\\U8c46\\U6d46\\U4e0d\\U716e\\U6cb8\\Uff0c\\U4f1a\\U4e0d\\U4f1a\\U559d\\U4e86\\U8fc7\\U654f\\U5462\\Uff1f\";\n        }\n    );\n    ia = 0;\n    id = 2708014;\n    \"ip_address_location\" = \"\";\n    like = 0;\n    \"like_count\" = 0;\n    \"reply_id\" = 0;\n    \"sticker_icon\" =     (\n    );\n    time = \"2015-10-08 12:58:30\";\n    u =     {\n        \"followers_count_text\" = \"\";\n        id = 5983593;\n        \"is_prime\" = 0;\n        lv = 0;\n        lvl = 1;\n        n = \"\\U56de\\U5f52\\U5e78\\U798f\";\n        p = \"http:\/\/tx1.douguo.net\/upload\/photo\/6\/2\/2\/70_u12168157307758224319.jpg\";\n        \"progress_image\" = \"\";\n        \"recipes_count_text\" = \"\";\n        relationship = \"-1\";\n        title = \"\";\n        v = 0;\n        \"verified_image\" = \"\";\n    };\n}",
        "{\n    ac = \"#999999\";\n    at = \"\";\n    ccc = 0;\n    \"child_comments\" =     (\n    );\n    city = \"\";\n    cmc = 2;\n    content =     (\n                {\n            c = \"\\U4e3a\\U4ec0\\U4e48\\U6211\\U505a\\U7684\\U51fa\\U6c64\\U7279\\U522b\\U591a\\Uff0c\\U8c46\\U8150\\U8111\\U7279\\U522b\\U5ae9\\U7231\\U788e\\Uff0c\\U4e0d\\U50cf\\U4e70\\U7684\\U90a3\\U6837\\U786c\";\n        }\n    );\n    ia = 0;\n    id = 4727877;\n    \"ip_address_location\" = \"\";\n    like = 0;\n    \"like_count\" = 0;\n    \"reply_id\" = 0;\n    \"sticker_icon\" =     (\n    );\n    time = \"2017-05-10 09:17:06\";\n    u =     {\n        \"followers_count_text\" = \"\";\n        id = 18325988;\n        \"is_prime\" = 0;\n        lv = 0;\n        lvl = 4;\n        n = \"\\U9ad8\\U592a\\U592a\\U597d\\U5988\\U5988\";\n        p = \"http:\/\/tx1.douguo.net\/upload\/photo\/3\/c\/e\/70_u71432168130172184435.jpeg\";\n        \"progress_image\" = \"\";\n        \"recipes_count_text\" = \"\";\n        relationship = \"-1\";\n        title = \"\";\n        v = 0;\n        \"verified_image\" = \"\";\n    };\n}",
        "{\n    ac = \"#999999\";\n    at = \"\";\n    ccc = 0;\n    \"child_comments\" =     (\n    );\n    city = \"\";\n    cmc = 2;\n    content =     (\n                {\n            c = \"\\U4f60\\U597d\\Uff0c\\U95ee\\U4e00\\U4e0b\\Uff0c\\U9ec4\\U7cd6\\U6d46\\U6709\\U7684\\U5356\\U4e48\\Uff1f\\U8fd8\\U662f\\U8981\\U81ea\\U5df1\\U505a\\U7684\\Uff0c\\U600e\\U4e48\\U505a\\U5462\\Uff1f\";\n        }\n    );\n    ia = 0;\n    id = 3361512;\n    \"ip_address_location\" = \"\";\n    like = 0;\n    \"like_count\" = 0;\n    \"reply_id\" = 0;\n    \"sticker_icon\" =     (\n    );\n    time = \"2016-04-24 23:59:18\";\n    u =     {\n        \"followers_count_text\" = \"\";\n        id = 5254535;\n        \"is_prime\" = 0;\n        lv = 0;\n        lvl = 1;\n        n = \"Renee_\\U5411\\U65e5\\U8475\";\n        p = \"http:\/\/tx1.douguo.net\/upload\/photo\/b\/f\/e\/70_u08156621627389223926.jpg\";\n        \"progress_image\" = \"\";\n        \"recipes_count_text\" = \"\";\n        relationship = \"-1\";\n        title = \"\";\n        v = 0;\n        \"verified_image\" = \"\";\n    };\n}"
      ],
      "thumb_path" : "https:\/\/i1.douguo.com\/upload\/caiku\/7\/7\/0\/300_77dd19782e576af0c51ea3b7b7131f00.jpg",
      "rate" : 5,
      "cook_difficulty_image" : "",
      "ipoi" : "",
      "ipci" : "",
      "title" : "甜咸豆腐脑｜日食记",
      "cook_id" : "1268192",
      "ipt" : "",
      "recent_comments" : [

      ],
      "ecs" : 0,
      "rcs" : [

      ],
      "eu" : "recipes:\/\/www.douguo.com\/postdetail?id=242016",
      "hq" : 1,
      "author_id" : 10973463,
      "title_ad" : [

      ],
      "comments_count" : 10,
      "recipe_tags" : [

      ],
      "sr" : "",
      "major" : [
        {
          "title" : "黄豆",
          "tu" : "https:\/\/m.douguo.com\/ingredients\/黄豆\/detailmaterial",
          "note" : "100g"
        },
        {
          "note" : "适量",
          "title" : "内酯"
        },
        {
          "tu" : "https:\/\/m.douguo.com\/ingredients\/生抽\/detailmaterial",
          "note" : "适量（咸）",
          "title" : "生抽"
        },
        {
          "tu" : "https:\/\/m.douguo.com\/ingredients\/榨菜\/detailmaterial",
          "note" : "",
          "title" : "榨菜"
        },
        {
          "title" : "虾皮",
          "tu" : "https:\/\/m.douguo.com\/ingredients\/虾皮\/detailmaterial",
          "note" : ""
        },
        {
          "title" : "香菜",
          "note" : "",
          "tu" : "https:\/\/m.douguo.com\/ingredients\/香菜\/detailmaterial"
        },
        {
          "note" : "",
          "title" : "紫菜丝"
        }
      ],
      "rewarded_video_dsp" : [

      ],
      "rips" : 0,
      "cookstorys" : [
        {
          "color" : "",
          "u" : "",
          "id" : 0,
          "type" : 0,
          "c" : "两根油条，一碗豆花\n无法割舍的晨之美。\n",
          "icon" : ""
        }
      ],
      "minor" : [
        "{\n    note = \"\";\n    title = \"\\U8471\\U82b1\";\n    tu = \"https:\/\/https:\/\/m.douguo.com\/ingredients\/\\U8471\\U82b1\/detailmaterial\";\n}",
        "{\n    note = \"\\U9002\\U91cf\\Uff08\\U54b8\\Uff09\";\n    title = \"\\U8fa3\\U6912\\U6cb9\";\n    tu = \"https:\/\/https:\/\/m.douguo.com\/ingredients\/\\U8fa3\\U6912\\U6cb9\/detailmaterial\";\n}",
        "{\n    note = \"\\U9002\\U91cf\\Uff08\\U751c\\Uff09\";\n    title = \"\\U9ec4\\U7cd6\\U6d46\\Uff08\\U4e0d\\U8bb2\\U7a76\\U7684\\U7528\\U767d\\U7cd6\\U4e5f\\U884c\\Uff09\";\n}"
      ],
      "cookstep" : [
        {
          "content" : "100g黄豆泡一晚（或至少4小时）捞出，加1000ml水，搅拌机打成糊。",
          "thumb" : "https:\/\/i1.douguo.com\/upload\/caiku\/c\/3\/0\/140_c3ae3144a0b31fca0513485778a485c0.jpg",
          "image_width" : 640,
          "position" : 1,
          "image_height" : 427,
          "frame" : "-1",
          "image" : "https:\/\/i1.douguo.com\/upload\/caiku\/c\/3\/0\/c3ae3144a0b31fca0513485778a485c0.jpg"
        },
        {
          "image" : "https:\/\/i1.douguo.com\/upload\/caiku\/7\/4\/c\/74bda7c0247a4cdbc9bb2188bb4ddd9c.jpg",
          "frame" : "-1",
          "image_height" : 427,
          "content" : "用干净布袋过滤，弃豆渣，汁备用，捞出浮沫，入锅小火煮。",
          "image_width" : 640,
          "thumb" : "https:\/\/i1.douguo.com\/upload\/caiku\/7\/4\/c\/140_74bda7c0247a4cdbc9bb2188bb4ddd9c.jpg",
          "position" : 2
        },
        {
          "content" : "边搅拌边捞去浮沫，趁烫（90度左右）倒进放了2g内酯（某宝搜葡萄酸内酯，十几块钱一大包）的大碗中，加盖，静置片刻。",
          "image_width" : 640,
          "image" : "https:\/\/i1.douguo.com\/upload\/caiku\/3\/b\/1\/3b1ebf216485c60e376dd69d083dc301.jpg",
          "thumb" : "https:\/\/i1.douguo.com\/upload\/caiku\/3\/b\/1\/140_3b1ebf216485c60e376dd69d083dc301.jpg",
          "image_height" : 427,
          "position" : 3,
          "frame" : "-1"
        },
        {
          "image" : "https:\/\/i1.douguo.com\/upload\/caiku\/e\/a\/4\/ea6bcae4532bfbee449ff868e436efc4.gif",
          "thumb" : "https:\/\/i1.douguo.com\/upload\/caiku\/e\/a\/4\/ea6bcae4532bfbee449ff868e436efc4.gif",
          "position" : 4,
          "image_height" : 212,
          "content" : "凝固成型，嫩嫩的。",
          "image_width" : 377,
          "frame" : "-1"
        },
        {
          "content" : "咸党请加生抽、榨菜、虾皮、紫菜丝、香菜、葱花和辣椒油。",
          "image_width" : 640,
          "image_height" : 427,
          "position" : 5,
          "image" : "https:\/\/i1.douguo.com\/upload\/caiku\/0\/f\/7\/0f756014ff3446a25e0c44afb69b3f37.jpg",
          "thumb" : "https:\/\/i1.douguo.com\/upload\/caiku\/0\/f\/7\/140_0f756014ff3446a25e0c44afb69b3f37.jpg",
          "frame" : "-1"
        },
        {
          "content" : "甜党看过来。（讲究一点将黄糖浆浇在豆腐脑上。没有黄糖的直接撒白糖也很好吃。口感嫩嫩的像布丁。）",
          "image" : "https:\/\/i1.douguo.com\/upload\/caiku\/b\/b\/5\/bbd677baa6a8366b548176352c1bf985.gif",
          "image_width" : 375,
          "image_height" : 211,
          "frame" : "-1",
          "thumb" : "https:\/\/i1.douguo.com\/upload\/caiku\/b\/b\/5\/bbd677baa6a8366b548176352c1bf985.gif",
          "position" : 6
        }
      ],
      "photo_path" : "https:\/\/i1.douguo.com\/upload\/caiku\/7\/7\/0\/600_77dd19782e576af0c51ea3b7b7131f00.jpg",
      "favo_counts_text" : "1328",
      "rate_count" : 1,
      "bs" : [

      ],
      "rpst" : "",
      "author" : "姜叔的日食记",
      "release_time" : "",
      "dishes" : [

      ],
      "create_time" : "2015-10-08 15:15:42",
      "rpt" : "",
      "ph" : 332,
      "dish_count" : 3,
      "cook_time_image" : "",
      "brand_day_dsp" : [

      ],
      "levelid" : 2
    }
  },
  "state" : "success",
  "status" : 0
}