{
  "status" : 0,
  "state" : "success",
  "result" : {
    "recipe" : {
      "release_time" : "",
      "packages_id" : [

      ],
      "first_level_comment_count" : 0,
      "thumb_height" : 0,
      "dishes" : [

      ],
      "tags" : [

      ],
      "rpid" : 0,
      "cook_time" : "10~30分钟",
      "cook_difficulty" : "切墩(初级)",
      "rate_count" : 0,
      "ipci" : "",
      "major" : [
        {
          "note" : "80克",
          "title" : "开心果仁"
        },
        {
          "note" : "30克",
          "title" : "燕麦"
        },
        {
          "note" : "300毫升",
          "title" : "牛奶",
          "tu" : "https:\/\/m.douguo.com\/ingredients\/牛奶\/detailmaterial"
        }
      ],
      "rdsps" : [

      ],
      "rrps" : [

      ],
      "cookwares" : [

      ],
      "minor" : [

      ],
      "event" : {
        "url" : "https:\/\/m.douguo.com\/activity\/ncpzj\/detail\/3772?isapp=1&open=0&_vs=1000300&&dg_refreshkey=publishnote",
        "id" : 3772,
        "name" : "美国开心果免费申请开启啦！快来享受开心果快乐食光吧~"
      },
      "rewarded_video_dsp" : [

      ],
      "notes" : [

      ],
      "share_info" : {
        "s_u" : "http:\/\/m.douguo.com\/cookbook\/3256935.html",
        "name" : "#美国开心果快乐食光#传说中的“鬼口水”！清爽版-会做饭很酷!",
        "qr_image" : "",
        "mini_program" : [

        ],
        "object_id" : "3256935",
        "infos" : [
          {
            "object_id" : "3256935",
            "mini_program" : [

            ],
            "s_u" : "",
            "name" : "#美国开心果快乐食光#传说中的“鬼口水”！清爽版-会做饭很酷!",
            "s_d" : "#学做饭用豆果美食# 会做饭真是太酷了！我在@豆果美食 分享了【#美国开心果快乐食光#传说中的“鬼口水”！清爽版-会做饭很酷!】，这道菜真的神仙美味！喜欢的一定要试试绝对不会错的！～查看图片了解菜谱（快来点击https:\/\/m.weibo.cn\/p\/100404i33631和我一起修炼厨艺吧）",
            "qr_image" : "",
            "channel" : "1",
            "image" : "https:\/\/cp1.douguo.com\/upload\/caiku\/9\/4\/5\/94eb5c1f288314015de3145199cf9cd5.jpg"
          },
          {
            "image" : "https:\/\/cp1.douguo.com\/upload\/caiku\/9\/4\/5\/94eb5c1f288314015de3145199cf9cd5.jpg",
            "s_d" : "#美国开心果快乐食光#传说中的“鬼口水”！清爽版-会做饭很酷!",
            "channel" : "7",
            "s_u" : "http:\/\/m.douguo.com\/cookbook\/3256935.html",
            "mini_program" : [

            ],
            "object_id" : "3256935",
            "qr_image" : "",
            "name" : "#美国开心果快乐食光#传说中的“鬼口水”！清爽版-会做饭很酷!"
          },
          {
            "image" : "https:\/\/cp1.douguo.com\/upload\/caiku\/9\/4\/5\/94eb5c1f288314015de3145199cf9cd5.jpg",
            "mini_program" : [

            ],
            "channel" : "8",
            "qr_image" : "",
            "s_d" : "#美国开心果快乐食光#传说中的“鬼口水”！清爽版-会做饭很酷!",
            "name" : "#美国开心果快乐食光#传说中的“鬼口水”！清爽版-会做饭很酷!",
            "object_id" : "3256935",
            "s_u" : "http:\/\/m.douguo.com\/cookbook\/3256935.html"
          }
        ],
        "s_d" : "#美国开心果快乐食光#传说中的“鬼口水”！清爽版-会做饭很酷!",
        "image" : "https:\/\/cp1.douguo.com\/upload\/caiku\/9\/4\/5\/94eb5c1f288314015de3145199cf9cd5.jpg"
      },
      "sc" : 0,
      "ecs" : 0,
      "act_des" : "",
      "rpst" : "",
      "recipe_list_tags" : [
        {
          "right_image" : "https:\/\/i1.douguo.com\/upload\/caiku\/0\/a\/b\/0a317d98c713e7e7d0d47ed003f2d93b.png",
          "text_color" : "#413C32",
          "jump_url" : "recipes:\/\/www.douguo.com\/introdietitian",
          "background_start_color" : "#FAE9CD",
          "background_end_color" : "#F5D39F",
          "text" : "减脂菜谱",
          "background_border_color" : ""
        },
        {
          "jump_url" : "",
          "background_start_color" : "#F4F5F5",
          "background_border_color" : "",
          "right_image" : "",
          "text_color" : "#141515",
          "text" : "关注的人",
          "background_end_color" : "#F4F5F5"
        }
      ],
      "create_time" : "2023-06-08 21:38:22",
      "photo_path" : "https:\/\/i1.douguo.com\/upload\/caiku\/9\/4\/5\/600_94eb5c1f288314015de3145199cf9cd5.jpg",
      "ipurl" : "",
      "cookstory" : "鬼口水也有一些地方叫做“绿水鬼”，其实就是选用开心果研磨而成的开心果糊。颜色翠绿，质地浓稠，入口绵密丝滑，能品尝到浓郁的开心果味道，坚果烘烤香气萦绕齿间，越品越香。",
      "rrpt" : "",
      "original_photo_path" : "http:\/\/i1.douguo.net\/upload\/caiku\/9\/4\/5\/yuan_94eb5c1f288314015de3145199cf9cd5.jpg",
      "guide_image" : "",
      "author_verified" : 1,
      "ipoi" : "",
      "favo_counts_text" : "3215",
      "ipit" : 0,
      "dish_count" : 0,
      "user" : {
        "lvl" : 6,
        "weibo_nick" : "",
        "recipes_count" : 0,
        "userid" : "27131289",
        "nick" : "燕儿姐姐来了",
        "user_cover" : "",
        "diaries_count" : 0,
        "favor_diaries_count" : 0,
        "introduction" : "",
        "dishes_count" : 0,
        "is_prime" : 0,
        "pc" : 0,
        "verified" : 1,
        "verified_image" : "https:\/\/i1.douguo.com\/upload\/note\/d\/a\/a\/da84247847aebe48d9dd0fcdac88862a.png",
        "point" : 0,
        "sign" : "",
        "subscription" : 0,
        "subscription_article_count" : 0,
        "email" : "",
        "regist_time" : "",
        "avatar_medium" : "http:\/\/tx1.douguo.net\/upload\/photo\/6\/9\/f\/140_698420e23bd3d6de200b0353dd5dfc6f.jpg",
        "favorites_count" : 0,
        "progress_image" : "",
        "mobile" : "",
        "lv" : 0,
        "birthday" : "",
        "user_photo" : "http:\/\/tx1.douguo.net\/upload\/photo\/6\/9\/f\/70_698420e23bd3d6de200b0353dd5dfc6f.jpg",
        "qq_weibo_nick" : "",
        "gender" : 2,
        "qzone_nick" : "",
        "location" : 0,
        "fc" : 0,
        "user_large_photo" : "http:\/\/tx1.douguo.net\/upload\/photo\/6\/9\/f\/yuan_698420e23bd3d6de200b0353dd5dfc6f.jpg",
        "age" : "",
        "followers_count" : 0,
        "verified_url" : "https:\/\/m.douguo.com\/user\/prodesc",
        "coursecount" : 0,
        "setted_email" : 0,
        "following_count" : 0,
        "user_id" : "27131289"
      },
      "tips" : "",
      "ipia" : [

      ],
      "su" : "",
      "recommend_label" : "3215人刚刚收藏过",
      "recent_comments" : [

      ],
      "dish_count_text" : "",
      "rpt" : "",
      "purl" : "",
      "ipt" : "",
      "vfurl" : "",
      "related_ads" : [

      ],
      "rcs" : [

      ],
      "collect_status" : 0,
      "clicks" : "1",
      "top_mdsp" : [

      ],
      "views_count_text" : "9.7万",
      "author_id" : 27131289,
      "recipe_tags" : [
        "{\n    \"background_border_color\" = \"\";\n    \"background_end_color\" = \"#F5D39F\";\n    \"background_start_color\" = \"#FAE9CD\";\n    \"jump_url\" = \"recipes:\/\/www.douguo.com\/introdietitian\";\n    \"left_image\" = \"https:\/\/i1.douguo.com\/upload\/caiku\/4\/e\/8\/4ec0a3547dfdb0e8541ff7b7b61b2578.png\";\n    \"right_image\" = \"https:\/\/i1.douguo.com\/upload\/caiku\/0\/a\/b\/0a317d98c713e7e7d0d47ed003f2d93b.png\";\n    text = \"\\U51cf\\U8102\\U83dc\\U8c31\";\n    \"text_color\" = \"#413C32\";\n}"
      ],
      "ssu" : "",
      "vu" : "",
      "recommended" : 0,
      "recommendation_tag" : "",
      "cookstorys" : [
        {
          "c" : "鬼口水也有一些地方叫做“绿水鬼”，其实就是选用开心果研磨而成的开心果糊。颜色翠绿，质地浓稠，入口绵密丝滑，能品尝到浓郁的开心果味道，坚果烘烤香气萦绕齿间，越品越香。",
          "type" : 0,
          "u" : "",
          "id" : 0,
          "icon" : "",
          "color" : ""
        },
        {
          "id" : 0,
          "c" : "\n参与活动:",
          "type" : 0,
          "icon" : "",
          "u" : "",
          "color" : ""
        },
        {
          "id" : 0,
          "type" : 0,
          "c" : "#美国开心果免费申请开启啦！快来享受开心果快乐食光吧~#",
          "icon" : "",
          "u" : "https:\/\/m.douguo.com\/activity\/ncpzj\/detail\/3772?isapp=1&open=0&_vs=1000300&&dg_refreshkey=publishnote"
        }
      ],
      "brand_day_dsp" : [

      ],
      "pw" : 1025,
      "story_dsp" : [

      ],
      "title_ad" : [

      ],
      "cook_id" : "3256935",
      "eu" : "recipes:\/\/www.douguo.com\/postdetail?id=242016",
      "comments_count" : 0,
      "rate_show" : 0,
      "author_photo" : "http:\/\/tx1.douguo.net\/upload\/photo\/6\/9\/f\/70_698420e23bd3d6de200b0353dd5dfc6f.jpg",
      "ph" : 1536,
      "sr" : "",
      "author" : "燕儿姐姐来了",
      "ss" : [

      ],
      "old_comments" : [

      ],
      "rsm" : "该功能暂停使用",
      "mid_mdsp" : [

      ],
      "thumb_path" : "https:\/\/i1.douguo.com\/upload\/caiku\/9\/4\/5\/300_94eb5c1f288314015de3145199cf9cd5.jpg",
      "hq" : 1,
      "display_ingredient" : 1,
      "comments" : [

      ],
      "image" : "http:\/\/i1.douguo.net\/upload\/caiku\/9\/4\/5\/300_94eb5c1f288314015de3145199cf9cd5.jpg",
      "bs" : [

      ],
      "cook_difficulty_image" : "https:\/\/i1.douguo.com\/upload\/banner\/1551424390.png",
      "vc" : "97020",
      "rate" : 0,
      "rips" : 0,
      "btm_dsp" : [

      ],
      "cookstep" : [
        {
          "frame" : "-1",
          "image_width" : 1280,
          "position" : 1,
          "image_height" : 1918,
          "thumb" : "https:\/\/i1.douguo.com\/upload\/caiku\/e\/c\/f\/140_ec2810157f3ba6c53b0e064dbb15de0f.jpg",
          "image" : "https:\/\/i1.douguo.com\/upload\/caiku\/e\/c\/f\/ec2810157f3ba6c53b0e064dbb15de0f.jpg",
          "content" : "准备牛奶，燕麦，燕麦麸皮，开心果仁"
        },
        {
          "content" : "在破壁机中加入300毫升牛奶",
          "image" : "https:\/\/i1.douguo.com\/upload\/caiku\/3\/3\/0\/33c934c7bc08be5996a1d7d20cdc1bc0.jpg",
          "image_width" : 1280,
          "thumb" : "https:\/\/i1.douguo.com\/upload\/caiku\/3\/3\/0\/140_33c934c7bc08be5996a1d7d20cdc1bc0.jpg",
          "frame" : "-1",
          "position" : 2,
          "image_height" : 1918
        },
        {
          "image_height" : 1918,
          "frame" : "-1",
          "thumb" : "https:\/\/i1.douguo.com\/upload\/caiku\/c\/c\/e\/140_cc4b431120ec7c56438cecde659b8bfe.jpg",
          "position" : 3,
          "image_width" : 1280,
          "content" : "80克开心果仁",
          "image" : "https:\/\/i1.douguo.com\/upload\/caiku\/c\/c\/e\/cc4b431120ec7c56438cecde659b8bfe.jpg"
        },
        {
          "image" : "https:\/\/i1.douguo.com\/upload\/caiku\/5\/d\/f\/5d8c0292154dfe9eed59b2c967349fbf.jpg",
          "image_width" : 1280,
          "image_height" : 1918,
          "thumb" : "https:\/\/i1.douguo.com\/upload\/caiku\/5\/d\/f\/140_5d8c0292154dfe9eed59b2c967349fbf.jpg",
          "content" : "30克燕麦片",
          "position" : 4,
          "frame" : "-1"
        },
        {
          "content" : "破壁机米糊程序",
          "image" : "https:\/\/i1.douguo.com\/upload\/caiku\/8\/6\/4\/8606c3794ff2c047955c079608e36f14.jpg",
          "frame" : "-1",
          "image_height" : 1918,
          "image_width" : 1280,
          "thumb" : "https:\/\/i1.douguo.com\/upload\/caiku\/8\/6\/4\/140_8606c3794ff2c047955c079608e36f14.jpg",
          "position" : 5
        },
        {
          "frame" : "-1",
          "image" : "https:\/\/i1.douguo.com\/upload\/caiku\/8\/0\/8\/8003ad45293e13ee94e89f2d7adb3e98.jpg",
          "content" : "入口绵密丝滑，能品尝到浓郁的开心果味道，坚果烘烤香气萦绕齿间，越品越香。",
          "image_width" : 1280,
          "thumb" : "https:\/\/i1.douguo.com\/upload\/caiku\/8\/0\/8\/140_8003ad45293e13ee94e89f2d7adb3e98.jpg",
          "image_height" : 1918,
          "position" : 6
        },
        {
          "image_width" : 1280,
          "frame" : "-1",
          "thumb" : "https:\/\/i1.douguo.com\/upload\/caiku\/3\/0\/c\/140_30fddc0a88d64af965b356e8402c955c.jpg",
          "content" : "顶部可以装饰一点开心果！",
          "image" : "https:\/\/i1.douguo.com\/upload\/caiku\/3\/0\/c\/30fddc0a88d64af965b356e8402c955c.jpg",
          "image_height" : 1918,
          "position" : 7
        }
      ],
      "title" : "传说中的“鬼口水”！清爽版",
      "favo_counts" : 3215,
      "v_u" : "",
      "levelid" : 2,
      "advice" : {
        "at" : "一道菜对心血管健康～",
        "da" : {
          "t" : "查看详细分析",
          "url" : "https:\/\/m.douguo.com\/recipe\/nutrient_self\/3256935",
          "iu" : "https:\/\/i1.douguo.com\/upload\/banner\/f\/4\/d\/f48877e53c37759bc12ac494be82ec8d.png"
        },
        "has" : [
          {
            "t" : "低胆固醇",
            "url" : "recipes:\/\/www.douguo.com\/simplerecipelist?t=低胆固醇&id=低胆固醇"
          }
        ]
      },
      "comments_count_text" : "",
      "hqu" : "recipes:\/\/www.douguo.com\/notedetail?id=21162253",
      "cook_time_image" : "https:\/\/i1.douguo.com\/upload\/banner\/1551424341.png"
    }
  }
}