{
  "result" : {
    "recipe" : {
      "rate_show" : 0,
      "author_photo" : "http:\/\/tx1.douguo.net\/upload\/photo\/e\/d\/8\/70_u5428520263574205261134.jpg",
      "rpt" : "",
      "title" : "长帝贝贝CRWF32AM试用报告—国民小吃：黄金锅巴",
      "ss" : [

      ],
      "rewarded_video_dsp" : [

      ],
      "major" : [
        {
          "note" : "200g",
          "title" : "白米饭"
        },
        {
          "note" : "1个",
          "title" : "蛋黄",
          "tu" : "https:\/\/m.douguo.com\/ingredients\/蛋黄\/detailmaterial"
        },
        {
          "note" : "22g",
          "tu" : "https:\/\/m.douguo.com\/ingredients\/食用油\/detailmaterial",
          "title" : "食用油"
        }
      ],
      "su" : "",
      "v_u" : "",
      "image" : "http:\/\/i1.douguo.net\/upload\/caiku\/8\/f\/1\/300_8fa841bb7d5ecc393d8433f995e4cfe1.jpg",
      "vu" : "",
      "rdsps" : [

      ],
      "cook_time" : "10-30分钟",
      "dish_count_text" : "15",
      "user" : {
        "sign" : "",
        "subscription" : 0,
        "pc" : 0,
        "introduction" : "",
        "verified_url" : "https:\/\/m.douguo.com\/user\/prodesc",
        "setted_email" : 0,
        "qzone_nick" : "",
        "is_prime" : 0,
        "coursecount" : 0,
        "fc" : 0,
        "point" : 0,
        "followers_count" : 0,
        "subscription_article_count" : 0,
        "nick" : "拾光机",
        "birthday" : "",
        "dishes_count" : 0,
        "user_large_photo" : "http:\/\/tx1.douguo.net\/upload\/photo\/e\/d\/8\/yuan_u5428520263574205261134.jpg",
        "favor_diaries_count" : 0,
        "gender" : 1,
        "user_cover" : "",
        "user_id" : "2243416",
        "user_photo" : "http:\/\/tx1.douguo.net\/upload\/photo\/e\/d\/8\/70_u5428520263574205261134.jpg",
        "email" : "",
        "verified_image" : "https:\/\/i1.douguo.com\/upload\/note\/d\/a\/a\/da84247847aebe48d9dd0fcdac88862a.png",
        "lv" : 0,
        "lvl" : 6,
        "recipes_count" : 0,
        "regist_time" : "",
        "favorites_count" : 0,
        "weibo_nick" : "",
        "diaries_count" : 0,
        "avatar_medium" : "http:\/\/tx1.douguo.net\/upload\/photo\/e\/d\/8\/140_u5428520263574205261134.jpg",
        "age" : "",
        "mobile" : "",
        "progress_image" : "",
        "userid" : "2243416",
        "following_count" : 0,
        "verified" : 1,
        "location" : 0,
        "qq_weibo_nick" : ""
      },
      "rcs" : [

      ],
      "rpst" : "",
      "story_dsp" : [

      ],
      "vfurl" : "",
      "thumb_path" : "https:\/\/i1.douguo.com\/upload\/caiku\/8\/f\/1\/300_8fa841bb7d5ecc393d8433f995e4cfe1.jpg",
      "thumb_height" : 0,
      "author_verified" : 1,
      "recommend_label" : "15人学做",
      "collect_status" : 0,
      "first_level_comment_count" : 20,
      "act_des" : "",
      "advice" : {
        "da" : {
          "iu" : "https:\/\/i1.douguo.com\/upload\/banner\/f\/4\/d\/f48877e53c37759bc12ac494be82ec8d.png",
          "t" : "查看详细分析",
          "url" : "https:\/\/m.douguo.com\/recipe\/nutrient_self\/1380656"
        },
        "has" : [
          {
            "url" : "recipes:\/\/www.douguo.com\/simplerecipelist?t=低饱和脂肪&id=低饱和脂肪",
            "t" : "低饱和脂肪"
          },
          {
            "url" : "recipes:\/\/www.douguo.com\/simplerecipelist?t=0胆固醇&id=0胆固醇",
            "t" : "0胆固醇"
          }
        ],
        "at" : "对血管有保护作用～"
      },
      "top_mdsp" : [

      ],
      "cookstep" : [
        {
          "image_width" : 3264,
          "frame" : "-1",
          "thumb" : "https:\/\/i1.douguo.com\/upload\/caiku\/5\/e\/1\/140_5e5d36a9dbd598b32e0540f077b43b11.jpg",
          "image" : "https:\/\/i1.douguo.com\/upload\/caiku\/5\/e\/1\/5e5d36a9dbd598b32e0540f077b43b11.jpg",
          "image_height" : 2448,
          "position" : 1,
          "content" : "用擀面杖等工具，舂压米饭，使米饭产生黏性。"
        },
        {
          "thumb" : "https:\/\/i1.douguo.com\/upload\/caiku\/1\/1\/8\/140_11bc7d37af9c505fe279eb9a5e529e48.jpg",
          "image" : "https:\/\/i1.douguo.com\/upload\/caiku\/1\/1\/8\/11bc7d37af9c505fe279eb9a5e529e48.jpg",
          "frame" : "-1",
          "image_width" : 3264,
          "image_height" : 2448,
          "position" : 2,
          "content" : "在米饭中加入蛋黄、食用油、食盐、白糖、鸡精和孜然粉，搅拌均匀。"
        },
        {
          "image_width" : 3264,
          "content" : "借助饼干模具等工具，将米饭整理成自己喜欢的形状。",
          "image_height" : 2448,
          "image" : "https:\/\/i1.douguo.com\/upload\/caiku\/d\/0\/3\/d024c631c3d974938f6cbac9521fbd13.jpg",
          "frame" : "-1",
          "position" : 3,
          "thumb" : "https:\/\/i1.douguo.com\/upload\/caiku\/d\/0\/3\/140_d024c631c3d974938f6cbac9521fbd13.jpg"
        },
        {
          "content" : "在米饭表面点缀少许芝麻。",
          "image" : "https:\/\/i1.douguo.com\/upload\/caiku\/0\/c\/3\/0cbcb822c77ded21bbff1016a461b673.jpg",
          "frame" : "-1",
          "thumb" : "https:\/\/i1.douguo.com\/upload\/caiku\/0\/c\/3\/140_0cbcb822c77ded21bbff1016a461b673.jpg",
          "position" : 4,
          "image_width" : 3264,
          "image_height" : 2448
        },
        {
          "image" : "https:\/\/i1.douguo.com\/upload\/caiku\/9\/2\/e\/92f571ecce0c5c85d9b9b0976871342e.jpg",
          "frame" : "-1",
          "position" : 5,
          "content" : "放入上下火175度预热好的烤箱，中层烘烤23分钟。",
          "image_width" : 3264,
          "thumb" : "https:\/\/i1.douguo.com\/upload\/caiku\/9\/2\/e\/140_92f571ecce0c5c85d9b9b0976871342e.jpg",
          "image_height" : 2448
        },
        {
          "image_height" : 3456,
          "image_width" : 5184,
          "thumb" : "https:\/\/i1.douguo.com\/upload\/caiku\/b\/1\/6\/140_b16969a09e69982683103a302b603ce6.jpg",
          "content" : "烤箱基本配置：与市面上主流烤箱一致,配有接渣盘。",
          "image" : "https:\/\/i1.douguo.com\/upload\/caiku\/b\/1\/6\/b16969a09e69982683103a302b603ce6.jpg",
          "position" : 6,
          "frame" : "-1"
        },
        {
          "image_height" : 3456,
          "frame" : "-1",
          "image" : "https:\/\/i1.douguo.com\/upload\/caiku\/6\/d\/9\/6d1e8c03b5d73f8163f004f1d9325ea9.jpg",
          "content" : "操作面板简洁，控制灵敏，温控、时间控制比机械烤箱简洁精准！",
          "position" : 7,
          "thumb" : "https:\/\/i1.douguo.com\/upload\/caiku\/6\/d\/9\/140_6d1e8c03b5d73f8163f004f1d9325ea9.jpg",
          "image_width" : 5184
        },
        {
          "image" : "https:\/\/i1.douguo.com\/upload\/caiku\/e\/7\/d\/e7a7444e8128f1af215cc443af5d020d.jpg",
          "content" : "数码显示面板，让时间、温度控制看得见，分别精确到1分、1度。",
          "frame" : "-1",
          "image_height" : 3456,
          "image_width" : 5184,
          "thumb" : "https:\/\/i1.douguo.com\/upload\/caiku\/e\/7\/d\/140_e7a7444e8128f1af215cc443af5d020d.jpg",
          "position" : 8
        },
        {
          "position" : 9,
          "frame" : "-1",
          "image_height" : 3456,
          "image_width" : 5184,
          "content" : "扫描二维码，下载阿里智能APP，将实现手机端控制烤箱。",
          "thumb" : "https:\/\/i1.douguo.com\/upload\/caiku\/1\/0\/0\/140_102bf825985ff02a3aa958617101faf0.jpg",
          "image" : "https:\/\/i1.douguo.com\/upload\/caiku\/1\/0\/0\/102bf825985ff02a3aa958617101faf0.jpg"
        },
        {
          "image_width" : 5184,
          "thumb" : "https:\/\/i1.douguo.com\/upload\/caiku\/5\/e\/9\/140_5ebe6280001667f3645a2ff04f97d669.jpg",
          "image" : "https:\/\/i1.douguo.com\/upload\/caiku\/5\/e\/9\/5ebe6280001667f3645a2ff04f97d669.jpg",
          "position" : 10,
          "frame" : "-1",
          "content" : "实现烤箱联网、手机控温定是非常简单的，长按开始按键3秒，进入配网模式，输入wifi密码即可。",
          "image_height" : 3456
        },
        {
          "content" : "自带云食谱，里面的菜谱都是对这款烤箱量身定制的，成功率极高，省得被不靠谱的方子坑了影响积极性。",
          "image_height" : 3456,
          "image" : "https:\/\/i1.douguo.com\/upload\/caiku\/9\/b\/d\/9bb6623c25178092ab3f24ac33a9397d.jpg",
          "frame" : "-1",
          "position" : 11,
          "image_width" : 5184,
          "thumb" : "https:\/\/i1.douguo.com\/upload\/caiku\/9\/b\/d\/140_9bb6623c25178092ab3f24ac33a9397d.jpg"
        },
        {
          "image_width" : 5184,
          "image" : "https:\/\/i1.douguo.com\/upload\/caiku\/f\/4\/9\/f4e7fabf02828c845090b1dcd3b39999.jpg",
          "position" : 12,
          "thumb" : "https:\/\/i1.douguo.com\/upload\/caiku\/f\/4\/9\/140_f4e7fabf02828c845090b1dcd3b39999.jpg",
          "image_height" : 3456,
          "frame" : "-1",
          "content" : "照明灯开关可控。"
        },
        {
          "image_width" : 5184,
          "image" : "https:\/\/i1.douguo.com\/upload\/caiku\/c\/6\/b\/c60cc7f30af502d44123b93f788840eb.jpg",
          "position" : 13,
          "image_height" : 3456,
          "frame" : "-1",
          "thumb" : "https:\/\/i1.douguo.com\/upload\/caiku\/c\/6\/b\/140_c60cc7f30af502d44123b93f788840eb.jpg",
          "content" : "关灯~"
        },
        {
          "position" : 14,
          "image" : "https:\/\/i1.douguo.com\/upload\/caiku\/2\/e\/e\/2e817a69a76776b9ccf4f3f5607b1abe.jpg",
          "frame" : "-1",
          "content" : "温度精准控制的保障：上下部各有一个温度传感器。",
          "thumb" : "https:\/\/i1.douguo.com\/upload\/caiku\/2\/e\/e\/140_2e817a69a76776b9ccf4f3f5607b1abe.jpg",
          "image_width" : 5184,
          "image_height" : 3456
        },
        {
          "image_width" : 5184,
          "content" : "烘焙模式设温科学。比如蛋糕\/面包模式，最高温度是170。",
          "image" : "https:\/\/i1.douguo.com\/upload\/caiku\/e\/6\/d\/e61928ac600e0c6e285c7432b61a21cd.jpg",
          "thumb" : "https:\/\/i1.douguo.com\/upload\/caiku\/e\/6\/d\/140_e61928ac600e0c6e285c7432b61a21cd.jpg",
          "position" : 15,
          "frame" : "-1",
          "image_height" : 3456
        }
      ],
      "cookstory" : "随手用家里的剩饭，就能做出金黄酥脆的锅巴！烘焙也可以很接地气，寻常的食材经过巧手加工，也能做出惊喜的味道。将米饭舂打出黏性，加入自己喜欢的调味料，再加以烘烤，就变成了好吃的锅巴，快来试试吧！\n\n这次用的是长帝贝贝CRWF32AM智能烤箱，温度和时间控制非常精准，精确到1°和1分钟，非常适合新手入门。还可通过手机全程控制烤箱，自带云食谱，里面的菜谱都是对这款烤箱量身定制的，成功率极高。在淘宝changdi长帝瑾瑜专卖店有烤箱的特大优惠活动，大家赶紧去关注吧！",
      "ipt" : "",
      "eu" : "recipes:\/\/www.douguo.com\/postdetail?id=242016",
      "recent_comments" : [

      ],
      "display_ingredient" : 1,
      "clicks" : "156419",
      "cook_id" : "1380656",
      "bs" : [

      ],
      "original_photo_path" : "http:\/\/i1.douguo.net\/upload\/caiku\/8\/f\/1\/yuan_8fa841bb7d5ecc393d8433f995e4cfe1.jpg",
      "btm_dsp" : [

      ],
      "comments_count" : 25,
      "favo_counts_text" : "5751",
      "comments_count_text" : "25",
      "cook_difficulty" : "切墩(初级)",
      "pw" : 800,
      "ipurl" : "",
      "rate" : 4,
      "dish_count" : 15,
      "sr" : "",
      "rrps" : [

      ],
      "ipit" : 0,
      "comments" : [
        "{\n    ac = \"#999999\";\n    at = \"\";\n    ccc = 4;\n    \"child_comments\" =     (\n                {\n            ac = \"#999999\";\n            at = \"\";\n            ccc = 0;\n            city = \"\";\n            cmc = 2;\n            content =             (\n                                {\n                    c = \"  \\U751f\\U7684\";\n                }\n            );\n            ia = 1;\n            id = 3614041;\n            \"ip_address_location\" = \"\";\n            like = 0;\n            \"like_count\" = 0;\n            \"reply_id\" = 3612501;\n            \"reply_user\" =             {\n                \"followers_count_text\" = \"\";\n                id = 6717935;\n                \"is_prime\" = 0;\n                lv = 0;\n                lvl = 4;\n                n = \"\\U7231\\U5403\\U7684\\U897f\\U53e4\\U5988\\U5988\";\n                p = \"http:\/\/tx1.douguo.net\/upload\/photo\/b\/7\/c\/70_b7b2dc2f89efe10851737b06deff25dc.jpg\";\n                \"progress_image\" = \"\";\n                \"recipes_count_text\" = \"\";\n                relationship = \"-1\";\n                title = \"\";\n                v = 0;\n                \"verified_image\" = \"\";\n            };\n            \"sticker_icon\" =             (\n            );\n            time = \"2016-05-20 00:50:25\";\n            u =             {\n                \"followers_count_text\" = \"\";\n                id = 2243416;\n                \"is_prime\" = 0;\n                lv = 0;\n                lvl = 6;\n                n = \"\\U62fe\\U5149\\U673a\";\n                p = \"http:\/\/tx1.douguo.net\/upload\/photo\/e\/d\/8\/70_u5428520263574205261134.jpg\";\n                \"progress_image\" = \"\";\n                \"recipes_count_text\" = \"\";\n                relationship = \"-1\";\n                title = \"\";\n                v = 1;\n                \"verified_image\" = \"\";\n            };\n        },\n                {\n            ac = \"#999999\";\n            at = \"\";\n            ccc = 0;\n            city = \"\";\n            cmc = 2;\n            content =             (\n                                {\n                    c = \" \\U8c22\\U8c22\";\n                }\n            );\n            ia = 0;\n            id = 3635793;\n            \"ip_address_location\" = \"\";\n            like = 0;\n            \"like_count\" = 0;\n            \"reply_id\" = 3614041;\n            \"reply_user\" =             {\n                \"followers_count_text\" = \"\";\n                id = 2243416;\n                \"is_prime\" = 0;\n                lv = 0;\n                lvl = 6;\n                n = \"\\U62fe\\U5149\\U673a\";\n                p = \"http:\/\/tx1.douguo.net\/upload\/photo\/e\/d\/8\/70_u5428520263574205261134.jpg\";\n                \"progress_image\" = \"\";\n                \"recipes_count_text\" = \"\";\n                relationship = \"-1\";\n                title = \"\";\n                v = 1;\n                \"verified_image\" = \"\";\n            };\n            \"sticker_icon\" =             (\n            );\n            time = \"2016-05-21 05:25:28\";\n            u =             {\n                \"followers_count_text\" = \"\";\n                id = 6717935;\n                \"is_prime\" = 0;\n                lv = 0;\n                lvl = 4;\n                n = \"\\U7231\\U5403\\U7684\\U897f\\U53e4\\U5988\\U5988\";\n                p = \"http:\/\/tx1.douguo.net\/upload\/photo\/b\/7\/c\/70_b7b2dc2f89efe10851737b06deff25dc.jpg\";\n                \"progress_image\" = \"\";\n                \"recipes_count_text\" = \"\";\n                relationship = \"-1\";\n                title = \"\";\n                v = 0;\n                \"verified_image\" = \"\";\n            };\n        }\n    );\n    city = \"\";\n    cmc = 2;\n    content =     (\n                {\n            c = \"\\U4f60\\U597d\\Uff0c\\U60f3\\U95ee\\U4e0b\\U7684\\U86cb\\U9ec4\\U662f\\U751f\\U7684\\U8fd8\\U662f\\U719f\\U7684\\Uff1f\";\n        }\n    );\n    ia = 0;\n    id = 3612501;\n    \"ip_address_location\" = \"\";\n    like = 0;\n    \"like_count\" = 2;\n    \"reply_id\" = 0;\n    \"sticker_icon\" =     (\n    );\n    time = \"2016-05-20 00:39:24\";\n    u =     {\n        \"followers_count_text\" = \"\";\n        id = 6717935;\n        \"is_prime\" = 0;\n        lv = 0;\n        lvl = 4;\n        n = \"\\U7231\\U5403\\U7684\\U897f\\U53e4\\U5988\\U5988\";\n        p = \"http:\/\/tx1.douguo.net\/upload\/photo\/b\/7\/c\/70_b7b2dc2f89efe10851737b06deff25dc.jpg\";\n        \"progress_image\" = \"\";\n        \"recipes_count_text\" = \"\";\n        relationship = \"-1\";\n        title = \"\";\n        v = 0;\n        \"verified_image\" = \"\";\n    };\n}",
        "{\n    ac = \"#999999\";\n    at = \"\";\n    ccc = 1;\n    \"child_comments\" =     (\n                {\n            ac = \"#999999\";\n            at = \"\";\n            ccc = 0;\n            city = \"\";\n            cmc = 2;\n            content =             (\n                                {\n                    c = \" \\U751f\\U7684\";\n                }\n            );\n            ia = 1;\n            id = 4084096;\n            \"ip_address_location\" = \"\";\n            like = 0;\n            \"like_count\" = 0;\n            \"reply_id\" = 4034542;\n            \"reply_user\" =             {\n                \"followers_count_text\" = \"\";\n                id = 11850953;\n                \"is_prime\" = 0;\n                lv = 0;\n                lvl = 3;\n                n = \"wj\\U5eb7\\U4e43\\U99a8\";\n                p = \"http:\/\/tx1.douguo.net\/upload\/photo\/7\/d\/a\/70_u45736063898855121157.jpg\";\n                \"progress_image\" = \"\";\n                \"recipes_count_text\" = \"\";\n                relationship = \"-1\";\n                title = \"\";\n                v = 0;\n                \"verified_image\" = \"\";\n            };\n            \"sticker_icon\" =             (\n            );\n            time = \"2016-09-08 13:11:54\";\n            u =             {\n                \"followers_count_text\" = \"\";\n                id = 2243416;\n                \"is_prime\" = 0;\n                lv = 0;\n                lvl = 6;\n                n = \"\\U62fe\\U5149\\U673a\";\n                p = \"http:\/\/tx1.douguo.net\/upload\/photo\/e\/d\/8\/70_u5428520263574205261134.jpg\";\n                \"progress_image\" = \"\";\n                \"recipes_count_text\" = \"\";\n                relationship = \"-1\";\n                title = \"\";\n                v = 1;\n                \"verified_image\" = \"\";\n            };\n        }\n    );\n    city = \"\";\n    cmc = 2;\n    content =     (\n                {\n            c = \"\\U86cb\\U9ec4\\U662f\\U719f\\U7684\\U5417\\Uff1f\";\n        }\n    );\n    ia = 0;\n    id = 4034542;\n    \"ip_address_location\" = \"\";\n    like = 0;\n    \"like_count\" = 0;\n    \"reply_id\" = 0;\n    \"sticker_icon\" =     (\n    );\n    time = \"2016-08-25 14:42:21\";\n    u =     {\n        \"followers_count_text\" = \"\";\n        id = 11850953;\n        \"is_prime\" = 0;\n        lv = 0;\n        lvl = 3;\n        n = \"wj\\U5eb7\\U4e43\\U99a8\";\n        p = \"http:\/\/tx1.douguo.net\/upload\/photo\/7\/d\/a\/70_u45736063898855121157.jpg\";\n        \"progress_image\" = \"\";\n        \"recipes_count_text\" = \"\";\n        relationship = \"-1\";\n        title = \"\";\n        v = 0;\n        \"verified_image\" = \"\";\n    };\n}",
        "{\n    ac = \"#999999\";\n    at = \"\";\n    ccc = 0;\n    \"child_comments\" =     (\n    );\n    city = \"\";\n    cmc = 2;\n    content =     (\n                {\n            c = \"\\Ud83d\\Udc4d\\Ud83d\\Udc4d\\Ud83d\\Udc4d\\Ud83d\\Udc4d\";\n        }\n    );\n    ia = 0;\n    id = 9005185;\n    \"ip_address_location\" = \"\\U5317\\U4eac\\U5e02\";\n    like = 0;\n    \"like_count\" = 0;\n    \"reply_id\" = 0;\n    \"sticker_icon\" =     (\n    );\n    time = \"2023-02-23 10:28:58\";\n    u =     {\n        \"followers_count_text\" = \"\";\n        id = 21084063;\n        \"is_prime\" = 1;\n        lv = 0;\n        lvl = 6;\n        n = \"\\U6c34\\U6c34\\U6c34\\U6c34\\U6c34\\U6c34\\U6c34\\U6c34\\U6c34\\U6c34\\U6c34\\U6c34\\U6c34\\U6c34\\U679c\";\n        p = \"http:\/\/tx1.douguo.net\/upload\/photo\/f\/3\/b\/70_u06345215328508104912.jpeg\";\n        \"progress_image\" = \"\";\n        \"recipes_count_text\" = \"\";\n        relationship = \"-1\";\n        title = \"\";\n        v = 1;\n        \"verified_image\" = \"\";\n    };\n}"
      ],
      "packages_id" : [

      ],
      "related_ads" : [

      ],
      "cookstorys" : [
        {
          "color" : "",
          "id" : 0,
          "u" : "",
          "icon" : "",
          "type" : 0,
          "c" : "随手用家里的剩饭，就能做出金黄酥脆的锅巴！烘焙也可以很接地气，寻常的食材经过巧手加工，也能做出惊喜的味道。将米饭舂打出黏性，加入自己喜欢的调味料，再加以烘烤，就变成了好吃的锅巴，快来试试吧！\n\n这次用的是长帝贝贝CRWF32AM智能烤箱，温度和时间控制非常精准，精确到1°和1分钟，非常适合新手入门。还可通过手机全程控制烤箱，自带云食谱，里面的菜谱都是对这款烤箱量身定制的，成功率极高。在淘宝changdi长帝瑾瑜专卖店有烤箱的特大优惠活动，大家赶紧去关注吧！"
        }
      ],
      "recommended" : 0,
      "minor" : [
        "{\n    note = 2g;\n    title = \"\\U98df\\U76d0\";\n    tu = \"https:\/\/https:\/\/m.douguo.com\/ingredients\/\\U98df\\U76d0\/detailmaterial\";\n}",
        "{\n    note = 3g;\n    title = \"\\U767d\\U7cd6\";\n    tu = \"https:\/\/https:\/\/m.douguo.com\/ingredients\/\\U767d\\U7cd6\/detailmaterial\";\n}",
        "{\n    note = 1g;\n    title = \"\\U5b5c\\U7136\\U7c89\";\n}",
        "{\n    note = 1g;\n    title = \"\\U9e21\\U7cbe\";\n    tu = \"https:\/\/https:\/\/m.douguo.com\/ingredients\/\\U9e21\\U7cbe\/detailmaterial\";\n}",
        "{\n    note = \"\\U5c11\\U8bb8\";\n    title = \"\\U829d\\U9ebb\";\n    tu = \"https:\/\/https:\/\/m.douguo.com\/ingredients\/\\U829d\\U9ebb\/detailmaterial\";\n}"
      ],
      "rsm" : "该功能暂停使用",
      "ssu" : "",
      "dishes" : [

      ],
      "release_time" : "",
      "rpid" : 0,
      "ipia" : [

      ],
      "cook_time_image" : "https:\/\/i1.douguo.com\/upload\/banner\/1551424341.png",
      "rips" : 0,
      "views_count_text" : "16.6万",
      "ph" : 1200,
      "brand_day_dsp" : [

      ],
      "ecs" : 0,
      "sc" : 0,
      "cookwares" : [

      ],
      "levelid" : 2,
      "tips" : "1、米饭要舂打出黏性，做出的锅巴才容易成型、更加酥脆。\n2、加入白糖和鸡精是为了提鲜，也可以根据个人喜好加入辣椒面、五香粉等调味料。",
      "ipci" : "",
      "recipe_tags" : [

      ],
      "mid_mdsp" : [

      ],
      "hqu" : "recipes:\/\/www.douguo.com\/notedetail?id=21162253",
      "rrpt" : "",
      "photo_path" : "https:\/\/i1.douguo.com\/upload\/caiku\/8\/f\/1\/600_8fa841bb7d5ecc393d8433f995e4cfe1.jpg",
      "cook_difficulty_image" : "https:\/\/i1.douguo.com\/upload\/banner\/1551424390.png",
      "recommendation_tag" : "",
      "share_info" : {
        "infos" : [
          {
            "name" : "长帝贝贝CRWF32AM试用报告—国民小吃：黄金锅巴-会做饭很酷!",
            "s_d" : "#学做饭用豆果美食# 会做饭真是好酷啊！我在@豆果美食 分享了【长帝贝贝CRWF32AM试用报告—国民小吃：黄金锅巴-会做饭很酷!】，快来康康我这道菜做的怎么样～美味停不下来！查看图片了解菜谱（你喜欢的美食都在这里！https:\/\/m.weibo.cn\/p\/100404i33631）",
            "mini_program" : [

            ],
            "image" : "https:\/\/cp1.douguo.com\/upload\/caiku\/8\/f\/1\/8fa841bb7d5ecc393d8433f995e4cfe1.jpg",
            "object_id" : "1380656",
            "qr_image" : "",
            "s_u" : "",
            "channel" : "1"
          },
          {
            "mini_program" : [

            ],
            "qr_image" : "",
            "name" : "长帝贝贝CRWF32AM试用报告—国民小吃：黄金锅巴-会做饭很酷!",
            "image" : "https:\/\/cp1.douguo.com\/upload\/caiku\/8\/f\/1\/8fa841bb7d5ecc393d8433f995e4cfe1.jpg",
            "channel" : "7",
            "s_u" : "http:\/\/m.douguo.com\/cookbook\/1380656.html",
            "object_id" : "1380656",
            "s_d" : "长帝贝贝CRWF32AM试用报告—国民小吃：黄金锅巴-会做饭很酷!"
          },
          {
            "object_id" : "1380656",
            "name" : "长帝贝贝CRWF32AM试用报告—国民小吃：黄金锅巴-会做饭很酷!",
            "s_d" : "长帝贝贝CRWF32AM试用报告—国民小吃：黄金锅巴-会做饭很酷!",
            "s_u" : "http:\/\/m.douguo.com\/cookbook\/1380656.html",
            "qr_image" : "",
            "image" : "https:\/\/cp1.douguo.com\/upload\/caiku\/8\/f\/1\/8fa841bb7d5ecc393d8433f995e4cfe1.jpg",
            "channel" : "8",
            "mini_program" : [

            ]
          }
        ],
        "image" : "https:\/\/cp1.douguo.com\/upload\/caiku\/8\/f\/1\/8fa841bb7d5ecc393d8433f995e4cfe1.jpg",
        "object_id" : "1380656",
        "s_d" : "长帝贝贝CRWF32AM试用报告—国民小吃：黄金锅巴-会做饭很酷!",
        "mini_program" : [

        ],
        "name" : "长帝贝贝CRWF32AM试用报告—国民小吃：黄金锅巴-会做饭很酷!",
        "qr_image" : "",
        "s_u" : "http:\/\/m.douguo.com\/cookbook\/1380656.html"
      },
      "guide_image" : "",
      "ipoi" : "",
      "create_time" : "2016-05-19 20:41:56",
      "rate_count" : 4,
      "purl" : "",
      "tags" : [
        "{\n    text = \"\\U5bb6\\U5e38\\U83dc\";\n}",
        "{\n    text = \"\\U79c1\\U5bb6\\U83dc\";\n}",
        "{\n    text = \"\\U5c0f\\U5403\";\n}",
        "{\n    text = \"\\U96f6\\U98df\";\n}",
        "{\n    text = \"\\U54b8\";\n}",
        "{\n    text = \"\\U9999\";\n}",
        "{\n    text = \"\\U5348\\U9910\";\n}",
        "{\n    text = \"\\U665a\\U9910\";\n}",
        "{\n    text = \"\\U4e00\\U5bb6\\U4e09\\U53e3\";\n}"
      ],
      "author" : "拾光机",
      "vc" : "165811",
      "favo_counts" : 5751,
      "hq" : 1,
      "title_ad" : [

      ],
      "recipe_list_tags" : [
        {
          "background_start_color" : "#F4F5F5",
          "text_color" : "#141515",
          "text" : "关注的人",
          "background_border_color" : "",
          "background_end_color" : "#F4F5F5",
          "jump_url" : "",
          "right_image" : ""
        },
        {
          "background_start_color" : "#F4F5F5",
          "text_color" : "#141515",
          "text" : "内容详细",
          "jump_url" : "",
          "background_end_color" : "#F4F5F5",
          "right_image" : "",
          "background_border_color" : ""
        }
      ],
      "notes" : [

      ],
      "old_comments" : [

      ],
      "author_id" : 2243416
    }
  },
  "state" : "success",
  "status" : 0
}