{
  "status" : 0,
  "state" : "success",
  "result" : {
    "recipe" : {
      "ph" : 600,
      "rate_show" : 0,
      "rsm" : "该功能暂停使用",
      "cookstory" : "人们经过一个冬天、一个春天，体内积聚的病气会很多。夏季天气炎热，人体腠理是开放的，体内阳气空虚。此时喝一杯红糖姜枣茶，既能补体内阳气之虚以温中，又能助阳气发散以排寒。正如《黄帝内经》所讲“春夏养阳”。老百姓都知道“冬吃萝卜夏吃姜”，那么这个时候喝红糖姜枣茶，基本上就能把体内的病气都驱除了，这样整个夏天就会好过很舒服，而且，天热以后脾胃比较虚寒，提前喝上姜枣红糖茶补补脾胃，夏天一定会过的很好。在炎热的夏季，人体实际上是外热内寒的，再加上夏天人们喜欢吃冷的食物，喜欢待在阴凉的环境中，这样容易损伤脾胃，引发腹痛、腹泻等疾病。这时的您就需要吃点热性的东西，来调理一下您的脾胃。\n【适应人群】\n男人熬夜，解酒，保护肝脏等；\n女性痛经、宫寒体寒、月经不调、气血不足、备孕、月子、黑色素沉积等 ；\n老人体弱、散瘀活血、利肠通便、益气健脾、补温心肺等；\n孩子厌食、生长缓慢等\n【食用方法】\n早上或者上午挖1-2勺用温水冲一杯即可。因为有姜，晚上不建议喝。\n【温馨提示】\n姜枣膏虽好，但糖尿病人不宜使用；痰湿过多，或阴虚火旺者也不能多服。",
      "cookwares" : [

      ],
      "rrps" : [

      ],
      "ipit" : 0,
      "rrpt" : "",
      "ipt" : "",
      "cookstep" : [
        {
          "position" : 1,
          "image_width" : 800,
          "content" : "准备工作:三样材料洗干净，生姜切片。",
          "frame" : "-1",
          "thumb" : "https:\/\/i1.douguo.com\/upload\/caiku\/6\/e\/9\/140_6e02806078d86e18fe704007ff8aba09.jpg",
          "image_height" : 600,
          "image" : "https:\/\/i1.douguo.com\/upload\/caiku\/6\/e\/9\/6e02806078d86e18fe704007ff8aba09.jpg"
        },
        {
          "image_width" : 800,
          "position" : 2,
          "image" : "https:\/\/i1.douguo.com\/upload\/caiku\/f\/1\/b\/f167922778ef84671ffac0fe0a1cda7b.jpg",
          "content" : "依然是准备工作: 红枣去核，去核工作量稍大。家里有去核神器的就简单多了。",
          "thumb" : "https:\/\/i1.douguo.com\/upload\/caiku\/f\/1\/b\/140_f167922778ef84671ffac0fe0a1cda7b.jpg",
          "frame" : "-1",
          "image_height" : 600
        },
        {
          "content" : "接下来需要把材料打碎，可以用料理机或者破壁机。我用的是破壁机，如果量大需要少量多次进行。这个量我分三次进行，每次都放些红枣生姜枸杞，加少量清水。破壁机选2档，每次20秒就可以打的很碎。",
          "image_width" : 800,
          "image_height" : 1067,
          "frame" : "-1",
          "thumb" : "https:\/\/i1.douguo.com\/upload\/caiku\/4\/6\/c\/140_46189cd27a6848176c8cc5ee7111be2c.jpg",
          "position" : 3,
          "image" : "https:\/\/i1.douguo.com\/upload\/caiku\/4\/6\/c\/46189cd27a6848176c8cc5ee7111be2c.jpg"
        },
        {
          "image_width" : 800,
          "content" : "这是打好的姜枣泥。怎么样？效果不错，很碎有木有？！",
          "position" : 4,
          "image_height" : 1067,
          "thumb" : "https:\/\/i1.douguo.com\/upload\/caiku\/5\/c\/f\/140_5cf0a00a2fa88d0541dd67fc8ecd16ff.jpg",
          "frame" : "-1",
          "image" : "https:\/\/i1.douguo.com\/upload\/caiku\/5\/c\/f\/5cf0a00a2fa88d0541dd67fc8ecd16ff.jpg"
        },
        {
          "image_height" : 600,
          "position" : 5,
          "image" : "https:\/\/i1.douguo.com\/upload\/caiku\/7\/5\/6\/750e917c35be1e685143384aebb9ae66.jpg",
          "content" : "接下来就是漫长的熬制工作。将上一步打好的倒入锅中，倒入红糖。开火，大火烧开，红糖化开后转小火，开始熬制，整个过程都要不停地翻拌，以免煳锅。",
          "frame" : "-1",
          "thumb" : "https:\/\/i1.douguo.com\/upload\/caiku\/7\/5\/6\/140_750e917c35be1e685143384aebb9ae66.jpg",
          "image_width" : 800
        },
        {
          "position" : 6,
          "content" : "熬直粘稠就可以出锅。冷却后还会变粘稠一些。这个状态差不多已经好了。我这次熬制时间大概一个半小时，熬制时间根据量的多少来定。",
          "image_height" : 600,
          "image_width" : 800,
          "frame" : "-1",
          "thumb" : "https:\/\/i1.douguo.com\/upload\/caiku\/7\/b\/d\/140_7b6b83439ed7fd4e6312644c5b2430cd.jpg",
          "image" : "https:\/\/i1.douguo.com\/upload\/caiku\/7\/b\/d\/7b6b83439ed7fd4e6312644c5b2430cd.jpg"
        },
        {
          "image_width" : 800,
          "thumb" : "https:\/\/i1.douguo.com\/upload\/caiku\/7\/7\/c\/140_77aa2f7888375327f516a2d146ec8acc.jpg",
          "frame" : "-1",
          "image_height" : 1067,
          "image" : "https:\/\/i1.douguo.com\/upload\/caiku\/7\/7\/c\/77aa2f7888375327f516a2d146ec8acc.jpg",
          "position" : 7,
          "content" : "成品还是比较细腻的。"
        }
      ],
      "rate" : 4,
      "dish_count_text" : "20",
      "title_ad" : [

      ],
      "original_photo_path" : "http:\/\/i1.douguo.net\/upload\/caiku\/2\/a\/3\/yuan_2ad7833b23efc6112297cb5c4d0075a3.jpg",
      "levelid" : 2,
      "comments" : [
        "{\n    ac = \"#999999\";\n    at = \"\";\n    ccc = 1;\n    \"child_comments\" =     (\n                {\n            ac = \"#999999\";\n            at = \"\";\n            ccc = 0;\n            city = \"\";\n            cmc = 2;\n            content =             (\n                                {\n                    c = \"  \\U597d\\U54d2  \\U7559\\U5730\\U5740\\U263a\";\n                }\n            );\n            ia = 1;\n            id = 4946166;\n            \"ip_address_location\" = \"\";\n            like = 0;\n            \"like_count\" = 0;\n            \"reply_id\" = 4945904;\n            \"reply_user\" =             {\n                \"followers_count_text\" = \"\";\n                id = 18484007;\n                \"is_prime\" = 0;\n                lv = 0;\n                lvl = 2;\n                n = \"\\U66b4\\U8e81\\U7684\\U57fa\\U56f4\\U867e\\U5f88\\U6709\\U6545\\U4e8b\";\n                p = \"http:\/\/tx1.douguo.net\/upload\/photo\/1\/1\/1\/70_55fedc7df97ad8d0960e0b7d091d2448.png\";\n                \"progress_image\" = \"\";\n                \"recipes_count_text\" = \"\";\n                relationship = \"-1\";\n                title = \"\";\n                v = 0;\n                \"verified_image\" = \"\";\n            };\n            \"sticker_icon\" =             (\n            );\n            time = \"2017-07-27 07:48:16\";\n            u =             {\n                \"followers_count_text\" = \"\";\n                id = 11767508;\n                \"is_prime\" = 0;\n                lv = 0;\n                lvl = 6;\n                n = \"\\U67da\\U5b50\\U7684\\U5fae\\U751f\\U6d3b\";\n                p = \"http:\/\/tx1.douguo.net\/upload\/photo\/0\/b\/4\/70_u4516101920312110157.jpg\";\n                \"progress_image\" = \"\";\n                \"recipes_count_text\" = \"\";\n                relationship = \"-1\";\n                title = \"\";\n                v = 1;\n                \"verified_image\" = \"\";\n            };\n        }\n    );\n    city = \"\";\n    cmc = 2;\n    content =     (\n                {\n            c = \"\\U7ed9\\U6211\\U6765\\U4e00\\U76d8\";\n        }\n    );\n    ia = 0;\n    id = 4945904;\n    \"ip_address_location\" = \"\";\n    like = 0;\n    \"like_count\" = 1;\n    \"reply_id\" = 0;\n    \"sticker_icon\" =     (\n    );\n    time = \"2017-07-27 06:07:05\";\n    u =     {\n        \"followers_count_text\" = \"\";\n        id = 18484007;\n        \"is_prime\" = 0;\n        lv = 0;\n        lvl = 2;\n        n = \"\\U66b4\\U8e81\\U7684\\U57fa\\U56f4\\U867e\\U5f88\\U6709\\U6545\\U4e8b\";\n        p = \"http:\/\/tx1.douguo.net\/upload\/photo\/1\/1\/1\/70_55fedc7df97ad8d0960e0b7d091d2448.png\";\n        \"progress_image\" = \"\";\n        \"recipes_count_text\" = \"\";\n        relationship = \"-1\";\n        title = \"\";\n        v = 0;\n        \"verified_image\" = \"\";\n    };\n}",
        "{\n    ac = \"#999999\";\n    at = \"\";\n    ccc = 1;\n    \"child_comments\" =     (\n                {\n            ac = \"#999999\";\n            at = \"\\U6b66\\U6c49\\U5e02\";\n            ccc = 0;\n            city = \"\\U6b66\\U6c49\\U5e02\";\n            cmc = 2;\n            content =             (\n                                {\n                    c = \" \\U4f60\\U90a3\\U8fb9\\U591a\\U5c11\\U6e29\\U5ea6\\U5416\";\n                }\n            );\n            ia = 1;\n            id = 7382045;\n            \"ip_address_location\" = \"\";\n            like = 0;\n            \"like_count\" = 0;\n            \"reply_id\" = 7378471;\n            \"reply_user\" =             {\n                \"followers_count_text\" = \"\";\n                id = 16711868;\n                \"is_prime\" = 0;\n                lv = 0;\n                lvl = 1;\n                n = \"\\U563b\\U7c73\\U5b9d\\U8d1d\";\n                p = \"\";\n                \"progress_image\" = \"\";\n                \"recipes_count_text\" = \"\";\n                relationship = \"-1\";\n                title = \"\";\n                v = 0;\n                \"verified_image\" = \"\";\n            };\n            \"sticker_icon\" =             (\n            );\n            time = \"2019-11-29 19:51:17\";\n            u =             {\n                \"followers_count_text\" = \"\";\n                id = 11767508;\n                \"is_prime\" = 0;\n                lv = 0;\n                lvl = 6;\n                n = \"\\U67da\\U5b50\\U7684\\U5fae\\U751f\\U6d3b\";\n                p = \"http:\/\/tx1.douguo.net\/upload\/photo\/0\/b\/4\/70_u4516101920312110157.jpg\";\n                \"progress_image\" = \"\";\n                \"recipes_count_text\" = \"\";\n                relationship = \"-1\";\n                title = \"\";\n                v = 1;\n                \"verified_image\" = \"\";\n            };\n        }\n    );\n    city = \"\";\n    cmc = 2;\n    content =     (\n                {\n            c = \"\\U8bf7\\U95ee\\U6211\\U5e38\\U6e29\\U653e\\U600e\\U4e48\\U5dee\\U4e0d\\U591a\\U4e00\\U5468\\U5c31\\U6ca1\\U7528\\U4e86\\Uff1f\\U5c31\\U9178\\U4e86\";\n        }\n    );\n    ia = 0;\n    id = 7378471;\n    \"ip_address_location\" = \"\";\n    like = 0;\n    \"like_count\" = 0;\n    \"reply_id\" = 0;\n    \"sticker_icon\" =     (\n    );\n    time = \"2019-11-28 22:54:43\";\n    u =     {\n        \"followers_count_text\" = \"\";\n        id = 16711868;\n        \"is_prime\" = 0;\n        lv = 0;\n        lvl = 1;\n        n = \"\\U563b\\U7c73\\U5b9d\\U8d1d\";\n        p = \"\";\n        \"progress_image\" = \"\";\n        \"recipes_count_text\" = \"\";\n        relationship = \"-1\";\n        title = \"\";\n        v = 0;\n        \"verified_image\" = \"\";\n    };\n}",
        "{\n    ac = \"#999999\";\n    at = \"\";\n    ccc = 1;\n    \"child_comments\" =     (\n                {\n            ac = \"#999999\";\n            at = \"\\U5357\\U9633\\U5e02\";\n            ccc = 0;\n            city = \"\\U5357\\U9633\\U5e02\";\n            cmc = 2;\n            content =             (\n                                {\n                    c = \" \\U4e5f\\U53ef\\U4ee5\";\n                }\n            );\n            ia = 1;\n            id = 6796627;\n            \"ip_address_location\" = \"\";\n            like = 0;\n            \"like_count\" = 0;\n            \"reply_id\" = 6773975;\n            \"reply_user\" =             {\n                \"followers_count_text\" = \"\";\n                id = 6109146;\n                \"is_prime\" = 0;\n                lv = 0;\n                lvl = 1;\n                n = \"\\U8d1d\\U8d1d8898\";\n                p = \"\";\n                \"progress_image\" = \"\";\n                \"recipes_count_text\" = \"\";\n                relationship = \"-1\";\n                title = \"\";\n                v = 0;\n                \"verified_image\" = \"\";\n            };\n            \"sticker_icon\" =             (\n            );\n            time = \"2019-07-20 09:28:59\";\n            u =             {\n                \"followers_count_text\" = \"\";\n                id = 11767508;\n                \"is_prime\" = 0;\n                lv = 0;\n                lvl = 6;\n                n = \"\\U67da\\U5b50\\U7684\\U5fae\\U751f\\U6d3b\";\n                p = \"http:\/\/tx1.douguo.net\/upload\/photo\/0\/b\/4\/70_u4516101920312110157.jpg\";\n                \"progress_image\" = \"\";\n                \"recipes_count_text\" = \"\";\n                relationship = \"-1\";\n                title = \"\";\n                v = 1;\n                \"verified_image\" = \"\";\n            };\n        }\n    );\n    city = \"\";\n    cmc = 2;\n    content =     (\n                {\n            c = \"\\U4e0d\\U653e\\U7ea2\\U7cd6\\U53ef\\U4ee5\\U561b\\Uff1f\";\n        }\n    );\n    ia = 0;\n    id = 6773975;\n    \"ip_address_location\" = \"\";\n    like = 0;\n    \"like_count\" = 0;\n    \"reply_id\" = 0;\n    \"sticker_icon\" =     (\n    );\n    time = \"2019-07-14 21:19:41\";\n    u =     {\n        \"followers_count_text\" = \"\";\n        id = 6109146;\n        \"is_prime\" = 0;\n        lv = 0;\n        lvl = 1;\n        n = \"\\U8d1d\\U8d1d8898\";\n        p = \"\";\n        \"progress_image\" = \"\";\n        \"recipes_count_text\" = \"\";\n        relationship = \"-1\";\n        title = \"\";\n        v = 0;\n        \"verified_image\" = \"\";\n    };\n}"
      ],
      "notes" : [

      ],
      "author_verified" : 1,
      "cook_difficulty_image" : "",
      "title" : "红糖枸杞姜枣膏",
      "ss" : [

      ],
      "major" : [
        {
          "note" : "350克",
          "title" : "生姜",
          "tu" : "https:\/\/m.douguo.com\/ingredients\/生姜\/detailmaterial"
        },
        {
          "tu" : "https:\/\/m.douguo.com\/ingredients\/红枣\/detailmaterial",
          "title" : "红枣",
          "note" : "500克"
        },
        {
          "title" : "枸杞",
          "note" : "80克",
          "tu" : "https:\/\/m.douguo.com\/ingredients\/枸杞\/detailmaterial"
        },
        {
          "note" : "500克",
          "tu" : "https:\/\/m.douguo.com\/ingredients\/红糖\/detailmaterial",
          "title" : "红糖"
        },
        {
          "tu" : "https:\/\/m.douguo.com\/ingredients\/清水\/detailmaterial",
          "title" : "清水",
          "note" : "适量"
        }
      ],
      "dish_count" : 20,
      "cook_time_image" : "",
      "sc" : 0,
      "ipoi" : "",
      "v_u" : "",
      "image" : "http:\/\/i1.douguo.net\/upload\/caiku\/2\/a\/3\/300_2ad7833b23efc6112297cb5c4d0075a3.jpg",
      "rcs" : [

      ],
      "author" : "柚子的微生活",
      "btm_dsp" : [

      ],
      "vfurl" : "",
      "hq" : 1,
      "release_time" : "",
      "sr" : "",
      "old_comments" : [

      ],
      "author_photo" : "http:\/\/tx1.douguo.net\/upload\/photo\/0\/b\/4\/70_u4516101920312110157.jpg",
      "ipurl" : "",
      "related_ads" : [

      ],
      "recent_comments" : [

      ],
      "thumb_height" : 0,
      "hqu" : "recipes:\/\/www.douguo.com\/notedetail?id=21162253",
      "vc" : "522609",
      "recommend_label" : "20人学做",
      "guide_image" : "",
      "ssu" : "",
      "advice" : {
        "at" : "适合三高人群哦～",
        "has" : [
          {
            "url" : "recipes:\/\/www.douguo.com\/simplerecipelist?t=0胆固醇&id=0胆固醇",
            "t" : "0胆固醇"
          },
          {
            "url" : "recipes:\/\/www.douguo.com\/simplerecipelist?t=富含维生素C&id=富含维生素C",
            "t" : "富含维生素C"
          }
        ],
        "da" : {
          "url" : "https:\/\/m.douguo.com\/recipe\/nutrient_self\/1584392",
          "iu" : "https:\/\/i1.douguo.com\/upload\/banner\/f\/4\/d\/f48877e53c37759bc12ac494be82ec8d.png",
          "t" : "查看详细分析"
        }
      },
      "brand_day_dsp" : [

      ],
      "rpt" : "",
      "rpst" : "",
      "cookstorys" : [
        {
          "id" : 0,
          "u" : "",
          "type" : 0,
          "icon" : "",
          "c" : "人们经过一个冬天、一个春天，体内积聚的病气会很多。夏季天气炎热，人体腠理是开放的，体内阳气空虚。此时喝一杯红糖姜枣茶，既能补体内阳气之虚以温中，又能助阳气发散以排寒。正如《黄帝内经》所讲“春夏养阳”。老百姓都知道“冬吃萝卜夏吃姜”，那么这个时候喝红糖姜枣茶，基本上就能把体内的病气都驱除了，这样整个夏天就会好过很舒服，而且，天热以后脾胃比较虚寒，提前喝上姜枣红糖茶补补脾胃，夏天一定会过的很好。在炎热的夏季，人体实际上是外热内寒的，再加上夏天人们喜欢吃冷的食物，喜欢待在阴凉的环境中，这样容易损伤脾胃，引发腹痛、腹泻等疾病。这时的您就需要吃点热性的东西，来调理一下您的脾胃。\n【适应人群】\n男人熬夜，解酒，保护肝脏等；\n女性痛经、宫寒体寒、月经不调、气血不足、备孕、月子、黑色素沉积等 ；\n老人体弱、散瘀活血、利肠通便、益气健脾、补温心肺等；\n孩子厌食、生长缓慢等\n【食用方法】\n早上或者上午挖1-2勺用温水冲一杯即可。因为有姜，晚上不建议喝。\n【温馨提示】\n姜枣膏虽好，但糖尿病人不宜使用；痰湿过多，或阴虚火旺者也不能多服。",
          "color" : ""
        }
      ],
      "eu" : "recipes:\/\/www.douguo.com\/postdetail?id=242016",
      "first_level_comment_count" : 13,
      "comments_count_text" : "20",
      "recommendation_tag" : "",
      "su" : "",
      "rdsps" : [

      ],
      "favo_counts_text" : "3075",
      "tips" : "1. 熬制过程中一定要小火熬制，火大容易溅出，小心不要被烫到。并且要不停翻拌以免糊锅。\n\n2. 红枣和生姜的比例可以随意调整，按理来说生姜应该是红枣的二倍。我怕姜太辣，所以红枣的量比量多些。枸杞是辅料，不要太多。红糖的量依个人喜好来定。\n3. 这个量做好后可放至少一个月，冰箱冷藏放置会更久些。",
      "ecs" : 0,
      "act_des" : "",
      "favo_counts" : 3075,
      "create_time" : "2017-07-27 12:06:57",
      "dishes" : [

      ],
      "cook_id" : "1584392",
      "rewarded_video_dsp" : [

      ],
      "recipe_list_tags" : [
        {
          "right_image" : "",
          "background_end_color" : "#F4F5F5",
          "text" : "关注的人",
          "background_start_color" : "#F4F5F5",
          "background_border_color" : "",
          "text_color" : "#141515",
          "jump_url" : ""
        },
        {
          "background_end_color" : "#F4F5F5",
          "right_image" : "",
          "jump_url" : "",
          "text_color" : "#141515",
          "background_start_color" : "#F4F5F5",
          "background_border_color" : "",
          "text" : "内容详细"
        }
      ],
      "tags" : [

      ],
      "ipci" : "",
      "collect_status" : 0,
      "top_mdsp" : [

      ],
      "author_id" : 11767508,
      "cook_difficulty" : "",
      "ipia" : [

      ],
      "clicks" : "514418",
      "purl" : "",
      "bs" : [

      ],
      "pw" : 800,
      "user" : {
        "qzone_nick" : "",
        "followers_count" : 0,
        "introduction" : "",
        "mobile" : "",
        "is_prime" : 0,
        "subscription" : 0,
        "point" : 0,
        "diaries_count" : 0,
        "verified_image" : "https:\/\/i1.douguo.com\/upload\/note\/d\/a\/a\/da84247847aebe48d9dd0fcdac88862a.png",
        "coursecount" : 0,
        "verified_url" : "https:\/\/m.douguo.com\/user\/prodesc",
        "user_photo" : "http:\/\/tx1.douguo.net\/upload\/photo\/0\/b\/4\/70_u4516101920312110157.jpg",
        "nick" : "柚子的微生活",
        "regist_time" : "",
        "birthday" : "",
        "setted_email" : 0,
        "sign" : "",
        "dishes_count" : 0,
        "qq_weibo_nick" : "",
        "location" : 0,
        "following_count" : 0,
        "lv" : 0,
        "fc" : 0,
        "age" : "",
        "weibo_nick" : "",
        "user_cover" : "",
        "user_large_photo" : "http:\/\/tx1.douguo.net\/upload\/photo\/0\/b\/4\/yuan_u4516101920312110157.jpg",
        "userid" : "11767508",
        "lvl" : 6,
        "subscription_article_count" : 0,
        "recipes_count" : 0,
        "user_id" : "11767508",
        "pc" : 0,
        "verified" : 1,
        "favorites_count" : 0,
        "progress_image" : "",
        "email" : "",
        "gender" : 2,
        "favor_diaries_count" : 0,
        "avatar_medium" : "http:\/\/tx1.douguo.net\/upload\/photo\/0\/b\/4\/140_u4516101920312110157.jpg"
      },
      "display_ingredient" : 1,
      "recommended" : 0,
      "vu" : "",
      "mid_mdsp" : [

      ],
      "thumb_path" : "https:\/\/i1.douguo.com\/upload\/caiku\/2\/a\/3\/300_2ad7833b23efc6112297cb5c4d0075a3.jpg",
      "share_info" : {
        "object_id" : "1584392",
        "mini_program" : [

        ],
        "image" : "https:\/\/cp1.douguo.com\/upload\/caiku\/2\/a\/3\/2ad7833b23efc6112297cb5c4d0075a3.jpg",
        "s_d" : "红糖枸杞姜枣膏-会做饭很酷!",
        "s_u" : "http:\/\/m.douguo.com\/cookbook\/1584392.html",
        "name" : "红糖枸杞姜枣膏-会做饭很酷!",
        "qr_image" : "",
        "infos" : [
          {
            "image" : "https:\/\/cp1.douguo.com\/upload\/caiku\/2\/a\/3\/2ad7833b23efc6112297cb5c4d0075a3.jpg",
            "s_u" : "",
            "mini_program" : [

            ],
            "s_d" : "#学做饭用豆果美食# 我在@豆果美食 分享了【红糖枸杞姜枣膏-会做饭很酷!】，这菜真的很好吃，而且做法简单不难学，还不快来跟我学～查看图片了解菜谱（每天限量免费课程，想跟大师学厨艺就来这https:\/\/m.weibo.cn\/p\/100404i33631）#会做饭很酷# ",
            "channel" : "1",
            "name" : "红糖枸杞姜枣膏-会做饭很酷!",
            "qr_image" : "",
            "object_id" : "1584392"
          },
          {
            "image" : "https:\/\/cp1.douguo.com\/upload\/caiku\/2\/a\/3\/2ad7833b23efc6112297cb5c4d0075a3.jpg",
            "s_u" : "http:\/\/m.douguo.com\/cookbook\/1584392.html",
            "mini_program" : [

            ],
            "s_d" : "红糖枸杞姜枣膏-会做饭很酷!",
            "name" : "红糖枸杞姜枣膏-会做饭很酷!",
            "qr_image" : "",
            "channel" : "7",
            "object_id" : "1584392"
          },
          {
            "s_u" : "http:\/\/m.douguo.com\/cookbook\/1584392.html",
            "mini_program" : [

            ],
            "image" : "https:\/\/cp1.douguo.com\/upload\/caiku\/2\/a\/3\/2ad7833b23efc6112297cb5c4d0075a3.jpg",
            "name" : "红糖枸杞姜枣膏-会做饭很酷!",
            "object_id" : "1584392",
            "s_d" : "红糖枸杞姜枣膏-会做饭很酷!",
            "channel" : "8",
            "qr_image" : ""
          }
        ]
      },
      "cook_time" : "",
      "story_dsp" : [

      ],
      "rate_count" : 14,
      "rpid" : 0,
      "comments_count" : 20,
      "minor" : [

      ],
      "rips" : 0,
      "views_count_text" : "52.3万",
      "recipe_tags" : [

      ],
      "photo_path" : "https:\/\/i1.douguo.com\/upload\/caiku\/2\/a\/3\/600_2ad7833b23efc6112297cb5c4d0075a3.jpg",
      "packages_id" : [

      ]
    }
  }
}