{
  "state" : "success",
  "status" : 0,
  "result" : {
    "recipe" : {
      "recommendation_tag" : "",
      "author_verified" : 1,
      "ipurl" : "",
      "rsm" : "该功能暂停使用",
      "clicks" : "1",
      "release_time" : "",
      "notes" : [

      ],
      "photo_path" : "https:\/\/i1.douguo.com\/upload\/caiku\/9\/5\/8\/600_95da3827c6b79ae223f96cda780b0458.jpg",
      "rpst" : "",
      "rpt" : "",
      "rcs" : [

      ],
      "old_comments" : [

      ],
      "author_id" : 15798282,
      "levelid" : 2,
      "collect_status" : 0,
      "rrpt" : "",
      "cook_difficulty_image" : "https:\/\/i1.douguo.com\/upload\/banner\/1551424390.png",
      "views_count_text" : "2.6万",
      "purl" : "",
      "minor" : [

      ],
      "user" : {
        "introduction" : "",
        "user_large_photo" : "http:\/\/tx1.douguo.net\/upload\/photo\/b\/7\/0\/yuan_b7bcd6d5b9dbc6580f5e0b26af327370.jpg",
        "user_id" : "15798282",
        "avatar_medium" : "http:\/\/tx1.douguo.net\/upload\/photo\/b\/7\/0\/140_b7bcd6d5b9dbc6580f5e0b26af327370.jpg",
        "verified_url" : "https:\/\/m.douguo.com\/user\/prodesc",
        "favorites_count" : 0,
        "setted_email" : 0,
        "email" : "",
        "regist_time" : "",
        "following_count" : 0,
        "user_photo" : "http:\/\/tx1.douguo.net\/upload\/photo\/b\/7\/0\/70_b7bcd6d5b9dbc6580f5e0b26af327370.jpg",
        "userid" : "15798282",
        "dishes_count" : 0,
        "favor_diaries_count" : 0,
        "verified" : 1,
        "sign" : "",
        "subscription_article_count" : 0,
        "age" : "",
        "coursecount" : 0,
        "pc" : 0,
        "nick" : "无我Jin",
        "progress_image" : "",
        "location" : 0,
        "lvl" : 6,
        "is_prime" : 0,
        "qzone_nick" : "",
        "point" : 0,
        "gender" : 2,
        "diaries_count" : 0,
        "lv" : 0,
        "user_cover" : "",
        "fc" : 0,
        "qq_weibo_nick" : "",
        "followers_count" : 0,
        "subscription" : 0,
        "mobile" : "",
        "recipes_count" : 0,
        "verified_image" : "https:\/\/i1.douguo.com\/upload\/note\/d\/a\/a\/da84247847aebe48d9dd0fcdac88862a.png",
        "birthday" : "",
        "weibo_nick" : ""
      },
      "ipit" : 0,
      "rips" : 0,
      "sr" : "",
      "comments_count_text" : "",
      "tags" : [

      ],
      "cookstorys" : [
        {
          "id" : 0,
          "color" : "",
          "type" : 0,
          "u" : "",
          "icon" : "",
          "c" : "参与活动:"
        },
        {
          "c" : "#本周热榜来袭！#",
          "id" : 0,
          "u" : "https:\/\/m.douguo.com\/activity\/ncpzj\/detail\/3790?isapp=1&open=0&_vs=1000300&&dg_refreshkey=publishnote",
          "icon" : "",
          "type" : 0
        }
      ],
      "top_mdsp" : [

      ],
      "cookwares" : [

      ],
      "author_photo" : "http:\/\/tx1.douguo.net\/upload\/photo\/b\/7\/0\/70_b7bcd6d5b9dbc6580f5e0b26af327370.jpg",
      "favo_counts" : 1131,
      "recent_comments" : [

      ],
      "dish_count_text" : "",
      "ipoi" : "",
      "bs" : [

      ],
      "recommended" : 0,
      "vu" : "",
      "title" : "红红辣椒酱",
      "ipci" : "",
      "ssu" : "",
      "brand_day_dsp" : [

      ],
      "dish_count" : 0,
      "hqu" : "recipes:\/\/www.douguo.com\/notedetail?id=21162253",
      "original_photo_path" : "http:\/\/i1.douguo.net\/upload\/caiku\/9\/5\/8\/yuan_95da3827c6b79ae223f96cda780b0458.jpg",
      "ph" : 1632,
      "related_ads" : [

      ],
      "cook_difficulty" : "切墩(初级)",
      "act_des" : "",
      "ss" : [

      ],
      "image" : "http:\/\/i1.douguo.net\/upload\/caiku\/9\/5\/8\/300_95da3827c6b79ae223f96cda780b0458.jpg",
      "vc" : "26098",
      "rate_show" : 0,
      "rate" : 0,
      "su" : "",
      "guide_image" : "",
      "major" : [
        {
          "note" : "500克",
          "title" : "美人椒"
        },
        {
          "note" : "适量",
          "tu" : "https:\/\/m.douguo.com\/ingredients\/盐\/detailmaterial",
          "title" : "盐"
        },
        {
          "tu" : "https:\/\/m.douguo.com\/ingredients\/花椒\/detailmaterial",
          "note" : "适量",
          "title" : "花椒"
        },
        {
          "title" : "蒜蓉",
          "note" : "适量"
        }
      ],
      "ipia" : [

      ],
      "cook_time_image" : "https:\/\/i1.douguo.com\/upload\/banner\/1551424341.png",
      "first_level_comment_count" : 0,
      "recipe_tags" : [

      ],
      "eu" : "recipes:\/\/www.douguo.com\/postdetail?id=242016",
      "title_ad" : [

      ],
      "rdsps" : [

      ],
      "pw" : 1224,
      "comments_count" : 0,
      "ecs" : 1,
      "rewarded_video_dsp" : [

      ],
      "ipt" : "",
      "comments" : [

      ],
      "author" : "无我Jin",
      "cook_id" : "3267853",
      "btm_dsp" : [

      ],
      "sc" : 0,
      "event" : {
        "id" : 3790,
        "name" : "本周热榜来袭！",
        "url" : "https:\/\/m.douguo.com\/activity\/ncpzj\/detail\/3790?isapp=1&open=0&_vs=1000300&&dg_refreshkey=publishnote"
      },
      "cookstep" : [
        {
          "image_width" : 1280,
          "frame" : "-1",
          "content" : "辣椒洗净",
          "image" : "https:\/\/i1.douguo.com\/upload\/caiku\/d\/2\/3\/d27d7a76d256b0b8f6660e2ac26ca3d3.jpg",
          "image_height" : 960,
          "thumb" : "https:\/\/i1.douguo.com\/upload\/caiku\/d\/2\/3\/140_d27d7a76d256b0b8f6660e2ac26ca3d3.jpg",
          "position" : 1
        },
        {
          "frame" : "-1",
          "image_height" : 970,
          "thumb" : "https:\/\/i1.douguo.com\/upload\/caiku\/9\/c\/b\/140_9cce224f06deda7f3f2064abb44c05eb.jpg",
          "image" : "https:\/\/i1.douguo.com\/upload\/caiku\/9\/c\/b\/9cce224f06deda7f3f2064abb44c05eb.jpg",
          "image_width" : 1194,
          "position" : 2,
          "content" : "切段放入机器"
        },
        {
          "image" : "https:\/\/i1.douguo.com\/upload\/caiku\/c\/d\/c\/cd133429b78557ce9ede72cfec8ae9fc.jpg",
          "content" : "打碎",
          "image_height" : 952,
          "thumb" : "https:\/\/i1.douguo.com\/upload\/caiku\/c\/d\/c\/140_cd133429b78557ce9ede72cfec8ae9fc.jpg",
          "position" : 3,
          "image_width" : 1170,
          "frame" : "-1"
        },
        {
          "image_height" : 1024,
          "thumb" : "https:\/\/i1.douguo.com\/upload\/caiku\/f\/f\/9\/140_ffaee98ebd866fbcbdf8929c66168aa9.jpg",
          "position" : 4,
          "image_width" : 1280,
          "content" : "菜油炒制，5分钟",
          "image" : "https:\/\/i1.douguo.com\/upload\/caiku\/f\/f\/9\/ffaee98ebd866fbcbdf8929c66168aa9.jpg",
          "frame" : "-1"
        },
        {
          "image_width" : 1224,
          "image_height" : 1632,
          "image" : "https:\/\/i1.douguo.com\/upload\/caiku\/a\/6\/7\/a62b7d0b98936597fd7f92a2a7adefd7.jpg",
          "content" : "凉了以后装瓶，上面再倒上菜油，以免发霉，放入冰箱冷藏。",
          "thumb" : "https:\/\/i1.douguo.com\/upload\/caiku\/a\/6\/7\/140_a62b7d0b98936597fd7f92a2a7adefd7.jpg",
          "frame" : "-1",
          "position" : 5
        }
      ],
      "thumb_height" : 0,
      "story_dsp" : [

      ],
      "cookstory" : "",
      "share_info" : {
        "mini_program" : [

        ],
        "object_id" : "3267853",
        "s_u" : "http:\/\/m.douguo.com\/cookbook\/3267853.html",
        "image" : "https:\/\/cp1.douguo.com\/upload\/caiku\/9\/5\/8\/95da3827c6b79ae223f96cda780b0458.jpg",
        "name" : "#本周热榜#红红辣椒酱-会做饭很酷!",
        "s_d" : "#本周热榜#红红辣椒酱-会做饭很酷!",
        "infos" : [
          {
            "mini_program" : [

            ],
            "image" : "https:\/\/cp1.douguo.com\/upload\/caiku\/9\/5\/8\/95da3827c6b79ae223f96cda780b0458.jpg",
            "s_d" : "#学做饭用豆果美食# 我在@豆果美食 分享了【#本周热榜#红红辣椒酱-会做饭很酷!】，哟，集美们～你看这是神仙美味～快跟着我做一份，做一份！查看图片了解菜谱（更多美食秘籍点击https:\/\/m.weibo.cn\/p\/100404i33631获取）#会做饭很酷# ",
            "name" : "#本周热榜#红红辣椒酱-会做饭很酷!",
            "channel" : "1",
            "s_u" : "",
            "object_id" : "3267853",
            "qr_image" : ""
          },
          {
            "object_id" : "3267853",
            "channel" : "7",
            "s_d" : "#本周热榜#红红辣椒酱-会做饭很酷!",
            "qr_image" : "",
            "image" : "https:\/\/cp1.douguo.com\/upload\/caiku\/9\/5\/8\/95da3827c6b79ae223f96cda780b0458.jpg",
            "mini_program" : [

            ],
            "name" : "#本周热榜#红红辣椒酱-会做饭很酷!",
            "s_u" : "http:\/\/m.douguo.com\/cookbook\/3267853.html"
          },
          {
            "name" : "#本周热榜#红红辣椒酱-会做饭很酷!",
            "qr_image" : "",
            "mini_program" : [

            ],
            "s_u" : "http:\/\/m.douguo.com\/cookbook\/3267853.html",
            "channel" : "8",
            "s_d" : "#本周热榜#红红辣椒酱-会做饭很酷!",
            "object_id" : "3267853",
            "image" : "https:\/\/cp1.douguo.com\/upload\/caiku\/9\/5\/8\/95da3827c6b79ae223f96cda780b0458.jpg"
          }
        ],
        "qr_image" : ""
      },
      "cook_time" : "10~30分钟",
      "create_time" : "2023-08-16 01:35:27",
      "tips" : "辣椒不要太碎，装瓶好了一定上面再淋油。",
      "mid_mdsp" : [

      ],
      "recommend_label" : "1131人刚刚收藏过",
      "v_u" : "",
      "rrps" : [

      ],
      "display_ingredient" : 1,
      "hq" : 1,
      "vfurl" : "",
      "favo_counts_text" : "1131",
      "thumb_path" : "https:\/\/i1.douguo.com\/upload\/caiku\/9\/5\/8\/300_95da3827c6b79ae223f96cda780b0458.jpg",
      "rpid" : 0,
      "dishes" : [

      ],
      "packages_id" : [

      ],
      "rate_count" : 0,
      "recipe_list_tags" : [
        {
          "text" : "关注的人",
          "right_image" : "",
          "background_start_color" : "#F4F5F5",
          "background_border_color" : "",
          "text_color" : "#141515",
          "jump_url" : "",
          "background_end_color" : "#F4F5F5"
        }
      ]
    }
  }
}