{
  "status" : 0,
  "result" : {
    "recipe" : {
      "image" : "http:\/\/i1.douguo.net\/upload\/caiku\/4\/b\/a\/300_4b47e01660a793fccafc1b633693996a.jpg",
      "title_ad" : [

      ],
      "ss" : [

      ],
      "eu" : "recipes:\/\/www.douguo.com\/postdetail?id=242016",
      "act_des" : "",
      "rewarded_video_dsp" : [

      ],
      "cook_id" : "2064986",
      "purl" : "",
      "photo_path" : "https:\/\/i1.douguo.com\/upload\/caiku\/4\/b\/a\/600_4b47e01660a793fccafc1b633693996a.jpg",
      "release_time" : "",
      "advice" : {
        "at" : "不控制会变胖啊！！～",
        "da" : {
          "iu" : "https:\/\/i1.douguo.com\/upload\/banner\/f\/4\/d\/f48877e53c37759bc12ac494be82ec8d.png",
          "t" : "查看详细分析",
          "url" : "https:\/\/m.douguo.com\/recipe\/nutrient_self\/2064986"
        },
        "has" : [
          {
            "t" : "高脂肪",
            "url" : "recipes:\/\/www.douguo.com\/simplerecipelist?t=高脂肪&id=高脂肪"
          },
          {
            "t" : "高盐",
            "url" : "recipes:\/\/www.douguo.com\/simplerecipelist?t=高盐&id=高盐"
          }
        ]
      },
      "thumb_path" : "https:\/\/i1.douguo.com\/upload\/caiku\/4\/b\/a\/300_4b47e01660a793fccafc1b633693996a.jpg",
      "levelid" : 2,
      "create_time" : "2019-02-25 19:58:57",
      "cook_difficulty" : "",
      "ph" : 787,
      "rate_count" : 0,
      "cook_time" : "",
      "btm_dsp" : [

      ],
      "ipia" : [

      ],
      "display_ingredient" : 1,
      "tips" : "",
      "dish_count_text" : "",
      "rpst" : "",
      "share_info" : {
        "object_id" : "2064986",
        "mini_program" : [

        ],
        "image" : "https:\/\/cp1.douguo.com\/upload\/caiku\/4\/b\/a\/4b47e01660a793fccafc1b633693996a.jpg",
        "s_u" : "http:\/\/m.douguo.com\/cookbook\/2064986.html",
        "s_d" : "川味回锅肉-会做饭很酷!",
        "qr_image" : "",
        "infos" : [
          {
            "qr_image" : "",
            "channel" : "1",
            "mini_program" : [

            ],
            "object_id" : "2064986",
            "image" : "https:\/\/cp1.douguo.com\/upload\/caiku\/4\/b\/a\/4b47e01660a793fccafc1b633693996a.jpg",
            "s_u" : "",
            "s_d" : "#学做饭用豆果美食# 我在@豆果美食 分享了【川味回锅肉-会做饭很酷!】，帅哥美眉们～你们喜欢的美食来咯！快来跟我一起做吧～查看图片了解菜谱（想要获取更多美食就看这https:\/\/m.weibo.cn\/p\/100404i33631）#会做饭很酷#",
            "name" : "川味回锅肉-会做饭很酷!"
          },
          {
            "name" : "川味回锅肉-会做饭很酷!",
            "mini_program" : [

            ],
            "qr_image" : "",
            "s_u" : "http:\/\/m.douguo.com\/cookbook\/2064986.html",
            "channel" : "7",
            "object_id" : "2064986",
            "s_d" : "川味回锅肉-会做饭很酷!",
            "image" : "https:\/\/cp1.douguo.com\/upload\/caiku\/4\/b\/a\/4b47e01660a793fccafc1b633693996a.jpg"
          },
          {
            "mini_program" : [

            ],
            "image" : "https:\/\/cp1.douguo.com\/upload\/caiku\/4\/b\/a\/4b47e01660a793fccafc1b633693996a.jpg",
            "name" : "川味回锅肉-会做饭很酷!",
            "qr_image" : "",
            "s_u" : "http:\/\/m.douguo.com\/cookbook\/2064986.html",
            "s_d" : "川味回锅肉-会做饭很酷!",
            "channel" : "8",
            "object_id" : "2064986"
          }
        ],
        "name" : "川味回锅肉-会做饭很酷!"
      },
      "sc" : 0,
      "bs" : [

      ],
      "title" : "川味回锅肉",
      "ssu" : "",
      "hq" : 1,
      "favo_counts_text" : "5299",
      "ipurl" : "",
      "ipit" : 0,
      "sr" : "",
      "guide_image" : "",
      "vfurl" : "",
      "dish_count" : 0,
      "original_photo_path" : "http:\/\/i1.douguo.net\/upload\/caiku\/4\/b\/a\/yuan_4b47e01660a793fccafc1b633693996a.jpg",
      "user" : {
        "sign" : "",
        "lv" : 0,
        "favor_diaries_count" : 0,
        "lvl" : 6,
        "user_id" : "15685181",
        "location" : 0,
        "qzone_nick" : "",
        "userid" : "15685181",
        "setted_email" : 0,
        "pc" : 0,
        "verified_url" : "https:\/\/m.douguo.com\/user\/prodesc",
        "regist_time" : "",
        "favorites_count" : 0,
        "user_photo" : "http:\/\/tx1.douguo.net\/upload\/photo\/4\/c\/3\/70_u49012232531739164740.jpeg",
        "diaries_count" : 0,
        "dishes_count" : 0,
        "birthday" : "",
        "subscription_article_count" : 0,
        "mobile" : "",
        "subscription" : 0,
        "nick" : "文姑娘的小食光",
        "recipes_count" : 0,
        "coursecount" : 0,
        "avatar_medium" : "http:\/\/tx1.douguo.net\/upload\/photo\/4\/c\/3\/140_u49012232531739164740.jpeg",
        "qq_weibo_nick" : "",
        "email" : "",
        "fc" : 0,
        "user_large_photo" : "http:\/\/tx1.douguo.net\/upload\/photo\/4\/c\/3\/yuan_u49012232531739164740.jpeg",
        "weibo_nick" : "",
        "verified_image" : "https:\/\/i1.douguo.com\/upload\/note\/d\/a\/a\/da84247847aebe48d9dd0fcdac88862a.png",
        "is_prime" : 0,
        "verified" : 1,
        "point" : 0,
        "gender" : 2,
        "age" : "",
        "following_count" : 0,
        "user_cover" : "",
        "followers_count" : 0,
        "introduction" : "",
        "progress_image" : ""
      },
      "recommendation_tag" : "",
      "su" : "",
      "major" : [
        {
          "note" : "300g",
          "title" : "后臀尖肉"
        },
        {
          "title" : "青蒜苗",
          "note" : "4根"
        },
        {
          "title" : "郫县豆瓣酱",
          "note" : "25g"
        },
        {
          "title" : "甜面酱",
          "tu" : "https:\/\/m.douguo.com\/ingredients\/甜面酱\/detailmaterial",
          "note" : "10g"
        },
        {
          "tu" : "https:\/\/m.douguo.com\/ingredients\/料酒\/detailmaterial",
          "title" : "料酒",
          "note" : "10g"
        },
        {
          "title" : "花椒粒",
          "note" : "几粒"
        },
        {
          "tu" : "https:\/\/m.douguo.com\/ingredients\/白糖\/detailmaterial",
          "note" : "5g",
          "title" : "白糖"
        },
        {
          "title" : "酱油",
          "note" : "5g",
          "tu" : "https:\/\/m.douguo.com\/ingredients\/酱油\/detailmaterial"
        },
        {
          "tu" : "https:\/\/m.douguo.com\/ingredients\/菜籽油\/detailmaterial",
          "title" : "菜籽油",
          "note" : "少量"
        }
      ],
      "rpid" : 0,
      "hqu" : "recipes:\/\/www.douguo.com\/notedetail?id=21162253",
      "vc" : "313280",
      "packages_id" : [

      ],
      "recipe_list_tags" : [
        {
          "text" : "关注的人",
          "right_image" : "",
          "background_border_color" : "",
          "text_color" : "#141515",
          "jump_url" : "",
          "background_start_color" : "#F4F5F5",
          "background_end_color" : "#F4F5F5"
        }
      ],
      "recipe_tags" : [

      ],
      "tags" : [

      ],
      "rate_show" : 0,
      "ecs" : 0,
      "story_dsp" : [

      ],
      "cookstep" : [
        {
          "image_width" : 3456,
          "position" : 1,
          "image" : "https:\/\/i1.douguo.com\/upload\/caiku\/0\/5\/0\/05be2711764e690198535c08eb1b0ff0.JPG",
          "thumb" : "https:\/\/i1.douguo.com\/upload\/caiku\/0\/5\/0\/140_05be2711764e690198535c08eb1b0ff0.JPG",
          "image_height" : 2304,
          "frame" : "-1",
          "content" : "后臀尖肉洗净放入清水中，大火烧开后改中火煮20分钟"
        },
        {
          "image_width" : 3456,
          "frame" : "-1",
          "thumb" : "https:\/\/i1.douguo.com\/upload\/caiku\/9\/5\/8\/140_9529a6bc8a80a3edf3261cbbe9042378.JPG",
          "image_height" : 2304,
          "image" : "https:\/\/i1.douguo.com\/upload\/caiku\/9\/5\/8\/9529a6bc8a80a3edf3261cbbe9042378.JPG",
          "position" : 2,
          "content" : "水开后撇去浮沫"
        },
        {
          "position" : 3,
          "content" : "倒入料酒",
          "image_height" : 2304,
          "frame" : "-1",
          "image_width" : 3456,
          "thumb" : "https:\/\/i1.douguo.com\/upload\/caiku\/2\/8\/7\/140_2889488f546f8fadb1f7bcc8d7c234d7.JPG",
          "image" : "https:\/\/i1.douguo.com\/upload\/caiku\/2\/8\/7\/2889488f546f8fadb1f7bcc8d7c234d7.JPG"
        },
        {
          "image_width" : 3456,
          "frame" : "-1",
          "content" : "放入花椒去腥",
          "image" : "https:\/\/i1.douguo.com\/upload\/caiku\/a\/d\/2\/ad07ecdb69778441c5d855f3c31d42a2.JPG",
          "image_height" : 2304,
          "thumb" : "https:\/\/i1.douguo.com\/upload\/caiku\/a\/d\/2\/140_ad07ecdb69778441c5d855f3c31d42a2.JPG",
          "position" : 4
        },
        {
          "frame" : "-1",
          "image_height" : 2304,
          "thumb" : "https:\/\/i1.douguo.com\/upload\/caiku\/4\/e\/3\/140_4e803d3cee9c130e5206563315032013.JPG",
          "image" : "https:\/\/i1.douguo.com\/upload\/caiku\/4\/e\/3\/4e803d3cee9c130e5206563315032013.JPG",
          "image_width" : 3456,
          "position" : 5,
          "content" : "肉煮好后捞出冷凉"
        },
        {
          "thumb" : "https:\/\/i1.douguo.com\/upload\/caiku\/8\/a\/4\/140_8ad564916346dbce02cb5293ed388134.JPG",
          "image_height" : 2304,
          "frame" : "-1",
          "image_width" : 3456,
          "position" : 6,
          "content" : "肉到不烫手的程度切成薄片，大概3ml，切的越薄才能炒出漂亮的灯盏窝",
          "image" : "https:\/\/i1.douguo.com\/upload\/caiku\/8\/a\/4\/8ad564916346dbce02cb5293ed388134.JPG"
        },
        {
          "image_width" : 3456,
          "thumb" : "https:\/\/i1.douguo.com\/upload\/caiku\/2\/4\/2\/140_243bf459de011d1099c6dffd22ca6432.JPG",
          "image_height" : 2304,
          "position" : 7,
          "image" : "https:\/\/i1.douguo.com\/upload\/caiku\/2\/4\/2\/243bf459de011d1099c6dffd22ca6432.JPG",
          "content" : "青蒜斜刀切段",
          "frame" : "-1"
        },
        {
          "image_width" : 3456,
          "frame" : "-1",
          "thumb" : "https:\/\/i1.douguo.com\/upload\/caiku\/7\/e\/8\/140_7e6ecc62949c262faaf79b7caac56c58.JPG",
          "content" : "锅中放少量菜籽油，油不要多，因为肥肉还会煸出很多油脂",
          "position" : 8,
          "image_height" : 2304,
          "image" : "https:\/\/i1.douguo.com\/upload\/caiku\/7\/e\/8\/7e6ecc62949c262faaf79b7caac56c58.JPG"
        },
        {
          "thumb" : "https:\/\/i1.douguo.com\/upload\/caiku\/4\/5\/b\/140_4554530aa09cccbb96935713ca01c00b.JPG",
          "content" : "油温大概6成热的时候下入肉片煸炒出油脂",
          "image_width" : 3456,
          "position" : 9,
          "image" : "https:\/\/i1.douguo.com\/upload\/caiku\/4\/5\/b\/4554530aa09cccbb96935713ca01c00b.JPG",
          "image_height" : 2304,
          "frame" : "-1"
        },
        {
          "content" : "下入郫县豆瓣酱翻炒出红油后下入甜面酱翻炒均匀",
          "position" : 10,
          "image_width" : 3456,
          "thumb" : "https:\/\/i1.douguo.com\/upload\/caiku\/1\/9\/7\/140_194f821113b4377f1c3cc8ea0d18ddb7.JPG",
          "frame" : "-1",
          "image_height" : 2304,
          "image" : "https:\/\/i1.douguo.com\/upload\/caiku\/1\/9\/7\/194f821113b4377f1c3cc8ea0d18ddb7.JPG"
        },
        {
          "image_height" : 2304,
          "thumb" : "https:\/\/i1.douguo.com\/upload\/caiku\/0\/8\/6\/140_087f8b13c69fbdcdb56c8b566872d806.JPG",
          "image_width" : 3456,
          "frame" : "-1",
          "content" : "下入青蒜苗，先下葱头再下葱叶",
          "position" : 11,
          "image" : "https:\/\/i1.douguo.com\/upload\/caiku\/0\/8\/6\/087f8b13c69fbdcdb56c8b566872d806.JPG"
        },
        {
          "thumb" : "https:\/\/i1.douguo.com\/upload\/caiku\/0\/3\/b\/140_037a4de8daceaf634067135e9999643b.JPG",
          "content" : "青蒜苗断生后放入白糖和酱油出锅即可",
          "frame" : "-1",
          "image_width" : 3456,
          "image_height" : 2304,
          "position" : 12,
          "image" : "https:\/\/i1.douguo.com\/upload\/caiku\/0\/3\/b\/037a4de8daceaf634067135e9999643b.JPG"
        },
        {
          "image_width" : 3456,
          "image" : "https:\/\/i1.douguo.com\/upload\/caiku\/7\/3\/a\/7333758ac112587c5c8cd8ee02c0959a.JPG",
          "content" : "是不是特别简单也特别有食欲？",
          "thumb" : "https:\/\/i1.douguo.com\/upload\/caiku\/7\/3\/a\/140_7333758ac112587c5c8cd8ee02c0959a.JPG",
          "position" : 13,
          "image_height" : 2304,
          "frame" : "-1"
        },
        {
          "image_width" : 3456,
          "content" : "起锅咯",
          "thumb" : "https:\/\/i1.douguo.com\/upload\/caiku\/2\/b\/c\/140_2bccee42b3137928e4c74bee1ba3b0ec.JPG",
          "position" : 14,
          "frame" : "-1",
          "image" : "https:\/\/i1.douguo.com\/upload\/caiku\/2\/b\/c\/2bccee42b3137928e4c74bee1ba3b0ec.JPG",
          "image_height" : 2304
        },
        {
          "content" : "一碗米饭够不够？",
          "image_width" : 2304,
          "thumb" : "https:\/\/i1.douguo.com\/upload\/caiku\/2\/d\/4\/140_2de30fbacfb74be40b215033a7db6a54.jpg",
          "image" : "https:\/\/i1.douguo.com\/upload\/caiku\/2\/d\/4\/2de30fbacfb74be40b215033a7db6a54.jpg",
          "position" : 15,
          "image_height" : 3456,
          "frame" : "-1"
        }
      ],
      "favo_counts" : 5299,
      "vu" : "",
      "recommended" : 0,
      "pw" : 1181,
      "ipt" : "",
      "comments_count" : 10,
      "cookwares" : [

      ],
      "ipoi" : "",
      "rrps" : [

      ],
      "cook_difficulty_image" : "",
      "cookstory" : "回锅肉是川菜馆里点单率最高的一道菜品之一，咸鲜味美，极其下饭。\n今天用「饭来」智能炒菜机制作的这道菜，按照内置的食谱操作就算是厨房小白也一样可以做出星级厨师的水平。轻轻按一下按钮，按照提示投放材料即可，没有油烟的厨房生活真的是美美哒。",
      "first_level_comment_count" : 5,
      "minor" : [

      ],
      "collect_status" : 0,
      "cook_time_image" : "",
      "recommend_label" : "5299人刚刚收藏过",
      "recent_comments" : [

      ],
      "views_count_text" : "31.3万",
      "comments_count_text" : "10",
      "brand_day_dsp" : [

      ],
      "author" : "文姑娘的小食光",
      "related_ads" : [

      ],
      "ipci" : "",
      "rsm" : "该功能暂停使用",
      "rate" : 0,
      "notes" : [

      ],
      "clicks" : "307292",
      "rcs" : [

      ],
      "mid_mdsp" : [

      ],
      "old_comments" : [

      ],
      "dishes" : [

      ],
      "author_id" : 15685181,
      "thumb_height" : 0,
      "v_u" : "",
      "rips" : 0,
      "author_verified" : 1,
      "comments" : [
        "{\n    ac = \"#999999\";\n    at = \"\";\n    ccc = 2;\n    \"child_comments\" =     (\n                {\n            ac = \"#999999\";\n            at = \"\\U5eca\\U574a\\U5e02\";\n            ccc = 0;\n            city = \"\\U5eca\\U574a\\U5e02\";\n            cmc = 2;\n            content =             (\n                                {\n                    c = \" \\U849c\\U85b9\";\n                }\n            );\n            ia = 1;\n            id = 8587738;\n            \"ip_address_location\" = \"\";\n            like = 0;\n            \"like_count\" = 0;\n            \"reply_id\" = 8543773;\n            \"reply_user\" =             {\n                \"followers_count_text\" = \"\";\n                id = 11974870;\n                \"is_prime\" = 0;\n                lv = 0;\n                lvl = 3;\n                n = \"\\U54fc\\U54fc\\U54c8\\U54c8\\U543c\\U543c\\U563f\\U563f\";\n                p = \"http:\/\/tx1.douguo.net\/upload\/photo\/8\/2\/2\/70_u46813014874600201325.jpeg\";\n                \"progress_image\" = \"\";\n                \"recipes_count_text\" = \"\";\n                relationship = \"-1\";\n                title = \"\";\n                v = 0;\n                \"verified_image\" = \"\";\n            };\n            \"sticker_icon\" =             (\n            );\n            time = \"2021-03-26 20:44:27\";\n            u =             {\n                \"followers_count_text\" = \"\";\n                id = 15685181;\n                \"is_prime\" = 0;\n                lv = 0;\n                lvl = 6;\n                n = \"\\U6587\\U59d1\\U5a18\\U7684\\U5c0f\\U98df\\U5149\";\n                p = \"http:\/\/tx1.douguo.net\/upload\/photo\/4\/c\/3\/70_u49012232531739164740.jpeg\";\n                \"progress_image\" = \"\";\n                \"recipes_count_text\" = \"\";\n                relationship = \"-1\";\n                title = \"\";\n                v = 1;\n                \"verified_image\" = \"\";\n            };\n        },\n                {\n            ac = \"#999999\";\n            at = \"\\U96c5\\U5b89\\U5e02\";\n            ccc = 0;\n            city = \"\\U96c5\\U5b89\\U5e02\";\n            cmc = 2;\n            content =             (\n                                {\n                    c = \" \\U4e8c\\U65a4\\U6761\\U8fa3\\U6912\\U3002\\U571f\\U8c46\\U3002\\U5305\\U83dc\\U90fd\\U53ef\\U4ee5\";\n                }\n            );\n            ia = 0;\n            id = 8590481;\n            \"ip_address_location\" = \"\";\n            like = 0;\n            \"like_count\" = 0;\n            \"reply_id\" = 8543773;\n            \"reply_user\" =             {\n                \"followers_count_text\" = \"\";\n                id = 11974870;\n                \"is_prime\" = 0;\n                lv = 0;\n                lvl = 3;\n                n = \"\\U54fc\\U54fc\\U54c8\\U54c8\\U543c\\U543c\\U563f\\U563f\";\n                p = \"http:\/\/tx1.douguo.net\/upload\/photo\/8\/2\/2\/70_u46813014874600201325.jpeg\";\n                \"progress_image\" = \"\";\n                \"recipes_count_text\" = \"\";\n                relationship = \"-1\";\n                title = \"\";\n                v = 0;\n                \"verified_image\" = \"\";\n            };\n            \"sticker_icon\" =             (\n            );\n            time = \"2021-03-29 14:38:02\";\n            u =             {\n                \"followers_count_text\" = \"\";\n                id = 26264215;\n                \"is_prime\" = 0;\n                lv = 0;\n                lvl = 2;\n                n = \"\\U3164\\U8ff7\\U96fe\";\n                p = \"http:\/\/tx1.douguo.net\/upload\/photo\/1\/1\/1\/70_40b1eb28dcea0dba44876ad767b61a81.png\";\n                \"progress_image\" = \"\";\n                \"recipes_count_text\" = \"\";\n                relationship = \"-1\";\n                title = \"\";\n                v = 0;\n                \"verified_image\" = \"\";\n            };\n        }\n    );\n    city = \"\";\n    cmc = 2;\n    content =     (\n                {\n            c = \"\\U9664\\U4e86\\U9752\\U849c\\U82d7\\U8fd8\\U53ef\\U4ee5\\U653e\\U4ec0\\U4e48\\U914d\\U83dc\";\n        }\n    );\n    ia = 0;\n    id = 8543773;\n    \"ip_address_location\" = \"\";\n    like = 0;\n    \"like_count\" = 0;\n    \"reply_id\" = 0;\n    \"sticker_icon\" =     (\n    );\n    time = \"2021-02-24 17:31:36\";\n    u =     {\n        \"followers_count_text\" = \"\";\n        id = 11974870;\n        \"is_prime\" = 0;\n        lv = 0;\n        lvl = 3;\n        n = \"\\U54fc\\U54fc\\U54c8\\U54c8\\U543c\\U543c\\U563f\\U563f\";\n        p = \"http:\/\/tx1.douguo.net\/upload\/photo\/8\/2\/2\/70_u46813014874600201325.jpeg\";\n        \"progress_image\" = \"\";\n        \"recipes_count_text\" = \"\";\n        relationship = \"-1\";\n        title = \"\";\n        v = 0;\n        \"verified_image\" = \"\";\n    };\n}",
        "{\n    ac = \"#999999\";\n    at = \"\";\n    ccc = 1;\n    \"child_comments\" =     (\n                {\n            ac = \"#999999\";\n            at = \"\\U5eca\\U574a\\U5e02\";\n            ccc = 0;\n            city = \"\\U5eca\\U574a\\U5e02\";\n            cmc = 2;\n            content =             (\n                                {\n                    c = \" \\U53a8\\U623f\\U5c0f\\U767d\\U79d2\\U53d8\\U5927\\U53a8\\U54c8\\U54c8\";\n                }\n            );\n            ia = 1;\n            id = 6413455;\n            \"ip_address_location\" = \"\";\n            like = 0;\n            \"like_count\" = 0;\n            \"reply_id\" = 6412785;\n            \"reply_user\" =             {\n                \"followers_count_text\" = \"\";\n                id = 23318991;\n                \"is_prime\" = 0;\n                lv = 0;\n                lvl = 1;\n                n = \"\\U54c1\\U8bfa\";\n                p = \"\";\n                \"progress_image\" = \"\";\n                \"recipes_count_text\" = \"\";\n                relationship = \"-1\";\n                title = \"\";\n                v = 0;\n                \"verified_image\" = \"\";\n            };\n            \"sticker_icon\" =             (\n            );\n            time = \"2019-02-26 10:43:54\";\n            u =             {\n                \"followers_count_text\" = \"\";\n                id = 15685181;\n                \"is_prime\" = 0;\n                lv = 0;\n                lvl = 6;\n                n = \"\\U6587\\U59d1\\U5a18\\U7684\\U5c0f\\U98df\\U5149\";\n                p = \"http:\/\/tx1.douguo.net\/upload\/photo\/4\/c\/3\/70_u49012232531739164740.jpeg\";\n                \"progress_image\" = \"\";\n                \"recipes_count_text\" = \"\";\n                relationship = \"-1\";\n                title = \"\";\n                v = 1;\n                \"verified_image\" = \"\";\n            };\n        }\n    );\n    city = \"\";\n    cmc = 2;\n    content =     (\n                {\n            c = \"\\U597d\\U5389\\U5bb3\\U5440 \\U53a8\\U827a\\U5c0f\\U767d\\U80fd\\U7528\\U8fd9\\U4e2a\\U673a\\U5668\\U5417\";\n        }\n    );\n    ia = 0;\n    id = 6412785;\n    \"ip_address_location\" = \"\";\n    like = 0;\n    \"like_count\" = 3;\n    \"reply_id\" = 0;\n    \"sticker_icon\" =     (\n    );\n    time = \"2019-02-25 20:51:27\";\n    u =     {\n        \"followers_count_text\" = \"\";\n        id = 23318991;\n        \"is_prime\" = 0;\n        lv = 0;\n        lvl = 1;\n        n = \"\\U54c1\\U8bfa\";\n        p = \"\";\n        \"progress_image\" = \"\";\n        \"recipes_count_text\" = \"\";\n        relationship = \"-1\";\n        title = \"\";\n        v = 0;\n        \"verified_image\" = \"\";\n    };\n}",
        "{\n    ac = \"#999999\";\n    at = \"\\U5317\\U4eac\\U5e02\";\n    ccc = 1;\n    \"child_comments\" =     (\n                {\n            ac = \"#999999\";\n            at = \"\\U5eca\\U574a\\U5e02\";\n            ccc = 0;\n            city = \"\\U5eca\\U574a\\U5e02\";\n            cmc = 2;\n            content =             (\n                                {\n                    c = \" \\U6f0f\\U6389\\U4e86\\Uff0c\\U7b2c\\U5341\\U6b65\\U52a0\\U5165\";\n                }\n            );\n            ia = 1;\n            id = 7870038;\n            \"ip_address_location\" = \"\";\n            like = 0;\n            \"like_count\" = 0;\n            \"reply_id\" = 7866133;\n            \"reply_user\" =             {\n                \"followers_count_text\" = \"\";\n                id = 21035188;\n                \"is_prime\" = 0;\n                lv = 0;\n                lvl = 3;\n                n = \"\\U5927\\U81ed\\U55b5\";\n                p = \"http:\/\/tx1.douguo.net\/upload\/photo\/a\/1\/0\/70_u05532335878780002759.jpg\";\n                \"progress_image\" = \"\";\n                \"recipes_count_text\" = \"\";\n                relationship = \"-1\";\n                title = \"\";\n                v = 0;\n                \"verified_image\" = \"\";\n            };\n            \"sticker_icon\" =             (\n            );\n            time = \"2020-04-11 21:43:40\";\n            u =             {\n                \"followers_count_text\" = \"\";\n                id = 15685181;\n                \"is_prime\" = 0;\n                lv = 0;\n                lvl = 6;\n                n = \"\\U6587\\U59d1\\U5a18\\U7684\\U5c0f\\U98df\\U5149\";\n                p = \"http:\/\/tx1.douguo.net\/upload\/photo\/4\/c\/3\/70_u49012232531739164740.jpeg\";\n                \"progress_image\" = \"\";\n                \"recipes_count_text\" = \"\";\n                relationship = \"-1\";\n                title = \"\";\n                v = 1;\n                \"verified_image\" = \"\";\n            };\n        }\n    );\n    city = \"\\U5317\\U4eac\\U5e02\";\n    cmc = 2;\n    content =     (\n                {\n            c = \"\\U751c\\U9762\\U9171\\U5565\\U65f6\\U5019\\U653e\\Uff1f\";\n        }\n    );\n    ia = 0;\n    id = 7866133;\n    \"ip_address_location\" = \"\";\n    like = 0;\n    \"like_count\" = 0;\n    \"reply_id\" = 0;\n    \"sticker_icon\" =     (\n    );\n    time = \"2020-04-10 01:47:41\";\n    u =     {\n        \"followers_count_text\" = \"\";\n        id = 21035188;\n        \"is_prime\" = 0;\n        lv = 0;\n        lvl = 3;\n        n = \"\\U5927\\U81ed\\U55b5\";\n        p = \"http:\/\/tx1.douguo.net\/upload\/photo\/a\/1\/0\/70_u05532335878780002759.jpg\";\n        \"progress_image\" = \"\";\n        \"recipes_count_text\" = \"\";\n        relationship = \"-1\";\n        title = \"\";\n        v = 0;\n        \"verified_image\" = \"\";\n    };\n}"
      ],
      "rrpt" : "",
      "author_photo" : "http:\/\/tx1.douguo.net\/upload\/photo\/4\/c\/3\/70_u49012232531739164740.jpeg",
      "top_mdsp" : [

      ],
      "rpt" : "",
      "rdsps" : [

      ],
      "cookstorys" : [
        {
          "type" : 0,
          "color" : "",
          "id" : 0,
          "u" : "",
          "icon" : "",
          "c" : "回锅肉是川菜馆里点单率最高的一道菜品之一，咸鲜味美，极其下饭。\n今天用「饭来」智能炒菜机制作的这道菜，按照内置的食谱操作就算是厨房小白也一样可以做出星级厨师的水平。轻轻按一下按钮，按照提示投放材料即可，没有油烟的厨房生活真的是美美哒。"
        }
      ]
    }
  },
  "state" : "success"
}