{
  "state" : "success",
  "result" : {
    "recipe" : {
      "packages_id" : [

      ],
      "ipit" : 0,
      "rate" : 5,
      "rate_show" : 0,
      "rpid" : 0,
      "user" : {
        "dishes_count" : 0,
        "lvl" : 7,
        "verified_url" : "https:\/\/m.douguo.com\/user\/prodesc",
        "location" : 0,
        "progress_image" : "",
        "subscription_article_count" : 0,
        "favor_diaries_count" : 0,
        "userid" : "25744027",
        "lv" : 0,
        "point" : 0,
        "sign" : "",
        "weibo_nick" : "",
        "subscription" : 0,
        "age" : "",
        "coursecount" : 0,
        "user_cover" : "",
        "favorites_count" : 0,
        "regist_time" : "",
        "followers_count" : 0,
        "diaries_count" : 0,
        "recipes_count" : 0,
        "nick" : "不负筱食光",
        "verified_image" : "https:\/\/i1.douguo.com\/upload\/note\/d\/a\/a\/da84247847aebe48d9dd0fcdac88862a.png",
        "qq_weibo_nick" : "",
        "fc" : 0,
        "birthday" : "",
        "mobile" : "",
        "user_photo" : "http:\/\/tx1.douguo.net\/upload\/photo\/9\/1\/c\/70_u95822787339997121734.jpg",
        "qzone_nick" : "",
        "setted_email" : 0,
        "verified" : 1,
        "user_id" : "25744027",
        "gender" : 2,
        "avatar_medium" : "http:\/\/tx1.douguo.net\/upload\/photo\/9\/1\/c\/140_u95822787339997121734.jpg",
        "pc" : 0,
        "email" : "",
        "following_count" : 0,
        "user_large_photo" : "http:\/\/tx1.douguo.net\/upload\/photo\/9\/1\/c\/yuan_u95822787339997121734.jpg",
        "is_prime" : 0,
        "introduction" : ""
      },
      "author_id" : 25744027,
      "su" : "",
      "dishes" : [

      ],
      "advice" : {
        "has" : [
          {
            "t" : "不含饱和脂肪",
            "url" : "recipes:\/\/www.douguo.com\/simplerecipelist?t=不含饱和脂肪&id=不含饱和脂肪"
          },
          {
            "t" : "高盐",
            "url" : "recipes:\/\/www.douguo.com\/simplerecipelist?t=高盐&id=高盐"
          }
        ],
        "da" : {
          "iu" : "https:\/\/i1.douguo.com\/upload\/banner\/f\/4\/d\/f48877e53c37759bc12ac494be82ec8d.png",
          "t" : "查看详细分析",
          "url" : "https:\/\/m.douguo.com\/recipe\/nutrient_self\/3232127"
        },
        "at" : "可以预防血栓形成～"
      },
      "rcs" : [

      ],
      "recommend_label" : "1人学做",
      "bs" : [

      ],
      "btm_dsp" : [

      ],
      "eu" : "recipes:\/\/www.douguo.com\/postdetail?id=242016",
      "recent_comments" : [

      ],
      "brand_day_dsp" : [

      ],
      "ipci" : "",
      "rdsps" : [

      ],
      "cook_id" : "3232127",
      "rpst" : "",
      "recommendation_tag" : "",
      "first_level_comment_count" : 0,
      "ipia" : [

      ],
      "old_comments" : [

      ],
      "original_photo_path" : "http:\/\/i1.douguo.net\/upload\/caiku\/a\/e\/a\/yuan_ae240d6c965c61a02cb14b6b7bd5d79a.jpg",
      "author" : "不负筱食光",
      "thumb_height" : 0,
      "recommended" : 0,
      "notes" : [

      ],
      "cookstory" : "春节是中国最隆重、最热闹的传统节日。春节各地的风俗习惯也是不一样的，而一年一次的年夜饭充分地表现出中华民族家庭成员的互敬互爱，这种互敬互爱使一家人之间的关系更为紧密。\n过年就要吃年夜饭，今天分享一道年夜饭必备的葱爆花蛤肉，简单快手又鲜美。",
      "purl" : "",
      "levelid" : 2,
      "ecs" : 1,
      "author_photo" : "http:\/\/tx1.douguo.net\/upload\/photo\/9\/1\/c\/70_u95822787339997121734.jpg",
      "cookwares" : [

      ],
      "author_verified" : 1,
      "ss" : [

      ],
      "event" : {
        "name" : "名厨妙汁 红火到味 味达美·年味小馆期待您的光临",
        "id" : 3671,
        "url" : "https:\/\/m.douguo.com\/activity\/ncpzj\/detail\/3671?isapp=1&open=0&_vs=1000300&&dg_refreshkey=publishnote"
      },
      "rrps" : [

      ],
      "sr" : "",
      "rsm" : "该功能暂停使用",
      "comments" : [

      ],
      "cook_difficulty" : "切墩(初级)",
      "share_info" : {
        "object_id" : "3232127",
        "infos" : [
          {
            "channel" : "1",
            "s_u" : "",
            "name" : "#味达美年味小馆#葱爆花蛤肉-会做饭很酷!",
            "qr_image" : "",
            "object_id" : "3232127",
            "s_d" : "#学做饭用豆果美食# 会做饭真是太酷了！我在@豆果美食 分享了【#味达美年味小馆#葱爆花蛤肉-会做饭很酷!】，看着是不是馋到不行呢～快来跟我学学吧！查看图片了解菜谱，（想要获取更多美食就看这https:\/\/m.weibo.cn\/p\/100404i33631）",
            "mini_program" : [

            ],
            "image" : "https:\/\/cp1.douguo.com\/upload\/caiku\/a\/e\/a\/ae240d6c965c61a02cb14b6b7bd5d79a.jpg"
          },
          {
            "object_id" : "3232127",
            "image" : "https:\/\/cp1.douguo.com\/upload\/caiku\/a\/e\/a\/ae240d6c965c61a02cb14b6b7bd5d79a.jpg",
            "qr_image" : "",
            "mini_program" : [

            ],
            "s_u" : "http:\/\/m.douguo.com\/cookbook\/3232127.html",
            "channel" : "7",
            "s_d" : "#味达美年味小馆#葱爆花蛤肉-会做饭很酷!",
            "name" : "#味达美年味小馆#葱爆花蛤肉-会做饭很酷!"
          },
          {
            "channel" : "8",
            "qr_image" : "",
            "s_u" : "http:\/\/m.douguo.com\/cookbook\/3232127.html",
            "object_id" : "3232127",
            "s_d" : "#味达美年味小馆#葱爆花蛤肉-会做饭很酷!",
            "mini_program" : [

            ],
            "name" : "#味达美年味小馆#葱爆花蛤肉-会做饭很酷!",
            "image" : "https:\/\/cp1.douguo.com\/upload\/caiku\/a\/e\/a\/ae240d6c965c61a02cb14b6b7bd5d79a.jpg"
          }
        ],
        "name" : "#味达美年味小馆#葱爆花蛤肉-会做饭很酷!",
        "mini_program" : [

        ],
        "s_u" : "http:\/\/m.douguo.com\/cookbook\/3232127.html",
        "image" : "https:\/\/cp1.douguo.com\/upload\/caiku\/a\/e\/a\/ae240d6c965c61a02cb14b6b7bd5d79a.jpg",
        "qr_image" : "",
        "s_d" : "#味达美年味小馆#葱爆花蛤肉-会做饭很酷!"
      },
      "tags" : [

      ],
      "hq" : 1,
      "hqu" : "recipes:\/\/www.douguo.com\/notedetail?id=21162253",
      "rips" : 0,
      "image" : "http:\/\/i1.douguo.net\/upload\/caiku\/a\/e\/a\/300_ae240d6c965c61a02cb14b6b7bd5d79a.jpg",
      "vu" : "",
      "rrpt" : "",
      "cook_time_image" : "https:\/\/i1.douguo.com\/upload\/banner\/1551424358.png",
      "major" : [
        {
          "title" : "花蛤肉",
          "note" : "300g"
        },
        {
          "tu" : "https:\/\/m.douguo.com\/ingredients\/香葱\/detailmaterial",
          "title" : "香葱",
          "note" : "1小把"
        },
        {
          "title" : "味达美味极鲜酱油",
          "note" : "1勺"
        },
        {
          "note" : "1勺",
          "title" : "味达美臻品蚝油"
        },
        {
          "note" : "1勺",
          "title" : "味达美臻品料酒"
        },
        {
          "note" : "4个",
          "tu" : "https:\/\/m.douguo.com\/ingredients\/小米椒\/detailmaterial",
          "title" : "小米椒"
        },
        {
          "note" : "2片",
          "tu" : "https:\/\/m.douguo.com\/ingredients\/姜片\/detailmaterial",
          "title" : "姜片"
        },
        {
          "tu" : "https:\/\/m.douguo.com\/ingredients\/大蒜\/detailmaterial",
          "title" : "大蒜",
          "note" : "4瓣"
        },
        {
          "note" : "1克",
          "title" : "盐",
          "tu" : "https:\/\/m.douguo.com\/ingredients\/盐\/detailmaterial"
        },
        {
          "tu" : "https:\/\/m.douguo.com\/ingredients\/鸡粉\/detailmaterial",
          "title" : "鸡粉",
          "note" : "1勺"
        }
      ],
      "dish_count_text" : "1",
      "mid_mdsp" : [

      ],
      "vc" : "113437",
      "thumb_path" : "https:\/\/i1.douguo.com\/upload\/caiku\/a\/e\/a\/300_ae240d6c965c61a02cb14b6b7bd5d79a.jpg",
      "favo_counts" : 3584,
      "v_u" : "",
      "ssu" : "",
      "guide_image" : "",
      "act_des" : "",
      "tips" : "花蛤肉用的是鲜冻花蛤肉，解冻后就可以烹饪啦！如果小伙伴们用的是花蛤干，可以泡发后烹饪就可以了。",
      "recipe_list_tags" : [
        {
          "jump_url" : "",
          "background_start_color" : "#F4F5F5",
          "text" : "关注的人",
          "background_end_color" : "#F4F5F5",
          "right_image" : "",
          "text_color" : "#141515",
          "background_border_color" : ""
        },
        {
          "background_start_color" : "#F4F5F5",
          "text" : "内容详细",
          "jump_url" : "",
          "text_color" : "#141515",
          "background_border_color" : "",
          "right_image" : "",
          "background_end_color" : "#F4F5F5"
        }
      ],
      "cookstorys" : [
        {
          "type" : 0,
          "icon" : "",
          "c" : "春节是中国最隆重、最热闹的传统节日。春节各地的风俗习惯也是不一样的，而一年一次的年夜饭充分地表现出中华民族家庭成员的互敬互爱，这种互敬互爱使一家人之间的关系更为紧密。\n过年就要吃年夜饭，今天分享一道年夜饭必备的葱爆花蛤肉，简单快手又鲜美。",
          "u" : "",
          "id" : 0,
          "color" : ""
        },
        {
          "icon" : "",
          "c" : "\n参与活动:",
          "id" : 0,
          "u" : "",
          "type" : 0,
          "color" : ""
        },
        {
          "id" : 0,
          "c" : "#名厨妙汁 红火到味 味达美·年味小馆期待您的光临#",
          "type" : 0,
          "icon" : "",
          "u" : "https:\/\/m.douguo.com\/activity\/ncpzj\/detail\/3671?isapp=1&open=0&_vs=1000300&&dg_refreshkey=publishnote"
        }
      ],
      "clicks" : "1",
      "rpt" : "",
      "sc" : 0,
      "collect_status" : 0,
      "top_mdsp" : [

      ],
      "release_time" : "",
      "recipe_tags" : [

      ],
      "cook_difficulty_image" : "https:\/\/i1.douguo.com\/upload\/banner\/1551424390.png",
      "favo_counts_text" : "3584",
      "rate_count" : 1,
      "vfurl" : "",
      "title" : "葱爆花蛤肉",
      "ph" : 959,
      "cookstep" : [
        {
          "thumb" : "https:\/\/i1.douguo.com\/upload\/caiku\/7\/2\/8\/140_721fb4ac81e51df4af0d7659563ead28.jpg",
          "frame" : "-1",
          "content" : "准备好食材。",
          "position" : 1,
          "image_height" : 959,
          "image" : "https:\/\/i1.douguo.com\/upload\/caiku\/7\/2\/8\/721fb4ac81e51df4af0d7659563ead28.jpg",
          "image_width" : 1280
        },
        {
          "image" : "https:\/\/i1.douguo.com\/upload\/caiku\/a\/3\/2\/a39c7746f9e5c0b82d6a7b5236de40f2.jpg",
          "image_height" : 959,
          "content" : "小香葱、小米椒切长段、姜切丝，大蒜切末备用。",
          "frame" : "-1",
          "thumb" : "https:\/\/i1.douguo.com\/upload\/caiku\/a\/3\/2\/140_a39c7746f9e5c0b82d6a7b5236de40f2.jpg",
          "position" : 2,
          "image_width" : 1280
        },
        {
          "content" : "炒锅中倒入适量食用油，油温八成热，加入姜丝、小米椒和蒜末爆香，再放入葱白爆香。",
          "position" : 3,
          "thumb" : "https:\/\/i1.douguo.com\/upload\/caiku\/7\/1\/d\/140_71b966fd91d4ac10d1621ee35c91effd.jpg",
          "image_height" : 1707,
          "image" : "https:\/\/i1.douguo.com\/upload\/caiku\/7\/1\/d\/71b966fd91d4ac10d1621ee35c91effd.jpg",
          "frame" : "-1",
          "image_width" : 1280
        },
        {
          "position" : 4,
          "content" : "倒入花蛤肉，翻炒均匀。",
          "image_height" : 1707,
          "image" : "https:\/\/i1.douguo.com\/upload\/caiku\/2\/7\/3\/276419057d06b5745d32230fa1d43c73.jpg",
          "frame" : "-1",
          "image_width" : 1280,
          "thumb" : "https:\/\/i1.douguo.com\/upload\/caiku\/2\/7\/3\/140_276419057d06b5745d32230fa1d43c73.jpg"
        },
        {
          "image_width" : 1280,
          "image_height" : 1707,
          "content" : "放入味达美臻品料酒去腥提香。味达美臻品料酒——配料只有4种：水、糯米、食用盐、香辛料其他没有。449道质量安全监测工序，3合1去腥提香增鲜。",
          "thumb" : "https:\/\/i1.douguo.com\/upload\/caiku\/e\/4\/b\/140_e415088666d95efe303e9cfb6ff4505b.jpg",
          "image" : "https:\/\/i1.douguo.com\/upload\/caiku\/e\/4\/b\/e415088666d95efe303e9cfb6ff4505b.jpg",
          "frame" : "-1",
          "position" : 5
        },
        {
          "frame" : "-1",
          "content" : "加入味达美味极鲜酱油。味达美味极鲜酱油——氨基酸态氮含量高则营养价值更高，味道更鲜美。含有的氨基酸态氮含量达>1.2克\/100ml，属于特级酱油标准，优于生抽≥1.0克\/100ml的氨基酸态氮含量。选用非转基因脱脂黄豆与优质小麦，以其独特的精酿工法，充分释放出豆麦天然鲜味和醇香。每瓶\/罐酱油产品从选料到出厂都历经130多道工序的严格检测，确保产品更加安全、可靠。",
          "image_width" : 1280,
          "thumb" : "https:\/\/i1.douguo.com\/upload\/caiku\/f\/c\/3\/140_fc64d10bff3a5523fce557bb13cc0953.jpg",
          "position" : 6,
          "image_height" : 1707,
          "image" : "https:\/\/i1.douguo.com\/upload\/caiku\/f\/c\/3\/fc64d10bff3a5523fce557bb13cc0953.jpg"
        },
        {
          "frame" : "-1",
          "image" : "https:\/\/i1.douguo.com\/upload\/caiku\/0\/d\/4\/0da45b5a118468b6eebb3192ba670934.jpg",
          "thumb" : "https:\/\/i1.douguo.com\/upload\/caiku\/0\/d\/4\/140_0da45b5a118468b6eebb3192ba670934.jpg",
          "image_height" : 1707,
          "position" : 7,
          "content" : "放入味达美臻品蚝油。味达美臻品蚝油严选优质生蚝为原料，每510g臻品蚝油所含蚝汁浓缩了约800g生蚝的精华，并与专业星级大厨共同研制开发，料足质好，打造出了味蕾至尊体验。",
          "image_width" : 1280
        },
        {
          "image_width" : 1280,
          "image_height" : 1707,
          "image" : "https:\/\/i1.douguo.com\/upload\/caiku\/d\/1\/3\/d1d0bd652cee8fbb3b6dc50a85185513.jpg",
          "frame" : "-1",
          "content" : "翻炒均匀大火爆炒1分钟左右。",
          "position" : 8,
          "thumb" : "https:\/\/i1.douguo.com\/upload\/caiku\/d\/1\/3\/140_d1d0bd652cee8fbb3b6dc50a85185513.jpg"
        },
        {
          "image" : "https:\/\/i1.douguo.com\/upload\/caiku\/f\/6\/7\/f65557af0efc29ae0a91f1df3d70b387.jpg",
          "frame" : "-1",
          "image_height" : 1707,
          "position" : 9,
          "thumb" : "https:\/\/i1.douguo.com\/upload\/caiku\/f\/6\/7\/140_f65557af0efc29ae0a91f1df3d70b387.jpg",
          "image_width" : 1280,
          "content" : "加入鸡粉和盐。"
        },
        {
          "position" : 10,
          "image_width" : 1280,
          "thumb" : "https:\/\/i1.douguo.com\/upload\/caiku\/4\/a\/2\/140_4a5a87877280e951ca262464a912c682.jpg",
          "image" : "https:\/\/i1.douguo.com\/upload\/caiku\/4\/a\/2\/4a5a87877280e951ca262464a912c682.jpg",
          "content" : "最后放入香葱叶翻炒均匀。",
          "frame" : "-1",
          "image_height" : 1707
        },
        {
          "content" : "简单又味道鲜美的葱爆花蛤肉就做好啦！",
          "thumb" : "https:\/\/i1.douguo.com\/upload\/caiku\/e\/7\/3\/140_e74da8b93f677fbaed74006dea6f1db3.jpg",
          "image_height" : 959,
          "frame" : "-1",
          "position" : 11,
          "image" : "https:\/\/i1.douguo.com\/upload\/caiku\/e\/7\/3\/e74da8b93f677fbaed74006dea6f1db3.jpg",
          "image_width" : 1280
        },
        {
          "thumb" : "https:\/\/i1.douguo.com\/upload\/caiku\/e\/a\/b\/140_ea27ca70d826be1c28201f9202ca2ecb.jpg",
          "content" : "喜欢的宝宝一起吃起来哇⊙∀⊙！",
          "position" : 12,
          "frame" : "-1",
          "image_width" : 1280,
          "image_height" : 959,
          "image" : "https:\/\/i1.douguo.com\/upload\/caiku\/e\/a\/b\/ea27ca70d826be1c28201f9202ca2ecb.jpg"
        }
      ],
      "minor" : [

      ],
      "story_dsp" : [

      ],
      "display_ingredient" : 1,
      "pw" : 1280,
      "rewarded_video_dsp" : [

      ],
      "photo_path" : "https:\/\/i1.douguo.com\/upload\/caiku\/a\/e\/a\/600_ae240d6c965c61a02cb14b6b7bd5d79a.jpg",
      "comments_count" : 0,
      "related_ads" : [

      ],
      "title_ad" : [

      ],
      "ipurl" : "",
      "create_time" : "2023-01-01 22:17:22",
      "cook_time" : "10分钟左右",
      "views_count_text" : "11.3万",
      "ipoi" : "",
      "ipt" : "",
      "comments_count_text" : "",
      "dish_count" : 1
    }
  },
  "status" : 0
}