{
  "state" : "success",
  "result" : {
    "recipe" : {
      "vu" : "",
      "rdsps" : [

      ],
      "display_ingredient" : 1,
      "story_dsp" : [

      ],
      "sr" : "",
      "rate" : 0,
      "notes" : [

      ],
      "create_time" : "2020-06-01 19:17:09",
      "ipt" : "",
      "rpt" : "",
      "first_level_comment_count" : 2,
      "minor" : [

      ],
      "rsm" : "该功能暂停使用",
      "cookwares" : [

      ],
      "cook_time_image" : "https:\/\/i1.douguo.com\/upload\/banner\/1551424358.png",
      "advice" : {
        "da" : {
          "iu" : "https:\/\/i1.douguo.com\/upload\/banner\/f\/4\/d\/f48877e53c37759bc12ac494be82ec8d.png",
          "t" : "查看详细分析",
          "url" : "https:\/\/m.douguo.com\/recipe\/nutrient_self\/2502720"
        },
        "has" : [
          {
            "t" : "低脂",
            "url" : "recipes:\/\/www.douguo.com\/simplerecipelist?t=低脂&id=低脂"
          },
          {
            "url" : "recipes:\/\/www.douguo.com\/simplerecipelist?t=富含维生素C&id=富含维生素C",
            "t" : "富含维生素C"
          }
        ],
        "at" : "健身人群可以吃～"
      },
      "sc" : 0,
      "ipit" : 0,
      "bs" : [

      ],
      "tags" : [

      ],
      "views_count_text" : "12.6万",
      "rewarded_video_dsp" : [

      ],
      "rate_show" : 0,
      "eu" : "recipes:\/\/www.douguo.com\/postdetail?id=242016",
      "rips" : 0,
      "mid_mdsp" : [

      ],
      "ipoi" : "",
      "ssu" : "",
      "brand_day_dsp" : [

      ],
      "recommend_label" : "2792人刚刚收藏过",
      "clicks" : "123066",
      "author_photo" : "http:\/\/tx1.douguo.net\/upload\/photo\/6\/b\/6\/70_6b542b13431fcd7be52adde3f5f5fd16.jpg",
      "author_id" : 16809626,
      "title" : "好看又好吃还养生的儿童节橙子杯",
      "related_ads" : [

      ],
      "rpid" : 0,
      "original_photo_path" : "http:\/\/i1.douguo.net\/upload\/caiku\/5\/2\/c\/yuan_5271cbfc4675524bceccfdda2168e5ac.jpeg",
      "favo_counts_text" : "2792",
      "thumb_height" : 0,
      "comments" : [
        "{\n    ac = \"#999999\";\n    at = \"\";\n    ccc = 1;\n    \"child_comments\" =     (\n                {\n            ac = \"#999999\";\n            at = \"\\U5e7f\\U5dde\\U5e02\";\n            ccc = 0;\n            city = \"\\U5e7f\\U5dde\\U5e02\";\n            cmc = 2;\n            content =             (\n                                {\n                    c = \" \\U54c8\\U54c8\\U54c8\\Ud83d\\Ude0b\";\n                }\n            );\n            ia = 1;\n            id = 8042008;\n            \"ip_address_location\" = \"\";\n            like = 0;\n            \"like_count\" = 0;\n            \"reply_id\" = 8033694;\n            \"reply_user\" =             {\n                \"followers_count_text\" = \"\";\n                id = 23560399;\n                \"is_prime\" = 0;\n                lv = 0;\n                lvl = 4;\n                n = \"\\U5584\\U5f85\\U81ea\\U5df1yhzs\";\n                p = \"http:\/\/tx1.douguo.net\/upload\/photo\/3\/1\/b\/70_u2289519074340329155827.jpg\";\n                \"progress_image\" = \"\";\n                \"recipes_count_text\" = \"\";\n                relationship = \"-1\";\n                title = \"\";\n                v = 0;\n                \"verified_image\" = \"\";\n            };\n            \"sticker_icon\" =             (\n            );\n            time = \"2020-06-05 08:13:15\";\n            u =             {\n                \"followers_count_text\" = \"\";\n                id = 16809626;\n                \"is_prime\" = 0;\n                lv = 0;\n                lvl = 6;\n                n = \"\\U6a59\\U5b50\\U5bb6\\U79c1\\U53a8\";\n                p = \"http:\/\/tx1.douguo.net\/upload\/photo\/6\/b\/6\/70_6b542b13431fcd7be52adde3f5f5fd16.jpg\";\n                \"progress_image\" = \"\";\n                \"recipes_count_text\" = \"\";\n                relationship = \"-1\";\n                title = \"\";\n                v = 0;\n                \"verified_image\" = \"\";\n            };\n        }\n    );\n    city = \"\";\n    cmc = 2;\n    content =     (\n                {\n            c = \"\\U8d76\\U7d27\\U5206\\U4eab\\U5230\\U670b\\U53cb\\U5708\";\n        }\n    );\n    ia = 0;\n    id = 8033694;\n    \"ip_address_location\" = \"\";\n    like = 0;\n    \"like_count\" = 1;\n    \"reply_id\" = 0;\n    \"sticker_icon\" =     (\n    );\n    time = \"2020-06-01 19:33:59\";\n    u =     {\n        \"followers_count_text\" = \"\";\n        id = 23560399;\n        \"is_prime\" = 0;\n        lv = 0;\n        lvl = 4;\n        n = \"\\U5584\\U5f85\\U81ea\\U5df1yhzs\";\n        p = \"http:\/\/tx1.douguo.net\/upload\/photo\/3\/1\/b\/70_u2289519074340329155827.jpg\";\n        \"progress_image\" = \"\";\n        \"recipes_count_text\" = \"\";\n        relationship = \"-1\";\n        title = \"\";\n        v = 0;\n        \"verified_image\" = \"\";\n    };\n}",
        "{\n    ac = \"#999999\";\n    at = \"\";\n    ccc = 1;\n    \"child_comments\" =     (\n                {\n            ac = \"#999999\";\n            at = \"\\U5e7f\\U5dde\\U5e02\";\n            ccc = 0;\n            city = \"\\U5e7f\\U5dde\\U5e02\";\n            cmc = 2;\n            content =             (\n                                {\n                    c = \" \\U597d\\U561e\\Ud83d\\Ude0b\";\n                }\n            );\n            ia = 1;\n            id = 8042007;\n            \"ip_address_location\" = \"\";\n            like = 0;\n            \"like_count\" = 0;\n            \"reply_id\" = 8033881;\n            \"reply_user\" =             {\n                \"followers_count_text\" = \"\";\n                id = 18512924;\n                \"is_prime\" = 0;\n                lv = 0;\n                lvl = 4;\n                n = \"\\U5b64\\U5355\\U7684\\U53e4\\U4f26\\U6728\";\n                p = \"http:\/\/tx1.douguo.net\/upload\/photo\/3\/d\/7\/70_3d7476278dd70b7e77a9c1b8c31a0177.jpg\";\n                \"progress_image\" = \"\";\n                \"recipes_count_text\" = \"\";\n                relationship = \"-1\";\n                title = \"\";\n                v = 0;\n                \"verified_image\" = \"\";\n            };\n            \"sticker_icon\" =             (\n            );\n            time = \"2020-06-05 08:13:09\";\n            u =             {\n                \"followers_count_text\" = \"\";\n                id = 16809626;\n                \"is_prime\" = 0;\n                lv = 0;\n                lvl = 6;\n                n = \"\\U6a59\\U5b50\\U5bb6\\U79c1\\U53a8\";\n                p = \"http:\/\/tx1.douguo.net\/upload\/photo\/6\/b\/6\/70_6b542b13431fcd7be52adde3f5f5fd16.jpg\";\n                \"progress_image\" = \"\";\n                \"recipes_count_text\" = \"\";\n                relationship = \"-1\";\n                title = \"\";\n                v = 0;\n                \"verified_image\" = \"\";\n            };\n        }\n    );\n    city = \"\";\n    cmc = 2;\n    content =     (\n                {\n            c = \"\\U518d\\U591a\\U63a8\\U8350\\U70b9\\U83dc\\U8c31\\U5427\\Uff5e\\U4e0d\\U591f\\U8fc7\\U763e\\Uff5e\";\n        }\n    );\n    ia = 0;\n    id = 8033881;\n    \"ip_address_location\" = \"\";\n    like = 0;\n    \"like_count\" = 0;\n    \"reply_id\" = 0;\n    \"sticker_icon\" =     (\n    );\n    time = \"2020-06-01 20:39:15\";\n    u =     {\n        \"followers_count_text\" = \"\";\n        id = 18512924;\n        \"is_prime\" = 0;\n        lv = 0;\n        lvl = 4;\n        n = \"\\U5b64\\U5355\\U7684\\U53e4\\U4f26\\U6728\";\n        p = \"http:\/\/tx1.douguo.net\/upload\/photo\/3\/d\/7\/70_3d7476278dd70b7e77a9c1b8c31a0177.jpg\";\n        \"progress_image\" = \"\";\n        \"recipes_count_text\" = \"\";\n        relationship = \"-1\";\n        title = \"\";\n        v = 0;\n        \"verified_image\" = \"\";\n    };\n}"
      ],
      "recipe_tags" : [

      ],
      "cook_time" : "10分钟左右",
      "ecs" : 1,
      "hqu" : "recipes:\/\/www.douguo.com\/notedetail?id=21162253",
      "cookstory" : "1.消食，去油腻 \n\n 2.清肠\n促进肠道蠕动，有利于清肠通便，排除体内有害物质 \n\n 3. 增加机体抵抗力，增加毛细血管的弹性",
      "hq" : 1,
      "pw" : 1920,
      "release_time" : "",
      "old_comments" : [

      ],
      "dish_count" : 0,
      "ipurl" : "",
      "ph" : 1440,
      "recipe_list_tags" : [
        {
          "text_color" : "#141515",
          "text" : "关注的人",
          "background_border_color" : "",
          "background_end_color" : "#F4F5F5",
          "jump_url" : "",
          "background_start_color" : "#F4F5F5",
          "right_image" : ""
        },
        {
          "jump_url" : "",
          "background_end_color" : "#F4F5F5",
          "right_image" : "",
          "text_color" : "#141515",
          "background_border_color" : "",
          "text" : "内容详细",
          "background_start_color" : "#F4F5F5"
        }
      ],
      "ipci" : "",
      "photo_path" : "https:\/\/i1.douguo.com\/upload\/caiku\/5\/2\/c\/600_5271cbfc4675524bceccfdda2168e5ac.jpeg",
      "rpst" : "",
      "favo_counts" : 2792,
      "title_ad" : [

      ],
      "cookstorys" : [
        {
          "icon" : "",
          "type" : 0,
          "color" : "",
          "u" : "",
          "id" : 0,
          "c" : "1.消食，去油腻 \n\n 2.清肠\n促进肠道蠕动，有利于清肠通便，排除体内有害物质 \n\n 3. 增加机体抵抗力，增加毛细血管的弹性"
        }
      ],
      "packages_id" : [

      ],
      "cook_difficulty" : "切墩(初级)",
      "levelid" : 2,
      "author_verified" : 0,
      "rcs" : [

      ],
      "tips" : "治疗感冒的偏方，不可代替药物，收藏，必要时不妨一试。",
      "thumb_path" : "https:\/\/i1.douguo.com\/upload\/caiku\/5\/2\/c\/300_5271cbfc4675524bceccfdda2168e5ac.jpeg",
      "recent_comments" : [

      ],
      "ipia" : [

      ],
      "vc" : "126307",
      "rate_count" : 0,
      "user" : {
        "dishes_count" : 0,
        "introduction" : "",
        "favor_diaries_count" : 0,
        "regist_time" : "",
        "verified_url" : "https:\/\/m.douguo.com\/user\/prodesc",
        "user_large_photo" : "http:\/\/tx1.douguo.net\/upload\/photo\/6\/b\/6\/yuan_6b542b13431fcd7be52adde3f5f5fd16.jpg",
        "email" : "",
        "user_photo" : "http:\/\/tx1.douguo.net\/upload\/photo\/6\/b\/6\/70_6b542b13431fcd7be52adde3f5f5fd16.jpg",
        "pc" : 0,
        "lvl" : 6,
        "fc" : 0,
        "sign" : "",
        "verified_image" : "",
        "nick" : "橙子家私厨",
        "age" : "",
        "verified" : 0,
        "user_cover" : "",
        "qq_weibo_nick" : "",
        "userid" : "16809626",
        "followers_count" : 0,
        "weibo_nick" : "",
        "coursecount" : 0,
        "point" : 0,
        "favorites_count" : 0,
        "following_count" : 0,
        "subscription_article_count" : 0,
        "recipes_count" : 0,
        "progress_image" : "",
        "lv" : 0,
        "is_prime" : 0,
        "avatar_medium" : "http:\/\/tx1.douguo.net\/upload\/photo\/6\/b\/6\/140_6b542b13431fcd7be52adde3f5f5fd16.jpg",
        "qzone_nick" : "",
        "gender" : 2,
        "location" : 0,
        "diaries_count" : 0,
        "birthday" : "",
        "mobile" : "",
        "user_id" : "16809626",
        "subscription" : 0,
        "setted_email" : 0
      },
      "event" : {
        "url" : "https:\/\/m.douguo.com\/activity\/cpzj\/detail\/2579?isapp=1&open=0&_vs=1000300",
        "id" : 2579,
        "name" : "我们约饭吧"
      },
      "collect_status" : 0,
      "cook_difficulty_image" : "https:\/\/i1.douguo.com\/upload\/banner\/1551424390.png",
      "dish_count_text" : "",
      "rrps" : [

      ],
      "cook_id" : "2502720",
      "v_u" : "",
      "guide_image" : "",
      "ss" : [

      ],
      "top_mdsp" : [

      ],
      "comments_count_text" : "4",
      "act_des" : "",
      "share_info" : {
        "s_u" : "http:\/\/m.douguo.com\/cookbook\/2502720.html",
        "infos" : [
          {
            "channel" : "1",
            "mini_program" : [

            ],
            "object_id" : "2502720",
            "name" : "#我们约饭吧#好看又好吃还养生的儿童节橙子杯-会做饭很酷!",
            "s_d" : "#学做饭用豆果美食# 会做饭真是好酷啊！我在@豆果美食 分享了【#我们约饭吧#好看又好吃还养生的儿童节橙子杯-会做饭很酷!】，快来康康我这道菜做的怎么样～美味停不下来！查看图片了解菜谱（你喜欢的美食都在这里！https:\/\/m.weibo.cn\/p\/100404i33631）",
            "image" : "https:\/\/cp1.douguo.com\/upload\/caiku\/5\/2\/c\/5271cbfc4675524bceccfdda2168e5ac.jpeg",
            "qr_image" : "",
            "s_u" : ""
          },
          {
            "mini_program" : [

            ],
            "image" : "https:\/\/cp1.douguo.com\/upload\/caiku\/5\/2\/c\/5271cbfc4675524bceccfdda2168e5ac.jpeg",
            "object_id" : "2502720",
            "s_u" : "http:\/\/m.douguo.com\/cookbook\/2502720.html",
            "channel" : "7",
            "s_d" : "#我们约饭吧#好看又好吃还养生的儿童节橙子杯-会做饭很酷!",
            "qr_image" : "",
            "name" : "#我们约饭吧#好看又好吃还养生的儿童节橙子杯-会做饭很酷!"
          },
          {
            "qr_image" : "",
            "s_d" : "#我们约饭吧#好看又好吃还养生的儿童节橙子杯-会做饭很酷!",
            "image" : "https:\/\/cp1.douguo.com\/upload\/caiku\/5\/2\/c\/5271cbfc4675524bceccfdda2168e5ac.jpeg",
            "name" : "#我们约饭吧#好看又好吃还养生的儿童节橙子杯-会做饭很酷!",
            "object_id" : "2502720",
            "mini_program" : [

            ],
            "s_u" : "http:\/\/m.douguo.com\/cookbook\/2502720.html",
            "channel" : "8"
          }
        ],
        "qr_image" : "",
        "s_d" : "#我们约饭吧#好看又好吃还养生的儿童节橙子杯-会做饭很酷!",
        "image" : "https:\/\/cp1.douguo.com\/upload\/caiku\/5\/2\/c\/5271cbfc4675524bceccfdda2168e5ac.jpeg",
        "mini_program" : [

        ],
        "name" : "#我们约饭吧#好看又好吃还养生的儿童节橙子杯-会做饭很酷!",
        "object_id" : "2502720"
      },
      "major" : [
        {
          "tu" : "https:\/\/m.douguo.com\/ingredients\/橙子\/detailmaterial",
          "note" : "1个",
          "title" : "橙子"
        },
        {
          "note" : "少量",
          "title" : "盐",
          "tu" : "https:\/\/m.douguo.com\/ingredients\/盐\/detailmaterial"
        }
      ],
      "dishes" : [

      ],
      "vfurl" : "",
      "rrpt" : "",
      "recommendation_tag" : "",
      "cookstep" : [
        {
          "content" : "橙子一个，切开顶",
          "frame" : "-1",
          "image" : "https:\/\/i1.douguo.com\/upload\/caiku\/e\/9\/f\/e90b5866aeeb46d95a3beadd7c7bc9af.jpeg",
          "thumb" : "https:\/\/i1.douguo.com\/upload\/caiku\/e\/9\/f\/140_e90b5866aeeb46d95a3beadd7c7bc9af.jpeg",
          "position" : 1,
          "image_width" : 1280,
          "image_height" : 960
        },
        {
          "image_height" : 960,
          "image_width" : 1280,
          "thumb" : "https:\/\/i1.douguo.com\/upload\/caiku\/d\/7\/5\/140_d7ed25bd48677808dbc374096cb9dd55.jpeg",
          "content" : "挖出橙子肉",
          "image" : "https:\/\/i1.douguo.com\/upload\/caiku\/d\/7\/5\/d7ed25bd48677808dbc374096cb9dd55.jpeg",
          "position" : 2,
          "frame" : "-1"
        },
        {
          "position" : 3,
          "frame" : "-1",
          "image_height" : 1706,
          "image_width" : 1280,
          "content" : "加少量盐",
          "thumb" : "https:\/\/i1.douguo.com\/upload\/caiku\/9\/1\/4\/140_91d35d49878558a452cba5ddca73bb24.jpeg",
          "image" : "https:\/\/i1.douguo.com\/upload\/caiku\/9\/1\/4\/91d35d49878558a452cba5ddca73bb24.jpeg"
        },
        {
          "image_height" : 960,
          "image" : "https:\/\/i1.douguo.com\/upload\/caiku\/d\/5\/1\/d5d96a2449f80634e4e23be06c4d9871.jpeg",
          "frame" : "-1",
          "thumb" : "https:\/\/i1.douguo.com\/upload\/caiku\/d\/5\/1\/140_d5d96a2449f80634e4e23be06c4d9871.jpeg",
          "image_width" : 1280,
          "content" : "上锅蒸10分钟",
          "position" : 4
        },
        {
          "image_height" : 960,
          "frame" : "-1",
          "thumb" : "https:\/\/i1.douguo.com\/upload\/caiku\/c\/4\/e\/140_c4356b12b2ceb681b99a628d27be2d9e.jpeg",
          "position" : 5,
          "image" : "https:\/\/i1.douguo.com\/upload\/caiku\/c\/4\/e\/c4356b12b2ceb681b99a628d27be2d9e.jpeg",
          "content" : "完成啦",
          "image_width" : 1280
        }
      ],
      "purl" : "",
      "author" : "橙子家私厨",
      "su" : "",
      "comments_count" : 4,
      "btm_dsp" : [

      ],
      "image" : "http:\/\/i1.douguo.net\/upload\/caiku\/5\/2\/c\/300_5271cbfc4675524bceccfdda2168e5ac.jpeg",
      "recommended" : 0
    }
  },
  "status" : 0
}