{
  "result" : {
    "recipe" : {
      "levelid" : 2,
      "cook_id" : "2291140",
      "create_time" : "2019-04-20 22:45:15",
      "ipia" : [

      ],
      "rate" : 0,
      "author_verified" : 1,
      "cook_difficulty_image" : "https:\/\/i1.douguo.com\/upload\/banner\/1551424390.png",
      "favo_counts" : 5636,
      "act_des" : "",
      "top_mdsp" : [

      ],
      "author_id" : 16627624,
      "cook_time_image" : "https:\/\/i1.douguo.com\/upload\/banner\/1551424341.png",
      "photo_path" : "https:\/\/i1.douguo.com\/upload\/caiku\/4\/1\/a\/600_41727abd69d166d03371e326dd72664a.jpg",
      "comments" : [
        "{\n    ac = \"#999999\";\n    at = \"\";\n    ccc = 1;\n    \"child_comments\" =     (\n                {\n            ac = \"#999999\";\n            at = \"\\U4e0a\\U6d77\\U5e02\";\n            ccc = 0;\n            city = \"\\U4e0a\\U6d77\\U5e02\";\n            cmc = 2;\n            content =             (\n                                {\n                    c = \" \\Uff1f\\U4ec0\\U4e48\";\n                }\n            );\n            ia = 1;\n            id = 6544769;\n            \"ip_address_location\" = \"\";\n            like = 0;\n            \"like_count\" = 0;\n            \"reply_id\" = 6542761;\n            \"reply_user\" =             {\n                \"followers_count_text\" = \"\";\n                id = 23545503;\n                \"is_prime\" = 0;\n                lv = 0;\n                lvl = 3;\n                n = \"\\U517b\\U5fc3luqg\";\n                p = \"http:\/\/tx1.douguo.net\/upload\/photo\/5\/3\/1\/70_u80678515420329134503.jpg\";\n                \"progress_image\" = \"\";\n                \"recipes_count_text\" = \"\";\n                relationship = \"-1\";\n                title = \"\";\n                v = 0;\n                \"verified_image\" = \"\";\n            };\n            \"sticker_icon\" =             (\n            );\n            time = \"2019-04-24 08:36:52\";\n            u =             {\n                \"followers_count_text\" = \"\";\n                id = 16627624;\n                \"is_prime\" = 0;\n                lv = 0;\n                lvl = 8;\n                n = \"\\U67ad\\U7b11\";\n                p = \"http:\/\/tx1.douguo.net\/upload\/photo\/2\/1\/4\/70_u55968356313010234901.jpg\";\n                \"progress_image\" = \"\";\n                \"recipes_count_text\" = \"\";\n                relationship = \"-1\";\n                title = \"\";\n                v = 1;\n                \"verified_image\" = \"\";\n            };\n        }\n    );\n    city = \"\";\n    cmc = 2;\n    content =     (\n                {\n            c = \"\\U4e3a\\U4ec0\\U4e48\\U4f1a\\U56de\\U7f29\\Uff1f\\Uff1f\";\n        }\n    );\n    ia = 0;\n    id = 6542761;\n    \"ip_address_location\" = \"\";\n    like = 0;\n    \"like_count\" = 1;\n    \"reply_id\" = 0;\n    \"sticker_icon\" =     (\n    );\n    time = \"2019-04-23 14:17:46\";\n    u =     {\n        \"followers_count_text\" = \"\";\n        id = 23545503;\n        \"is_prime\" = 0;\n        lv = 0;\n        lvl = 3;\n        n = \"\\U517b\\U5fc3luqg\";\n        p = \"http:\/\/tx1.douguo.net\/upload\/photo\/5\/3\/1\/70_u80678515420329134503.jpg\";\n        \"progress_image\" = \"\";\n        \"recipes_count_text\" = \"\";\n        relationship = \"-1\";\n        title = \"\";\n        v = 0;\n        \"verified_image\" = \"\";\n    };\n}",
        "{\n    ac = \"#999999\";\n    at = \"\\U5409\\U6797\\U5e02\";\n    ccc = 0;\n    \"child_comments\" =     (\n    );\n    city = \"\\U5409\\U6797\\U5e02\";\n    cmc = 2;\n    content =     (\n                {\n            c = \"\\U53ef\\U4ee5\\U5403\\U4e0a\\U4e00\\U76d8\";\n        }\n    );\n    ia = 0;\n    id = 6531526;\n    \"ip_address_location\" = \"\";\n    like = 0;\n    \"like_count\" = 0;\n    \"reply_id\" = 0;\n    \"sticker_icon\" =     (\n    );\n    time = \"2019-04-21 08:14:36\";\n    u =     {\n        \"followers_count_text\" = \"\";\n        id = 23155219;\n        \"is_prime\" = 0;\n        lv = 0;\n        lvl = 4;\n        n = douraimi;\n        p = \"http:\/\/tx1.douguo.net\/upload\/photo\/d\/6\/4\/70_u47603349832566001330.jpeg\";\n        \"progress_image\" = \"\";\n        \"recipes_count_text\" = \"\";\n        relationship = \"-1\";\n        title = \"\";\n        v = 0;\n        \"verified_image\" = \"\";\n    };\n}"
      ],
      "rips" : 0,
      "advice" : {
        "has" : [
          {
            "t" : "高脂肪",
            "url" : "recipes:\/\/www.douguo.com\/simplerecipelist?t=高脂肪&id=高脂肪"
          },
          {
            "t" : "低糖",
            "url" : "recipes:\/\/www.douguo.com\/simplerecipelist?t=低糖&id=低糖"
          }
        ],
        "da" : {
          "t" : "查看详细分析",
          "url" : "https:\/\/m.douguo.com\/recipe\/nutrient_self\/2291140",
          "iu" : "https:\/\/i1.douguo.com\/upload\/banner\/f\/4\/d\/f48877e53c37759bc12ac494be82ec8d.png"
        },
        "at" : "不控制会变胖啊！！～"
      },
      "views_count_text" : "22.1万",
      "brand_day_dsp" : [

      ],
      "ipurl" : "",
      "dish_count" : 0,
      "rrpt" : "",
      "share_info" : {
        "mini_program" : [

        ],
        "s_u" : "http:\/\/m.douguo.com\/cookbook\/2291140.html",
        "name" : "#精品菜谱挑战赛#肉糜酿鹌鹑蛋-会做饭很酷!",
        "object_id" : "2291140",
        "image" : "https:\/\/cp1.douguo.com\/upload\/caiku\/4\/1\/a\/41727abd69d166d03371e326dd72664a.jpg",
        "s_d" : "#精品菜谱挑战赛#肉糜酿鹌鹑蛋-会做饭很酷!",
        "infos" : [
          {
            "s_d" : "#学做饭用豆果美食# 我在@豆果美食 分享了【#精品菜谱挑战赛#肉糜酿鹌鹑蛋-会做饭很酷!】，帅哥美眉们～你们喜欢的美食来咯！快来跟我一起做吧～查看图片了解菜谱（想要获取更多美食就看这https:\/\/m.weibo.cn\/p\/100404i33631）#会做饭很酷#",
            "mini_program" : [

            ],
            "image" : "https:\/\/cp1.douguo.com\/upload\/caiku\/4\/1\/a\/41727abd69d166d03371e326dd72664a.jpg",
            "s_u" : "",
            "object_id" : "2291140",
            "channel" : "1",
            "qr_image" : "",
            "name" : "#精品菜谱挑战赛#肉糜酿鹌鹑蛋-会做饭很酷!"
          },
          {
            "object_id" : "2291140",
            "qr_image" : "",
            "mini_program" : [

            ],
            "s_d" : "#精品菜谱挑战赛#肉糜酿鹌鹑蛋-会做饭很酷!",
            "channel" : "7",
            "s_u" : "http:\/\/m.douguo.com\/cookbook\/2291140.html",
            "name" : "#精品菜谱挑战赛#肉糜酿鹌鹑蛋-会做饭很酷!",
            "image" : "https:\/\/cp1.douguo.com\/upload\/caiku\/4\/1\/a\/41727abd69d166d03371e326dd72664a.jpg"
          },
          {
            "image" : "https:\/\/cp1.douguo.com\/upload\/caiku\/4\/1\/a\/41727abd69d166d03371e326dd72664a.jpg",
            "mini_program" : [

            ],
            "qr_image" : "",
            "name" : "#精品菜谱挑战赛#肉糜酿鹌鹑蛋-会做饭很酷!",
            "s_d" : "#精品菜谱挑战赛#肉糜酿鹌鹑蛋-会做饭很酷!",
            "object_id" : "2291140",
            "channel" : "8",
            "s_u" : "http:\/\/m.douguo.com\/cookbook\/2291140.html"
          }
        ],
        "qr_image" : ""
      },
      "purl" : "",
      "ss" : [

      ],
      "rate_count" : 0,
      "cook_difficulty" : "切墩(初级)",
      "notes" : [

      ],
      "hqu" : "recipes:\/\/www.douguo.com\/notedetail?id=21162253",
      "ecs" : 0,
      "ph" : 600,
      "recipe_tags" : [

      ],
      "collect_status" : 0,
      "event" : {
        "id" : 0
      },
      "original_photo_path" : "http:\/\/i1.douguo.net\/upload\/caiku\/4\/1\/a\/yuan_41727abd69d166d03371e326dd72664a.jpg",
      "author" : "枭笑",
      "vc" : "221456",
      "bs" : [

      ],
      "rate_show" : 0,
      "thumb_height" : 0,
      "tips" : "肉糜最好腌制30分钟以上。 蒸肉糜的时间也要根据肉糜的量来增减。",
      "rdsps" : [

      ],
      "thumb_path" : "https:\/\/i1.douguo.com\/upload\/caiku\/4\/1\/a\/300_41727abd69d166d03371e326dd72664a.jpg",
      "title_ad" : [

      ],
      "dish_count_text" : "",
      "ipt" : "",
      "related_ads" : [

      ],
      "recommendation_tag" : "",
      "ipoi" : "",
      "cookwares" : [

      ],
      "dishes" : [

      ],
      "comments_count" : 3,
      "v_u" : "",
      "recommend_label" : "5636人刚刚收藏过",
      "mid_mdsp" : [

      ],
      "eu" : "recipes:\/\/www.douguo.com\/postdetail?id=242016",
      "rewarded_video_dsp" : [

      ],
      "hq" : 1,
      "sc" : 0,
      "rsm" : "该功能暂停使用",
      "rpt" : "",
      "recent_comments" : [

      ],
      "favo_counts_text" : "5636",
      "author_photo" : "http:\/\/tx1.douguo.net\/upload\/photo\/2\/1\/4\/70_u55968356313010234901.jpg",
      "rcs" : [

      ],
      "first_level_comment_count" : 2,
      "ssu" : "",
      "tags" : [

      ],
      "ipci" : "",
      "rpst" : "",
      "btm_dsp" : [

      ],
      "comments_count_text" : "3",
      "major" : [
        {
          "note" : "180g",
          "tu" : "https:\/\/m.douguo.com\/ingredients\/肉馅\/detailmaterial",
          "title" : "肉馅"
        },
        {
          "title" : "鹌鹑蛋",
          "tu" : "https:\/\/m.douguo.com\/ingredients\/鹌鹑蛋\/detailmaterial",
          "note" : "7个"
        },
        {
          "title" : "生抽",
          "note" : "1勺",
          "tu" : "https:\/\/m.douguo.com\/ingredients\/生抽\/detailmaterial"
        },
        {
          "title" : "料酒",
          "note" : "1勺",
          "tu" : "https:\/\/m.douguo.com\/ingredients\/料酒\/detailmaterial"
        },
        {
          "title" : "白胡椒粉",
          "note" : "少许"
        },
        {
          "tu" : "https:\/\/m.douguo.com\/ingredients\/盐\/detailmaterial",
          "title" : "盐",
          "note" : "依个人口味"
        },
        {
          "title" : "胡萝卜丁",
          "note" : "7粒"
        },
        {
          "title" : "豌豆",
          "note" : "7粒",
          "tu" : "https:\/\/m.douguo.com\/ingredients\/豌豆\/detailmaterial"
        },
        {
          "note" : "1勺",
          "title" : "水淀粉"
        },
        {
          "tu" : "https:\/\/m.douguo.com\/ingredients\/葱姜蒜\/detailmaterial",
          "note" : "适量",
          "title" : "葱姜蒜"
        }
      ],
      "recipe_list_tags" : [
        {
          "text" : "关注的人",
          "background_border_color" : "",
          "text_color" : "#141515",
          "background_end_color" : "#F4F5F5",
          "right_image" : "",
          "jump_url" : "",
          "background_start_color" : "#F4F5F5"
        },
        {
          "text_color" : "#141515",
          "background_end_color" : "#F4F5F5",
          "background_border_color" : "",
          "background_start_color" : "#F4F5F5",
          "jump_url" : "",
          "text" : "内容详细",
          "right_image" : ""
        }
      ],
      "cookstep" : [
        {
          "image" : "https:\/\/i1.douguo.com\/upload\/caiku\/7\/9\/9\/79d9bc5a19e5c3e093907879c3afe309.jpg",
          "frame" : "-1",
          "image_height" : 600,
          "position" : 1,
          "content" : "里脊肉洗干净，放入料理机中搅成肉糜。加入切碎的葱姜蒜。",
          "image_width" : 800,
          "thumb" : "https:\/\/i1.douguo.com\/upload\/caiku\/7\/9\/9\/140_79d9bc5a19e5c3e093907879c3afe309.jpg"
        },
        {
          "content" : "再加入食用盐。（量根据个人口味放）",
          "thumb" : "https:\/\/i1.douguo.com\/upload\/caiku\/4\/c\/6\/140_4cb245709faeee9fee004709c5d32786.jpg",
          "image_height" : 600,
          "position" : 2,
          "image" : "https:\/\/i1.douguo.com\/upload\/caiku\/4\/c\/6\/4cb245709faeee9fee004709c5d32786.jpg",
          "frame" : "-1",
          "image_width" : 800
        },
        {
          "position" : 3,
          "thumb" : "https:\/\/i1.douguo.com\/upload\/caiku\/5\/1\/9\/140_5120f4f4e292861c15df32d524332c59.jpg",
          "content" : "加入十三香。",
          "image" : "https:\/\/i1.douguo.com\/upload\/caiku\/5\/1\/9\/5120f4f4e292861c15df32d524332c59.jpg",
          "image_height" : 600,
          "image_width" : 800,
          "frame" : "-1"
        },
        {
          "frame" : "-1",
          "content" : "再加入生抽。",
          "image" : "https:\/\/i1.douguo.com\/upload\/caiku\/6\/5\/9\/656fb4d3ea8cc8f98c863e6a798d9679.jpg",
          "image_width" : 800,
          "image_height" : 600,
          "position" : 4,
          "thumb" : "https:\/\/i1.douguo.com\/upload\/caiku\/6\/5\/9\/140_656fb4d3ea8cc8f98c863e6a798d9679.jpg"
        },
        {
          "content" : "加入料酒（白酒也可以）主要去肉腥！",
          "image_height" : 600,
          "image_width" : 800,
          "position" : 5,
          "image" : "https:\/\/i1.douguo.com\/upload\/caiku\/d\/e\/8\/de1d06767bdb0865073fb84ddf59d798.jpg",
          "frame" : "-1",
          "thumb" : "https:\/\/i1.douguo.com\/upload\/caiku\/d\/e\/8\/140_de1d06767bdb0865073fb84ddf59d798.jpg"
        },
        {
          "image_width" : 800,
          "content" : "搅拌均匀，腌制30分钟。",
          "image_height" : 600,
          "image" : "https:\/\/i1.douguo.com\/upload\/caiku\/a\/4\/a\/a41c8ed25b2e94fc11c595d8d611764a.jpg",
          "thumb" : "https:\/\/i1.douguo.com\/upload\/caiku\/a\/4\/a\/140_a41c8ed25b2e94fc11c595d8d611764a.jpg",
          "position" : 6,
          "frame" : "-1"
        },
        {
          "content" : "准备好鹌鹑蛋。",
          "image" : "https:\/\/i1.douguo.com\/upload\/caiku\/7\/b\/9\/7b3f76199dfe13dd5450752c83ed55f9.jpg",
          "image_height" : 600,
          "position" : 7,
          "image_width" : 800,
          "thumb" : "https:\/\/i1.douguo.com\/upload\/caiku\/7\/b\/9\/140_7b3f76199dfe13dd5450752c83ed55f9.jpg",
          "frame" : "-1"
        },
        {
          "image_height" : 600,
          "frame" : "-1",
          "content" : "将腌制好呢肉糜搓成肉丸，放入盘中。",
          "position" : 8,
          "image" : "https:\/\/i1.douguo.com\/upload\/caiku\/3\/4\/5\/34f74f2a92575d9974166e2c5ed84345.jpg",
          "image_width" : 800,
          "thumb" : "https:\/\/i1.douguo.com\/upload\/caiku\/3\/4\/5\/140_34f74f2a92575d9974166e2c5ed84345.jpg"
        },
        {
          "position" : 9,
          "content" : "再用手指扎出洞洞眼，如图。",
          "image_height" : 600,
          "frame" : "-1",
          "thumb" : "https:\/\/i1.douguo.com\/upload\/caiku\/1\/a\/8\/140_1a0a50f03a64f5b43e74983084291698.jpg",
          "image_width" : 800,
          "image" : "https:\/\/i1.douguo.com\/upload\/caiku\/1\/a\/8\/1a0a50f03a64f5b43e74983084291698.jpg"
        },
        {
          "position" : 10,
          "image_width" : 1280,
          "thumb" : "https:\/\/i1.douguo.com\/upload\/caiku\/9\/9\/6\/140_99bf9a84840802986ff112e8df28d466.jpg",
          "content" : "再把鹌鹑蛋打入洞洞眼中。",
          "frame" : "-1",
          "image" : "https:\/\/i1.douguo.com\/upload\/caiku\/9\/9\/6\/99bf9a84840802986ff112e8df28d466.jpg",
          "image_height" : 960
        },
        {
          "thumb" : "https:\/\/i1.douguo.com\/upload\/caiku\/8\/e\/f\/140_8e36a26e31baae46a1abb5f51877b2af.jpg",
          "frame" : "-1",
          "content" : "再放入胡萝卜丁，豌豆。",
          "image_height" : 600,
          "position" : 11,
          "image_width" : 800,
          "image" : "https:\/\/i1.douguo.com\/upload\/caiku\/8\/e\/f\/8e36a26e31baae46a1abb5f51877b2af.jpg"
        },
        {
          "image_width" : 800,
          "position" : 12,
          "image_height" : 600,
          "image" : "https:\/\/i1.douguo.com\/upload\/caiku\/2\/9\/3\/294a407265791e39c8252c43ebc57993.jpg",
          "thumb" : "https:\/\/i1.douguo.com\/upload\/caiku\/2\/9\/3\/140_294a407265791e39c8252c43ebc57993.jpg",
          "frame" : "-1",
          "content" : "放入蒸锅中，隔水蒸，大火烧开后转小火12分钟即可。"
        },
        {
          "image_width" : 800,
          "image_height" : 600,
          "thumb" : "https:\/\/i1.douguo.com\/upload\/caiku\/f\/1\/a\/140_f1f0c2c0be5ef3bf35af59258437f4ba.jpg",
          "image" : "https:\/\/i1.douguo.com\/upload\/caiku\/f\/1\/a\/f1f0c2c0be5ef3bf35af59258437f4ba.jpg",
          "frame" : "-1",
          "position" : 13,
          "content" : "蒸好后悔会有很多汤汁。"
        },
        {
          "position" : 14,
          "image" : "https:\/\/i1.douguo.com\/upload\/caiku\/5\/6\/8\/561da7064d82e4a9b2b40ce0af782d28.jpg",
          "frame" : "-1",
          "content" : "把汤汁倒入锅中，滴几滴生抽，之后用淀粉勾芡，浓稠后关火。",
          "image_height" : 600,
          "image_width" : 800,
          "thumb" : "https:\/\/i1.douguo.com\/upload\/caiku\/5\/6\/8\/140_561da7064d82e4a9b2b40ce0af782d28.jpg"
        },
        {
          "position" : 15,
          "thumb" : "https:\/\/i1.douguo.com\/upload\/caiku\/f\/1\/f\/140_f17930fa04836dfab7d8cde0e686523f.jpg",
          "content" : "淋在肉糜鹌鹑蛋上即可，简单美味。",
          "frame" : "-1",
          "image" : "https:\/\/i1.douguo.com\/upload\/caiku\/f\/1\/f\/f17930fa04836dfab7d8cde0e686523f.jpg",
          "image_height" : 810,
          "image_width" : 1080
        },
        {
          "thumb" : "https:\/\/i1.douguo.com\/upload\/caiku\/c\/d\/7\/140_cded6db5c3120ae911dceeabba5159a7.jpg",
          "content" : "宝宝辅食，儿子特别喜欢，一口气吃了4个。",
          "image" : "https:\/\/i1.douguo.com\/upload\/caiku\/c\/d\/7\/cded6db5c3120ae911dceeabba5159a7.jpg",
          "image_height" : 600,
          "frame" : "-1",
          "position" : 16,
          "image_width" : 800
        }
      ],
      "vfurl" : "",
      "cook_time" : "10~30分钟",
      "rpid" : 0,
      "packages_id" : [

      ],
      "vu" : "",
      "pw" : 800,
      "title" : "肉糜酿鹌鹑蛋",
      "rrps" : [

      ],
      "su" : "",
      "old_comments" : [

      ],
      "image" : "http:\/\/i1.douguo.net\/upload\/caiku\/4\/1\/a\/300_41727abd69d166d03371e326dd72664a.jpg",
      "release_time" : "",
      "minor" : [

      ],
      "guide_image" : "",
      "story_dsp" : [

      ],
      "cookstory" : "简约而不简单，特别好吃呦～",
      "display_ingredient" : 1,
      "ipit" : 0,
      "cookstorys" : [
        {
          "id" : 0,
          "c" : "简约而不简单，特别好吃呦～",
          "type" : 0,
          "icon" : "",
          "u" : "",
          "color" : ""
        }
      ],
      "sr" : "",
      "recommended" : 0,
      "user" : {
        "qzone_nick" : "",
        "location" : 0,
        "userid" : "16627624",
        "avatar_medium" : "http:\/\/tx1.douguo.net\/upload\/photo\/2\/1\/4\/140_u55968356313010234901.jpg",
        "following_count" : 0,
        "followers_count" : 0,
        "regist_time" : "",
        "subscription_article_count" : 0,
        "lv" : 0,
        "pc" : 0,
        "recipes_count" : 0,
        "mobile" : "",
        "dishes_count" : 0,
        "diaries_count" : 0,
        "gender" : 2,
        "introduction" : "",
        "weibo_nick" : "",
        "setted_email" : 0,
        "subscription" : 0,
        "nick" : "枭笑",
        "favorites_count" : 0,
        "is_prime" : 0,
        "point" : 0,
        "user_id" : "16627624",
        "verified" : 1,
        "email" : "",
        "user_cover" : "",
        "lvl" : 8,
        "progress_image" : "",
        "verified_url" : "https:\/\/m.douguo.com\/user\/prodesc",
        "favor_diaries_count" : 0,
        "sign" : "",
        "user_large_photo" : "http:\/\/tx1.douguo.net\/upload\/photo\/2\/1\/4\/yuan_u55968356313010234901.jpg",
        "birthday" : "",
        "qq_weibo_nick" : "",
        "user_photo" : "http:\/\/tx1.douguo.net\/upload\/photo\/2\/1\/4\/70_u55968356313010234901.jpg",
        "fc" : 0,
        "age" : "",
        "coursecount" : 0,
        "verified_image" : "https:\/\/i1.douguo.com\/upload\/note\/d\/a\/a\/da84247847aebe48d9dd0fcdac88862a.png"
      },
      "clicks" : "204246"
    }
  },
  "state" : "success",
  "status" : 0
}