{
  "status" : 0,
  "state" : "success",
  "result" : {
    "recipe" : {
      "thumb_height" : 0,
      "ipia" : [

      ],
      "cook_time_image" : "",
      "rpt" : "",
      "cook_difficulty_image" : "",
      "tips" : "",
      "cookstep" : [
        {
          "thumb" : "https:\/\/i1.douguo.com\/upload\/caiku\/a\/2\/6\/140_a27175977bf62f1adfda0fa9c00d6dc6.jpg",
          "image" : "https:\/\/i1.douguo.com\/upload\/caiku\/a\/2\/6\/a27175977bf62f1adfda0fa9c00d6dc6.jpg",
          "frame" : "-1",
          "position" : 1,
          "image_width" : 800,
          "content" : "材料准备，猪心切片，蒜苗切段，小米椒切碎，姜蒜拍扁切碎",
          "image_height" : 450
        },
        {
          "image" : "https:\/\/i1.douguo.com\/upload\/caiku\/c\/8\/b\/c8fd0d3c1b4fa0ac355fe50e139721eb.jpg",
          "image_width" : 720,
          "image_height" : 1280,
          "position" : 2,
          "content" : "热锅下油，将姜蒜小米椒炒香",
          "thumb" : "https:\/\/i1.douguo.com\/upload\/caiku\/c\/8\/b\/140_c8fd0d3c1b4fa0ac355fe50e139721eb.jpg",
          "frame" : "-1"
        },
        {
          "image" : "https:\/\/i1.douguo.com\/upload\/caiku\/a\/c\/1\/ac9d6fd8857f0d2665d92bbbd7e69111.jpg",
          "image_width" : 720,
          "frame" : "-1",
          "thumb" : "https:\/\/i1.douguo.com\/upload\/caiku\/a\/c\/1\/140_ac9d6fd8857f0d2665d92bbbd7e69111.jpg",
          "content" : "倒下猪心，炒",
          "position" : 3,
          "image_height" : 1280
        },
        {
          "thumb" : "https:\/\/i1.douguo.com\/upload\/caiku\/8\/6\/6\/140_8624b2b1ec6b8fc0644ba7f97751ea76.jpg",
          "image" : "https:\/\/i1.douguo.com\/upload\/caiku\/8\/6\/6\/8624b2b1ec6b8fc0644ba7f97751ea76.jpg",
          "position" : 4,
          "frame" : "-1",
          "image_height" : 1112,
          "content" : "猪心五分熟，倒入蒜苗，加一小勺盐翻炒，炒至四五分钟，蒜苗变熟即可",
          "image_width" : 800
        },
        {
          "position" : 5,
          "content" : "装盘准备开吃啦",
          "frame" : "-1",
          "image_height" : 450,
          "image_width" : 800,
          "thumb" : "https:\/\/i1.douguo.com\/upload\/caiku\/9\/0\/0\/140_903d6ec6a80f3a77b3a6809b66b05770.jpg",
          "image" : "https:\/\/i1.douguo.com\/upload\/caiku\/9\/0\/0\/903d6ec6a80f3a77b3a6809b66b05770.jpg"
        }
      ],
      "tags" : [

      ],
      "recommended" : 0,
      "recent_comments" : [

      ],
      "author_photo" : "http:\/\/tx1.douguo.net\/upload\/photo\/6\/5\/7\/70_u70112279742009232037.jpg",
      "cookwares" : [

      ],
      "recipe_tags" : [

      ],
      "cook_id" : "1536707",
      "hqu" : "recipes:\/\/www.douguo.com\/notedetail?id=21162253",
      "bs" : [

      ],
      "views_count_text" : "25.8万",
      "ipci" : "",
      "share_info" : {
        "mini_program" : [

        ],
        "s_d" : "猪心炒蒜苗-会做饭很酷!",
        "infos" : [
          {
            "object_id" : "1536707",
            "s_d" : "#学做饭用豆果美食# 我在@豆果美食 分享了【猪心炒蒜苗-会做饭很酷!】，哟，集美们～你看这是神仙美味～快跟着我做一份，做一份！查看图片了解菜谱（更多美食秘籍点击https:\/\/m.weibo.cn\/p\/100404i33631获取）#会做饭很酷# ",
            "image" : "https:\/\/cp1.douguo.com\/upload\/caiku\/2\/0\/5\/208781c348345e844a92e91cf6873f15.jpg",
            "qr_image" : "",
            "mini_program" : [

            ],
            "name" : "猪心炒蒜苗-会做饭很酷!",
            "s_u" : "",
            "channel" : "1"
          },
          {
            "name" : "猪心炒蒜苗-会做饭很酷!",
            "s_d" : "猪心炒蒜苗-会做饭很酷!",
            "channel" : "7",
            "mini_program" : [

            ],
            "image" : "https:\/\/cp1.douguo.com\/upload\/caiku\/2\/0\/5\/208781c348345e844a92e91cf6873f15.jpg",
            "qr_image" : "",
            "object_id" : "1536707",
            "s_u" : "http:\/\/m.douguo.com\/cookbook\/1536707.html"
          },
          {
            "channel" : "8",
            "mini_program" : [

            ],
            "s_d" : "猪心炒蒜苗-会做饭很酷!",
            "qr_image" : "",
            "object_id" : "1536707",
            "name" : "猪心炒蒜苗-会做饭很酷!",
            "s_u" : "http:\/\/m.douguo.com\/cookbook\/1536707.html",
            "image" : "https:\/\/cp1.douguo.com\/upload\/caiku\/2\/0\/5\/208781c348345e844a92e91cf6873f15.jpg"
          }
        ],
        "object_id" : "1536707",
        "qr_image" : "",
        "image" : "https:\/\/cp1.douguo.com\/upload\/caiku\/2\/0\/5\/208781c348345e844a92e91cf6873f15.jpg",
        "name" : "猪心炒蒜苗-会做饭很酷!",
        "s_u" : "http:\/\/m.douguo.com\/cookbook\/1536707.html"
      },
      "minor" : [

      ],
      "vfurl" : "",
      "create_time" : "2017-04-12 13:29:32",
      "sc" : 0,
      "pw" : 800,
      "ipurl" : "",
      "title_ad" : [

      ],
      "recommend_label" : "4人学做",
      "ipt" : "",
      "v_u" : "",
      "thumb_path" : "https:\/\/i1.douguo.com\/upload\/caiku\/2\/0\/5\/300_208781c348345e844a92e91cf6873f15.jpg",
      "cook_time" : "",
      "hq" : 0,
      "user" : {
        "avatar_medium" : "http:\/\/tx1.douguo.net\/upload\/photo\/6\/5\/7\/140_u70112279742009232037.jpg",
        "dishes_count" : 0,
        "recipes_count" : 0,
        "qzone_nick" : "",
        "setted_email" : 0,
        "weibo_nick" : "",
        "followers_count" : 0,
        "verified_url" : "https:\/\/m.douguo.com\/user\/prodesc",
        "progress_image" : "",
        "nick" : "醋吖頭",
        "introduction" : "",
        "regist_time" : "",
        "coursecount" : 0,
        "birthday" : "",
        "pc" : 0,
        "user_photo" : "http:\/\/tx1.douguo.net\/upload\/photo\/6\/5\/7\/70_u70112279742009232037.jpg",
        "location" : 0,
        "point" : 0,
        "subscription" : 0,
        "lvl" : 6,
        "sign" : "",
        "following_count" : 0,
        "favor_diaries_count" : 0,
        "userid" : "18187375",
        "diaries_count" : 0,
        "qq_weibo_nick" : "",
        "fc" : 0,
        "mobile" : "",
        "user_cover" : "",
        "favorites_count" : 0,
        "user_large_photo" : "http:\/\/tx1.douguo.net\/upload\/photo\/6\/5\/7\/yuan_u70112279742009232037.jpg",
        "user_id" : "18187375",
        "gender" : 2,
        "email" : "",
        "lv" : 0,
        "verified_image" : "",
        "age" : "",
        "verified" : 0,
        "subscription_article_count" : 0,
        "is_prime" : 0
      },
      "cookstory" : "喜欢吃蒜苗，而猪心搭配蒜苗，味道更是一流",
      "ecs" : 0,
      "rpst" : "",
      "guide_image" : "",
      "related_ads" : [

      ],
      "comments_count" : 6,
      "advice" : {
        "has" : [
          {
            "url" : "recipes:\/\/www.douguo.com\/simplerecipelist?t=低饱和脂肪&id=低饱和脂肪",
            "t" : "低饱和脂肪"
          },
          {
            "t" : "富含维生素C",
            "url" : "recipes:\/\/www.douguo.com\/simplerecipelist?t=富含维生素C&id=富含维生素C"
          }
        ],
        "at" : "可以预防血栓形成～",
        "da" : {
          "url" : "https:\/\/m.douguo.com\/recipe\/nutrient_self\/1536707",
          "t" : "查看详细分析",
          "iu" : "https:\/\/i1.douguo.com\/upload\/banner\/f\/4\/d\/f48877e53c37759bc12ac494be82ec8d.png"
        }
      },
      "collect_status" : 0,
      "rrps" : [

      ],
      "major" : [
        {
          "note" : "一个",
          "tu" : "https:\/\/m.douguo.com\/ingredients\/猪心\/detailmaterial",
          "title" : "猪心"
        },
        {
          "note" : "200克",
          "tu" : "https:\/\/m.douguo.com\/ingredients\/蒜苗\/detailmaterial",
          "title" : "蒜苗"
        },
        {
          "tu" : "https:\/\/m.douguo.com\/ingredients\/生姜\/detailmaterial",
          "title" : "生姜",
          "note" : "适量"
        },
        {
          "title" : "蒜",
          "note" : "几辦",
          "tu" : "https:\/\/m.douguo.com\/ingredients\/蒜\/detailmaterial"
        },
        {
          "note" : "五个",
          "tu" : "https:\/\/m.douguo.com\/ingredients\/小米椒\/detailmaterial",
          "title" : "小米椒"
        },
        {
          "title" : "油",
          "note" : "适量",
          "tu" : "https:\/\/m.douguo.com\/ingredients\/油\/detailmaterial"
        },
        {
          "title" : "盐",
          "note" : "一小勺",
          "tu" : "https:\/\/m.douguo.com\/ingredients\/盐\/detailmaterial"
        }
      ],
      "display_ingredient" : 1,
      "rewarded_video_dsp" : [

      ],
      "image" : "http:\/\/i1.douguo.net\/upload\/caiku\/2\/0\/5\/300_208781c348345e844a92e91cf6873f15.jpg",
      "ipit" : 0,
      "ph" : 450,
      "author_id" : 18187375,
      "rate_show" : 0,
      "act_des" : "",
      "title" : "猪心炒蒜苗",
      "release_time" : "",
      "comments_count_text" : "6",
      "dish_count" : 4,
      "favo_counts" : 1185,
      "vc" : "258223",
      "recipe_list_tags" : [
        {
          "text_color" : "#141515",
          "right_image" : "",
          "background_start_color" : "#F4F5F5",
          "jump_url" : "",
          "background_border_color" : "",
          "text" : "关注的人",
          "background_end_color" : "#F4F5F5"
        }
      ],
      "dish_count_text" : "4",
      "photo_path" : "https:\/\/i1.douguo.com\/upload\/caiku\/2\/0\/5\/600_208781c348345e844a92e91cf6873f15.jpg",
      "su" : "",
      "ipoi" : "",
      "rcs" : [

      ],
      "levelid" : 3,
      "packages_id" : [

      ],
      "old_comments" : [

      ],
      "rpid" : 0,
      "author" : "醋吖頭",
      "rsm" : "该功能暂停使用",
      "purl" : "",
      "notes" : [

      ],
      "cookstorys" : [
        {
          "type" : 0,
          "color" : "",
          "c" : "喜欢吃蒜苗，而猪心搭配蒜苗，味道更是一流",
          "u" : "",
          "id" : 0,
          "icon" : ""
        }
      ],
      "brand_day_dsp" : [

      ],
      "dishes" : [

      ],
      "ss" : [

      ],
      "recommendation_tag" : "",
      "comments" : [
        "{\n    ac = \"#999999\";\n    at = \"\";\n    ccc = 1;\n    \"child_comments\" =     (\n                {\n            ac = \"#999999\";\n            at = \"\";\n            ccc = 0;\n            city = \"\";\n            cmc = 2;\n            content =             (\n                                {\n                    c = \" \\U563b\\U563b\";\n                }\n            );\n            ia = 1;\n            id = 4630794;\n            \"ip_address_location\" = \"\";\n            like = 0;\n            \"like_count\" = 0;\n            \"reply_id\" = 4630465;\n            \"reply_user\" =             {\n                \"followers_count_text\" = \"\";\n                id = 18509530;\n                \"is_prime\" = 0;\n                lv = 0;\n                lvl = 3;\n                n = \"\\U8718\\U86db\\U00b7\\U5370\\U8c61\";\n                p = \"http:\/\/tx1.douguo.net\/upload\/photo\/3\/0\/2\/70_3040c038d351c7032de8a60652ff18a2.jpg\";\n                \"progress_image\" = \"\";\n                \"recipes_count_text\" = \"\";\n                relationship = \"-1\";\n                title = \"\";\n                v = 0;\n                \"verified_image\" = \"\";\n            };\n            \"sticker_icon\" =             (\n            );\n            time = \"2017-04-12 09:34:55\";\n            u =             {\n                \"followers_count_text\" = \"\";\n                id = 18187375;\n                \"is_prime\" = 0;\n                lv = 0;\n                lvl = 6;\n                n = \"\\U918b\\U5416\\U982d\";\n                p = \"http:\/\/tx1.douguo.net\/upload\/photo\/6\/5\/7\/70_u70112279742009232037.jpg\";\n                \"progress_image\" = \"\";\n                \"recipes_count_text\" = \"\";\n                relationship = \"-1\";\n                title = \"\";\n                v = 0;\n                \"verified_image\" = \"\";\n            };\n        }\n    );\n    city = \"\";\n    cmc = 2;\n    content =     (\n                {\n            c = \"\\U60f3\\U60f3\\U5c31\\U597d\\U5403\\Uff0c\\U6211\\U8981\\U53bb\\U8bd5\\U8bd5\";\n        }\n    );\n    ia = 0;\n    id = 4630465;\n    \"ip_address_location\" = \"\";\n    like = 0;\n    \"like_count\" = 0;\n    \"reply_id\" = 0;\n    \"sticker_icon\" =     (\n    );\n    time = \"2017-04-12 07:07:05\";\n    u =     {\n        \"followers_count_text\" = \"\";\n        id = 18509530;\n        \"is_prime\" = 0;\n        lv = 0;\n        lvl = 3;\n        n = \"\\U8718\\U86db\\U00b7\\U5370\\U8c61\";\n        p = \"http:\/\/tx1.douguo.net\/upload\/photo\/3\/0\/2\/70_3040c038d351c7032de8a60652ff18a2.jpg\";\n        \"progress_image\" = \"\";\n        \"recipes_count_text\" = \"\";\n        relationship = \"-1\";\n        title = \"\";\n        v = 0;\n        \"verified_image\" = \"\";\n    };\n}",
        "{\n    ac = \"#999999\";\n    at = \"\";\n    ccc = 1;\n    \"child_comments\" =     (\n                {\n            ac = \"#999999\";\n            at = \"\";\n            ccc = 0;\n            city = \"\";\n            cmc = 2;\n            content =             (\n                                {\n                    c = \" \\U563b\\U563b\";\n                }\n            );\n            ia = 1;\n            id = 4630793;\n            \"ip_address_location\" = \"\";\n            like = 0;\n            \"like_count\" = 0;\n            \"reply_id\" = 4630332;\n            \"reply_user\" =             {\n                \"followers_count_text\" = \"\";\n                id = 18462735;\n                \"is_prime\" = 0;\n                lv = 0;\n                lvl = 4;\n                n = \"\\U5de7\\U514b\\U529b\\U4e0b\\U5348\\U8336\";\n                p = \"http:\/\/tx1.douguo.net\/upload\/photo\/b\/8\/1\/70_u12056936359130408131955.jpg\";\n                \"progress_image\" = \"\";\n                \"recipes_count_text\" = \"\";\n                relationship = \"-1\";\n                title = \"\";\n                v = 0;\n                \"verified_image\" = \"\";\n            };\n            \"sticker_icon\" =             (\n            );\n            time = \"2017-04-12 09:34:45\";\n            u =             {\n                \"followers_count_text\" = \"\";\n                id = 18187375;\n                \"is_prime\" = 0;\n                lv = 0;\n                lvl = 6;\n                n = \"\\U918b\\U5416\\U982d\";\n                p = \"http:\/\/tx1.douguo.net\/upload\/photo\/6\/5\/7\/70_u70112279742009232037.jpg\";\n                \"progress_image\" = \"\";\n                \"recipes_count_text\" = \"\";\n                relationship = \"-1\";\n                title = \"\";\n                v = 0;\n                \"verified_image\" = \"\";\n            };\n        }\n    );\n    city = \"\";\n    cmc = 2;\n    content =     (\n                {\n            c = \"\\U5624~\\U5624~\\U5624~\\U597d\\U5403\\U5230\\U60f3\\U98de\\U3002\";\n        }\n    );\n    ia = 0;\n    id = 4630332;\n    \"ip_address_location\" = \"\";\n    like = 0;\n    \"like_count\" = 0;\n    \"reply_id\" = 0;\n    \"sticker_icon\" =     (\n    );\n    time = \"2017-04-12 06:07:05\";\n    u =     {\n        \"followers_count_text\" = \"\";\n        id = 18462735;\n        \"is_prime\" = 0;\n        lv = 0;\n        lvl = 4;\n        n = \"\\U5de7\\U514b\\U529b\\U4e0b\\U5348\\U8336\";\n        p = \"http:\/\/tx1.douguo.net\/upload\/photo\/b\/8\/1\/70_u12056936359130408131955.jpg\";\n        \"progress_image\" = \"\";\n        \"recipes_count_text\" = \"\";\n        relationship = \"-1\";\n        title = \"\";\n        v = 0;\n        \"verified_image\" = \"\";\n    };\n}",
        "{\n    ac = \"#999999\";\n    at = \"\\U4e1c\\U839e\\U5e02\";\n    ccc = 0;\n    \"child_comments\" =     (\n    );\n    city = \"\\U4e1c\\U839e\\U5e02\";\n    cmc = 2;\n    content =     (\n                {\n            c = \"\\U849c\\U82d4\\U548c\\U849c\\U82d7\\U6709\\U533a\\U522b\\U5427\\n\";\n        }\n    );\n    ia = 0;\n    id = 8580940;\n    \"ip_address_location\" = \"\";\n    like = 0;\n    \"like_count\" = 0;\n    \"reply_id\" = 0;\n    \"sticker_icon\" =     (\n    );\n    time = \"2021-03-21 13:42:02\";\n    u =     {\n        \"followers_count_text\" = \"\";\n        id = 24766212;\n        \"is_prime\" = 0;\n        lv = 0;\n        lvl = 1;\n        n = \"\\U9ed1\\U9ee2\\U9ee2\\U7684\\U6d77\\U53c2\\U6591\";\n        p = \"http:\/\/tx1.douguo.net\/upload\/photo\/1\/1\/1\/70_4575960c439b1aaa30146ef26bd56ba5.png\";\n        \"progress_image\" = \"\";\n        \"recipes_count_text\" = \"\";\n        relationship = \"-1\";\n        title = \"\";\n        v = 0;\n        \"verified_image\" = \"\";\n    };\n}"
      ],
      "rdsps" : [

      ],
      "story_dsp" : [

      ],
      "rrpt" : "",
      "favo_counts_text" : "1185",
      "rate_count" : 2,
      "cook_difficulty" : "",
      "mid_mdsp" : [

      ],
      "original_photo_path" : "http:\/\/i1.douguo.net\/upload\/caiku\/2\/0\/5\/yuan_208781c348345e844a92e91cf6873f15.jpg",
      "btm_dsp" : [

      ],
      "first_level_comment_count" : 4,
      "rips" : 0,
      "author_verified" : 0,
      "eu" : "recipes:\/\/www.douguo.com\/postdetail?id=242016",
      "vu" : "",
      "sr" : "",
      "clicks" : "245058",
      "rate" : 5,
      "ssu" : "",
      "top_mdsp" : [

      ]
    }
  }
}