{
  "result" : {
    "recipe" : {
      "event" : {
        "id" : 3349,
        "url" : "https:\/\/m.douguo.com\/activity\/ncpzj\/detail\/3349?isapp=1&open=0&_vs=1000300&&dg_refreshkey=publishnote",
        "name" : "有奖征集|一学就会快手菜"
      },
      "ss" : [

      ],
      "rpt" : "",
      "hqu" : "recipes:\/\/www.douguo.com\/notedetail?id=21162253",
      "pw" : 1920,
      "share_info" : {
        "name" : "#一学就会快手菜#奶油蘑菇汤-会做饭很酷!",
        "qr_image" : "",
        "s_u" : "http:\/\/m.douguo.com\/cookbook\/3155939.html",
        "object_id" : "3155939",
        "mini_program" : [

        ],
        "s_d" : "#一学就会快手菜#奶油蘑菇汤-会做饭很酷!",
        "image" : "https:\/\/cp1.douguo.com\/upload\/caiku\/b\/9\/6\/b9df6c7b76513893c594b9f11edec126.jpeg",
        "infos" : [
          {
            "qr_image" : "",
            "s_d" : "#学做饭用豆果美食# 我在@豆果美食 分享了【#一学就会快手菜#奶油蘑菇汤-会做饭很酷!】，帅哥美眉们～你们喜欢的美食来咯！快来跟我一起做吧～查看图片了解菜谱（想要获取更多美食就看这https:\/\/m.weibo.cn\/p\/100404i33631）#会做饭很酷#",
            "s_u" : "",
            "channel" : "1",
            "name" : "#一学就会快手菜#奶油蘑菇汤-会做饭很酷!",
            "image" : "https:\/\/cp1.douguo.com\/upload\/caiku\/b\/9\/6\/b9df6c7b76513893c594b9f11edec126.jpeg",
            "object_id" : "3155939",
            "mini_program" : [

            ]
          },
          {
            "s_u" : "http:\/\/m.douguo.com\/cookbook\/3155939.html",
            "s_d" : "#一学就会快手菜#奶油蘑菇汤-会做饭很酷!",
            "mini_program" : [

            ],
            "name" : "#一学就会快手菜#奶油蘑菇汤-会做饭很酷!",
            "object_id" : "3155939",
            "qr_image" : "",
            "channel" : "7",
            "image" : "https:\/\/cp1.douguo.com\/upload\/caiku\/b\/9\/6\/b9df6c7b76513893c594b9f11edec126.jpeg"
          },
          {
            "qr_image" : "",
            "name" : "#一学就会快手菜#奶油蘑菇汤-会做饭很酷!",
            "mini_program" : [

            ],
            "s_u" : "http:\/\/m.douguo.com\/cookbook\/3155939.html",
            "channel" : "8",
            "image" : "https:\/\/cp1.douguo.com\/upload\/caiku\/b\/9\/6\/b9df6c7b76513893c594b9f11edec126.jpeg",
            "object_id" : "3155939",
            "s_d" : "#一学就会快手菜#奶油蘑菇汤-会做饭很酷!"
          }
        ]
      },
      "create_time" : "2021-12-14 18:20:37",
      "ph" : 1440,
      "recipe_tags" : [

      ],
      "comments_count" : 23,
      "old_comments" : [

      ],
      "vc" : "801351",
      "user" : {
        "avatar_medium" : "http:\/\/tx1.douguo.net\/upload\/photo\/2\/8\/f\/140_28a33babe0e021ffe9fc7e25eca0740f.jpeg",
        "subscription" : 0,
        "pc" : 0,
        "introduction" : "",
        "userid" : "15641787",
        "verified" : 0,
        "sign" : "",
        "user_photo" : "http:\/\/tx1.douguo.net\/upload\/photo\/2\/8\/f\/70_28a33babe0e021ffe9fc7e25eca0740f.jpeg",
        "coursecount" : 0,
        "subscription_article_count" : 0,
        "location" : 0,
        "qzone_nick" : "",
        "recipes_count" : 0,
        "favor_diaries_count" : 0,
        "nick" : "牵小孩的牛🌙",
        "mobile" : "",
        "weibo_nick" : "",
        "progress_image" : "",
        "qq_weibo_nick" : "",
        "gender" : 2,
        "user_id" : "15641787",
        "user_cover" : "",
        "verified_url" : "https:\/\/m.douguo.com\/user\/prodesc",
        "lvl" : 6,
        "birthday" : "",
        "verified_image" : "",
        "is_prime" : 0,
        "user_large_photo" : "http:\/\/tx1.douguo.net\/upload\/photo\/2\/8\/f\/yuan_28a33babe0e021ffe9fc7e25eca0740f.jpeg",
        "age" : "",
        "diaries_count" : 0,
        "following_count" : 0,
        "fc" : 0,
        "lv" : 0,
        "dishes_count" : 0,
        "point" : 0,
        "regist_time" : "",
        "favorites_count" : 0,
        "setted_email" : 0,
        "email" : "",
        "followers_count" : 0
      },
      "top_mdsp" : [

      ],
      "recipe_list_tags" : [
        {
          "background_start_color" : "#F4F5F5",
          "background_end_color" : "#F4F5F5",
          "jump_url" : "",
          "text_color" : "#141515",
          "text" : "关注的人",
          "right_image" : "",
          "background_border_color" : ""
        },
        {
          "background_start_color" : "#F4F5F5",
          "background_end_color" : "#F4F5F5",
          "text" : "内容详细",
          "jump_url" : "",
          "text_color" : "#141515",
          "right_image" : "",
          "background_border_color" : ""
        }
      ],
      "title_ad" : [

      ],
      "cookstep" : [
        {
          "position" : 1,
          "image_height" : 5118,
          "thumb" : "https:\/\/i1.douguo.com\/upload\/caiku\/d\/2\/3\/140_d283460935a8992ef08fbb1cae6fe973.jpeg",
          "image" : "https:\/\/i1.douguo.com\/upload\/caiku\/d\/2\/3\/d283460935a8992ef08fbb1cae6fe973.jpeg",
          "content" : "准备一些新鲜蘑菇，去蒂。",
          "image_width" : 3840,
          "frame" : "-1"
        },
        {
          "content" : "切成薄片，再切一些洋葱，再来一点培根就再好不过了。",
          "frame" : "-1",
          "image" : "https:\/\/i1.douguo.com\/upload\/caiku\/7\/6\/3\/76f38833be577bbd1c85ea0efdf65713.jpeg",
          "image_height" : 5118,
          "image_width" : 3840,
          "position" : 2,
          "thumb" : "https:\/\/i1.douguo.com\/upload\/caiku\/7\/6\/3\/140_76f38833be577bbd1c85ea0efdf65713.jpeg"
        },
        {
          "frame" : "-1",
          "content" : "一小块黄油融化",
          "image_height" : 5118,
          "image" : "https:\/\/i1.douguo.com\/upload\/caiku\/8\/d\/a\/8db76914d7fa76f4b62133557db169ea.jpeg",
          "position" : 3,
          "image_width" : 3840,
          "thumb" : "https:\/\/i1.douguo.com\/upload\/caiku\/8\/d\/a\/140_8db76914d7fa76f4b62133557db169ea.jpeg"
        },
        {
          "frame" : "-1",
          "image_width" : 3840,
          "image" : "https:\/\/i1.douguo.com\/upload\/caiku\/c\/8\/8\/c8577c3d5c1a756658f3631ba1665bd8.jpeg",
          "image_height" : 5118,
          "thumb" : "https:\/\/i1.douguo.com\/upload\/caiku\/c\/8\/8\/140_c8577c3d5c1a756658f3631ba1665bd8.jpeg",
          "content" : "下入洋葱和培根，炒香",
          "position" : 4
        },
        {
          "frame" : "-1",
          "image" : "https:\/\/i1.douguo.com\/upload\/caiku\/2\/d\/2\/2df011227fce055a5696a31fc8888e72.jpeg",
          "content" : "再下入蘑菇炒软，翻炒个三分钟，加一点点盐出锅。",
          "thumb" : "https:\/\/i1.douguo.com\/upload\/caiku\/2\/d\/2\/140_2df011227fce055a5696a31fc8888e72.jpeg",
          "image_width" : 3840,
          "position" : 5,
          "image_height" : 5118
        },
        {
          "image_width" : 3840,
          "image" : "https:\/\/i1.douguo.com\/upload\/caiku\/4\/2\/8\/4222bf7f2526ea4c6a82815cd37c2a78.jpeg",
          "position" : 6,
          "image_height" : 5118,
          "content" : "锅里小火融化20克黄油。",
          "thumb" : "https:\/\/i1.douguo.com\/upload\/caiku\/4\/2\/8\/140_4222bf7f2526ea4c6a82815cd37c2a78.jpeg",
          "frame" : "-1"
        },
        {
          "image_height" : 5118,
          "frame" : "-1",
          "image" : "https:\/\/i1.douguo.com\/upload\/caiku\/0\/3\/4\/03c7947bb79621f16b5d16ac29a00534.jpeg",
          "thumb" : "https:\/\/i1.douguo.com\/upload\/caiku\/0\/3\/4\/140_03c7947bb79621f16b5d16ac29a00534.jpeg",
          "image_width" : 3840,
          "content" : "加入60克面粉，小火翻炒，喜欢喝浓稠一点的汤就多加一点面粉。",
          "position" : 7
        },
        {
          "thumb" : "https:\/\/i1.douguo.com\/upload\/caiku\/6\/e\/7\/140_6ef660f83beaa1f61d2fc49a79369ab7.jpeg",
          "position" : 8,
          "content" : "加一大碗清水，不停的搅拌。",
          "image_width" : 3840,
          "image_height" : 5118,
          "image" : "https:\/\/i1.douguo.com\/upload\/caiku\/6\/e\/7\/6ef660f83beaa1f61d2fc49a79369ab7.jpeg",
          "frame" : "-1"
        },
        {
          "image" : "https:\/\/i1.douguo.com\/upload\/caiku\/e\/d\/9\/edb049f6e93982daeeae64be2a546249.jpeg",
          "content" : "成面糊状，加入100ml淡奶油，或者牛奶也可。",
          "image_width" : 3840,
          "thumb" : "https:\/\/i1.douguo.com\/upload\/caiku\/e\/d\/9\/140_edb049f6e93982daeeae64be2a546249.jpeg",
          "position" : 9,
          "frame" : "-1",
          "image_height" : 5118
        },
        {
          "frame" : "-1",
          "content" : "小火煮开，其间要不停的搅拌，以免糊锅",
          "image_height" : 5118,
          "image" : "https:\/\/i1.douguo.com\/upload\/caiku\/a\/d\/e\/adb78b8c2a4ed2b326646f50f6977a9e.jpeg",
          "image_width" : 3840,
          "position" : 10,
          "thumb" : "https:\/\/i1.douguo.com\/upload\/caiku\/a\/d\/e\/140_adb78b8c2a4ed2b326646f50f6977a9e.jpeg"
        },
        {
          "position" : 11,
          "content" : "加入刚刚炒好的配菜，搅拌均匀关火。",
          "image_width" : 3840,
          "frame" : "-1",
          "thumb" : "https:\/\/i1.douguo.com\/upload\/caiku\/9\/8\/7\/140_98590a913974fa7f495cd6fd84855e07.jpeg",
          "image_height" : 5118,
          "image" : "https:\/\/i1.douguo.com\/upload\/caiku\/9\/8\/7\/98590a913974fa7f495cd6fd84855e07.jpeg"
        },
        {
          "content" : "根据自己的口味加入黑胡椒粉和少许盐调味。有条件的在加一点欧芹碎。",
          "thumb" : "https:\/\/i1.douguo.com\/upload\/caiku\/6\/6\/4\/140_661810b2a6797f9e04d0bc54a00fb934.jpeg",
          "frame" : "-1",
          "image_width" : 3840,
          "image_height" : 3834,
          "position" : 12,
          "image" : "https:\/\/i1.douguo.com\/upload\/caiku\/6\/6\/4\/661810b2a6797f9e04d0bc54a00fb934.jpeg"
        },
        {
          "image_width" : 3840,
          "position" : 13,
          "content" : "非常好喝，和西餐厅的一模一样！",
          "thumb" : "https:\/\/i1.douguo.com\/upload\/caiku\/f\/f\/1\/140_ff0b59ecac1eedb2ad14ef1fbe3845f1.jpeg",
          "image_height" : 2880,
          "image" : "https:\/\/i1.douguo.com\/upload\/caiku\/f\/f\/1\/ff0b59ecac1eedb2ad14ef1fbe3845f1.jpeg",
          "frame" : "-1"
        },
        {
          "image_height" : 2880,
          "image_width" : 3840,
          "image" : "https:\/\/i1.douguo.com\/upload\/caiku\/5\/0\/f\/5021a59ee0da5312cd505c9dd974103f.jpeg",
          "position" : 14,
          "frame" : "-1",
          "thumb" : "https:\/\/i1.douguo.com\/upload\/caiku\/5\/0\/f\/140_5021a59ee0da5312cd505c9dd974103f.jpeg",
          "content" : "快来试试吧。"
        }
      ],
      "v_u" : "",
      "comments" : [
        "{\n    ac = \"#999999\";\n    at = \"\\U6c88\\U9633\\U5e02\";\n    ccc = 5;\n    \"child_comments\" =     (\n                {\n            ac = \"#999999\";\n            at = \"\\U5e7f\\U5dde\\U5e02\";\n            ccc = 0;\n            city = \"\\U5e7f\\U5dde\\U5e02\";\n            cmc = 2;\n            content =             (\n                                {\n                    c = \" \\U591a\\U6405\\U62cc\\U54e6\";\n                }\n            );\n            ia = 1;\n            id = 8934104;\n            \"ip_address_location\" = \"\";\n            like = 0;\n            \"like_count\" = 0;\n            \"reply_id\" = 8933780;\n            \"reply_user\" =             {\n                \"followers_count_text\" = \"\";\n                id = 17533904;\n                \"is_prime\" = 0;\n                lv = 0;\n                lvl = 1;\n                n = \"\\U5439\\U7b1b\\U513f\\U8fd8\\U6401\\U4e2a\\U634f\\U773c\\U513f\\U6ef4\";\n                p = \"http:\/\/tx1.douguo.net\/upload\/photo\/7\/7\/a\/70_779bca5a3c7e75441cd8508d7c1d38aa.jpg\";\n                \"progress_image\" = \"\";\n                \"recipes_count_text\" = \"\";\n                relationship = \"-1\";\n                title = \"\";\n                v = 0;\n                \"verified_image\" = \"\";\n            };\n            \"sticker_icon\" =             (\n            );\n            time = \"2022-04-19 19:04:43\";\n            u =             {\n                \"followers_count_text\" = \"\";\n                id = 15641787;\n                \"is_prime\" = 0;\n                lv = 0;\n                lvl = 6;\n                n = \"\\U7275\\U5c0f\\U5b69\\U7684\\U725b\\Ud83c\\Udf19\";\n                p = \"http:\/\/tx1.douguo.net\/upload\/photo\/2\/8\/f\/70_28a33babe0e021ffe9fc7e25eca0740f.jpeg\";\n                \"progress_image\" = \"\";\n                \"recipes_count_text\" = \"\";\n                relationship = \"-1\";\n                title = \"\";\n                v = 0;\n                \"verified_image\" = \"\";\n            };\n        },\n                {\n            ac = \"#999999\";\n            at = \"\\U4e0a\\U6d77\\U5e02\";\n            ccc = 0;\n            city = \"\\U4e0a\\U6d77\\U5e02\";\n            cmc = 2;\n            content =             (\n                                {\n                    c = \" \\U6211\\U7528\\U7b5b\\U7f51\\U8fc7\\U6ee4\\U4e86\";\n                }\n            );\n            ia = 0;\n            id = 8942457;\n            \"ip_address_location\" = \"\";\n            like = 0;\n            \"like_count\" = 0;\n            \"reply_id\" = 8933780;\n            \"reply_user\" =             {\n                \"followers_count_text\" = \"\";\n                id = 17533904;\n                \"is_prime\" = 0;\n                lv = 0;\n                lvl = 1;\n                n = \"\\U5439\\U7b1b\\U513f\\U8fd8\\U6401\\U4e2a\\U634f\\U773c\\U513f\\U6ef4\";\n                p = \"http:\/\/tx1.douguo.net\/upload\/photo\/7\/7\/a\/70_779bca5a3c7e75441cd8508d7c1d38aa.jpg\";\n                \"progress_image\" = \"\";\n                \"recipes_count_text\" = \"\";\n                relationship = \"-1\";\n                title = \"\";\n                v = 0;\n                \"verified_image\" = \"\";\n            };\n            \"sticker_icon\" =             (\n            );\n            time = \"2022-05-17 09:45:13\";\n            u =             {\n                \"followers_count_text\" = \"\";\n                id = 25235277;\n                \"is_prime\" = 0;\n                lv = 0;\n                lvl = 5;\n                n = \"\\U4e0d\\U5bb9\\U6613\\U7684\\U732a\\U8e44\";\n                p = \"http:\/\/tx1.douguo.net\/upload\/photo\/f\/0\/8\/70_u85313554863170225120.jpeg\";\n                \"progress_image\" = \"\";\n                \"recipes_count_text\" = \"\";\n                relationship = \"-1\";\n                title = \"\";\n                v = 0;\n                \"verified_image\" = \"\";\n            };\n        }\n    );\n    city = \"\\U6c88\\U9633\\U5e02\";\n    cmc = 2;\n    content =     (\n                {\n            c = \"\\U4f1a\\U51fa\\U73b0\\U5f88\\U591a\\U9762\\U7599\\U7629\";\n        }\n    );\n    ia = 0;\n    id = 8933780;\n    \"ip_address_location\" = \"\";\n    like = 0;\n    \"like_count\" = 2;\n    \"reply_id\" = 0;\n    \"sticker_icon\" =     (\n    );\n    time = \"2022-04-18 17:53:36\";\n    u =     {\n        \"followers_count_text\" = \"\";\n        id = 17533904;\n        \"is_prime\" = 0;\n        lv = 0;\n        lvl = 1;\n        n = \"\\U5439\\U7b1b\\U513f\\U8fd8\\U6401\\U4e2a\\U634f\\U773c\\U513f\\U6ef4\";\n        p = \"http:\/\/tx1.douguo.net\/upload\/photo\/7\/7\/a\/70_779bca5a3c7e75441cd8508d7c1d38aa.jpg\";\n        \"progress_image\" = \"\";\n        \"recipes_count_text\" = \"\";\n        relationship = \"-1\";\n        title = \"\";\n        v = 0;\n        \"verified_image\" = \"\";\n    };\n}",
        "{\n    ac = \"#999999\";\n    at = \"\\U82cf\\U5dde\\U5e02\";\n    ccc = 1;\n    \"child_comments\" =     (\n                {\n            ac = \"#999999\";\n            at = \"\\U5357\\U5b81\\U5e02\";\n            ccc = 0;\n            city = \"\\U5357\\U5b81\\U5e02\";\n            cmc = 2;\n            content =             (\n                                {\n                    c = \" \\U53ef\\U4ee5\\U7528\\U732a\\U6cb9\";\n                }\n            );\n            ia = 1;\n            id = 9039618;\n            \"ip_address_location\" = \"\\U5e7f\\U897f\\U58ee\\U65cf\\U81ea\\U6cbb\\U533a\";\n            like = 0;\n            \"like_count\" = 0;\n            \"reply_id\" = 9029964;\n            \"reply_user\" =             {\n                \"followers_count_text\" = \"\";\n                id = 8404960;\n                \"is_prime\" = 0;\n                lv = 0;\n                lvl = 1;\n                n = \"\\U821e\\U5f713\";\n                p = \"\";\n                \"progress_image\" = \"\";\n                \"recipes_count_text\" = \"\";\n                relationship = \"-1\";\n                title = \"\";\n                v = 0;\n                \"verified_image\" = \"\";\n            };\n            \"sticker_icon\" =             (\n            );\n            time = \"2023-07-26 10:11:04\";\n            u =             {\n                \"followers_count_text\" = \"\";\n                id = 15641787;\n                \"is_prime\" = 0;\n                lv = 0;\n                lvl = 6;\n                n = \"\\U7275\\U5c0f\\U5b69\\U7684\\U725b\\Ud83c\\Udf19\";\n                p = \"http:\/\/tx1.douguo.net\/upload\/photo\/2\/8\/f\/70_28a33babe0e021ffe9fc7e25eca0740f.jpeg\";\n                \"progress_image\" = \"\";\n                \"recipes_count_text\" = \"\";\n                relationship = \"-1\";\n                title = \"\";\n                v = 0;\n                \"verified_image\" = \"\";\n            };\n        }\n    );\n    city = \"\\U82cf\\U5dde\\U5e02\";\n    cmc = 2;\n    content =     (\n                {\n            c = \"\\U7528\\U5927\\U8c46\\U6cb9\\U4ee3\\U66ff\\U9ec4\\U6cb9\\U53ef\\U4ee5\\U5417\\Uff1f\";\n        }\n    );\n    ia = 0;\n    id = 9029964;\n    \"ip_address_location\" = \"\\U6c5f\\U82cf\";\n    like = 0;\n    \"like_count\" = 0;\n    \"reply_id\" = 0;\n    \"sticker_icon\" =     (\n    );\n    time = \"2023-05-28 19:33:12\";\n    u =     {\n        \"followers_count_text\" = \"\";\n        id = 8404960;\n        \"is_prime\" = 0;\n        lv = 0;\n        lvl = 1;\n        n = \"\\U821e\\U5f713\";\n        p = \"\";\n        \"progress_image\" = \"\";\n        \"recipes_count_text\" = \"\";\n        relationship = \"-1\";\n        title = \"\";\n        v = 0;\n        \"verified_image\" = \"\";\n    };\n}",
        "{\n    ac = \"#999999\";\n    at = \"\\U4e0a\\U6d77\\U5e02\";\n    ccc = 1;\n    \"child_comments\" =     (\n                {\n            ac = \"#999999\";\n            at = \"\\U5e7f\\U5dde\\U5e02\";\n            ccc = 0;\n            city = \"\\U5e7f\\U5dde\\U5e02\";\n            cmc = 2;\n            content =             (\n                                {\n                    c = \" \\U53ef\\U80fd\\U706b\\U5927\\U4e86\\U54e6\";\n                }\n            );\n            ia = 1;\n            id = 8958171;\n            \"ip_address_location\" = \"\";\n            like = 0;\n            \"like_count\" = 0;\n            \"reply_id\" = 8957631;\n            \"reply_user\" =             {\n                \"followers_count_text\" = \"\";\n                id = 27282953;\n                \"is_prime\" = 0;\n                lv = 0;\n                lvl = 1;\n                n = \"JAWM\\U661f\\U6708\";\n                p = \"http:\/\/tx1.douguo.net\/upload\/photo\/1\/1\/1\/70_308819173261b0de241dc8e387792732.png\";\n                \"progress_image\" = \"\";\n                \"recipes_count_text\" = \"\";\n                relationship = \"-1\";\n                title = \"\";\n                v = 0;\n                \"verified_image\" = \"\";\n            };\n            \"sticker_icon\" =             (\n            );\n            time = \"2022-07-26 00:06:33\";\n            u =             {\n                \"followers_count_text\" = \"\";\n                id = 15641787;\n                \"is_prime\" = 0;\n                lv = 0;\n                lvl = 6;\n                n = \"\\U7275\\U5c0f\\U5b69\\U7684\\U725b\\Ud83c\\Udf19\";\n                p = \"http:\/\/tx1.douguo.net\/upload\/photo\/2\/8\/f\/70_28a33babe0e021ffe9fc7e25eca0740f.jpeg\";\n                \"progress_image\" = \"\";\n                \"recipes_count_text\" = \"\";\n                relationship = \"-1\";\n                title = \"\";\n                v = 0;\n                \"verified_image\" = \"\";\n            };\n        }\n    );\n    city = \"\\U4e0a\\U6d77\\U5e02\";\n    cmc = 2;\n    content =     (\n                {\n            c = \"\\U6211\\U9762\\U7c89\\U7092\\U51fa\\U6765\\U53d1\\U9ed1\";\n        }\n    );\n    ia = 0;\n    id = 8957631;\n    \"ip_address_location\" = \"\";\n    like = 0;\n    \"like_count\" = 0;\n    \"reply_id\" = 0;\n    \"sticker_icon\" =     (\n    );\n    time = \"2022-07-23 13:55:00\";\n    u =     {\n        \"followers_count_text\" = \"\";\n        id = 27282953;\n        \"is_prime\" = 0;\n        lv = 0;\n        lvl = 1;\n        n = \"JAWM\\U661f\\U6708\";\n        p = \"http:\/\/tx1.douguo.net\/upload\/photo\/1\/1\/1\/70_308819173261b0de241dc8e387792732.png\";\n        \"progress_image\" = \"\";\n        \"recipes_count_text\" = \"\";\n        relationship = \"-1\";\n        title = \"\";\n        v = 0;\n        \"verified_image\" = \"\";\n    };\n}"
      ],
      "rdsps" : [

      ],
      "rpid" : 0,
      "su" : "",
      "first_level_comment_count" : 13,
      "dish_count" : 24,
      "notes" : [

      ],
      "rsm" : "该功能暂停使用",
      "cook_difficulty" : "切墩(初级)",
      "ipurl" : "",
      "rate" : 5,
      "rrps" : [

      ],
      "ipia" : [

      ],
      "guide_image" : "",
      "ipoi" : "",
      "brand_day_dsp" : [

      ],
      "ssu" : "",
      "image" : "http:\/\/i1.douguo.net\/upload\/caiku\/b\/9\/6\/300_b9df6c7b76513893c594b9f11edec126.jpeg",
      "btm_dsp" : [

      ],
      "related_ads" : [

      ],
      "levelid" : 2,
      "recommended" : 0,
      "rrpt" : "",
      "major" : [
        {
          "note" : "适量",
          "title" : "白蘑菇"
        },
        {
          "note" : "半个",
          "title" : "洋葱",
          "tu" : "https:\/\/m.douguo.com\/ingredients\/洋葱\/detailmaterial"
        },
        {
          "title" : "动物性淡奶油或牛奶",
          "note" : "100g"
        },
        {
          "note" : "30克",
          "tu" : "https:\/\/m.douguo.com\/ingredients\/黄油\/detailmaterial",
          "title" : "黄油"
        },
        {
          "tu" : "https:\/\/m.douguo.com\/ingredients\/胡椒粉\/detailmaterial",
          "note" : "半勺",
          "title" : "胡椒粉"
        },
        {
          "tu" : "https:\/\/m.douguo.com\/ingredients\/面粉\/detailmaterial",
          "title" : "面粉",
          "note" : "70克"
        },
        {
          "title" : "培根",
          "tu" : "https:\/\/m.douguo.com\/ingredients\/培根\/detailmaterial",
          "note" : "2片"
        }
      ],
      "author_id" : 15641787,
      "packages_id" : [

      ],
      "thumb_height" : 0,
      "ipt" : "",
      "cook_time_image" : "https:\/\/i1.douguo.com\/upload\/banner\/1551424358.png",
      "author_photo" : "http:\/\/tx1.douguo.net\/upload\/photo\/2\/8\/f\/70_28a33babe0e021ffe9fc7e25eca0740f.jpeg",
      "favo_counts_text" : "1.1万",
      "author_verified" : 0,
      "rewarded_video_dsp" : [

      ],
      "tags" : [

      ],
      "views_count_text" : "80.1万",
      "recent_comments" : [

      ],
      "rate_show" : 1,
      "mid_mdsp" : [

      ],
      "cook_difficulty_image" : "https:\/\/i1.douguo.com\/upload\/banner\/1551424390.png",
      "cookstorys" : [
        {
          "id" : 0,
          "icon" : "",
          "color" : "",
          "c" : "吃西餐偶然间爱上了这道奶油蘑菇汤，奶香浓郁，回味悠然，自己也可以在家做啦，非常的简单。",
          "u" : "",
          "type" : 0
        },
        {
          "c" : "\n参与活动:",
          "u" : "",
          "id" : 0,
          "type" : 0,
          "color" : "",
          "icon" : ""
        },
        {
          "u" : "https:\/\/m.douguo.com\/activity\/ncpzj\/detail\/3349?isapp=1&open=0&_vs=1000300&&dg_refreshkey=publishnote",
          "icon" : "",
          "c" : "#有奖征集|一学就会快手菜#",
          "type" : 0,
          "id" : 0
        }
      ],
      "advice" : {
        "at" : "钠能调节机体水分，维持酸碱平衡～",
        "has" : [
          {
            "t" : "低盐",
            "url" : "recipes:\/\/www.douguo.com\/simplerecipelist?t=低盐&id=低盐"
          }
        ],
        "da" : {
          "t" : "查看详细分析",
          "url" : "https:\/\/m.douguo.com\/recipe\/nutrient_self\/3155939",
          "iu" : "https:\/\/i1.douguo.com\/upload\/banner\/f\/4\/d\/f48877e53c37759bc12ac494be82ec8d.png"
        }
      },
      "rate_count" : 22,
      "purl" : "",
      "collect_status" : 0,
      "dishes" : [

      ],
      "rcs" : [

      ],
      "ipit" : 0,
      "ecs" : 1,
      "original_photo_path" : "http:\/\/i1.douguo.net\/upload\/caiku\/b\/9\/6\/yuan_b9df6c7b76513893c594b9f11edec126.jpeg",
      "rpst" : "",
      "vu" : "",
      "cookwares" : [

      ],
      "dish_count_text" : "24",
      "photo_path" : "https:\/\/i1.douguo.com\/upload\/caiku\/b\/9\/6\/600_b9df6c7b76513893c594b9f11edec126.jpeg",
      "comments_count_text" : "23",
      "ipci" : "",
      "rips" : 0,
      "favo_counts" : 11230,
      "tips" : "全程小火，注意糊锅。",
      "title" : "奶油蘑菇汤",
      "display_ingredient" : 1,
      "hq" : 1,
      "bs" : [

      ],
      "vfurl" : "",
      "cook_id" : "3155939",
      "cookstory" : "吃西餐偶然间爱上了这道奶油蘑菇汤，奶香浓郁，回味悠然，自己也可以在家做啦，非常的简单。",
      "act_des" : "",
      "release_time" : "",
      "clicks" : "1",
      "recommendation_tag" : "",
      "eu" : "recipes:\/\/www.douguo.com\/postdetail?id=242016",
      "minor" : [

      ],
      "sc" : 0,
      "recommend_label" : "24人学做",
      "cook_time" : "10分钟左右",
      "story_dsp" : [

      ],
      "author" : "牵小孩的牛🌙",
      "sr" : "",
      "thumb_path" : "https:\/\/i1.douguo.com\/upload\/caiku\/b\/9\/6\/300_b9df6c7b76513893c594b9f11edec126.jpeg"
    }
  },
  "state" : "success",
  "status" : 0
}