{
  "result" : {
    "recipe" : {
      "favo_counts_text" : "6319",
      "act_des" : "",
      "hqu" : "recipes:\/\/www.douguo.com\/notedetail?id=21162253",
      "views_count_text" : "36.5万",
      "author_verified" : 1,
      "ss" : [

      ],
      "rate" : 5,
      "cookwares" : [

      ],
      "packages_id" : [

      ],
      "sc" : 0,
      "purl" : "",
      "guide_image" : "",
      "mid_mdsp" : [

      ],
      "rate_count" : 1,
      "cook_difficulty" : "切墩(初级)",
      "recipe_list_tags" : [
        {
          "right_image" : "",
          "text" : "关注的人",
          "background_start_color" : "#F4F5F5",
          "background_border_color" : "",
          "jump_url" : "",
          "text_color" : "#141515",
          "background_end_color" : "#F4F5F5"
        },
        {
          "text" : "内容详细",
          "background_border_color" : "",
          "background_start_color" : "#F4F5F5",
          "text_color" : "#141515",
          "right_image" : "",
          "background_end_color" : "#F4F5F5",
          "jump_url" : ""
        }
      ],
      "sr" : "",
      "thumb_path" : "https:\/\/i1.douguo.com\/upload\/caiku\/c\/0\/4\/300_c0ce0e419f10931d0faf87ba1957d704.jpg",
      "rips" : 0,
      "rate_show" : 0,
      "author_id" : 11730137,
      "share_info" : {
        "name" : "#做道懒人菜，轻松享假期#溜猪肝-会做饭很酷!",
        "qr_image" : "",
        "image" : "https:\/\/cp1.douguo.com\/upload\/caiku\/c\/0\/4\/c0ce0e419f10931d0faf87ba1957d704.jpg",
        "s_u" : "http:\/\/m.douguo.com\/cookbook\/2295812.html",
        "object_id" : "2295812",
        "mini_program" : [

        ],
        "infos" : [
          {
            "channel" : "1",
            "s_u" : "",
            "qr_image" : "",
            "s_d" : "#学做饭用豆果美食# 我在@豆果美食 分享了【#做道懒人菜，轻松享假期#溜猪肝-会做饭很酷!】，这菜真的很好吃，而且做法简单不难学，还不快来跟我学～查看图片了解菜谱（每天限量免费课程，想跟大师学厨艺就来这https:\/\/m.weibo.cn\/p\/100404i33631）#会做饭很酷# ",
            "image" : "https:\/\/cp1.douguo.com\/upload\/caiku\/c\/0\/4\/c0ce0e419f10931d0faf87ba1957d704.jpg",
            "mini_program" : [

            ],
            "object_id" : "2295812",
            "name" : "#做道懒人菜，轻松享假期#溜猪肝-会做饭很酷!"
          },
          {
            "object_id" : "2295812",
            "mini_program" : [

            ],
            "name" : "#做道懒人菜，轻松享假期#溜猪肝-会做饭很酷!",
            "qr_image" : "",
            "s_u" : "http:\/\/m.douguo.com\/cookbook\/2295812.html",
            "image" : "https:\/\/cp1.douguo.com\/upload\/caiku\/c\/0\/4\/c0ce0e419f10931d0faf87ba1957d704.jpg",
            "s_d" : "#做道懒人菜，轻松享假期#溜猪肝-会做饭很酷!",
            "channel" : "7"
          },
          {
            "s_d" : "#做道懒人菜，轻松享假期#溜猪肝-会做饭很酷!",
            "image" : "https:\/\/cp1.douguo.com\/upload\/caiku\/c\/0\/4\/c0ce0e419f10931d0faf87ba1957d704.jpg",
            "channel" : "8",
            "object_id" : "2295812",
            "name" : "#做道懒人菜，轻松享假期#溜猪肝-会做饭很酷!",
            "s_u" : "http:\/\/m.douguo.com\/cookbook\/2295812.html",
            "qr_image" : "",
            "mini_program" : [

            ]
          }
        ],
        "s_d" : "#做道懒人菜，轻松享假期#溜猪肝-会做饭很酷!"
      },
      "major" : [
        {
          "note" : "370克",
          "tu" : "https:\/\/m.douguo.com\/ingredients\/猪肝\/detailmaterial",
          "title" : "猪肝"
        },
        {
          "note" : "1 个",
          "tu" : "https:\/\/m.douguo.com\/ingredients\/红椒\/detailmaterial",
          "title" : "红椒"
        },
        {
          "note" : "1个",
          "title" : "青椒",
          "tu" : "https:\/\/m.douguo.com\/ingredients\/青椒\/detailmaterial"
        },
        {
          "note" : "1块",
          "title" : "生姜",
          "tu" : "https:\/\/m.douguo.com\/ingredients\/生姜\/detailmaterial"
        },
        {
          "tu" : "https:\/\/m.douguo.com\/ingredients\/蒜瓣\/detailmaterial",
          "note" : "4瓣",
          "title" : "蒜瓣"
        },
        {
          "note" : "4个",
          "title" : "尖辣椒"
        },
        {
          "note" : "8克",
          "title" : "老抽",
          "tu" : "https:\/\/m.douguo.com\/ingredients\/老抽\/detailmaterial"
        },
        {
          "title" : "盐",
          "tu" : "https:\/\/m.douguo.com\/ingredients\/盐\/detailmaterial",
          "note" : "6克"
        },
        {
          "tu" : "https:\/\/m.douguo.com\/ingredients\/糖\/detailmaterial",
          "note" : "3克",
          "title" : "糖"
        }
      ],
      "favo_counts" : 6319,
      "display_ingredient" : 1,
      "rrps" : [

      ],
      "rdsps" : [

      ],
      "comments" : [
        "{\n    ac = \"#999999\";\n    at = \"\\U6210\\U90fd\\U5e02\";\n    ccc = 2;\n    \"child_comments\" =     (\n                {\n            ac = \"#999999\";\n            at = \"\\U5f90\\U5dde\\U5e02\";\n            ccc = 0;\n            city = \"\\U5f90\\U5dde\\U5e02\";\n            cmc = 2;\n            content =             (\n                                {\n                    c = \" \\U8fd9\\U6837\\U505a\\U4e0d\\U8001\";\n                }\n            );\n            ia = 1;\n            id = 6830951;\n            \"ip_address_location\" = \"\";\n            like = 0;\n            \"like_count\" = 0;\n            \"reply_id\" = 6572083;\n            \"reply_user\" =             {\n                \"followers_count_text\" = \"\";\n                id = 4445963;\n                \"is_prime\" = 0;\n                lv = 0;\n                lvl = 2;\n                n = \"\\U7ae5\\U989c\\U8da3\\U7440\";\n                p = \"http:\/\/tx1.douguo.net\/upload\/photo\/8\/a\/6\/70_u00607998818620164839.jpg\";\n                \"progress_image\" = \"\";\n                \"recipes_count_text\" = \"\";\n                relationship = \"-1\";\n                title = \"\";\n                v = 0;\n                \"verified_image\" = \"\";\n            };\n            \"sticker_icon\" =             (\n            );\n            time = \"2019-07-28 15:37:16\";\n            u =             {\n                \"followers_count_text\" = \"\";\n                id = 11730137;\n                \"is_prime\" = 0;\n                lv = 0;\n                lvl = 6;\n                n = \"\\U6e05\\U96c5\\U5c0f\\U53a8\";\n                p = \"http:\/\/tx1.douguo.net\/upload\/photo\/1\/f\/0\/70_u44921363783284000415.jpg\";\n                \"progress_image\" = \"\";\n                \"recipes_count_text\" = \"\";\n                relationship = \"-1\";\n                title = \"\";\n                v = 1;\n                \"verified_image\" = \"\";\n            };\n        },\n                {\n            ac = \"#999999\";\n            at = \"\\U8346\\U95e8\\U5e02\";\n            ccc = 0;\n            city = \"\\U8346\\U95e8\\U5e02\";\n            cmc = 2;\n            content =             (\n                                {\n                    c = \" \\U4e0d\\U8001\\Uff0c\\U5403\\U8d77\\U6765\\U7684\\U53e3\\U611f\\U4e5f\\U4e0d\\U597d\";\n                }\n            );\n            ia = 0;\n            id = 8468709;\n            \"ip_address_location\" = \"\";\n            like = 0;\n            \"like_count\" = 0;\n            \"reply_id\" = 6572083;\n            \"reply_user\" =             {\n                \"followers_count_text\" = \"\";\n                id = 4445963;\n                \"is_prime\" = 0;\n                lv = 0;\n                lvl = 2;\n                n = \"\\U7ae5\\U989c\\U8da3\\U7440\";\n                p = \"http:\/\/tx1.douguo.net\/upload\/photo\/8\/a\/6\/70_u00607998818620164839.jpg\";\n                \"progress_image\" = \"\";\n                \"recipes_count_text\" = \"\";\n                relationship = \"-1\";\n                title = \"\";\n                v = 0;\n                \"verified_image\" = \"\";\n            };\n            \"sticker_icon\" =             (\n            );\n            time = \"2021-01-21 22:43:43\";\n            u =             {\n                \"followers_count_text\" = \"\";\n                id = 26231321;\n                \"is_prime\" = 0;\n                lv = 0;\n                lvl = 1;\n                n = \"\\U559c\\U6ecb\\U6ecb\\U7684\\U864e\\U6756\\U5f88\\U4e30\\U6ee1\";\n                p = \"http:\/\/tx1.douguo.net\/upload\/photo\/1\/1\/1\/70_97119ebfe9308f3a32e469b1b0b28f49.png\";\n                \"progress_image\" = \"\";\n                \"recipes_count_text\" = \"\";\n                relationship = \"-1\";\n                title = \"\";\n                v = 0;\n                \"verified_image\" = \"\";\n            };\n        }\n    );\n    city = \"\\U6210\\U90fd\\U5e02\";\n    cmc = 2;\n    content =     (\n                {\n            c = \"\\U8fd9\\U6837\\U505a\\U51fa\\U6765\\U7684\\U732a\\U809d\\U4e0d\\U8001\\U5417\\Uff1f\";\n        }\n    );\n    ia = 0;\n    id = 6572083;\n    \"ip_address_location\" = \"\";\n    like = 0;\n    \"like_count\" = 1;\n    \"reply_id\" = 0;\n    \"sticker_icon\" =     (\n    );\n    time = \"2019-05-05 03:52:12\";\n    u =     {\n        \"followers_count_text\" = \"\";\n        id = 4445963;\n        \"is_prime\" = 0;\n        lv = 0;\n        lvl = 2;\n        n = \"\\U7ae5\\U989c\\U8da3\\U7440\";\n        p = \"http:\/\/tx1.douguo.net\/upload\/photo\/8\/a\/6\/70_u00607998818620164839.jpg\";\n        \"progress_image\" = \"\";\n        \"recipes_count_text\" = \"\";\n        relationship = \"-1\";\n        title = \"\";\n        v = 0;\n        \"verified_image\" = \"\";\n    };\n}",
        "{\n    ac = \"#999999\";\n    at = \"\\U5317\\U4eac\\U5e02\";\n    ccc = 1;\n    \"child_comments\" =     (\n                {\n            ac = \"#999999\";\n            at = \"\\U5f90\\U5dde\\U5e02\";\n            ccc = 0;\n            city = \"\\U5f90\\U5dde\\U5e02\";\n            cmc = 2;\n            content =             (\n                                {\n                    c = \" \\U4e48\\U4e48\\U54d2\\Ud83d\\Ude18\";\n                }\n            );\n            ia = 1;\n            id = 6830953;\n            \"ip_address_location\" = \"\";\n            like = 0;\n            \"like_count\" = 0;\n            \"reply_id\" = 6654785;\n            \"reply_user\" =             {\n                \"followers_count_text\" = \"\";\n                id = 23081499;\n                \"is_prime\" = 0;\n                lv = 0;\n                lvl = 4;\n                n = yoyoxxx;\n                p = \"http:\/\/tx1.douguo.net\/upload\/photo\/e\/5\/9\/70_u45963417198591133527.jpeg\";\n                \"progress_image\" = \"\";\n                \"recipes_count_text\" = \"\";\n                relationship = \"-1\";\n                title = \"\";\n                v = 0;\n                \"verified_image\" = \"\";\n            };\n            \"sticker_icon\" =             (\n            );\n            time = \"2019-07-28 15:37:47\";\n            u =             {\n                \"followers_count_text\" = \"\";\n                id = 11730137;\n                \"is_prime\" = 0;\n                lv = 0;\n                lvl = 6;\n                n = \"\\U6e05\\U96c5\\U5c0f\\U53a8\";\n                p = \"http:\/\/tx1.douguo.net\/upload\/photo\/1\/f\/0\/70_u44921363783284000415.jpg\";\n                \"progress_image\" = \"\";\n                \"recipes_count_text\" = \"\";\n                relationship = \"-1\";\n                title = \"\";\n                v = 1;\n                \"verified_image\" = \"\";\n            };\n        }\n    );\n    city = \"\\U5317\\U4eac\\U5e02\";\n    cmc = 2;\n    content =     (\n                {\n            c = \"\\U8d85\\U559c\\U6b22\";\n        }\n    );\n    ia = 0;\n    id = 6654785;\n    \"ip_address_location\" = \"\";\n    like = 0;\n    \"like_count\" = 1;\n    \"reply_id\" = 0;\n    \"sticker_icon\" =     (\n    );\n    time = \"2019-06-10 21:43:06\";\n    u =     {\n        \"followers_count_text\" = \"\";\n        id = 23081499;\n        \"is_prime\" = 0;\n        lv = 0;\n        lvl = 4;\n        n = yoyoxxx;\n        p = \"http:\/\/tx1.douguo.net\/upload\/photo\/e\/5\/9\/70_u45963417198591133527.jpeg\";\n        \"progress_image\" = \"\";\n        \"recipes_count_text\" = \"\";\n        relationship = \"-1\";\n        title = \"\";\n        v = 0;\n        \"verified_image\" = \"\";\n    };\n}",
        "{\n    ac = \"#999999\";\n    at = \"\\U957f\\U6625\\U5e02\";\n    ccc = 1;\n    \"child_comments\" =     (\n                {\n            ac = \"#999999\";\n            at = \"\\U5f90\\U5dde\\U5e02\";\n            ccc = 0;\n            city = \"\\U5f90\\U5dde\\U5e02\";\n            cmc = 2;\n            content =             (\n                                {\n                    c = \" \\U8fd9\\U6837\\U505a\\U4e0d\\U4f1a\\U8001\\Ud83d\\Ude18\";\n                }\n            );\n            ia = 1;\n            id = 6830961;\n            \"ip_address_location\" = \"\";\n            like = 0;\n            \"like_count\" = 0;\n            \"reply_id\" = 6821476;\n            \"reply_user\" =             {\n                \"followers_count_text\" = \"\";\n                id = 22956441;\n                \"is_prime\" = 0;\n                lv = 0;\n                lvl = 1;\n                n = \"\\U6d45\\U6d45\\U5fae\\U751c\";\n                p = \"http:\/\/tx1.douguo.net\/upload\/photo\/6\/0\/9\/70_u43126240141553115025.jpg\";\n                \"progress_image\" = \"\";\n                \"recipes_count_text\" = \"\";\n                relationship = \"-1\";\n                title = \"\";\n                v = 0;\n                \"verified_image\" = \"\";\n            };\n            \"sticker_icon\" =             (\n            );\n            time = \"2019-07-28 15:38:23\";\n            u =             {\n                \"followers_count_text\" = \"\";\n                id = 11730137;\n                \"is_prime\" = 0;\n                lv = 0;\n                lvl = 6;\n                n = \"\\U6e05\\U96c5\\U5c0f\\U53a8\";\n                p = \"http:\/\/tx1.douguo.net\/upload\/photo\/1\/f\/0\/70_u44921363783284000415.jpg\";\n                \"progress_image\" = \"\";\n                \"recipes_count_text\" = \"\";\n                relationship = \"-1\";\n                title = \"\";\n                v = 1;\n                \"verified_image\" = \"\";\n            };\n        }\n    );\n    city = \"\\U957f\\U6625\\U5e02\";\n    cmc = 2;\n    content =     (\n                {\n            c = \"\\U732a\\U809d\\U8981\\U716e\\U591a\\U4e45\\Uff1f\\U4e0d\\U653e\\U6dc0\\U7c89\\U4f1a\\U4e0d\\U4f1a\\U8001\\Uff1f\";\n        }\n    );\n    ia = 0;\n    id = 6821476;\n    \"ip_address_location\" = \"\";\n    like = 0;\n    \"like_count\" = 0;\n    \"reply_id\" = 0;\n    \"sticker_icon\" =     (\n    );\n    time = \"2019-07-25 19:07:03\";\n    u =     {\n        \"followers_count_text\" = \"\";\n        id = 22956441;\n        \"is_prime\" = 0;\n        lv = 0;\n        lvl = 1;\n        n = \"\\U6d45\\U6d45\\U5fae\\U751c\";\n        p = \"http:\/\/tx1.douguo.net\/upload\/photo\/6\/0\/9\/70_u43126240141553115025.jpg\";\n        \"progress_image\" = \"\";\n        \"recipes_count_text\" = \"\";\n        relationship = \"-1\";\n        title = \"\";\n        v = 0;\n        \"verified_image\" = \"\";\n    };\n}"
      ],
      "user" : {
        "verified_url" : "https:\/\/m.douguo.com\/user\/prodesc",
        "user_photo" : "http:\/\/tx1.douguo.net\/upload\/photo\/1\/f\/0\/70_u44921363783284000415.jpg",
        "user_large_photo" : "http:\/\/tx1.douguo.net\/upload\/photo\/1\/f\/0\/yuan_u44921363783284000415.jpg",
        "sign" : "",
        "is_prime" : 0,
        "user_cover" : "",
        "favor_diaries_count" : 0,
        "weibo_nick" : "",
        "userid" : "11730137",
        "fc" : 0,
        "recipes_count" : 0,
        "point" : 0,
        "qq_weibo_nick" : "",
        "coursecount" : 0,
        "gender" : 2,
        "email" : "",
        "age" : "",
        "dishes_count" : 0,
        "user_id" : "11730137",
        "nick" : "清雅小厨",
        "verified_image" : "https:\/\/i1.douguo.com\/upload\/note\/d\/a\/a\/da84247847aebe48d9dd0fcdac88862a.png",
        "birthday" : "",
        "mobile" : "",
        "qzone_nick" : "",
        "following_count" : 0,
        "location" : 0,
        "avatar_medium" : "http:\/\/tx1.douguo.net\/upload\/photo\/1\/f\/0\/140_u44921363783284000415.jpg",
        "subscription" : 0,
        "followers_count" : 0,
        "diaries_count" : 0,
        "verified" : 1,
        "pc" : 0,
        "lv" : 0,
        "introduction" : "",
        "lvl" : 6,
        "regist_time" : "",
        "progress_image" : "",
        "subscription_article_count" : 0,
        "favorites_count" : 0,
        "setted_email" : 0
      },
      "cook_time" : "10分钟左右",
      "original_photo_path" : "http:\/\/i1.douguo.net\/upload\/caiku\/c\/0\/4\/yuan_c0ce0e419f10931d0faf87ba1957d704.jpg",
      "title_ad" : [

      ],
      "first_level_comment_count" : 6,
      "rsm" : "该功能暂停使用",
      "tips" : "每个人口感不同，根据自己的喜好，适当减少或者增加盐和其他佐料的摄用量",
      "recommended" : 0,
      "related_ads" : [

      ],
      "author" : "清雅小厨",
      "comments_count_text" : "11",
      "ssu" : "",
      "ipoi" : "",
      "rewarded_video_dsp" : [

      ],
      "btm_dsp" : [

      ],
      "title" : "溜猪肝",
      "event" : {
        "id" : 0
      },
      "cookstory" : "猪肝含有丰富的营养物质，是最理想的补血和补铁神器，还具有补肝明目功效 ",
      "vfurl" : "",
      "ipit" : 0,
      "ipia" : [

      ],
      "recommendation_tag" : "",
      "release_time" : "",
      "hq" : 1,
      "comments_count" : 11,
      "clicks" : "352332",
      "ecs" : 0,
      "eu" : "recipes:\/\/www.douguo.com\/postdetail?id=242016",
      "v_u" : "",
      "cook_time_image" : "https:\/\/i1.douguo.com\/upload\/banner\/1551424358.png",
      "ipurl" : "",
      "minor" : [

      ],
      "dish_count_text" : "1",
      "tags" : [

      ],
      "thumb_height" : 0,
      "brand_day_dsp" : [

      ],
      "story_dsp" : [

      ],
      "rcs" : [

      ],
      "old_comments" : [

      ],
      "dish_count" : 1,
      "rrpt" : "",
      "photo_path" : "https:\/\/i1.douguo.com\/upload\/caiku\/c\/0\/4\/600_c0ce0e419f10931d0faf87ba1957d704.jpg",
      "rpt" : "",
      "create_time" : "2019-05-04 11:44:14",
      "cook_difficulty_image" : "https:\/\/i1.douguo.com\/upload\/banner\/1551424390.png",
      "levelid" : 2,
      "vu" : "",
      "recent_comments" : [

      ],
      "ipt" : "",
      "cookstep" : [
        {
          "content" : "食材大合集",
          "image_height" : 599,
          "image" : "https:\/\/i1.douguo.com\/upload\/caiku\/7\/2\/9\/720c4da7f7b27b03bc7b20b4fd6bbd69.jpg",
          "image_width" : 799,
          "thumb" : "https:\/\/i1.douguo.com\/upload\/caiku\/7\/2\/9\/140_720c4da7f7b27b03bc7b20b4fd6bbd69.jpg",
          "position" : 1,
          "frame" : "-1"
        },
        {
          "image_height" : 600,
          "image_width" : 800,
          "thumb" : "https:\/\/i1.douguo.com\/upload\/caiku\/5\/c\/b\/140_5c868fd84fada14b2f818af2969ff02b.jpg",
          "content" : "猪肝切薄片，青红椒切片，尖辣椒切碎，生姜和蒜瓣切成米",
          "image" : "https:\/\/i1.douguo.com\/upload\/caiku\/5\/c\/b\/5c868fd84fada14b2f818af2969ff02b.jpg",
          "position" : 2,
          "frame" : "-1"
        },
        {
          "position" : 3,
          "frame" : "-1",
          "image_height" : 600,
          "image_width" : 800,
          "content" : "锅里放水烧开倒入猪肝和料酒，把浮末捞出",
          "thumb" : "https:\/\/i1.douguo.com\/upload\/caiku\/4\/9\/9\/140_49ec9ac6ed9d66afbb72fcb2de85a2f9.jpg",
          "image" : "https:\/\/i1.douguo.com\/upload\/caiku\/4\/9\/9\/49ec9ac6ed9d66afbb72fcb2de85a2f9.jpg"
        },
        {
          "image" : "https:\/\/i1.douguo.com\/upload\/caiku\/e\/6\/a\/e68c84520ba42428349abd30df9cdb8a.jpg",
          "content" : "捞出猪肝用自来水冲洗一下控水",
          "image_height" : 600,
          "thumb" : "https:\/\/i1.douguo.com\/upload\/caiku\/e\/6\/a\/140_e68c84520ba42428349abd30df9cdb8a.jpg",
          "image_width" : 800,
          "frame" : "-1",
          "position" : 4
        },
        {
          "image_height" : 600,
          "frame" : "-1",
          "image" : "https:\/\/i1.douguo.com\/upload\/caiku\/a\/7\/0\/a776e5fc91cac755dab4d11828acacb0.jpg",
          "thumb" : "https:\/\/i1.douguo.com\/upload\/caiku\/a\/7\/0\/140_a776e5fc91cac755dab4d11828acacb0.jpg",
          "content" : "锅里放油炸香蒜末，生姜末和辣椒碎",
          "position" : 5,
          "image_width" : 800
        },
        {
          "image_width" : 799,
          "position" : 6,
          "image_height" : 600,
          "thumb" : "https:\/\/i1.douguo.com\/upload\/caiku\/b\/2\/d\/140_b2fb35f0d18d1e957bc5d087d43cd9bd.jpg",
          "content" : "倒入猪肝翻炒均匀",
          "image" : "https:\/\/i1.douguo.com\/upload\/caiku\/b\/2\/d\/b2fb35f0d18d1e957bc5d087d43cd9bd.jpg",
          "frame" : "-1"
        },
        {
          "frame" : "-1",
          "image" : "https:\/\/i1.douguo.com\/upload\/caiku\/0\/9\/a\/09b15628d654492bc928c3ede686da1a.jpg",
          "image_height" : 600,
          "content" : "倒入老抽，醋，盐和白糖翻炒均匀",
          "image_width" : 800,
          "thumb" : "https:\/\/i1.douguo.com\/upload\/caiku\/0\/9\/a\/140_09b15628d654492bc928c3ede686da1a.jpg",
          "position" : 7
        },
        {
          "content" : "倒入青红椒片",
          "image" : "https:\/\/i1.douguo.com\/upload\/caiku\/9\/a\/6\/9a16ba85d76acca300656cdfb1bfb1b6.jpg",
          "image_height" : 600,
          "thumb" : "https:\/\/i1.douguo.com\/upload\/caiku\/9\/a\/6\/140_9a16ba85d76acca300656cdfb1bfb1b6.jpg",
          "image_width" : 800,
          "frame" : "-1",
          "position" : 8
        },
        {
          "content" : "翻炒均匀",
          "image_width" : 800,
          "frame" : "-1",
          "position" : 9,
          "image_height" : 600,
          "thumb" : "https:\/\/i1.douguo.com\/upload\/caiku\/5\/d\/7\/140_5df754de3c784ef58ea2f6c47b5004a7.jpg",
          "image" : "https:\/\/i1.douguo.com\/upload\/caiku\/5\/d\/7\/5df754de3c784ef58ea2f6c47b5004a7.jpg"
        },
        {
          "content" : "成品图",
          "image_width" : 800,
          "image" : "https:\/\/i1.douguo.com\/upload\/caiku\/a\/8\/6\/a85e2359fa9cd623290bb6b9fa379b66.jpg",
          "image_height" : 600,
          "thumb" : "https:\/\/i1.douguo.com\/upload\/caiku\/a\/8\/6\/140_a85e2359fa9cd623290bb6b9fa379b66.jpg",
          "position" : 10,
          "frame" : "-1"
        }
      ],
      "bs" : [

      ],
      "top_mdsp" : [

      ],
      "cook_id" : "2295812",
      "cookstorys" : [
        {
          "c" : "猪肝含有丰富的营养物质，是最理想的补血和补铁神器，还具有补肝明目功效 ",
          "id" : 0,
          "u" : "",
          "icon" : "",
          "type" : 0,
          "color" : ""
        }
      ],
      "rpst" : "",
      "ipci" : "",
      "pw" : 1080,
      "rpid" : 0,
      "author_photo" : "http:\/\/tx1.douguo.net\/upload\/photo\/1\/f\/0\/70_u44921363783284000415.jpg",
      "notes" : [

      ],
      "recommend_label" : "1人学做",
      "dishes" : [

      ],
      "ph" : 810,
      "su" : "",
      "advice" : {
        "da" : {
          "url" : "https:\/\/m.douguo.com\/recipe\/nutrient_self\/2295812",
          "t" : "查看详细分析",
          "iu" : "https:\/\/i1.douguo.com\/upload\/banner\/f\/4\/d\/f48877e53c37759bc12ac494be82ec8d.png"
        },
        "at" : "有助于维持皮肤和黏膜健康～",
        "has" : [
          {
            "url" : "recipes:\/\/www.douguo.com\/simplerecipelist?t=富含维生素B2&id=富含维生素B2",
            "t" : "富含维生素B2"
          },
          {
            "url" : "recipes:\/\/www.douguo.com\/simplerecipelist?t=富含维生素C&id=富含维生素C",
            "t" : "富含维生素C"
          }
        ]
      },
      "image" : "http:\/\/i1.douguo.net\/upload\/caiku\/c\/0\/4\/300_c0ce0e419f10931d0faf87ba1957d704.jpg",
      "vc" : "365305",
      "collect_status" : 0,
      "recipe_tags" : [

      ]
    }
  },
  "state" : "success",
  "status" : 0
}