{
  "status" : 0,
  "result" : {
    "recipe" : {
      "ipurl" : "",
      "tags" : [

      ],
      "ecs" : 0,
      "mid_mdsp" : [

      ],
      "rate_show" : 1,
      "ipia" : [

      ],
      "notes" : [

      ],
      "eu" : "recipes:\/\/www.douguo.com\/postdetail?id=242016",
      "rsm" : "该功能暂停使用",
      "rpid" : 0,
      "sr" : "",
      "dish_count_text" : "80",
      "old_comments" : [

      ],
      "cook_difficulty_image" : "",
      "views_count_text" : "164.2万",
      "recommended" : 0,
      "guide_image" : "",
      "cookstep" : [
        {
          "image_height" : 800,
          "position" : 1,
          "content" : "把虾清洗干净，沥干水分，用牙签去掉虾线。",
          "thumb" : "https:\/\/i1.douguo.com\/upload\/caiku\/a\/4\/6\/140_a4e62a11905eb189fa17a9f88a2ca8b6.jpeg",
          "frame" : "-1",
          "image" : "https:\/\/i1.douguo.com\/upload\/caiku\/a\/4\/6\/a4e62a11905eb189fa17a9f88a2ca8b6.jpeg",
          "image_width" : 800
        },
        {
          "content" : "在虾尾2-3厘米处切断。",
          "thumb" : "https:\/\/i1.douguo.com\/upload\/caiku\/9\/2\/6\/140_92829ba495a9458de72a84cce0835ef6.jpeg",
          "frame" : "-1",
          "image_height" : 800,
          "position" : 2,
          "image_width" : 800,
          "image" : "https:\/\/i1.douguo.com\/upload\/caiku\/9\/2\/6\/92829ba495a9458de72a84cce0835ef6.jpeg"
        },
        {
          "image_height" : 800,
          "frame" : "-1",
          "position" : 3,
          "image_width" : 800,
          "thumb" : "https:\/\/i1.douguo.com\/upload\/caiku\/f\/4\/b\/140_f461735192f2e0f1f177312640272a0b.jpeg",
          "content" : "把虾去头去皮，如果虾线清理不干净，也可以在虾背后划一刀清理。",
          "image" : "https:\/\/i1.douguo.com\/upload\/caiku\/f\/4\/b\/f461735192f2e0f1f177312640272a0b.jpeg"
        },
        {
          "frame" : "-1",
          "image_height" : 800,
          "image_width" : 800,
          "thumb" : "https:\/\/i1.douguo.com\/upload\/caiku\/7\/f\/f\/140_7f76e63172ca8228a57f01a7ddb7a8cf.jpeg",
          "content" : "把所有的虾都处理好。",
          "position" : 4,
          "image" : "https:\/\/i1.douguo.com\/upload\/caiku\/7\/f\/f\/7f76e63172ca8228a57f01a7ddb7a8cf.jpeg"
        },
        {
          "image_height" : 800,
          "content" : "土豆削皮切薄片，入微波炉烤约12分钟至熟。",
          "thumb" : "https:\/\/i1.douguo.com\/upload\/caiku\/d\/7\/c\/140_d77c33fcf6d0c4d36b231f71966cf59c.jpeg",
          "frame" : "-1",
          "image" : "https:\/\/i1.douguo.com\/upload\/caiku\/d\/7\/c\/d77c33fcf6d0c4d36b231f71966cf59c.jpeg",
          "position" : 5,
          "image_width" : 800
        },
        {
          "position" : 6,
          "thumb" : "https:\/\/i1.douguo.com\/upload\/caiku\/8\/0\/1\/140_80de9a42650d267c7ee7b653695a92b1.jpeg",
          "image" : "https:\/\/i1.douguo.com\/upload\/caiku\/8\/0\/1\/80de9a42650d267c7ee7b653695a92b1.jpeg",
          "image_height" : 800,
          "image_width" : 800,
          "content" : "把熟透的土豆片放入保鲜袋中，用擀面杖擀成泥。",
          "frame" : "-1"
        },
        {
          "content" : "把虾肉用刀剁成泥。",
          "frame" : "-1",
          "image_height" : 800,
          "image_width" : 800,
          "thumb" : "https:\/\/i1.douguo.com\/upload\/caiku\/2\/6\/a\/140_26aeb67149a60f969d305a38ce46679a.jpeg",
          "position" : 7,
          "image" : "https:\/\/i1.douguo.com\/upload\/caiku\/2\/6\/a\/26aeb67149a60f969d305a38ce46679a.jpeg"
        },
        {
          "content" : "把土豆泥和虾肉泥放入大碗内，加入少许盐，再撒些黑胡椒粉。",
          "thumb" : "https:\/\/i1.douguo.com\/upload\/caiku\/0\/7\/1\/140_07a6ea3f709805581203b160df42ad81.jpeg",
          "frame" : "-1",
          "position" : 8,
          "image_width" : 800,
          "image_height" : 800,
          "image" : "https:\/\/i1.douguo.com\/upload\/caiku\/0\/7\/1\/07a6ea3f709805581203b160df42ad81.jpeg"
        },
        {
          "thumb" : "https:\/\/i1.douguo.com\/upload\/caiku\/3\/c\/4\/140_3c3eeb955de4f59e853cf93ee3794b04.jpeg",
          "image" : "https:\/\/i1.douguo.com\/upload\/caiku\/3\/c\/4\/3c3eeb955de4f59e853cf93ee3794b04.jpeg",
          "content" : "用手把土豆泥和虾泥以及调料抓匀。",
          "image_height" : 800,
          "position" : 9,
          "image_width" : 800,
          "frame" : "-1"
        },
        {
          "content" : "把土豆虾泥分成10等份，搓成小圆球状。",
          "image" : "https:\/\/i1.douguo.com\/upload\/caiku\/9\/5\/8\/95f598bd82afdf343702c15457182d08.jpeg",
          "thumb" : "https:\/\/i1.douguo.com\/upload\/caiku\/9\/5\/8\/140_95f598bd82afdf343702c15457182d08.jpeg",
          "image_height" : 800,
          "image_width" : 800,
          "position" : 10,
          "frame" : "-1"
        },
        {
          "image_width" : 800,
          "position" : 11,
          "image_height" : 800,
          "image" : "https:\/\/i1.douguo.com\/upload\/caiku\/8\/c\/e\/8cb63b818371501c0c6beb605357cffe.jpeg",
          "content" : "取一份土豆虾泥压平，在中间放入少许马苏里拉奶酪。",
          "thumb" : "https:\/\/i1.douguo.com\/upload\/caiku\/8\/c\/e\/140_8cb63b818371501c0c6beb605357cffe.jpeg",
          "frame" : "-1"
        },
        {
          "image" : "https:\/\/i1.douguo.com\/upload\/caiku\/d\/5\/8\/d56b4e86aa99dfa83021b30fb4f1b608.jpeg",
          "image_width" : 800,
          "thumb" : "https:\/\/i1.douguo.com\/upload\/caiku\/d\/5\/8\/140_d56b4e86aa99dfa83021b30fb4f1b608.jpeg",
          "frame" : "-1",
          "content" : "然后收口，留点空隙。",
          "position" : 12,
          "image_height" : 800
        },
        {
          "image" : "https:\/\/i1.douguo.com\/upload\/caiku\/2\/4\/4\/244074770c0a848159ae6c764dcc1154.jpeg",
          "position" : 13,
          "thumb" : "https:\/\/i1.douguo.com\/upload\/caiku\/2\/4\/4\/140_244074770c0a848159ae6c764dcc1154.jpeg",
          "frame" : "-1",
          "image_width" : 800,
          "content" : "把虾尾插入土豆虾球中，收好边，捏紧了。",
          "image_height" : 800
        },
        {
          "content" : "鸡蛋打散，包好的虾球裹上鸡蛋液。",
          "image_height" : 800,
          "image_width" : 800,
          "thumb" : "https:\/\/i1.douguo.com\/upload\/caiku\/b\/b\/b\/140_bbba044f2aeaf3a8bcf79fab2573d5cb.jpeg",
          "frame" : "-1",
          "position" : 14,
          "image" : "https:\/\/i1.douguo.com\/upload\/caiku\/b\/b\/b\/bbba044f2aeaf3a8bcf79fab2573d5cb.jpeg"
        },
        {
          "image_width" : 800,
          "image" : "https:\/\/i1.douguo.com\/upload\/caiku\/5\/f\/7\/5f4fe8fcbd465ccefc01d4c8697bf3b7.jpeg",
          "thumb" : "https:\/\/i1.douguo.com\/upload\/caiku\/5\/f\/7\/140_5f4fe8fcbd465ccefc01d4c8697bf3b7.jpeg",
          "content" : "再裹上满满的面包糠。",
          "frame" : "-1",
          "image_height" : 800,
          "position" : 15
        },
        {
          "image" : "https:\/\/i1.douguo.com\/upload\/caiku\/d\/6\/c\/d606f39e11119f2f088882ebeb1c00bc.jpeg",
          "position" : 16,
          "image_width" : 800,
          "image_height" : 800,
          "content" : "在锅内倒入食用油，烧至六七成热，把虾球入油锅内炸制，虾球刚下过别急的翻动。待虾球一定炸制固定了再翻动其他面继续炸制。",
          "frame" : "-1",
          "thumb" : "https:\/\/i1.douguo.com\/upload\/caiku\/d\/6\/c\/140_d606f39e11119f2f088882ebeb1c00bc.jpeg"
        },
        {
          "thumb" : "https:\/\/i1.douguo.com\/upload\/caiku\/a\/a\/d\/140_aa948484e795c61bf9ef1d5ccd209e8d.jpeg",
          "image" : "https:\/\/i1.douguo.com\/upload\/caiku\/a\/a\/d\/aa948484e795c61bf9ef1d5ccd209e8d.jpeg",
          "position" : 17,
          "image_width" : 800,
          "image_height" : 533,
          "frame" : "-1",
          "content" : "成品图。"
        },
        {
          "thumb" : "https:\/\/i1.douguo.com\/upload\/caiku\/9\/b\/4\/140_9b256ef8ed81054e59347d841fe976e4.jpeg",
          "image_height" : 533,
          "frame" : "-1",
          "image" : "https:\/\/i1.douguo.com\/upload\/caiku\/9\/b\/4\/9b256ef8ed81054e59347d841fe976e4.jpeg",
          "image_width" : 800,
          "position" : 18,
          "content" : "成品图。"
        },
        {
          "image_width" : 800,
          "content" : "成品图。",
          "position" : 19,
          "thumb" : "https:\/\/i1.douguo.com\/upload\/caiku\/b\/3\/9\/140_b3d700df80c857234eae829a9c134259.jpeg",
          "image" : "https:\/\/i1.douguo.com\/upload\/caiku\/b\/3\/9\/b3d700df80c857234eae829a9c134259.jpeg",
          "image_height" : 533,
          "frame" : "-1"
        },
        {
          "image" : "https:\/\/i1.douguo.com\/upload\/caiku\/c\/d\/b\/cdbe6958119ba1bec981bf58d104cd1b.jpeg",
          "image_width" : 800,
          "thumb" : "https:\/\/i1.douguo.com\/upload\/caiku\/c\/d\/b\/140_cdbe6958119ba1bec981bf58d104cd1b.jpeg",
          "frame" : "-1",
          "content" : "成品图。",
          "position" : 20,
          "image_height" : 533
        }
      ],
      "v_u" : "",
      "rpt" : "",
      "image" : "http:\/\/i1.douguo.net\/upload\/caiku\/d\/c\/8\/300_dce769465325d5e4c8daf5f0a92b57a8.jpeg",
      "photo_path" : "https:\/\/i1.douguo.com\/upload\/caiku\/d\/c\/8\/600_dce769465325d5e4c8daf5f0a92b57a8.jpeg",
      "btm_dsp" : [

      ],
      "rrps" : [

      ],
      "title" : "黄金虾球",
      "rcs" : [

      ],
      "ph" : 533,
      "related_ads" : [

      ],
      "user" : {
        "avatar_medium" : "http:\/\/tx1.douguo.net\/upload\/photo\/d\/b\/c\/140_db70d8b669d433361dc265411ff134ac.jpeg",
        "introduction" : "",
        "subscription" : 0,
        "pc" : 0,
        "userid" : "17612751",
        "verified" : 1,
        "sign" : "",
        "user_photo" : "http:\/\/tx1.douguo.net\/upload\/photo\/d\/b\/c\/70_db70d8b669d433361dc265411ff134ac.jpeg",
        "coursecount" : 0,
        "subscription_article_count" : 0,
        "location" : 0,
        "qzone_nick" : "",
        "recipes_count" : 0,
        "favor_diaries_count" : 0,
        "nick" : "风意画",
        "mobile" : "",
        "progress_image" : "",
        "weibo_nick" : "",
        "qq_weibo_nick" : "",
        "user_id" : "17612751",
        "gender" : 2,
        "verified_url" : "https:\/\/m.douguo.com\/user\/prodesc",
        "user_cover" : "",
        "lvl" : 6,
        "birthday" : "",
        "following_count" : 0,
        "is_prime" : 0,
        "age" : "",
        "user_large_photo" : "http:\/\/tx1.douguo.net\/upload\/photo\/d\/b\/c\/yuan_db70d8b669d433361dc265411ff134ac.jpeg",
        "diaries_count" : 0,
        "verified_image" : "https:\/\/i1.douguo.com\/upload\/note\/d\/a\/a\/da84247847aebe48d9dd0fcdac88862a.png",
        "fc" : 0,
        "lv" : 0,
        "dishes_count" : 0,
        "point" : 0,
        "followers_count" : 0,
        "setted_email" : 0,
        "favorites_count" : 0,
        "email" : "",
        "regist_time" : ""
      },
      "brand_day_dsp" : [

      ],
      "ipt" : "",
      "thumb_path" : "https:\/\/i1.douguo.com\/upload\/caiku\/d\/c\/8\/300_dce769465325d5e4c8daf5f0a92b57a8.jpeg",
      "share_info" : {
        "qr_image" : "",
        "object_id" : "1444839",
        "s_d" : "黄金虾球-会做饭很酷!",
        "infos" : [
          {
            "qr_image" : "",
            "name" : "黄金虾球-会做饭很酷!",
            "image" : "https:\/\/cp1.douguo.com\/upload\/caiku\/d\/c\/8\/dce769465325d5e4c8daf5f0a92b57a8.jpeg",
            "channel" : "1",
            "mini_program" : [

            ],
            "object_id" : "1444839",
            "s_d" : "#学做饭用豆果美食# 我在@豆果美食 分享了【黄金虾球-会做饭很酷!】，色香味俱全说的就是这道菜！查看图片了解菜谱（快来点击https:\/\/m.weibo.cn\/p\/100404i33631和我一起修炼厨艺吧）#会做饭很酷# ",
            "s_u" : ""
          },
          {
            "name" : "黄金虾球-会做饭很酷!",
            "s_u" : "http:\/\/m.douguo.com\/cookbook\/1444839.html",
            "object_id" : "1444839",
            "qr_image" : "",
            "image" : "https:\/\/cp1.douguo.com\/upload\/caiku\/d\/c\/8\/dce769465325d5e4c8daf5f0a92b57a8.jpeg",
            "s_d" : "黄金虾球-会做饭很酷!",
            "channel" : "7",
            "mini_program" : [

            ]
          },
          {
            "qr_image" : "",
            "s_d" : "黄金虾球-会做饭很酷!",
            "channel" : "8",
            "image" : "https:\/\/cp1.douguo.com\/upload\/caiku\/d\/c\/8\/dce769465325d5e4c8daf5f0a92b57a8.jpeg",
            "mini_program" : [

            ],
            "s_u" : "http:\/\/m.douguo.com\/cookbook\/1444839.html",
            "name" : "黄金虾球-会做饭很酷!",
            "object_id" : "1444839"
          }
        ],
        "mini_program" : [

        ],
        "name" : "黄金虾球-会做饭很酷!",
        "image" : "https:\/\/cp1.douguo.com\/upload\/caiku\/d\/c\/8\/dce769465325d5e4c8daf5f0a92b57a8.jpeg",
        "s_u" : "http:\/\/m.douguo.com\/cookbook\/1444839.html"
      },
      "cookstorys" : [
        {
          "c" : "虾的做法很多，味道都很不错，今天来一款色香味俱全的黄金虾球，色泽金黄，虾泥混和着土豆泥的香气，拉丝奶酪作为夹馅，是不是很棒呢？！金黄色的虾球特别的夺目讨人爱，我想很多不爱吃虾的孩子也会很喜欢哦，虾本身的营养就很丰富，特别是蛋白质。",
          "color" : "",
          "icon" : "",
          "id" : 0,
          "u" : "",
          "type" : 0
        }
      ],
      "favo_counts_text" : "1.4万",
      "vc" : "1641703",
      "packages_id" : [

      ],
      "original_photo_path" : "http:\/\/i1.douguo.net\/upload\/caiku\/d\/c\/8\/yuan_dce769465325d5e4c8daf5f0a92b57a8.jpeg",
      "major" : [
        {
          "tu" : "https:\/\/m.douguo.com\/ingredients\/明虾\/detailmaterial",
          "note" : "10只",
          "title" : "明虾"
        },
        {
          "note" : "1个（约350克）",
          "title" : "土豆",
          "tu" : "https:\/\/m.douguo.com\/ingredients\/土豆\/detailmaterial"
        },
        {
          "note" : "少许",
          "tu" : "https:\/\/m.douguo.com\/ingredients\/盐\/detailmaterial",
          "title" : "盐"
        },
        {
          "tu" : "https:\/\/m.douguo.com\/ingredients\/黑胡椒粉\/detailmaterial",
          "note" : "少许",
          "title" : "黑胡椒粉"
        },
        {
          "tu" : "https:\/\/m.douguo.com\/ingredients\/马苏里拉奶酪\/detailmaterial",
          "title" : "马苏里拉奶酪",
          "note" : "适量"
        },
        {
          "title" : "鸡蛋",
          "tu" : "https:\/\/m.douguo.com\/ingredients\/鸡蛋\/detailmaterial",
          "note" : "1个"
        },
        {
          "title" : "面包糠",
          "tu" : "https:\/\/m.douguo.com\/ingredients\/面包糠\/detailmaterial",
          "note" : "适量"
        },
        {
          "tu" : "https:\/\/m.douguo.com\/ingredients\/食用油\/detailmaterial",
          "title" : "食用油",
          "note" : "适量"
        }
      ],
      "comments_count" : 61,
      "ipit" : 0,
      "author_photo" : "http:\/\/tx1.douguo.net\/upload\/photo\/d\/b\/c\/70_db70d8b669d433361dc265411ff134ac.jpeg",
      "create_time" : "2016-09-12 12:48:47",
      "thumb_height" : 0,
      "hq" : 1,
      "recent_comments" : [

      ],
      "recommend_label" : "80人学做",
      "rdsps" : [

      ],
      "cookwares" : [

      ],
      "ipci" : "",
      "act_des" : "",
      "dishes" : [

      ],
      "tips" : "1、包虾球的时候如果觉得粘手，可以在左手上抹点食用油，或许像我一样套个手套。 2、油炸时一定记住控制好油温，以免炸焦了。 3、这个虾球可以蘸着蕃茄酱吃，也特别好吃。记得趁热吃，口感才好，中间有拉丝的马苏里奶酪，如果时间长了完全冷却了，估计奶酪就不拉丝咯。 4、面包糠可以去超市购买。",
      "ssu" : "",
      "rrpt" : "",
      "vu" : "",
      "advice" : {
        "da" : {
          "iu" : "https:\/\/i1.douguo.com\/upload\/banner\/f\/4\/d\/f48877e53c37759bc12ac494be82ec8d.png",
          "t" : "查看详细分析",
          "url" : "https:\/\/m.douguo.com\/recipe\/nutrient_self\/1444839"
        },
        "has" : [
          {
            "url" : "recipes:\/\/www.douguo.com\/simplerecipelist?t=富含蛋白质&id=富含蛋白质",
            "t" : "富含蛋白质"
          }
        ],
        "at" : "有助于构成或修复人体组织～"
      },
      "favo_counts" : 14239,
      "su" : "",
      "vfurl" : "",
      "bs" : [

      ],
      "display_ingredient" : 1,
      "recommendation_tag" : "",
      "recipe_tags" : [

      ],
      "rips" : 0,
      "first_level_comment_count" : 28,
      "comments" : [
        "{\n    ac = \"#999999\";\n    at = \"\";\n    ccc = 6;\n    \"child_comments\" =     (\n                {\n            ac = \"#999999\";\n            at = \"\";\n            ccc = 0;\n            city = \"\";\n            cmc = 2;\n            content =             (\n                                {\n                    c = \" \\U5976\\U916a\\U8981\\U533a\\U54ea\\U91cc\\U4e70\\U5462\\Uff1f\";\n                }\n            );\n            ia = 0;\n            id = 4108266;\n            \"ip_address_location\" = \"\";\n            like = 0;\n            \"like_count\" = 0;\n            \"reply_id\" = 4106316;\n            \"reply_user\" =             {\n                \"followers_count_text\" = \"\";\n                id = 17204826;\n                \"is_prime\" = 0;\n                lv = 0;\n                lvl = 3;\n                n = \"\\U7231\\U7f8e\\U98df\\U7684\\U8682\\U8681\";\n                p = \"http:\/\/tx1.douguo.net\/upload\/photo\/7\/e\/5\/70_u61133007725732231558.jpg\";\n                \"progress_image\" = \"\";\n                \"recipes_count_text\" = \"\";\n                relationship = \"-1\";\n                title = \"\";\n                v = 0;\n                \"verified_image\" = \"\";\n            };\n            \"sticker_icon\" =             (\n            );\n            time = \"2016-09-16 11:29:57\";\n            u =             {\n                \"followers_count_text\" = \"\";\n                id = 11261179;\n                \"is_prime\" = 0;\n                lv = 0;\n                lvl = 2;\n                n = \"\\U7231\\U5403\\U69b4\\U83b2\\U7684ZKJ\";\n                p = \"http:\/\/tx1.douguo.net\/upload\/photo\/8\/9\/f\/70_u41764714342931171548.jpg\";\n                \"progress_image\" = \"\";\n                \"recipes_count_text\" = \"\";\n                relationship = \"-1\";\n                title = \"\";\n                v = 0;\n                \"verified_image\" = \"\";\n            };\n        },\n                {\n            ac = \"#999999\";\n            at = \"\";\n            ccc = 0;\n            city = \"\";\n            cmc = 2;\n            content =             (\n                                {\n                    c = \" \\U6211\\U5728\\U7f51\\U4e0a\\U4e70\\U7684\\U3002\";\n                }\n            );\n            ia = 1;\n            id = 4109164;\n            \"ip_address_location\" = \"\";\n            like = 0;\n            \"like_count\" = 0;\n            \"reply_id\" = 4108266;\n            \"reply_user\" =             {\n                \"followers_count_text\" = \"\";\n                id = 11261179;\n                \"is_prime\" = 0;\n                lv = 0;\n                lvl = 2;\n                n = \"\\U7231\\U5403\\U69b4\\U83b2\\U7684ZKJ\";\n                p = \"http:\/\/tx1.douguo.net\/upload\/photo\/8\/9\/f\/70_u41764714342931171548.jpg\";\n                \"progress_image\" = \"\";\n                \"recipes_count_text\" = \"\";\n                relationship = \"-1\";\n                title = \"\";\n                v = 0;\n                \"verified_image\" = \"\";\n            };\n            \"sticker_icon\" =             (\n            );\n            time = \"2016-09-17 01:05:10\";\n            u =             {\n                \"followers_count_text\" = \"\";\n                id = 17612751;\n                \"is_prime\" = 0;\n                lv = 0;\n                lvl = 6;\n                n = \"\\U98ce\\U610f\\U753b\";\n                p = \"http:\/\/tx1.douguo.net\/upload\/photo\/d\/b\/c\/70_db70d8b669d433361dc265411ff134ac.jpeg\";\n                \"progress_image\" = \"\";\n                \"recipes_count_text\" = \"\";\n                relationship = \"-1\";\n                title = \"\";\n                v = 1;\n                \"verified_image\" = \"\";\n            };\n        }\n    );\n    city = \"\";\n    cmc = 2;\n    content =     (\n                {\n            c = \"\\U592a\\U68d2\\U4e86\\Uff01\";\n        }\n    );\n    ia = 0;\n    id = 4106316;\n    \"ip_address_location\" = \"\";\n    like = 0;\n    \"like_count\" = 2;\n    \"reply_id\" = 0;\n    \"sticker_icon\" =     (\n    );\n    time = \"2016-09-15 17:27:30\";\n    u =     {\n        \"followers_count_text\" = \"\";\n        id = 17204826;\n        \"is_prime\" = 0;\n        lv = 0;\n        lvl = 3;\n        n = \"\\U7231\\U7f8e\\U98df\\U7684\\U8682\\U8681\";\n        p = \"http:\/\/tx1.douguo.net\/upload\/photo\/7\/e\/5\/70_u61133007725732231558.jpg\";\n        \"progress_image\" = \"\";\n        \"recipes_count_text\" = \"\";\n        relationship = \"-1\";\n        title = \"\";\n        v = 0;\n        \"verified_image\" = \"\";\n    };\n}",
        "{\n    ac = \"#999999\";\n    at = \"\";\n    ccc = 5;\n    \"child_comments\" =     (\n                {\n            ac = \"#999999\";\n            at = \"\";\n            ccc = 0;\n            city = \"\";\n            cmc = 2;\n            content =             (\n                                {\n                    c = \" \\U662f\\U4e0d\\U662f\\U571f\\U8c46\\U6c34\\U5206\\U8fc7\\U591a\\U4e86\\U5427\";\n                }\n            );\n            ia = 1;\n            id = 4339396;\n            \"ip_address_location\" = \"\";\n            like = 0;\n            \"like_count\" = 0;\n            \"reply_id\" = 4338488;\n            \"reply_user\" =             {\n                \"followers_count_text\" = \"\";\n                id = 17045038;\n                \"is_prime\" = 0;\n                lv = 0;\n                lvl = 1;\n                n = \"\\U7231\\U505a\\U7f8e\\U98df\\U7684\\U5c0f\\U53a8\\U5a18\";\n                p = \"http:\/\/tx1.douguo.net\/upload\/photo\/8\/0\/7\/70_u59670787413369152945.jpeg\";\n                \"progress_image\" = \"\";\n                \"recipes_count_text\" = \"\";\n                relationship = \"-1\";\n                title = \"\";\n                v = 0;\n                \"verified_image\" = \"\";\n            };\n            \"sticker_icon\" =             (\n            );\n            time = \"2016-12-08 07:21:49\";\n            u =             {\n                \"followers_count_text\" = \"\";\n                id = 17612751;\n                \"is_prime\" = 0;\n                lv = 0;\n                lvl = 6;\n                n = \"\\U98ce\\U610f\\U753b\";\n                p = \"http:\/\/tx1.douguo.net\/upload\/photo\/d\/b\/c\/70_db70d8b669d433361dc265411ff134ac.jpeg\";\n                \"progress_image\" = \"\";\n                \"recipes_count_text\" = \"\";\n                relationship = \"-1\";\n                title = \"\";\n                v = 1;\n                \"verified_image\" = \"\";\n            };\n        },\n                {\n            ac = \"#999999\";\n            at = \"\";\n            ccc = 0;\n            city = \"\";\n            cmc = 2;\n            content =             (\n                                {\n                    c = \" \\U8fd8\\U5269\\U5f88\\U591a\\U571f\\U8c46\\U867e\\U6ce5\\Uff0c\\U600e\\U4e48\\U529e\\U5440\\Uff1f\\U52a0\\U6dc0\\U7c89\\U884c\\U4e0d\\U884c\";\n                }\n            );\n            ia = 0;\n            id = 4339818;\n            \"ip_address_location\" = \"\";\n            like = 0;\n            \"like_count\" = 0;\n            \"reply_id\" = 4339396;\n            \"reply_user\" =             {\n                \"followers_count_text\" = \"\";\n                id = 17612751;\n                \"is_prime\" = 0;\n                lv = 0;\n                lvl = 6;\n                n = \"\\U98ce\\U610f\\U753b\";\n                p = \"http:\/\/tx1.douguo.net\/upload\/photo\/d\/b\/c\/70_db70d8b669d433361dc265411ff134ac.jpeg\";\n                \"progress_image\" = \"\";\n                \"recipes_count_text\" = \"\";\n                relationship = \"-1\";\n                title = \"\";\n                v = 1;\n                \"verified_image\" = \"\";\n            };\n            \"sticker_icon\" =             (\n            );\n            time = \"2016-12-08 10:21:02\";\n            u =             {\n                \"followers_count_text\" = \"\";\n                id = 17045038;\n                \"is_prime\" = 0;\n                lv = 0;\n                lvl = 1;\n                n = \"\\U7231\\U505a\\U7f8e\\U98df\\U7684\\U5c0f\\U53a8\\U5a18\";\n                p = \"http:\/\/tx1.douguo.net\/upload\/photo\/8\/0\/7\/70_u59670787413369152945.jpeg\";\n                \"progress_image\" = \"\";\n                \"recipes_count_text\" = \"\";\n                relationship = \"-1\";\n                title = \"\";\n                v = 0;\n                \"verified_image\" = \"\";\n            };\n        }\n    );\n    city = \"\";\n    cmc = 2;\n    content =     (\n                {\n            c = \"\\U6628\\U665a\\U628a\\U51c6\\U5907\\U5de5\\U4f5c\\U63d0\\U524d\\U505a\\U597d\\U4e86\\Uff0c\\U571f\\U8c46\\U6ce5+\\U867e\\U8338\\Uff0c\\U653e\\U51b0\\U7bb1\\U91cc\\U51b7\\U85cf\\U3002\\U4eca\\U65e9\\U571f\\U8c46\\U867e\\U6ce5\\U5f88\\U8f6f\\U70c2\\Uff0c\\U4ee5\\U81f3\\U4e8e\\U56e2\\U4e0d\\U6210\\U4e2a\\U3002\\U4f9d\\U6b21\\U88f9\\U5e72\\U6dc0\\U7c89\\U2014\\U9e21\\U86cb\\U6db2\\U2014\\U9762\\U5305\\U7ce0\\Uff0c\\U90fd\\U4e0d\\U6210\\U5f62\\Uff0c\\U66f4\\U522b\\U63d0\\U7403\\U4e86\\U3002\\U4ec0\\U4e48\\U539f\\U56e0\\U5462\\Uff1f\\U54ea\\U4e00\\U6b65\\U9aa4\\U51fa\\U9519\\U4e86\\Uff1f\";\n        }\n    );\n    ia = 0;\n    id = 4338488;\n    \"ip_address_location\" = \"\";\n    like = 0;\n    \"like_count\" = 0;\n    \"reply_id\" = 0;\n    \"sticker_icon\" =     (\n    );\n    time = \"2016-12-07 22:43:30\";\n    u =     {\n        \"followers_count_text\" = \"\";\n        id = 17045038;\n        \"is_prime\" = 0;\n        lv = 0;\n        lvl = 1;\n        n = \"\\U7231\\U505a\\U7f8e\\U98df\\U7684\\U5c0f\\U53a8\\U5a18\";\n        p = \"http:\/\/tx1.douguo.net\/upload\/photo\/8\/0\/7\/70_u59670787413369152945.jpeg\";\n        \"progress_image\" = \"\";\n        \"recipes_count_text\" = \"\";\n        relationship = \"-1\";\n        title = \"\";\n        v = 0;\n        \"verified_image\" = \"\";\n    };\n}",
        "{\n    ac = \"#999999\";\n    at = \"\";\n    ccc = 3;\n    \"child_comments\" =     (\n                {\n            ac = \"#999999\";\n            at = \"\";\n            ccc = 0;\n            city = \"\";\n            cmc = 2;\n            content =             (\n                                {\n                    c = \" \\U9762\\U5305\\U7ce0\\U4e24\\U79cd\\Uff0c\\U4e00\\U79cd\\U662f\\U6211\\U90a3\\U6837\\U91d1\\U9ec4\\U8272\\U7684\\Uff0c\\U53e6\\U4e00\\U79cd\\U662f\\U767d\\U8272\\U7684\\U3002\\U82e5\\U4f60\\U559c\\U6b22\\U91d1\\U9ec4\\U8272\\U7684\\U53ef\\U4ee5\\U53bb\\U4e70\\U91d1\\U9ec4\\U8272\\U7684\\U54c8\";\n                }\n            );\n            ia = 1;\n            id = 4107132;\n            \"ip_address_location\" = \"\";\n            like = 0;\n            \"like_count\" = 0;\n            \"reply_id\" = 4106659;\n            \"reply_user\" =             {\n                \"followers_count_text\" = \"\";\n                id = 8449632;\n                \"is_prime\" = 0;\n                lv = 0;\n                lvl = 2;\n                n = \"\\U4f59\\U5e9c\\U5f53\\U5bb6\";\n                p = \"http:\/\/tx1.douguo.net\/upload\/photo\/9\/b\/6\/70_u25514477717547203218.jpg\";\n                \"progress_image\" = \"\";\n                \"recipes_count_text\" = \"\";\n                relationship = \"-1\";\n                title = \"\";\n                v = 0;\n                \"verified_image\" = \"\";\n            };\n            \"sticker_icon\" =             (\n            );\n            time = \"2016-09-16 04:21:39\";\n            u =             {\n                \"followers_count_text\" = \"\";\n                id = 17612751;\n                \"is_prime\" = 0;\n                lv = 0;\n                lvl = 6;\n                n = \"\\U98ce\\U610f\\U753b\";\n                p = \"http:\/\/tx1.douguo.net\/upload\/photo\/d\/b\/c\/70_db70d8b669d433361dc265411ff134ac.jpeg\";\n                \"progress_image\" = \"\";\n                \"recipes_count_text\" = \"\";\n                relationship = \"-1\";\n                title = \"\";\n                v = 1;\n                \"verified_image\" = \"\";\n            };\n        },\n                {\n            ac = \"#999999\";\n            at = \"\";\n            ccc = 0;\n            city = \"\";\n            cmc = 2;\n            content =             (\n                                {\n                    c = \" \\U96be\\U602a\\U4e86\\Uff0c\\U6211\\U4eec\\U8fd9\\U8fb9\\U7684\\U8d85\\U5e02\\U53ea\\U6709\\U767d\\U8272\\U7684\\U6ca1\\U6709\\U89c1\\U91d1\\U9ec4\\U8272\";\n                }\n            );\n            ia = 0;\n            id = 4109335;\n            \"ip_address_location\" = \"\";\n            like = 0;\n            \"like_count\" = 0;\n            \"reply_id\" = 4107132;\n            \"reply_user\" =             {\n                \"followers_count_text\" = \"\";\n                id = 17612751;\n                \"is_prime\" = 0;\n                lv = 0;\n                lvl = 6;\n                n = \"\\U98ce\\U610f\\U753b\";\n                p = \"http:\/\/tx1.douguo.net\/upload\/photo\/d\/b\/c\/70_db70d8b669d433361dc265411ff134ac.jpeg\";\n                \"progress_image\" = \"\";\n                \"recipes_count_text\" = \"\";\n                relationship = \"-1\";\n                title = \"\";\n                v = 1;\n                \"verified_image\" = \"\";\n            };\n            \"sticker_icon\" =             (\n            );\n            time = \"2016-09-17 01:40:04\";\n            u =             {\n                \"followers_count_text\" = \"\";\n                id = 8449632;\n                \"is_prime\" = 0;\n                lv = 0;\n                lvl = 2;\n                n = \"\\U4f59\\U5e9c\\U5f53\\U5bb6\";\n                p = \"http:\/\/tx1.douguo.net\/upload\/photo\/9\/b\/6\/70_u25514477717547203218.jpg\";\n                \"progress_image\" = \"\";\n                \"recipes_count_text\" = \"\";\n                relationship = \"-1\";\n                title = \"\";\n                v = 0;\n                \"verified_image\" = \"\";\n            };\n        }\n    );\n    city = \"\";\n    cmc = 2;\n    content =     (\n                {\n            c = \"\\U4e3a\\U4ec0\\U4e48\\U6211\\U4e70\\U7684\\U9762\\U5305\\U7ce0\\U989c\\U8272\\U6de1\\U6de1\\U7684\\Uff0c\\U6ca1\\U6709\\U4f60\\U4e70\\U7684\\U91d1\\U9ec4\\U8272\";\n        }\n    );\n    ia = 0;\n    id = 4106659;\n    \"ip_address_location\" = \"\";\n    like = 0;\n    \"like_count\" = 0;\n    \"reply_id\" = 0;\n    \"sticker_icon\" =     (\n    );\n    time = \"2016-09-16 01:19:32\";\n    u =     {\n        \"followers_count_text\" = \"\";\n        id = 8449632;\n        \"is_prime\" = 0;\n        lv = 0;\n        lvl = 2;\n        n = \"\\U4f59\\U5e9c\\U5f53\\U5bb6\";\n        p = \"http:\/\/tx1.douguo.net\/upload\/photo\/9\/b\/6\/70_u25514477717547203218.jpg\";\n        \"progress_image\" = \"\";\n        \"recipes_count_text\" = \"\";\n        relationship = \"-1\";\n        title = \"\";\n        v = 0;\n        \"verified_image\" = \"\";\n    };\n}"
      ],
      "story_dsp" : [

      ],
      "rewarded_video_dsp" : [

      ],
      "rate" : 4,
      "pw" : 800,
      "release_time" : "",
      "top_mdsp" : [

      ],
      "rate_count" : 53,
      "recipe_list_tags" : [
        {
          "background_end_color" : "#F4F5F5",
          "background_start_color" : "#F4F5F5",
          "jump_url" : "",
          "text_color" : "#141515",
          "background_border_color" : "",
          "text" : "关注的人",
          "right_image" : ""
        },
        {
          "background_border_color" : "",
          "text_color" : "#141515",
          "jump_url" : "",
          "background_end_color" : "#F4F5F5",
          "right_image" : "",
          "background_start_color" : "#F4F5F5",
          "text" : "内容详细"
        }
      ],
      "author_verified" : 1,
      "cook_difficulty" : "",
      "author_id" : 17612751,
      "hqu" : "recipes:\/\/www.douguo.com\/notedetail?id=21162253",
      "dish_count" : 80,
      "purl" : "",
      "comments_count_text" : "61",
      "clicks" : "1567085",
      "ipoi" : "",
      "minor" : [

      ],
      "cook_time" : "",
      "cook_id" : "1444839",
      "cook_time_image" : "",
      "ss" : [

      ],
      "author" : "风意画",
      "rpst" : "",
      "levelid" : 2,
      "title_ad" : [

      ],
      "collect_status" : 0,
      "cookstory" : "虾的做法很多，味道都很不错，今天来一款色香味俱全的黄金虾球，色泽金黄，虾泥混和着土豆泥的香气，拉丝奶酪作为夹馅，是不是很棒呢？！金黄色的虾球特别的夺目讨人爱，我想很多不爱吃虾的孩子也会很喜欢哦，虾本身的营养就很丰富，特别是蛋白质。",
      "sc" : 0
    }
  },
  "state" : "success"
}