{
  "state" : "success",
  "result" : {
    "recipe" : {
      "related_ads" : [

      ],
      "pw" : 800,
      "rpst" : "",
      "brand_day_dsp" : [

      ],
      "vfurl" : "",
      "mid_mdsp" : [

      ],
      "release_time" : "",
      "author_verified" : 0,
      "rpt" : "",
      "eu" : "recipes:\/\/www.douguo.com\/postdetail?id=242016",
      "image" : "http:\/\/i1.douguo.net\/upload\/caiku\/b\/9\/2\/300_b98be03c9c96f7241f7673395d811972.jpg",
      "cook_id" : "1131869",
      "recommended" : 0,
      "minor" : [

      ],
      "ipoi" : "",
      "hq" : 1,
      "rpid" : 0,
      "user" : {
        "is_prime" : 0,
        "user_large_photo" : "http:\/\/tx1.douguo.net\/upload\/photo\/3\/d\/c\/yuan_u08106935756022105524.jpg",
        "regist_time" : "",
        "fc" : 0,
        "qq_weibo_nick" : "",
        "location" : 0,
        "verified" : 0,
        "followers_count" : 0,
        "user_cover" : "",
        "progress_image" : "",
        "diaries_count" : 0,
        "point" : 0,
        "verified_image" : "",
        "subscription" : 0,
        "mobile" : "",
        "favor_diaries_count" : 0,
        "userid" : "5245028",
        "introduction" : "",
        "age" : "",
        "weibo_nick" : "",
        "favorites_count" : 0,
        "subscription_article_count" : 0,
        "user_id" : "5245028",
        "avatar_medium" : "http:\/\/tx1.douguo.net\/upload\/photo\/3\/d\/c\/140_u08106935756022105524.jpg",
        "verified_url" : "https:\/\/m.douguo.com\/user\/prodesc",
        "qzone_nick" : "",
        "sign" : "",
        "dishes_count" : 0,
        "user_photo" : "http:\/\/tx1.douguo.net\/upload\/photo\/3\/d\/c\/70_u08106935756022105524.jpg",
        "birthday" : "",
        "lvl" : 4,
        "email" : "",
        "nick" : "米露Mole",
        "recipes_count" : 0,
        "following_count" : 0,
        "setted_email" : 0,
        "coursecount" : 0,
        "lv" : 0,
        "pc" : 0,
        "gender" : 2
      },
      "packages_id" : [

      ],
      "rdsps" : [

      ],
      "cookstorys" : [
        {
          "c" : "非常香",
          "icon" : "",
          "type" : 0,
          "u" : "",
          "color" : "",
          "id" : 0
        }
      ],
      "ipia" : [

      ],
      "rate" : 0,
      "event" : {
        "id" : 0
      },
      "rrps" : [

      ],
      "cook_difficulty" : "",
      "ipit" : 0,
      "act_des" : "",
      "rate_count" : 0,
      "ssu" : "",
      "create_time" : "2015-03-10 15:49:06",
      "photo_path" : "https:\/\/i1.douguo.com\/upload\/caiku\/b\/9\/2\/600_b98be03c9c96f7241f7673395d811972.jpg",
      "rcs" : [

      ],
      "dish_count_text" : "3",
      "views_count_text" : "13.8万",
      "hqu" : "recipes:\/\/www.douguo.com\/notedetail?id=21162253",
      "favo_counts" : 1968,
      "cookwares" : [

      ],
      "author_photo" : "http:\/\/tx1.douguo.net\/upload\/photo\/3\/d\/c\/70_u08106935756022105524.jpg",
      "author" : "米露Mole",
      "thumb_path" : "https:\/\/i1.douguo.com\/upload\/caiku\/b\/9\/2\/300_b98be03c9c96f7241f7673395d811972.jpg",
      "story_dsp" : [

      ],
      "display_ingredient" : 1,
      "sc" : 0,
      "dishes" : [

      ],
      "tips" : "",
      "recommendation_tag" : "",
      "rsm" : "该功能暂停使用",
      "title_ad" : [

      ],
      "recent_comments" : [

      ],
      "recommend_label" : "3人学做",
      "cook_time" : "",
      "favo_counts_text" : "1968",
      "share_info" : {
        "s_d" : "我爱中餐之椒香扑鼻鲜嫩可口目鱼仔（空气炸锅版）-会做饭很酷!",
        "mini_program" : [

        ],
        "infos" : [
          {
            "mini_program" : [

            ],
            "channel" : "1",
            "qr_image" : "",
            "name" : "我爱中餐之椒香扑鼻鲜嫩可口目鱼仔（空气炸锅版）-会做饭很酷!",
            "s_u" : "",
            "image" : "https:\/\/cp1.douguo.com\/upload\/caiku\/b\/9\/2\/b98be03c9c96f7241f7673395d811972.jpg",
            "object_id" : "1131869",
            "s_d" : "#学做饭用豆果美食# 我在@豆果美食 分享了【我爱中餐之椒香扑鼻鲜嫩可口目鱼仔（空气炸锅版）-会做饭很酷!】，色香味俱全说的就是这道菜！查看图片了解菜谱（快来点击https:\/\/m.weibo.cn\/p\/100404i33631和我一起修炼厨艺吧）#会做饭很酷# "
          },
          {
            "name" : "我爱中餐之椒香扑鼻鲜嫩可口目鱼仔（空气炸锅版）-会做饭很酷!",
            "s_d" : "我爱中餐之椒香扑鼻鲜嫩可口目鱼仔（空气炸锅版）-会做饭很酷!",
            "qr_image" : "",
            "s_u" : "http:\/\/m.douguo.com\/cookbook\/1131869.html",
            "mini_program" : [

            ],
            "object_id" : "1131869",
            "image" : "https:\/\/cp1.douguo.com\/upload\/caiku\/b\/9\/2\/b98be03c9c96f7241f7673395d811972.jpg",
            "channel" : "7"
          },
          {
            "object_id" : "1131869",
            "channel" : "8",
            "name" : "我爱中餐之椒香扑鼻鲜嫩可口目鱼仔（空气炸锅版）-会做饭很酷!",
            "mini_program" : [

            ],
            "image" : "https:\/\/cp1.douguo.com\/upload\/caiku\/b\/9\/2\/b98be03c9c96f7241f7673395d811972.jpg",
            "qr_image" : "",
            "s_u" : "http:\/\/m.douguo.com\/cookbook\/1131869.html",
            "s_d" : "我爱中餐之椒香扑鼻鲜嫩可口目鱼仔（空气炸锅版）-会做饭很酷!"
          }
        ],
        "object_id" : "1131869",
        "name" : "我爱中餐之椒香扑鼻鲜嫩可口目鱼仔（空气炸锅版）-会做饭很酷!",
        "s_u" : "http:\/\/m.douguo.com\/cookbook\/1131869.html",
        "qr_image" : "",
        "image" : "https:\/\/cp1.douguo.com\/upload\/caiku\/b\/9\/2\/b98be03c9c96f7241f7673395d811972.jpg"
      },
      "ipurl" : "",
      "top_mdsp" : [

      ],
      "notes" : [

      ],
      "cookstory" : "非常香",
      "comments_count" : 32,
      "collect_status" : 0,
      "recipe_tags" : [

      ],
      "title" : "我爱中餐之椒香扑鼻鲜嫩可口目鱼仔（空气炸锅版）",
      "vc" : "137778",
      "rewarded_video_dsp" : [

      ],
      "bs" : [

      ],
      "major" : [
        {
          "title" : "目鱼仔",
          "note" : "500g"
        },
        {
          "note" : "1个",
          "tu" : "https:\/\/m.douguo.com\/ingredients\/洋葱\/detailmaterial",
          "title" : "洋葱"
        },
        {
          "tu" : "https:\/\/m.douguo.com\/ingredients\/辣椒\/detailmaterial",
          "note" : "少量",
          "title" : "辣椒"
        },
        {
          "note" : "少量",
          "title" : "香菜",
          "tu" : "https:\/\/m.douguo.com\/ingredients\/香菜\/detailmaterial"
        },
        {
          "tu" : "https:\/\/m.douguo.com\/ingredients\/料酒\/detailmaterial",
          "title" : "料酒",
          "note" : "2勺"
        },
        {
          "title" : "各种调味品",
          "note" : "少量"
        },
        {
          "note" : "少量",
          "tu" : "https:\/\/m.douguo.com\/ingredients\/花椒\/detailmaterial",
          "title" : "花椒"
        },
        {
          "title" : "大蒜",
          "tu" : "https:\/\/m.douguo.com\/ingredients\/大蒜\/detailmaterial",
          "note" : "少量"
        },
        {
          "title" : "生姜",
          "note" : "少量",
          "tu" : "https:\/\/m.douguo.com\/ingredients\/生姜\/detailmaterial"
        }
      ],
      "comments_count_text" : "32",
      "cook_difficulty_image" : "",
      "ph" : 533,
      "levelid" : 2,
      "rips" : 0,
      "dish_count" : 3,
      "rate_show" : 0,
      "author_id" : 5245028,
      "purl" : "",
      "recipe_list_tags" : [
        {
          "background_border_color" : "",
          "background_end_color" : "#F4F5F5",
          "right_image" : "",
          "text_color" : "#141515",
          "background_start_color" : "#F4F5F5",
          "text" : "关注的人",
          "jump_url" : ""
        }
      ],
      "v_u" : "",
      "ipci" : "",
      "ss" : [

      ],
      "cookstep" : [
        {
          "position" : 1,
          "image" : "https:\/\/i1.douguo.com\/upload\/caiku\/5\/4\/b\/5436663a7459a2527e088ba20d0fa04b.jpg",
          "frame" : "-1",
          "image_width" : 640,
          "thumb" : "https:\/\/i1.douguo.com\/upload\/caiku\/5\/4\/b\/140_5436663a7459a2527e088ba20d0fa04b.jpg",
          "image_height" : 853,
          "content" : "目鱼仔清水洗干净，去内脏。"
        },
        {
          "image_width" : 640,
          "position" : 2,
          "image" : "https:\/\/i1.douguo.com\/upload\/caiku\/5\/e\/8\/5e578d505c5eeacfa0c0b10ea6264da8.jpg",
          "thumb" : "https:\/\/i1.douguo.com\/upload\/caiku\/5\/e\/8\/140_5e578d505c5eeacfa0c0b10ea6264da8.jpg",
          "image_height" : 853,
          "frame" : "-1",
          "content" : "用生姜片，盐，料酒腌制半小时。"
        },
        {
          "position" : 3,
          "content" : "用空气炸锅，少油，200度，8分钟。",
          "image_height" : 853,
          "frame" : "-1",
          "image_width" : 640,
          "thumb" : "https:\/\/i1.douguo.com\/upload\/caiku\/4\/f\/4\/140_4ff00e8e37311b7940883d9462b57b64.jpg",
          "image" : "https:\/\/i1.douguo.com\/upload\/caiku\/4\/f\/4\/4ff00e8e37311b7940883d9462b57b64.jpg"
        },
        {
          "image_width" : 640,
          "frame" : "-1",
          "thumb" : "https:\/\/i1.douguo.com\/upload\/caiku\/8\/9\/3\/140_895c46bcf5400008a3a34b11e43229a3.jpg",
          "image_height" : 853,
          "position" : 4,
          "image" : "https:\/\/i1.douguo.com\/upload\/caiku\/8\/9\/3\/895c46bcf5400008a3a34b11e43229a3.jpg",
          "content" : "各种调味料！"
        },
        {
          "image_width" : 640,
          "frame" : "-1",
          "content" : "起油锅，少油，放入花椒粒，蒜片，香菜茎，姜片爆香，倒入洋葱，炒到8分熟，加辣椒，加入目鱼仔，加各种调味料和盐。撒上香菜叶即可出锅。",
          "image" : "https:\/\/i1.douguo.com\/upload\/caiku\/d\/5\/d\/d5971ff2148dd41461efb12434ed8c4d.jpg",
          "image_height" : 853,
          "thumb" : "https:\/\/i1.douguo.com\/upload\/caiku\/d\/5\/d\/140_d5971ff2148dd41461efb12434ed8c4d.jpg",
          "position" : 5
        },
        {
          "frame" : "-1",
          "image_height" : 1008,
          "thumb" : "https:\/\/i1.douguo.com\/upload\/caiku\/b\/5\/d\/140_b5df3930fee1a3247084821eab77bd3d.jpg",
          "image" : "https:\/\/i1.douguo.com\/upload\/caiku\/b\/5\/d\/b5df3930fee1a3247084821eab77bd3d.jpg",
          "image_width" : 1500,
          "position" : 6,
          "content" : "装盘即可"
        }
      ],
      "cook_time_image" : "",
      "comments" : [
        "{\n    ac = \"#999999\";\n    at = \"\";\n    ccc = 5;\n    \"child_comments\" =     (\n                {\n            ac = \"#999999\";\n            at = \"\";\n            ccc = 0;\n            city = \"\";\n            cmc = 2;\n            content =             (\n                                {\n                    c = \" \\U6211\\U7528\\U7684\\U4e5d\\U9633\\U7684\\Uff0c\\U98de\\U5229\\U6d66\\U6709\\U70b9\\U8d35\\Uff0c\\U4f46\\U5176\\U5b9e\\U7528\\U5904\\U4e0d\\U591a\\Uff0c\\U7528\\U4e86\\U51e0\\U6b21\\U53c8\\U95f2\\U7f6e\\U4e86\";\n                }\n            );\n            ia = 1;\n            id = 2343171;\n            \"ip_address_location\" = \"\";\n            like = 0;\n            \"like_count\" = 0;\n            \"reply_id\" = 2342762;\n            \"reply_user\" =             {\n                \"followers_count_text\" = \"\";\n                id = 4081223;\n                \"is_prime\" = 0;\n                lv = 0;\n                lvl = 1;\n                n = \"\\U749f\\U8f69\\U5988\\U5988\";\n                p = \"\";\n                \"progress_image\" = \"\";\n                \"recipes_count_text\" = \"\";\n                relationship = \"-1\";\n                title = \"\";\n                v = 0;\n                \"verified_image\" = \"\";\n            };\n            \"sticker_icon\" =             (\n            );\n            time = \"2015-06-12 02:18:01\";\n            u =             {\n                \"followers_count_text\" = \"\";\n                id = 5245028;\n                \"is_prime\" = 0;\n                lv = 0;\n                lvl = 4;\n                n = \"\\U7c73\\U9732Mole\";\n                p = \"http:\/\/tx1.douguo.net\/upload\/photo\/3\/d\/c\/70_u08106935756022105524.jpg\";\n                \"progress_image\" = \"\";\n                \"recipes_count_text\" = \"\";\n                relationship = \"-1\";\n                title = \"\";\n                v = 0;\n                \"verified_image\" = \"\";\n            };\n        },\n                {\n            ac = \"#999999\";\n            at = \"\";\n            ccc = 0;\n            city = \"\";\n            cmc = 2;\n            content =             (\n                                {\n                    c = \" \\U4e5d\\U9633\\U90a3\\U4e2a\\U578b\\U53f7\\U597d\\U7528\\U4e48\";\n                }\n            );\n            ia = 0;\n            id = 2343208;\n            \"ip_address_location\" = \"\";\n            like = 0;\n            \"like_count\" = 0;\n            \"reply_id\" = 2343171;\n            \"reply_user\" =             {\n                \"followers_count_text\" = \"\";\n                id = 5245028;\n                \"is_prime\" = 0;\n                lv = 0;\n                lvl = 4;\n                n = \"\\U7c73\\U9732Mole\";\n                p = \"http:\/\/tx1.douguo.net\/upload\/photo\/3\/d\/c\/70_u08106935756022105524.jpg\";\n                \"progress_image\" = \"\";\n                \"recipes_count_text\" = \"\";\n                relationship = \"-1\";\n                title = \"\";\n                v = 0;\n                \"verified_image\" = \"\";\n            };\n            \"sticker_icon\" =             (\n            );\n            time = \"2015-06-12 02:35:51\";\n            u =             {\n                \"followers_count_text\" = \"\";\n                id = 4081223;\n                \"is_prime\" = 0;\n                lv = 0;\n                lvl = 1;\n                n = \"\\U749f\\U8f69\\U5988\\U5988\";\n                p = \"\";\n                \"progress_image\" = \"\";\n                \"recipes_count_text\" = \"\";\n                relationship = \"-1\";\n                title = \"\";\n                v = 0;\n                \"verified_image\" = \"\";\n            };\n        }\n    );\n    city = \"\";\n    cmc = 2;\n    content =     (\n                {\n            c = \"\\U4ec0\\U4e48\\U724c\\U5b50\\U7684\\U7a7a\\U6c14\\U70b8\\U9505\\U554a  \\U63a8\\U8350\\U4e00\\U4e0b\";\n        }\n    );\n    ia = 0;\n    id = 2342762;\n    \"ip_address_location\" = \"\";\n    like = 0;\n    \"like_count\" = 0;\n    \"reply_id\" = 0;\n    \"sticker_icon\" =     (\n    );\n    time = \"2015-06-11 22:42:06\";\n    u =     {\n        \"followers_count_text\" = \"\";\n        id = 4081223;\n        \"is_prime\" = 0;\n        lv = 0;\n        lvl = 1;\n        n = \"\\U749f\\U8f69\\U5988\\U5988\";\n        p = \"\";\n        \"progress_image\" = \"\";\n        \"recipes_count_text\" = \"\";\n        relationship = \"-1\";\n        title = \"\";\n        v = 0;\n        \"verified_image\" = \"\";\n    };\n}",
        "{\n    ac = \"#999999\";\n    at = \"\";\n    ccc = 4;\n    \"child_comments\" =     (\n                {\n            ac = \"#999999\";\n            at = \"\";\n            ccc = 0;\n            city = \"\";\n            cmc = 2;\n            content =             (\n                                {\n                    c = \" \\U56fe\\U7247\\U4e0a\\U90a3\\U4e9b\\Uff0c\\U6b27\\U82b9\\U3001\\U9ed1\\U80e1\\U6912\\U7b49\";\n                }\n            );\n            ia = 1;\n            id = 2180254;\n            \"ip_address_location\" = \"\";\n            like = 0;\n            \"like_count\" = 0;\n            \"reply_id\" = 2180025;\n            \"reply_user\" =             {\n                \"followers_count_text\" = \"\";\n                id = 6883800;\n                \"is_prime\" = 0;\n                lv = 0;\n                lvl = 1;\n                n = \"\\U58f9\\U7396\\U7396\\U634c\\U96f6\\U53c1\\U53c1\\U96f6\";\n                p = \"http:\/\/tx1.douguo.net\/upload\/photo\/2\/6\/7\/70_u15620441506585062442.jpg\";\n                \"progress_image\" = \"\";\n                \"recipes_count_text\" = \"\";\n                relationship = \"-1\";\n                title = \"\";\n                v = 0;\n                \"verified_image\" = \"\";\n            };\n            \"sticker_icon\" =             (\n            );\n            time = \"2015-04-14 01:06:34\";\n            u =             {\n                \"followers_count_text\" = \"\";\n                id = 5245028;\n                \"is_prime\" = 0;\n                lv = 0;\n                lvl = 4;\n                n = \"\\U7c73\\U9732Mole\";\n                p = \"http:\/\/tx1.douguo.net\/upload\/photo\/3\/d\/c\/70_u08106935756022105524.jpg\";\n                \"progress_image\" = \"\";\n                \"recipes_count_text\" = \"\";\n                relationship = \"-1\";\n                title = \"\";\n                v = 0;\n                \"verified_image\" = \"\";\n            };\n        },\n                {\n            ac = \"#999999\";\n            at = \"\";\n            ccc = 0;\n            city = \"\";\n            cmc = 2;\n            content =             (\n                                {\n                    c = \"  \\U6ca1\\U6709\\U7a7a\\U6c14\\U70b8\\U9505\\U600e\\U4e48\\U5f04\\U554a\";\n                }\n            );\n            ia = 0;\n            id = 2181624;\n            \"ip_address_location\" = \"\";\n            like = 0;\n            \"like_count\" = 0;\n            \"reply_id\" = 2180254;\n            \"reply_user\" =             {\n                \"followers_count_text\" = \"\";\n                id = 5245028;\n                \"is_prime\" = 0;\n                lv = 0;\n                lvl = 4;\n                n = \"\\U7c73\\U9732Mole\";\n                p = \"http:\/\/tx1.douguo.net\/upload\/photo\/3\/d\/c\/70_u08106935756022105524.jpg\";\n                \"progress_image\" = \"\";\n                \"recipes_count_text\" = \"\";\n                relationship = \"-1\";\n                title = \"\";\n                v = 0;\n                \"verified_image\" = \"\";\n            };\n            \"sticker_icon\" =             (\n            );\n            time = \"2015-04-14 11:42:24\";\n            u =             {\n                \"followers_count_text\" = \"\";\n                id = 6883800;\n                \"is_prime\" = 0;\n                lv = 0;\n                lvl = 1;\n                n = \"\\U58f9\\U7396\\U7396\\U634c\\U96f6\\U53c1\\U53c1\\U96f6\";\n                p = \"http:\/\/tx1.douguo.net\/upload\/photo\/2\/6\/7\/70_u15620441506585062442.jpg\";\n                \"progress_image\" = \"\";\n                \"recipes_count_text\" = \"\";\n                relationship = \"-1\";\n                title = \"\";\n                v = 0;\n                \"verified_image\" = \"\";\n            };\n        }\n    );\n    city = \"\";\n    cmc = 2;\n    content =     (\n                {\n            c = \"\\U6211\\U60f3\\U95ee\\U5404\\U79cd\\U8c03\\U5473\\U6599\\U662f\\U6307\\U4ec0\\U4e48\";\n        }\n    );\n    ia = 0;\n    id = 2180025;\n    \"ip_address_location\" = \"\";\n    like = 0;\n    \"like_count\" = 0;\n    \"reply_id\" = 0;\n    \"sticker_icon\" =     (\n    );\n    time = \"2015-04-13 22:48:15\";\n    u =     {\n        \"followers_count_text\" = \"\";\n        id = 6883800;\n        \"is_prime\" = 0;\n        lv = 0;\n        lvl = 1;\n        n = \"\\U58f9\\U7396\\U7396\\U634c\\U96f6\\U53c1\\U53c1\\U96f6\";\n        p = \"http:\/\/tx1.douguo.net\/upload\/photo\/2\/6\/7\/70_u15620441506585062442.jpg\";\n        \"progress_image\" = \"\";\n        \"recipes_count_text\" = \"\";\n        relationship = \"-1\";\n        title = \"\";\n        v = 0;\n        \"verified_image\" = \"\";\n    };\n}",
        "{\n    ac = \"#999999\";\n    at = \"\";\n    ccc = 2;\n    \"child_comments\" =     (\n                {\n            ac = \"#999999\";\n            at = \"\";\n            ccc = 0;\n            city = \"\";\n            cmc = 2;\n            content =             (\n                                {\n                    c = \" \\U5199\\U9519\\U4e86\\Uff0c\\U54c8\\U54c8\";\n                }\n            );\n            ia = 1;\n            id = 2097316;\n            \"ip_address_location\" = \"\";\n            like = 0;\n            \"like_count\" = 0;\n            \"reply_id\" = 2095599;\n            \"reply_user\" =             {\n                \"followers_count_text\" = \"\";\n                id = 528012;\n                \"is_prime\" = 0;\n                lv = 0;\n                lvl = 2;\n                n = \"\\U6d77AIMM\\U6708\";\n                p = \"http:\/\/tx1.douguo.net\/upload\/photo\/8\/6\/d\/70_8620d0296d9cbdbc8c9c930a3a34f83d.jpg\";\n                \"progress_image\" = \"\";\n                \"recipes_count_text\" = \"\";\n                relationship = \"-1\";\n                title = \"\";\n                v = 0;\n                \"verified_image\" = \"\";\n            };\n            \"sticker_icon\" =             (\n            );\n            time = \"2015-03-13 04:14:41\";\n            u =             {\n                \"followers_count_text\" = \"\";\n                id = 5245028;\n                \"is_prime\" = 0;\n                lv = 0;\n                lvl = 4;\n                n = \"\\U7c73\\U9732Mole\";\n                p = \"http:\/\/tx1.douguo.net\/upload\/photo\/3\/d\/c\/70_u08106935756022105524.jpg\";\n                \"progress_image\" = \"\";\n                \"recipes_count_text\" = \"\";\n                relationship = \"-1\";\n                title = \"\";\n                v = 0;\n                \"verified_image\" = \"\";\n            };\n        },\n                {\n            ac = \"#999999\";\n            at = \"\";\n            ccc = 0;\n            city = \"\";\n            cmc = 2;\n            content =             (\n                                {\n                    c = \" \\U563b\\U563b\";\n                }\n            );\n            ia = 0;\n            id = 2101140;\n            \"ip_address_location\" = \"\";\n            like = 0;\n            \"like_count\" = 0;\n            \"reply_id\" = 2097316;\n            \"reply_user\" =             {\n                \"followers_count_text\" = \"\";\n                id = 5245028;\n                \"is_prime\" = 0;\n                lv = 0;\n                lvl = 4;\n                n = \"\\U7c73\\U9732Mole\";\n                p = \"http:\/\/tx1.douguo.net\/upload\/photo\/3\/d\/c\/70_u08106935756022105524.jpg\";\n                \"progress_image\" = \"\";\n                \"recipes_count_text\" = \"\";\n                relationship = \"-1\";\n                title = \"\";\n                v = 0;\n                \"verified_image\" = \"\";\n            };\n            \"sticker_icon\" =             (\n            );\n            time = \"2015-03-14 11:23:27\";\n            u =             {\n                \"followers_count_text\" = \"\";\n                id = 528012;\n                \"is_prime\" = 0;\n                lv = 0;\n                lvl = 2;\n                n = \"\\U6d77AIMM\\U6708\";\n                p = \"http:\/\/tx1.douguo.net\/upload\/photo\/8\/6\/d\/70_8620d0296d9cbdbc8c9c930a3a34f83d.jpg\";\n                \"progress_image\" = \"\";\n                \"recipes_count_text\" = \"\";\n                relationship = \"-1\";\n                title = \"\";\n                v = 0;\n                \"verified_image\" = \"\";\n            };\n        }\n    );\n    city = \"\";\n    cmc = 2;\n    content =     (\n                {\n            c = \"\\U58a8\\U9c7c\\U4ed4\\Uff1f\";\n        }\n    );\n    ia = 0;\n    id = 2095599;\n    \"ip_address_location\" = \"\";\n    like = 0;\n    \"like_count\" = 0;\n    \"reply_id\" = 0;\n    \"sticker_icon\" =     (\n    );\n    time = \"2015-03-12 09:30:35\";\n    u =     {\n        \"followers_count_text\" = \"\";\n        id = 528012;\n        \"is_prime\" = 0;\n        lv = 0;\n        lvl = 2;\n        n = \"\\U6d77AIMM\\U6708\";\n        p = \"http:\/\/tx1.douguo.net\/upload\/photo\/8\/6\/d\/70_8620d0296d9cbdbc8c9c930a3a34f83d.jpg\";\n        \"progress_image\" = \"\";\n        \"recipes_count_text\" = \"\";\n        relationship = \"-1\";\n        title = \"\";\n        v = 0;\n        \"verified_image\" = \"\";\n    };\n}"
      ],
      "ecs" : 0,
      "vu" : "",
      "tags" : [
        "{\n    text = \"\\U5bb6\\U5e38\\U83dc\";\n}",
        "{\n    text = \"\\U7092\";\n}",
        "{\n    text = \"\\U9999\";\n}",
        "{\n    text = \"\\U5348\\U9910\";\n}"
      ],
      "thumb_height" : 0,
      "first_level_comment_count" : 19,
      "guide_image" : "",
      "old_comments" : [

      ],
      "btm_dsp" : [

      ],
      "su" : "",
      "rrpt" : "",
      "sr" : "",
      "clicks" : "131739",
      "ipt" : "",
      "advice" : {
        "da" : {
          "t" : "查看详细分析",
          "iu" : "https:\/\/i1.douguo.com\/upload\/banner\/f\/4\/d\/f48877e53c37759bc12ac494be82ec8d.png",
          "url" : "https:\/\/m.douguo.com\/recipe\/nutrient_self\/1131869"
        },
        "at" : "能有效控制体重～",
        "has" : [
          {
            "t" : "低热量",
            "url" : "recipes:\/\/www.douguo.com\/simplerecipelist?t=低热量&id=低热量"
          },
          {
            "url" : "recipes:\/\/www.douguo.com\/simplerecipelist?t=低脂&id=低脂",
            "t" : "低脂"
          }
        ]
      },
      "original_photo_path" : "http:\/\/i1.douguo.net\/upload\/caiku\/b\/9\/2\/yuan_b98be03c9c96f7241f7673395d811972.jpg"
    }
  },
  "status" : 0
}