{
  "status" : 0,
  "result" : {
    "recipe" : {
      "cook_difficulty" : "切墩(初级)",
      "collect_status" : 0,
      "comments_count_text" : "",
      "hq" : 1,
      "packages_id" : [

      ],
      "advice" : {
        "da" : {
          "url" : "https:\/\/m.douguo.com\/recipe\/nutrient_self\/3119333",
          "t" : "查看详细分析",
          "iu" : "https:\/\/i1.douguo.com\/upload\/banner\/f\/4\/d\/f48877e53c37759bc12ac494be82ec8d.png"
        },
        "at" : "能帮助你减脂、控血糖～",
        "has" : [
          {
            "t" : "低糖",
            "url" : "recipes:\/\/www.douguo.com\/simplerecipelist?t=低糖&id=低糖"
          }
        ]
      },
      "original_photo_path" : "http:\/\/i1.douguo.net\/upload\/caiku\/f\/e\/e\/yuan_fe5a052de347712c87232446b5af2fee.jpeg",
      "thumb_height" : 0,
      "ipia" : [

      ],
      "ipoi" : "",
      "views_count_text" : "7387",
      "rdsps" : [

      ],
      "author_photo" : "http:\/\/tx1.douguo.net\/upload\/photo\/5\/a\/a\/70_u8449022493230210609.jpeg",
      "ipit" : 0,
      "cook_difficulty_image" : "https:\/\/i1.douguo.com\/upload\/banner\/1551424390.png",
      "ecs" : 1,
      "notes" : [

      ],
      "recipe_list_tags" : [
        {
          "background_border_color" : "",
          "jump_url" : "",
          "background_start_color" : "#F4F5F5",
          "right_image" : "",
          "background_end_color" : "#F4F5F5",
          "text" : "关注的人",
          "text_color" : "#141515"
        },
        {
          "text_color" : "#141515",
          "jump_url" : "",
          "background_end_color" : "#F4F5F5",
          "text" : "内容详细",
          "background_border_color" : "",
          "background_start_color" : "#F4F5F5",
          "right_image" : ""
        }
      ],
      "levelid" : 2,
      "rsm" : "该功能暂停使用",
      "clicks" : "5442",
      "ss" : [

      ],
      "user" : {
        "weibo_nick" : "",
        "is_prime" : 0,
        "mobile" : "",
        "qq_weibo_nick" : "",
        "sign" : "",
        "fc" : 0,
        "avatar_medium" : "http:\/\/tx1.douguo.net\/upload\/photo\/5\/a\/a\/140_u8449022493230210609.jpeg",
        "setted_email" : 0,
        "qzone_nick" : "",
        "nick" : "被厨艺耽误的大厨",
        "diaries_count" : 0,
        "dishes_count" : 0,
        "email" : "",
        "favorites_count" : 0,
        "lvl" : 3,
        "age" : "",
        "subscription_article_count" : 0,
        "coursecount" : 0,
        "subscription" : 0,
        "lv" : 0,
        "point" : 0,
        "verified_url" : "https:\/\/m.douguo.com\/user\/prodesc",
        "followers_count" : 0,
        "user_id" : "19454613",
        "recipes_count" : 0,
        "pc" : 0,
        "userid" : "19454613",
        "verified" : 0,
        "user_large_photo" : "http:\/\/tx1.douguo.net\/upload\/photo\/5\/a\/a\/yuan_u8449022493230210609.jpeg",
        "verified_image" : "",
        "regist_time" : "",
        "progress_image" : "",
        "following_count" : 0,
        "location" : 0,
        "birthday" : "",
        "user_cover" : "",
        "gender" : 1,
        "user_photo" : "http:\/\/tx1.douguo.net\/upload\/photo\/5\/a\/a\/70_u8449022493230210609.jpeg",
        "favor_diaries_count" : 0,
        "introduction" : ""
      },
      "rpst" : "",
      "first_level_comment_count" : 0,
      "rrps" : [

      ],
      "vc" : "7387",
      "old_comments" : [

      ],
      "recommendation_tag" : "",
      "ssu" : "",
      "display_ingredient" : 1,
      "dishes" : [

      ],
      "vu" : "",
      "eu" : "recipes:\/\/www.douguo.com\/postdetail?id=242016",
      "rate" : 0,
      "photo_path" : "https:\/\/i1.douguo.com\/upload\/caiku\/f\/e\/e\/600_fe5a052de347712c87232446b5af2fee.jpeg",
      "rate_count" : 0,
      "recommended" : 0,
      "recipe_tags" : [

      ],
      "title" : "韭蛋",
      "cookstory" : "韭菜和鸡蛋的爱情故事",
      "pw" : 1920,
      "minor" : [

      ],
      "author_id" : 19454613,
      "comments" : [

      ],
      "cookwares" : [

      ],
      "dish_count" : 0,
      "dish_count_text" : "",
      "rips" : 0,
      "rpt" : "",
      "tags" : [

      ],
      "author_verified" : 0,
      "cook_id" : "3119333",
      "related_ads" : [

      ],
      "recommend_label" : "7387人看过",
      "rcs" : [

      ],
      "mid_mdsp" : [

      ],
      "rrpt" : "",
      "hqu" : "recipes:\/\/www.douguo.com\/notedetail?id=21162253",
      "top_mdsp" : [

      ],
      "vfurl" : "",
      "tips" : "韭黄属百合科多年生草本植物以种子和叶等入药，具健胃、提神、止汗固涩、补肾助阳、固精等功效。",
      "recent_comments" : [

      ],
      "cook_time_image" : "https:\/\/i1.douguo.com\/upload\/banner\/1551424358.png",
      "su" : "",
      "cookstep" : [
        {
          "position" : 1,
          "content" : "洗净 切段",
          "image_width" : 1280,
          "image" : "https:\/\/i1.douguo.com\/upload\/caiku\/c\/6\/7\/c6f0d0f9f7d797773e39834a201ee7c7.jpeg",
          "image_height" : 1706,
          "thumb" : "https:\/\/i1.douguo.com\/upload\/caiku\/c\/6\/7\/140_c6f0d0f9f7d797773e39834a201ee7c7.jpeg",
          "frame" : "-1"
        },
        {
          "thumb" : "https:\/\/i1.douguo.com\/upload\/caiku\/0\/b\/6\/140_0b4cbeb6023d173e3b2ae1aad8aa4cf6.jpeg",
          "position" : 2,
          "image_height" : 1706,
          "content" : "下盐把 鸡蛋搅拌到起泡泡",
          "image_width" : 1280,
          "image" : "https:\/\/i1.douguo.com\/upload\/caiku\/0\/b\/6\/0b4cbeb6023d173e3b2ae1aad8aa4cf6.jpeg",
          "frame" : "-1"
        },
        {
          "frame" : "-1",
          "image" : "https:\/\/i1.douguo.com\/upload\/caiku\/2\/5\/6\/257e90687f0df3d1db04c72d26d54156.jpeg",
          "thumb" : "https:\/\/i1.douguo.com\/upload\/caiku\/2\/5\/6\/140_257e90687f0df3d1db04c72d26d54156.jpeg",
          "content" : "开火 下油 等有高点温度的时候 放韭菜",
          "image_height" : 960,
          "position" : 3,
          "image_width" : 1280
        },
        {
          "thumb" : "https:\/\/i1.douguo.com\/upload\/caiku\/5\/2\/f\/140_52aaf62555094c7f68b967aa7904a81f.jpeg",
          "content" : "等韭菜变软就可以下蛋",
          "image_height" : 1706,
          "position" : 4,
          "image" : "https:\/\/i1.douguo.com\/upload\/caiku\/5\/2\/f\/52aaf62555094c7f68b967aa7904a81f.jpeg",
          "frame" : "-1",
          "image_width" : 1280
        },
        {
          "image_height" : 960,
          "image" : "https:\/\/i1.douguo.com\/upload\/caiku\/8\/6\/a\/8646d501e7f066460cddafac370809ba.jpeg",
          "frame" : "-1",
          "position" : 5,
          "thumb" : "https:\/\/i1.douguo.com\/upload\/caiku\/8\/6\/a\/140_8646d501e7f066460cddafac370809ba.jpeg",
          "content" : "等蛋熟了就可以上碟",
          "image_width" : 1280
        }
      ],
      "v_u" : "",
      "sc" : 0,
      "cook_time" : "10分钟左右",
      "bs" : [

      ],
      "image" : "http:\/\/i1.douguo.net\/upload\/caiku\/f\/e\/e\/300_fe5a052de347712c87232446b5af2fee.jpeg",
      "title_ad" : [

      ],
      "ipurl" : "",
      "cookstorys" : [
        {
          "color" : "",
          "c" : "韭菜和鸡蛋的爱情故事",
          "u" : "",
          "id" : 0,
          "icon" : "",
          "type" : 0
        }
      ],
      "guide_image" : "",
      "thumb_path" : "https:\/\/i1.douguo.com\/upload\/caiku\/f\/e\/e\/300_fe5a052de347712c87232446b5af2fee.jpeg",
      "rpid" : 0,
      "sr" : "",
      "ipt" : "",
      "rewarded_video_dsp" : [

      ],
      "create_time" : "2021-08-08 19:43:57",
      "ipci" : "",
      "comments_count" : 0,
      "favo_counts" : 56,
      "favo_counts_text" : "56",
      "share_info" : {
        "name" : "韭蛋-会做饭很酷!",
        "image" : "https:\/\/cp1.douguo.com\/upload\/caiku\/f\/e\/e\/fe5a052de347712c87232446b5af2fee.jpeg",
        "mini_program" : [

        ],
        "infos" : [
          {
            "mini_program" : [

            ],
            "s_d" : "#学做饭用豆果美食# 会做饭真是太酷了！我在@豆果美食 分享了【韭蛋-会做饭很酷!】OMG！这是什么神仙美味啊~真的强烈推荐你们试一试～查看图片了解菜谱（每天限量免费课程，想跟大师学厨艺就来这https:\/\/m.weibo.cn\/p\/100404i33631）",
            "image" : "https:\/\/cp1.douguo.com\/upload\/caiku\/f\/e\/e\/fe5a052de347712c87232446b5af2fee.jpeg",
            "name" : "韭蛋-会做饭很酷!",
            "object_id" : "3119333",
            "qr_image" : "",
            "channel" : "1",
            "s_u" : ""
          },
          {
            "channel" : "7",
            "name" : "韭蛋-会做饭很酷!",
            "object_id" : "3119333",
            "mini_program" : [

            ],
            "image" : "https:\/\/cp1.douguo.com\/upload\/caiku\/f\/e\/e\/fe5a052de347712c87232446b5af2fee.jpeg",
            "s_u" : "http:\/\/m.douguo.com\/cookbook\/3119333.html",
            "s_d" : "韭蛋-会做饭很酷!",
            "qr_image" : ""
          },
          {
            "object_id" : "3119333",
            "s_d" : "韭蛋-会做饭很酷!",
            "channel" : "8",
            "mini_program" : [

            ],
            "s_u" : "http:\/\/m.douguo.com\/cookbook\/3119333.html",
            "name" : "韭蛋-会做饭很酷!",
            "qr_image" : "",
            "image" : "https:\/\/cp1.douguo.com\/upload\/caiku\/f\/e\/e\/fe5a052de347712c87232446b5af2fee.jpeg"
          }
        ],
        "s_u" : "http:\/\/m.douguo.com\/cookbook\/3119333.html",
        "qr_image" : "",
        "s_d" : "韭蛋-会做饭很酷!",
        "object_id" : "3119333"
      },
      "author" : "被厨艺耽误的大厨",
      "release_time" : "",
      "brand_day_dsp" : [

      ],
      "act_des" : "",
      "purl" : "",
      "story_dsp" : [

      ],
      "ph" : 1440,
      "rate_show" : 0,
      "major" : [
        {
          "tu" : "https:\/\/m.douguo.com\/ingredients\/韭菜\/detailmaterial",
          "title" : "韭菜",
          "note" : "一把"
        },
        {
          "title" : "鸡蛋",
          "note" : "两个",
          "tu" : "https:\/\/m.douguo.com\/ingredients\/鸡蛋\/detailmaterial"
        },
        {
          "tu" : "https:\/\/m.douguo.com\/ingredients\/盐\/detailmaterial",
          "title" : "盐",
          "note" : "少许"
        },
        {
          "tu" : "https:\/\/m.douguo.com\/ingredients\/花生油\/detailmaterial",
          "title" : "花生油",
          "note" : "适量"
        }
      ],
      "btm_dsp" : [

      ]
    }
  },
  "state" : "success"
}