{
  "state" : "success",
  "status" : 0,
  "result" : {
    "recipe" : {
      "rate" : 0,
      "ipit" : 0,
      "mid_mdsp" : [

      ],
      "cook_time_image" : "",
      "packages_id" : [

      ],
      "rate_show" : 0,
      "rrpt" : "",
      "rpid" : 0,
      "vc" : "250280",
      "thumb_path" : "https:\/\/i1.douguo.com\/upload\/caiku\/c\/9\/c\/300_c9d4f5e3d473b36233bf008f562f5b5c.jpeg",
      "favo_counts" : 5013,
      "user" : {
        "dishes_count" : 0,
        "user_photo" : "http:\/\/tx1.douguo.net\/upload\/photo\/e\/2\/0\/70_u2182631693477124953.jpeg",
        "user_cover" : "",
        "introduction" : "",
        "is_prime" : 0,
        "user_id" : "7903444",
        "following_count" : 0,
        "gender" : 2,
        "coursecount" : 0,
        "birthday" : "",
        "weibo_nick" : "",
        "pc" : 0,
        "mobile" : "",
        "location" : 0,
        "qq_weibo_nick" : "",
        "lv" : 0,
        "favor_diaries_count" : 0,
        "progress_image" : "",
        "subscription_article_count" : 0,
        "fc" : 0,
        "point" : 0,
        "verified_image" : "https:\/\/i1.douguo.com\/upload\/note\/d\/a\/a\/da84247847aebe48d9dd0fcdac88862a.png",
        "email" : "",
        "sign" : "",
        "lvl" : 6,
        "favorites_count" : 0,
        "avatar_medium" : "http:\/\/tx1.douguo.net\/upload\/photo\/e\/2\/0\/140_u2182631693477124953.jpeg",
        "subscription" : 0,
        "recipes_count" : 0,
        "regist_time" : "",
        "userid" : "7903444",
        "verified" : 1,
        "qzone_nick" : "",
        "nick" : "coco的厨房",
        "setted_email" : 0,
        "age" : "",
        "verified_url" : "https:\/\/m.douguo.com\/user\/prodesc",
        "followers_count" : 0,
        "user_large_photo" : "http:\/\/tx1.douguo.net\/upload\/photo\/e\/2\/0\/yuan_u2182631693477124953.jpeg",
        "diaries_count" : 0
      },
      "v_u" : "",
      "ssu" : "",
      "author_id" : 7903444,
      "tips" : "每一步最好都不要省，想要吃到好吃的猪蹄自己也试试哦",
      "recipe_list_tags" : [
        {
          "background_border_color" : "",
          "jump_url" : "",
          "text_color" : "#141515",
          "right_image" : "",
          "background_end_color" : "#F4F5F5",
          "text" : "关注的人",
          "background_start_color" : "#F4F5F5"
        }
      ],
      "act_des" : "",
      "guide_image" : "",
      "cookstorys" : [
        {
          "id" : 0,
          "color" : "",
          "icon" : "",
          "c" : " 软糯可口，一点都不油腻 ",
          "u" : "",
          "type" : 0
        }
      ],
      "su" : "",
      "dishes" : [

      ],
      "clicks" : "243837",
      "rcs" : [

      ],
      "rpt" : "",
      "sc" : 0,
      "top_mdsp" : [

      ],
      "recommend_label" : "5013人刚刚收藏过",
      "advice" : {
        "at" : "有助于构成或修复人体组织～",
        "da" : {
          "iu" : "https:\/\/i1.douguo.com\/upload\/banner\/f\/4\/d\/f48877e53c37759bc12ac494be82ec8d.png",
          "url" : "https:\/\/m.douguo.com\/recipe\/nutrient_self\/2308826",
          "t" : "查看详细分析"
        },
        "has" : [
          {
            "url" : "recipes:\/\/www.douguo.com\/simplerecipelist?t=富含蛋白质&id=富含蛋白质",
            "t" : "富含蛋白质"
          },
          {
            "t" : "低糖",
            "url" : "recipes:\/\/www.douguo.com\/simplerecipelist?t=低糖&id=低糖"
          }
        ]
      },
      "collect_status" : 0,
      "bs" : [

      ],
      "release_time" : "",
      "recipe_tags" : [

      ],
      "btm_dsp" : [

      ],
      "cook_difficulty_image" : "https:\/\/i1.douguo.com\/upload\/banner\/1551424430.png",
      "eu" : "recipes:\/\/www.douguo.com\/postdetail?id=242016",
      "favo_counts_text" : "5013",
      "recent_comments" : [

      ],
      "brand_day_dsp" : [

      ],
      "ipci" : "",
      "rdsps" : [

      ],
      "cook_id" : "2308826",
      "rpst" : "",
      "recommendation_tag" : "",
      "rate_count" : 0,
      "vfurl" : "",
      "first_level_comment_count" : 14,
      "title" : "红烧猪蹄",
      "ipia" : [

      ],
      "ph" : 1440,
      "old_comments" : [

      ],
      "original_photo_path" : "http:\/\/i1.douguo.net\/upload\/caiku\/c\/9\/c\/yuan_c9d4f5e3d473b36233bf008f562f5b5c.jpeg",
      "cookstep" : [
        {
          "thumb" : "https:\/\/i1.douguo.com\/upload\/caiku\/e\/4\/8\/140_e43855db3bb1c789d2e71f6ef0d4d938.jpeg",
          "image_height" : 960,
          "image_width" : 1280,
          "frame" : "-1",
          "content" : "1⃣️先把猪蹄冷水下锅加料酒焯水捞出备用\n2⃣️热锅冷油下生姜片，八角，花椒，香叶爆香加入猪蹄，炒至猪蹄变金黄色",
          "image" : "https:\/\/i1.douguo.com\/upload\/caiku\/e\/4\/8\/e43855db3bb1c789d2e71f6ef0d4d938.jpeg",
          "position" : 1
        },
        {
          "image_width" : 1280,
          "position" : 2,
          "content" : "加入料酒，生抽，老抽，盐上色之后加入开水，沒过猪蹄",
          "frame" : "-1",
          "image_height" : 960,
          "thumb" : "https:\/\/i1.douguo.com\/upload\/caiku\/4\/5\/4\/140_456adf17e4f1aacf9fe732e85a58f674.jpeg",
          "image" : "https:\/\/i1.douguo.com\/upload\/caiku\/4\/5\/4\/456adf17e4f1aacf9fe732e85a58f674.jpeg"
        },
        {
          "image_width" : 1280,
          "position" : 3,
          "image" : "https:\/\/i1.douguo.com\/upload\/caiku\/8\/b\/4\/8b7280aaa88e4db745ff6e456d96e424.jpeg",
          "thumb" : "https:\/\/i1.douguo.com\/upload\/caiku\/8\/b\/4\/140_8b7280aaa88e4db745ff6e456d96e424.jpeg",
          "image_height" : 960,
          "frame" : "-1",
          "content" : "喜欢软烂一点就转至铸铁锅炖煮1小时左右，再转炒锅中大火收汁，也可以不用转直接超过炖煮"
        },
        {
          "thumb" : "https:\/\/i1.douguo.com\/upload\/caiku\/c\/b\/4\/140_cbf8fce3f96516cda74cfb857f1dfaf4.jpeg",
          "image_height" : 960,
          "image" : "https:\/\/i1.douguo.com\/upload\/caiku\/c\/b\/4\/cbf8fce3f96516cda74cfb857f1dfaf4.jpeg",
          "position" : 4,
          "frame" : "-1",
          "content" : "成品",
          "image_width" : 1280
        }
      ],
      "minor" : [

      ],
      "author" : "coco的厨房",
      "thumb_height" : 0,
      "notes" : [

      ],
      "purl" : "",
      "story_dsp" : [

      ],
      "cookstory" : " 软糯可口，一点都不油腻 ",
      "display_ingredient" : 1,
      "recommended" : 0,
      "levelid" : 2,
      "pw" : 1920,
      "rewarded_video_dsp" : [

      ],
      "comments_count" : 14,
      "photo_path" : "https:\/\/i1.douguo.com\/upload\/caiku\/c\/9\/c\/600_c9d4f5e3d473b36233bf008f562f5b5c.jpeg",
      "author_photo" : "http:\/\/tx1.douguo.net\/upload\/photo\/e\/2\/0\/70_u2182631693477124953.jpeg",
      "cookwares" : [

      ],
      "related_ads" : [

      ],
      "author_verified" : 1,
      "ss" : [

      ],
      "ecs" : 0,
      "title_ad" : [

      ],
      "ipurl" : "",
      "rrps" : [

      ],
      "sr" : "",
      "create_time" : "2019-06-17 12:27:45",
      "rsm" : "该功能暂停使用",
      "cook_time" : "",
      "views_count_text" : "25.0万",
      "comments" : [
        "{\n    ac = \"#999999\";\n    at = \"\";\n    ccc = 0;\n    \"child_comments\" =     (\n    );\n    city = \"\";\n    cmc = 2;\n    content =     (\n                {\n            c = \"\\U4e0d\\U70b9\\U8d5e\\U90fd\\U4e0d\\U884c\\U4e86\\U611f\\U89c9\";\n        }\n    );\n    ia = 0;\n    id = 7039152;\n    \"ip_address_location\" = \"\";\n    like = 0;\n    \"like_count\" = 0;\n    \"reply_id\" = 0;\n    \"sticker_icon\" =     (\n    );\n    time = \"2019-09-10 16:14:07\";\n    u =     {\n        \"followers_count_text\" = \"\";\n        id = 18477532;\n        \"is_prime\" = 0;\n        lv = 0;\n        lvl = 2;\n        n = \"\\U82f1\\U829d\\U829d\";\n        p = \"http:\/\/tx1.douguo.net\/upload\/photo\/a\/9\/9\/70_u03430695500587152634.jpg\";\n        \"progress_image\" = \"\";\n        \"recipes_count_text\" = \"\";\n        relationship = \"-1\";\n        title = \"\";\n        v = 0;\n        \"verified_image\" = \"\";\n    };\n}",
        "{\n    ac = \"#999999\";\n    at = \"\";\n    ccc = 0;\n    \"child_comments\" =     (\n    );\n    city = \"\";\n    cmc = 2;\n    content =     (\n                {\n            c = \"\\U5356\\U76f8\\U8d85\\U7ea7\\U597d\";\n        }\n    );\n    ia = 0;\n    id = 7039047;\n    \"ip_address_location\" = \"\";\n    like = 0;\n    \"like_count\" = 0;\n    \"reply_id\" = 0;\n    \"sticker_icon\" =     (\n    );\n    time = \"2019-09-10 15:49:01\";\n    u =     {\n        \"followers_count_text\" = \"\";\n        id = 18442967;\n        \"is_prime\" = 0;\n        lv = 0;\n        lvl = 3;\n        n = \"\\U8c26\\U865a\\U7684\\U706b\\U9e21\\U817f\\U5f88\\U65e7\";\n        p = \"http:\/\/tx1.douguo.net\/upload\/photo\/1\/1\/1\/70_97119ebfe9308f3a32e469b1b0b28f49.png\";\n        \"progress_image\" = \"\";\n        \"recipes_count_text\" = \"\";\n        relationship = \"-1\";\n        title = \"\";\n        v = 0;\n        \"verified_image\" = \"\";\n    };\n}",
        "{\n    ac = \"#999999\";\n    at = \"\";\n    ccc = 0;\n    \"child_comments\" =     (\n    );\n    city = \"\";\n    cmc = 2;\n    content =     (\n                {\n            c = \"\\U4eb2\\U505a\\U7684\\U771f\\U68d2\\Uff01\\U770b\\U7740\\U6211\\U5c31\\U6d41\\U53e3\\U6c34\\U4e86\\U3002\";\n        }\n    );\n    ia = 0;\n    id = 7039051;\n    \"ip_address_location\" = \"\";\n    like = 0;\n    \"like_count\" = 0;\n    \"reply_id\" = 0;\n    \"sticker_icon\" =     (\n    );\n    time = \"2019-09-10 15:49:01\";\n    u =     {\n        \"followers_count_text\" = \"\";\n        id = 23628030;\n        \"is_prime\" = 0;\n        lv = 0;\n        lvl = 6;\n        n = \"\\U5b89\\U742a\\U513fvyic\";\n        p = \"http:\/\/tx1.douguo.net\/upload\/photo\/4\/4\/0\/70_u9021231165090330014315.jpg\";\n        \"progress_image\" = \"\";\n        \"recipes_count_text\" = \"\";\n        relationship = \"-1\";\n        title = \"\";\n        v = 0;\n        \"verified_image\" = \"\";\n    };\n}"
      ],
      "tags" : [

      ],
      "cook_difficulty" : "掌勺(高级)",
      "ipoi" : "",
      "share_info" : {
        "mini_program" : [

        ],
        "infos" : [
          {
            "image" : "https:\/\/cp1.douguo.com\/upload\/caiku\/c\/9\/c\/c9d4f5e3d473b36233bf008f562f5b5c.jpeg",
            "s_u" : "",
            "mini_program" : [

            ],
            "qr_image" : "",
            "channel" : "1",
            "object_id" : "2308826",
            "s_d" : "#学做饭用豆果美食# 会做饭真是好酷啊！我在@豆果美食 分享了【红烧猪蹄-会做饭很酷!】，快来康康我这道菜做的怎么样～美味停不下来！查看图片了解菜谱（你喜欢的美食都在这里！https:\/\/m.weibo.cn\/p\/100404i33631）",
            "name" : "红烧猪蹄-会做饭很酷!"
          },
          {
            "channel" : "7",
            "s_d" : "红烧猪蹄-会做饭很酷!",
            "image" : "https:\/\/cp1.douguo.com\/upload\/caiku\/c\/9\/c\/c9d4f5e3d473b36233bf008f562f5b5c.jpeg",
            "name" : "红烧猪蹄-会做饭很酷!",
            "s_u" : "http:\/\/m.douguo.com\/cookbook\/2308826.html",
            "object_id" : "2308826",
            "qr_image" : "",
            "mini_program" : [

            ]
          },
          {
            "qr_image" : "",
            "s_u" : "http:\/\/m.douguo.com\/cookbook\/2308826.html",
            "object_id" : "2308826",
            "mini_program" : [

            ],
            "channel" : "8",
            "s_d" : "红烧猪蹄-会做饭很酷!",
            "name" : "红烧猪蹄-会做饭很酷!",
            "image" : "https:\/\/cp1.douguo.com\/upload\/caiku\/c\/9\/c\/c9d4f5e3d473b36233bf008f562f5b5c.jpeg"
          }
        ],
        "object_id" : "2308826",
        "s_d" : "红烧猪蹄-会做饭很酷!",
        "qr_image" : "",
        "name" : "红烧猪蹄-会做饭很酷!",
        "image" : "https:\/\/cp1.douguo.com\/upload\/caiku\/c\/9\/c\/c9d4f5e3d473b36233bf008f562f5b5c.jpeg",
        "s_u" : "http:\/\/m.douguo.com\/cookbook\/2308826.html"
      },
      "hqu" : "recipes:\/\/www.douguo.com\/notedetail?id=21162253",
      "hq" : 1,
      "ipt" : "",
      "rips" : 0,
      "comments_count_text" : "14",
      "dish_count" : 0,
      "image" : "http:\/\/i1.douguo.net\/upload\/caiku\/c\/9\/c\/300_c9d4f5e3d473b36233bf008f562f5b5c.jpeg",
      "major" : [
        {
          "tu" : "https:\/\/m.douguo.com\/ingredients\/猪蹄\/detailmaterial",
          "title" : "猪蹄",
          "note" : "半只"
        },
        {
          "title" : "生姜",
          "tu" : "https:\/\/m.douguo.com\/ingredients\/生姜\/detailmaterial",
          "note" : "1片"
        },
        {
          "tu" : "https:\/\/m.douguo.com\/ingredients\/料酒\/detailmaterial",
          "note" : "适量",
          "title" : "料酒"
        },
        {
          "note" : "适量",
          "title" : "生抽",
          "tu" : "https:\/\/m.douguo.com\/ingredients\/生抽\/detailmaterial"
        },
        {
          "tu" : "https:\/\/m.douguo.com\/ingredients\/老抽\/detailmaterial",
          "title" : "老抽",
          "note" : "适量"
        },
        {
          "title" : "盐",
          "tu" : "https:\/\/m.douguo.com\/ingredients\/盐\/detailmaterial",
          "note" : "一勺"
        },
        {
          "title" : "花椒",
          "note" : "一小把",
          "tu" : "https:\/\/m.douguo.com\/ingredients\/花椒\/detailmaterial"
        },
        {
          "note" : "1个",
          "title" : "八角",
          "tu" : "https:\/\/m.douguo.com\/ingredients\/八角\/detailmaterial"
        },
        {
          "title" : "香叶",
          "tu" : "https:\/\/m.douguo.com\/ingredients\/香叶\/detailmaterial",
          "note" : "2片"
        }
      ],
      "vu" : "",
      "dish_count_text" : ""
    }
  }
}