{
  "status" : 0,
  "state" : "success",
  "result" : {
    "recipe" : {
      "related_ads" : [

      ],
      "cook_difficulty_image" : "",
      "dish_count" : 0,
      "cookstorys" : [

      ],
      "sc" : 0,
      "major" : [
        {
          "title" : "萝卜糕",
          "note" : "两块"
        },
        {
          "note" : "两茶匙",
          "title" : "XO酱"
        }
      ],
      "user" : {
        "followers_count" : 0,
        "verified_url" : "https:\/\/m.douguo.com\/user\/prodesc",
        "regist_time" : "",
        "qq_weibo_nick" : "",
        "location" : 0,
        "coursecount" : 0,
        "birthday" : "",
        "favor_diaries_count" : 0,
        "user_large_photo" : "http:\/\/tx1.douguo.net\/upload\/photo\/3\/1\/4\/yuan_31fcd0a7612648cd765fe2daccf27a84.jpg",
        "recipes_count" : 0,
        "mobile" : "",
        "user_id" : "3688905",
        "setted_email" : 0,
        "introduction" : "",
        "qzone_nick" : "",
        "userid" : "3688905",
        "dishes_count" : 0,
        "sign" : "",
        "lv" : 0,
        "avatar_medium" : "http:\/\/tx1.douguo.net\/upload\/photo\/3\/1\/4\/140_31fcd0a7612648cd765fe2daccf27a84.jpg",
        "age" : "",
        "weibo_nick" : "",
        "favorites_count" : 0,
        "nick" : "梁家妇女",
        "verified" : 0,
        "lvl" : 3,
        "progress_image" : "",
        "user_cover" : "",
        "following_count" : 0,
        "gender" : 2,
        "email" : "",
        "user_photo" : "http:\/\/tx1.douguo.net\/upload\/photo\/3\/1\/4\/70_31fcd0a7612648cd765fe2daccf27a84.jpg",
        "pc" : 0,
        "fc" : 0,
        "is_prime" : 0,
        "subscription" : 0,
        "subscription_article_count" : 0,
        "verified_image" : "",
        "diaries_count" : 0,
        "point" : 0
      },
      "purl" : "",
      "recommended" : 0,
      "eu" : "recipes:\/\/www.douguo.com\/postdetail?id=242016",
      "cookstory" : "",
      "ipit" : 0,
      "recommend_label" : "1.0万人看过",
      "recipe_list_tags" : [
        {
          "background_border_color" : "",
          "jump_url" : "",
          "text" : "关注的人",
          "right_image" : "",
          "background_start_color" : "#F4F5F5",
          "text_color" : "#141515",
          "background_end_color" : "#F4F5F5"
        }
      ],
      "recipe_tags" : [

      ],
      "cook_id" : "1323690",
      "su" : "",
      "dish_count_text" : "",
      "rrps" : [

      ],
      "title" : "梁家妇女——XO酱香煎萝卜糕",
      "collect_status" : 0,
      "packages_id" : [

      ],
      "minor" : [

      ],
      "original_photo_path" : "http:\/\/i1.douguo.net\/upload\/caiku\/4\/6\/5\/yuan_46a6728ebde16d071ff101acaf0e64c5.jpg",
      "thumb_height" : 0,
      "ecs" : 1,
      "ipia" : [

      ],
      "cook_difficulty" : "",
      "create_time" : "2016-01-23 20:32:09",
      "top_mdsp" : [

      ],
      "author_verified" : 0,
      "rcs" : [

      ],
      "cook_time_image" : "https:\/\/i1.douguo.com\/upload\/banner\/1551424341.png",
      "brand_day_dsp" : [

      ],
      "vc" : "10266",
      "comments" : [
        "{\n    ac = \"#999999\";\n    at = \"\";\n    ccc = 0;\n    \"child_comments\" =     (\n    );\n    city = \"\";\n    cmc = 2;\n    content =     (\n                {\n            c = \"\\U6ee1\\U6ee1\\U90fd\\U662f\\U7231\\U554a\\Uff0c\\U4f1a\\U505a\\U996d\\U7684\\U4eba\\U90fd\\U7279\\U522b\\U725b\";\n        }\n    );\n    ia = 0;\n    id = 7130643;\n    \"ip_address_location\" = \"\";\n    like = 0;\n    \"like_count\" = 0;\n    \"reply_id\" = 0;\n    \"sticker_icon\" =     (\n    );\n    time = \"2019-10-01 07:26:13\";\n    u =     {\n        \"followers_count_text\" = \"\";\n        id = 18572730;\n        \"is_prime\" = 0;\n        lv = 0;\n        lvl = 3;\n        n = \"\\U968f\\U610f\\U7efe\\U9752\\U4e1d\";\n        p = \"http:\/\/tx1.douguo.net\/upload\/photo\/b\/0\/8\/70_u90732259679940203044.jpg\";\n        \"progress_image\" = \"\";\n        \"recipes_count_text\" = \"\";\n        relationship = \"-1\";\n        title = \"\";\n        v = 0;\n        \"verified_image\" = \"\";\n    };\n}"
      ],
      "guide_image" : "",
      "author_id" : 3688905,
      "recent_comments" : [

      ],
      "rpid" : 0,
      "image" : "http:\/\/i1.douguo.net\/upload\/caiku\/4\/6\/5\/300_46a6728ebde16d071ff101acaf0e64c5.jpg",
      "story_dsp" : [

      ],
      "ss" : [

      ],
      "dishes" : [

      ],
      "views_count_text" : "1.0万",
      "clicks" : "9118",
      "notes" : [

      ],
      "tags" : [

      ],
      "thumb_path" : "https:\/\/i1.douguo.com\/upload\/caiku\/4\/6\/5\/300_46a6728ebde16d071ff101acaf0e64c5.jpg",
      "ipci" : "",
      "comments_count" : 1,
      "photo_path" : "https:\/\/i1.douguo.com\/upload\/caiku\/4\/6\/5\/600_46a6728ebde16d071ff101acaf0e64c5.jpg",
      "favo_counts_text" : "19",
      "vfurl" : "",
      "bs" : [

      ],
      "share_info" : {
        "name" : "梁家妇女——XO酱香煎萝卜糕-会做饭很酷!",
        "image" : "https:\/\/cp1.douguo.com\/upload\/caiku\/4\/6\/5\/46a6728ebde16d071ff101acaf0e64c5.jpg",
        "mini_program" : [

        ],
        "s_u" : "http:\/\/m.douguo.com\/cookbook\/1323690.html",
        "object_id" : "1323690",
        "infos" : [
          {
            "mini_program" : [

            ],
            "image" : "https:\/\/cp1.douguo.com\/upload\/caiku\/4\/6\/5\/46a6728ebde16d071ff101acaf0e64c5.jpg",
            "name" : "梁家妇女——XO酱香煎萝卜糕-会做饭很酷!",
            "s_u" : "",
            "qr_image" : "",
            "s_d" : "#学做饭用豆果美食# 会做饭真是太酷了！我在@豆果美食 分享了【梁家妇女——XO酱香煎萝卜糕-会做饭很酷!】，这道菜真的神仙美味！喜欢的一定要试试绝对不会错的！～查看图片了解菜谱（快来点击https:\/\/m.weibo.cn\/p\/100404i33631和我一起修炼厨艺吧）",
            "channel" : "1",
            "object_id" : "1323690"
          },
          {
            "channel" : "7",
            "mini_program" : [

            ],
            "qr_image" : "",
            "object_id" : "1323690",
            "s_u" : "http:\/\/m.douguo.com\/cookbook\/1323690.html",
            "image" : "https:\/\/cp1.douguo.com\/upload\/caiku\/4\/6\/5\/46a6728ebde16d071ff101acaf0e64c5.jpg",
            "name" : "梁家妇女——XO酱香煎萝卜糕-会做饭很酷!",
            "s_d" : "梁家妇女——XO酱香煎萝卜糕-会做饭很酷!"
          },
          {
            "s_u" : "http:\/\/m.douguo.com\/cookbook\/1323690.html",
            "qr_image" : "",
            "name" : "梁家妇女——XO酱香煎萝卜糕-会做饭很酷!",
            "mini_program" : [

            ],
            "image" : "https:\/\/cp1.douguo.com\/upload\/caiku\/4\/6\/5\/46a6728ebde16d071ff101acaf0e64c5.jpg",
            "object_id" : "1323690",
            "channel" : "8",
            "s_d" : "梁家妇女——XO酱香煎萝卜糕-会做饭很酷!"
          }
        ],
        "s_d" : "梁家妇女——XO酱香煎萝卜糕-会做饭很酷!",
        "qr_image" : ""
      },
      "favo_counts" : 19,
      "v_u" : "",
      "cookstep" : [
        {
          "image" : "https:\/\/i1.douguo.com\/upload\/caiku\/b\/f\/6\/bf96adde3ddd2643aba521fd0b8446e6.jpg",
          "thumb" : "https:\/\/i1.douguo.com\/upload\/caiku\/b\/f\/6\/140_bf96adde3ddd2643aba521fd0b8446e6.jpg",
          "position" : 1,
          "content" : "把萝卜糕切成小方块（萝卜糕制作方法可以看我发布的菜谱——广式萝卜糕）",
          "frame" : "-1",
          "image_width" : 800,
          "image_height" : 600
        },
        {
          "image_height" : 600,
          "position" : 2,
          "image" : "https:\/\/i1.douguo.com\/upload\/caiku\/6\/7\/a\/67ce8515f9841829ce96a1cc6c7a250a.jpg",
          "image_width" : 800,
          "thumb" : "https:\/\/i1.douguo.com\/upload\/caiku\/6\/7\/a\/140_67ce8515f9841829ce96a1cc6c7a250a.jpg",
          "frame" : "-1",
          "content" : "先煎好萝卜糕"
        },
        {
          "content" : "放油，放两茶匙XO酱爆香",
          "frame" : "-1",
          "position" : 3,
          "image_height" : 1112,
          "image_width" : 800,
          "thumb" : "https:\/\/i1.douguo.com\/upload\/caiku\/7\/e\/9\/140_7e6a45dcf27e408a8917dc5c28c270b9.jpg",
          "image" : "https:\/\/i1.douguo.com\/upload\/caiku\/7\/e\/9\/7e6a45dcf27e408a8917dc5c28c270b9.jpg"
        },
        {
          "thumb" : "https:\/\/i1.douguo.com\/upload\/caiku\/b\/7\/5\/140_b7fbaecb0965265bc993035a46ef8d55.jpg",
          "image_height" : 600,
          "image_width" : 800,
          "position" : 4,
          "image" : "https:\/\/i1.douguo.com\/upload\/caiku\/b\/7\/5\/b7fbaecb0965265bc993035a46ef8d55.jpg",
          "frame" : "-1",
          "content" : "把煎好的萝卜糕放到锅里与XO酱一起翻炒拌匀"
        },
        {
          "image_height" : 600,
          "thumb" : "https:\/\/i1.douguo.com\/upload\/caiku\/a\/4\/2\/140_a40c41a0e4593f8427d7789e06588442.jpg",
          "position" : 5,
          "image_width" : 800,
          "frame" : "-1",
          "image" : "https:\/\/i1.douguo.com\/upload\/caiku\/a\/4\/2\/a40c41a0e4593f8427d7789e06588442.jpg",
          "content" : "装碟。萝卜糕与XO酱是绝配哦。"
        }
      ],
      "hqu" : "recipes:\/\/www.douguo.com\/notedetail?id=21162253",
      "ssu" : "",
      "ph" : 600,
      "title_ad" : [

      ],
      "act_des" : "",
      "comments_count_text" : "1",
      "author_photo" : "http:\/\/tx1.douguo.net\/upload\/photo\/3\/1\/4\/70_31fcd0a7612648cd765fe2daccf27a84.jpg",
      "rewarded_video_dsp" : [

      ],
      "recommendation_tag" : "",
      "display_ingredient" : 1,
      "pw" : 800,
      "vu" : "",
      "ipurl" : "",
      "rpt" : "",
      "levelid" : 2,
      "rate" : 0,
      "rate_show" : 0,
      "tips" : "",
      "btm_dsp" : [

      ],
      "rpst" : "",
      "ipt" : "",
      "mid_mdsp" : [

      ],
      "rate_count" : 0,
      "old_comments" : [

      ],
      "sr" : "",
      "rdsps" : [

      ],
      "cookwares" : [

      ],
      "first_level_comment_count" : 1,
      "rrpt" : "",
      "hq" : 1,
      "release_time" : "",
      "rips" : 0,
      "author" : "梁家妇女",
      "rsm" : "该功能暂停使用",
      "cook_time" : "10-30分钟",
      "ipoi" : ""
    }
  }
}