{
  "status" : 0,
  "state" : "success",
  "result" : {
    "recipe" : {
      "brand_day_dsp" : [

      ],
      "packages_id" : [

      ],
      "vfurl" : "https:\/\/vplay.douguo.com\/li_z1eCM3mixXmCpj5X1-XBYb73E__640x360.mp4",
      "sr" : "",
      "cookstep" : [
        {
          "position" : 1,
          "thumb" : "https:\/\/i1.douguo.com\/upload\/caiku\/d\/b\/3\/140_db18295ecb5bae3cfd87c4d90baefc23.jpg",
          "image" : "https:\/\/i1.douguo.com\/upload\/caiku\/d\/b\/3\/db18295ecb5bae3cfd87c4d90baefc23.jpg",
          "image_width" : 6000,
          "content" : "今天我们来做三种颜色的薯片，我用了红薯、紫薯和芋头。先来削皮，削皮后的重量一共是600克，每一种食材是200克。接着倒入清水里面再洗一遍，然后切片。切好后分别装入盘中，再上锅蒸。盖上盖子大火15分钟左右就熟透了。",
          "frame" : "-1",
          "image_height" : 3376
        },
        {
          "frame" : "-1",
          "position" : 2,
          "content" : "关火后先取出蒸熟的红薯，紫薯和芋头放锅里保温。蒸好的红薯趁热加入40克白糖捣成泥。",
          "image" : "https:\/\/i1.douguo.com\/upload\/caiku\/b\/7\/8\/b7f6cbe3619e929470f56f06f3c676c8.jpg",
          "image_height" : 3376,
          "thumb" : "https:\/\/i1.douguo.com\/upload\/caiku\/b\/7\/8\/140_b7f6cbe3619e929470f56f06f3c676c8.jpg",
          "image_width" : 6000
        },
        {
          "image" : "https:\/\/i1.douguo.com\/upload\/caiku\/4\/5\/d\/451124536fdbf4b440af9c47bfb7ba1d.jpg",
          "image_width" : 6000,
          "image_height" : 3376,
          "position" : 3,
          "content" : "接着加入200克木薯淀粉，用筷子搅拌均匀后上手揉面，揉成一个软硬适中的面团儿，这个面团儿是不能太软的 ，不然后面会不太好操作，揉好后用保鲜膜包起来备用。",
          "thumb" : "https:\/\/i1.douguo.com\/upload\/caiku\/4\/5\/d\/140_451124536fdbf4b440af9c47bfb7ba1d.jpg",
          "frame" : "-1"
        },
        {
          "content" : "接着再取出蒸好的紫薯，同样的趁热加40克白糖捣成泥，加200克木薯淀粉\r\n然后上手揉成面团儿。紫薯和芋头会比红薯干一点，不好揉就适量的加一点点水后再揉。揉好的面团不会太软，有一点硬度但又不会散开，像这样就可以了，同样用保鲜膜包起来后备用。",
          "thumb" : "https:\/\/i1.douguo.com\/upload\/caiku\/4\/4\/8\/140_4416b8053086851e832a93048d158898.jpg",
          "frame" : "-1",
          "position" : 4,
          "image_width" : 6000,
          "image_height" : 3376,
          "image" : "https:\/\/i1.douguo.com\/upload\/caiku\/4\/4\/8\/4416b8053086851e832a93048d158898.jpg"
        },
        {
          "frame" : "-1",
          "image_width" : 6000,
          "position" : 5,
          "content" : "最后来把芋头取出来，同样的步骤和比例，加40克白糖压成泥，然后加200克木薯淀粉揉成团儿。揉好后直接移到砧板上来，另外的两份也取出来，先全部揉成长条。",
          "image_height" : 3376,
          "thumb" : "https:\/\/i1.douguo.com\/upload\/caiku\/8\/b\/0\/140_8b315a82ea4f5845d20f513876e36a00.jpg",
          "image" : "https:\/\/i1.douguo.com\/upload\/caiku\/8\/b\/0\/8b315a82ea4f5845d20f513876e36a00.jpg"
        },
        {
          "frame" : "-1",
          "image" : "https:\/\/i1.douguo.com\/upload\/caiku\/d\/9\/3\/d95fe8868913de16fca45cbbe00b5ab3.jpg",
          "content" : "然后再分成小段，接着蒸锅铺上油纸防粘，或者直接刷油，把切好的面团生胚放进来，不要挨着太近了，每段之间要有一定的距离，因为蒸制过程中会膨胀，放的太近一蒸就全部粘连在一起了。",
          "thumb" : "https:\/\/i1.douguo.com\/upload\/caiku\/d\/9\/3\/140_d95fe8868913de16fca45cbbe00b5ab3.jpg",
          "image_width" : 6000,
          "position" : 6,
          "image_height" : 3376
        },
        {
          "thumb" : "https:\/\/i1.douguo.com\/upload\/caiku\/1\/c\/1\/140_1c0a1053ee466cc705dd050634cea7f1.jpg",
          "image" : "https:\/\/i1.douguo.com\/upload\/caiku\/1\/c\/1\/1c0a1053ee466cc705dd050634cea7f1.jpg",
          "image_width" : 6000,
          "position" : 7,
          "image_height" : 3376,
          "frame" : "-1",
          "content" : "水开上汽后大火蒸40分钟，一定要蒸熟蒸透。全部蒸好后关火取出放到晾架上风干，我是风干一个晚上，第二天早上来切硬度刚刚好，表面已经非常干爽了，捏一下是比较硬的状态就可以了。"
        },
        {
          "content" : "下面就可以开始来切片了，尽可能切得越薄越好，这一步会有点费劲，因为不是特别的好切，我切得算比较厚的 其实也没有关系，晒得时候晒干一点就好了。",
          "thumb" : "https:\/\/i1.douguo.com\/upload\/caiku\/1\/f\/3\/140_1f53c84fad7b5cf59c8edcbaa75a45e3.jpg",
          "image" : "https:\/\/i1.douguo.com\/upload\/caiku\/1\/f\/3\/1f53c84fad7b5cf59c8edcbaa75a45e3.jpg",
          "image_height" : 3376,
          "position" : 8,
          "image_width" : 6000,
          "frame" : "-1"
        },
        {
          "thumb" : "https:\/\/i1.douguo.com\/upload\/caiku\/1\/4\/4\/140_141a9fc2a3ad0acaf9f6aae486b588b4.jpg",
          "frame" : "-1",
          "position" : 9,
          "image_width" : 6000,
          "content" : "全部切好以后均匀的摆在晾架上，然后直接放入太阳底下暴晒。",
          "image" : "https:\/\/i1.douguo.com\/upload\/caiku\/1\/4\/4\/141a9fc2a3ad0acaf9f6aae486b588b4.jpg",
          "image_height" : 3376
        },
        {
          "image_height" : 3376,
          "content" : "完全晒干以后就可以收起来了，这是我晒了两个太阳的状态，已经都非常的干了。",
          "image_width" : 6000,
          "frame" : "-1",
          "position" : 10,
          "image" : "https:\/\/i1.douguo.com\/upload\/caiku\/4\/6\/d\/4688be2e5309324eab4131d38af8a19d.jpg",
          "thumb" : "https:\/\/i1.douguo.com\/upload\/caiku\/4\/6\/d\/140_4688be2e5309324eab4131d38af8a19d.jpg"
        },
        {
          "frame" : "-1",
          "content" : "完全晒干以后就可以收起来了，这是我晒了两个太阳的状态，已经都非常的干了。",
          "position" : 11,
          "thumb" : "https:\/\/i1.douguo.com\/upload\/caiku\/2\/7\/a\/140_274e279e0e3fde1dca36f69c6ff9147a.jpg",
          "image" : "https:\/\/i1.douguo.com\/upload\/caiku\/2\/7\/a\/274e279e0e3fde1dca36f69c6ff9147a.jpg",
          "image_width" : 6000,
          "image_height" : 3376
        },
        {
          "position" : 12,
          "thumb" : "https:\/\/i1.douguo.com\/upload\/caiku\/2\/d\/d\/140_2dc4c2ab1cc0125ccbb0235c509b968d.jpg",
          "frame" : "-1",
          "image_height" : 1080,
          "image_width" : 1920,
          "content" : "我们的薯片就基本做好了，想吃的时候随时炸就行，吃不完的将其密封保存，装进罐子或者是袋子都可以，放在通风的地方别回潮就行。",
          "image" : "https:\/\/i1.douguo.com\/upload\/caiku\/2\/d\/d\/2dc4c2ab1cc0125ccbb0235c509b968d.jpg"
        },
        {
          "content" : "我们现在来炸一下看，起锅倒油，先把油烧热，油热后可以用筷子试一下油温，当筷子下去能迅速的冒小泡泡就可以转小火了。接着抓一小把薯片扔到锅中炸，大约3秒左右薯片就会快速膨胀浮起来，全部飘起来后迅速捞出来控油。\r\n薯片一次不要炸太多，薯片膨胀起来也就几秒钟，一次炸太多了来不及迅速捞出来就很容易糊，全部炸好后捞出来控油。",
          "image" : "https:\/\/i1.douguo.com\/upload\/caiku\/e\/a\/f\/eafa3b3ae7b42752fdf2994ddaac71ef.jpg",
          "position" : 13,
          "frame" : "-1",
          "image_width" : 6000,
          "thumb" : "https:\/\/i1.douguo.com\/upload\/caiku\/e\/a\/f\/140_eafa3b3ae7b42752fdf2994ddaac71ef.jpg",
          "image_height" : 3376
        },
        {
          "frame" : "-1",
          "image" : "https:\/\/i1.douguo.com\/upload\/caiku\/f\/c\/7\/fc1f529103eeda8fa9e2faa361e5ffc7.jpg",
          "thumb" : "https:\/\/i1.douguo.com\/upload\/caiku\/f\/c\/7\/140_fc1f529103eeda8fa9e2faa361e5ffc7.jpg",
          "image_height" : 3376,
          "image_width" : 6000,
          "content" : "完全凉透以后来吃才是真正的焦香酥脆，不信你们听声音，真的是又香又脆，还带着淡淡的红薯、紫薯和芋头味。\r\n口味我做的是甜口的，吃起来嘎嘣脆的同时还带点甜，吃不完的一定要装进盒子密封保存，不然回潮变软就不好吃了。",
          "position" : 14
        }
      ],
      "ipoi" : "",
      "views_count_text" : "2.5万",
      "comments" : [
        "{\n    ac = \"#999999\";\n    at = \"\\U5317\\U4eac\\U5e02\";\n    ccc = 1;\n    \"child_comments\" =     (\n                {\n            ac = \"#999999\";\n            at = \"\\U53f0\\U5dde\\U5e02\";\n            ccc = 0;\n            city = \"\\U53f0\\U5dde\\U5e02\";\n            cmc = 2;\n            content =             (\n                                {\n                    c = \" \\U540c\\U95ee\";\n                }\n            );\n            ia = 0;\n            id = 8684304;\n            \"ip_address_location\" = \"\";\n            like = 0;\n            \"like_count\" = 0;\n            \"reply_id\" = 8684200;\n            \"reply_user\" =             {\n                \"followers_count_text\" = \"\";\n                id = 25497978;\n                \"is_prime\" = 0;\n                lv = 0;\n                lvl = 1;\n                n = \"\\U8e09\\U8dc4\\U7684\\U706b\\U9505\\U9762\\U5f88\\U8457\\U540d\";\n                p = \"http:\/\/tx1.douguo.net\/upload\/photo\/1\/1\/1\/70_07220b4b85fcb8ef15a2785fc98258f3.png\";\n                \"progress_image\" = \"\";\n                \"recipes_count_text\" = \"\";\n                relationship = \"-1\";\n                title = \"\";\n                v = 0;\n                \"verified_image\" = \"\";\n            };\n            \"sticker_icon\" =             (\n            );\n            time = \"2021-05-20 11:11:33\";\n            u =             {\n                \"followers_count_text\" = \"\";\n                id = 10174019;\n                \"is_prime\" = 0;\n                lv = 0;\n                lvl = 4;\n                n = \"\\U534a\\U68f5\\U6c34\\U8349\";\n                p = \"http:\/\/tx1.douguo.net\/upload\/photo\/f\/6\/c\/70_u35893146958466230434.jpg\";\n                \"progress_image\" = \"\";\n                \"recipes_count_text\" = \"\";\n                relationship = \"-1\";\n                title = \"\";\n                v = 0;\n                \"verified_image\" = \"\";\n            };\n        }\n    );\n    city = \"\\U5317\\U4eac\\U5e02\";\n    cmc = 2;\n    content =     (\n                {\n            c = \"\\U60a8\\U597d  \\U6ca1\\U6709\\U6728\\U85af\\U6dc0\\U7c89  \\U53ef\\U4ee5\\U7528\\U7389\\U7c73\\U6dc0\\U7c89\\U6216\\U9a6c\\U94c3\\U85af\\U6dc0\\U7c89\\Uff1f\";\n        }\n    );\n    ia = 0;\n    id = 8684200;\n    \"ip_address_location\" = \"\";\n    like = 0;\n    \"like_count\" = 0;\n    \"reply_id\" = 0;\n    \"sticker_icon\" =     (\n    );\n    time = \"2021-05-20 09:58:10\";\n    u =     {\n        \"followers_count_text\" = \"\";\n        id = 25497978;\n        \"is_prime\" = 0;\n        lv = 0;\n        lvl = 1;\n        n = \"\\U8e09\\U8dc4\\U7684\\U706b\\U9505\\U9762\\U5f88\\U8457\\U540d\";\n        p = \"http:\/\/tx1.douguo.net\/upload\/photo\/1\/1\/1\/70_07220b4b85fcb8ef15a2785fc98258f3.png\";\n        \"progress_image\" = \"\";\n        \"recipes_count_text\" = \"\";\n        relationship = \"-1\";\n        title = \"\";\n        v = 0;\n        \"verified_image\" = \"\";\n    };\n}",
        "{\n    ac = \"#999999\";\n    at = \"\\U6885\\U5dde\\U5e02\";\n    ccc = 0;\n    \"child_comments\" =     (\n    );\n    city = \"\\U6885\\U5dde\\U5e02\";\n    cmc = 2;\n    content =     (\n                {\n            c = \"\\U70b8\\U7684\\U65f6\\U5019\\U4e0d\\U4f1a\\U81a8\\Uff1f\\U662f\\U4ec0\\U4e48\\U539f\\U56e0\\Uff1f\\U662f\\U5207\\U7684\\U592a\\U539a\\Uff1f\\U8fd8\\U662f\\U9762\\U56e2\\U592a\\U8f6f\\Uff1f\";\n        }\n    );\n    ia = 0;\n    id = 8908672;\n    \"ip_address_location\" = \"\";\n    like = 0;\n    \"like_count\" = 0;\n    \"reply_id\" = 0;\n    \"sticker_icon\" =     (\n    );\n    time = \"2022-01-19 08:38:56\";\n    u =     {\n        \"followers_count_text\" = \"\";\n        id = 8376181;\n        \"is_prime\" = 0;\n        lv = 0;\n        lvl = 4;\n        n = \"\\U2640\\U5fc3\\U7684\\U5b88\\U5019\";\n        p = \"http:\/\/tx1.douguo.net\/upload\/photo\/5\/8\/e\/70_u24963802251349160637.jpg\";\n        \"progress_image\" = \"\";\n        \"recipes_count_text\" = \"\";\n        relationship = \"-1\";\n        title = \"\";\n        v = 0;\n        \"verified_image\" = \"\";\n    };\n}",
        "{\n    ac = \"#999999\";\n    at = \"\";\n    ccc = 0;\n    \"child_comments\" =     (\n    );\n    city = \"\";\n    cmc = 2;\n    content =     (\n                {\n            c = \"\\U4f60\\U597d\\U68d2\\U5594\\Ud83c\\Udf39\";\n        }\n    );\n    ia = 0;\n    id = 8709404;\n    \"ip_address_location\" = \"\";\n    like = 0;\n    \"like_count\" = 0;\n    \"reply_id\" = 0;\n    \"sticker_icon\" =     (\n    );\n    time = \"2021-06-12 20:01:24\";\n    u =     {\n        \"followers_count_text\" = \"\";\n        id = 10093588;\n        \"is_prime\" = 0;\n        lv = 0;\n        lvl = 4;\n        n = \"\\U4e91\\U6de1\\U98ce\\U8f7b621\";\n        p = \"http:\/\/tx1.douguo.net\/upload\/photo\/f\/3\/a\/70_u35497666196632164033.jpg\";\n        \"progress_image\" = \"\";\n        \"recipes_count_text\" = \"\";\n        relationship = \"-1\";\n        title = \"\";\n        v = 0;\n        \"verified_image\" = \"\";\n    };\n}"
      ],
      "rdsps" : [

      ],
      "create_time" : "2021-05-19 22:55:14",
      "ss" : [

      ],
      "original_photo_path" : "http:\/\/i1.douguo.net\/upload\/caiku\/3\/5\/5\/yuan_3558cb4bcf6e6c7a35ebd846ffff5f15.jpg",
      "ipci" : "",
      "dish_count_text" : "",
      "thumb_path" : "https:\/\/i1.douguo.com\/upload\/caiku\/3\/5\/5\/300_3558cb4bcf6e6c7a35ebd846ffff5f15.jpg",
      "ecs" : 1,
      "first_level_comment_count" : 16,
      "related_ads" : [

      ],
      "rcs" : [

      ],
      "bs" : [

      ],
      "eu" : "recipes:\/\/www.douguo.com\/postdetail?id=242016",
      "ipit" : 0,
      "minor" : [

      ],
      "rips" : 0,
      "ipia" : [

      ],
      "rpst" : "",
      "dish_count" : 0,
      "act_des" : "",
      "cookstory" : "可能是夏天到了，感觉食欲都变好了起来，最近真的是超级爱吃各种薯片。于是就在家琢磨着要不自己来做吧。然后就发现了芋兰片的做法，然后我又自己加了红薯和紫薯，出来的颜色真的是太漂亮了，口感上它比薯片、虾片口感觉更好吃呢。\r\n它还有一个最大的优点，就是做一次可以管很久很久，只要不回潮，就是放一年也没有任何问题哈。吃的时候随时炸就行，而且炸好的薯片放进密封的盒子里还可以保存一个星期，我一次炸了一大盒，我爸爸每天晚上看电视都会吃，说酥酥脆脆的还一点都油腻，比外面买的好吃多了。所以这个配方一定要分享给大家，学会了轻松实现薯片自由。",
      "thumb_height" : 0,
      "rsm" : "该功能暂停使用",
      "rate_count" : 0,
      "vc" : "25496",
      "rate" : 0,
      "old_comments" : [

      ],
      "tips" : "1、木薯淀粉揉成面团儿会没有面粉好揉，最好是趁热揉面；紫薯和芋头比较干，实在揉不成团儿就加点水。\r\n2、切片的时候真的是很考验刀工，还有刀的锋利程度，切不好的就像我一样切厚片，晒得时候多晒会儿就好了，不用纠结是不是真的要切成薄如纸的状态。稍微厚一点我觉得口感还更好吃呢。\r\n3、炸薯片的时候真的不能犹豫，尤其是芋头口味的，只要全部飘起来了就立马捞出来，停顿几秒白色就会瞬间变黄变焦。\r\n4、个人觉得紫薯口味的是最好吃的，颜色也好看。红薯的可能是含水量比较高，炸出总感觉差了一丢丢，而且颜色也不是特别的好看，大家根据自己的口味来吧。",
      "rate_show" : 0,
      "author_photo" : "http:\/\/tx1.douguo.net\/upload\/photo\/4\/0\/3\/70_u46260142582474162539.jpeg",
      "recent_comments" : [

      ],
      "photo_path" : "https:\/\/i1.douguo.com\/upload\/caiku\/3\/5\/5\/600_3558cb4bcf6e6c7a35ebd846ffff5f15.jpg",
      "cook_time_image" : "",
      "sc" : 0,
      "cook_id" : "3094198",
      "vu" : "https:\/\/vplay.douguo.com\/li_z1eCM3mixXmCpj5X1-XBYb73E",
      "ipt" : "",
      "comments_count_text" : "17",
      "major" : [
        {
          "tu" : "https:\/\/m.douguo.com\/ingredients\/红薯\/detailmaterial",
          "note" : "200克",
          "title" : "红薯"
        },
        {
          "title" : "紫薯",
          "note" : "200克"
        },
        {
          "note" : "200克",
          "title" : "芋头",
          "tu" : "https:\/\/m.douguo.com\/ingredients\/芋头\/detailmaterial"
        },
        {
          "note" : "120克",
          "title" : "白糖",
          "tu" : "https:\/\/m.douguo.com\/ingredients\/白糖\/detailmaterial"
        },
        {
          "note" : "600克",
          "title" : "木薯淀粉"
        }
      ],
      "mid_mdsp" : [

      ],
      "v_u" : "",
      "ssu" : "",
      "pw" : 6000,
      "dishes" : [

      ],
      "tags" : [

      ],
      "author_id" : 23093729,
      "comments_count" : 17,
      "author" : "蓉小厨",
      "rpid" : 0,
      "user" : {
        "avatar_medium" : "http:\/\/tx1.douguo.net\/upload\/photo\/4\/0\/3\/140_u46260142582474162539.jpeg",
        "user_photo" : "http:\/\/tx1.douguo.net\/upload\/photo\/4\/0\/3\/70_u46260142582474162539.jpeg",
        "following_count" : 0,
        "subscription_article_count" : 0,
        "recipes_count" : 0,
        "weibo_nick" : "",
        "mobile" : "",
        "favorites_count" : 0,
        "verified_image" : "https:\/\/i1.douguo.com\/upload\/note\/d\/a\/a\/da84247847aebe48d9dd0fcdac88862a.png",
        "birthday" : "",
        "verified" : 1,
        "subscription" : 0,
        "setted_email" : 0,
        "email" : "",
        "qq_weibo_nick" : "",
        "fc" : 0,
        "lv" : 0,
        "point" : 0,
        "diaries_count" : 0,
        "gender" : 2,
        "user_cover" : "",
        "qzone_nick" : "",
        "regist_time" : "",
        "user_id" : "23093729",
        "introduction" : "",
        "coursecount" : 0,
        "age" : "",
        "pc" : 0,
        "dishes_count" : 0,
        "favor_diaries_count" : 0,
        "progress_image" : "",
        "verified_url" : "https:\/\/m.douguo.com\/user\/prodesc",
        "location" : 0,
        "lvl" : 6,
        "user_large_photo" : "http:\/\/tx1.douguo.net\/upload\/photo\/4\/0\/3\/yuan_u46260142582474162539.jpeg",
        "sign" : "",
        "followers_count" : 0,
        "userid" : "23093729",
        "is_prime" : 0,
        "nick" : "蓉小厨"
      },
      "share_info" : {
        "image" : "https:\/\/cp1.douguo.com\/upload\/caiku\/3\/5\/5\/3558cb4bcf6e6c7a35ebd846ffff5f15.jpg",
        "mini_program" : [

        ],
        "infos" : [
          {
            "qr_image" : "",
            "image" : "https:\/\/cp1.douguo.com\/upload\/caiku\/3\/5\/5\/3558cb4bcf6e6c7a35ebd846ffff5f15.jpg",
            "channel" : "1",
            "name" : "薯片（芋兰片）-会做饭很酷!",
            "s_u" : "",
            "s_d" : "#学做饭用豆果美食# 会做饭真是太酷了！我在@豆果美食 分享了【薯片（芋兰片）-会做饭很酷!】，这道菜真的神仙美味！喜欢的一定要试试绝对不会错的！～查看图片了解菜谱（快来点击https:\/\/m.weibo.cn\/p\/100404i33631和我一起修炼厨艺吧）",
            "object_id" : "3094198",
            "mini_program" : [

            ]
          },
          {
            "qr_image" : "",
            "s_d" : "薯片（芋兰片）-会做饭很酷!",
            "object_id" : "3094198",
            "mini_program" : [

            ],
            "name" : "薯片（芋兰片）-会做饭很酷!",
            "image" : "https:\/\/cp1.douguo.com\/upload\/caiku\/3\/5\/5\/3558cb4bcf6e6c7a35ebd846ffff5f15.jpg",
            "s_u" : "http:\/\/m.douguo.com\/cookbook\/3094198.html",
            "channel" : "7"
          },
          {
            "mini_program" : [

            ],
            "s_d" : "薯片（芋兰片）-会做饭很酷!",
            "image" : "https:\/\/cp1.douguo.com\/upload\/caiku\/3\/5\/5\/3558cb4bcf6e6c7a35ebd846ffff5f15.jpg",
            "name" : "薯片（芋兰片）-会做饭很酷!",
            "object_id" : "3094198",
            "qr_image" : "",
            "channel" : "8",
            "s_u" : "http:\/\/m.douguo.com\/cookbook\/3094198.html"
          }
        ],
        "qr_image" : "",
        "s_d" : "薯片（芋兰片）-会做饭很酷!",
        "name" : "薯片（芋兰片）-会做饭很酷!",
        "object_id" : "3094198",
        "s_u" : "http:\/\/m.douguo.com\/cookbook\/3094198.html"
      },
      "guide_image" : "",
      "clicks" : "21974",
      "top_mdsp" : [

      ],
      "rrps" : [

      ],
      "recommendation_tag" : "",
      "title_ad" : [

      ],
      "cookwares" : [

      ],
      "rewarded_video_dsp" : [

      ],
      "cook_time" : "",
      "ph" : 3376,
      "favo_counts_text" : "238",
      "cook_difficulty_image" : "",
      "recommend_label" : "2.5万人看过",
      "favo_counts" : 238,
      "story_dsp" : [

      ],
      "btm_dsp" : [

      ],
      "image" : "http:\/\/i1.douguo.net\/upload\/caiku\/3\/5\/5\/300_3558cb4bcf6e6c7a35ebd846ffff5f15.jpg",
      "title" : "薯片（芋兰片）",
      "recipe_tags" : [

      ],
      "cookstorys" : [
        {
          "id" : 0,
          "color" : "",
          "type" : 0,
          "icon" : "",
          "u" : "",
          "c" : "可能是夏天到了，感觉食欲都变好了起来，最近真的是超级爱吃各种薯片。于是就在家琢磨着要不自己来做吧。然后就发现了芋兰片的做法，然后我又自己加了红薯和紫薯，出来的颜色真的是太漂亮了，口感上它比薯片、虾片口感觉更好吃呢。\r\n它还有一个最大的优点，就是做一次可以管很久很久，只要不回潮，就是放一年也没有任何问题哈。吃的时候随时炸就行，而且炸好的薯片放进密封的盒子里还可以保存一个星期，我一次炸了一大盒，我爸爸每天晚上看电视都会吃，说酥酥脆脆的还一点都油腻，比外面买的好吃多了。所以这个配方一定要分享给大家，学会了轻松实现薯片自由。"
        }
      ],
      "ipurl" : "",
      "rpt" : "",
      "cook_difficulty" : "",
      "su" : "",
      "rrpt" : "",
      "display_ingredient" : 1,
      "recommended" : 0,
      "hq" : 1,
      "hqu" : "recipes:\/\/www.douguo.com\/notedetail?id=21162253",
      "author_verified" : 1,
      "advice" : {
        "at" : "能有效控制体重～",
        "has" : [
          {
            "t" : "低脂",
            "url" : "recipes:\/\/www.douguo.com\/simplerecipelist?t=低脂&id=低脂"
          },
          {
            "url" : "recipes:\/\/www.douguo.com\/simplerecipelist?t=富含膳食纤维&id=富含膳食纤维",
            "t" : "富含膳食纤维"
          }
        ],
        "da" : {
          "t" : "查看详细分析",
          "url" : "https:\/\/m.douguo.com\/recipe\/nutrient_self\/3094198",
          "iu" : "https:\/\/i1.douguo.com\/upload\/banner\/f\/4\/d\/f48877e53c37759bc12ac494be82ec8d.png"
        }
      },
      "purl" : "",
      "collect_status" : 0,
      "recipe_list_tags" : [
        {
          "jump_url" : "",
          "background_start_color" : "#F4F5F5",
          "right_image" : "",
          "background_border_color" : "",
          "background_end_color" : "#F4F5F5",
          "text" : "关注的人",
          "text_color" : "#141515"
        },
        {
          "text_color" : "#141515",
          "right_image" : "",
          "background_end_color" : "#F4F5F5",
          "text" : "内容详细",
          "jump_url" : "",
          "background_start_color" : "#F4F5F5",
          "background_border_color" : ""
        }
      ],
      "notes" : [

      ],
      "levelid" : 2,
      "release_time" : ""
    }
  }
}