{
  "state" : "success",
  "status" : 0,
  "result" : {
    "recipe" : {
      "recent_comments" : [

      ],
      "cook_time" : "10~30分钟",
      "user" : {
        "introduction" : "",
        "mobile" : "",
        "qq_weibo_nick" : "",
        "dishes_count" : 0,
        "subscription_article_count" : 0,
        "progress_image" : "",
        "location" : 0,
        "birthday" : "",
        "lvl" : 6,
        "user_photo" : "http:\/\/tx1.douguo.net\/upload\/photo\/0\/6\/f\/70_06315af5c5adedddf14ff16f33711e6f.jpg",
        "coursecount" : 0,
        "lv" : 0,
        "point" : 0,
        "userid" : "19622142",
        "weibo_nick" : "",
        "verified_url" : "https:\/\/m.douguo.com\/user\/prodesc",
        "fc" : 0,
        "is_prime" : 0,
        "user_cover" : "",
        "followers_count" : 0,
        "favor_diaries_count" : 0,
        "favorites_count" : 0,
        "verified" : 1,
        "verified_image" : "https:\/\/i1.douguo.com\/upload\/note\/d\/a\/a\/da84247847aebe48d9dd0fcdac88862a.png",
        "sign" : "",
        "email" : "",
        "user_large_photo" : "http:\/\/tx1.douguo.net\/upload\/photo\/0\/6\/f\/yuan_06315af5c5adedddf14ff16f33711e6f.jpg",
        "nick" : "累并-快乐",
        "user_id" : "19622142",
        "recipes_count" : 0,
        "subscription" : 0,
        "regist_time" : "",
        "diaries_count" : 0,
        "following_count" : 0,
        "age" : "",
        "avatar_medium" : "http:\/\/tx1.douguo.net\/upload\/photo\/0\/6\/f\/140_06315af5c5adedddf14ff16f33711e6f.jpg",
        "pc" : 0,
        "qzone_nick" : "",
        "gender" : 2,
        "setted_email" : 0
      },
      "ipia" : [

      ],
      "sc" : 0,
      "favo_counts_text" : "3214",
      "advice" : {
        "da" : {
          "url" : "https:\/\/m.douguo.com\/recipe\/nutrient_self\/3227162",
          "iu" : "https:\/\/i1.douguo.com\/upload\/banner\/f\/4\/d\/f48877e53c37759bc12ac494be82ec8d.png",
          "t" : "查看详细分析"
        },
        "has" : [
          {
            "url" : "recipes:\/\/www.douguo.com\/simplerecipelist?t=低盐&id=低盐",
            "t" : "低盐"
          }
        ],
        "at" : "钠能调节机体水分，维持酸碱平衡～"
      },
      "sr" : "",
      "thumb_path" : "https:\/\/i1.douguo.com\/upload\/caiku\/2\/a\/0\/300_2aa99f35b3f1a6135450f5cd2ac316d0.jpg",
      "rdsps" : [

      ],
      "ipurl" : "",
      "ipit" : 0,
      "act_des" : "",
      "rrps" : [

      ],
      "views_count_text" : "30.9万",
      "title_ad" : [

      ],
      "rips" : 0,
      "ss" : [

      ],
      "vu" : "",
      "vc" : "308980",
      "comments_count" : 29,
      "rate" : 5,
      "recommendation_tag" : "",
      "packages_id" : [

      ],
      "levelid" : 2,
      "cook_difficulty_image" : "",
      "old_comments" : [

      ],
      "favo_counts" : 3214,
      "dish_count_text" : "10",
      "hq" : 1,
      "cookstory" : "超好吃的酥皮大泡芙，简单快手，注意这几点想要失败都困难。[举手R]\n\n此方子可以做18个左右的大泡芙[偷笑R]",
      "cookwares" : [

      ],
      "btm_dsp" : [

      ],
      "comments_count_text" : "29",
      "rrpt" : "",
      "notes" : [

      ],
      "eu" : "recipes:\/\/www.douguo.com\/postdetail?id=242016",
      "ph" : 1024,
      "ssu" : "",
      "recipe_tags" : [

      ],
      "create_time" : "2022-11-29 05:14:15",
      "rate_show" : 0,
      "thumb_height" : 0,
      "author" : "累并-快乐",
      "vfurl" : "",
      "author_photo" : "http:\/\/tx1.douguo.net\/upload\/photo\/0\/6\/f\/70_06315af5c5adedddf14ff16f33711e6f.jpg",
      "rsm" : "该功能暂停使用",
      "share_info" : {
        "qr_image" : "",
        "infos" : [
          {
            "qr_image" : "",
            "object_id" : "3227162",
            "s_d" : "#学做饭用豆果美食# 会做饭真是太酷了！我在@豆果美食 分享了【酥皮大泡芙——自用多年零失败配方分享-会做饭很酷!】OMG！这是什么神仙美味啊~真的强烈推荐你们试一试～查看图片了解菜谱（每天限量免费课程，想跟大师学厨艺就来这https:\/\/m.weibo.cn\/p\/100404i33631）",
            "mini_program" : [

            ],
            "name" : "酥皮大泡芙——自用多年零失败配方分享-会做饭很酷!",
            "s_u" : "",
            "channel" : "1",
            "image" : "https:\/\/cp1.douguo.com\/upload\/caiku\/2\/a\/0\/2aa99f35b3f1a6135450f5cd2ac316d0.jpg"
          },
          {
            "image" : "https:\/\/cp1.douguo.com\/upload\/caiku\/2\/a\/0\/2aa99f35b3f1a6135450f5cd2ac316d0.jpg",
            "s_u" : "http:\/\/m.douguo.com\/cookbook\/3227162.html",
            "object_id" : "3227162",
            "channel" : "7",
            "s_d" : "酥皮大泡芙——自用多年零失败配方分享-会做饭很酷!",
            "mini_program" : [

            ],
            "name" : "酥皮大泡芙——自用多年零失败配方分享-会做饭很酷!",
            "qr_image" : ""
          },
          {
            "image" : "https:\/\/cp1.douguo.com\/upload\/caiku\/2\/a\/0\/2aa99f35b3f1a6135450f5cd2ac316d0.jpg",
            "name" : "酥皮大泡芙——自用多年零失败配方分享-会做饭很酷!",
            "s_u" : "http:\/\/m.douguo.com\/cookbook\/3227162.html",
            "object_id" : "3227162",
            "channel" : "8",
            "s_d" : "酥皮大泡芙——自用多年零失败配方分享-会做饭很酷!",
            "qr_image" : "",
            "mini_program" : [

            ]
          }
        ],
        "name" : "酥皮大泡芙——自用多年零失败配方分享-会做饭很酷!",
        "s_d" : "酥皮大泡芙——自用多年零失败配方分享-会做饭很酷!",
        "s_u" : "http:\/\/m.douguo.com\/cookbook\/3227162.html",
        "mini_program" : [

        ],
        "image" : "https:\/\/cp1.douguo.com\/upload\/caiku\/2\/a\/0\/2aa99f35b3f1a6135450f5cd2ac316d0.jpg",
        "object_id" : "3227162"
      },
      "v_u" : "",
      "dishes" : [

      ],
      "ecs" : 1,
      "comments" : [
        "{\n    ac = \"#999999\";\n    at = \"\\U547c\\U548c\\U6d69\\U7279\\U5e02\";\n    ccc = 1;\n    \"child_comments\" =     (\n                {\n            ac = \"#999999\";\n            at = \"\\U6f2f\\U6cb3\\U5e02\";\n            ccc = 0;\n            city = \"\\U6f2f\\U6cb3\\U5e02\";\n            cmc = 2;\n            content =             (\n                                {\n                    c = \" \\U6ca1\\U6709\\U70e4\\U719f\\U900f\\U5427\\Uff0c\\U719f\\U900f\\U7684\\U8bdd\\U4e0d\\U4f1a\\U618b\\U4e0b\\U53bb\\U7684\";\n                }\n            );\n            ia = 1;\n            id = 8990491;\n            \"ip_address_location\" = \"\\U6cb3\\U5357\\U7701\";\n            like = 0;\n            \"like_count\" = 0;\n            \"reply_id\" = 8989802;\n            \"reply_user\" =             {\n                \"followers_count_text\" = \"\";\n                id = 7696328;\n                \"is_prime\" = 0;\n                lv = 0;\n                lvl = 1;\n                n = \"\\U5c0f\\U4e09\\U513f\\U7684\\U8001\\U5a46\";\n                p = \"http:\/\/tx1.douguo.net\/upload\/photo\/7\/b\/b\/70_u20282554294726224228.jpg\";\n                \"progress_image\" = \"\";\n                \"recipes_count_text\" = \"\";\n                relationship = \"-1\";\n                title = \"\";\n                v = 0;\n                \"verified_image\" = \"\";\n            };\n            \"sticker_icon\" =             (\n            );\n            time = \"2022-12-20 10:03:27\";\n            u =             {\n                \"followers_count_text\" = \"\";\n                id = 19622142;\n                \"is_prime\" = 0;\n                lv = 0;\n                lvl = 6;\n                n = \"\\U7d2f\\U5e76-\\U5feb\\U4e50\";\n                p = \"http:\/\/tx1.douguo.net\/upload\/photo\/0\/6\/f\/70_06315af5c5adedddf14ff16f33711e6f.jpg\";\n                \"progress_image\" = \"\";\n                \"recipes_count_text\" = \"\";\n                relationship = \"-1\";\n                title = \"\";\n                v = 1;\n                \"verified_image\" = \"\";\n            };\n        }\n    );\n    city = \"\\U547c\\U548c\\U6d69\\U7279\\U5e02\";\n    cmc = 2;\n    content =     (\n                {\n            c = \"\\U4e3a\\U4ec0\\U4e48\\U51fa\\U7089\\U4f1a\\U618b\\U4e0b\\U53bb\";\n        }\n    );\n    ia = 0;\n    id = 8989802;\n    \"ip_address_location\" = \"\\U5185\\U8499\\U53e4\\U81ea\\U6cbb\\U533a\";\n    like = 0;\n    \"like_count\" = 1;\n    \"reply_id\" = 0;\n    \"sticker_icon\" =     (\n    );\n    time = \"2022-12-16 20:10:15\";\n    u =     {\n        \"followers_count_text\" = \"\";\n        id = 7696328;\n        \"is_prime\" = 0;\n        lv = 0;\n        lvl = 1;\n        n = \"\\U5c0f\\U4e09\\U513f\\U7684\\U8001\\U5a46\";\n        p = \"http:\/\/tx1.douguo.net\/upload\/photo\/7\/b\/b\/70_u20282554294726224228.jpg\";\n        \"progress_image\" = \"\";\n        \"recipes_count_text\" = \"\";\n        relationship = \"-1\";\n        title = \"\";\n        v = 0;\n        \"verified_image\" = \"\";\n    };\n}",
        "{\n    ac = \"#999999\";\n    at = \"\";\n    ccc = 1;\n    \"child_comments\" =     (\n                {\n            ac = \"#999999\";\n            at = \"\\U6f2f\\U6cb3\\U5e02\";\n            ccc = 0;\n            city = \"\\U6f2f\\U6cb3\\U5e02\";\n            cmc = 2;\n            content =             (\n                                {\n                    c = \" \\U53ef\\U4ee5\\Uff0c\\U4f46\\U662f\\U9ec4\\U6cb9\\U5473\\U9053\\U597d\\U5403\";\n                }\n            );\n            ia = 1;\n            id = 9010738;\n            \"ip_address_location\" = \"\\U6cb3\\U5357\\U7701\";\n            like = 0;\n            \"like_count\" = 0;\n            \"reply_id\" = 9008367;\n            \"reply_user\" =             {\n                \"followers_count_text\" = \"\";\n                id = 9641452;\n                \"is_prime\" = 0;\n                lv = 0;\n                lvl = 2;\n                n = \"\\U9633\\U5149\\U707f\\U70c220\";\n                p = \"http:\/\/tx1.douguo.net\/upload\/photo\/6\/4\/4\/70_u32992075223172145320.jpg\";\n                \"progress_image\" = \"\";\n                \"recipes_count_text\" = \"\";\n                relationship = \"-1\";\n                title = \"\";\n                v = 0;\n                \"verified_image\" = \"\";\n            };\n            \"sticker_icon\" =             (\n            );\n            time = \"2023-03-18 17:40:54\";\n            u =             {\n                \"followers_count_text\" = \"\";\n                id = 19622142;\n                \"is_prime\" = 0;\n                lv = 0;\n                lvl = 6;\n                n = \"\\U7d2f\\U5e76-\\U5feb\\U4e50\";\n                p = \"http:\/\/tx1.douguo.net\/upload\/photo\/0\/6\/f\/70_06315af5c5adedddf14ff16f33711e6f.jpg\";\n                \"progress_image\" = \"\";\n                \"recipes_count_text\" = \"\";\n                relationship = \"-1\";\n                title = \"\";\n                v = 1;\n                \"verified_image\" = \"\";\n            };\n        }\n    );\n    city = \"\";\n    cmc = 2;\n    content =     (\n                {\n            c = \"\\U9ec4\\U6cb9\\U53ef\\U7528\\U7389\\U7c73\\U6cb9\\U4ee3\\U66ff\\U5417\\Uff1f\";\n        }\n    );\n    ia = 0;\n    id = 9008367;\n    \"ip_address_location\" = \"\\U5c71\\U4e1c\\U7701\";\n    like = 0;\n    \"like_count\" = 0;\n    \"reply_id\" = 0;\n    \"sticker_icon\" =     (\n    );\n    time = \"2023-03-10 10:20:56\";\n    u =     {\n        \"followers_count_text\" = \"\";\n        id = 9641452;\n        \"is_prime\" = 0;\n        lv = 0;\n        lvl = 2;\n        n = \"\\U9633\\U5149\\U707f\\U70c220\";\n        p = \"http:\/\/tx1.douguo.net\/upload\/photo\/6\/4\/4\/70_u32992075223172145320.jpg\";\n        \"progress_image\" = \"\";\n        \"recipes_count_text\" = \"\";\n        relationship = \"-1\";\n        title = \"\";\n        v = 0;\n        \"verified_image\" = \"\";\n    };\n}",
        "{\n    ac = \"#999999\";\n    at = \"\\U957f\\U6c99\\U5e02\";\n    ccc = 1;\n    \"child_comments\" =     (\n                {\n            ac = \"#999999\";\n            at = \"\\U6f2f\\U6cb3\\U5e02\";\n            ccc = 0;\n            city = \"\\U6f2f\\U6cb3\\U5e02\";\n            cmc = 2;\n            content =             (\n                                {\n                    c = \" \\U662f\\U7684\";\n                }\n            );\n            ia = 1;\n            id = 8997648;\n            \"ip_address_location\" = \"\\U6cb3\\U5357\";\n            like = 0;\n            \"like_count\" = 0;\n            \"reply_id\" = 8997038;\n            \"reply_user\" =             {\n                \"followers_count_text\" = \"\";\n                id = 26595807;\n                \"is_prime\" = 0;\n                lv = 0;\n                lvl = 2;\n                n = \"\\U3003Lazy-\\U3050\";\n                p = \"http:\/\/tx1.douguo.net\/upload\/photo\/b\/c\/d\/70_bc18594ae2d69e56ebabdb10ea6da37d.jpg\";\n                \"progress_image\" = \"\";\n                \"recipes_count_text\" = \"\";\n                relationship = \"-1\";\n                title = \"\";\n                v = 0;\n                \"verified_image\" = \"\";\n            };\n            \"sticker_icon\" =             (\n            );\n            time = \"2023-01-17 00:29:59\";\n            u =             {\n                \"followers_count_text\" = \"\";\n                id = 19622142;\n                \"is_prime\" = 0;\n                lv = 0;\n                lvl = 6;\n                n = \"\\U7d2f\\U5e76-\\U5feb\\U4e50\";\n                p = \"http:\/\/tx1.douguo.net\/upload\/photo\/0\/6\/f\/70_06315af5c5adedddf14ff16f33711e6f.jpg\";\n                \"progress_image\" = \"\";\n                \"recipes_count_text\" = \"\";\n                relationship = \"-1\";\n                title = \"\";\n                v = 1;\n                \"verified_image\" = \"\";\n            };\n        }\n    );\n    city = \"\\U957f\\U6c99\\U5e02\";\n    cmc = 2;\n    content =     (\n                {\n            c = \"\\U6324\\U7684\\U65f6\\U5019\\U662f\\U6324\\U5b9e\\U5fc3\\U7684\\U5417\";\n        }\n    );\n    ia = 0;\n    id = 8997038;\n    \"ip_address_location\" = \"\\U6e56\\U5357\";\n    like = 0;\n    \"like_count\" = 0;\n    \"reply_id\" = 0;\n    \"sticker_icon\" =     (\n    );\n    time = \"2023-01-14 23:32:45\";\n    u =     {\n        \"followers_count_text\" = \"\";\n        id = 26595807;\n        \"is_prime\" = 0;\n        lv = 0;\n        lvl = 2;\n        n = \"\\U3003Lazy-\\U3050\";\n        p = \"http:\/\/tx1.douguo.net\/upload\/photo\/b\/c\/d\/70_bc18594ae2d69e56ebabdb10ea6da37d.jpg\";\n        \"progress_image\" = \"\";\n        \"recipes_count_text\" = \"\";\n        relationship = \"-1\";\n        title = \"\";\n        v = 0;\n        \"verified_image\" = \"\";\n    };\n}"
      ],
      "author_id" : 19622142,
      "bs" : [

      ],
      "guide_image" : "",
      "recommended" : 0,
      "top_mdsp" : [

      ],
      "display_ingredient" : 1,
      "recommend_label" : "10人学做",
      "major" : [
        {
          "note" : "",
          "title" : "酥皮配方"
        },
        {
          "title" : "黄油",
          "tu" : "https:\/\/m.douguo.com\/ingredients\/黄油\/detailmaterial",
          "note" : "50克"
        },
        {
          "title" : "糖粉",
          "note" : "36克",
          "tu" : "https:\/\/m.douguo.com\/ingredients\/糖粉\/detailmaterial"
        },
        {
          "note" : "55克",
          "title" : "低粉",
          "tu" : "https:\/\/m.douguo.com\/ingredients\/低粉\/detailmaterial"
        },
        {
          "title" : "泡芙体配方",
          "note" : ""
        },
        {
          "title" : "水",
          "tu" : "https:\/\/m.douguo.com\/ingredients\/水\/detailmaterial",
          "note" : "150克"
        },
        {
          "title" : "黄油",
          "note" : "58克",
          "tu" : "https:\/\/m.douguo.com\/ingredients\/黄油\/detailmaterial"
        },
        {
          "title" : "盐",
          "tu" : "https:\/\/m.douguo.com\/ingredients\/盐\/detailmaterial",
          "note" : "1克"
        },
        {
          "note" : "88克",
          "tu" : "https:\/\/m.douguo.com\/ingredients\/低粉\/detailmaterial",
          "title" : "低粉"
        },
        {
          "title" : "鸡蛋",
          "note" : "3个",
          "tu" : "https:\/\/m.douguo.com\/ingredients\/鸡蛋\/detailmaterial"
        },
        {
          "tu" : "https:\/\/m.douguo.com\/ingredients\/糖\/detailmaterial",
          "title" : "糖",
          "note" : "8克"
        }
      ],
      "tags" : [

      ],
      "mid_mdsp" : [

      ],
      "clicks" : "1",
      "rate_count" : 9,
      "cook_difficulty" : "",
      "pw" : 768,
      "hqu" : "recipes:\/\/www.douguo.com\/notedetail?id=21162253",
      "ipci" : "",
      "rpt" : "",
      "original_photo_path" : "http:\/\/i1.douguo.net\/upload\/caiku\/2\/a\/0\/yuan_2aa99f35b3f1a6135450f5cd2ac316d0.jpg",
      "rcs" : [

      ],
      "minor" : [

      ],
      "title" : "酥皮大泡芙——自用多年零失败配方分享",
      "release_time" : "",
      "cook_id" : "3227162",
      "ipt" : "",
      "collect_status" : 0,
      "su" : "",
      "first_level_comment_count" : 19,
      "rpid" : 0,
      "cookstep" : [
        {
          "content" : "先做酥皮把黄油提前软 化能用手轻松戳洞的状态，加入细砂糖搅拌均匀，再加入面粉（过筛）按压成团，上下垫油纸擀成2到3毫米㎜的厚度放冰箱里冷藏。",
          "image" : "https:\/\/i1.douguo.com\/upload\/caiku\/d\/4\/8\/d4f5e32f7c15de35dded6bde964c9a98.jpg",
          "image_width" : 1000,
          "thumb" : "https:\/\/i1.douguo.com\/upload\/caiku\/d\/4\/8\/140_d4f5e32f7c15de35dded6bde964c9a98.jpg",
          "frame" : "-1",
          "position" : 1,
          "image_height" : 750
        },
        {
          "thumb" : "https:\/\/i1.douguo.com\/upload\/caiku\/c\/b\/5\/140_cbfa9d38d5a1e1c3c475621010b5f6e5.jpg",
          "frame" : "-1",
          "image_height" : 750,
          "image_width" : 1000,
          "position" : 2,
          "content" : "面粉提前过筛备用，把黄油，细砂糖，水，盐放入奶锅里。中火加热到黄油化开，",
          "image" : "https:\/\/i1.douguo.com\/upload\/caiku\/c\/b\/5\/cbfa9d38d5a1e1c3c475621010b5f6e5.jpg"
        },
        {
          "image_width" : 1000,
          "image" : "https:\/\/i1.douguo.com\/upload\/caiku\/2\/0\/1\/2088569d42e2c6248ed66b9561172271.jpg",
          "image_height" : 750,
          "thumb" : "https:\/\/i1.douguo.com\/upload\/caiku\/2\/0\/1\/140_2088569d42e2c6248ed66b9561172271.jpg",
          "content" : "液体完全沸腾关火快速加入面粉，用刮刀快速压拌到无干粉然后再小炒一分钟左右，不停的翻拌，避免糊锅。",
          "position" : 3,
          "frame" : "-1"
        },
        {
          "image_height" : 750,
          "content" : "锅底出现一层薄薄的面糊膜就可以了。（我用的是电陶炉关火后用余热就可以了）",
          "image" : "https:\/\/i1.douguo.com\/upload\/caiku\/b\/4\/2\/b4fb6fd2a469ef3224dc7513e7f5d332.jpg",
          "image_width" : 1000,
          "frame" : "-1",
          "position" : 4,
          "thumb" : "https:\/\/i1.douguo.com\/upload\/caiku\/b\/4\/2\/140_b4fb6fd2a469ef3224dc7513e7f5d332.jpg"
        },
        {
          "image_width" : 1000,
          "content" : "然后倒入盆中凉到手温（这个时候提前把烤箱打开上下火200度预热）",
          "position" : 5,
          "image_height" : 750,
          "image" : "https:\/\/i1.douguo.com\/upload\/caiku\/e\/a\/b\/eac6cf4eddd4dfc6486b438aa95e252b.jpg",
          "frame" : "-1",
          "thumb" : "https:\/\/i1.douguo.com\/upload\/caiku\/e\/a\/b\/140_eac6cf4eddd4dfc6486b438aa95e252b.jpg"
        },
        {
          "image_height" : 750,
          "content" : "把3个鸡蛋打散（鸡蛋有可能用不完，也有可能不够用，看鸡蛋大小还有面糊的状态）",
          "image_width" : 1000,
          "position" : 6,
          "frame" : "-1",
          "image" : "https:\/\/i1.douguo.com\/upload\/caiku\/1\/6\/a\/1601804750f9ba4bd67de0341875c4ca.jpg",
          "thumb" : "https:\/\/i1.douguo.com\/upload\/caiku\/1\/6\/a\/140_1601804750f9ba4bd67de0341875c4ca.jpg"
        },
        {
          "image_width" : 1000,
          "frame" : "-1",
          "content" : "把鸡蛋液分次倒入盆子里。一定要少量多次的加入鸡蛋液，用刮刀搅拌均匀，每次都要把面糊和鸡蛋液完全吸收后再加入下一次的鸡蛋液。",
          "image" : "https:\/\/i1.douguo.com\/upload\/caiku\/a\/2\/1\/a2701164ac0b457daf0f66f4771268f1.jpg",
          "thumb" : "https:\/\/i1.douguo.com\/upload\/caiku\/a\/2\/1\/140_a2701164ac0b457daf0f66f4771268f1.jpg",
          "position" : 7,
          "image_height" : 750
        },
        {
          "content" : "直到面糊是光滑细腻，提前刮刀呈现大飘带不滴落状态就可以了。",
          "image" : "https:\/\/i1.douguo.com\/upload\/caiku\/f\/e\/a\/fe37ffa63090d44651983410f4d479ca.jpg",
          "position" : 8,
          "image_width" : 1000,
          "frame" : "-1",
          "thumb" : "https:\/\/i1.douguo.com\/upload\/caiku\/f\/e\/a\/140_fe37ffa63090d44651983410f4d479ca.jpg",
          "image_height" : 750
        },
        {
          "frame" : "-1",
          "image_width" : 1000,
          "image" : "https:\/\/i1.douguo.com\/upload\/caiku\/1\/1\/a\/1172b4ca8f9efc84a7b3962383e00e1a.jpg",
          "image_height" : 750,
          "content" : "装入裱花袋，裱花袋剪1厘米左右的圆口，手拿裱花袋一定要垂直，均匀的挤入烤盘（直径大概4.5到5厘米左右，切记要垂直向下挤。）",
          "position" : 9,
          "thumb" : "https:\/\/i1.douguo.com\/upload\/caiku\/1\/1\/a\/140_1172b4ca8f9efc84a7b3962383e00e1a.jpg"
        },
        {
          "position" : 10,
          "frame" : "-1",
          "thumb" : "https:\/\/i1.douguo.com\/upload\/caiku\/4\/5\/3\/140_459af9d640442b2ebedfe9f8686a6f23.jpg",
          "image_height" : 750,
          "image_width" : 1000,
          "image" : "https:\/\/i1.douguo.com\/upload\/caiku\/4\/5\/3\/459af9d640442b2ebedfe9f8686a6f23.jpg",
          "content" : "然后把酥皮从冰箱里拿出来，用饼干模具刻成5厘米左右的圆型"
        },
        {
          "image" : "https:\/\/i1.douguo.com\/upload\/caiku\/8\/b\/7\/8b6f51043823de302cf4e6f7af717b87.jpg",
          "image_height" : 750,
          "frame" : "-1",
          "position" : 11,
          "content" : "放在挤号好的泡芙体上，酥皮要大于泡芙的直径多一点点。这样烤出来的泡芙特别好看。（酥皮的厚度在2到3毫米㎜之间）",
          "image_width" : 1000,
          "thumb" : "https:\/\/i1.douguo.com\/upload\/caiku\/8\/b\/7\/140_8b6f51043823de302cf4e6f7af717b87.jpg"
        },
        {
          "frame" : "-1",
          "thumb" : "https:\/\/i1.douguo.com\/upload\/caiku\/7\/2\/7\/140_72eb4bbc5808deffa42d4dce7c478297.jpg",
          "image_width" : 1000,
          "image" : "https:\/\/i1.douguo.com\/upload\/caiku\/7\/2\/7\/72eb4bbc5808deffa42d4dce7c478297.jpg",
          "position" : 12,
          "image_height" : 750,
          "content" : "放入预热好的烤箱200度烤15分钟左右。\n\n喜欢奶油的可以把泡芙从三分之一处切开，打发点奶油挤进去，放上水果，特别好吃，我没有来的及打法奶油，泡芙壳就被小朋友们抢完了。\n#我的烘焙日常#笔记灵感"
        },
        {
          "frame" : "-1",
          "thumb" : "https:\/\/i1.douguo.com\/upload\/caiku\/f\/e\/0\/140_fe483108de6c505840da97ab801fd570.jpg",
          "position" : 13,
          "image" : "https:\/\/i1.douguo.com\/upload\/caiku\/f\/e\/0\/fe483108de6c505840da97ab801fd570.jpg",
          "content" : "等泡芙完全膨胀起来了再转180度烤15分钟左右，（一共烤30分钟左右，时间温度仅供参考不可照搬，）",
          "image_height" : 750,
          "image_width" : 1000
        },
        {
          "frame" : "-1",
          "image_height" : 750,
          "position" : 14,
          "content" : "中途不要开烤箱门，上色满意就可以出炉了，",
          "image_width" : 1000,
          "image" : "https:\/\/i1.douguo.com\/upload\/caiku\/1\/7\/4\/1773c6c2dfceb00b2c90c56d248261d4.jpg",
          "thumb" : "https:\/\/i1.douguo.com\/upload\/caiku\/1\/7\/4\/140_1773c6c2dfceb00b2c90c56d248261d4.jpg"
        },
        {
          "thumb" : "https:\/\/i1.douguo.com\/upload\/caiku\/5\/3\/6\/140_5384f2b4af3f30cef0d18deedd92cba6.jpg",
          "image" : "https:\/\/i1.douguo.com\/upload\/caiku\/5\/3\/6\/5384f2b4af3f30cef0d18deedd92cba6.jpg",
          "image_width" : 1000,
          "position" : 15,
          "content" : "圆鼓鼓的酥皮大泡芙就做好了",
          "frame" : "-1",
          "image_height" : 750
        },
        {
          "frame" : "-1",
          "image" : "https:\/\/i1.douguo.com\/upload\/caiku\/e\/4\/5\/e46b8e47ba60ad6ff56ba4f48d277a75.jpg",
          "thumb" : "https:\/\/i1.douguo.com\/upload\/caiku\/e\/4\/5\/140_e46b8e47ba60ad6ff56ba4f48d277a75.jpg",
          "image_width" : 1000,
          "position" : 16,
          "content" : "出炉凉透底部是平的。喜欢奶油的可以把泡芙从三分之一处切开，打发点奶油挤进去，放上水果，特别好吃，我没有来的及打法奶油，泡芙壳就被小朋友们抢完了。或者是从底部戳洞挤入奶油或者是卡仕达酱，想怎么吃根据自己的喜好尽情发挥吧。",
          "image_height" : 750
        }
      ],
      "cookstorys" : [
        {
          "id" : 0,
          "color" : "",
          "type" : 0,
          "c" : "超好吃的酥皮大泡芙，简单快手，注意这几点想要失败都困难。[举手R]\n\n此方子可以做18个左右的大泡芙[偷笑R]",
          "icon" : "",
          "u" : ""
        }
      ],
      "related_ads" : [

      ],
      "recipe_list_tags" : [
        {
          "background_border_color" : "",
          "text_color" : "#141515",
          "background_start_color" : "#F4F5F5",
          "jump_url" : "",
          "background_end_color" : "#F4F5F5",
          "text" : "关注的人",
          "right_image" : ""
        },
        {
          "text_color" : "#141515",
          "jump_url" : "",
          "background_start_color" : "#F4F5F5",
          "right_image" : "",
          "text" : "内容详细",
          "background_border_color" : "",
          "background_end_color" : "#F4F5F5"
        }
      ],
      "purl" : "",
      "image" : "http:\/\/i1.douguo.net\/upload\/caiku\/2\/a\/0\/300_2aa99f35b3f1a6135450f5cd2ac316d0.jpg",
      "tips" : "面糊一定要糊化好，鸡蛋液的用量要根据面糊的装态来放，烤的时候中途不要开烤箱门。酥皮不要太厚，薄厚要一致。",
      "author_verified" : 1,
      "brand_day_dsp" : [

      ],
      "dish_count" : 10,
      "rpst" : "",
      "photo_path" : "https:\/\/i1.douguo.com\/upload\/caiku\/2\/a\/0\/600_2aa99f35b3f1a6135450f5cd2ac316d0.jpg",
      "story_dsp" : [

      ],
      "rewarded_video_dsp" : [

      ],
      "ipoi" : "",
      "cook_time_image" : "https:\/\/i1.douguo.com\/upload\/banner\/1551424341.png"
    }
  }
}