{
  "result" : {
    "recipe" : {
      "cook_id" : "3262699",
      "eu" : "recipes:\/\/www.douguo.com\/postdetail?id=242016",
      "rewarded_video_dsp" : [

      ],
      "btm_dsp" : [

      ],
      "author" : "北纬yhz",
      "release_time" : "",
      "create_time" : "2023-07-13 10:25:42",
      "recommend_label" : "5065人刚刚收藏过",
      "su" : "",
      "cook_time" : "10~30分钟",
      "thumb_path" : "https:\/\/i1.douguo.com\/upload\/caiku\/f\/b\/0\/300_fb6235cd64da4c474bcb93589665b7d0.jpg",
      "original_photo_path" : "http:\/\/i1.douguo.net\/upload\/caiku\/f\/b\/0\/yuan_fb6235cd64da4c474bcb93589665b7d0.jpg",
      "author_photo" : "http:\/\/tx1.douguo.net\/upload\/photo\/f\/c\/4\/70_u92304529490599232814.jpg",
      "comments_count" : 1,
      "dishes" : [

      ],
      "rate" : 0,
      "title" : "消耗蛋清~葱香蛋白脆片",
      "v_u" : "",
      "favo_counts_text" : "5065",
      "pw" : 960,
      "rpid" : 0,
      "comments_count_text" : "1",
      "title_ad" : [

      ],
      "related_ads" : [

      ],
      "rsm" : "该功能暂停使用",
      "clicks" : "1",
      "user" : {
        "email" : "",
        "verified_image" : "https:\/\/i1.douguo.com\/upload\/note\/d\/a\/a\/da84247847aebe48d9dd0fcdac88862a.png",
        "mobile" : "",
        "user_photo" : "http:\/\/tx1.douguo.net\/upload\/photo\/f\/c\/4\/70_u92304529490599232814.jpg",
        "fc" : 0,
        "user_large_photo" : "http:\/\/tx1.douguo.net\/upload\/photo\/f\/c\/4\/yuan_u92304529490599232814.jpg",
        "followers_count" : 0,
        "subscription_article_count" : 0,
        "location" : 0,
        "coursecount" : 0,
        "point" : 0,
        "verified_url" : "https:\/\/m.douguo.com\/user\/prodesc",
        "nick" : "北纬yhz",
        "following_count" : 0,
        "verified" : 1,
        "pc" : 0,
        "userid" : "20057954",
        "regist_time" : "",
        "recipes_count" : 0,
        "dishes_count" : 0,
        "favor_diaries_count" : 0,
        "sign" : "",
        "qzone_nick" : "",
        "qq_weibo_nick" : "",
        "is_prime" : 0,
        "favorites_count" : 0,
        "avatar_medium" : "http:\/\/tx1.douguo.net\/upload\/photo\/f\/c\/4\/140_u92304529490599232814.jpg",
        "user_cover" : "",
        "user_id" : "20057954",
        "setted_email" : 0,
        "introduction" : "",
        "subscription" : 0,
        "gender" : 2,
        "weibo_nick" : "",
        "age" : "",
        "lvl" : 7,
        "birthday" : "",
        "lv" : 0,
        "diaries_count" : 0,
        "progress_image" : ""
      },
      "favo_counts" : 5065,
      "image" : "http:\/\/i1.douguo.net\/upload\/caiku\/f\/b\/0\/300_fb6235cd64da4c474bcb93589665b7d0.jpg",
      "thumb_height" : 0,
      "dish_count" : 0,
      "ssu" : "",
      "sc" : 0,
      "mid_mdsp" : [

      ],
      "photo_path" : "https:\/\/i1.douguo.com\/upload\/caiku\/f\/b\/0\/600_fb6235cd64da4c474bcb93589665b7d0.jpg",
      "brand_day_dsp" : [

      ],
      "tips" : "",
      "recipe_list_tags" : [
        {
          "text_color" : "#141515",
          "background_start_color" : "#F4F5F5",
          "background_end_color" : "#F4F5F5",
          "background_border_color" : "",
          "text" : "关注的人",
          "jump_url" : "",
          "right_image" : ""
        }
      ],
      "major" : [
        {
          "note" : "30克",
          "tu" : "https:\/\/m.douguo.com\/ingredients\/低筋面粉\/detailmaterial",
          "title" : "低筋面粉"
        },
        {
          "tu" : "https:\/\/m.douguo.com\/ingredients\/白砂糖\/detailmaterial",
          "note" : "13克",
          "title" : "白砂糖"
        },
        {
          "note" : "62克",
          "tu" : "https:\/\/m.douguo.com\/ingredients\/蛋白\/detailmaterial",
          "title" : "蛋白"
        },
        {
          "title" : "玉米油",
          "note" : "28克",
          "tu" : "https:\/\/m.douguo.com\/ingredients\/玉米油\/detailmaterial"
        },
        {
          "title" : "盐",
          "note" : "1克",
          "tu" : "https:\/\/m.douguo.com\/ingredients\/盐\/detailmaterial"
        },
        {
          "note" : "10克",
          "title" : "葱花",
          "tu" : "https:\/\/m.douguo.com\/ingredients\/葱花\/detailmaterial"
        }
      ],
      "cookwares" : [

      ],
      "sr" : "",
      "purl" : "",
      "hqu" : "recipes:\/\/www.douguo.com\/notedetail?id=21162253",
      "cook_difficulty_image" : "https:\/\/i1.douguo.com\/upload\/banner\/1551424390.png",
      "author_id" : 20057954,
      "ipurl" : "",
      "tags" : [

      ],
      "story_dsp" : [

      ],
      "vu" : "",
      "dish_count_text" : "",
      "rrps" : [

      ],
      "rcs" : [

      ],
      "ipit" : 0,
      "act_des" : "",
      "vfurl" : "",
      "notes" : [

      ],
      "cookstory" : "做甜品剩余的些蛋白倒了浪费可惜，想想还是动手做点好吃的吧",
      "old_comments" : [

      ],
      "ipia" : [

      ],
      "minor" : [

      ],
      "cookstorys" : [
        {
          "u" : "",
          "id" : 0,
          "c" : "做甜品剩余的些蛋白倒了浪费可惜，想想还是动手做点好吃的吧",
          "type" : 0,
          "color" : "",
          "icon" : ""
        },
        {
          "icon" : "",
          "type" : 0,
          "u" : "",
          "color" : "",
          "id" : 0,
          "c" : "\n参与活动:"
        },
        {
          "c" : "#奇妙烘焙屋#",
          "id" : 0,
          "type" : 0,
          "u" : "https:\/\/m.douguo.com\/activity\/ncpzj\/detail\/3812?isapp=1&open=0&_vs=1000300&&dg_refreshkey=publishnote",
          "icon" : ""
        }
      ],
      "rpt" : "",
      "rate_show" : 0,
      "author_verified" : 1,
      "display_ingredient" : 1,
      "bs" : [

      ],
      "views_count_text" : "14.8万",
      "guide_image" : "",
      "cook_difficulty" : "切墩(初级)",
      "recommended" : 0,
      "rpst" : "",
      "top_mdsp" : [

      ],
      "advice" : {
        "has" : [

        ],
        "da" : {
          "iu" : "https:\/\/i1.douguo.com\/upload\/banner\/f\/4\/d\/f48877e53c37759bc12ac494be82ec8d.png",
          "t" : "查看详细分析",
          "url" : "https:\/\/m.douguo.com\/recipe\/nutrient_self\/3262699"
        }
      },
      "ph" : 1280,
      "ss" : [

      ],
      "recent_comments" : [

      ],
      "ipoi" : "",
      "ipci" : "",
      "levelid" : 2,
      "share_info" : {
        "image" : "https:\/\/cp1.douguo.com\/upload\/caiku\/f\/b\/0\/fb6235cd64da4c474bcb93589665b7d0.jpg",
        "name" : "#奇妙烘焙屋#消耗蛋清~葱香蛋白脆片-会做饭很酷!",
        "infos" : [
          {
            "qr_image" : "",
            "image" : "https:\/\/cp1.douguo.com\/upload\/caiku\/f\/b\/0\/fb6235cd64da4c474bcb93589665b7d0.jpg",
            "s_u" : "",
            "object_id" : "3262699",
            "mini_program" : [

            ],
            "channel" : "1",
            "name" : "#奇妙烘焙屋#消耗蛋清~葱香蛋白脆片-会做饭很酷!",
            "s_d" : "#学做饭用豆果美食# 会做饭真是好酷啊！我在@豆果美食 分享了【#奇妙烘焙屋#消耗蛋清~葱香蛋白脆片-会做饭很酷!】，快来康康我这道菜做的怎么样～美味停不下来！查看图片了解菜谱（你喜欢的美食都在这里！https:\/\/m.weibo.cn\/p\/100404i33631）"
          },
          {
            "channel" : "7",
            "s_u" : "http:\/\/m.douguo.com\/cookbook\/3262699.html",
            "name" : "#奇妙烘焙屋#消耗蛋清~葱香蛋白脆片-会做饭很酷!",
            "qr_image" : "",
            "s_d" : "#奇妙烘焙屋#消耗蛋清~葱香蛋白脆片-会做饭很酷!",
            "object_id" : "3262699",
            "mini_program" : [

            ],
            "image" : "https:\/\/cp1.douguo.com\/upload\/caiku\/f\/b\/0\/fb6235cd64da4c474bcb93589665b7d0.jpg"
          },
          {
            "object_id" : "3262699",
            "image" : "https:\/\/cp1.douguo.com\/upload\/caiku\/f\/b\/0\/fb6235cd64da4c474bcb93589665b7d0.jpg",
            "qr_image" : "",
            "mini_program" : [

            ],
            "name" : "#奇妙烘焙屋#消耗蛋清~葱香蛋白脆片-会做饭很酷!",
            "s_d" : "#奇妙烘焙屋#消耗蛋清~葱香蛋白脆片-会做饭很酷!",
            "s_u" : "http:\/\/m.douguo.com\/cookbook\/3262699.html",
            "channel" : "8"
          }
        ],
        "object_id" : "3262699",
        "qr_image" : "",
        "s_d" : "#奇妙烘焙屋#消耗蛋清~葱香蛋白脆片-会做饭很酷!",
        "mini_program" : [

        ],
        "s_u" : "http:\/\/m.douguo.com\/cookbook\/3262699.html"
      },
      "cook_time_image" : "https:\/\/i1.douguo.com\/upload\/banner\/1551424341.png",
      "packages_id" : [

      ],
      "rrpt" : "",
      "hq" : 1,
      "vc" : "148006",
      "rips" : 0,
      "rate_count" : 0,
      "event" : {
        "name" : "奇妙烘焙屋",
        "id" : 3812,
        "url" : "https:\/\/m.douguo.com\/activity\/ncpzj\/detail\/3812?isapp=1&open=0&_vs=1000300&&dg_refreshkey=publishnote"
      },
      "recipe_tags" : [

      ],
      "ecs" : 0,
      "first_level_comment_count" : 1,
      "rdsps" : [

      ],
      "recommendation_tag" : "",
      "comments" : [
        "{\n    ac = \"#999999\";\n    at = \"\\U5317\\U4eac\\U5e02\";\n    ccc = 0;\n    \"child_comments\" =     (\n    );\n    city = \"\\U5317\\U4eac\\U5e02\";\n    cmc = 2;\n    content =     (\n                {\n            c = \"\\Ud83d\\Udc4d\";\n        }\n    );\n    ia = 0;\n    id = 9038267;\n    \"ip_address_location\" = \"\\U5317\\U4eac\";\n    like = 0;\n    \"like_count\" = 0;\n    \"reply_id\" = 0;\n    \"sticker_icon\" =     (\n    );\n    time = \"2023-07-13 12:20:06\";\n    u =     {\n        \"followers_count_text\" = \"\";\n        id = 26447079;\n        \"is_prime\" = 0;\n        lv = 0;\n        lvl = 1;\n        n = \"\\U5c0f\\U77f3\\U5934oflm\";\n        p = \"http:\/\/tx1.douguo.net\/upload\/photo\/1\/1\/1\/70_07220b4b85fcb8ef15a2785fc98258f3.png\";\n        \"progress_image\" = \"\";\n        \"recipes_count_text\" = \"\";\n        relationship = \"-1\";\n        title = \"\";\n        v = 0;\n        \"verified_image\" = \"\";\n    };\n}"
      ],
      "collect_status" : 0,
      "ipt" : "",
      "cookstep" : [
        {
          "frame" : "-1",
          "thumb" : "https:\/\/i1.douguo.com\/upload\/caiku\/4\/5\/5\/140_4566f0746b45f22382ac53b739e95755.jpg",
          "image_width" : 1280,
          "content" : "蛋白，白砂糖和盐充分搅拌均匀",
          "image" : "https:\/\/i1.douguo.com\/upload\/caiku\/4\/5\/5\/4566f0746b45f22382ac53b739e95755.jpg",
          "image_height" : 960,
          "position" : 1
        },
        {
          "image_height" : 960,
          "frame" : "-1",
          "thumb" : "https:\/\/i1.douguo.com\/upload\/caiku\/8\/8\/2\/140_88d2f69827461ba4ad89cea7ae1ee962.jpg",
          "image" : "https:\/\/i1.douguo.com\/upload\/caiku\/8\/8\/2\/88d2f69827461ba4ad89cea7ae1ee962.jpg",
          "image_width" : 1280,
          "content" : "倒入玉米油同样充分搅拌均匀",
          "position" : 2
        },
        {
          "thumb" : "https:\/\/i1.douguo.com\/upload\/caiku\/4\/0\/c\/140_408263a171993b63bdbbeedcb9f5e2ac.jpg",
          "frame" : "-1",
          "position" : 3,
          "image" : "https:\/\/i1.douguo.com\/upload\/caiku\/4\/0\/c\/408263a171993b63bdbbeedcb9f5e2ac.jpg",
          "image_width" : 1280,
          "content" : "低筋面粉提前过筛下，再筛入蛋白中，这步不要偷懒省略，低筋面粉容易结块，影响成品",
          "image_height" : 960
        },
        {
          "image_width" : 1280,
          "frame" : "-1",
          "image_height" : 960,
          "thumb" : "https:\/\/i1.douguo.com\/upload\/caiku\/d\/3\/6\/140_d335f97478b768b2a7b7d1d847ac7fa6.jpg",
          "image" : "https:\/\/i1.douguo.com\/upload\/caiku\/d\/3\/6\/d335f97478b768b2a7b7d1d847ac7fa6.jpg",
          "content" : "用蛋抽搅拌至看不见干粉，不要过度搅拌，放一边备用",
          "position" : 4
        },
        {
          "image_width" : 1280,
          "thumb" : "https:\/\/i1.douguo.com\/upload\/caiku\/2\/b\/0\/140_2bd6d1e792336d05315ae25423ba8220.jpg",
          "image" : "https:\/\/i1.douguo.com\/upload\/caiku\/2\/b\/0\/2bd6d1e792336d05315ae25423ba8220.jpg",
          "content" : "这是已经提前清洗干净后切碎的葱花，尽量切细些",
          "image_height" : 960,
          "frame" : "-1",
          "position" : 5
        },
        {
          "content" : "倒入面糊稍微拌匀就可以，不用过度搅拌",
          "image_width" : 1280,
          "frame" : "-1",
          "position" : 6,
          "image_height" : 960,
          "image" : "https:\/\/i1.douguo.com\/upload\/caiku\/c\/9\/1\/c917ffa96dc7ee48a04e7808fc0d7481.jpg",
          "thumb" : "https:\/\/i1.douguo.com\/upload\/caiku\/c\/9\/1\/140_c917ffa96dc7ee48a04e7808fc0d7481.jpg"
        },
        {
          "content" : "装入裱花袋，方便挤入烤盘",
          "image" : "https:\/\/i1.douguo.com\/upload\/caiku\/8\/7\/2\/87a3a58faa36b5ff9c022bb4b8251e22.jpg",
          "position" : 7,
          "frame" : "-1",
          "image_width" : 1280,
          "thumb" : "https:\/\/i1.douguo.com\/upload\/caiku\/8\/7\/2\/140_87a3a58faa36b5ff9c022bb4b8251e22.jpg",
          "image_height" : 960
        },
        {
          "image_height" : 864,
          "image" : "https:\/\/i1.douguo.com\/upload\/caiku\/6\/2\/c\/62dbe88e180ac3c5abc4c0214de19e4c.jpg",
          "image_width" : 1271,
          "thumb" : "https:\/\/i1.douguo.com\/upload\/caiku\/6\/2\/c\/140_62dbe88e180ac3c5abc4c0214de19e4c.jpg",
          "content" : "烤盘提前垫油纸，挤在烤盘上，中间留出距离",
          "position" : 8,
          "frame" : "-1"
        },
        {
          "content" : "烤箱上下火170度提前预热，烘烤时间为20分钟，刚出炉时会比较软，凉透后就酥脆了",
          "image_width" : 1280,
          "image" : "https:\/\/i1.douguo.com\/upload\/caiku\/d\/4\/5\/d487c45264cf6136b2c199dffe646a65.jpg",
          "frame" : "-1",
          "position" : 9,
          "thumb" : "https:\/\/i1.douguo.com\/upload\/caiku\/d\/4\/5\/140_d487c45264cf6136b2c199dffe646a65.jpg",
          "image_height" : 960
        },
        {
          "position" : 10,
          "thumb" : "https:\/\/i1.douguo.com\/upload\/caiku\/3\/3\/9\/140_33c12b42ee466cedf495726d958a8b99.jpg",
          "image" : "https:\/\/i1.douguo.com\/upload\/caiku\/3\/3\/9\/33c12b42ee466cedf495726d958a8b99.jpg",
          "image_height" : 1280,
          "image_width" : 960,
          "frame" : "-1",
          "content" : "一口一个，煲剧，小零嘴首选"
        }
      ]
    }
  },
  "status" : 0,
  "state" : "success"
}