{
  "result" : {
    "recipe" : {
      "comments" : [

      ],
      "vu" : "",
      "display_ingredient" : 1,
      "rdsps" : [

      ],
      "photo_path" : "https:\/\/i1.douguo.com\/upload\/caiku\/8\/9\/8\/600_897217ab1bafebfb9fc37b155c449858.jpeg",
      "title" : "凤尾加拿大北极虾饭团",
      "brand_day_dsp" : [

      ],
      "ipia" : [

      ],
      "bs" : [

      ],
      "rrps" : [

      ],
      "original_photo_path" : "http:\/\/i1.douguo.net\/upload\/caiku\/8\/9\/8\/yuan_897217ab1bafebfb9fc37b155c449858.jpeg",
      "sr" : "",
      "packages_id" : [

      ],
      "story_dsp" : [

      ],
      "comments_count" : 0,
      "pw" : 947,
      "dishes" : [

      ],
      "recommended" : 0,
      "first_level_comment_count" : 0,
      "author" : "八鲜过海",
      "image" : "http:\/\/i1.douguo.net\/upload\/caiku\/8\/9\/8\/300_897217ab1bafebfb9fc37b155c449858.jpeg",
      "user" : {
        "verified_url" : "https:\/\/m.douguo.com\/user\/prodesc",
        "user_id" : "18621547",
        "regist_time" : "",
        "coursecount" : 0,
        "point" : 0,
        "following_count" : 0,
        "avatar_medium" : "http:\/\/tx1.douguo.net\/upload\/photo\/b\/5\/5\/140_u73310629393286035316.jpg",
        "followers_count" : 0,
        "user_cover" : "",
        "dishes_count" : 0,
        "userid" : "18621547",
        "user_large_photo" : "http:\/\/tx1.douguo.net\/upload\/photo\/b\/5\/5\/yuan_u73310629393286035316.jpg",
        "qzone_nick" : "",
        "progress_image" : "",
        "sign" : "",
        "weibo_nick" : "",
        "birthday" : "",
        "fc" : 0,
        "verified_image" : "https:\/\/i1.douguo.com\/upload\/note\/d\/a\/a\/da84247847aebe48d9dd0fcdac88862a.png",
        "mobile" : "",
        "location" : 0,
        "favor_diaries_count" : 0,
        "subscription" : 0,
        "age" : "",
        "introduction" : "",
        "pc" : 0,
        "lvl" : 7,
        "recipes_count" : 0,
        "diaries_count" : 0,
        "subscription_article_count" : 0,
        "setted_email" : 0,
        "qq_weibo_nick" : "",
        "is_prime" : 0,
        "nick" : "八鲜过海",
        "lv" : 0,
        "gender" : 2,
        "favorites_count" : 0,
        "verified" : 1,
        "user_photo" : "http:\/\/tx1.douguo.net\/upload\/photo\/b\/5\/5\/70_u73310629393286035316.jpg",
        "email" : ""
      },
      "su" : "",
      "cookstorys" : [
        {
          "color" : "",
          "type" : 0,
          "u" : "",
          "icon" : "",
          "c" : "加拿大北极虾饭团，用新鲜蔬菜与鲜甜的北极虾仁搭配，再加上软糯的米饭，用手的力量和温度捏成的饭团，一定会成为餐桌上吸引眼球的亮点。 ",
          "id" : 0
        },
        {
          "id" : 0,
          "u" : "",
          "icon" : "",
          "type" : 0,
          "c" : "\n参与活动:",
          "color" : ""
        },
        {
          "u" : "https:\/\/m.douguo.com\/activity\/ncpzj\/detail\/3691?isapp=1&open=0&_vs=1000300&&dg_refreshkey=publishnote",
          "id" : 0,
          "c" : "#一起年夜饭 家家福临门 | 年夜饭大赛有奖家家征集#",
          "icon" : "",
          "type" : 0
        }
      ],
      "tips" : "",
      "cook_difficulty_image" : "https:\/\/i1.douguo.com\/upload\/banner\/1551424390.png",
      "clicks" : "1",
      "thumb_height" : 0,
      "major" : [
        {
          "title" : "加拿大北极虾",
          "note" : "30只"
        },
        {
          "tu" : "https:\/\/m.douguo.com\/ingredients\/米饭\/detailmaterial",
          "note" : "250克",
          "title" : "米饭"
        },
        {
          "title" : "胡萝卜",
          "tu" : "https:\/\/m.douguo.com\/ingredients\/胡萝卜\/detailmaterial",
          "note" : "1根"
        },
        {
          "title" : "水果玉米",
          "note" : "1根"
        },
        {
          "note" : "50克",
          "title" : "西兰花",
          "tu" : "https:\/\/m.douguo.com\/ingredients\/西兰花\/detailmaterial"
        },
        {
          "note" : "30克",
          "title" : "香葱碎"
        },
        {
          "note" : "10克",
          "title" : "芝麻海苔碎"
        },
        {
          "tu" : "https:\/\/m.douguo.com\/ingredients\/木鱼花\/detailmaterial",
          "title" : "木鱼花",
          "note" : "5克"
        },
        {
          "note" : "2克",
          "title" : "海盐"
        },
        {
          "tu" : "https:\/\/m.douguo.com\/ingredients\/食用油\/detailmaterial",
          "note" : "2勺",
          "title" : "食用油"
        }
      ],
      "cookstory" : "加拿大北极虾饭团，用新鲜蔬菜与鲜甜的北极虾仁搭配，再加上软糯的米饭，用手的力量和温度捏成的饭团，一定会成为餐桌上吸引眼球的亮点。 ",
      "author_id" : 18621547,
      "cook_time_image" : "https:\/\/i1.douguo.com\/upload\/banner\/1551424341.png",
      "favo_counts" : 3247,
      "author_verified" : 1,
      "collect_status" : 0,
      "rate" : 0,
      "ph" : 533,
      "hq" : 1,
      "favo_counts_text" : "3247",
      "rrpt" : "",
      "recommendation_tag" : "",
      "cookwares" : [

      ],
      "recipe_tags" : [

      ],
      "recent_comments" : [

      ],
      "rate_show" : 0,
      "vfurl" : "",
      "levelid" : 2,
      "title_ad" : [

      ],
      "cook_id" : "3237631",
      "rate_count" : 0,
      "ss" : [

      ],
      "v_u" : "",
      "share_info" : {
        "object_id" : "3237631",
        "s_d" : "#福临门 幸福临门#凤尾加拿大北极虾饭团-会做饭很酷!",
        "name" : "#福临门 幸福临门#凤尾加拿大北极虾饭团-会做饭很酷!",
        "image" : "https:\/\/cp1.douguo.com\/upload\/caiku\/8\/9\/8\/897217ab1bafebfb9fc37b155c449858.jpeg",
        "infos" : [
          {
            "s_u" : "",
            "channel" : "1",
            "object_id" : "3237631",
            "name" : "#福临门 幸福临门#凤尾加拿大北极虾饭团-会做饭很酷!",
            "s_d" : "#学做饭用豆果美食#  我在@豆果美食 分享了【#福临门 幸福临门#凤尾加拿大北极虾饭团-会做饭很酷!】，制作美食的过程承载了我生活中的热情，和我一起感受这份小确幸吧！查看图片了解菜谱（你喜欢的美食都在这里！https:\/\/m.weibo.cn\/p\/100404i33631）#会做饭很酷# ",
            "qr_image" : "",
            "image" : "https:\/\/cp1.douguo.com\/upload\/caiku\/8\/9\/8\/897217ab1bafebfb9fc37b155c449858.jpeg",
            "mini_program" : [

            ]
          },
          {
            "object_id" : "3237631",
            "s_d" : "#福临门 幸福临门#凤尾加拿大北极虾饭团-会做饭很酷!",
            "name" : "#福临门 幸福临门#凤尾加拿大北极虾饭团-会做饭很酷!",
            "mini_program" : [

            ],
            "s_u" : "http:\/\/m.douguo.com\/cookbook\/3237631.html",
            "image" : "https:\/\/cp1.douguo.com\/upload\/caiku\/8\/9\/8\/897217ab1bafebfb9fc37b155c449858.jpeg",
            "qr_image" : "",
            "channel" : "7"
          },
          {
            "channel" : "8",
            "mini_program" : [

            ],
            "object_id" : "3237631",
            "image" : "https:\/\/cp1.douguo.com\/upload\/caiku\/8\/9\/8\/897217ab1bafebfb9fc37b155c449858.jpeg",
            "qr_image" : "",
            "s_u" : "http:\/\/m.douguo.com\/cookbook\/3237631.html",
            "s_d" : "#福临门 幸福临门#凤尾加拿大北极虾饭团-会做饭很酷!",
            "name" : "#福临门 幸福临门#凤尾加拿大北极虾饭团-会做饭很酷!"
          }
        ],
        "s_u" : "http:\/\/m.douguo.com\/cookbook\/3237631.html",
        "qr_image" : "",
        "mini_program" : [

        ]
      },
      "top_mdsp" : [

      ],
      "ipt" : "",
      "advice" : {
        "has" : [
          {
            "url" : "recipes:\/\/www.douguo.com\/simplerecipelist?t=低饱和脂肪&id=低饱和脂肪",
            "t" : "低饱和脂肪"
          },
          {
            "t" : "0胆固醇",
            "url" : "recipes:\/\/www.douguo.com\/simplerecipelist?t=0胆固醇&id=0胆固醇"
          }
        ],
        "da" : {
          "url" : "https:\/\/m.douguo.com\/recipe\/nutrient_self\/3237631",
          "iu" : "https:\/\/i1.douguo.com\/upload\/banner\/f\/4\/d\/f48877e53c37759bc12ac494be82ec8d.png",
          "t" : "查看详细分析"
        },
        "at" : "对血管有保护作用～"
      },
      "hqu" : "recipes:\/\/www.douguo.com\/notedetail?id=21162253",
      "act_des" : "",
      "mid_mdsp" : [

      ],
      "release_time" : "",
      "event" : {
        "name" : "一起年夜饭 家家福临门 | 年夜饭大赛有奖家家征集",
        "url" : "https:\/\/m.douguo.com\/activity\/ncpzj\/detail\/3691?isapp=1&open=0&_vs=1000300&&dg_refreshkey=publishnote",
        "id" : 3691
      },
      "minor" : [

      ],
      "views_count_text" : "9.8万",
      "rpt" : "",
      "old_comments" : [

      ],
      "btm_dsp" : [

      ],
      "rips" : 0,
      "create_time" : "2023-02-09 13:30:06",
      "tags" : [

      ],
      "notes" : [

      ],
      "ecs" : 1,
      "cook_difficulty" : "切墩(初级)",
      "related_ads" : [

      ],
      "ipurl" : "",
      "vc" : "98364",
      "ipit" : 0,
      "rpst" : "",
      "dish_count_text" : "",
      "recipe_list_tags" : [
        {
          "text" : "关注的人",
          "jump_url" : "",
          "right_image" : "",
          "text_color" : "#141515",
          "background_start_color" : "#F4F5F5",
          "background_end_color" : "#F4F5F5",
          "background_border_color" : ""
        }
      ],
      "ssu" : "",
      "comments_count_text" : "",
      "rcs" : [

      ],
      "recommend_label" : "3247人刚刚收藏过",
      "cook_time" : "10~30分钟",
      "eu" : "recipes:\/\/www.douguo.com\/postdetail?id=242016",
      "ipci" : "",
      "rpid" : 0,
      "purl" : "",
      "guide_image" : "",
      "rsm" : "该功能暂停使用",
      "ipoi" : "",
      "dish_count" : 0,
      "cookstep" : [
        {
          "thumb" : "https:\/\/i1.douguo.com\/upload\/caiku\/d\/d\/3\/140_dd559a63f670f812b6df01f091bba683.jpeg",
          "image_height" : 3216,
          "content" : "加拿大北极虾是熟冻加工的虾，购买后可以室温解冻即食，也可以用冷水浸泡后即食，或者炒菜、煮汤、包饺子等等........作为一种高冷的海鲜，北极虾生活在高纬度、冷水海域，与所有深海冷水海鲜一样，加拿大北极虾肉质紧实有嚼劲，其口感是特有的鲜甜中透着微微的咸味。",
          "frame" : "-1",
          "image_width" : 2560,
          "position" : 1,
          "image" : "https:\/\/i1.douguo.com\/upload\/caiku\/d\/d\/3\/dd559a63f670f812b6df01f091bba683.jpeg"
        },
        {
          "image_height" : 475,
          "frame" : "-1",
          "content" : "加拿大北极虾去壳留仁。",
          "image_width" : 822,
          "thumb" : "https:\/\/i1.douguo.com\/upload\/caiku\/c\/a\/b\/140_ca23c83b1290f644a1ece5ddc5e5f57b.jpeg",
          "position" : 2,
          "image" : "https:\/\/i1.douguo.com\/upload\/caiku\/c\/a\/b\/ca23c83b1290f644a1ece5ddc5e5f57b.jpeg"
        },
        {
          "position" : 3,
          "image_width" : 802,
          "frame" : "-1",
          "thumb" : "https:\/\/i1.douguo.com\/upload\/caiku\/d\/6\/9\/140_d6319a291e4df55a39e0aa669b4408e9.jpeg",
          "image" : "https:\/\/i1.douguo.com\/upload\/caiku\/d\/6\/9\/d6319a291e4df55a39e0aa669b4408e9.jpeg",
          "content" : "胡萝卜切丁、水果玉米洗净，取玉米粒备用、西兰花洗净，去掉根部。",
          "image_height" : 471
        },
        {
          "image_height" : 474,
          "frame" : "-1",
          "thumb" : "https:\/\/i1.douguo.com\/upload\/caiku\/7\/0\/4\/140_70428c06b8c757ed1efeff1c00c624c4.jpeg",
          "content" : "锅中加2勺食用油，倒入胡萝卜丁、玉米粒，大火翻炒2分钟。加入西兰花，继续大火翻炒1分钟。",
          "image_width" : 844,
          "image" : "https:\/\/i1.douguo.com\/upload\/caiku\/7\/0\/4\/70428c06b8c757ed1efeff1c00c624c4.jpeg",
          "position" : 4
        },
        {
          "position" : 5,
          "image_width" : 839,
          "content" : "加入香葱碎，海盐调味后，翻拌均匀出锅。",
          "image_height" : 471,
          "frame" : "-1",
          "thumb" : "https:\/\/i1.douguo.com\/upload\/caiku\/8\/d\/1\/140_8ddb65f90bfab9ccc63dd56b21318d71.jpeg",
          "image" : "https:\/\/i1.douguo.com\/upload\/caiku\/8\/d\/1\/8ddb65f90bfab9ccc63dd56b21318d71.jpeg"
        },
        {
          "thumb" : "https:\/\/i1.douguo.com\/upload\/caiku\/9\/0\/d\/140_903e8a5867c6d95745604989c7f0b7bd.jpeg",
          "image_height" : 454,
          "content" : "把炒好的蔬菜倒在米饭上，倒入芝麻海苔碎拌匀。",
          "frame" : "-1",
          "image_width" : 841,
          "position" : 6,
          "image" : "https:\/\/i1.douguo.com\/upload\/caiku\/9\/0\/d\/903e8a5867c6d95745604989c7f0b7bd.jpeg"
        },
        {
          "thumb" : "https:\/\/i1.douguo.com\/upload\/caiku\/5\/4\/5\/140_5409cdce7d04f2e75951c2e577356c65.jpeg",
          "position" : 7,
          "image_height" : 462,
          "image" : "https:\/\/i1.douguo.com\/upload\/caiku\/5\/4\/5\/5409cdce7d04f2e75951c2e577356c65.jpeg",
          "image_width" : 842,
          "content" : "取一张保鲜膜，把拌好的米饭和蔬菜放在保鲜膜上，放一粒北极虾仁，把虾尾向上，开始捏饭团球。",
          "frame" : "-1"
        },
        {
          "position" : 8,
          "content" : "捏好的饭团球不要着急打开，放在一旁静置2分钟定型，再做几个饭团。",
          "image_height" : 462,
          "image_width" : 835,
          "frame" : "-1",
          "image" : "https:\/\/i1.douguo.com\/upload\/caiku\/2\/4\/f\/24235094051ede9cf2c4712df38d5b9f.jpeg",
          "thumb" : "https:\/\/i1.douguo.com\/upload\/caiku\/2\/4\/f\/140_24235094051ede9cf2c4712df38d5b9f.jpeg"
        },
        {
          "image_height" : 467,
          "thumb" : "https:\/\/i1.douguo.com\/upload\/caiku\/d\/f\/9\/140_dfba7cebae5fa4b5b930c926b6a5ecc9.jpeg",
          "frame" : "-1",
          "image_width" : 843,
          "content" : "最后在做好的北极虾饭团上，撒上木鱼花增鲜。",
          "image" : "https:\/\/i1.douguo.com\/upload\/caiku\/d\/f\/9\/dfba7cebae5fa4b5b930c926b6a5ecc9.jpeg",
          "position" : 9
        }
      ],
      "thumb_path" : "https:\/\/i1.douguo.com\/upload\/caiku\/8\/9\/8\/300_897217ab1bafebfb9fc37b155c449858.jpeg",
      "sc" : 0,
      "author_photo" : "http:\/\/tx1.douguo.net\/upload\/photo\/b\/5\/5\/70_u73310629393286035316.jpg",
      "rewarded_video_dsp" : [

      ]
    }
  },
  "status" : 0,
  "state" : "success"
}