{
  "status" : 0,
  "result" : {
    "recipe" : {
      "comments_count" : 2,
      "story_dsp" : [

      ],
      "cook_time_image" : "",
      "comments" : [
        "{\n    ac = \"#999999\";\n    at = \"\";\n    ccc = 0;\n    \"child_comments\" =     (\n    );\n    city = \"\";\n    cmc = 2;\n    content =     (\n                {\n            c = \"\\U60f3\\U5403\\U7684\";\n        }\n    );\n    ia = 0;\n    id = 8974054;\n    \"ip_address_location\" = \"\\U6c5f\\U82cf\\U7701\";\n    like = 0;\n    \"like_count\" = 0;\n    \"reply_id\" = 0;\n    \"sticker_icon\" =     (\n    );\n    time = \"2022-10-08 19:46:57\";\n    u =     {\n        \"followers_count_text\" = \"\";\n        id = 15444505;\n        \"is_prime\" = 0;\n        lv = 0;\n        lvl = 1;\n        n = \"\\U9c7c\\U513fq\";\n        p = \"http:\/\/tx1.douguo.net\/upload\/photo\/1\/7\/8\/70_u48072590341910185643.jpg\";\n        \"progress_image\" = \"\";\n        \"recipes_count_text\" = \"\";\n        relationship = \"-1\";\n        title = \"\";\n        v = 0;\n        \"verified_image\" = \"\";\n    };\n}",
        "{\n    ac = \"#999999\";\n    at = \"\";\n    ccc = 0;\n    \"child_comments\" =     (\n    );\n    city = \"\";\n    cmc = 2;\n    content =     (\n                {\n            c = \"\\U6709\\U8272\\U6709\\U9999\\Uff0c\\U610f\\U8da3\\U8ff7\\U4eba\";\n        }\n    );\n    ia = 0;\n    id = 8888207;\n    \"ip_address_location\" = \"\";\n    like = 0;\n    \"like_count\" = 0;\n    \"reply_id\" = 0;\n    \"sticker_icon\" =     (\n    );\n    time = \"2021-12-13 19:57:07\";\n    u =     {\n        \"followers_count_text\" = \"\";\n        id = 18490370;\n        \"is_prime\" = 0;\n        lv = 0;\n        lvl = 3;\n        n = \"\\U8d85\\U6a3e\";\n        p = \"http:\/\/tx1.douguo.net\/upload\/photo\/9\/1\/b\/70_u09275886354637093127.jpg\";\n        \"progress_image\" = \"\";\n        \"recipes_count_text\" = \"\";\n        relationship = \"-1\";\n        title = \"\";\n        v = 0;\n        \"verified_image\" = \"\";\n    };\n}"
      ],
      "hqu" : "recipes:\/\/www.douguo.com\/notedetail?id=21162253",
      "rpid" : 0,
      "vc" : "143183",
      "minor" : [

      ],
      "rewarded_video_dsp" : [

      ],
      "notes" : [

      ],
      "cook_difficulty_image" : "",
      "release_time" : "",
      "rdsps" : [

      ],
      "event" : {
        "url" : "https:\/\/m.douguo.com\/activity\/ncpzj\/detail\/3349?isapp=1&open=0&_vs=1000300&&dg_refreshkey=publishnote",
        "name" : "有奖征集|一学就会快手菜",
        "id" : 3349
      },
      "related_ads" : [

      ],
      "share_info" : {
        "mini_program" : [

        ],
        "object_id" : "3155617",
        "s_u" : "http:\/\/m.douguo.com\/cookbook\/3155617.html",
        "image" : "https:\/\/cp1.douguo.com\/upload\/caiku\/7\/6\/4\/76ce94b6cf9c925a9e03d40bc8f649f4.jpg",
        "name" : "#一学就会快手菜#白菜肉丸粉丝汤-会做饭很酷!",
        "s_d" : "#一学就会快手菜#白菜肉丸粉丝汤-会做饭很酷!",
        "infos" : [
          {
            "mini_program" : [

            ],
            "image" : "https:\/\/cp1.douguo.com\/upload\/caiku\/7\/6\/4\/76ce94b6cf9c925a9e03d40bc8f649f4.jpg",
            "s_d" : "#学做饭用豆果美食# 会做饭真是太酷了！我在@豆果美食 分享了【#一学就会快手菜#白菜肉丸粉丝汤-会做饭很酷!】，看着是不是馋到不行呢～快来跟我学学吧！查看图片了解菜谱，（想要获取更多美食就看这https:\/\/m.weibo.cn\/p\/100404i33631）",
            "name" : "#一学就会快手菜#白菜肉丸粉丝汤-会做饭很酷!",
            "channel" : "1",
            "s_u" : "",
            "qr_image" : "",
            "object_id" : "3155617"
          },
          {
            "channel" : "7",
            "object_id" : "3155617",
            "s_d" : "#一学就会快手菜#白菜肉丸粉丝汤-会做饭很酷!",
            "qr_image" : "",
            "image" : "https:\/\/cp1.douguo.com\/upload\/caiku\/7\/6\/4\/76ce94b6cf9c925a9e03d40bc8f649f4.jpg",
            "name" : "#一学就会快手菜#白菜肉丸粉丝汤-会做饭很酷!",
            "s_u" : "http:\/\/m.douguo.com\/cookbook\/3155617.html",
            "mini_program" : [

            ]
          },
          {
            "name" : "#一学就会快手菜#白菜肉丸粉丝汤-会做饭很酷!",
            "qr_image" : "",
            "s_u" : "http:\/\/m.douguo.com\/cookbook\/3155617.html",
            "mini_program" : [

            ],
            "channel" : "8",
            "s_d" : "#一学就会快手菜#白菜肉丸粉丝汤-会做饭很酷!",
            "object_id" : "3155617",
            "image" : "https:\/\/cp1.douguo.com\/upload\/caiku\/7\/6\/4\/76ce94b6cf9c925a9e03d40bc8f649f4.jpg"
          }
        ],
        "qr_image" : ""
      },
      "brand_day_dsp" : [

      ],
      "cookstorys" : [
        {
          "c" : "冬天的晚餐来一份暖暖的白菜汤也不错。",
          "color" : "",
          "id" : 0,
          "u" : "",
          "icon" : "",
          "type" : 0
        },
        {
          "u" : "",
          "c" : "\n参与活动:",
          "id" : 0,
          "icon" : "",
          "color" : "",
          "type" : 0
        },
        {
          "id" : 0,
          "type" : 0,
          "c" : "#有奖征集|一学就会快手菜#",
          "icon" : "",
          "u" : "https:\/\/m.douguo.com\/activity\/ncpzj\/detail\/3349?isapp=1&open=0&_vs=1000300&&dg_refreshkey=publishnote"
        }
      ],
      "rrpt" : "",
      "collect_status" : 0,
      "rrps" : [

      ],
      "cook_difficulty" : "",
      "rate" : 5,
      "photo_path" : "https:\/\/i1.douguo.com\/upload\/caiku\/7\/6\/4\/600_76ce94b6cf9c925a9e03d40bc8f649f4.jpg",
      "packages_id" : [

      ],
      "tips" : "喜欢白菜糯一点可以多炖一会儿。",
      "views_count_text" : "14.3万",
      "dish_count" : 2,
      "cookstory" : "冬天的晚餐来一份暖暖的白菜汤也不错。",
      "favo_counts" : 3767,
      "eu" : "recipes:\/\/www.douguo.com\/postdetail?id=242016",
      "hq" : 1,
      "sc" : 0,
      "su" : "",
      "cookwares" : [

      ],
      "ipt" : "",
      "rpst" : "",
      "tags" : [

      ],
      "ipia" : [

      ],
      "thumb_path" : "https:\/\/i1.douguo.com\/upload\/caiku\/7\/6\/4\/300_76ce94b6cf9c925a9e03d40bc8f649f4.jpg",
      "pw" : 960,
      "vu" : "",
      "thumb_height" : 0,
      "favo_counts_text" : "3767",
      "ss" : [

      ],
      "ipurl" : "",
      "guide_image" : "",
      "old_comments" : [

      ],
      "recommended" : 0,
      "act_des" : "",
      "image" : "http:\/\/i1.douguo.net\/upload\/caiku\/7\/6\/4\/300_76ce94b6cf9c925a9e03d40bc8f649f4.jpg",
      "rpt" : "",
      "rate_count" : 2,
      "recipe_list_tags" : [
        {
          "text_color" : "#141515",
          "jump_url" : "",
          "text" : "关注的人",
          "background_start_color" : "#F4F5F5",
          "right_image" : "",
          "background_end_color" : "#F4F5F5",
          "background_border_color" : ""
        },
        {
          "text_color" : "#141515",
          "jump_url" : "",
          "text" : "内容详细",
          "background_end_color" : "#F4F5F5",
          "background_border_color" : "",
          "background_start_color" : "#F4F5F5",
          "right_image" : ""
        }
      ],
      "author" : "爱家爱娃爱美食",
      "levelid" : 2,
      "display_ingredient" : 1,
      "clicks" : "1",
      "author_verified" : 1,
      "dishes" : [

      ],
      "title_ad" : [

      ],
      "cookstep" : [
        {
          "thumb" : "https:\/\/i1.douguo.com\/upload\/caiku\/5\/9\/2\/140_597f3875829fb4b1231dbecf4cab0832.jpg",
          "image_width" : 960,
          "image_height" : 960,
          "frame" : "-1",
          "position" : 1,
          "image" : "https:\/\/i1.douguo.com\/upload\/caiku\/5\/9\/2\/597f3875829fb4b1231dbecf4cab0832.jpg",
          "content" : "白菜切小块洗净，粉丝预先泡开剪小段。热锅烧油，放几片大葱炒。"
        },
        {
          "position" : 2,
          "image_width" : 960,
          "content" : "放白菜",
          "image" : "https:\/\/i1.douguo.com\/upload\/caiku\/d\/9\/2\/d974817a23ae2633c6dbc64ae175eeb2.jpg",
          "thumb" : "https:\/\/i1.douguo.com\/upload\/caiku\/d\/9\/2\/140_d974817a23ae2633c6dbc64ae175eeb2.jpg",
          "frame" : "-1",
          "image_height" : 960
        },
        {
          "image_width" : 960,
          "thumb" : "https:\/\/i1.douguo.com\/upload\/caiku\/f\/d\/b\/140_fd17756da413df833d166f94c5e6253b.jpg",
          "image" : "https:\/\/i1.douguo.com\/upload\/caiku\/f\/d\/b\/fd17756da413df833d166f94c5e6253b.jpg",
          "image_height" : 960,
          "position" : 3,
          "frame" : "-1",
          "content" : "多煸炒一会，白菜会出水。"
        },
        {
          "image_width" : 960,
          "content" : "放肉丸粉丝煸炒一会。",
          "frame" : "-1",
          "image" : "https:\/\/i1.douguo.com\/upload\/caiku\/c\/d\/b\/cdd6b1f9490133367be0e4e5bfe00f1b.jpg",
          "position" : 4,
          "thumb" : "https:\/\/i1.douguo.com\/upload\/caiku\/c\/d\/b\/140_cdd6b1f9490133367be0e4e5bfe00f1b.jpg",
          "image_height" : 960
        },
        {
          "content" : "放入水没过食材。",
          "position" : 5,
          "image" : "https:\/\/i1.douguo.com\/upload\/caiku\/c\/e\/e\/cef796bd4f5afc501d3b588f37e01c3e.jpg",
          "thumb" : "https:\/\/i1.douguo.com\/upload\/caiku\/c\/e\/e\/140_cef796bd4f5afc501d3b588f37e01c3e.jpg",
          "frame" : "-1",
          "image_height" : 960,
          "image_width" : 960
        },
        {
          "image_width" : 960,
          "frame" : "-1",
          "image" : "https:\/\/i1.douguo.com\/upload\/caiku\/1\/8\/8\/180e97ac6afb1f35410a8075c757d668.jpg",
          "position" : 6,
          "thumb" : "https:\/\/i1.douguo.com\/upload\/caiku\/1\/8\/8\/140_180e97ac6afb1f35410a8075c757d668.jpg",
          "image_height" : 960,
          "content" : "大火烧开后略焖10分钟。"
        },
        {
          "content" : "搁点盐，尝一下味道后出锅。几点香油更香啦。",
          "image" : "https:\/\/i1.douguo.com\/upload\/caiku\/6\/5\/7\/65d325d17b41ea817bb18994d82b3a97.jpg",
          "image_height" : 960,
          "position" : 7,
          "thumb" : "https:\/\/i1.douguo.com\/upload\/caiku\/6\/5\/7\/140_65d325d17b41ea817bb18994d82b3a97.jpg",
          "image_width" : 960,
          "frame" : "-1"
        }
      ],
      "user" : {
        "coursecount" : 0,
        "qq_weibo_nick" : "",
        "weibo_nick" : "",
        "recipes_count" : 0,
        "fc" : 0,
        "point" : 0,
        "user_photo" : "http:\/\/tx1.douguo.net\/upload\/photo\/b\/0\/a\/70_b047e17008407f05859d6fa55b59f50a.jpg",
        "diaries_count" : 0,
        "nick" : "爱家爱娃爱美食",
        "email" : "",
        "location" : 0,
        "progress_image" : "",
        "verified_url" : "https:\/\/m.douguo.com\/user\/prodesc",
        "is_prime" : 0,
        "birthday" : "",
        "pc" : 0,
        "qzone_nick" : "",
        "user_cover" : "",
        "user_id" : "24140886",
        "following_count" : 0,
        "setted_email" : 0,
        "subscription_article_count" : 0,
        "user_large_photo" : "http:\/\/tx1.douguo.net\/upload\/photo\/b\/0\/a\/yuan_b047e17008407f05859d6fa55b59f50a.jpg",
        "gender" : 2,
        "favorites_count" : 0,
        "lv" : 0,
        "regist_time" : "",
        "sign" : "",
        "subscription" : 0,
        "age" : "",
        "verified_image" : "https:\/\/i1.douguo.com\/upload\/note\/d\/a\/a\/da84247847aebe48d9dd0fcdac88862a.png",
        "favor_diaries_count" : 0,
        "verified" : 1,
        "userid" : "24140886",
        "mobile" : "",
        "avatar_medium" : "http:\/\/tx1.douguo.net\/upload\/photo\/b\/0\/a\/140_b047e17008407f05859d6fa55b59f50a.jpg",
        "followers_count" : 0,
        "introduction" : "",
        "dishes_count" : 0,
        "lvl" : 7
      },
      "comments_count_text" : "2",
      "rcs" : [

      ],
      "author_photo" : "http:\/\/tx1.douguo.net\/upload\/photo\/b\/0\/a\/70_b047e17008407f05859d6fa55b59f50a.jpg",
      "recipe_tags" : [

      ],
      "vfurl" : "",
      "dish_count_text" : "2",
      "recommendation_tag" : "",
      "top_mdsp" : [

      ],
      "rsm" : "该功能暂停使用",
      "sr" : "",
      "ph" : 960,
      "rate_show" : 0,
      "rips" : 0,
      "cook_time" : "",
      "v_u" : "",
      "author_id" : 24140886,
      "ipoi" : "",
      "ipci" : "",
      "ssu" : "",
      "recent_comments" : [

      ],
      "title" : "白菜肉丸粉丝汤",
      "first_level_comment_count" : 2,
      "create_time" : "2021-12-13 18:44:00",
      "mid_mdsp" : [

      ],
      "major" : [
        {
          "note" : "6个",
          "title" : "肉丸子"
        },
        {
          "tu" : "https:\/\/m.douguo.com\/ingredients\/大白菜\/detailmaterial",
          "title" : "大白菜",
          "note" : "2片"
        },
        {
          "title" : "番薯粉丝",
          "note" : "50g"
        },
        {
          "tu" : "https:\/\/m.douguo.com\/ingredients\/盐\/detailmaterial",
          "title" : "盐",
          "note" : "1小茶匙"
        },
        {
          "note" : "2-3滴",
          "tu" : "https:\/\/m.douguo.com\/ingredients\/香油\/detailmaterial",
          "title" : "香油"
        }
      ],
      "cook_id" : "3155617",
      "recommend_label" : "2人学做",
      "advice" : {
        "da" : {
          "url" : "https:\/\/m.douguo.com\/recipe\/nutrient_self\/3155617",
          "t" : "查看详细分析",
          "iu" : "https:\/\/i1.douguo.com\/upload\/banner\/f\/4\/d\/f48877e53c37759bc12ac494be82ec8d.png"
        },
        "at" : "可以预防血栓形成～",
        "has" : [
          {
            "t" : "低饱和脂肪",
            "url" : "recipes:\/\/www.douguo.com\/simplerecipelist?t=低饱和脂肪&id=低饱和脂肪"
          },
          {
            "t" : "高盐",
            "url" : "recipes:\/\/www.douguo.com\/simplerecipelist?t=高盐&id=高盐"
          }
        ]
      },
      "original_photo_path" : "http:\/\/i1.douguo.net\/upload\/caiku\/7\/6\/4\/yuan_76ce94b6cf9c925a9e03d40bc8f649f4.jpg",
      "purl" : "",
      "ecs" : 1,
      "bs" : [

      ],
      "ipit" : 0,
      "btm_dsp" : [

      ]
    }
  },
  "state" : "success"
}