{
  "status" : 0,
  "result" : {
    "recipe" : {
      "cook_difficulty_image" : "",
      "dish_count_text" : "",
      "hqu" : "recipes:\/\/www.douguo.com\/notedetail?id=21162253",
      "ecs" : 1,
      "cookstory" : "在家里给小朋友开一门私人小小厨师课，锻炼他的动手能力，又促进亲子关系",
      "views_count_text" : "15.7万",
      "story_dsp" : [

      ],
      "display_ingredient" : 1,
      "pw" : 1280,
      "cook_time_image" : "https:\/\/i1.douguo.com\/upload\/banner\/1551424341.png",
      "rpt" : "",
      "author_id" : 17989757,
      "sr" : "",
      "major" : [
        {
          "note" : "2个",
          "tu" : "https:\/\/m.douguo.com\/ingredients\/苹果\/detailmaterial",
          "title" : "苹果"
        },
        {
          "note" : "适量",
          "title" : "糖",
          "tu" : "https:\/\/m.douguo.com\/ingredients\/糖\/detailmaterial"
        },
        {
          "note" : "适量",
          "title" : "盐",
          "tu" : "https:\/\/m.douguo.com\/ingredients\/盐\/detailmaterial"
        },
        {
          "title" : "淀粉",
          "note" : "适量"
        },
        {
          "note" : "4张",
          "title" : "手抓饼"
        },
        {
          "tu" : "https:\/\/m.douguo.com\/ingredients\/蛋黄\/detailmaterial",
          "note" : "1个",
          "title" : "蛋黄"
        },
        {
          "note" : "适量",
          "tu" : "https:\/\/m.douguo.com\/ingredients\/芝麻\/detailmaterial",
          "title" : "芝麻"
        },
        {
          "note" : "适量",
          "title" : "马苏里拉芝士碎"
        }
      ],
      "sc" : 0,
      "rips" : 0,
      "guide_image" : "",
      "recent_comments" : [

      ],
      "cook_difficulty" : "",
      "old_comments" : [

      ],
      "rpst" : "",
      "act_des" : "",
      "clicks" : "145997",
      "rate_count" : 0,
      "recommendation_tag" : "",
      "v_u" : "",
      "purl" : "",
      "notes" : [

      ],
      "btm_dsp" : [

      ],
      "comments_count" : 2,
      "eu" : "recipes:\/\/www.douguo.com\/postdetail?id=242016",
      "rsm" : "该功能暂停使用",
      "cook_id" : "3067384",
      "tags" : [

      ],
      "original_photo_path" : "http:\/\/i1.douguo.net\/upload\/caiku\/1\/5\/2\/yuan_15ddeaa90cfbca8488f4103d07632ea2.jpg",
      "recommended" : 0,
      "ssu" : "",
      "top_mdsp" : [

      ],
      "su" : "",
      "ph" : 960,
      "related_ads" : [

      ],
      "cookstep" : [
        {
          "image_width" : 1280,
          "content" : "材料准备好，鸡蛋取出蛋黄准备",
          "image_height" : 960,
          "image" : "https:\/\/i1.douguo.com\/upload\/caiku\/c\/d\/5\/cdf35e59b1c3faa84b2176bfddf91b15.jpg",
          "frame" : "-1",
          "position" : 1,
          "thumb" : "https:\/\/i1.douguo.com\/upload\/caiku\/c\/d\/5\/140_cdf35e59b1c3faa84b2176bfddf91b15.jpg"
        },
        {
          "image_height" : 1707,
          "image_width" : 1280,
          "thumb" : "https:\/\/i1.douguo.com\/upload\/caiku\/a\/c\/9\/140_acb656449b7c929cdb3d8c00c6934549.jpg",
          "content" : "孩子想吃带芝士的又拿了一包芝士出来",
          "image" : "https:\/\/i1.douguo.com\/upload\/caiku\/a\/c\/9\/acb656449b7c929cdb3d8c00c6934549.jpg",
          "position" : 2,
          "frame" : "-1"
        },
        {
          "content" : "苹果切小块，我切大了，尽量小点好",
          "image" : "https:\/\/i1.douguo.com\/upload\/caiku\/e\/e\/0\/eef0eb0b694dda4240cad148c099ad80.jpg",
          "frame" : "-1",
          "thumb" : "https:\/\/i1.douguo.com\/upload\/caiku\/e\/e\/0\/140_eef0eb0b694dda4240cad148c099ad80.jpg",
          "image_width" : 1280,
          "position" : 3,
          "image_height" : 1707
        },
        {
          "image" : "https:\/\/i1.douguo.com\/upload\/caiku\/4\/2\/d\/42d1f25cbe84e5e974761533ab5da53d.jpg",
          "frame" : "-1",
          "position" : 4,
          "image_width" : 1280,
          "content" : "黄油加热",
          "thumb" : "https:\/\/i1.douguo.com\/upload\/caiku\/4\/2\/d\/140_42d1f25cbe84e5e974761533ab5da53d.jpg",
          "image_height" : 1707
        },
        {
          "image" : "https:\/\/i1.douguo.com\/upload\/caiku\/c\/f\/7\/cf69ed3432ddc34e8c8230a09a2f9117.jpg",
          "content" : "苹果下锅翻炒掉水分，加盐，糖，糖可以多点，盐一点点即可，解腻就行，加入水淀粉",
          "image_width" : 1280,
          "thumb" : "https:\/\/i1.douguo.com\/upload\/caiku\/c\/f\/7\/140_cf69ed3432ddc34e8c8230a09a2f9117.jpg",
          "image_height" : 1707,
          "frame" : "-1",
          "position" : 5
        },
        {
          "image_height" : 1707,
          "frame" : "-1",
          "image" : "https:\/\/i1.douguo.com\/upload\/caiku\/6\/4\/5\/64193feda50250c0abd4b8cb28bb0055.jpg",
          "content" : "接着翻炒到干一些",
          "position" : 6,
          "thumb" : "https:\/\/i1.douguo.com\/upload\/caiku\/6\/4\/5\/140_64193feda50250c0abd4b8cb28bb0055.jpg",
          "image_width" : 1280
        },
        {
          "position" : 7,
          "frame" : "-1",
          "image_width" : 800,
          "image_height" : 1067,
          "content" : "手抓饼解冻一分钟即可，太软我觉得很容易变形，放入适量苹果芝士，少放一点，我切的太大块，碎一点好",
          "thumb" : "https:\/\/i1.douguo.com\/upload\/caiku\/0\/1\/0\/140_011c4838b7e074da9d5d4593edba1880.jpg",
          "image" : "https:\/\/i1.douguo.com\/upload\/caiku\/0\/1\/0\/011c4838b7e074da9d5d4593edba1880.jpg"
        },
        {
          "image_width" : 1280,
          "position" : 8,
          "image_height" : 1707,
          "thumb" : "https:\/\/i1.douguo.com\/upload\/caiku\/4\/c\/5\/140_4c3646cdb8662bcdc535f863d5da1e55.jpg",
          "image" : "https:\/\/i1.douguo.com\/upload\/caiku\/4\/c\/5\/4c3646cdb8662bcdc535f863d5da1e55.jpg",
          "content" : "盖上饼皮",
          "frame" : "-1"
        },
        {
          "frame" : "-1",
          "image" : "https:\/\/i1.douguo.com\/upload\/caiku\/7\/b\/a\/7b6d7e5af6969c6f3500698adce3503a.jpg",
          "image_height" : 960,
          "content" : "用叉子压实边，多压几下",
          "image_width" : 1280,
          "thumb" : "https:\/\/i1.douguo.com\/upload\/caiku\/7\/b\/a\/140_7b6d7e5af6969c6f3500698adce3503a.jpg",
          "position" : 9
        },
        {
          "content" : "刷上蛋黄撒上芝麻",
          "image" : "https:\/\/i1.douguo.com\/upload\/caiku\/9\/a\/5\/9af9f3bbdb8d31a159f2202b2abfb1d5.jpg",
          "image_height" : 960,
          "thumb" : "https:\/\/i1.douguo.com\/upload\/caiku\/9\/a\/5\/140_9af9f3bbdb8d31a159f2202b2abfb1d5.jpg",
          "image_width" : 1280,
          "frame" : "-1",
          "position" : 10
        },
        {
          "content" : "烤箱预热，180度温度20分钟上下火烘烤，仔细观察",
          "image_width" : 800,
          "frame" : "-1",
          "position" : 11,
          "image_height" : 600,
          "thumb" : "https:\/\/i1.douguo.com\/upload\/caiku\/e\/3\/2\/140_e3511779a887a95fdeb680a3b28ce0f2.jpg",
          "image" : "https:\/\/i1.douguo.com\/upload\/caiku\/e\/3\/2\/e3511779a887a95fdeb680a3b28ce0f2.jpg"
        },
        {
          "content" : "翻面再烤一下保证底部酥脆",
          "image" : "https:\/\/i1.douguo.com\/upload\/caiku\/1\/2\/f\/12899a4f66e96b39624c3508ef91683f.jpg",
          "image_width" : 1280,
          "image_height" : 960,
          "thumb" : "https:\/\/i1.douguo.com\/upload\/caiku\/1\/2\/f\/140_12899a4f66e96b39624c3508ef91683f.jpg",
          "position" : 12,
          "frame" : "-1"
        },
        {
          "image_width" : 800,
          "content" : "烤好",
          "image" : "https:\/\/i1.douguo.com\/upload\/caiku\/9\/d\/c\/9d089464f0000b7ff26c025cc0b3f1dc.jpg",
          "thumb" : "https:\/\/i1.douguo.com\/upload\/caiku\/9\/d\/c\/140_9d089464f0000b7ff26c025cc0b3f1dc.jpg",
          "position" : 13,
          "frame" : "-1",
          "image_height" : 600
        },
        {
          "image_height" : 600,
          "position" : 14,
          "content" : "外皮非常的酥脆，孩子连吃了几个",
          "image" : "https:\/\/i1.douguo.com\/upload\/caiku\/3\/4\/f\/34f6e86bd0ca9eaa8c91a16e5de9d98f.jpg",
          "thumb" : "https:\/\/i1.douguo.com\/upload\/caiku\/3\/4\/f\/140_34f6e86bd0ca9eaa8c91a16e5de9d98f.jpg",
          "image_width" : 800,
          "frame" : "-1"
        }
      ],
      "ipci" : "",
      "rrps" : [

      ],
      "ipit" : 0,
      "author_verified" : 0,
      "hq" : 1,
      "recipe_list_tags" : [
        {
          "background_start_color" : "#F4F5F5",
          "jump_url" : "",
          "background_border_color" : "",
          "text" : "关注的人",
          "text_color" : "#141515",
          "right_image" : "",
          "background_end_color" : "#F4F5F5"
        },
        {
          "background_border_color" : "",
          "text_color" : "#141515",
          "text" : "值得pick",
          "background_start_color" : "#F4F5F5",
          "right_image" : "",
          "jump_url" : "",
          "background_end_color" : "#F4F5F5"
        }
      ],
      "author_photo" : "http:\/\/tx1.douguo.net\/upload\/photo\/a\/0\/2\/70_u68385726288381183050.jpg",
      "comments_count_text" : "2",
      "share_info" : {
        "mini_program" : [

        ],
        "object_id" : "3067384",
        "image" : "https:\/\/cp1.douguo.com\/upload\/caiku\/1\/5\/2\/15ddeaa90cfbca8488f4103d07632ea2.jpg",
        "s_u" : "http:\/\/m.douguo.com\/cookbook\/3067384.html",
        "s_d" : "带孩子做苹果派-会做饭很酷!",
        "infos" : [
          {
            "channel" : "1",
            "s_u" : "",
            "qr_image" : "",
            "s_d" : "#学做饭用豆果美食# 我在@豆果美食 分享了【带孩子做苹果派-会做饭很酷!】，哟，集美们～你看这是神仙美味～快跟着我做一份，做一份！查看图片了解菜谱（更多美食秘籍点击https:\/\/m.weibo.cn\/p\/100404i33631获取）#会做饭很酷# ",
            "image" : "https:\/\/cp1.douguo.com\/upload\/caiku\/1\/5\/2\/15ddeaa90cfbca8488f4103d07632ea2.jpg",
            "mini_program" : [

            ],
            "object_id" : "3067384",
            "name" : "带孩子做苹果派-会做饭很酷!"
          },
          {
            "qr_image" : "",
            "s_d" : "带孩子做苹果派-会做饭很酷!",
            "image" : "https:\/\/cp1.douguo.com\/upload\/caiku\/1\/5\/2\/15ddeaa90cfbca8488f4103d07632ea2.jpg",
            "object_id" : "3067384",
            "name" : "带孩子做苹果派-会做饭很酷!",
            "s_u" : "http:\/\/m.douguo.com\/cookbook\/3067384.html",
            "mini_program" : [

            ],
            "channel" : "7"
          },
          {
            "channel" : "8",
            "mini_program" : [

            ],
            "object_id" : "3067384",
            "name" : "带孩子做苹果派-会做饭很酷!",
            "s_d" : "带孩子做苹果派-会做饭很酷!",
            "image" : "https:\/\/cp1.douguo.com\/upload\/caiku\/1\/5\/2\/15ddeaa90cfbca8488f4103d07632ea2.jpg",
            "qr_image" : "",
            "s_u" : "http:\/\/m.douguo.com\/cookbook\/3067384.html"
          }
        ],
        "qr_image" : "",
        "name" : "带孩子做苹果派-会做饭很酷!"
      },
      "thumb_height" : 0,
      "bs" : [

      ],
      "advice" : {
        "da" : {
          "url" : "https:\/\/m.douguo.com\/recipe\/nutrient_self\/3067384",
          "t" : "查看详细分析",
          "iu" : "https:\/\/i1.douguo.com\/upload\/banner\/f\/4\/d\/f48877e53c37759bc12ac494be82ec8d.png"
        },
        "at" : "健身人群可以吃～",
        "has" : [
          {
            "url" : "recipes:\/\/www.douguo.com\/simplerecipelist?t=低脂&id=低脂",
            "t" : "低脂"
          },
          {
            "t" : "不含饱和脂肪",
            "url" : "recipes:\/\/www.douguo.com\/simplerecipelist?t=不含饱和脂肪&id=不含饱和脂肪"
          }
        ]
      },
      "cook_time" : "10~30分钟",
      "release_time" : "",
      "rcs" : [

      ],
      "dishes" : [

      ],
      "ss" : [

      ],
      "photo_path" : "https:\/\/i1.douguo.com\/upload\/caiku\/1\/5\/2\/600_15ddeaa90cfbca8488f4103d07632ea2.jpg",
      "mid_mdsp" : [

      ],
      "vfurl" : "",
      "vc" : "157463",
      "ipurl" : "",
      "rrpt" : "",
      "packages_id" : [

      ],
      "user" : {
        "sign" : "",
        "subscription" : 0,
        "introduction" : "",
        "pc" : 0,
        "verified_url" : "https:\/\/m.douguo.com\/user\/prodesc",
        "setted_email" : 0,
        "qzone_nick" : "",
        "is_prime" : 0,
        "coursecount" : 0,
        "fc" : 0,
        "point" : 0,
        "followers_count" : 0,
        "nick" : "玛利亚厨房",
        "subscription_article_count" : 0,
        "birthday" : "",
        "dishes_count" : 0,
        "user_large_photo" : "http:\/\/tx1.douguo.net\/upload\/photo\/a\/0\/2\/yuan_u68385726288381183050.jpg",
        "favor_diaries_count" : 0,
        "gender" : 2,
        "user_cover" : "",
        "user_id" : "17989757",
        "user_photo" : "http:\/\/tx1.douguo.net\/upload\/photo\/a\/0\/2\/70_u68385726288381183050.jpg",
        "email" : "",
        "verified_image" : "",
        "lv" : 0,
        "lvl" : 5,
        "recipes_count" : 0,
        "regist_time" : "",
        "weibo_nick" : "",
        "favorites_count" : 0,
        "diaries_count" : 0,
        "avatar_medium" : "http:\/\/tx1.douguo.net\/upload\/photo\/a\/0\/2\/140_u68385726288381183050.jpg",
        "age" : "",
        "mobile" : "",
        "progress_image" : "",
        "userid" : "17989757",
        "following_count" : 0,
        "verified" : 0,
        "location" : 0,
        "qq_weibo_nick" : ""
      },
      "rewarded_video_dsp" : [

      ],
      "dish_count" : 0,
      "ipia" : [

      ],
      "recommend_label" : "1666人刚刚收藏过",
      "levelid" : 2,
      "minor" : [

      ],
      "ipoi" : "",
      "image" : "http:\/\/i1.douguo.net\/upload\/caiku\/1\/5\/2\/300_15ddeaa90cfbca8488f4103d07632ea2.jpg",
      "rdsps" : [

      ],
      "cookwares" : [

      ],
      "rpid" : 0,
      "favo_counts" : 1666,
      "cookstorys" : [
        {
          "type" : 0,
          "id" : 0,
          "u" : "",
          "icon" : "",
          "c" : "在家里给小朋友开一门私人小小厨师课，锻炼他的动手能力，又促进亲子关系",
          "color" : ""
        }
      ],
      "brand_day_dsp" : [

      ],
      "tips" : "",
      "thumb_path" : "https:\/\/i1.douguo.com\/upload\/caiku\/1\/5\/2\/300_15ddeaa90cfbca8488f4103d07632ea2.jpg",
      "rate" : 0,
      "create_time" : "2021-02-28 19:32:05",
      "first_level_comment_count" : 2,
      "rate_show" : 0,
      "title_ad" : [

      ],
      "title" : "带孩子做苹果派",
      "ipt" : "",
      "comments" : [
        "{\n    ac = \"#999999\";\n    at = \"\\U5317\\U4eac\\U5e02\";\n    ccc = 0;\n    \"child_comments\" =     (\n    );\n    city = \"\\U5317\\U4eac\\U5e02\";\n    cmc = 2;\n    content =     (\n                {\n            c = \"\\U2764\";\n        }\n    );\n    ia = 0;\n    id = 8849081;\n    \"ip_address_location\" = \"\";\n    like = 0;\n    \"like_count\" = 0;\n    \"reply_id\" = 0;\n    \"sticker_icon\" =     (\n    );\n    time = \"2021-11-03 17:31:50\";\n    u =     {\n        \"followers_count_text\" = \"\";\n        id = 26965660;\n        \"is_prime\" = 0;\n        lv = 0;\n        lvl = 3;\n        n = \"\\U7528\\U6237\\U5df2\\U6ce8\\U9500\";\n        p = \"\";\n        \"progress_image\" = \"\";\n        \"recipes_count_text\" = \"\";\n        relationship = \"-1\";\n        title = \"\";\n        v = 0;\n        \"verified_image\" = \"\";\n    };\n}",
        "{\n    ac = \"#999999\";\n    at = \"\";\n    ccc = 0;\n    \"child_comments\" =     (\n    );\n    city = \"\";\n    cmc = 2;\n    content =     (\n                {\n            c = \"\\U5468\\U672b\\U65f6\\U8bd5\\U8bd5\\Ud83d\\Udc4f\\Ud83d\\Udc4f\\Ud83d\\Udc4f\\Ud83d\\Udc4f\\Ud83d\\Udc4f\";\n        }\n    );\n    ia = 0;\n    id = 8557910;\n    \"ip_address_location\" = \"\";\n    like = 0;\n    \"like_count\" = 0;\n    \"reply_id\" = 0;\n    \"sticker_icon\" =     (\n    );\n    time = \"2021-03-03 15:29:32\";\n    u =     {\n        \"followers_count_text\" = \"\";\n        id = 21706191;\n        \"is_prime\" = 0;\n        lv = 0;\n        lvl = 6;\n        n = \"*\\U60a6\\U6765\\U60a6\\U597d*\";\n        p = \"http:\/\/tx1.douguo.net\/upload\/photo\/2\/9\/0\/70_u19826931678371073505.jpg\";\n        \"progress_image\" = \"\";\n        \"recipes_count_text\" = \"\";\n        relationship = \"-1\";\n        title = \"\";\n        v = 0;\n        \"verified_image\" = \"\";\n    };\n}"
      ],
      "collect_status" : 0,
      "recipe_tags" : [

      ],
      "author" : "玛利亚厨房",
      "favo_counts_text" : "1666",
      "vu" : ""
    }
  },
  "state" : "success"
}