{
  "result" : {
    "recipe" : {
      "cook_difficulty" : "切墩(初级)",
      "old_comments" : [

      ],
      "rrps" : [

      ],
      "ipit" : 0,
      "ipt" : "",
      "ph" : 1440,
      "recent_comments" : [

      ],
      "cookstep" : [
        {
          "position" : 1,
          "frame" : "-1",
          "thumb" : "https:\/\/i1.douguo.com\/upload\/caiku\/8\/0\/7\/140_80c8f7220f299f6e2953f81daa1efee7.jpg",
          "image" : "https:\/\/i1.douguo.com\/upload\/caiku\/8\/0\/7\/80c8f7220f299f6e2953f81daa1efee7.jpg",
          "image_height" : 2322,
          "image_width" : 4128,
          "content" : "备好食材。小白菜去根，泡水洗净，控干水份备用；打开豆豉鱼罐头（马口铁很锋利，注意别划破手）"
        },
        {
          "thumb" : "https:\/\/i1.douguo.com\/upload\/caiku\/e\/7\/5\/140_e71bbf6057dd07b11d0e3091e2312f85.jpg",
          "image" : "https:\/\/i1.douguo.com\/upload\/caiku\/e\/7\/5\/e71bbf6057dd07b11d0e3091e2312f85.jpg",
          "image_width" : 4128,
          "frame" : "-1",
          "image_height" : 2322,
          "position" : 2,
          "content" : "小白菜切段；豆豉鱼撕成小块；大蒜去皮拍扁切末"
        },
        {
          "content" : " 炒锅放植物油，油温4成热，下蒜末炒香",
          "image_height" : 2322,
          "image" : "https:\/\/i1.douguo.com\/upload\/caiku\/f\/a\/2\/fa936fa028a5e6e381d75547fa5c8b22.jpg",
          "image_width" : 4128,
          "thumb" : "https:\/\/i1.douguo.com\/upload\/caiku\/f\/a\/2\/140_fa936fa028a5e6e381d75547fa5c8b22.jpg",
          "position" : 3,
          "frame" : "-1"
        },
        {
          "position" : 4,
          "frame" : "-1",
          "image_height" : 2322,
          "image" : "https:\/\/i1.douguo.com\/upload\/caiku\/3\/1\/4\/31deedd86a3ddd39ee7bda17a9c184a4.jpg",
          "image_width" : 4128,
          "thumb" : "https:\/\/i1.douguo.com\/upload\/caiku\/3\/1\/4\/140_31deedd86a3ddd39ee7bda17a9c184a4.jpg",
          "content" : "放入小白菜翻炒"
        },
        {
          "image_width" : 4128,
          "content" : "待小白菜打蔫变色，放入豆豉鱼翻炒，至小白菜彻底熟透，即可关火装盘",
          "image_height" : 2322,
          "image" : "https:\/\/i1.douguo.com\/upload\/caiku\/c\/d\/0\/cdfac072312835fe56225c4514456a50.jpg",
          "frame" : "-1",
          "position" : 5,
          "thumb" : "https:\/\/i1.douguo.com\/upload\/caiku\/c\/d\/0\/140_cdfac072312835fe56225c4514456a50.jpg"
        },
        {
          "content" : "成品图",
          "image" : "https:\/\/i1.douguo.com\/upload\/caiku\/7\/7\/e\/77de0128bb2cfd59b0427dda8ba636ae.jpg",
          "frame" : "-1",
          "thumb" : "https:\/\/i1.douguo.com\/upload\/caiku\/7\/7\/e\/140_77de0128bb2cfd59b0427dda8ba636ae.jpg",
          "image_width" : 2160,
          "position" : 6,
          "image_height" : 1440
        }
      ],
      "recipe_list_tags" : [
        {
          "jump_url" : "",
          "background_end_color" : "#F4F5F5",
          "right_image" : "",
          "text_color" : "#141515",
          "background_border_color" : "",
          "text" : "关注的人",
          "background_start_color" : "#F4F5F5"
        },
        {
          "background_end_color" : "#F4F5F5",
          "right_image" : "",
          "text" : "内容详细",
          "jump_url" : "",
          "background_start_color" : "#F4F5F5",
          "text_color" : "#141515",
          "background_border_color" : ""
        }
      ],
      "purl" : "",
      "vfurl" : "",
      "author" : "zy宝妈小厨",
      "rrpt" : "",
      "ipurl" : "",
      "top_mdsp" : [

      ],
      "ssu" : "",
      "recommendation_tag" : "",
      "thumb_height" : 0,
      "cookwares" : [

      ],
      "collect_status" : 0,
      "v_u" : "",
      "cook_id" : "1712936",
      "hqu" : "recipes:\/\/www.douguo.com\/notedetail?id=21162253",
      "recommended" : 0,
      "dish_count" : 6,
      "story_dsp" : [

      ],
      "ecs" : 0,
      "vc" : "456418",
      "tips" : "宝妈小贴士：\n\n1 豆豉鲮鱼跟好多蔬菜都特别搭，食材里的小白菜也可以换成其他蔬菜，如蒿子秆、红薯叶等，前边宝妈也都发过做法\n\n2 鱼罐头本身就有咸味，无需再加盐了",
      "advice" : {
        "da" : {
          "iu" : "https:\/\/i1.douguo.com\/upload\/banner\/f\/4\/d\/f48877e53c37759bc12ac494be82ec8d.png",
          "t" : "查看详细分析",
          "url" : "https:\/\/m.douguo.com\/recipe\/nutrient_self\/1712936"
        },
        "has" : [
          {
            "url" : "recipes:\/\/www.douguo.com\/simplerecipelist?t=低糖&id=低糖",
            "t" : "低糖"
          },
          {
            "t" : "富含维生素C",
            "url" : "recipes:\/\/www.douguo.com\/simplerecipelist?t=富含维生素C&id=富含维生素C"
          }
        ],
        "at" : "能帮助你减脂、控血糖～"
      },
      "rpid" : 0,
      "ipoi" : "",
      "guide_image" : "",
      "minor" : [
        "{\n    note = \"4\\U74e3\";\n    title = \"\\U5927\\U849c\";\n    tu = \"https:\/\/https:\/\/m.douguo.com\/ingredients\/\\U5927\\U849c\/detailmaterial\";\n}",
        "{\n    note = \"\\U9002\\U91cf\";\n    title = \"\\U690d\\U7269\\U6cb9\";\n    tu = \"https:\/\/https:\/\/m.douguo.com\/ingredients\/\\U690d\\U7269\\U6cb9\/detailmaterial\";\n}"
      ],
      "image" : "http:\/\/i1.douguo.net\/upload\/caiku\/9\/5\/5\/300_9565b36b1a369b055de6f6831ae46545.jpg",
      "rate" : 5,
      "clicks" : "440957",
      "cookstory" : "冬天的蔬菜不像夏天品种多，个别的菜还特贵，在北方，这季节最应季是萝卜白菜和土豆。其实萝卜白菜换着花样做也照样受欢迎，食材上来一些巧搭配，简单快手也美味。\n\n宝妈最常说的一句话就是：好多蔬菜你不爱，并不是真的不爱，而是做法不适合你。比如说，好多人爱吃老干妈，于是就有人用老干妈炒菜，美味就诞生了，宝妈今儿分享的这道小白菜做法也如此，但不是老干妈哦，我用的是豆豉鲮鱼罐头，这东西可是好多70后的回忆，那时候最美味的就是鱼罐头，现在即使条件好了，这个美味还是深受大家的喜爱。我家常用鱼罐头来配菜，这东西味道香倍儿下饭，炒青菜放里一盒连盐都省了，也不用多余的调味，每次做都吃光。",
      "rips" : 0,
      "share_info" : {
        "image" : "https:\/\/cp1.douguo.com\/upload\/caiku\/9\/5\/5\/9565b36b1a369b055de6f6831ae46545.jpg",
        "infos" : [
          {
            "image" : "https:\/\/cp1.douguo.com\/upload\/caiku\/9\/5\/5\/9565b36b1a369b055de6f6831ae46545.jpg",
            "channel" : "1",
            "object_id" : "1712936",
            "mini_program" : [

            ],
            "s_u" : "",
            "qr_image" : "",
            "name" : "豆豉鱼小白菜-会做饭很酷!",
            "s_d" : "#学做饭用豆果美食# 会做饭真是太酷了！我在@豆果美食 分享了【豆豉鱼小白菜-会做饭很酷!】，看着是不是馋到不行呢～快来跟我学学吧！查看图片了解菜谱，（想要获取更多美食就看这https:\/\/m.weibo.cn\/p\/100404i33631）"
          },
          {
            "s_d" : "豆豉鱼小白菜-会做饭很酷!",
            "object_id" : "1712936",
            "image" : "https:\/\/cp1.douguo.com\/upload\/caiku\/9\/5\/5\/9565b36b1a369b055de6f6831ae46545.jpg",
            "mini_program" : [

            ],
            "s_u" : "http:\/\/m.douguo.com\/cookbook\/1712936.html",
            "channel" : "7",
            "qr_image" : "",
            "name" : "豆豉鱼小白菜-会做饭很酷!"
          },
          {
            "name" : "豆豉鱼小白菜-会做饭很酷!",
            "qr_image" : "",
            "s_d" : "豆豉鱼小白菜-会做饭很酷!",
            "object_id" : "1712936",
            "channel" : "8",
            "mini_program" : [

            ],
            "image" : "https:\/\/cp1.douguo.com\/upload\/caiku\/9\/5\/5\/9565b36b1a369b055de6f6831ae46545.jpg",
            "s_u" : "http:\/\/m.douguo.com\/cookbook\/1712936.html"
          }
        ],
        "object_id" : "1712936",
        "mini_program" : [

        ],
        "s_d" : "豆豉鱼小白菜-会做饭很酷!",
        "name" : "豆豉鱼小白菜-会做饭很酷!",
        "s_u" : "http:\/\/m.douguo.com\/cookbook\/1712936.html",
        "qr_image" : ""
      },
      "ipia" : [

      ],
      "related_ads" : [

      ],
      "major" : [
        {
          "title" : "小白菜",
          "tu" : "https:\/\/m.douguo.com\/ingredients\/小白菜\/detailmaterial",
          "note" : "260g"
        },
        {
          "note" : "120g",
          "title" : "豆豉鱼"
        }
      ],
      "packages_id" : [

      ],
      "sc" : 0,
      "recipe_tags" : [

      ],
      "dish_count_text" : "6",
      "cookstorys" : [
        {
          "type" : 0,
          "color" : "",
          "c" : "冬天的蔬菜不像夏天品种多，个别的菜还特贵，在北方，这季节最应季是萝卜白菜和土豆。其实萝卜白菜换着花样做也照样受欢迎，食材上来一些巧搭配，简单快手也美味。\n\n宝妈最常说的一句话就是：好多蔬菜你不爱，并不是真的不爱，而是做法不适合你。比如说，好多人爱吃老干妈，于是就有人用老干妈炒菜，美味就诞生了，宝妈今儿分享的这道小白菜做法也如此，但不是老干妈哦，我用的是豆豉鲮鱼罐头，这东西可是好多70后的回忆，那时候最美味的就是鱼罐头，现在即使条件好了，这个美味还是深受大家的喜爱。我家常用鱼罐头来配菜，这东西味道香倍儿下饭，炒青菜放里一盒连盐都省了，也不用多余的调味，每次做都吃光。",
          "icon" : "",
          "u" : "",
          "id" : 0
        }
      ],
      "thumb_path" : "https:\/\/i1.douguo.com\/upload\/caiku\/9\/5\/5\/300_9565b36b1a369b055de6f6831ae46545.jpg",
      "rpst" : "",
      "eu" : "recipes:\/\/www.douguo.com\/postdetail?id=242016",
      "pw" : 2160,
      "views_count_text" : "45.6万",
      "recommend_label" : "6人学做",
      "ipci" : "",
      "bs" : [

      ],
      "title_ad" : [

      ],
      "author_id" : 15593762,
      "rewarded_video_dsp" : [

      ],
      "levelid" : 2,
      "comments_count_text" : "6",
      "cook_time_image" : "https:\/\/i1.douguo.com\/upload\/banner\/1551424358.png",
      "tags" : [

      ],
      "notes" : [

      ],
      "photo_path" : "https:\/\/i1.douguo.com\/upload\/caiku\/9\/5\/5\/600_9565b36b1a369b055de6f6831ae46545.jpg",
      "comments" : [
        "{\n    ac = \"#999999\";\n    at = \"\\U5e7f\\U5dde\\U5e02\";\n    ccc = 1;\n    \"child_comments\" =     (\n                {\n            ac = \"#999999\";\n            at = \"\";\n            ccc = 0;\n            city = \"\";\n            cmc = 2;\n            content =             (\n                                {\n                    c = \" \\U975e\\U5e38\\U597d\\U5403\\Uff0c\\U53ef\\U4ee5\\U8bd5\\U8bd5\";\n                }\n            );\n            ia = 1;\n            id = 6183184;\n            \"ip_address_location\" = \"\";\n            like = 0;\n            \"like_count\" = 0;\n            \"reply_id\" = 6182936;\n            \"reply_user\" =             {\n                \"followers_count_text\" = \"\";\n                id = 22841504;\n                \"is_prime\" = 0;\n                lv = 0;\n                lvl = 1;\n                n = \"\\U8c46\\U7c896812005489\";\n                p = \"\";\n                \"progress_image\" = \"\";\n                \"recipes_count_text\" = \"\";\n                relationship = \"-1\";\n                title = \"\";\n                v = 0;\n                \"verified_image\" = \"\";\n            };\n            \"sticker_icon\" =             (\n            );\n            time = \"2018-11-05 19:57:25\";\n            u =             {\n                \"followers_count_text\" = \"\";\n                id = 15593762;\n                \"is_prime\" = 0;\n                lv = 0;\n                lvl = 6;\n                n = \"zy\\U5b9d\\U5988\\U5c0f\\U53a8\";\n                p = \"http:\/\/tx1.douguo.net\/upload\/photo\/b\/b\/e\/70_u48254017813031170743.jpg\";\n                \"progress_image\" = \"\";\n                \"recipes_count_text\" = \"\";\n                relationship = \"-1\";\n                title = \"\";\n                v = 1;\n                \"verified_image\" = \"\";\n            };\n        }\n    );\n    city = \"\\U5e7f\\U5dde\\U5e02\";\n    cmc = 2;\n    content =     (\n                {\n            c = \"\\U8fd9\\U4e2a\\U5f88\\U5b8c\\U7f8e\\Uff0c\\U521a\\U597d\\U4e0b\\U73ed\\U5c31\\U6765\\U770b\\U83dc\\U8c31\\U554a\\Uff0c\\U5b8c\\U7f8e\\U3002\\U521a\\U597d\\U5bb6\\U91cc\\U6709\\U4e00\\U76d2\\U7f50\\U5934\\U9c7c\\Uff0c\";\n        }\n    );\n    ia = 0;\n    id = 6182936;\n    \"ip_address_location\" = \"\";\n    like = 0;\n    \"like_count\" = 1;\n    \"reply_id\" = 0;\n    \"sticker_icon\" =     (\n    );\n    time = \"2018-11-05 17:30:12\";\n    u =     {\n        \"followers_count_text\" = \"\";\n        id = 22841504;\n        \"is_prime\" = 0;\n        lv = 0;\n        lvl = 1;\n        n = \"\\U8c46\\U7c896812005489\";\n        p = \"\";\n        \"progress_image\" = \"\";\n        \"recipes_count_text\" = \"\";\n        relationship = \"-1\";\n        title = \"\";\n        v = 0;\n        \"verified_image\" = \"\";\n    };\n}",
        "{\n    ac = \"#999999\";\n    at = \"\";\n    ccc = 1;\n    \"child_comments\" =     (\n                {\n            ac = \"#999999\";\n            at = \"\";\n            ccc = 0;\n            city = \"\";\n            cmc = 2;\n            content =             (\n                                {\n                    c = \" \\U8bd5\\U8bd5\\Uff0c\\U633a\\U597d\\U5403\";\n                }\n            );\n            ia = 1;\n            id = 6171019;\n            \"ip_address_location\" = \"\";\n            like = 0;\n            \"like_count\" = 0;\n            \"reply_id\" = 6170298;\n            \"reply_user\" =             {\n                \"followers_count_text\" = \"\";\n                id = 18564760;\n                \"is_prime\" = 0;\n                lv = 0;\n                lvl = 6;\n                n = \"\\U6267\\U7740\\U7684\\U5c0f\\U76c6\\U53cb\";\n                p = \"http:\/\/tx1.douguo.net\/upload\/photo\/0\/a\/e\/70_u0032308937327112532.jpg\";\n                \"progress_image\" = \"\";\n                \"recipes_count_text\" = \"\";\n                relationship = \"-1\";\n                title = \"\";\n                v = 0;\n                \"verified_image\" = \"\";\n            };\n            \"sticker_icon\" =             (\n            );\n            time = \"2018-10-30 22:53:06\";\n            u =             {\n                \"followers_count_text\" = \"\";\n                id = 15593762;\n                \"is_prime\" = 0;\n                lv = 0;\n                lvl = 6;\n                n = \"zy\\U5b9d\\U5988\\U5c0f\\U53a8\";\n                p = \"http:\/\/tx1.douguo.net\/upload\/photo\/b\/b\/e\/70_u48254017813031170743.jpg\";\n                \"progress_image\" = \"\";\n                \"recipes_count_text\" = \"\";\n                relationship = \"-1\";\n                title = \"\";\n                v = 1;\n                \"verified_image\" = \"\";\n            };\n        }\n    );\n    city = \"\";\n    cmc = 2;\n    content =     (\n                {\n            c = \"\\U505a\\U7684\\U771f\\U4e0d\\U9519 \\U4e00\\U770b\\U5c31\\U597d\\U5403\\U5440\";\n        }\n    );\n    ia = 0;\n    id = 6170298;\n    \"ip_address_location\" = \"\";\n    like = 0;\n    \"like_count\" = 0;\n    \"reply_id\" = 0;\n    \"sticker_icon\" =     (\n    );\n    time = \"2018-10-30 16:16:52\";\n    u =     {\n        \"followers_count_text\" = \"\";\n        id = 18564760;\n        \"is_prime\" = 0;\n        lv = 0;\n        lvl = 6;\n        n = \"\\U6267\\U7740\\U7684\\U5c0f\\U76c6\\U53cb\";\n        p = \"http:\/\/tx1.douguo.net\/upload\/photo\/0\/a\/e\/70_u0032308937327112532.jpg\";\n        \"progress_image\" = \"\";\n        \"recipes_count_text\" = \"\";\n        relationship = \"-1\";\n        title = \"\";\n        v = 0;\n        \"verified_image\" = \"\";\n    };\n}",
        "{\n    ac = \"#999999\";\n    at = \"\\U5317\\U4eac\\U5e02\";\n    ccc = 0;\n    \"child_comments\" =     (\n    );\n    city = \"\\U5317\\U4eac\\U5e02\";\n    cmc = 2;\n    content =     (\n                {\n            c = \"\\U8c46\\U8c49\\U9cae\\U9c7c\\U7f50\\U5934\\U7092\\U6cb9\\U9ea6\\U83dc\\U548c\\U751f\\U83dc\\U90fd\\U7279\\U522b\\U8d5e\\Uff0c\\U7092\\U5c0f\\U767d\\U83dc\\U6539\\U6ca1\\U8bd5\\U8fc7\\Uff0c\\U6b63\\U597d\\U53ef\\U4ee5\\U8bd5\\U8bd5\\Uff01\";\n        }\n    );\n    ia = 0;\n    id = 8227288;\n    \"ip_address_location\" = \"\";\n    like = 0;\n    \"like_count\" = 0;\n    \"reply_id\" = 0;\n    \"sticker_icon\" =     (\n    );\n    time = \"2020-09-06 15:30:04\";\n    u =     {\n        \"followers_count_text\" = \"\";\n        id = 16774713;\n        \"is_prime\" = 0;\n        lv = 0;\n        lvl = 1;\n        n = \"\\U7126\\U5708\\U513fkdvp\";\n        p = \"http:\/\/tx1.douguo.net\/upload\/photo\/5\/e\/a\/70_u57252315719821121229.jpg\";\n        \"progress_image\" = \"\";\n        \"recipes_count_text\" = \"\";\n        relationship = \"-1\";\n        title = \"\";\n        v = 0;\n        \"verified_image\" = \"\";\n    };\n}"
      ],
      "ss" : [

      ],
      "rate_show" : 0,
      "favo_counts_text" : "4563",
      "rpt" : "",
      "mid_mdsp" : [

      ],
      "rcs" : [

      ],
      "sr" : "",
      "favo_counts" : 4563,
      "brand_day_dsp" : [

      ],
      "first_level_comment_count" : 4,
      "display_ingredient" : 1,
      "author_verified" : 1,
      "rate_count" : 5,
      "su" : "",
      "vu" : "",
      "cook_difficulty_image" : "https:\/\/i1.douguo.com\/upload\/banner\/1551424390.png",
      "btm_dsp" : [

      ],
      "rsm" : "该功能暂停使用",
      "rdsps" : [

      ],
      "act_des" : "",
      "user" : {
        "qzone_nick" : "",
        "diaries_count" : 0,
        "following_count" : 0,
        "verified_url" : "https:\/\/m.douguo.com\/user\/prodesc",
        "birthday" : "",
        "email" : "",
        "subscription_article_count" : 0,
        "mobile" : "",
        "regist_time" : "",
        "lvl" : 6,
        "followers_count" : 0,
        "lv" : 0,
        "sign" : "",
        "recipes_count" : 0,
        "user_large_photo" : "http:\/\/tx1.douguo.net\/upload\/photo\/b\/b\/e\/yuan_u48254017813031170743.jpg",
        "user_id" : "15593762",
        "gender" : 2,
        "verified_image" : "https:\/\/i1.douguo.com\/upload\/note\/d\/a\/a\/da84247847aebe48d9dd0fcdac88862a.png",
        "favor_diaries_count" : 0,
        "age" : "",
        "verified" : 1,
        "coursecount" : 0,
        "setted_email" : 0,
        "user_photo" : "http:\/\/tx1.douguo.net\/upload\/photo\/b\/b\/e\/70_u48254017813031170743.jpg",
        "qq_weibo_nick" : "",
        "introduction" : "",
        "userid" : "15593762",
        "dishes_count" : 0,
        "avatar_medium" : "http:\/\/tx1.douguo.net\/upload\/photo\/b\/b\/e\/140_u48254017813031170743.jpg",
        "fc" : 0,
        "favorites_count" : 0,
        "subscription" : 0,
        "user_cover" : "",
        "point" : 0,
        "progress_image" : "",
        "nick" : "zy宝妈小厨",
        "location" : 0,
        "is_prime" : 0,
        "weibo_nick" : "",
        "pc" : 0
      },
      "comments_count" : 6,
      "create_time" : "2018-10-30 10:26:45",
      "release_time" : "",
      "title" : "豆豉鱼小白菜",
      "dishes" : [

      ],
      "cook_time" : "10分左右",
      "author_photo" : "http:\/\/tx1.douguo.net\/upload\/photo\/b\/b\/e\/70_u48254017813031170743.jpg",
      "original_photo_path" : "http:\/\/i1.douguo.net\/upload\/caiku\/9\/5\/5\/yuan_9565b36b1a369b055de6f6831ae46545.jpg",
      "hq" : 1
    }
  },
  "state" : "success",
  "status" : 0
}