{
  "result" : {
    "recipe" : {
      "user" : {
        "qzone_nick" : "",
        "lv" : 0,
        "regist_time" : "",
        "mobile" : "",
        "verified_image" : "",
        "followers_count" : 0,
        "gender" : 2,
        "recipes_count" : 0,
        "fc" : 0,
        "birthday" : "",
        "user_id" : "4865842",
        "verified" : 0,
        "dishes_count" : 0,
        "avatar_medium" : "http:\/\/tx1.douguo.net\/upload\/photo\/6\/d\/4\/140_u05660506430936121535.jpg",
        "sign" : "",
        "subscription_article_count" : 0,
        "setted_email" : 0,
        "verified_url" : "https:\/\/m.douguo.com\/user\/prodesc",
        "weibo_nick" : "",
        "coursecount" : 0,
        "point" : 0,
        "favor_diaries_count" : 0,
        "user_large_photo" : "http:\/\/tx1.douguo.net\/upload\/photo\/6\/d\/4\/yuan_u05660506430936121535.jpg",
        "user_photo" : "http:\/\/tx1.douguo.net\/upload\/photo\/6\/d\/4\/70_u05660506430936121535.jpg",
        "location" : 0,
        "email" : "",
        "age" : "",
        "introduction" : "",
        "is_prime" : 0,
        "qq_weibo_nick" : "",
        "progress_image" : "",
        "nick" : "筱晓蓝",
        "favorites_count" : 0,
        "diaries_count" : 0,
        "lvl" : 2,
        "pc" : 0,
        "user_cover" : "",
        "userid" : "4865842",
        "subscription" : 0,
        "following_count" : 0
      },
      "rate_count" : 0,
      "comments" : [

      ],
      "recent_comments" : [

      ],
      "cook_difficulty_image" : "https:\/\/i1.douguo.com\/upload\/banner\/1551424413.png",
      "rpt" : "",
      "hqu" : "recipes:\/\/www.douguo.com\/notedetail?id=21162253",
      "rrps" : [

      ],
      "rcs" : [

      ],
      "major" : [
        {
          "note" : "250g",
          "title" : "马斯卡彭芝士"
        },
        {
          "note" : "150g",
          "title" : "动物性淡奶油"
        },
        {
          "note" : "2个",
          "tu" : "https:\/\/m.douguo.com\/ingredients\/蛋黄\/detailmaterial",
          "title" : "蛋黄"
        },
        {
          "tu" : "https:\/\/m.douguo.com\/ingredients\/细砂糖\/detailmaterial",
          "title" : "细砂糖",
          "note" : "75g"
        },
        {
          "tu" : "https:\/\/m.douguo.com\/ingredients\/水\/detailmaterial",
          "note" : "75ml",
          "title" : "水"
        },
        {
          "title" : "吉利丁片",
          "note" : "10g"
        },
        {
          "note" : "适量",
          "title" : "朗姆咖啡酒"
        },
        {
          "note" : "适量",
          "tu" : "https:\/\/m.douguo.com\/ingredients\/可可粉\/detailmaterial",
          "title" : "可可粉"
        },
        {
          "title" : "手指饼干",
          "note" : "1包"
        }
      ],
      "dish_count_text" : "2",
      "rate" : 0,
      "vc" : "10574",
      "recipe_list_tags" : [
        {
          "background_end_color" : "#F4F5F5",
          "background_start_color" : "#F4F5F5",
          "right_image" : "",
          "jump_url" : "",
          "background_border_color" : "",
          "text" : "关注的人",
          "text_color" : "#141515"
        },
        {
          "text" : "内容详细",
          "background_end_color" : "#F4F5F5",
          "background_border_color" : "",
          "text_color" : "#141515",
          "background_start_color" : "#F4F5F5",
          "right_image" : "",
          "jump_url" : ""
        }
      ],
      "recipe_tags" : [

      ],
      "original_photo_path" : "http:\/\/i1.douguo.net\/upload\/caiku\/1\/7\/9\/yuan_17b9dbedb193b66c7466c0fdf6edaa89.jpg",
      "ecs" : 0,
      "su" : "",
      "cook_id" : "1132107",
      "related_ads" : [

      ],
      "cook_time" : "1小时以上",
      "title_ad" : [

      ],
      "recommended" : 0,
      "pw" : 750,
      "dishes" : [

      ],
      "notes" : [

      ],
      "favo_counts" : 120,
      "rdsps" : [

      ],
      "share_info" : {
        "s_d" : "情人节的提拉米苏-会做饭很酷!",
        "name" : "情人节的提拉米苏-会做饭很酷!",
        "infos" : [
          {
            "channel" : "1",
            "name" : "情人节的提拉米苏-会做饭很酷!",
            "image" : "https:\/\/cp1.douguo.com\/upload\/caiku\/1\/7\/9\/17b9dbedb193b66c7466c0fdf6edaa89.jpg",
            "s_u" : "",
            "mini_program" : [

            ],
            "qr_image" : "",
            "object_id" : "1132107",
            "s_d" : "#学做饭用豆果美食# 会做饭真是太酷了！我在@豆果美食 分享了【情人节的提拉米苏-会做饭很酷!】，这道菜真的神仙美味！喜欢的一定要试试绝对不会错的！～查看图片了解菜谱（快来点击https:\/\/m.weibo.cn\/p\/100404i33631和我一起修炼厨艺吧）"
          },
          {
            "s_d" : "情人节的提拉米苏-会做饭很酷!",
            "qr_image" : "",
            "image" : "https:\/\/cp1.douguo.com\/upload\/caiku\/1\/7\/9\/17b9dbedb193b66c7466c0fdf6edaa89.jpg",
            "object_id" : "1132107",
            "channel" : "7",
            "s_u" : "http:\/\/m.douguo.com\/cookbook\/1132107.html",
            "mini_program" : [

            ],
            "name" : "情人节的提拉米苏-会做饭很酷!"
          },
          {
            "qr_image" : "",
            "image" : "https:\/\/cp1.douguo.com\/upload\/caiku\/1\/7\/9\/17b9dbedb193b66c7466c0fdf6edaa89.jpg",
            "object_id" : "1132107",
            "mini_program" : [

            ],
            "channel" : "8",
            "s_d" : "情人节的提拉米苏-会做饭很酷!",
            "s_u" : "http:\/\/m.douguo.com\/cookbook\/1132107.html",
            "name" : "情人节的提拉米苏-会做饭很酷!"
          }
        ],
        "object_id" : "1132107",
        "mini_program" : [

        ],
        "s_u" : "http:\/\/m.douguo.com\/cookbook\/1132107.html",
        "image" : "https:\/\/cp1.douguo.com\/upload\/caiku\/1\/7\/9\/17b9dbedb193b66c7466c0fdf6edaa89.jpg",
        "qr_image" : ""
      },
      "rewarded_video_dsp" : [

      ],
      "rate_show" : 0,
      "display_ingredient" : 1,
      "guide_image" : "",
      "minor" : [

      ],
      "title" : "情人节的提拉米苏",
      "create_time" : "2015-03-10 22:25:58",
      "advice" : {
        "has" : [
          {
            "url" : "recipes:\/\/www.douguo.com\/simplerecipelist?t=富含蛋白质&id=富含蛋白质",
            "t" : "富含蛋白质"
          },
          {
            "url" : "recipes:\/\/www.douguo.com\/simplerecipelist?t=富含维生素B2&id=富含维生素B2",
            "t" : "富含维生素B2"
          }
        ],
        "at" : "是组织形成和生长的主要营养素～",
        "da" : {
          "url" : "https:\/\/m.douguo.com\/recipe\/nutrient_self\/1132107",
          "iu" : "https:\/\/i1.douguo.com\/upload\/banner\/f\/4\/d\/f48877e53c37759bc12ac494be82ec8d.png",
          "t" : "查看详细分析"
        }
      },
      "author" : "筱晓蓝",
      "cook_difficulty" : "配菜(中级)",
      "ipurl" : "",
      "author_photo" : "http:\/\/tx1.douguo.net\/upload\/photo\/6\/d\/4\/70_u05660506430936121535.jpg",
      "cookstorys" : [
        {
          "type" : 0,
          "u" : "",
          "c" : "情人节的前夕，在回家的车上，与老公聊着几年前，夏夜时分，两人骑着电动车，吹着习习凉风，后座的我说着：“几年后开着车，也不会比现在骑车的感觉幸福”。。。恍然之间，认识已经10年了，两人开着车回家，一路闲话着，听着老公说：“啊？我们已经认识10年啦？感觉只认识两、三年，看来你这头猪保鲜期还挺长的！！再来10年看看！”*^o^*呵呵！好吧，情人节前夕，就来个与爱情有关的蛋糕吧！！！",
          "color" : "",
          "id" : 0,
          "icon" : ""
        }
      ],
      "hq" : 1,
      "clicks" : "7422",
      "thumb_height" : 0,
      "v_u" : "",
      "ph" : 1125,
      "ss" : [

      ],
      "purl" : "",
      "story_dsp" : [

      ],
      "comments_count" : 0,
      "tips" : "芝士一定要用马斯卡彭的哈，提拉米苏必不可少的哦！",
      "act_des" : "",
      "brand_day_dsp" : [

      ],
      "vfurl" : "",
      "views_count_text" : "1.1万",
      "cook_time_image" : "https:\/\/i1.douguo.com\/upload\/banner\/1551423815.png",
      "ipit" : 0,
      "ipoi" : "",
      "thumb_path" : "https:\/\/i1.douguo.com\/upload\/caiku\/1\/7\/9\/300_17b9dbedb193b66c7466c0fdf6edaa89.jpg",
      "sc" : 0,
      "recommendation_tag" : "",
      "old_comments" : [

      ],
      "rsm" : "该功能暂停使用",
      "eu" : "recipes:\/\/www.douguo.com\/postdetail?id=242016",
      "author_verified" : 0,
      "collect_status" : 0,
      "favo_counts_text" : "120",
      "ssu" : "",
      "top_mdsp" : [

      ],
      "author_id" : 4865842,
      "photo_path" : "https:\/\/i1.douguo.com\/upload\/caiku\/1\/7\/9\/600_17b9dbedb193b66c7466c0fdf6edaa89.jpg",
      "levelid" : 2,
      "comments_count_text" : "",
      "packages_id" : [

      ],
      "cookstory" : "情人节的前夕，在回家的车上，与老公聊着几年前，夏夜时分，两人骑着电动车，吹着习习凉风，后座的我说着：“几年后开着车，也不会比现在骑车的感觉幸福”。。。恍然之间，认识已经10年了，两人开着车回家，一路闲话着，听着老公说：“啊？我们已经认识10年啦？感觉只认识两、三年，看来你这头猪保鲜期还挺长的！！再来10年看看！”*^o^*呵呵！好吧，情人节前夕，就来个与爱情有关的蛋糕吧！！！",
      "vu" : "",
      "image" : "http:\/\/i1.douguo.net\/upload\/caiku\/1\/7\/9\/300_17b9dbedb193b66c7466c0fdf6edaa89.jpg",
      "ipci" : "",
      "sr" : "",
      "btm_dsp" : [

      ],
      "bs" : [

      ],
      "dish_count" : 2,
      "rips" : 0,
      "rrpt" : "",
      "recommend_label" : "2人学做",
      "first_level_comment_count" : 0,
      "cookstep" : [
        {
          "position" : 1,
          "content" : "材料大集合，咖啡酒刚好买到可以分装的，先量100ml，但用不了这么多，淡奶油我用的是铁塔的。以上材料6寸的量，8寸请*2哦！",
          "frame" : "-1",
          "image_height" : 1000,
          "image" : "https:\/\/i1.douguo.com\/upload\/caiku\/a\/7\/f\/a726de3e23741a6bfd9e7754ad5ce6ff.jpg",
          "thumb" : "https:\/\/i1.douguo.com\/upload\/caiku\/a\/7\/f\/140_a726de3e23741a6bfd9e7754ad5ce6ff.jpg",
          "image_width" : 750
        },
        {
          "position" : 2,
          "image" : "https:\/\/i1.douguo.com\/upload\/caiku\/f\/8\/a\/f8ad4c127ad0c24b04d98946a6892daa.jpg",
          "thumb" : "https:\/\/i1.douguo.com\/upload\/caiku\/f\/8\/a\/140_f8ad4c127ad0c24b04d98946a6892daa.jpg",
          "frame" : "-1",
          "image_width" : 750,
          "content" : "吉利丁片剪断，用凉水泡软。一般两片就是10g。",
          "image_height" : 1000
        },
        {
          "image" : "https:\/\/i1.douguo.com\/upload\/caiku\/1\/5\/a\/156d237999fb488a8392a7d204abbd4a.jpg",
          "image_height" : 1000,
          "content" : "两个蛋黄用打蛋器打发，到浓稠状态！",
          "image_width" : 750,
          "frame" : "-1",
          "position" : 3,
          "thumb" : "https:\/\/i1.douguo.com\/upload\/caiku\/1\/5\/a\/140_156d237999fb488a8392a7d204abbd4a.jpg"
        },
        {
          "image" : "https:\/\/i1.douguo.com\/upload\/caiku\/e\/9\/0\/e9e2411175aa56212d3d242461bae1f0.jpg",
          "frame" : "-1",
          "image_width" : 750,
          "position" : 4,
          "image_height" : 1000,
          "thumb" : "https:\/\/i1.douguo.com\/upload\/caiku\/e\/9\/0\/140_e9e2411175aa56212d3d242461bae1f0.jpg",
          "content" : "75g糖和75ml水，一起入锅，煮沸！"
        },
        {
          "image" : "https:\/\/i1.douguo.com\/upload\/caiku\/a\/4\/e\/a4e5fedbc7fe2a1214e54707939185ee.jpg",
          "position" : 5,
          "frame" : "-1",
          "image_height" : 1000,
          "image_width" : 750,
          "content" : "煮沸的糖水离火后，趁热慢慢注入打发的蛋黄糊里，边注边用打蛋器低速搅拌，一定要慢慢注入并搅拌，以防把蛋黄烫成蛋花，然后一直搅拌，直到凉透了",
          "thumb" : "https:\/\/i1.douguo.com\/upload\/caiku\/a\/4\/e\/140_a4e5fedbc7fe2a1214e54707939185ee.jpg"
        },
        {
          "content" : "马斯卡彭打至顺滑状态，不要打过了，呈豆腐渣样哦！",
          "image" : "https:\/\/i1.douguo.com\/upload\/caiku\/6\/2\/8\/62ddc3ad7753879acb4ea524ce77de88.jpg",
          "image_width" : 750,
          "position" : 6,
          "image_height" : 1000,
          "frame" : "-1",
          "thumb" : "https:\/\/i1.douguo.com\/upload\/caiku\/6\/2\/8\/140_62ddc3ad7753879acb4ea524ce77de88.jpg"
        },
        {
          "image_width" : 750,
          "position" : 7,
          "image" : "https:\/\/i1.douguo.com\/upload\/caiku\/4\/2\/6\/42b41e08e27749116187266d5bda6536.jpg",
          "image_height" : 562,
          "thumb" : "https:\/\/i1.douguo.com\/upload\/caiku\/4\/2\/6\/140_42b41e08e27749116187266d5bda6536.jpg",
          "frame" : "-1",
          "content" : "打好的马斯卡彭芝士混入蛋黄糊中，可用打蛋器低速搅拌均匀。"
        },
        {
          "image_width" : 750,
          "thumb" : "https:\/\/i1.douguo.com\/upload\/caiku\/0\/a\/9\/140_0aada02d7aeddd48becba107831453e9.jpg",
          "content" : "泡好的吉利丁片沥干水，入微波炉叮50秒左右溶化成吉利丁液后，拌入蛋黄糊中",
          "frame" : "-1",
          "image_height" : 562,
          "image" : "https:\/\/i1.douguo.com\/upload\/caiku\/0\/a\/9\/0aada02d7aeddd48becba107831453e9.jpg",
          "position" : 8
        },
        {
          "content" : "打发淡奶油至5.6分发就可以了，纹路不易消失的状态，偶的打过了哈！",
          "frame" : "-1",
          "image_width" : 750,
          "image_height" : 1000,
          "thumb" : "https:\/\/i1.douguo.com\/upload\/caiku\/b\/1\/0\/140_b1b036b7f6ba232a0485549d76373380.jpg",
          "position" : 9,
          "image" : "https:\/\/i1.douguo.com\/upload\/caiku\/b\/1\/0\/b1b036b7f6ba232a0485549d76373380.jpg"
        },
        {
          "content" : "拌入芝士蛋黄糊中，提拉米苏馅就做好了！",
          "thumb" : "https:\/\/i1.douguo.com\/upload\/caiku\/f\/c\/7\/140_fc951381b82b06fe45ac0ee8d3c8d2a7.jpg",
          "position" : 10,
          "image" : "https:\/\/i1.douguo.com\/upload\/caiku\/f\/c\/7\/fc951381b82b06fe45ac0ee8d3c8d2a7.jpg",
          "image_width" : 750,
          "image_height" : 1000,
          "frame" : "-1"
        },
        {
          "content" : "手指饼干快速地在咖啡酒里滚一圈，平铺在模底，倒一层芝士糊，再平铺一层沾了咖啡酒的手指饼干，再倒入一层芝士糊，（我就做两层）震出大气泡后，抹平表面，包上保鲜膜，放冰箱冷藏4-6小时，最好隔夜，效果会更好！",
          "frame" : "-1",
          "position" : 11,
          "image_height" : 1039,
          "image" : "https:\/\/i1.douguo.com\/upload\/caiku\/4\/c\/0\/4c965ed61ba3e2333b55506fcd4f1bf0.jpg",
          "image_width" : 750,
          "thumb" : "https:\/\/i1.douguo.com\/upload\/caiku\/4\/c\/0\/140_4c965ed61ba3e2333b55506fcd4f1bf0.jpg"
        },
        {
          "image" : "https:\/\/i1.douguo.com\/upload\/caiku\/4\/4\/b\/44237bf51c5d757a057136534d1c012b.jpg",
          "content" : "取出后，筛上可可粉就可以了，最好是冷藏后再上粉，否则可可粉会湿了影响美观！",
          "thumb" : "https:\/\/i1.douguo.com\/upload\/caiku\/4\/4\/b\/140_44237bf51c5d757a057136534d1c012b.jpg",
          "frame" : "-1",
          "position" : 12,
          "image_height" : 1000,
          "image_width" : 750
        }
      ],
      "rpid" : 0,
      "rpst" : "",
      "ipia" : [

      ],
      "cookwares" : [

      ],
      "ipt" : "",
      "tags" : [

      ],
      "release_time" : "",
      "mid_mdsp" : [

      ]
    }
  },
  "status" : 0,
  "state" : "success"
}