{
  "state" : "success",
  "status" : 0,
  "result" : {
    "recipe" : {
      "rsm" : "该功能暂停使用",
      "dish_count_text" : "4",
      "thumb_height" : 0,
      "vc" : "231470",
      "ph" : 450,
      "cook_id" : "1724088",
      "ssu" : "",
      "rrpt" : "",
      "recommended" : 0,
      "ipt" : "",
      "story_dsp" : [

      ],
      "release_time" : "",
      "levelid" : 2,
      "display_ingredient" : 1,
      "rpid" : 0,
      "cookstep" : [
        {
          "frame" : "-1",
          "image_width" : 1920,
          "image" : "https:\/\/i1.douguo.com\/upload\/caiku\/e\/6\/a\/e6f3c63a41c73fc313964b92b93e9a9a.jpg",
          "thumb" : "https:\/\/i1.douguo.com\/upload\/caiku\/e\/6\/a\/140_e6f3c63a41c73fc313964b92b93e9a9a.jpg",
          "image_height" : 1080,
          "content" : "根据个人喜好选羊肉，收拾干净切小粒，顺手切上把洋葱，根据肉量和个人口味加盐生抽孜然粉花椒粉黑胡椒",
          "position" : 1
        },
        {
          "image_height" : 1079,
          "position" : 2,
          "image_width" : 1920,
          "image" : "https:\/\/i1.douguo.com\/upload\/caiku\/0\/5\/5\/0588fc92a8ab535a2f1bbf8d2b7388d5.jpg",
          "content" : "咔咔搅和匀，根据个人喜好补洋葱，顺便往葱上稍微撒点盐，搁旁边腌着先",
          "frame" : "-1",
          "thumb" : "https:\/\/i1.douguo.com\/upload\/caiku\/0\/5\/5\/140_0588fc92a8ab535a2f1bbf8d2b7388d5.jpg"
        },
        {
          "content" : "摸出一坨提前和好很有可能已经发过发酸并且开始变软的发面团，根据自己饭量补面粉",
          "thumb" : "https:\/\/i1.douguo.com\/upload\/caiku\/9\/e\/4\/140_9ef86fdd07208698cc2c7b7408a8c1a4.jpg",
          "image_width" : 1920,
          "position" : 3,
          "image" : "https:\/\/i1.douguo.com\/upload\/caiku\/9\/e\/4\/9ef86fdd07208698cc2c7b7408a8c1a4.jpg",
          "image_height" : 1080,
          "frame" : "-1"
        },
        {
          "thumb" : "https:\/\/i1.douguo.com\/upload\/caiku\/d\/6\/3\/140_d6d0c3ecc24e70f2c4e4b69990ac7dd3.jpg",
          "frame" : "-1",
          "image" : "https:\/\/i1.douguo.com\/upload\/caiku\/d\/6\/3\/d6d0c3ecc24e70f2c4e4b69990ac7dd3.jpg",
          "content" : "看情况往干面粉里加水，划拉出一堆面疙瘩，努力揉成一坨正常软硬的面团",
          "image_height" : 450,
          "image_width" : 800,
          "position" : 4
        },
        {
          "image" : "https:\/\/i1.douguo.com\/upload\/caiku\/b\/1\/1\/b1a55e382b3caab741801909db791421.jpg",
          "position" : 5,
          "frame" : "-1",
          "image_width" : 800,
          "thumb" : "https:\/\/i1.douguo.com\/upload\/caiku\/b\/1\/1\/140_b1a55e382b3caab741801909db791421.jpg",
          "image_height" : 450,
          "content" : "分成自己喜欢的大小，包成自己喜欢的样子，可以直接扔凉水锅里，小火烧开转中大火蒸熟"
        },
        {
          "content" : "也可以比着去年菜谱【白菜牛肉小煎包】做一锅小生煎，长话短说就是先把包底儿煎黄再加水加盖小火焖熟",
          "image_width" : 800,
          "thumb" : "https:\/\/i1.douguo.com\/upload\/caiku\/1\/0\/5\/140_10ebb66ff2f2a41f944208c13e07c6e5.jpg",
          "image" : "https:\/\/i1.douguo.com\/upload\/caiku\/1\/0\/5\/10ebb66ff2f2a41f944208c13e07c6e5.jpg",
          "image_height" : 450,
          "frame" : "-1",
          "position" : 6
        },
        {
          "image_height" : 450,
          "position" : 7,
          "frame" : "-1",
          "image_width" : 800,
          "image" : "https:\/\/i1.douguo.com\/upload\/caiku\/2\/7\/8\/2776879c53626693bf7495fa10425018.jpg",
          "content" : "全程大概十几分钟的样子，表面摸起来不粘手基本上就是熟啦",
          "thumb" : "https:\/\/i1.douguo.com\/upload\/caiku\/2\/7\/8\/140_2776879c53626693bf7495fa10425018.jpg"
        },
        {
          "image_width" : 1920,
          "image_height" : 1080,
          "image" : "https:\/\/i1.douguo.com\/upload\/caiku\/8\/8\/d\/88be0d8f871412781265b364dbc0e56d.jpg",
          "position" : 8,
          "content" : "根据个人喜好撒葱撒芝麻，大火稍微一烘，确认锅里没水就可以关火了",
          "frame" : "-1",
          "thumb" : "https:\/\/i1.douguo.com\/upload\/caiku\/8\/8\/d\/140_88be0d8f871412781265b364dbc0e56d.jpg"
        },
        {
          "thumb" : "https:\/\/i1.douguo.com\/upload\/caiku\/9\/d\/6\/140_9dfee67ac1d86323f277282c98df2016.jpg",
          "frame" : "-1",
          "image" : "https:\/\/i1.douguo.com\/upload\/caiku\/9\/d\/6\/9dfee67ac1d86323f277282c98df2016.jpg",
          "image_height" : 450,
          "content" : "抓紧时间欣赏两眼趁着包没凉透赶快想办法吃(是的图上这锅凉透了)",
          "image_width" : 800,
          "position" : 9
        },
        {
          "frame" : "-1",
          "image_height" : 900,
          "image" : "https:\/\/i1.douguo.com\/upload\/caiku\/6\/0\/3\/606cdf756cf0e32efd26127ccf3af913.jpg",
          "position" : 10,
          "thumb" : "https:\/\/i1.douguo.com\/upload\/caiku\/6\/0\/3\/140_606cdf756cf0e32efd26127ccf3af913.jpg",
          "image_width" : 1600,
          "content" : "来，张嘴~"
        },
        {
          "thumb" : "https:\/\/i1.douguo.com\/upload\/caiku\/5\/0\/e\/140_508faf4ef633c1650d2c459993a7b0de.jpg",
          "image" : "https:\/\/i1.douguo.com\/upload\/caiku\/5\/0\/e\/508faf4ef633c1650d2c459993a7b0de.jpg",
          "content" : "走了哟，明天见~",
          "frame" : "-1",
          "image_height" : 450,
          "image_width" : 800,
          "position" : 11
        }
      ],
      "rate" : 5,
      "rdsps" : [

      ],
      "related_ads" : [

      ],
      "rrps" : [

      ],
      "recipe_list_tags" : [
        {
          "background_end_color" : "#F4F5F5",
          "right_image" : "",
          "background_border_color" : "",
          "background_start_color" : "#F4F5F5",
          "text_color" : "#141515",
          "jump_url" : "",
          "text" : "关注的人"
        }
      ],
      "ipia" : [

      ],
      "recent_comments" : [

      ],
      "btm_dsp" : [

      ],
      "notes" : [

      ],
      "purl" : "",
      "rpt" : "",
      "dish_count" : 4,
      "vfurl" : "",
      "cookwares" : [

      ],
      "user" : {
        "sign" : "",
        "avatar_medium" : "http:\/\/tx1.douguo.net\/upload\/photo\/6\/2\/8\/140_u66631823200625014715.jpg",
        "subscription" : 0,
        "qzone_nick" : "",
        "recipes_count" : 0,
        "introduction" : "",
        "user_large_photo" : "http:\/\/tx1.douguo.net\/upload\/photo\/6\/2\/8\/yuan_u66631823200625014715.jpg",
        "favor_diaries_count" : 0,
        "point" : 0,
        "nick" : "sure汪",
        "user_cover" : "",
        "qq_weibo_nick" : "",
        "coursecount" : 0,
        "mobile" : "",
        "fc" : 0,
        "user_photo" : "http:\/\/tx1.douguo.net\/upload\/photo\/6\/2\/8\/70_u66631823200625014715.jpg",
        "age" : "",
        "weibo_nick" : "",
        "userid" : "17794329",
        "birthday" : "",
        "gender" : 2,
        "favorites_count" : 0,
        "verified_image" : "https:\/\/i1.douguo.com\/upload\/note\/d\/a\/a\/da84247847aebe48d9dd0fcdac88862a.png",
        "progress_image" : "",
        "lv" : 0,
        "email" : "",
        "verified" : 1,
        "lvl" : 8,
        "location" : 0,
        "is_prime" : 0,
        "setted_email" : 0,
        "dishes_count" : 0,
        "pc" : 0,
        "subscription_article_count" : 0,
        "regist_time" : "",
        "verified_url" : "https:\/\/m.douguo.com\/user\/prodesc",
        "user_id" : "17794329",
        "followers_count" : 0,
        "diaries_count" : 0,
        "following_count" : 0
      },
      "ipit" : 0,
      "rpst" : "",
      "bs" : [

      ],
      "rewarded_video_dsp" : [

      ],
      "original_photo_path" : "http:\/\/i1.douguo.net\/upload\/caiku\/0\/5\/1\/yuan_05520b7723d9021e42150cdaed9567f1.jpg",
      "hqu" : "recipes:\/\/www.douguo.com\/notedetail?id=21162253",
      "recipe_tags" : [

      ],
      "recommend_label" : "4人学做",
      "create_time" : "2018-12-12 20:59:11",
      "ipoi" : "",
      "recommendation_tag" : "",
      "first_level_comment_count" : 2,
      "collect_status" : 0,
      "tags" : [

      ],
      "comments_count" : 5,
      "sc" : 0,
      "cook_time" : "30-60分钟",
      "author_id" : 17794329,
      "ecs" : 1,
      "act_des" : "",
      "author_photo" : "http:\/\/tx1.douguo.net\/upload\/photo\/6\/2\/8\/70_u66631823200625014715.jpg",
      "photo_path" : "https:\/\/i1.douguo.com\/upload\/caiku\/0\/5\/1\/600_05520b7723d9021e42150cdaed9567f1.jpg",
      "eu" : "recipes:\/\/www.douguo.com\/postdetail?id=242016",
      "mid_mdsp" : [

      ],
      "ipurl" : "",
      "author_verified" : 1,
      "packages_id" : [

      ],
      "image" : "http:\/\/i1.douguo.net\/upload\/caiku\/0\/5\/1\/300_05520b7723d9021e42150cdaed9567f1.jpg",
      "hq" : 1,
      "pw" : 800,
      "rate_count" : 1,
      "favo_counts_text" : "4879",
      "comments_count_text" : "5",
      "top_mdsp" : [

      ],
      "author" : "sure汪",
      "cookstorys" : [
        {
          "u" : "",
          "id" : 0,
          "c" : "【3-173】   这是一个加班加点好几天 飞升边缘狂试探的故事……明天应该就可以回家给自己做点儿正常饭吃了……吧？\n                                          ----- 2018.12.12",
          "type" : 0,
          "color" : "",
          "icon" : ""
        }
      ],
      "comments" : [
        "{\n    ac = \"#999999\";\n    at = \"\";\n    ccc = 2;\n    \"child_comments\" =     (\n                {\n            ac = \"#999999\";\n            at = \"\";\n            ccc = 0;\n            city = \"\";\n            cmc = 2;\n            content =             (\n                                {\n                    c = \" \\U8fd8\\U6ca1\\U6765\\U5f97\\U53ca\\U56de\\U5bb6\\U5462\";\n                }\n            );\n            ia = 1;\n            id = 6270091;\n            \"ip_address_location\" = \"\";\n            like = 0;\n            \"like_count\" = 0;\n            \"reply_id\" = 6270090;\n            \"reply_user\" =             {\n                \"followers_count_text\" = \"\";\n                id = 17794329;\n                \"is_prime\" = 0;\n                lv = 0;\n                lvl = 8;\n                n = \"sure\\U6c6a\";\n                p = \"http:\/\/tx1.douguo.net\/upload\/photo\/6\/2\/8\/70_u66631823200625014715.jpg\";\n                \"progress_image\" = \"\";\n                \"recipes_count_text\" = \"\";\n                relationship = \"-1\";\n                title = \"\";\n                v = 1;\n                \"verified_image\" = \"\";\n            };\n            \"sticker_icon\" =             (\n            );\n            time = \"2018-12-12 21:31:46\";\n            u =             {\n                \"followers_count_text\" = \"\";\n                id = 17794329;\n                \"is_prime\" = 0;\n                lv = 0;\n                lvl = 8;\n                n = \"sure\\U6c6a\";\n                p = \"http:\/\/tx1.douguo.net\/upload\/photo\/6\/2\/8\/70_u66631823200625014715.jpg\";\n                \"progress_image\" = \"\";\n                \"recipes_count_text\" = \"\";\n                relationship = \"-1\";\n                title = \"\";\n                v = 1;\n                \"verified_image\" = \"\";\n            };\n        },\n                {\n            ac = \"#999999\";\n            at = \"\";\n            ccc = 0;\n            city = \"\";\n            cmc = 2;\n            content =             (\n                                {\n                    c = \" \\U5728\\U516c\\U53f8\\U5403\\U5916\\U5356\\U5403\\U5f97\\U6211\\U55d3\\U5b50\\U75bc\";\n                }\n            );\n            ia = 1;\n            id = 6270095;\n            \"ip_address_location\" = \"\";\n            like = 0;\n            \"like_count\" = 0;\n            \"reply_id\" = 6270091;\n            \"reply_user\" =             {\n                \"followers_count_text\" = \"\";\n                id = 17794329;\n                \"is_prime\" = 0;\n                lv = 0;\n                lvl = 8;\n                n = \"sure\\U6c6a\";\n                p = \"http:\/\/tx1.douguo.net\/upload\/photo\/6\/2\/8\/70_u66631823200625014715.jpg\";\n                \"progress_image\" = \"\";\n                \"recipes_count_text\" = \"\";\n                relationship = \"-1\";\n                title = \"\";\n                v = 1;\n                \"verified_image\" = \"\";\n            };\n            \"sticker_icon\" =             (\n            );\n            time = \"2018-12-12 21:33:02\";\n            u =             {\n                \"followers_count_text\" = \"\";\n                id = 17794329;\n                \"is_prime\" = 0;\n                lv = 0;\n                lvl = 8;\n                n = \"sure\\U6c6a\";\n                p = \"http:\/\/tx1.douguo.net\/upload\/photo\/6\/2\/8\/70_u66631823200625014715.jpg\";\n                \"progress_image\" = \"\";\n                \"recipes_count_text\" = \"\";\n                relationship = \"-1\";\n                title = \"\";\n                v = 1;\n                \"verified_image\" = \"\";\n            };\n        }\n    );\n    city = \"\";\n    cmc = 2;\n    content =     (\n                {\n            c = \"\\U56de\\U5a01\\U6d77\\U4e09\\U56db\\U5929\\U4e86\";\n        }\n    );\n    ia = 1;\n    id = 6270090;\n    \"ip_address_location\" = \"\";\n    like = 0;\n    \"like_count\" = 0;\n    \"reply_id\" = 0;\n    \"sticker_icon\" =     (\n    );\n    time = \"2018-12-12 21:31:30\";\n    u =     {\n        \"followers_count_text\" = \"\";\n        id = 17794329;\n        \"is_prime\" = 0;\n        lv = 0;\n        lvl = 8;\n        n = \"sure\\U6c6a\";\n        p = \"http:\/\/tx1.douguo.net\/upload\/photo\/6\/2\/8\/70_u66631823200625014715.jpg\";\n        \"progress_image\" = \"\";\n        \"recipes_count_text\" = \"\";\n        relationship = \"-1\";\n        title = \"\";\n        v = 1;\n        \"verified_image\" = \"\";\n    };\n}",
        "{\n    ac = \"#999999\";\n    at = \"\";\n    ccc = 1;\n    \"child_comments\" =     (\n                {\n            ac = \"#999999\";\n            at = \"\";\n            ccc = 0;\n            city = \"\";\n            cmc = 2;\n            content =             (\n                                {\n                    c = \" \\U60a0\\U60a0\\U60a8\\U597d\\U3002\\U6216\\U8bb8\\U53ef\\U4ee5\\U53c2\\U8003\\U4e0b\\U81ea\\U53d1\\U7cd5\\U7c89\\U5305\\U88c5\\U888b\\U4e0a\\U7684\\U8bf4\\U660e\\Uff1f\";\n                }\n            );\n            ia = 1;\n            id = 6278337;\n            \"ip_address_location\" = \"\";\n            like = 0;\n            \"like_count\" = 0;\n            \"reply_id\" = 6276886;\n            \"reply_user\" =             {\n                \"followers_count_text\" = \"\";\n                id = 18495361;\n                \"is_prime\" = 0;\n                lv = 0;\n                lvl = 4;\n                n = \"\\U786c\\U90a6\\U90a6\\U7684\\U7c73\\U7c89\\U5f88\\U7ea2\\U5f64\\U5f64\";\n                p = \"http:\/\/tx1.douguo.net\/upload\/photo\/1\/1\/1\/70_f2c05c1bbf50c99c105206bc11661dc0.png\";\n                \"progress_image\" = \"\";\n                \"recipes_count_text\" = \"\";\n                relationship = \"-1\";\n                title = \"\";\n                v = 0;\n                \"verified_image\" = \"\";\n            };\n            \"sticker_icon\" =             (\n            );\n            time = \"2018-12-15 21:50:03\";\n            u =             {\n                \"followers_count_text\" = \"\";\n                id = 17794329;\n                \"is_prime\" = 0;\n                lv = 0;\n                lvl = 8;\n                n = \"sure\\U6c6a\";\n                p = \"http:\/\/tx1.douguo.net\/upload\/photo\/6\/2\/8\/70_u66631823200625014715.jpg\";\n                \"progress_image\" = \"\";\n                \"recipes_count_text\" = \"\";\n                relationship = \"-1\";\n                title = \"\";\n                v = 1;\n                \"verified_image\" = \"\";\n            };\n        }\n    );\n    city = \"\";\n    cmc = 2;\n    content =     (\n                {\n            c = \"\\U59d0\\U59d0\\U60a8\\U597d\\U3002\\U8bf7\\U95ee\\U81ea\\U53d1\\U7cd5\\U7c89\\U53ef\\U4ee5\\U505a\\U5305\\U5b50\\U4e48\\Uff1f\";\n        }\n    );\n    ia = 0;\n    id = 6276886;\n    \"ip_address_location\" = \"\";\n    like = 0;\n    \"like_count\" = 0;\n    \"reply_id\" = 0;\n    \"sticker_icon\" =     (\n    );\n    time = \"2018-12-15 11:08:21\";\n    u =     {\n        \"followers_count_text\" = \"\";\n        id = 18495361;\n        \"is_prime\" = 0;\n        lv = 0;\n        lvl = 4;\n        n = \"\\U786c\\U90a6\\U90a6\\U7684\\U7c73\\U7c89\\U5f88\\U7ea2\\U5f64\\U5f64\";\n        p = \"http:\/\/tx1.douguo.net\/upload\/photo\/1\/1\/1\/70_f2c05c1bbf50c99c105206bc11661dc0.png\";\n        \"progress_image\" = \"\";\n        \"recipes_count_text\" = \"\";\n        relationship = \"-1\";\n        title = \"\";\n        v = 0;\n        \"verified_image\" = \"\";\n    };\n}"
      ],
      "favo_counts" : 4879,
      "guide_image" : "",
      "cook_difficulty" : "切墩(初级)",
      "title" : "椒椒孜然洋羊包",
      "ss" : [

      ],
      "share_info" : {
        "object_id" : "1724088",
        "infos" : [
          {
            "name" : "椒椒孜然洋羊包-会做饭很酷!",
            "s_d" : "#学做饭用豆果美食# 我在@豆果美食 分享了【椒椒孜然洋羊包-会做饭很酷!】，色香味俱全说的就是这道菜！查看图片了解菜谱（快来点击https:\/\/m.weibo.cn\/p\/100404i33631和我一起修炼厨艺吧）#会做饭很酷# ",
            "s_u" : "",
            "mini_program" : [

            ],
            "image" : "https:\/\/cp1.douguo.com\/upload\/caiku\/0\/5\/1\/05520b7723d9021e42150cdaed9567f1.jpg",
            "qr_image" : "",
            "object_id" : "1724088",
            "channel" : "1"
          },
          {
            "name" : "椒椒孜然洋羊包-会做饭很酷!",
            "image" : "https:\/\/cp1.douguo.com\/upload\/caiku\/0\/5\/1\/05520b7723d9021e42150cdaed9567f1.jpg",
            "qr_image" : "",
            "object_id" : "1724088",
            "s_d" : "椒椒孜然洋羊包-会做饭很酷!",
            "channel" : "7",
            "s_u" : "http:\/\/m.douguo.com\/cookbook\/1724088.html",
            "mini_program" : [

            ]
          },
          {
            "name" : "椒椒孜然洋羊包-会做饭很酷!",
            "object_id" : "1724088",
            "s_d" : "椒椒孜然洋羊包-会做饭很酷!",
            "qr_image" : "",
            "channel" : "8",
            "image" : "https:\/\/cp1.douguo.com\/upload\/caiku\/0\/5\/1\/05520b7723d9021e42150cdaed9567f1.jpg",
            "s_u" : "http:\/\/m.douguo.com\/cookbook\/1724088.html",
            "mini_program" : [

            ]
          }
        ],
        "s_u" : "http:\/\/m.douguo.com\/cookbook\/1724088.html",
        "qr_image" : "",
        "mini_program" : [

        ],
        "image" : "https:\/\/cp1.douguo.com\/upload\/caiku\/0\/5\/1\/05520b7723d9021e42150cdaed9567f1.jpg",
        "s_d" : "椒椒孜然洋羊包-会做饭很酷!",
        "name" : "椒椒孜然洋羊包-会做饭很酷!"
      },
      "dishes" : [

      ],
      "tips" : "",
      "brand_day_dsp" : [

      ],
      "thumb_path" : "https:\/\/i1.douguo.com\/upload\/caiku\/0\/5\/1\/300_05520b7723d9021e42150cdaed9567f1.jpg",
      "major" : [
        {
          "title" : "羊肉",
          "tu" : "https:\/\/m.douguo.com\/ingredients\/羊肉\/detailmaterial",
          "note" : "一份"
        },
        {
          "note" : "一份",
          "title" : "洋葱",
          "tu" : "https:\/\/m.douguo.com\/ingredients\/洋葱\/detailmaterial"
        },
        {
          "title" : "孜然粉",
          "note" : "看"
        },
        {
          "title" : "花椒粉",
          "note" : "肉"
        },
        {
          "note" : "量",
          "tu" : "https:\/\/m.douguo.com\/ingredients\/黑胡椒\/detailmaterial",
          "title" : "黑胡椒"
        },
        {
          "title" : "生抽",
          "tu" : "https:\/\/m.douguo.com\/ingredients\/生抽\/detailmaterial",
          "note" : "适量"
        },
        {
          "note" : "适量",
          "tu" : "https:\/\/m.douguo.com\/ingredients\/盐\/detailmaterial",
          "title" : "盐"
        },
        {
          "note" : "少许",
          "tu" : "https:\/\/m.douguo.com\/ingredients\/油\/detailmaterial",
          "title" : "油"
        },
        {
          "tu" : "https:\/\/m.douguo.com\/ingredients\/面粉\/detailmaterial",
          "title" : "面粉",
          "note" : "看饭量"
        },
        {
          "tu" : "https:\/\/m.douguo.com\/ingredients\/酵母\/detailmaterial",
          "note" : "或老面",
          "title" : "酵母"
        },
        {
          "tu" : "https:\/\/m.douguo.com\/ingredients\/小葱\/detailmaterial",
          "title" : "小葱",
          "note" : "可选"
        },
        {
          "note" : "可选",
          "title" : "熟芝麻"
        }
      ],
      "clicks" : "226618",
      "vu" : "",
      "v_u" : "",
      "rips" : 0,
      "old_comments" : [

      ],
      "su" : "",
      "cook_difficulty_image" : "https:\/\/i1.douguo.com\/upload\/banner\/1551424390.png",
      "sr" : "",
      "minor" : [

      ],
      "cookstory" : "【3-173】   这是一个加班加点好几天 飞升边缘狂试探的故事……明天应该就可以回家给自己做点儿正常饭吃了……吧？\n                                          ----- 2018.12.12",
      "title_ad" : [

      ],
      "ipci" : "",
      "views_count_text" : "23.1万",
      "rcs" : [

      ],
      "cook_time_image" : "https:\/\/i1.douguo.com\/upload\/banner\/1551424318.png",
      "rate_show" : 0
    }
  }
}