{
  "result" : {
    "recipe" : {
      "cook_id" : "2068363",
      "eu" : "recipes:\/\/www.douguo.com\/postdetail?id=242016",
      "rewarded_video_dsp" : [

      ],
      "author_id" : 20387426,
      "btm_dsp" : [

      ],
      "ipurl" : "",
      "author" : "就想做点东西",
      "cookwares" : [

      ],
      "recipe_list_tags" : [
        {
          "background_end_color" : "#F4F5F5",
          "text_color" : "#141515",
          "background_border_color" : "",
          "background_start_color" : "#F4F5F5",
          "jump_url" : "",
          "text" : "关注的人",
          "right_image" : ""
        }
      ],
      "tags" : [

      ],
      "first_level_comment_count" : 3,
      "story_dsp" : [

      ],
      "vu" : "",
      "release_time" : "",
      "create_time" : "2019-03-11 10:48:01",
      "ipt" : "",
      "dish_count_text" : "1",
      "recommend_label" : "1人学做",
      "rrps" : [

      ],
      "cook_time" : "10-30分钟",
      "rcs" : [

      ],
      "thumb_path" : "https:\/\/i1.douguo.com\/upload\/caiku\/e\/1\/7\/300_e1e49d8a7e89094b06e8028fa2fe4937.jpeg",
      "original_photo_path" : "http:\/\/i1.douguo.net\/upload\/caiku\/e\/1\/7\/yuan_e1e49d8a7e89094b06e8028fa2fe4937.jpeg",
      "ipit" : 0,
      "author_photo" : "http:\/\/tx1.douguo.net\/upload\/photo\/d\/c\/0\/70_u96971275142499092711.jpeg",
      "su" : "",
      "comments_count" : 3,
      "dishes" : [

      ],
      "rate" : 5,
      "title" : "盐焗白果",
      "act_des" : "",
      "v_u" : "",
      "vfurl" : "",
      "notes" : [

      ],
      "cookstory" : "",
      "old_comments" : [

      ],
      "favo_counts_text" : "2606",
      "minor" : [

      ],
      "ipia" : [

      ],
      "cookstorys" : [

      ],
      "rpt" : "",
      "rate_show" : 0,
      "pw" : 1776,
      "author_verified" : 0,
      "rpid" : 0,
      "display_ingredient" : 1,
      "bs" : [

      ],
      "title_ad" : [

      ],
      "related_ads" : [

      ],
      "rsm" : "该功能暂停使用",
      "clicks" : "142448",
      "user" : {
        "lv" : 0,
        "diaries_count" : 0,
        "userid" : "20387426",
        "coursecount" : 0,
        "progress_image" : "",
        "qzone_nick" : "",
        "dishes_count" : 0,
        "user_cover" : "",
        "favor_diaries_count" : 0,
        "pc" : 0,
        "user_large_photo" : "http:\/\/tx1.douguo.net\/upload\/photo\/d\/c\/0\/yuan_u96971275142499092711.jpeg",
        "lvl" : 6,
        "birthday" : "",
        "qq_weibo_nick" : "",
        "user_id" : "20387426",
        "regist_time" : "",
        "mobile" : "",
        "recipes_count" : 0,
        "subscription" : 0,
        "age" : "",
        "setted_email" : 0,
        "point" : 0,
        "verified" : 0,
        "verified_image" : "",
        "subscription_article_count" : 0,
        "weibo_nick" : "",
        "is_prime" : 0,
        "favorites_count" : 0,
        "nick" : "就想做点东西",
        "user_photo" : "http:\/\/tx1.douguo.net\/upload\/photo\/d\/c\/0\/70_u96971275142499092711.jpeg",
        "following_count" : 0,
        "location" : 0,
        "gender" : 2,
        "verified_url" : "https:\/\/m.douguo.com\/user\/prodesc",
        "sign" : "",
        "fc" : 0,
        "avatar_medium" : "http:\/\/tx1.douguo.net\/upload\/photo\/d\/c\/0\/140_u96971275142499092711.jpeg",
        "followers_count" : 0,
        "introduction" : "",
        "email" : ""
      },
      "favo_counts" : 2606,
      "image" : "http:\/\/i1.douguo.net\/upload\/caiku\/e\/1\/7\/300_e1e49d8a7e89094b06e8028fa2fe4937.jpeg",
      "guide_image" : "",
      "comments_count_text" : "3",
      "views_count_text" : "15.2万",
      "cook_difficulty" : "切墩(初级)",
      "thumb_height" : 0,
      "ssu" : "",
      "sc" : 0,
      "dish_count" : 1,
      "mid_mdsp" : [

      ],
      "recommended" : 0,
      "photo_path" : "https:\/\/i1.douguo.com\/upload\/caiku\/e\/1\/7\/600_e1e49d8a7e89094b06e8028fa2fe4937.jpeg",
      "brand_day_dsp" : [

      ],
      "top_mdsp" : [

      ],
      "rpst" : "",
      "ph" : 1184,
      "ss" : [

      ],
      "recent_comments" : [

      ],
      "ipoi" : "",
      "ipci" : "",
      "tips" : "",
      "share_info" : {
        "mini_program" : [

        ],
        "object_id" : "2068363",
        "infos" : [
          {
            "name" : "盐焗白果-会做饭很酷!",
            "s_u" : "",
            "mini_program" : [

            ],
            "image" : "https:\/\/cp1.douguo.com\/upload\/caiku\/e\/1\/7\/e1e49d8a7e89094b06e8028fa2fe4937.jpeg",
            "channel" : "1",
            "s_d" : "#学做饭用豆果美食# 会做饭真是太酷了！我在@豆果美食 分享了【盐焗白果-会做饭很酷!】，这道菜真的神仙美味！喜欢的一定要试试绝对不会错的！～查看图片了解菜谱（快来点击https:\/\/m.weibo.cn\/p\/100404i33631和我一起修炼厨艺吧）",
            "qr_image" : "",
            "object_id" : "2068363"
          },
          {
            "object_id" : "2068363",
            "s_u" : "http:\/\/m.douguo.com\/cookbook\/2068363.html",
            "image" : "https:\/\/cp1.douguo.com\/upload\/caiku\/e\/1\/7\/e1e49d8a7e89094b06e8028fa2fe4937.jpeg",
            "mini_program" : [

            ],
            "qr_image" : "",
            "s_d" : "盐焗白果-会做饭很酷!",
            "name" : "盐焗白果-会做饭很酷!",
            "channel" : "7"
          },
          {
            "s_u" : "http:\/\/m.douguo.com\/cookbook\/2068363.html",
            "image" : "https:\/\/cp1.douguo.com\/upload\/caiku\/e\/1\/7\/e1e49d8a7e89094b06e8028fa2fe4937.jpeg",
            "channel" : "8",
            "name" : "盐焗白果-会做饭很酷!",
            "s_d" : "盐焗白果-会做饭很酷!",
            "mini_program" : [

            ],
            "qr_image" : "",
            "object_id" : "2068363"
          }
        ],
        "qr_image" : "",
        "image" : "https:\/\/cp1.douguo.com\/upload\/caiku\/e\/1\/7\/e1e49d8a7e89094b06e8028fa2fe4937.jpeg",
        "name" : "盐焗白果-会做饭很酷!",
        "s_d" : "盐焗白果-会做饭很酷!",
        "s_u" : "http:\/\/m.douguo.com\/cookbook\/2068363.html"
      },
      "cook_time_image" : "https:\/\/i1.douguo.com\/upload\/banner\/1551424341.png",
      "packages_id" : [

      ],
      "major" : [
        {
          "note" : "400g",
          "tu" : "https:\/\/m.douguo.com\/ingredients\/食盐\/detailmaterial",
          "title" : "食盐"
        },
        {
          "note" : "250g",
          "title" : "白果仁"
        }
      ],
      "levelid" : 2,
      "rrpt" : "",
      "rdsps" : [

      ],
      "vc" : "152047",
      "rips" : 0,
      "hq" : 1,
      "comments" : [
        "{\n    ac = \"#999999\";\n    at = \"\";\n    ccc = 0;\n    \"child_comments\" =     (\n    );\n    city = \"\";\n    cmc = 2;\n    content =     (\n                {\n            c = \"\\U597d\\U68d2\\U597d\\U8d5e\";\n        }\n    );\n    ia = 0;\n    id = 6438981;\n    \"ip_address_location\" = \"\";\n    like = 0;\n    \"like_count\" = 0;\n    \"reply_id\" = 0;\n    \"sticker_icon\" =     (\n    );\n    time = \"2019-03-13 18:15:23\";\n    u =     {\n        \"followers_count_text\" = \"\";\n        id = 23155219;\n        \"is_prime\" = 0;\n        lv = 0;\n        lvl = 4;\n        n = douraimi;\n        p = \"http:\/\/tx1.douguo.net\/upload\/photo\/d\/6\/4\/70_u47603349832566001330.jpeg\";\n        \"progress_image\" = \"\";\n        \"recipes_count_text\" = \"\";\n        relationship = \"-1\";\n        title = \"\";\n        v = 0;\n        \"verified_image\" = \"\";\n    };\n}",
        "{\n    ac = \"#999999\";\n    at = \"\";\n    ccc = 0;\n    \"child_comments\" =     (\n    );\n    city = \"\";\n    cmc = 2;\n    content =     (\n                {\n            c = \"\\U4e2a\\U4eba\\U4ee5\\U4e3a\\U6bcf\\U5929\\U4e0d\\U8981\\U8d85\\U8fc720\\U4e2a\\U5c31\\U597d\\Uff0c\";\n        }\n    );\n    ia = 1;\n    id = 6438835;\n    \"ip_address_location\" = \"\";\n    like = 0;\n    \"like_count\" = 0;\n    \"reply_id\" = 0;\n    \"sticker_icon\" =     (\n    );\n    time = \"2019-03-13 17:41:06\";\n    u =     {\n        \"followers_count_text\" = \"\";\n        id = 20387426;\n        \"is_prime\" = 0;\n        lv = 0;\n        lvl = 6;\n        n = \"\\U5c31\\U60f3\\U505a\\U70b9\\U4e1c\\U897f\";\n        p = \"http:\/\/tx1.douguo.net\/upload\/photo\/d\/c\/0\/70_u96971275142499092711.jpeg\";\n        \"progress_image\" = \"\";\n        \"recipes_count_text\" = \"\";\n        relationship = \"-1\";\n        title = \"\";\n        v = 0;\n        \"verified_image\" = \"\";\n    };\n}",
        "{\n    ac = \"#999999\";\n    at = \"\";\n    ccc = 0;\n    \"child_comments\" =     (\n    );\n    city = \"\";\n    cmc = 2;\n    content =     (\n                {\n            c = \"\\U53ef\\U4ee5\\U5403\\U591a\\U5417\";\n        }\n    );\n    ia = 0;\n    id = 6438554;\n    \"ip_address_location\" = \"\";\n    like = 0;\n    \"like_count\" = 0;\n    \"reply_id\" = 0;\n    \"sticker_icon\" =     (\n    );\n    time = \"2019-03-13 15:08:33\";\n    u =     {\n        \"followers_count_text\" = \"\";\n        id = 18454302;\n        \"is_prime\" = 0;\n        lv = 0;\n        lvl = 4;\n        n = \"\\U8001\\U7c73\\U5a03\\U513f\";\n        p = \"http:\/\/tx1.douguo.net\/upload\/photo\/6\/a\/8\/70_u77577201986928143100.jpg\";\n        \"progress_image\" = \"\";\n        \"recipes_count_text\" = \"\";\n        relationship = \"-1\";\n        title = \"\";\n        v = 0;\n        \"verified_image\" = \"\";\n    };\n}"
      ],
      "recipe_tags" : [

      ],
      "sr" : "",
      "rate_count" : 1,
      "purl" : "",
      "recommendation_tag" : "",
      "ecs" : 0,
      "hqu" : "recipes:\/\/www.douguo.com\/notedetail?id=21162253",
      "collect_status" : 0,
      "cook_difficulty_image" : "https:\/\/i1.douguo.com\/upload\/banner\/1551424390.png",
      "cookstep" : [
        {
          "content" : "白果洗净，用钳子在白果上夹一个小口，防止炒的过程中白果爆裂。",
          "image_width" : 940,
          "thumb" : "https:\/\/i1.douguo.com\/upload\/caiku\/4\/6\/f\/140_462a3326e908ab10ad074f4182df4a8f.jpeg",
          "image" : "https:\/\/i1.douguo.com\/upload\/caiku\/4\/6\/f\/462a3326e908ab10ad074f4182df4a8f.jpeg",
          "image_height" : 620,
          "frame" : "-1",
          "position" : 1
        },
        {
          "image" : "https:\/\/i1.douguo.com\/upload\/caiku\/2\/c\/d\/2cd665378f93fa608d127b3a36ac253d.jpeg",
          "image_width" : 654,
          "thumb" : "https:\/\/i1.douguo.com\/upload\/caiku\/2\/c\/d\/140_2cd665378f93fa608d127b3a36ac253d.jpeg",
          "content" : "放入平底锅中，加盐，小火炒制白果皮张裂，盐色变黄。大概十分钟左右。",
          "position" : 2,
          "image_height" : 448,
          "frame" : "-1"
        },
        {
          "image_width" : 1280,
          "thumb" : "https:\/\/i1.douguo.com\/upload\/caiku\/a\/7\/d\/140_a7d73f24078e1f986bc3f5b34ba4bfad.jpeg",
          "frame" : "-1",
          "position" : 3,
          "image_height" : 853,
          "image" : "https:\/\/i1.douguo.com\/upload\/caiku\/a\/7\/d\/a7d73f24078e1f986bc3f5b34ba4bfad.jpeg",
          "content" : "带有焦香的白果就做好啦！"
        },
        {
          "image_height" : 853,
          "position" : 4,
          "content" : "炒好的白果很容易去皮，吃剩下的可以用来做菜、煲汤、煮粥。",
          "thumb" : "https:\/\/i1.douguo.com\/upload\/caiku\/e\/1\/2\/140_e17ab7c785231114280a23d780582ca2.jpeg",
          "image" : "https:\/\/i1.douguo.com\/upload\/caiku\/e\/1\/2\/e17ab7c785231114280a23d780582ca2.jpeg",
          "frame" : "-1",
          "image_width" : 1280
        }
      ]
    }
  },
  "status" : 0,
  "state" : "success"
}