{
  "state" : "success",
  "status" : 0,
  "result" : {
    "recipe" : {
      "rate_show" : 0,
      "author_photo" : "http:\/\/tx1.douguo.net\/upload\/photo\/8\/5\/e\/70_857deaf3d3cf85ad019d7e67da55158e.jpg",
      "title" : "蓝莓挞",
      "rpt" : "",
      "ss" : [

      ],
      "rewarded_video_dsp" : [

      ],
      "major" : [
        {
          "note" : "适量",
          "title" : "蛋挞皮"
        },
        {
          "note" : "适量",
          "title" : "冷冻蓝莓"
        },
        {
          "note" : "少许",
          "title" : "蛋黄液"
        },
        {
          "note" : "少许",
          "title" : "黑芝麻",
          "tu" : "https:\/\/m.douguo.com\/ingredients\/黑芝麻\/detailmaterial"
        }
      ],
      "su" : "",
      "v_u" : "",
      "image" : "http:\/\/i1.douguo.net\/upload\/caiku\/a\/d\/6\/300_ad307b633e35ae50813da058ef979196.jpg",
      "vu" : "",
      "rdsps" : [

      ],
      "dish_count_text" : "1",
      "cook_time" : "10-30分钟",
      "vfurl" : "",
      "user" : {
        "introduction" : "",
        "verified" : 1,
        "favorites_count" : 0,
        "verified_url" : "https:\/\/m.douguo.com\/user\/prodesc",
        "is_prime" : 0,
        "nick" : "眼角眉梢",
        "lv" : 0,
        "coursecount" : 0,
        "verified_image" : "https:\/\/i1.douguo.com\/upload\/note\/d\/a\/a\/da84247847aebe48d9dd0fcdac88862a.png",
        "regist_time" : "",
        "userid" : "3754675",
        "weibo_nick" : "",
        "location" : 0,
        "dishes_count" : 0,
        "lvl" : 6,
        "sign" : "",
        "subscription" : 0,
        "favor_diaries_count" : 0,
        "user_id" : "3754675",
        "subscription_article_count" : 0,
        "fc" : 0,
        "qzone_nick" : "",
        "birthday" : "",
        "gender" : 2,
        "user_cover" : "",
        "user_photo" : "http:\/\/tx1.douguo.net\/upload\/photo\/8\/5\/e\/70_857deaf3d3cf85ad019d7e67da55158e.jpg",
        "user_large_photo" : "http:\/\/tx1.douguo.net\/upload\/photo\/8\/5\/e\/yuan_857deaf3d3cf85ad019d7e67da55158e.jpg",
        "pc" : 0,
        "following_count" : 0,
        "qq_weibo_nick" : "",
        "age" : "",
        "recipes_count" : 0,
        "point" : 0,
        "setted_email" : 0,
        "followers_count" : 0,
        "mobile" : "",
        "email" : "",
        "progress_image" : "",
        "diaries_count" : 0,
        "avatar_medium" : "http:\/\/tx1.douguo.net\/upload\/photo\/8\/5\/e\/140_857deaf3d3cf85ad019d7e67da55158e.jpg"
      },
      "rcs" : [

      ],
      "story_dsp" : [

      ],
      "rpst" : "",
      "thumb_path" : "https:\/\/i1.douguo.com\/upload\/caiku\/a\/d\/6\/300_ad307b633e35ae50813da058ef979196.jpg",
      "thumb_height" : 0,
      "author_verified" : 1,
      "recommend_label" : "1人学做",
      "collect_status" : 0,
      "first_level_comment_count" : 3,
      "ipt" : "",
      "top_mdsp" : [

      ],
      "cookstep" : [
        {
          "image_height" : 533,
          "image_width" : 800,
          "thumb" : "https:\/\/i1.douguo.com\/upload\/caiku\/e\/f\/3\/140_ef9fd304df2d331671a5e78bad1a6363.jpg",
          "content" : "准备材料。蛋挞皮中加适量冷冻蓝莓",
          "image" : "https:\/\/i1.douguo.com\/upload\/caiku\/e\/f\/3\/ef9fd304df2d331671a5e78bad1a6363.jpg",
          "position" : 1,
          "frame" : "-1"
        },
        {
          "image" : "https:\/\/i1.douguo.com\/upload\/caiku\/c\/7\/f\/c7a980f4b5a01cb92a363f4b51ab26bf.jpg",
          "frame" : "-1",
          "position" : 2,
          "content" : "把蛋挞皮捏起来，捏紧。",
          "image_width" : 800,
          "thumb" : "https:\/\/i1.douguo.com\/upload\/caiku\/c\/7\/f\/140_c7a980f4b5a01cb92a363f4b51ab26bf.jpg",
          "image_height" : 533
        },
        {
          "position" : 3,
          "frame" : "-1",
          "image_width" : 1280,
          "image_height" : 853,
          "content" : "表皮刷蛋黄液，撒黑芝麻",
          "thumb" : "https:\/\/i1.douguo.com\/upload\/caiku\/4\/7\/b\/140_4724e116470a99c53e7f71d1a70139db.jpg",
          "image" : "https:\/\/i1.douguo.com\/upload\/caiku\/4\/7\/b\/4724e116470a99c53e7f71d1a70139db.jpg"
        },
        {
          "content" : "送入预热好的烤箱，200度20分钟左右",
          "image" : "https:\/\/i1.douguo.com\/upload\/caiku\/3\/e\/9\/3e20af2b8c2dcefb8d0a3d30ba2a3ee9.jpg",
          "image_width" : 800,
          "frame" : "-1",
          "image_height" : 533,
          "thumb" : "https:\/\/i1.douguo.com\/upload\/caiku\/3\/e\/9\/140_3e20af2b8c2dcefb8d0a3d30ba2a3ee9.jpg",
          "position" : 4
        },
        {
          "image_height" : 533,
          "frame" : "-1",
          "content" : "酸酸甜甜真好吃",
          "position" : 5,
          "image" : "https:\/\/i1.douguo.com\/upload\/caiku\/d\/7\/2\/d76cdc5a6d3cc7a04f0360755f33f142.jpg",
          "thumb" : "https:\/\/i1.douguo.com\/upload\/caiku\/d\/7\/2\/140_d76cdc5a6d3cc7a04f0360755f33f142.jpg",
          "image_width" : 800
        },
        {
          "image_width" : 1280,
          "position" : 6,
          "image_height" : 853,
          "frame" : "-1",
          "content" : "爆浆口感",
          "image" : "https:\/\/i1.douguo.com\/upload\/caiku\/0\/3\/0\/03d106070c5ebfde2520f04a58991f90.jpg",
          "thumb" : "https:\/\/i1.douguo.com\/upload\/caiku\/0\/3\/0\/140_03d106070c5ebfde2520f04a58991f90.jpg"
        }
      ],
      "act_des" : "",
      "recent_comments" : [

      ],
      "eu" : "recipes:\/\/www.douguo.com\/postdetail?id=242016",
      "cook_id" : "2298357",
      "display_ingredient" : 1,
      "cookstory" : "快手美味蓝莓挞",
      "clicks" : "203315",
      "bs" : [

      ],
      "original_photo_path" : "http:\/\/i1.douguo.net\/upload\/caiku\/a\/d\/6\/yuan_ad307b633e35ae50813da058ef979196.jpg",
      "favo_counts_text" : "2964",
      "btm_dsp" : [

      ],
      "comments_count" : 3,
      "comments_count_text" : "3",
      "cook_difficulty" : "切墩(初级)",
      "pw" : 800,
      "ipurl" : "",
      "dish_count" : 1,
      "rate" : 5,
      "sr" : "",
      "recommended" : 0,
      "ipit" : 0,
      "packages_id" : [

      ],
      "comments" : [
        "{\n    ac = \"#999999\";\n    at = \"\\U6210\\U90fd\\U5e02\";\n    ccc = 0;\n    \"child_comments\" =     (\n    );\n    city = \"\\U6210\\U90fd\\U5e02\";\n    cmc = 2;\n    content =     (\n                {\n            c = \"\\U4e0d\\U9519\\U54e6\";\n        }\n    );\n    ia = 0;\n    id = 7823414;\n    \"ip_address_location\" = \"\";\n    like = 0;\n    \"like_count\" = 0;\n    \"reply_id\" = 0;\n    \"sticker_icon\" =     (\n    );\n    time = \"2020-03-29 16:07:10\";\n    u =     {\n        \"followers_count_text\" = \"\";\n        id = 19776427;\n        \"is_prime\" = 0;\n        lv = 0;\n        lvl = 5;\n        n = \"\\U96ea\\U59d1\\U5a18\\U7684\\U96f6\\U98df\\U94fa\\U5b50\";\n        p = \"http:\/\/tx1.douguo.net\/upload\/photo\/9\/9\/c\/70_u88637191904080160719.jpeg\";\n        \"progress_image\" = \"\";\n        \"recipes_count_text\" = \"\";\n        relationship = \"-1\";\n        title = \"\";\n        v = 0;\n        \"verified_image\" = \"\";\n    };\n}",
        "{\n    ac = \"#999999\";\n    at = \"\\U5fb7\\U5dde\\U5e02\";\n    ccc = 0;\n    \"child_comments\" =     (\n    );\n    city = \"\\U5fb7\\U5dde\\U5e02\";\n    cmc = 2;\n    content =     (\n                {\n            c = \"\\U51b7\\U51bb\\U84dd\\U8393\\U662f\\U4ec0\\U4e48\";\n        }\n    );\n    ia = 0;\n    id = 7813671;\n    \"ip_address_location\" = \"\";\n    like = 0;\n    \"like_count\" = 0;\n    \"reply_id\" = 0;\n    \"sticker_icon\" =     (\n    );\n    time = \"2020-03-25 14:57:03\";\n    u =     {\n        \"followers_count_text\" = \"\";\n        id = 21909281;\n        \"is_prime\" = 0;\n        lv = 0;\n        lvl = 1;\n        n = \"\\U8c46\\U7c89120390\";\n        p = \"\";\n        \"progress_image\" = \"\";\n        \"recipes_count_text\" = \"\";\n        relationship = \"-1\";\n        title = \"\";\n        v = 0;\n        \"verified_image\" = \"\";\n    };\n}",
        "{\n    ac = \"#999999\";\n    at = \"\";\n    ccc = 0;\n    \"child_comments\" =     (\n    );\n    city = \"\";\n    cmc = 2;\n    content =     (\n                {\n            c = \"\\U591a\\U5927\\U7684\\U554a\\Uff1f\";\n        }\n    );\n    ia = 0;\n    id = 6592603;\n    \"ip_address_location\" = \"\";\n    like = 0;\n    \"like_count\" = 0;\n    \"reply_id\" = 0;\n    \"sticker_icon\" =     (\n    );\n    time = \"2019-05-14 10:14:11\";\n    u =     {\n        \"followers_count_text\" = \"\";\n        id = 18490270;\n        \"is_prime\" = 0;\n        lv = 0;\n        lvl = 4;\n        n = \"\\U522b\\U810a\\U8584\\U95f9i\";\n        p = \"http:\/\/tx1.douguo.net\/upload\/photo\/2\/4\/2\/70_u09227501546665200507.jpg\";\n        \"progress_image\" = \"\";\n        \"recipes_count_text\" = \"\";\n        relationship = \"-1\";\n        title = \"\";\n        v = 0;\n        \"verified_image\" = \"\";\n    };\n}"
      ],
      "rrps" : [

      ],
      "cookstorys" : [
        {
          "type" : 0,
          "u" : "",
          "icon" : "",
          "color" : "",
          "c" : "快手美味蓝莓挞",
          "id" : 0
        }
      ],
      "related_ads" : [

      ],
      "minor" : [

      ],
      "rsm" : "该功能暂停使用",
      "ipia" : [

      ],
      "rpid" : 0,
      "release_time" : "",
      "ssu" : "",
      "dishes" : [

      ],
      "cook_time_image" : "https:\/\/i1.douguo.com\/upload\/banner\/1551424341.png",
      "rips" : 0,
      "views_count_text" : "21.0万",
      "ph" : 533,
      "brand_day_dsp" : [

      ],
      "ecs" : 0,
      "sc" : 0,
      "cookwares" : [

      ],
      "levelid" : 2,
      "recipe_tags" : [

      ],
      "tips" : "1.蓝莓不要放太多，否则烤的时候会出来。\n2.具体时间温度参考自家烤箱。",
      "ipci" : "",
      "mid_mdsp" : [

      ],
      "event" : {
        "id" : 0
      },
      "hqu" : "recipes:\/\/www.douguo.com\/notedetail?id=21162253",
      "rrpt" : "",
      "recommendation_tag" : "",
      "cook_difficulty_image" : "https:\/\/i1.douguo.com\/upload\/banner\/1551424390.png",
      "photo_path" : "https:\/\/i1.douguo.com\/upload\/caiku\/a\/d\/6\/600_ad307b633e35ae50813da058ef979196.jpg",
      "favo_counts" : 2964,
      "vc" : "209771",
      "guide_image" : "",
      "hq" : 1,
      "share_info" : {
        "name" : "#母亲节，给妈妈做道菜#蓝莓挞-会做饭很酷!",
        "s_u" : "http:\/\/m.douguo.com\/cookbook\/2298357.html",
        "image" : "https:\/\/cp1.douguo.com\/upload\/caiku\/a\/d\/6\/ad307b633e35ae50813da058ef979196.jpg",
        "qr_image" : "",
        "object_id" : "2298357",
        "mini_program" : [

        ],
        "infos" : [
          {
            "mini_program" : [

            ],
            "image" : "https:\/\/cp1.douguo.com\/upload\/caiku\/a\/d\/6\/ad307b633e35ae50813da058ef979196.jpg",
            "object_id" : "2298357",
            "s_u" : "",
            "channel" : "1",
            "s_d" : "#学做饭用豆果美食# 会做饭真是太酷了！我在@豆果美食 分享了【#母亲节，给妈妈做道菜#蓝莓挞-会做饭很酷!】，这道菜真的神仙美味！喜欢的一定要试试绝对不会错的！～查看图片了解菜谱（快来点击https:\/\/m.weibo.cn\/p\/100404i33631和我一起修炼厨艺吧）",
            "qr_image" : "",
            "name" : "#母亲节，给妈妈做道菜#蓝莓挞-会做饭很酷!"
          },
          {
            "qr_image" : "",
            "s_d" : "#母亲节，给妈妈做道菜#蓝莓挞-会做饭很酷!",
            "image" : "https:\/\/cp1.douguo.com\/upload\/caiku\/a\/d\/6\/ad307b633e35ae50813da058ef979196.jpg",
            "name" : "#母亲节，给妈妈做道菜#蓝莓挞-会做饭很酷!",
            "object_id" : "2298357",
            "s_u" : "http:\/\/m.douguo.com\/cookbook\/2298357.html",
            "mini_program" : [

            ],
            "channel" : "7"
          },
          {
            "mini_program" : [

            ],
            "name" : "#母亲节，给妈妈做道菜#蓝莓挞-会做饭很酷!",
            "object_id" : "2298357",
            "qr_image" : "",
            "s_u" : "http:\/\/m.douguo.com\/cookbook\/2298357.html",
            "image" : "https:\/\/cp1.douguo.com\/upload\/caiku\/a\/d\/6\/ad307b633e35ae50813da058ef979196.jpg",
            "s_d" : "#母亲节，给妈妈做道菜#蓝莓挞-会做饭很酷!",
            "channel" : "8"
          }
        ],
        "s_d" : "#母亲节，给妈妈做道菜#蓝莓挞-会做饭很酷!"
      },
      "create_time" : "2019-05-12 21:31:29",
      "purl" : "",
      "author" : "眼角眉梢",
      "tags" : [

      ],
      "rate_count" : 1,
      "ipoi" : "",
      "title_ad" : [

      ],
      "recipe_list_tags" : [
        {
          "background_start_color" : "#F4F5F5",
          "text_color" : "#141515",
          "text" : "关注的人",
          "jump_url" : "",
          "background_end_color" : "#F4F5F5",
          "right_image" : "",
          "background_border_color" : ""
        },
        {
          "text" : "内容详细",
          "background_border_color" : "",
          "background_start_color" : "#F4F5F5",
          "text_color" : "#141515",
          "right_image" : "",
          "background_end_color" : "#F4F5F5",
          "jump_url" : ""
        }
      ],
      "notes" : [

      ],
      "old_comments" : [

      ],
      "author_id" : 3754675
    }
  }
}