{
  "status" : 0,
  "state" : "success",
  "result" : {
    "recipe" : {
      "author" : "八鲜过海",
      "cookwares" : [

      ],
      "sr" : "",
      "rewarded_video_dsp" : [

      ],
      "recommendation_tag" : "",
      "cookstorys" : [
        {
          "u" : "",
          "color" : "",
          "id" : 0,
          "icon" : "",
          "type" : 0,
          "c" : "我们日常吃到的大龙虾分为螯龙虾和棘龙虾，加拿大龙虾是螯龙虾品种，特点就是有两只大钳。龙虾的吃法有很多种，但最常见的莫过于用奶酪来焗或者放在烤箱里烤。今天的做法是最最传统的用奶酪和大蒜片来焗龙虾，除了奶酪和蒜，我们不放其它任何调味料。 "
        },
        {
          "u" : "",
          "c" : "\n参与活动:",
          "type" : 0,
          "color" : "",
          "id" : 0,
          "icon" : ""
        },
        {
          "type" : 0,
          "u" : "https:\/\/m.douguo.com\/activity\/ncpzj\/detail\/3828?isapp=1&open=0&_vs=1000300&&dg_refreshkey=publishnote",
          "icon" : "",
          "c" : "#参与《追着时间的厨房》同款美食复刻，赢福临门食用油大礼包#",
          "id" : 0
        }
      ],
      "cookstory" : "我们日常吃到的大龙虾分为螯龙虾和棘龙虾，加拿大龙虾是螯龙虾品种，特点就是有两只大钳。龙虾的吃法有很多种，但最常见的莫过于用奶酪来焗或者放在烤箱里烤。今天的做法是最最传统的用奶酪和大蒜片来焗龙虾，除了奶酪和蒜，我们不放其它任何调味料。 ",
      "user" : {
        "age" : "",
        "mobile" : "",
        "verified_image" : "https:\/\/i1.douguo.com\/upload\/note\/d\/a\/a\/da84247847aebe48d9dd0fcdac88862a.png",
        "is_prime" : 0,
        "introduction" : "",
        "followers_count" : 0,
        "weibo_nick" : "",
        "user_cover" : "",
        "dishes_count" : 0,
        "setted_email" : 0,
        "sign" : "",
        "qzone_nick" : "",
        "recipes_count" : 0,
        "regist_time" : "",
        "birthday" : "",
        "nick" : "八鲜过海",
        "avatar_medium" : "http:\/\/tx1.douguo.net\/upload\/photo\/b\/5\/5\/140_u73310629393286035316.jpg",
        "verified_url" : "https:\/\/m.douguo.com\/user\/prodesc",
        "subscription_article_count" : 0,
        "favorites_count" : 0,
        "lvl" : 7,
        "coursecount" : 0,
        "gender" : 2,
        "userid" : "18621547",
        "user_large_photo" : "http:\/\/tx1.douguo.net\/upload\/photo\/b\/5\/5\/yuan_u73310629393286035316.jpg",
        "qq_weibo_nick" : "",
        "subscription" : 0,
        "user_id" : "18621547",
        "pc" : 0,
        "verified" : 1,
        "user_photo" : "http:\/\/tx1.douguo.net\/upload\/photo\/b\/5\/5\/70_u73310629393286035316.jpg",
        "fc" : 0,
        "favor_diaries_count" : 0,
        "diaries_count" : 0,
        "lv" : 0,
        "point" : 0,
        "following_count" : 0,
        "progress_image" : "",
        "location" : 0,
        "email" : ""
      },
      "photo_path" : "https:\/\/i1.douguo.com\/upload\/caiku\/a\/6\/7\/600_a6c0c39e2dea0e1e75aebb938bef8ec7.jpeg",
      "ssu" : "",
      "rate" : 0,
      "rrpt" : "",
      "favo_counts_text" : "1952",
      "dish_count" : 0,
      "rdsps" : [

      ],
      "comments_count_text" : "",
      "hq" : 1,
      "minor" : [

      ],
      "top_mdsp" : [

      ],
      "vc" : "43929",
      "tips" : "",
      "create_time" : "2023-07-31 09:43:30",
      "title_ad" : [

      ],
      "btm_dsp" : [

      ],
      "rpt" : "",
      "hqu" : "recipes:\/\/www.douguo.com\/notedetail?id=21162253",
      "cook_difficulty_image" : "https:\/\/i1.douguo.com\/upload\/banner\/1551424390.png",
      "rpid" : 0,
      "recipe_tags" : [

      ],
      "ipoi" : "",
      "ipit" : 0,
      "mid_mdsp" : [

      ],
      "cook_time" : "10~30分钟",
      "ipurl" : "",
      "recent_comments" : [

      ],
      "packages_id" : [

      ],
      "release_time" : "",
      "rate_count" : 0,
      "rate_show" : 0,
      "major" : [
        {
          "note" : "2只",
          "title" : "熟冻加拿大龙虾"
        },
        {
          "tu" : "https:\/\/m.douguo.com\/ingredients\/大蒜\/detailmaterial",
          "note" : "2瓣",
          "title" : "大蒜"
        },
        {
          "tu" : "https:\/\/m.douguo.com\/ingredients\/奶酪\/detailmaterial",
          "note" : "2大块",
          "title" : "奶酪"
        }
      ],
      "brand_day_dsp" : [

      ],
      "dishes" : [

      ],
      "comments" : [

      ],
      "cookstep" : [
        {
          "image_height" : 720,
          "frame" : "-1",
          "content" : "加拿大的哈利法克斯位于新斯科特省，现在是全球最大的龙虾出口基地。曾经的波士顿现在既不是龙虾的主产区，也不是贸易中心了。",
          "image" : "https:\/\/i1.douguo.com\/upload\/caiku\/f\/1\/c\/f116017b1d46c1aa66955bccc091c20c.jpeg",
          "image_width" : 1280,
          "position" : 1,
          "thumb" : "https:\/\/i1.douguo.com\/upload\/caiku\/f\/1\/c\/140_f116017b1d46c1aa66955bccc091c20c.jpeg"
        },
        {
          "frame" : "-1",
          "image_height" : 720,
          "image" : "https:\/\/i1.douguo.com\/upload\/caiku\/4\/5\/d\/45a5b49aff1eb41e93ab0286965f366d.jpeg",
          "image_width" : 1280,
          "content" : "加拿大熟冻龙虾如图所示。",
          "position" : 2,
          "thumb" : "https:\/\/i1.douguo.com\/upload\/caiku\/4\/5\/d\/140_45a5b49aff1eb41e93ab0286965f366d.jpeg"
        },
        {
          "image" : "https:\/\/i1.douguo.com\/upload\/caiku\/5\/0\/1\/5067be9c0c0e6433e7647fadea40bed1.jpeg",
          "frame" : "-1",
          "image_height" : 720,
          "image_width" : 1280,
          "content" : "大蒜2瓣切片，奶酪2大块，切成小块。",
          "position" : 3,
          "thumb" : "https:\/\/i1.douguo.com\/upload\/caiku\/5\/0\/1\/140_5067be9c0c0e6433e7647fadea40bed1.jpeg"
        },
        {
          "image_width" : 1280,
          "image_height" : 720,
          "thumb" : "https:\/\/i1.douguo.com\/upload\/caiku\/b\/6\/e\/140_b6fdb6609d7dbe5707e72d5f2330fb8e.jpeg",
          "content" : "解冻的熟冻龙虾，放在室温或冰箱冷藏区解冻即可。",
          "position" : 4,
          "image" : "https:\/\/i1.douguo.com\/upload\/caiku\/b\/6\/e\/b6fdb6609d7dbe5707e72d5f2330fb8e.jpeg",
          "frame" : "-1"
        },
        {
          "image_width" : 1280,
          "frame" : "-1",
          "position" : 5,
          "image_height" : 720,
          "image" : "https:\/\/i1.douguo.com\/upload\/caiku\/2\/4\/a\/24d5adec11c5ed79cb12aedc9014eb7a.jpeg",
          "content" : "用手分别握住虾尾和虾头，同时向反方向拧，即可将龙虾尾取下，龙虾尾切成两半，龙虾钳切成两半。",
          "thumb" : "https:\/\/i1.douguo.com\/upload\/caiku\/2\/4\/a\/140_24d5adec11c5ed79cb12aedc9014eb7a.jpeg"
        },
        {
          "image_width" : 1280,
          "image_height" : 720,
          "image" : "https:\/\/i1.douguo.com\/upload\/caiku\/5\/a\/e\/5ae763e055236a2f9fc6608f6d1a070e.jpeg",
          "content" : "拆分好的加拿大龙虾。",
          "frame" : "-1",
          "position" : 6,
          "thumb" : "https:\/\/i1.douguo.com\/upload\/caiku\/5\/a\/e\/140_5ae763e055236a2f9fc6608f6d1a070e.jpeg"
        },
        {
          "image_height" : 720,
          "image" : "https:\/\/i1.douguo.com\/upload\/caiku\/1\/2\/8\/12d03634560e93e2ee85b994e5c20aa8.jpeg",
          "content" : "奶酪、蒜片下热锅。",
          "image_width" : 1280,
          "frame" : "-1",
          "thumb" : "https:\/\/i1.douguo.com\/upload\/caiku\/1\/2\/8\/140_12d03634560e93e2ee85b994e5c20aa8.jpeg",
          "position" : 7
        },
        {
          "position" : 8,
          "image" : "https:\/\/i1.douguo.com\/upload\/caiku\/1\/d\/5\/1d9f241f9515027105789948dc002e05.jpeg",
          "image_height" : 720,
          "thumb" : "https:\/\/i1.douguo.com\/upload\/caiku\/1\/d\/5\/140_1d9f241f9515027105789948dc002e05.jpeg",
          "image_width" : 1280,
          "content" : "奶酪融化后，将龙虾肉的那面朝下放入锅中，由于是加拿大龙虾是煮熟再速冻的，当虾壳变红时即可开始焗。",
          "frame" : "-1"
        },
        {
          "image_height" : 720,
          "image" : "https:\/\/i1.douguo.com\/upload\/caiku\/4\/e\/8\/4ef5fde9ed8a8bef51b909f52062ad68.jpeg",
          "content" : "盖上锅盖，焗3-5分钟。",
          "thumb" : "https:\/\/i1.douguo.com\/upload\/caiku\/4\/e\/8\/140_4ef5fde9ed8a8bef51b909f52062ad68.jpeg",
          "image_width" : 1280,
          "position" : 9,
          "frame" : "-1"
        },
        {
          "frame" : "-1",
          "thumb" : "https:\/\/i1.douguo.com\/upload\/caiku\/4\/6\/7\/140_469e4c4317f3f886e43cda3db9d33f67.jpeg",
          "position" : 10,
          "content" : "装盘完成。",
          "image_height" : 1440,
          "image" : "https:\/\/i1.douguo.com\/upload\/caiku\/4\/6\/7\/469e4c4317f3f886e43cda3db9d33f67.jpeg",
          "image_width" : 2560
        }
      ],
      "vu" : "https:\/\/vplay.douguo.com\/lkMuiE5E2ff02ihuPFI6WGzeHxm0",
      "favo_counts" : 1952,
      "su" : "",
      "rcs" : [

      ],
      "author_photo" : "http:\/\/tx1.douguo.net\/upload\/photo\/b\/5\/5\/70_u73310629393286035316.jpg",
      "rrps" : [

      ],
      "bs" : [

      ],
      "levelid" : 2,
      "pw" : 1920,
      "vfurl" : "https:\/\/vplay.douguo.com\/lkMuiE5E2ff02ihuPFI6WGzeHxm0__640x362.mp4",
      "thumb_height" : 0,
      "collect_status" : 0,
      "purl" : "",
      "sc" : 0,
      "ss" : [

      ],
      "cook_time_image" : "https:\/\/i1.douguo.com\/upload\/banner\/1551424341.png",
      "related_ads" : [

      ],
      "ecs" : 1,
      "event" : {
        "name" : "参与《追着时间的厨房》同款美食复刻，赢福临门食用油大礼包",
        "id" : 3828,
        "url" : "https:\/\/m.douguo.com\/activity\/ncpzj\/detail\/3828?isapp=1&open=0&_vs=1000300&&dg_refreshkey=publishnote"
      },
      "image" : "http:\/\/i1.douguo.net\/upload\/caiku\/a\/6\/7\/300_a6c0c39e2dea0e1e75aebb938bef8ec7.jpeg",
      "ipt" : "",
      "recommend_label" : "1952人刚刚收藏过",
      "author_verified" : 1,
      "recipe_list_tags" : [
        {
          "text" : "关注的人",
          "jump_url" : "",
          "background_end_color" : "#F4F5F5",
          "right_image" : "",
          "background_border_color" : "",
          "text_color" : "#141515",
          "background_start_color" : "#F4F5F5"
        }
      ],
      "dish_count_text" : "",
      "eu" : "recipes:\/\/www.douguo.com\/postdetail?id=242016",
      "views_count_text" : "4.4万",
      "notes" : [

      ],
      "title" : "奶酪焗加拿大龙虾",
      "ph" : 1080,
      "story_dsp" : [

      ],
      "rsm" : "该功能暂停使用",
      "tags" : [

      ],
      "cook_difficulty" : "切墩(初级)",
      "act_des" : "",
      "thumb_path" : "https:\/\/i1.douguo.com\/upload\/caiku\/a\/6\/7\/300_a6c0c39e2dea0e1e75aebb938bef8ec7.jpeg",
      "author_id" : 18621547,
      "share_info" : {
        "mini_program" : [

        ],
        "s_d" : "#《追着时间的厨房》节目同款美食复刻大赛#奶酪焗加拿大龙虾-会做饭很酷!",
        "infos" : [
          {
            "name" : "#《追着时间的厨房》节目同款美食复刻大赛#奶酪焗加拿大龙虾-会做饭很酷!",
            "object_id" : "3264967",
            "mini_program" : [

            ],
            "channel" : "1",
            "qr_image" : "",
            "image" : "https:\/\/cp1.douguo.com\/upload\/caiku\/a\/6\/7\/a6c0c39e2dea0e1e75aebb938bef8ec7.jpeg",
            "s_u" : "",
            "s_d" : "#学做饭用豆果美食#  我在@豆果美食 分享了【#《追着时间的厨房》节目同款美食复刻大赛#奶酪焗加拿大龙虾-会做饭很酷!】，制作美食的过程承载了我生活中的热情，和我一起感受这份小确幸吧！查看图片了解菜谱（你喜欢的美食都在这里！https:\/\/m.weibo.cn\/p\/100404i33631）#会做饭很酷# "
          },
          {
            "s_u" : "http:\/\/m.douguo.com\/cookbook\/3264967.html",
            "qr_image" : "",
            "name" : "#《追着时间的厨房》节目同款美食复刻大赛#奶酪焗加拿大龙虾-会做饭很酷!",
            "object_id" : "3264967",
            "image" : "https:\/\/cp1.douguo.com\/upload\/caiku\/a\/6\/7\/a6c0c39e2dea0e1e75aebb938bef8ec7.jpeg",
            "channel" : "7",
            "s_d" : "#《追着时间的厨房》节目同款美食复刻大赛#奶酪焗加拿大龙虾-会做饭很酷!",
            "mini_program" : [

            ]
          },
          {
            "object_id" : "3264967",
            "s_u" : "http:\/\/m.douguo.com\/cookbook\/3264967.html",
            "channel" : "8",
            "qr_image" : "",
            "name" : "#《追着时间的厨房》节目同款美食复刻大赛#奶酪焗加拿大龙虾-会做饭很酷!",
            "mini_program" : [

            ],
            "image" : "https:\/\/cp1.douguo.com\/upload\/caiku\/a\/6\/7\/a6c0c39e2dea0e1e75aebb938bef8ec7.jpeg",
            "s_d" : "#《追着时间的厨房》节目同款美食复刻大赛#奶酪焗加拿大龙虾-会做饭很酷!"
          }
        ],
        "object_id" : "3264967",
        "image" : "https:\/\/cp1.douguo.com\/upload\/caiku\/a\/6\/7\/a6c0c39e2dea0e1e75aebb938bef8ec7.jpeg",
        "s_u" : "http:\/\/m.douguo.com\/cookbook\/3264967.html",
        "name" : "#《追着时间的厨房》节目同款美食复刻大赛#奶酪焗加拿大龙虾-会做饭很酷!",
        "qr_image" : ""
      },
      "ipia" : [

      ],
      "recommended" : 0,
      "v_u" : "",
      "display_ingredient" : 1,
      "original_photo_path" : "http:\/\/i1.douguo.net\/upload\/caiku\/a\/6\/7\/yuan_a6c0c39e2dea0e1e75aebb938bef8ec7.jpeg",
      "rpst" : "",
      "clicks" : "1",
      "ipci" : "",
      "first_level_comment_count" : 0,
      "old_comments" : [

      ],
      "rips" : 0,
      "comments_count" : 0,
      "guide_image" : "",
      "cook_id" : "3264967"
    }
  }
}