{
  "state" : "success",
  "status" : 0,
  "result" : {
    "recipe" : {
      "user" : {
        "coursecount" : 0,
        "qq_weibo_nick" : "",
        "point" : 0,
        "regist_time" : "",
        "user_photo" : "http:\/\/tx1.douguo.net\/upload\/photo\/0\/d\/a\/70_u0435413432491132823.jpeg",
        "email" : "",
        "dishes_count" : 0,
        "avatar_medium" : "http:\/\/tx1.douguo.net\/upload\/photo\/0\/d\/a\/140_u0435413432491132823.jpeg",
        "lvl" : 6,
        "weibo_nick" : "",
        "subscription" : 0,
        "verified_image" : "",
        "following_count" : 0,
        "qzone_nick" : "",
        "fc" : 0,
        "pc" : 0,
        "is_prime" : 0,
        "introduction" : "",
        "subscription_article_count" : 0,
        "favorites_count" : 0,
        "nick" : "厨娘四月",
        "user_large_photo" : "http:\/\/tx1.douguo.net\/upload\/photo\/0\/d\/a\/yuan_u0435413432491132823.jpeg",
        "sign" : "",
        "mobile" : "",
        "userid" : "4731302",
        "progress_image" : "",
        "location" : 0,
        "lv" : 0,
        "setted_email" : 0,
        "birthday" : "",
        "age" : "",
        "gender" : 2,
        "favor_diaries_count" : 0,
        "user_cover" : "",
        "diaries_count" : 0,
        "verified_url" : "https:\/\/m.douguo.com\/user\/prodesc",
        "user_id" : "4731302",
        "verified" : 0,
        "followers_count" : 0,
        "recipes_count" : 0
      },
      "rate_count" : 1,
      "comments" : [
        "{\n    ac = \"#999999\";\n    at = \"\\U6f4d\\U574a\\U5e02\";\n    ccc = 2;\n    \"child_comments\" =     (\n                {\n            ac = \"#999999\";\n            at = \"\\U6606\\U660e\\U5e02\";\n            ccc = 0;\n            city = \"\\U6606\\U660e\\U5e02\";\n            cmc = 2;\n            content =             (\n                                {\n                    c = \" \\U7092\\U719f\\U7684\\Uff0c\\U8c4c\\U8c46\\U5f88\\U597d\\U719f\\U7684\\U3002\";\n                }\n            );\n            ia = 1;\n            id = 8422809;\n            \"ip_address_location\" = \"\";\n            like = 0;\n            \"like_count\" = 0;\n            \"reply_id\" = 8422590;\n            \"reply_user\" =             {\n                \"followers_count_text\" = \"\";\n                id = 24799214;\n                \"is_prime\" = 0;\n                lv = 0;\n                lvl = 4;\n                n = \"\\U901a\\U6dfb\\U53eb\\U716e\";\n                p = \"http:\/\/tx1.douguo.net\/upload\/photo\/7\/6\/3\/70_u78813814584276222321.jpg\";\n                \"progress_image\" = \"\";\n                \"recipes_count_text\" = \"\";\n                relationship = \"-1\";\n                title = \"\";\n                v = 0;\n                \"verified_image\" = \"\";\n            };\n            \"sticker_icon\" =             (\n            );\n            time = \"2020-12-23 17:25:02\";\n            u =             {\n                \"followers_count_text\" = \"\";\n                id = 4731302;\n                \"is_prime\" = 0;\n                lv = 0;\n                lvl = 6;\n                n = \"\\U53a8\\U5a18\\U56db\\U6708\";\n                p = \"http:\/\/tx1.douguo.net\/upload\/photo\/0\/d\/a\/70_u0435413432491132823.jpeg\";\n                \"progress_image\" = \"\";\n                \"recipes_count_text\" = \"\";\n                relationship = \"-1\";\n                title = \"\";\n                v = 0;\n                \"verified_image\" = \"\";\n            };\n        },\n                {\n            ac = \"#999999\";\n            at = \"\\U6cf0\\U5b89\\U5e02\";\n            ccc = 0;\n            city = \"\\U6cf0\\U5b89\\U5e02\";\n            cmc = 2;\n            content =             (\n                                {\n                    c = \" \\U7096\\U7ca5\\U7684\\U65f6\\U5019\\Uff0c\\U53cd\\U6b63\\U6211\\U77e5\\U9053\\U4e0d\\U600e\\U4e48\\U80af\\U719f\\Ud83d\\Udc4d\\Ud83d\\Udc4d\\Ud83d\\Udc4d\";\n                }\n            );\n            ia = 0;\n            id = 8423198;\n            \"ip_address_location\" = \"\";\n            like = 0;\n            \"like_count\" = 0;\n            \"reply_id\" = 8422809;\n            \"reply_user\" =             {\n                \"followers_count_text\" = \"\";\n                id = 4731302;\n                \"is_prime\" = 0;\n                lv = 0;\n                lvl = 6;\n                n = \"\\U53a8\\U5a18\\U56db\\U6708\";\n                p = \"http:\/\/tx1.douguo.net\/upload\/photo\/0\/d\/a\/70_u0435413432491132823.jpeg\";\n                \"progress_image\" = \"\";\n                \"recipes_count_text\" = \"\";\n                relationship = \"-1\";\n                title = \"\";\n                v = 0;\n                \"verified_image\" = \"\";\n            };\n            \"sticker_icon\" =             (\n            );\n            time = \"2020-12-23 21:14:24\";\n            u =             {\n                \"followers_count_text\" = \"\";\n                id = 24799214;\n                \"is_prime\" = 0;\n                lv = 0;\n                lvl = 4;\n                n = \"\\U901a\\U6dfb\\U53eb\\U716e\";\n                p = \"http:\/\/tx1.douguo.net\/upload\/photo\/7\/6\/3\/70_u78813814584276222321.jpg\";\n                \"progress_image\" = \"\";\n                \"recipes_count_text\" = \"\";\n                relationship = \"-1\";\n                title = \"\";\n                v = 0;\n                \"verified_image\" = \"\";\n            };\n        }\n    );\n    city = \"\\U6f4d\\U574a\\U5e02\";\n    cmc = 2;\n    content =     (\n                {\n            c = \"\\U8c4c\\U8c46\\U600e\\U4e48\\U505a\\U719f\\Uff1f\\Uff1f\\Uff1f\\U76f4\\U63a5\\U4e70\\U7684\\U719f\\U7684\\U8c4c\\U8c46\\U5417\";\n        }\n    );\n    ia = 0;\n    id = 8422590;\n    \"ip_address_location\" = \"\";\n    like = 0;\n    \"like_count\" = 0;\n    \"reply_id\" = 0;\n    \"sticker_icon\" =     (\n    );\n    time = \"2020-12-23 15:34:09\";\n    u =     {\n        \"followers_count_text\" = \"\";\n        id = 24799214;\n        \"is_prime\" = 0;\n        lv = 0;\n        lvl = 4;\n        n = \"\\U901a\\U6dfb\\U53eb\\U716e\";\n        p = \"http:\/\/tx1.douguo.net\/upload\/photo\/7\/6\/3\/70_u78813814584276222321.jpg\";\n        \"progress_image\" = \"\";\n        \"recipes_count_text\" = \"\";\n        relationship = \"-1\";\n        title = \"\";\n        v = 0;\n        \"verified_image\" = \"\";\n    };\n}",
        "{\n    ac = \"#999999\";\n    at = \"\";\n    ccc = 1;\n    \"child_comments\" =     (\n                {\n            ac = \"#999999\";\n            at = \"\";\n            ccc = 0;\n            city = \"\";\n            cmc = 2;\n            content =             (\n                                {\n                    c = \" \\U7f3a\\U5237\\U9505\\U7684\\Ud83d\\Ude1c\";\n                }\n            );\n            ia = 1;\n            id = 5866136;\n            \"ip_address_location\" = \"\";\n            like = 0;\n            \"like_count\" = 0;\n            \"reply_id\" = 5866130;\n            \"reply_user\" =             {\n                \"followers_count_text\" = \"\";\n                id = 18582020;\n                \"is_prime\" = 0;\n                lv = 0;\n                lvl = 6;\n                n = susiaseries;\n                p = \"http:\/\/tx1.douguo.net\/upload\/photo\/d\/6\/d\/70_u23046746023720409004516.jpg\";\n                \"progress_image\" = \"\";\n                \"recipes_count_text\" = \"\";\n                relationship = \"-1\";\n                title = \"\";\n                v = 0;\n                \"verified_image\" = \"\";\n            };\n            \"sticker_icon\" =             (\n            );\n            time = \"2018-07-20 21:36:04\";\n            u =             {\n                \"followers_count_text\" = \"\";\n                id = 4731302;\n                \"is_prime\" = 0;\n                lv = 0;\n                lvl = 6;\n                n = \"\\U53a8\\U5a18\\U56db\\U6708\";\n                p = \"http:\/\/tx1.douguo.net\/upload\/photo\/0\/d\/a\/70_u0435413432491132823.jpeg\";\n                \"progress_image\" = \"\";\n                \"recipes_count_text\" = \"\";\n                relationship = \"-1\";\n                title = \"\";\n                v = 0;\n                \"verified_image\" = \"\";\n            };\n        }\n    );\n    city = \"\";\n    cmc = 2;\n    content =     (\n                {\n            c = \"\\U4f60\\U7f3a\\U52a9\\U624b\\U5417\\Uff1f\\U8d1f\\U8d23\\U5403\\U7684\\U90a3\\U79cd\\Uff1f\";\n        }\n    );\n    ia = 0;\n    id = 5866130;\n    \"ip_address_location\" = \"\";\n    like = 0;\n    \"like_count\" = 0;\n    \"reply_id\" = 0;\n    \"sticker_icon\" =     (\n    );\n    time = \"2018-07-20 21:31:29\";\n    u =     {\n        \"followers_count_text\" = \"\";\n        id = 18582020;\n        \"is_prime\" = 0;\n        lv = 0;\n        lvl = 6;\n        n = susiaseries;\n        p = \"http:\/\/tx1.douguo.net\/upload\/photo\/d\/6\/d\/70_u23046746023720409004516.jpg\";\n        \"progress_image\" = \"\";\n        \"recipes_count_text\" = \"\";\n        relationship = \"-1\";\n        title = \"\";\n        v = 0;\n        \"verified_image\" = \"\";\n    };\n}",
        "{\n    ac = \"#999999\";\n    at = \"\";\n    ccc = 1;\n    \"child_comments\" =     (\n                {\n            ac = \"#999999\";\n            at = \"\";\n            ccc = 0;\n            city = \"\";\n            cmc = 2;\n            content =             (\n                                {\n                    c = \" \\U8d8a\\U6765\\U8d8a\\U559c\\U6b22\\U8fd9\\U79cd\\U7b80\\U5355\\U7684\\U83dc\\Uff0c\\U4e3b\\U8981\\U9760\\U98df\\U6750\\Uff0c\\U800c\\U4e0d\\U662f\\U8c03\\U5473\\U6599\\Ud83d\\Ude1d\";\n                }\n            );\n            ia = 1;\n            id = 5834832;\n            \"ip_address_location\" = \"\";\n            like = 0;\n            \"like_count\" = 0;\n            \"reply_id\" = 5834826;\n            \"reply_user\" =             {\n                \"followers_count_text\" = \"\";\n                id = 18516166;\n                \"is_prime\" = 0;\n                lv = 0;\n                lvl = 4;\n                n = \"\\U6ef4\\U55d2\\U6ef4zero\";\n                p = \"http:\/\/tx1.douguo.net\/upload\/photo\/6\/d\/4\/70_u17381791300700408191838.jpg\";\n                \"progress_image\" = \"\";\n                \"recipes_count_text\" = \"\";\n                relationship = \"-1\";\n                title = \"\";\n                v = 0;\n                \"verified_image\" = \"\";\n            };\n            \"sticker_icon\" =             (\n            );\n            time = \"2018-07-09 22:17:59\";\n            u =             {\n                \"followers_count_text\" = \"\";\n                id = 4731302;\n                \"is_prime\" = 0;\n                lv = 0;\n                lvl = 6;\n                n = \"\\U53a8\\U5a18\\U56db\\U6708\";\n                p = \"http:\/\/tx1.douguo.net\/upload\/photo\/0\/d\/a\/70_u0435413432491132823.jpeg\";\n                \"progress_image\" = \"\";\n                \"recipes_count_text\" = \"\";\n                relationship = \"-1\";\n                title = \"\";\n                v = 0;\n                \"verified_image\" = \"\";\n            };\n        }\n    );\n    city = \"\";\n    cmc = 2;\n    content =     (\n                {\n            c = \"\\U53d6\\U6cd5\\U4e8e\\U4e0a\\Uff01\";\n        }\n    );\n    ia = 0;\n    id = 5834826;\n    \"ip_address_location\" = \"\";\n    like = 0;\n    \"like_count\" = 0;\n    \"reply_id\" = 0;\n    \"sticker_icon\" =     (\n    );\n    time = \"2018-07-09 22:16:00\";\n    u =     {\n        \"followers_count_text\" = \"\";\n        id = 18516166;\n        \"is_prime\" = 0;\n        lv = 0;\n        lvl = 4;\n        n = \"\\U6ef4\\U55d2\\U6ef4zero\";\n        p = \"http:\/\/tx1.douguo.net\/upload\/photo\/6\/d\/4\/70_u17381791300700408191838.jpg\";\n        \"progress_image\" = \"\";\n        \"recipes_count_text\" = \"\";\n        relationship = \"-1\";\n        title = \"\";\n        v = 0;\n        \"verified_image\" = \"\";\n    };\n}"
      ],
      "recent_comments" : [

      ],
      "cook_difficulty_image" : "https:\/\/i1.douguo.com\/upload\/banner\/1551424390.png",
      "rpt" : "",
      "hqu" : "recipes:\/\/www.douguo.com\/notedetail?id=21162253",
      "rrps" : [

      ],
      "rcs" : [

      ],
      "major" : [
        {
          "title" : "豌豆",
          "tu" : "https:\/\/m.douguo.com\/ingredients\/豌豆\/detailmaterial",
          "note" : "100g"
        },
        {
          "note" : "100g",
          "title" : "甜玉米"
        },
        {
          "title" : "油",
          "tu" : "https:\/\/m.douguo.com\/ingredients\/油\/detailmaterial",
          "note" : "少许"
        },
        {
          "title" : "盐",
          "tu" : "https:\/\/m.douguo.com\/ingredients\/盐\/detailmaterial",
          "note" : "少许"
        }
      ],
      "rate" : 5,
      "dish_count_text" : "1",
      "vc" : "110443",
      "recipe_list_tags" : [
        {
          "background_end_color" : "#F5D39F",
          "background_start_color" : "#FAE9CD",
          "right_image" : "https:\/\/i1.douguo.com\/upload\/caiku\/0\/a\/b\/0a317d98c713e7e7d0d47ed003f2d93b.png",
          "jump_url" : "recipes:\/\/www.douguo.com\/introdietitian",
          "background_border_color" : "",
          "text" : "减脂菜谱",
          "text_color" : "#413C32"
        },
        {
          "jump_url" : "",
          "background_end_color" : "#F4F5F5",
          "text_color" : "#141515",
          "right_image" : "",
          "background_border_color" : "",
          "background_start_color" : "#F4F5F5",
          "text" : "关注的人"
        },
        {
          "background_border_color" : "",
          "background_end_color" : "#F4F5F5",
          "jump_url" : "",
          "text" : "内容详细",
          "text_color" : "#141515",
          "background_start_color" : "#F4F5F5",
          "right_image" : ""
        }
      ],
      "recipe_tags" : [
        "{\n    \"background_border_color\" = \"\";\n    \"background_end_color\" = \"#F5D39F\";\n    \"background_start_color\" = \"#FAE9CD\";\n    \"jump_url\" = \"recipes:\/\/www.douguo.com\/introdietitian\";\n    \"left_image\" = \"https:\/\/i1.douguo.com\/upload\/caiku\/4\/e\/8\/4ec0a3547dfdb0e8541ff7b7b61b2578.png\";\n    \"right_image\" = \"https:\/\/i1.douguo.com\/upload\/caiku\/0\/a\/b\/0a317d98c713e7e7d0d47ed003f2d93b.png\";\n    text = \"\\U51cf\\U8102\\U83dc\\U8c31\";\n    \"text_color\" = \"#413C32\";\n}"
      ],
      "original_photo_path" : "http:\/\/i1.douguo.net\/upload\/caiku\/7\/5\/1\/yuan_753f74314be0b1e67c44fdba4a5db611.jpeg",
      "ecs" : 0,
      "su" : "",
      "cook_id" : "1676204",
      "related_ads" : [

      ],
      "cook_time" : "10分钟左右",
      "title_ad" : [

      ],
      "recommended" : 0,
      "pw" : 800,
      "dishes" : [

      ],
      "notes" : [

      ],
      "favo_counts" : 741,
      "rdsps" : [

      ],
      "share_info" : {
        "infos" : [
          {
            "s_d" : "#学做饭用豆果美食# 会做饭真是太酷了！我在@豆果美食 分享了【云南菜_两亩地-会做饭很酷!】，这道菜真的神仙美味！喜欢的一定要试试绝对不会错的！～查看图片了解菜谱（快来点击https:\/\/m.weibo.cn\/p\/100404i33631和我一起修炼厨艺吧）",
            "channel" : "1",
            "name" : "云南菜_两亩地-会做饭很酷!",
            "s_u" : "",
            "mini_program" : [

            ],
            "qr_image" : "",
            "image" : "https:\/\/cp1.douguo.com\/upload\/caiku\/7\/5\/1\/753f74314be0b1e67c44fdba4a5db611.jpeg",
            "object_id" : "1676204"
          },
          {
            "image" : "https:\/\/cp1.douguo.com\/upload\/caiku\/7\/5\/1\/753f74314be0b1e67c44fdba4a5db611.jpeg",
            "object_id" : "1676204",
            "mini_program" : [

            ],
            "qr_image" : "",
            "channel" : "7",
            "s_d" : "云南菜_两亩地-会做饭很酷!",
            "name" : "云南菜_两亩地-会做饭很酷!",
            "s_u" : "http:\/\/m.douguo.com\/cookbook\/1676204.html"
          },
          {
            "channel" : "8",
            "qr_image" : "",
            "image" : "https:\/\/cp1.douguo.com\/upload\/caiku\/7\/5\/1\/753f74314be0b1e67c44fdba4a5db611.jpeg",
            "mini_program" : [

            ],
            "s_d" : "云南菜_两亩地-会做饭很酷!",
            "s_u" : "http:\/\/m.douguo.com\/cookbook\/1676204.html",
            "name" : "云南菜_两亩地-会做饭很酷!",
            "object_id" : "1676204"
          }
        ],
        "image" : "https:\/\/cp1.douguo.com\/upload\/caiku\/7\/5\/1\/753f74314be0b1e67c44fdba4a5db611.jpeg",
        "qr_image" : "",
        "s_u" : "http:\/\/m.douguo.com\/cookbook\/1676204.html",
        "name" : "云南菜_两亩地-会做饭很酷!",
        "mini_program" : [

        ],
        "object_id" : "1676204",
        "s_d" : "云南菜_两亩地-会做饭很酷!"
      },
      "rewarded_video_dsp" : [

      ],
      "rate_show" : 0,
      "display_ingredient" : 1,
      "guide_image" : "",
      "minor" : [

      ],
      "title" : "云南菜_两亩地",
      "create_time" : "2018-05-19 11:50:10",
      "advice" : {
        "da" : {
          "iu" : "https:\/\/i1.douguo.com\/upload\/banner\/f\/4\/d\/f48877e53c37759bc12ac494be82ec8d.png",
          "t" : "查看详细分析",
          "url" : "https:\/\/m.douguo.com\/recipe\/nutrient_self\/1676204"
        },
        "at" : "对血管有保护作用～",
        "has" : [
          {
            "url" : "recipes:\/\/www.douguo.com\/simplerecipelist?t=低饱和脂肪&id=低饱和脂肪",
            "t" : "低饱和脂肪"
          },
          {
            "url" : "recipes:\/\/www.douguo.com\/simplerecipelist?t=富含膳食纤维&id=富含膳食纤维",
            "t" : "富含膳食纤维"
          }
        ]
      },
      "author" : "厨娘四月",
      "cook_difficulty" : "切墩(初级)",
      "ipurl" : "",
      "author_photo" : "http:\/\/tx1.douguo.net\/upload\/photo\/0\/d\/a\/70_u0435413432491132823.jpeg",
      "cookstorys" : [
        {
          "type" : 0,
          "u" : "",
          "c" : "14年来云南旅游，15年来这边工作，16年结婚，17年打算定居这里了……。两亩地是同事们下馆子常点的一道菜，颜值高，味道也好。今天安利给大家，这道菜主要是保留了食材的新鲜。\n",
          "color" : "",
          "id" : 0,
          "icon" : ""
        }
      ],
      "hq" : 0,
      "clicks" : "94681",
      "thumb_height" : 0,
      "v_u" : "",
      "ph" : 800,
      "ss" : [

      ],
      "purl" : "",
      "story_dsp" : [

      ],
      "comments_count" : 15,
      "tips" : "这道菜要嫩，速度要快，炒的时间不能长了，不然就破坏了食材的鲜味。",
      "act_des" : "",
      "brand_day_dsp" : [

      ],
      "vfurl" : "",
      "views_count_text" : "11.0万",
      "cook_time_image" : "https:\/\/i1.douguo.com\/upload\/banner\/1551424358.png",
      "ipit" : 0,
      "ipoi" : "",
      "thumb_path" : "https:\/\/i1.douguo.com\/upload\/caiku\/7\/5\/1\/300_753f74314be0b1e67c44fdba4a5db611.jpeg",
      "sc" : 0,
      "recommendation_tag" : "",
      "old_comments" : [

      ],
      "rsm" : "该功能暂停使用",
      "eu" : "recipes:\/\/www.douguo.com\/postdetail?id=242016",
      "author_verified" : 0,
      "collect_status" : 0,
      "favo_counts_text" : "741",
      "ssu" : "",
      "top_mdsp" : [

      ],
      "author_id" : 4731302,
      "photo_path" : "https:\/\/i1.douguo.com\/upload\/caiku\/7\/5\/1\/600_753f74314be0b1e67c44fdba4a5db611.jpeg",
      "levelid" : 3,
      "comments_count_text" : "15",
      "packages_id" : [

      ],
      "cookstory" : "14年来云南旅游，15年来这边工作，16年结婚，17年打算定居这里了……。两亩地是同事们下馆子常点的一道菜，颜值高，味道也好。今天安利给大家，这道菜主要是保留了食材的新鲜。\n",
      "vu" : "",
      "image" : "http:\/\/i1.douguo.net\/upload\/caiku\/7\/5\/1\/300_753f74314be0b1e67c44fdba4a5db611.jpeg",
      "ipci" : "",
      "sr" : "",
      "btm_dsp" : [

      ],
      "bs" : [

      ],
      "dish_count" : 1,
      "rips" : 0,
      "rrpt" : "",
      "recommend_label" : "1人学做",
      "first_level_comment_count" : 8,
      "cookstep" : [
        {
          "position" : 1,
          "content" : "1.准备食材，我比较懒，直接去菜市场买呢剥好的。",
          "frame" : "-1",
          "image_height" : 800,
          "image" : "https:\/\/i1.douguo.com\/upload\/caiku\/6\/3\/3\/632823ef32208e4fdca1d5cd9f5a7713.jpeg",
          "thumb" : "https:\/\/i1.douguo.com\/upload\/caiku\/6\/3\/3\/140_632823ef32208e4fdca1d5cd9f5a7713.jpeg",
          "image_width" : 800
        },
        {
          "position" : 2,
          "image" : "https:\/\/i1.douguo.com\/upload\/caiku\/c\/2\/8\/c287be3d42a22700a4ee4ff429cf1c08.jpeg",
          "thumb" : "https:\/\/i1.douguo.com\/upload\/caiku\/c\/2\/8\/140_c287be3d42a22700a4ee4ff429cf1c08.jpeg",
          "frame" : "-1",
          "image_width" : 800,
          "content" : "热锅冷油，先把豌豆炒炒，中火翻炒1分钟。",
          "image_height" : 800
        },
        {
          "thumb" : "https:\/\/i1.douguo.com\/upload\/caiku\/e\/8\/d\/140_e8174a5c135f047c2b852eec44ab849d.jpeg",
          "image_height" : 800,
          "position" : 3,
          "image_width" : 800,
          "content" : "倒入少许水，来点盐，继续翻炒，至豌豆刚刚熟了即可。",
          "frame" : "-1",
          "image" : "https:\/\/i1.douguo.com\/upload\/caiku\/e\/8\/d\/e8174a5c135f047c2b852eec44ab849d.jpeg"
        },
        {
          "image_width" : 800,
          "image_height" : 800,
          "thumb" : "https:\/\/i1.douguo.com\/upload\/caiku\/1\/f\/d\/140_1f3fa52c1b20d8849ed00187740004bd.jpeg",
          "frame" : "-1",
          "image" : "https:\/\/i1.douguo.com\/upload\/caiku\/1\/f\/d\/1f3fa52c1b20d8849ed00187740004bd.jpeg",
          "position" : 4,
          "content" : "下玉米，大火翻炒2分钟。"
        },
        {
          "position" : 5,
          "image" : "https:\/\/i1.douguo.com\/upload\/caiku\/0\/4\/f\/04422cfaf3d08396318347b99b99f36f.jpeg",
          "image_height" : 800,
          "image_width" : 800,
          "thumb" : "https:\/\/i1.douguo.com\/upload\/caiku\/0\/4\/f\/140_04422cfaf3d08396318347b99b99f36f.jpeg",
          "frame" : "-1",
          "content" : "出锅装盘，颜值即是正义的一道菜。玉米清甜，豌豆清新。"
        }
      ],
      "rpid" : 0,
      "rpst" : "",
      "ipia" : [

      ],
      "cookwares" : [

      ],
      "ipt" : "",
      "release_time" : "",
      "tags" : [

      ],
      "mid_mdsp" : [

      ]
    }
  }
}