{
  "status" : 0,
  "result" : {
    "recipe" : {
      "cookstorys" : [
        {
          "type" : 0,
          "u" : "",
          "icon" : "",
          "color" : "",
          "c" : "夏天了，换个吃法，来一道清新爽口的凉拌空心菜",
          "id" : 0
        }
      ],
      "rate_show" : 0,
      "author_id" : 22332576,
      "bs" : [

      ],
      "title_ad" : [

      ],
      "original_photo_path" : "http:\/\/i1.douguo.net\/upload\/caiku\/c\/8\/0\/yuan_c8face14b18ca2bbd845c4346b607ae0.jpeg",
      "story_dsp" : [

      ],
      "cook_time" : "10~30分钟",
      "vfurl" : "",
      "clicks" : "1152712",
      "pw" : 1692,
      "ss" : [

      ],
      "recent_comments" : [

      ],
      "advice" : {
        "da" : {
          "url" : "https:\/\/m.douguo.com\/recipe\/nutrient_self\/2305104",
          "iu" : "https:\/\/i1.douguo.com\/upload\/banner\/f\/4\/d\/f48877e53c37759bc12ac494be82ec8d.png",
          "t" : "查看详细分析"
        },
        "at" : "可以预防血栓形成～",
        "has" : [
          {
            "t" : "低饱和脂肪",
            "url" : "recipes:\/\/www.douguo.com\/simplerecipelist?t=低饱和脂肪&id=低饱和脂肪"
          }
        ]
      },
      "dish_count" : 11,
      "author_verified" : 1,
      "release_time" : "",
      "purl" : "",
      "rate_count" : 9,
      "rips" : 0,
      "su" : "",
      "cookwares" : [

      ],
      "cookstep" : [
        {
          "image_width" : 1280,
          "frame" : "-1",
          "thumb" : "https:\/\/i1.douguo.com\/upload\/caiku\/f\/6\/1\/140_f62c9aae52d88d7971b5835911b4b171.jpeg",
          "image" : "https:\/\/i1.douguo.com\/upload\/caiku\/f\/6\/1\/f62c9aae52d88d7971b5835911b4b171.jpeg",
          "image_height" : 842,
          "position" : 1,
          "content" : "空心菜摘洗干净切小段，梗和叶分开放"
        },
        {
          "image_width" : 1280,
          "content" : "水里放少许盐，滚开后先倒入空心菜梗部分",
          "image_height" : 842,
          "image" : "https:\/\/i1.douguo.com\/upload\/caiku\/5\/8\/8\/58d4be2909d88553086f20c77db00b68.jpeg",
          "frame" : "-1",
          "thumb" : "https:\/\/i1.douguo.com\/upload\/caiku\/5\/8\/8\/140_58d4be2909d88553086f20c77db00b68.jpeg",
          "position" : 2
        },
        {
          "image_height" : 842,
          "image_width" : 1280,
          "thumb" : "https:\/\/i1.douguo.com\/upload\/caiku\/b\/3\/d\/140_b32a82a700bbfdc44ed7529bf3a9b49d.jpeg",
          "content" : "大约半分钟后倒入菜叶部分，再过半分钟就关火捞出",
          "image" : "https:\/\/i1.douguo.com\/upload\/caiku\/b\/3\/d\/b32a82a700bbfdc44ed7529bf3a9b49d.jpeg",
          "position" : 3,
          "frame" : "-1"
        },
        {
          "content" : "捞出后过冷水，然后沥水备用",
          "image" : "https:\/\/i1.douguo.com\/upload\/caiku\/c\/7\/6\/c72900a03aa4a5dfdfb26c2386f6f706.jpeg",
          "frame" : "-1",
          "thumb" : "https:\/\/i1.douguo.com\/upload\/caiku\/c\/7\/6\/140_c72900a03aa4a5dfdfb26c2386f6f706.jpeg",
          "position" : 4,
          "image_width" : 1126,
          "image_height" : 1711
        },
        {
          "image" : "https:\/\/i1.douguo.com\/upload\/caiku\/6\/d\/d\/6d22a9a6968275be5f789bbb1a0143ad.jpeg",
          "frame" : "-1",
          "position" : 5,
          "thumb" : "https:\/\/i1.douguo.com\/upload\/caiku\/6\/d\/d\/140_6d22a9a6968275be5f789bbb1a0143ad.jpeg",
          "content" : "蒜切碎，加一勺清水拌匀，然后加一勺耗油（普通小汤勺）",
          "image_width" : 1280,
          "image_height" : 842
        },
        {
          "content" : "两勺生抽，一勺香油，（普通小汤勺）",
          "image" : "https:\/\/i1.douguo.com\/upload\/caiku\/c\/b\/d\/cb927fc63ce764ad0a6717f693a7b29d.jpeg",
          "frame" : "-1",
          "thumb" : "https:\/\/i1.douguo.com\/upload\/caiku\/c\/b\/d\/140_cb927fc63ce764ad0a6717f693a7b29d.jpeg",
          "image_height" : 842,
          "image_width" : 1280,
          "position" : 6
        },
        {
          "position" : 7,
          "frame" : "-1",
          "image_height" : 842,
          "image_width" : 1280,
          "content" : "加少量盐，拌匀",
          "thumb" : "https:\/\/i1.douguo.com\/upload\/caiku\/8\/9\/7\/140_890fa1ce5685ee4035664d3cdca2a7f7.jpeg",
          "image" : "https:\/\/i1.douguo.com\/upload\/caiku\/8\/9\/7\/890fa1ce5685ee4035664d3cdca2a7f7.jpeg"
        },
        {
          "image_height" : 842,
          "frame" : "-1",
          "thumb" : "https:\/\/i1.douguo.com\/upload\/caiku\/8\/6\/d\/140_86b89cd9bd1d15cc213b7be4c2bc5c6d.jpeg",
          "content" : "然后把调味汁倒在准备好的空心菜上就可以了",
          "position" : 8,
          "image" : "https:\/\/i1.douguo.com\/upload\/caiku\/8\/6\/d\/86b89cd9bd1d15cc213b7be4c2bc5c6d.jpeg",
          "image_width" : 1280
        },
        {
          "image_width" : 1280,
          "position" : 9,
          "image_height" : 842,
          "thumb" : "https:\/\/i1.douguo.com\/upload\/caiku\/6\/e\/e\/140_6e2d9868a36291712ef1b82ea7be8d9e.jpeg",
          "content" : "成品图",
          "image" : "https:\/\/i1.douguo.com\/upload\/caiku\/6\/e\/e\/6e2d9868a36291712ef1b82ea7be8d9e.jpeg",
          "frame" : "-1"
        },
        {
          "frame" : "-1",
          "image" : "https:\/\/i1.douguo.com\/upload\/caiku\/d\/f\/0\/df1c753a86cd40574f5d669fd7879b60.jpeg",
          "image_height" : 850,
          "content" : "成品图",
          "image_width" : 1280,
          "thumb" : "https:\/\/i1.douguo.com\/upload\/caiku\/d\/f\/0\/140_df1c753a86cd40574f5d669fd7879b60.jpeg",
          "position" : 10
        }
      ],
      "minor" : [

      ],
      "recommendation_tag" : "",
      "share_info" : {
        "infos" : [
          {
            "mini_program" : [

            ],
            "object_id" : "2305104",
            "image" : "https:\/\/cp1.douguo.com\/upload\/caiku\/c\/8\/0\/c8face14b18ca2bbd845c4346b607ae0.jpeg",
            "channel" : "1",
            "s_u" : "",
            "s_d" : "#学做饭用豆果美食# 我在@豆果美食 分享了【#童年不同样，美食有花样#凉拌空心菜-会做饭很酷!】，哟，集美们～你看这是神仙美味～快跟着我做一份，做一份！查看图片了解菜谱（更多美食秘籍点击https:\/\/m.weibo.cn\/p\/100404i33631获取）#会做饭很酷# ",
            "qr_image" : "",
            "name" : "#童年不同样，美食有花样#凉拌空心菜-会做饭很酷!"
          },
          {
            "channel" : "7",
            "qr_image" : "",
            "image" : "https:\/\/cp1.douguo.com\/upload\/caiku\/c\/8\/0\/c8face14b18ca2bbd845c4346b607ae0.jpeg",
            "object_id" : "2305104",
            "mini_program" : [

            ],
            "name" : "#童年不同样，美食有花样#凉拌空心菜-会做饭很酷!",
            "s_d" : "#童年不同样，美食有花样#凉拌空心菜-会做饭很酷!",
            "s_u" : "http:\/\/m.douguo.com\/cookbook\/2305104.html"
          },
          {
            "qr_image" : "",
            "channel" : "8",
            "name" : "#童年不同样，美食有花样#凉拌空心菜-会做饭很酷!",
            "s_u" : "http:\/\/m.douguo.com\/cookbook\/2305104.html",
            "mini_program" : [

            ],
            "object_id" : "2305104",
            "s_d" : "#童年不同样，美食有花样#凉拌空心菜-会做饭很酷!",
            "image" : "https:\/\/cp1.douguo.com\/upload\/caiku\/c\/8\/0\/c8face14b18ca2bbd845c4346b607ae0.jpeg"
          }
        ],
        "s_d" : "#童年不同样，美食有花样#凉拌空心菜-会做饭很酷!",
        "object_id" : "2305104",
        "image" : "https:\/\/cp1.douguo.com\/upload\/caiku\/c\/8\/0\/c8face14b18ca2bbd845c4346b607ae0.jpeg",
        "mini_program" : [

        ],
        "name" : "#童年不同样，美食有花样#凉拌空心菜-会做饭很酷!",
        "s_u" : "http:\/\/m.douguo.com\/cookbook\/2305104.html",
        "qr_image" : ""
      },
      "ipoi" : "",
      "first_level_comment_count" : 6,
      "views_count_text" : "122.9万",
      "ecs" : 0,
      "ipurl" : "",
      "thumb_height" : 0,
      "rpt" : "",
      "cook_difficulty_image" : "https:\/\/i1.douguo.com\/upload\/banner\/1551424390.png",
      "thumb_path" : "https:\/\/i1.douguo.com\/upload\/caiku\/c\/8\/0\/300_c8face14b18ca2bbd845c4346b607ae0.jpeg",
      "rrpt" : "",
      "image" : "http:\/\/i1.douguo.net\/upload\/caiku\/c\/8\/0\/300_c8face14b18ca2bbd845c4346b607ae0.jpeg",
      "display_ingredient" : 1,
      "rewarded_video_dsp" : [

      ],
      "event" : {
        "id" : 0
      },
      "comments_count_text" : "16",
      "rpid" : 0,
      "eu" : "recipes:\/\/www.douguo.com\/postdetail?id=242016",
      "cookstory" : "夏天了，换个吃法，来一道清新爽口的凉拌空心菜",
      "favo_counts_text" : "9367",
      "user" : {
        "coursecount" : 0,
        "lv" : 0,
        "user_photo" : "http:\/\/tx1.douguo.net\/upload\/photo\/9\/b\/e\/70_u31360590786236102818.jpeg",
        "birthday" : "",
        "weibo_nick" : "",
        "age" : "",
        "userid" : "22332576",
        "progress_image" : "",
        "pc" : 0,
        "diaries_count" : 0,
        "mobile" : "",
        "fc" : 0,
        "following_count" : 0,
        "point" : 0,
        "favorites_count" : 0,
        "favor_diaries_count" : 0,
        "is_prime" : 0,
        "subscription" : 0,
        "avatar_medium" : "http:\/\/tx1.douguo.net\/upload\/photo\/9\/b\/e\/140_u31360590786236102818.jpeg",
        "sign" : "",
        "verified" : 1,
        "setted_email" : 0,
        "user_large_photo" : "http:\/\/tx1.douguo.net\/upload\/photo\/9\/b\/e\/yuan_u31360590786236102818.jpeg",
        "verified_url" : "https:\/\/m.douguo.com\/user\/prodesc",
        "qq_weibo_nick" : "",
        "location" : 0,
        "user_cover" : "",
        "gender" : 2,
        "followers_count" : 0,
        "introduction" : "",
        "lvl" : 6,
        "qzone_nick" : "",
        "nick" : "鹿鹿的漂亮妈咪",
        "recipes_count" : 0,
        "regist_time" : "",
        "email" : "",
        "subscription_article_count" : 0,
        "dishes_count" : 0,
        "verified_image" : "https:\/\/i1.douguo.com\/upload\/note\/d\/a\/a\/da84247847aebe48d9dd0fcdac88862a.png",
        "user_id" : "22332576"
      },
      "comments_count" : 16,
      "mid_mdsp" : [

      ],
      "btm_dsp" : [

      ],
      "tips" : "♡一定要注意汆烫时间哦，太久口感就不好了\n♡耗油和生抽都有咸度，所以后面盐要少一点",
      "top_mdsp" : [

      ],
      "sc" : 0,
      "collect_status" : 0,
      "notes" : [

      ],
      "levelid" : 2,
      "old_comments" : [

      ],
      "guide_image" : "",
      "vc" : "1229133",
      "brand_day_dsp" : [

      ],
      "cook_difficulty" : "切墩(初级)",
      "ssu" : "",
      "ipt" : "",
      "rdsps" : [

      ],
      "act_des" : "",
      "rpst" : "",
      "hq" : 1,
      "favo_counts" : 9367,
      "rsm" : "该功能暂停使用",
      "create_time" : "2019-06-04 06:39:28",
      "recipe_list_tags" : [
        {
          "background_start_color" : "#F4F5F5",
          "jump_url" : "",
          "text_color" : "#141515",
          "text" : "关注的人",
          "background_end_color" : "#F4F5F5",
          "right_image" : "",
          "background_border_color" : ""
        },
        {
          "background_start_color" : "#F4F5F5",
          "text_color" : "#141515",
          "text" : "内容详细",
          "background_border_color" : "",
          "background_end_color" : "#F4F5F5",
          "jump_url" : "",
          "right_image" : ""
        }
      ],
      "cook_id" : "2305104",
      "recipe_tags" : [

      ],
      "related_ads" : [

      ],
      "dishes" : [

      ],
      "photo_path" : "https:\/\/i1.douguo.com\/upload\/caiku\/c\/8\/0\/600_c8face14b18ca2bbd845c4346b607ae0.jpeg",
      "major" : [
        {
          "title" : "空心菜",
          "note" : "250g",
          "tu" : "https:\/\/m.douguo.com\/ingredients\/空心菜\/detailmaterial"
        },
        {
          "note" : "四瓣",
          "tu" : "https:\/\/m.douguo.com\/ingredients\/蒜\/detailmaterial",
          "title" : "蒜"
        },
        {
          "tu" : "https:\/\/m.douguo.com\/ingredients\/盐\/detailmaterial",
          "note" : "适量",
          "title" : "盐"
        },
        {
          "note" : "一勺",
          "title" : "耗油",
          "tu" : "https:\/\/m.douguo.com\/ingredients\/耗油\/detailmaterial"
        },
        {
          "note" : "两勺香油",
          "title" : "生抽",
          "tu" : "https:\/\/m.douguo.com\/ingredients\/生抽\/detailmaterial"
        },
        {
          "note" : "一勺",
          "title" : "香油",
          "tu" : "https:\/\/m.douguo.com\/ingredients\/香油\/detailmaterial"
        }
      ],
      "recommend_label" : "11人学做",
      "ipia" : [

      ],
      "dish_count_text" : "11",
      "ipit" : 0,
      "rate" : 5,
      "rcs" : [

      ],
      "author_photo" : "http:\/\/tx1.douguo.net\/upload\/photo\/9\/b\/e\/70_u31360590786236102818.jpeg",
      "v_u" : "",
      "sr" : "",
      "rrps" : [

      ],
      "ph" : 1124,
      "hqu" : "recipes:\/\/www.douguo.com\/notedetail?id=21162253",
      "packages_id" : [

      ],
      "author" : "鹿鹿的漂亮妈咪",
      "ipci" : "",
      "recommended" : 0,
      "title" : "凉拌空心菜",
      "tags" : [

      ],
      "vu" : "",
      "cook_time_image" : "https:\/\/i1.douguo.com\/upload\/banner\/1551424341.png",
      "comments" : [
        "{\n    ac = \"#999999\";\n    at = \"\";\n    ccc = 5;\n    \"child_comments\" =     (\n                {\n            ac = \"#999999\";\n            at = \"\\U82cf\\U5dde\\U5e02\";\n            ccc = 0;\n            city = \"\\U82cf\\U5dde\\U5e02\";\n            cmc = 2;\n            content =             (\n                                {\n                    c = \" \\U54c8\\U54c8\\Ud83d\\Ude00\\U522b\\U62c5\\U5fc3\\Uff0c\\U597d\\U5403\\U5c31\\U597d\";\n                }\n            );\n            ia = 1;\n            id = 6971631;\n            \"ip_address_location\" = \"\";\n            like = 0;\n            \"like_count\" = 0;\n            \"reply_id\" = 6970585;\n            \"reply_user\" =             {\n                \"followers_count_text\" = \"\";\n                id = 18454251;\n                \"is_prime\" = 0;\n                lv = 0;\n                lvl = 3;\n                n = \"\\U79cb\\U79cb\\U79cb2932\";\n                p = \"http:\/\/tx1.douguo.net\/upload\/photo\/4\/7\/9\/70_u77525459515756183906.jpg\";\n                \"progress_image\" = \"\";\n                \"recipes_count_text\" = \"\";\n                relationship = \"-1\";\n                title = \"\";\n                v = 0;\n                \"verified_image\" = \"\";\n            };\n            \"sticker_icon\" =             (\n            );\n            time = \"2019-08-27 22:08:48\";\n            u =             {\n                \"followers_count_text\" = \"\";\n                id = 22332576;\n                \"is_prime\" = 1;\n                lv = 0;\n                lvl = 6;\n                n = \"\\U9e7f\\U9e7f\\U7684\\U6f02\\U4eae\\U5988\\U54aa\";\n                p = \"http:\/\/tx1.douguo.net\/upload\/photo\/9\/b\/e\/70_u31360590786236102818.jpeg\";\n                \"progress_image\" = \"\";\n                \"recipes_count_text\" = \"\";\n                relationship = \"-1\";\n                title = \"\";\n                v = 1;\n                \"verified_image\" = \"\";\n            };\n        },\n                {\n            ac = \"#999999\";\n            at = \"\";\n            ccc = 0;\n            city = \"\";\n            cmc = 2;\n            content =             (\n                                {\n                    c = \" \\U7a7a\\U5fc3\\U83dc\\U600e\\U4e48\\U4f1a\\U80d6\\Uff1f\";\n                }\n            );\n            ia = 0;\n            id = 8010011;\n            \"ip_address_location\" = \"\";\n            like = 0;\n            \"like_count\" = 0;\n            \"reply_id\" = 6970585;\n            \"reply_user\" =             {\n                \"followers_count_text\" = \"\";\n                id = 18454251;\n                \"is_prime\" = 0;\n                lv = 0;\n                lvl = 3;\n                n = \"\\U79cb\\U79cb\\U79cb2932\";\n                p = \"http:\/\/tx1.douguo.net\/upload\/photo\/4\/7\/9\/70_u77525459515756183906.jpg\";\n                \"progress_image\" = \"\";\n                \"recipes_count_text\" = \"\";\n                relationship = \"-1\";\n                title = \"\";\n                v = 0;\n                \"verified_image\" = \"\";\n            };\n            \"sticker_icon\" =             (\n            );\n            time = \"2020-05-24 19:04:04\";\n            u =             {\n                \"followers_count_text\" = \"\";\n                id = 18674366;\n                \"is_prime\" = 0;\n                lv = 0;\n                lvl = 1;\n                n = \"\\U60f3\\U5f53\\U7136\";\n                p = \"http:\/\/tx1.douguo.net\/upload\/photo\/3\/2\/c\/70_u74026083502928194124.jpeg\";\n                \"progress_image\" = \"\";\n                \"recipes_count_text\" = \"\";\n                relationship = \"-1\";\n                title = \"\";\n                v = 0;\n                \"verified_image\" = \"\";\n            };\n        }\n    );\n    city = \"\";\n    cmc = 2;\n    content =     (\n                {\n            c = \"\\U597d\\U5403~\\U4f46\\U6015\\U80d6~\\U53ef\\U592a\\U8bf1\\U4eba\\U4e86~\\U5c11\\U5403\\U70b9\";\n        }\n    );\n    ia = 0;\n    id = 6970585;\n    \"ip_address_location\" = \"\";\n    like = 0;\n    \"like_count\" = 1;\n    \"reply_id\" = 0;\n    \"sticker_icon\" =     (\n    );\n    time = \"2019-08-27 18:59:10\";\n    u =     {\n        \"followers_count_text\" = \"\";\n        id = 18454251;\n        \"is_prime\" = 0;\n        lv = 0;\n        lvl = 3;\n        n = \"\\U79cb\\U79cb\\U79cb2932\";\n        p = \"http:\/\/tx1.douguo.net\/upload\/photo\/4\/7\/9\/70_u77525459515756183906.jpg\";\n        \"progress_image\" = \"\";\n        \"recipes_count_text\" = \"\";\n        relationship = \"-1\";\n        title = \"\";\n        v = 0;\n        \"verified_image\" = \"\";\n    };\n}",
        "{\n    ac = \"#999999\";\n    at = \"\\U5317\\U4eac\\U5e02\";\n    ccc = 1;\n    \"child_comments\" =     (\n                {\n            ac = \"#999999\";\n            at = \"\\U82cf\\U5dde\\U5e02\";\n            ccc = 0;\n            city = \"\\U82cf\\U5dde\\U5e02\";\n            cmc = 2;\n            content =             (\n                                {\n                    c = \" \\U8c22\\U8c22\\Ud83d\\Ude18\\Ud83d\\Ude18\";\n                }\n            );\n            ia = 1;\n            id = 6971632;\n            \"ip_address_location\" = \"\";\n            like = 0;\n            \"like_count\" = 0;\n            \"reply_id\" = 6971555;\n            \"reply_user\" =             {\n                \"followers_count_text\" = \"\";\n                id = 20500286;\n                \"is_prime\" = 0;\n                lv = 0;\n                lvl = 8;\n                n = \"\\U5f00\\U5fc3qbrt\";\n                p = \"http:\/\/tx1.douguo.net\/upload\/photo\/2\/6\/1\/70_u98436623453473183249.jpg\";\n                \"progress_image\" = \"\";\n                \"recipes_count_text\" = \"\";\n                relationship = \"-1\";\n                title = \"\";\n                v = 0;\n                \"verified_image\" = \"\";\n            };\n            \"sticker_icon\" =             (\n            );\n            time = \"2019-08-27 22:08:59\";\n            u =             {\n                \"followers_count_text\" = \"\";\n                id = 22332576;\n                \"is_prime\" = 1;\n                lv = 0;\n                lvl = 6;\n                n = \"\\U9e7f\\U9e7f\\U7684\\U6f02\\U4eae\\U5988\\U54aa\";\n                p = \"http:\/\/tx1.douguo.net\/upload\/photo\/9\/b\/e\/70_u31360590786236102818.jpeg\";\n                \"progress_image\" = \"\";\n                \"recipes_count_text\" = \"\";\n                relationship = \"-1\";\n                title = \"\";\n                v = 1;\n                \"verified_image\" = \"\";\n            };\n        }\n    );\n    city = \"\\U5317\\U4eac\\U5e02\";\n    cmc = 2;\n    content =     (\n                {\n            c = \"\\U597d\\U597d\\U5403\";\n        }\n    );\n    ia = 0;\n    id = 6971555;\n    \"ip_address_location\" = \"\";\n    like = 0;\n    \"like_count\" = 1;\n    \"reply_id\" = 0;\n    \"sticker_icon\" =     (\n    );\n    time = \"2019-08-27 21:58:51\";\n    u =     {\n        \"followers_count_text\" = \"\";\n        id = 20500286;\n        \"is_prime\" = 0;\n        lv = 0;\n        lvl = 8;\n        n = \"\\U5f00\\U5fc3qbrt\";\n        p = \"http:\/\/tx1.douguo.net\/upload\/photo\/2\/6\/1\/70_u98436623453473183249.jpg\";\n        \"progress_image\" = \"\";\n        \"recipes_count_text\" = \"\";\n        relationship = \"-1\";\n        title = \"\";\n        v = 0;\n        \"verified_image\" = \"\";\n    };\n}",
        "{\n    ac = \"#999999\";\n    at = \"\";\n    ccc = 1;\n    \"child_comments\" =     (\n                {\n            ac = \"#999999\";\n            at = \"\\U82cf\\U5dde\\U5e02\";\n            ccc = 0;\n            city = \"\\U82cf\\U5dde\\U5e02\";\n            cmc = 2;\n            content =             (\n                                {\n                    c = \" \\U8c22\\U8c22\\Ud83d\\Ude18\\Ud83d\\Ude18\\Ud83d\\Ude18\";\n                }\n            );\n            ia = 1;\n            id = 6971630;\n            \"ip_address_location\" = \"\";\n            like = 0;\n            \"like_count\" = 0;\n            \"reply_id\" = 6971040;\n            \"reply_user\" =             {\n                \"followers_count_text\" = \"\";\n                id = 23554955;\n                \"is_prime\" = 0;\n                lv = 0;\n                lvl = 3;\n                n = \"\\U6316\\U955c\\U513fyckp\";\n                p = \"http:\/\/tx1.douguo.net\/upload\/photo\/3\/0\/c\/70_u1747717410750329150528.jpg\";\n                \"progress_image\" = \"\";\n                \"recipes_count_text\" = \"\";\n                relationship = \"-1\";\n                title = \"\";\n                v = 0;\n                \"verified_image\" = \"\";\n            };\n            \"sticker_icon\" =             (\n            );\n            time = \"2019-08-27 22:08:22\";\n            u =             {\n                \"followers_count_text\" = \"\";\n                id = 22332576;\n                \"is_prime\" = 1;\n                lv = 0;\n                lvl = 6;\n                n = \"\\U9e7f\\U9e7f\\U7684\\U6f02\\U4eae\\U5988\\U54aa\";\n                p = \"http:\/\/tx1.douguo.net\/upload\/photo\/9\/b\/e\/70_u31360590786236102818.jpeg\";\n                \"progress_image\" = \"\";\n                \"recipes_count_text\" = \"\";\n                relationship = \"-1\";\n                title = \"\";\n                v = 1;\n                \"verified_image\" = \"\";\n            };\n        }\n    );\n    city = \"\";\n    cmc = 2;\n    content =     (\n                {\n            c = \"\\U975e\\U5e38\\U597d\\U5403\\U505a\\U51fa\\U6765\\Uff01\";\n        }\n    );\n    ia = 0;\n    id = 6971040;\n    \"ip_address_location\" = \"\";\n    like = 0;\n    \"like_count\" = 1;\n    \"reply_id\" = 0;\n    \"sticker_icon\" =     (\n    );\n    time = \"2019-08-27 20:01:10\";\n    u =     {\n        \"followers_count_text\" = \"\";\n        id = 23554955;\n        \"is_prime\" = 0;\n        lv = 0;\n        lvl = 3;\n        n = \"\\U6316\\U955c\\U513fyckp\";\n        p = \"http:\/\/tx1.douguo.net\/upload\/photo\/3\/0\/c\/70_u1747717410750329150528.jpg\";\n        \"progress_image\" = \"\";\n        \"recipes_count_text\" = \"\";\n        relationship = \"-1\";\n        title = \"\";\n        v = 0;\n        \"verified_image\" = \"\";\n    };\n}"
      ]
    }
  },
  "state" : "success"
}