{
  "status" : 0,
  "result" : {
    "recipe" : {
      "rsm" : "该功能暂停使用",
      "ipia" : [

      ],
      "author" : "食a色",
      "recipe_tags" : [

      ],
      "cookstorys" : [
        {
          "color" : "",
          "id" : 0,
          "u" : "",
          "type" : 0,
          "c" : "好像做蛋糕才能多多地消耗法罗夫。这个草莓法罗夫的蛋糕，不仅用了红曲粉来调色，还用了色素。虽然成品的颜色很好看，但是始终心存疑虑，此一红曲粉和彼一红曲粉颜色会不会有差异呢？\r\n没有加色素，只是红曲粉，最后也烤出个红色的戚风。不过，并不是想象中的嫩粉，而像是桃红色。也还不错，只要没有深到暗沉就行。\r\n这是一个很清淡的蛋糕，蛋黄糊中并没有添加任何糖类，所有的甜味都来自于法罗夫。嫌太清淡的话可以抹酱夹馅儿做卷。。。。。",
          "icon" : ""
        },
        {
          "u" : "",
          "icon" : "",
          "c" : "\n参与活动:",
          "color" : "",
          "type" : 0,
          "id" : 0
        },
        {
          "icon" : "",
          "c" : "#上传健康吃蛋日记  赢圣迪乐丰厚大奖#",
          "u" : "https:\/\/m.douguo.com\/activity\/ncpzj\/detail\/3528?isapp=1&open=0&_vs=1000300&&dg_refreshkey=publishnote",
          "type" : 0,
          "id" : 0
        }
      ],
      "sr" : "",
      "display_ingredient" : 1,
      "cook_time" : "30-60分钟",
      "minor" : [

      ],
      "cookstep" : [
        {
          "position" : 1,
          "content" : "用料：鸡蛋2个，低筋粉38克，草莓法罗夫棉花糖30克，玉米油20克，牛奶30克，红曲粉2克。",
          "image_width" : 460,
          "image" : "https:\/\/i1.douguo.com\/upload\/caiku\/e\/0\/3\/e09bc49f0ffd4dcea05f9e12546edfb3.jpg",
          "thumb" : "https:\/\/i1.douguo.com\/upload\/caiku\/e\/0\/3\/140_e09bc49f0ffd4dcea05f9e12546edfb3.jpg",
          "image_height" : 345,
          "frame" : "-1"
        },
        {
          "image_height" : 345,
          "frame" : "-1",
          "image" : "https:\/\/i1.douguo.com\/upload\/caiku\/c\/6\/6\/c65ea8f5b51032b3a7a60a72e2dacce6.jpg",
          "image_width" : 460,
          "position" : 2,
          "thumb" : "https:\/\/i1.douguo.com\/upload\/caiku\/c\/6\/6\/140_c65ea8f5b51032b3a7a60a72e2dacce6.jpg",
          "content" : "蛋黄打散，加入油搅拌均匀。"
        },
        {
          "image" : "https:\/\/i1.douguo.com\/upload\/caiku\/d\/9\/8\/d9c7b15d1ff31c893f3210b6f428cc18.jpg",
          "position" : 3,
          "image_height" : 345,
          "content" : "加入牛奶搅拌均匀。",
          "image_width" : 460,
          "frame" : "-1",
          "thumb" : "https:\/\/i1.douguo.com\/upload\/caiku\/d\/9\/8\/140_d9c7b15d1ff31c893f3210b6f428cc18.jpg"
        },
        {
          "position" : 4,
          "content" : "红曲粉与面粉一起筛入蛋黄液中。",
          "frame" : "-1",
          "image" : "https:\/\/i1.douguo.com\/upload\/caiku\/9\/a\/a\/9ae05b914955dde66c6e0d9090b040ba.jpg",
          "image_width" : 460,
          "thumb" : "https:\/\/i1.douguo.com\/upload\/caiku\/9\/a\/a\/140_9ae05b914955dde66c6e0d9090b040ba.jpg",
          "image_height" : 345
        },
        {
          "thumb" : "https:\/\/i1.douguo.com\/upload\/caiku\/9\/6\/2\/140_96ec6e49392824c6054b639ba083b792.jpg",
          "image_height" : 345,
          "frame" : "-1",
          "image" : "https:\/\/i1.douguo.com\/upload\/caiku\/9\/6\/2\/96ec6e49392824c6054b639ba083b792.jpg",
          "image_width" : 460,
          "position" : 5,
          "content" : "拌成均匀面糊，备用。"
        },
        {
          "image_width" : 460,
          "position" : 6,
          "content" : "法罗夫加入蛋白中。",
          "image" : "https:\/\/i1.douguo.com\/upload\/caiku\/7\/9\/0\/7975f831ffabcb81f3f280015a193910.jpg",
          "thumb" : "https:\/\/i1.douguo.com\/upload\/caiku\/7\/9\/0\/140_7975f831ffabcb81f3f280015a193910.jpg",
          "image_height" : 345,
          "frame" : "-1"
        },
        {
          "content" : "打发成带小弯钩的状态。",
          "image" : "https:\/\/i1.douguo.com\/upload\/caiku\/5\/d\/3\/5df4cd01f3057f5ea77a80f536ca9723.jpg",
          "position" : 7,
          "frame" : "-1",
          "image_width" : 460,
          "thumb" : "https:\/\/i1.douguo.com\/upload\/caiku\/5\/d\/3\/140_5df4cd01f3057f5ea77a80f536ca9723.jpg",
          "image_height" : 345
        },
        {
          "frame" : "-1",
          "image" : "https:\/\/i1.douguo.com\/upload\/caiku\/1\/b\/2\/1b0aa8206471717358f4dce68824f472.jpg",
          "thumb" : "https:\/\/i1.douguo.com\/upload\/caiku\/1\/b\/2\/140_1b0aa8206471717358f4dce68824f472.jpg",
          "image_height" : 345,
          "image_width" : 460,
          "content" : "取三分之一蛋白到蛋黄糊中，翻拌均匀。",
          "position" : 8
        },
        {
          "image" : "https:\/\/i1.douguo.com\/upload\/caiku\/6\/1\/1\/619980765fe3cd511d4b65ce0d0af8f1.jpg",
          "image_width" : 460,
          "position" : 9,
          "frame" : "-1",
          "image_height" : 345,
          "thumb" : "https:\/\/i1.douguo.com\/upload\/caiku\/6\/1\/1\/140_619980765fe3cd511d4b65ce0d0af8f1.jpg",
          "content" : "倒回剩下的蛋白中。"
        },
        {
          "frame" : "-1",
          "content" : "翻拌成均匀蛋糕糊。",
          "image" : "https:\/\/i1.douguo.com\/upload\/caiku\/a\/e\/9\/ae03fa9b7983fd67c27b36b0be5d0ea9.jpg",
          "thumb" : "https:\/\/i1.douguo.com\/upload\/caiku\/a\/e\/9\/140_ae03fa9b7983fd67c27b36b0be5d0ea9.jpg",
          "image_width" : 460,
          "position" : 10,
          "image_height" : 345
        },
        {
          "position" : 11,
          "image_height" : 345,
          "content" : "倒入6寸活底圆模，震平表面，磕出大泡。",
          "image" : "https:\/\/i1.douguo.com\/upload\/caiku\/4\/9\/a\/49d6b98ee4afbab6453967c680bf882a.jpg",
          "thumb" : "https:\/\/i1.douguo.com\/upload\/caiku\/4\/9\/a\/140_49d6b98ee4afbab6453967c680bf882a.jpg",
          "image_width" : 460,
          "frame" : "-1"
        },
        {
          "image_height" : 345,
          "position" : 12,
          "image_width" : 460,
          "content" : "放入烤箱中下层，上下火180度烤约50分钟左右。",
          "frame" : "-1",
          "image" : "https:\/\/i1.douguo.com\/upload\/caiku\/5\/d\/b\/5d122d98b9e4a69c88d5feb88f17ed1b.jpg",
          "thumb" : "https:\/\/i1.douguo.com\/upload\/caiku\/5\/d\/b\/140_5d122d98b9e4a69c88d5feb88f17ed1b.jpg"
        },
        {
          "image_width" : 460,
          "frame" : "-1",
          "thumb" : "https:\/\/i1.douguo.com\/upload\/caiku\/e\/6\/e\/140_e61ad84150a16f562f8cec4c2679a8de.jpg",
          "image_height" : 345,
          "content" : "出炉后立即倒扣，晾至彻底冷却。",
          "position" : 13,
          "image" : "https:\/\/i1.douguo.com\/upload\/caiku\/e\/6\/e\/e61ad84150a16f562f8cec4c2679a8de.jpg"
        },
        {
          "thumb" : "https:\/\/i1.douguo.com\/upload\/caiku\/5\/4\/4\/140_5485bd550171a15db9623beb46a58b14.jpg",
          "position" : 14,
          "frame" : "-1",
          "content" : "翻面。",
          "image_height" : 345,
          "image_width" : 460,
          "image" : "https:\/\/i1.douguo.com\/upload\/caiku\/5\/4\/4\/5485bd550171a15db9623beb46a58b14.jpg"
        },
        {
          "thumb" : "https:\/\/i1.douguo.com\/upload\/caiku\/a\/9\/6\/140_a929feebb070f044bec188dd20b1c096.jpg",
          "image_width" : 460,
          "content" : "脱模。",
          "image" : "https:\/\/i1.douguo.com\/upload\/caiku\/a\/9\/6\/a929feebb070f044bec188dd20b1c096.jpg",
          "frame" : "-1",
          "position" : 15,
          "image_height" : 345
        },
        {
          "image_width" : 460,
          "position" : 16,
          "image" : "https:\/\/i1.douguo.com\/upload\/caiku\/8\/b\/3\/8bf848675e071ad5640db8ba1f688f03.jpg",
          "thumb" : "https:\/\/i1.douguo.com\/upload\/caiku\/8\/b\/3\/140_8bf848675e071ad5640db8ba1f688f03.jpg",
          "content" : "切块食用。",
          "frame" : "-1",
          "image_height" : 345
        }
      ],
      "create_time" : "2022-08-13 09:11:39",
      "recommend_label" : "5548人刚刚收藏过",
      "share_info" : {
        "s_u" : "http:\/\/m.douguo.com\/cookbook\/3208371.html",
        "image" : "https:\/\/cp1.douguo.com\/upload\/caiku\/c\/d\/e\/cd9b1a8caf99974f88d4f7d2f93c1b6e.jpg",
        "qr_image" : "",
        "infos" : [
          {
            "object_id" : "3208371",
            "channel" : "1",
            "image" : "https:\/\/cp1.douguo.com\/upload\/caiku\/c\/d\/e\/cd9b1a8caf99974f88d4f7d2f93c1b6e.jpg",
            "qr_image" : "",
            "name" : "#未来航天员-健康吃蛋# 粉红草莓法罗夫戚风蛋糕-会做饭很酷!",
            "s_u" : "",
            "mini_program" : [

            ],
            "s_d" : "#学做饭用豆果美食#  我在@豆果美食 分享了【#未来航天员-健康吃蛋# 粉红草莓法罗夫戚风蛋糕-会做饭很酷!】，制作美食的过程承载了我生活中的热情，和我一起感受这份小确幸吧！查看图片了解菜谱（你喜欢的美食都在这里！https:\/\/m.weibo.cn\/p\/100404i33631）#会做饭很酷# "
          },
          {
            "channel" : "7",
            "s_u" : "http:\/\/m.douguo.com\/cookbook\/3208371.html",
            "mini_program" : [

            ],
            "qr_image" : "",
            "s_d" : "#未来航天员-健康吃蛋# 粉红草莓法罗夫戚风蛋糕-会做饭很酷!",
            "image" : "https:\/\/cp1.douguo.com\/upload\/caiku\/c\/d\/e\/cd9b1a8caf99974f88d4f7d2f93c1b6e.jpg",
            "name" : "#未来航天员-健康吃蛋# 粉红草莓法罗夫戚风蛋糕-会做饭很酷!",
            "object_id" : "3208371"
          },
          {
            "image" : "https:\/\/cp1.douguo.com\/upload\/caiku\/c\/d\/e\/cd9b1a8caf99974f88d4f7d2f93c1b6e.jpg",
            "channel" : "8",
            "s_d" : "#未来航天员-健康吃蛋# 粉红草莓法罗夫戚风蛋糕-会做饭很酷!",
            "mini_program" : [

            ],
            "s_u" : "http:\/\/m.douguo.com\/cookbook\/3208371.html",
            "object_id" : "3208371",
            "qr_image" : "",
            "name" : "#未来航天员-健康吃蛋# 粉红草莓法罗夫戚风蛋糕-会做饭很酷!"
          }
        ],
        "s_d" : "#未来航天员-健康吃蛋# 粉红草莓法罗夫戚风蛋糕-会做饭很酷!",
        "name" : "#未来航天员-健康吃蛋# 粉红草莓法罗夫戚风蛋糕-会做饭很酷!",
        "mini_program" : [

        ],
        "object_id" : "3208371"
      },
      "clicks" : "1",
      "rrpt" : "",
      "rpt" : "",
      "recommendation_tag" : "",
      "ssu" : "",
      "rpst" : "",
      "ipt" : "",
      "act_des" : "",
      "old_comments" : [

      ],
      "vu" : "",
      "hqu" : "recipes:\/\/www.douguo.com\/notedetail?id=21162253",
      "packages_id" : [

      ],
      "favo_counts_text" : "5548",
      "related_ads" : [

      ],
      "author_id" : 16878380,
      "advice" : {
        "da" : {
          "iu" : "https:\/\/i1.douguo.com\/upload\/banner\/f\/4\/d\/f48877e53c37759bc12ac494be82ec8d.png",
          "t" : "查看详细分析",
          "url" : "https:\/\/m.douguo.com\/recipe\/nutrient_self\/3208371"
        },
        "at" : "钠能调节机体水分，维持酸碱平衡～",
        "has" : [
          {
            "url" : "recipes:\/\/www.douguo.com\/simplerecipelist?t=低盐&id=低盐",
            "t" : "低盐"
          }
        ]
      },
      "image" : "http:\/\/i1.douguo.net\/upload\/caiku\/c\/d\/e\/300_cd9b1a8caf99974f88d4f7d2f93c1b6e.jpg",
      "collect_status" : 0,
      "top_mdsp" : [

      ],
      "hq" : 1,
      "title_ad" : [

      ],
      "rrps" : [

      ],
      "guide_image" : "",
      "release_time" : "",
      "cook_difficulty" : "切墩(初级)",
      "recipe_list_tags" : [
        {
          "background_start_color" : "#F4F5F5",
          "text" : "关注的人",
          "right_image" : "",
          "background_end_color" : "#F4F5F5",
          "text_color" : "#141515",
          "jump_url" : "",
          "background_border_color" : ""
        },
        {
          "right_image" : "",
          "jump_url" : "",
          "background_end_color" : "#F4F5F5",
          "text_color" : "#141515",
          "background_start_color" : "#F4F5F5",
          "text" : "内容详细",
          "background_border_color" : ""
        }
      ],
      "su" : "",
      "cookwares" : [

      ],
      "vc" : "168372",
      "thumb_path" : "https:\/\/i1.douguo.com\/upload\/caiku\/c\/d\/e\/300_cd9b1a8caf99974f88d4f7d2f93c1b6e.jpg",
      "ipci" : "",
      "notes" : [

      ],
      "rpid" : 0,
      "tips" : "红曲粉的用量可以根据自己想要的颜色深度酌情增减。\r\n烘烤时间与火力需根据实际情况酌情调整。",
      "comments_count_text" : "",
      "rate_count" : 0,
      "ph" : 387,
      "ecs" : 0,
      "ipurl" : "",
      "levelid" : 2,
      "sc" : 0,
      "brand_day_dsp" : [

      ],
      "author_verified" : 1,
      "views_count_text" : "16.8万",
      "pw" : 580,
      "ipoi" : "",
      "cook_id" : "3208371",
      "dish_count_text" : "",
      "comments" : [

      ],
      "favo_counts" : 5548,
      "recent_comments" : [

      ],
      "thumb_height" : 0,
      "tags" : [

      ],
      "mid_mdsp" : [

      ],
      "rate" : 0,
      "purl" : "",
      "title" : " 粉红草莓法罗夫戚风蛋糕",
      "ss" : [

      ],
      "btm_dsp" : [

      ],
      "rcs" : [

      ],
      "story_dsp" : [

      ],
      "user" : {
        "regist_time" : "",
        "qq_weibo_nick" : "",
        "nick" : "食a色",
        "weibo_nick" : "",
        "gender" : 2,
        "verified_url" : "https:\/\/m.douguo.com\/user\/prodesc",
        "coursecount" : 0,
        "sign" : "",
        "location" : 0,
        "recipes_count" : 0,
        "pc" : 0,
        "favorites_count" : 0,
        "followers_count" : 0,
        "point" : 0,
        "introduction" : "",
        "lvl" : 7,
        "progress_image" : "",
        "is_prime" : 0,
        "user_cover" : "",
        "user_photo" : "http:\/\/tx1.douguo.net\/upload\/photo\/3\/e\/b\/70_u5818472325918404140825.jpg",
        "setted_email" : 0,
        "lv" : 0,
        "user_large_photo" : "http:\/\/tx1.douguo.net\/upload\/photo\/3\/e\/b\/yuan_u5818472325918404140825.jpg",
        "age" : "",
        "birthday" : "",
        "qzone_nick" : "",
        "mobile" : "",
        "email" : "",
        "user_id" : "16878380",
        "avatar_medium" : "http:\/\/tx1.douguo.net\/upload\/photo\/3\/e\/b\/140_u5818472325918404140825.jpg",
        "dishes_count" : 0,
        "subscription_article_count" : 0,
        "following_count" : 0,
        "subscription" : 0,
        "verified" : 1,
        "verified_image" : "https:\/\/i1.douguo.com\/upload\/note\/d\/a\/a\/da84247847aebe48d9dd0fcdac88862a.png",
        "fc" : 0,
        "userid" : "16878380",
        "diaries_count" : 0,
        "favor_diaries_count" : 0
      },
      "rate_show" : 0,
      "v_u" : "",
      "first_level_comment_count" : 0,
      "dishes" : [

      ],
      "cook_difficulty_image" : "https:\/\/i1.douguo.com\/upload\/banner\/1551424390.png",
      "vfurl" : "",
      "eu" : "recipes:\/\/www.douguo.com\/postdetail?id=242016",
      "dish_count" : 0,
      "bs" : [

      ],
      "photo_path" : "https:\/\/i1.douguo.com\/upload\/caiku\/c\/d\/e\/600_cd9b1a8caf99974f88d4f7d2f93c1b6e.jpg",
      "comments_count" : 0,
      "author_photo" : "http:\/\/tx1.douguo.net\/upload\/photo\/3\/e\/b\/70_u5818472325918404140825.jpg",
      "event" : {
        "name" : "上传健康吃蛋日记  赢圣迪乐丰厚大奖",
        "id" : 3528,
        "url" : "https:\/\/m.douguo.com\/activity\/ncpzj\/detail\/3528?isapp=1&open=0&_vs=1000300&&dg_refreshkey=publishnote"
      },
      "recommended" : 0,
      "rdsps" : [

      ],
      "cook_time_image" : "https:\/\/i1.douguo.com\/upload\/banner\/1551424318.png",
      "ipit" : 0,
      "original_photo_path" : "http:\/\/i1.douguo.net\/upload\/caiku\/c\/d\/e\/yuan_cd9b1a8caf99974f88d4f7d2f93c1b6e.jpg",
      "major" : [
        {
          "note" : "2个",
          "tu" : "https:\/\/m.douguo.com\/ingredients\/鸡蛋\/detailmaterial",
          "title" : "鸡蛋"
        },
        {
          "title" : "低筋粉",
          "tu" : "https:\/\/m.douguo.com\/ingredients\/低筋粉\/detailmaterial",
          "note" : "38克"
        },
        {
          "note" : "30克",
          "title" : "草莓法罗夫棉花糖"
        },
        {
          "note" : "20克",
          "title" : "玉米油",
          "tu" : "https:\/\/m.douguo.com\/ingredients\/玉米油\/detailmaterial"
        },
        {
          "tu" : "https:\/\/m.douguo.com\/ingredients\/牛奶\/detailmaterial",
          "note" : "30克",
          "title" : "牛奶"
        },
        {
          "title" : "红曲粉",
          "note" : "2克"
        }
      ],
      "rewarded_video_dsp" : [

      ],
      "rips" : 0,
      "cookstory" : "好像做蛋糕才能多多地消耗法罗夫。这个草莓法罗夫的蛋糕，不仅用了红曲粉来调色，还用了色素。虽然成品的颜色很好看，但是始终心存疑虑，此一红曲粉和彼一红曲粉颜色会不会有差异呢？\r\n没有加色素，只是红曲粉，最后也烤出个红色的戚风。不过，并不是想象中的嫩粉，而像是桃红色。也还不错，只要没有深到暗沉就行。\r\n这是一个很清淡的蛋糕，蛋黄糊中并没有添加任何糖类，所有的甜味都来自于法罗夫。嫌太清淡的话可以抹酱夹馅儿做卷。。。。。"
    }
  },
  "state" : "success"
}