{
  "status" : 0,
  "state" : "success",
  "result" : {
    "recipe" : {
      "image" : "http:\/\/i1.douguo.net\/upload\/caiku\/1\/a\/0\/300_1ab2e4a70dfa76b314307f8cf3857e40.jpeg",
      "title_ad" : [

      ],
      "ss" : [

      ],
      "eu" : "recipes:\/\/www.douguo.com\/postdetail?id=242016",
      "act_des" : "",
      "purl" : "",
      "cook_id" : "3013966",
      "rewarded_video_dsp" : [

      ],
      "photo_path" : "https:\/\/i1.douguo.com\/upload\/caiku\/1\/a\/0\/600_1ab2e4a70dfa76b314307f8cf3857e40.jpeg",
      "levelid" : 2,
      "advice" : {
        "has" : [
          {
            "url" : "recipes:\/\/www.douguo.com\/simplerecipelist?t=低胆固醇&id=低胆固醇",
            "t" : "低胆固醇"
          },
          {
            "t" : "低糖",
            "url" : "recipes:\/\/www.douguo.com\/simplerecipelist?t=低糖&id=低糖"
          }
        ],
        "da" : {
          "t" : "查看详细分析",
          "url" : "https:\/\/m.douguo.com\/recipe\/nutrient_self\/3013966",
          "iu" : "https:\/\/i1.douguo.com\/upload\/banner\/f\/4\/d\/f48877e53c37759bc12ac494be82ec8d.png"
        },
        "at" : "一道菜对心血管健康～"
      },
      "thumb_path" : "https:\/\/i1.douguo.com\/upload\/caiku\/1\/a\/0\/300_1ab2e4a70dfa76b314307f8cf3857e40.jpeg",
      "release_time" : "",
      "cook_time" : "10分钟左右",
      "cook_difficulty" : "切墩(初级)",
      "ph" : 1440,
      "rate_count" : 0,
      "btm_dsp" : [

      ],
      "create_time" : "2020-11-17 09:16:00",
      "ipia" : [

      ],
      "display_ingredient" : 1,
      "dish_count_text" : "",
      "tips" : "煮红茶时候不要放糖，否则红茶会苦涩‼️\n奶油猪根据自家烤箱酌情调整温度和时间‼️外皮酥脆即可‼️",
      "rpst" : "",
      "share_info" : {
        "qr_image" : "",
        "image" : "https:\/\/cp1.douguo.com\/upload\/caiku\/1\/a\/0\/1ab2e4a70dfa76b314307f8cf3857e40.jpeg",
        "s_u" : "http:\/\/m.douguo.com\/cookbook\/3013966.html",
        "object_id" : "3013966",
        "mini_program" : [

        ],
        "infos" : [
          {
            "mini_program" : [

            ],
            "object_id" : "3013966",
            "s_u" : "",
            "image" : "https:\/\/cp1.douguo.com\/upload\/caiku\/1\/a\/0\/1ab2e4a70dfa76b314307f8cf3857e40.jpeg",
            "channel" : "1",
            "name" : "#吃货恒行 开挂双11#1分钟学会港式餐厅招牌奶油猪&冻柠茶-会做饭很酷!",
            "s_d" : "#学做饭用豆果美食# 会做饭真是太酷了！我在@豆果美食 分享了【#吃货恒行 开挂双11#1分钟学会港式餐厅招牌奶油猪&冻柠茶-会做饭很酷!】，看着是不是馋到不行呢～快来跟我学学吧！查看图片了解菜谱，（想要获取更多美食就看这https:\/\/m.weibo.cn\/p\/100404i33631）",
            "qr_image" : ""
          },
          {
            "channel" : "7",
            "s_u" : "http:\/\/m.douguo.com\/cookbook\/3013966.html",
            "qr_image" : "",
            "s_d" : "#吃货恒行 开挂双11#1分钟学会港式餐厅招牌奶油猪&冻柠茶-会做饭很酷!",
            "image" : "https:\/\/cp1.douguo.com\/upload\/caiku\/1\/a\/0\/1ab2e4a70dfa76b314307f8cf3857e40.jpeg",
            "name" : "#吃货恒行 开挂双11#1分钟学会港式餐厅招牌奶油猪&冻柠茶-会做饭很酷!",
            "object_id" : "3013966",
            "mini_program" : [

            ]
          },
          {
            "image" : "https:\/\/cp1.douguo.com\/upload\/caiku\/1\/a\/0\/1ab2e4a70dfa76b314307f8cf3857e40.jpeg",
            "qr_image" : "",
            "name" : "#吃货恒行 开挂双11#1分钟学会港式餐厅招牌奶油猪&冻柠茶-会做饭很酷!",
            "mini_program" : [

            ],
            "channel" : "8",
            "s_d" : "#吃货恒行 开挂双11#1分钟学会港式餐厅招牌奶油猪&冻柠茶-会做饭很酷!",
            "s_u" : "http:\/\/m.douguo.com\/cookbook\/3013966.html",
            "object_id" : "3013966"
          }
        ],
        "s_d" : "#吃货恒行 开挂双11#1分钟学会港式餐厅招牌奶油猪&冻柠茶-会做饭很酷!",
        "name" : "#吃货恒行 开挂双11#1分钟学会港式餐厅招牌奶油猪&冻柠茶-会做饭很酷!"
      },
      "sc" : 0,
      "bs" : [

      ],
      "title" : "1分钟学会港式餐厅招牌奶油猪&冻柠茶",
      "ssu" : "",
      "ipurl" : "",
      "hq" : 1,
      "favo_counts_text" : "4983",
      "ipit" : 0,
      "sr" : "",
      "guide_image" : "",
      "vfurl" : "https:\/\/vplay.douguo.com\/lqqC3yP5TW13GfEXSu0rWfc_04st__640x362.mp4",
      "dish_count" : 0,
      "original_photo_path" : "http:\/\/i1.douguo.net\/upload\/caiku\/1\/a\/0\/yuan_1ab2e4a70dfa76b314307f8cf3857e40.jpeg",
      "user" : {
        "userid" : "25222984",
        "verified_url" : "https:\/\/m.douguo.com\/user\/prodesc",
        "dishes_count" : 0,
        "following_count" : 0,
        "regist_time" : "",
        "setted_email" : 0,
        "favor_diaries_count" : 0,
        "age" : "",
        "is_prime" : 0,
        "qzone_nick" : "",
        "user_cover" : "",
        "favorites_count" : 0,
        "email" : "",
        "location" : 0,
        "weibo_nick" : "",
        "subscription_article_count" : 0,
        "progress_image" : "",
        "verified_image" : "https:\/\/i1.douguo.com\/upload\/note\/d\/a\/a\/da84247847aebe48d9dd0fcdac88862a.png",
        "user_id" : "25222984",
        "followers_count" : 0,
        "introduction" : "",
        "fc" : 0,
        "diaries_count" : 0,
        "avatar_medium" : "http:\/\/tx1.douguo.net\/upload\/photo\/5\/2\/4\/140_u85099550972296095148.jpeg",
        "pc" : 0,
        "mobile" : "",
        "subscription" : 0,
        "lvl" : 6,
        "coursecount" : 0,
        "sign" : "",
        "user_large_photo" : "http:\/\/tx1.douguo.net\/upload\/photo\/5\/2\/4\/yuan_u85099550972296095148.jpeg",
        "nick" : "Da1ly",
        "user_photo" : "http:\/\/tx1.douguo.net\/upload\/photo\/5\/2\/4\/70_u85099550972296095148.jpeg",
        "qq_weibo_nick" : "",
        "birthday" : "",
        "verified" : 1,
        "recipes_count" : 0,
        "lv" : 0,
        "gender" : 2,
        "point" : 0
      },
      "recommendation_tag" : "",
      "su" : "",
      "major" : [
        {
          "note" : "10g",
          "tu" : "https:\/\/m.douguo.com\/ingredients\/红茶\/detailmaterial",
          "title" : "红茶"
        },
        {
          "tu" : "https:\/\/m.douguo.com\/ingredients\/水\/detailmaterial",
          "note" : "500克",
          "title" : "水"
        },
        {
          "note" : "30克",
          "tu" : "https:\/\/m.douguo.com\/ingredients\/黄油\/detailmaterial",
          "title" : "黄油"
        },
        {
          "tu" : "https:\/\/m.douguo.com\/ingredients\/餐包\/detailmaterial",
          "title" : "餐包",
          "note" : "2个"
        },
        {
          "tu" : "https:\/\/m.douguo.com\/ingredients\/蜂蜜\/detailmaterial",
          "note" : "5g",
          "title" : "蜂蜜"
        },
        {
          "tu" : "https:\/\/m.douguo.com\/ingredients\/炼乳\/detailmaterial",
          "title" : "炼乳",
          "note" : "10克"
        },
        {
          "tu" : "https:\/\/m.douguo.com\/ingredients\/柠檬\/detailmaterial",
          "note" : "1个",
          "title" : "柠檬"
        },
        {
          "note" : "1杯",
          "title" : "冰块"
        }
      ],
      "hqu" : "recipes:\/\/www.douguo.com\/notedetail?id=21162253",
      "vc" : "291398",
      "rpid" : 0,
      "ecs" : 0,
      "recipe_list_tags" : [
        {
          "background_end_color" : "#F4F5F5",
          "text" : "关注的人",
          "jump_url" : "",
          "text_color" : "#141515",
          "background_border_color" : "",
          "right_image" : "",
          "background_start_color" : "#F4F5F5"
        },
        {
          "text" : "内容详细",
          "background_border_color" : "",
          "background_end_color" : "#F4F5F5",
          "background_start_color" : "#F4F5F5",
          "jump_url" : "",
          "right_image" : "",
          "text_color" : "#141515"
        }
      ],
      "recipe_tags" : [

      ],
      "tags" : [

      ],
      "rate_show" : 0,
      "packages_id" : [

      ],
      "cook_difficulty_image" : "https:\/\/i1.douguo.com\/upload\/banner\/1551424390.png",
      "cookstep" : [
        {
          "image_width" : 828,
          "position" : 1,
          "image" : "https:\/\/i1.douguo.com\/upload\/caiku\/2\/f\/e\/2f274e94719432ec064c31b2fd5622fe.jpeg",
          "thumb" : "https:\/\/i1.douguo.com\/upload\/caiku\/2\/f\/e\/140_2f274e94719432ec064c31b2fd5622fe.jpeg",
          "image_height" : 455,
          "frame" : "-1",
          "content" : "养生壶或者锅中注入500毫升水煮开"
        },
        {
          "position" : 2,
          "content" : "放入红茶煮5分钟，焖5分钟",
          "frame" : "-1",
          "image_height" : 460,
          "image_width" : 828,
          "thumb" : "https:\/\/i1.douguo.com\/upload\/caiku\/d\/e\/d\/140_ded44ab8e93628f4706191d9335ed04d.jpeg",
          "image" : "https:\/\/i1.douguo.com\/upload\/caiku\/d\/e\/d\/ded44ab8e93628f4706191d9335ed04d.jpeg"
        },
        {
          "image_width" : 827,
          "frame" : "-1",
          "thumb" : "https:\/\/i1.douguo.com\/upload\/caiku\/3\/5\/f\/140_352a14d3c6409f7883b45862bf6e568f.jpeg",
          "image_height" : 460,
          "image" : "https:\/\/i1.douguo.com\/upload\/caiku\/3\/5\/f\/352a14d3c6409f7883b45862bf6e568f.jpeg",
          "position" : 3,
          "content" : "煮好的红茶倒入容器放凉\n冰箱冷藏数小时或者一夜"
        },
        {
          "image_width" : 828,
          "frame" : "-1",
          "content" : "圆形小餐包对半切开",
          "image" : "https:\/\/i1.douguo.com\/upload\/caiku\/a\/c\/8\/ac2f0176d3f4710605ec246977fb8e88.jpeg",
          "image_height" : 462,
          "thumb" : "https:\/\/i1.douguo.com\/upload\/caiku\/a\/c\/8\/140_ac2f0176d3f4710605ec246977fb8e88.jpeg",
          "position" : 4
        },
        {
          "frame" : "-1",
          "image_height" : 462,
          "thumb" : "https:\/\/i1.douguo.com\/upload\/caiku\/0\/b\/3\/140_0b9095d1840dcd9130136609da6c4653.jpeg",
          "image" : "https:\/\/i1.douguo.com\/upload\/caiku\/0\/b\/3\/0b9095d1840dcd9130136609da6c4653.jpeg",
          "image_width" : 828,
          "position" : 5,
          "content" : "涂上软化好的黄油（黄油提前室温放软）"
        },
        {
          "content" : "放入烤箱180度烤10分钟",
          "image" : "https:\/\/i1.douguo.com\/upload\/caiku\/4\/b\/e\/4b4025d891b0eb191436f73f4f18692e.jpeg",
          "position" : 6,
          "image_height" : 455,
          "thumb" : "https:\/\/i1.douguo.com\/upload\/caiku\/4\/b\/e\/140_4b4025d891b0eb191436f73f4f18692e.jpeg",
          "image_width" : 828,
          "frame" : "-1"
        },
        {
          "image_height" : 454,
          "position" : 7,
          "image" : "https:\/\/i1.douguo.com\/upload\/caiku\/4\/0\/9\/404677ff0969ce623a2a3e15d0f446e9.jpeg",
          "frame" : "-1",
          "content" : "淋上炼奶就完成啦",
          "image_width" : 828,
          "thumb" : "https:\/\/i1.douguo.com\/upload\/caiku\/4\/0\/9\/140_404677ff0969ce623a2a3e15d0f446e9.jpeg"
        },
        {
          "image_width" : 828,
          "position" : 8,
          "frame" : "-1",
          "thumb" : "https:\/\/i1.douguo.com\/upload\/caiku\/8\/a\/6\/140_8a68e63a68c00b47ec58d8a928e01536.jpeg",
          "image_height" : 462,
          "image" : "https:\/\/i1.douguo.com\/upload\/caiku\/8\/a\/6\/8a68e63a68c00b47ec58d8a928e01536.jpeg",
          "content" : "冻柠茶部分：柠檬切片去籽"
        },
        {
          "content" : "杯中放入2片柠檬垫底",
          "frame" : "-1",
          "thumb" : "https:\/\/i1.douguo.com\/upload\/caiku\/d\/3\/6\/140_d3053efe74c11ceccf364a20784bbb66.jpeg",
          "image_height" : 450,
          "image_width" : 806,
          "position" : 9,
          "image" : "https:\/\/i1.douguo.com\/upload\/caiku\/d\/3\/6\/d3053efe74c11ceccf364a20784bbb66.jpeg"
        },
        {
          "frame" : "-1",
          "image_width" : 814,
          "content" : "挤入1\/3颗柠檬汁（300ml的杯子）",
          "position" : 10,
          "image" : "https:\/\/i1.douguo.com\/upload\/caiku\/c\/f\/3\/cf57e2e7b5dd4be25a2aa0539e71b473.jpeg",
          "thumb" : "https:\/\/i1.douguo.com\/upload\/caiku\/c\/f\/3\/140_cf57e2e7b5dd4be25a2aa0539e71b473.jpeg",
          "image_height" : 454
        },
        {
          "image" : "https:\/\/i1.douguo.com\/upload\/caiku\/8\/b\/7\/8bbc644042c35671f1a46293cd936607.jpeg",
          "thumb" : "https:\/\/i1.douguo.com\/upload\/caiku\/8\/b\/7\/140_8bbc644042c35671f1a46293cd936607.jpeg",
          "content" : "再加入蜂蜜。（其实应该用糖浆，我没有熬就用蜂蜜代替了）",
          "frame" : "-1",
          "image_width" : 818,
          "image_height" : 451,
          "position" : 11
        },
        {
          "frame" : "-1",
          "thumb" : "https:\/\/i1.douguo.com\/upload\/caiku\/4\/a\/e\/140_4ab3bbd020fc051e08954fc1841246ee.jpeg",
          "image" : "https:\/\/i1.douguo.com\/upload\/caiku\/4\/a\/e\/4ab3bbd020fc051e08954fc1841246ee.jpeg",
          "position" : 12,
          "image_height" : 448,
          "image_width" : 809,
          "content" : "交替放入冰块和柠檬片"
        },
        {
          "content" : "倒入红茶就完成啦",
          "image_height" : 452,
          "image_width" : 828,
          "thumb" : "https:\/\/i1.douguo.com\/upload\/caiku\/f\/e\/8\/140_fe78eb9d6a2e276bc39daaa4c2a3e4e8.jpeg",
          "position" : 13,
          "frame" : "-1",
          "image" : "https:\/\/i1.douguo.com\/upload\/caiku\/f\/e\/8\/fe78eb9d6a2e276bc39daaa4c2a3e4e8.jpeg"
        },
        {
          "thumb" : "https:\/\/i1.douguo.com\/upload\/caiku\/4\/8\/1\/140_4866e2898ff87a7421252853c7058c71.jpeg",
          "position" : 14,
          "image_width" : 1280,
          "content" : "外皮酥脆，口感真得太好了",
          "image_height" : 960,
          "frame" : "-1",
          "image" : "https:\/\/i1.douguo.com\/upload\/caiku\/4\/8\/1\/4866e2898ff87a7421252853c7058c71.jpeg"
        },
        {
          "position" : 15,
          "image_height" : 960,
          "image" : "https:\/\/i1.douguo.com\/upload\/caiku\/7\/0\/d\/7033a32894ac9aed9b27bb243982b1fd.jpeg",
          "content" : "一口奶油猪，一口冻柠茶，太幸福啦～",
          "image_width" : 1280,
          "thumb" : "https:\/\/i1.douguo.com\/upload\/caiku\/7\/0\/d\/140_7033a32894ac9aed9b27bb243982b1fd.jpeg",
          "frame" : "-1"
        }
      ],
      "story_dsp" : [

      ],
      "favo_counts" : 4983,
      "rrps" : [

      ],
      "comments_count" : 6,
      "ipoi" : "",
      "vu" : "https:\/\/vplay.douguo.com\/lqqC3yP5TW13GfEXSu0rWfc_04st",
      "ipt" : "",
      "cookwares" : [

      ],
      "pw" : 1920,
      "recommended" : 0,
      "cookstory" : "港式餐厅的招牌就是奶油猪和冻柠茶了吧！没想到在家做起来这么简单～\n面包酥脆的外皮，混合黄油的香气。甜甜的炼乳简直就是点睛之笔。清香的冻柠茶，冰冰爽爽，真得太过瘾了～",
      "collect_status" : 0,
      "comments_count_text" : "6",
      "views_count_text" : "29.1万",
      "cook_time_image" : "https:\/\/i1.douguo.com\/upload\/banner\/1551424358.png",
      "minor" : [

      ],
      "recent_comments" : [

      ],
      "first_level_comment_count" : 3,
      "recommend_label" : "4983人刚刚收藏过",
      "brand_day_dsp" : [

      ],
      "author" : "Da1ly",
      "related_ads" : [

      ],
      "ipci" : "",
      "rate" : 0,
      "notes" : [

      ],
      "rsm" : "该功能暂停使用",
      "clicks" : "285867",
      "mid_mdsp" : [

      ],
      "rcs" : [

      ],
      "old_comments" : [

      ],
      "dishes" : [

      ],
      "author_id" : 25222984,
      "thumb_height" : 0,
      "v_u" : "",
      "author_verified" : 1,
      "comments" : [
        "{\n    ac = \"#999999\";\n    at = \"\";\n    ccc = 1;\n    \"child_comments\" =     (\n                {\n            ac = \"#999999\";\n            at = \"\\U6e29\\U5dde\\U5e02\";\n            ccc = 0;\n            city = \"\\U6e29\\U5dde\\U5e02\";\n            cmc = 2;\n            content =             (\n                                {\n                    c = \" \\U90a3\\U6211\\U4f1a\\U6301\\U7eed\\U66f4\\U65b0\\U54d2\";\n                }\n            );\n            ia = 1;\n            id = 8349556;\n            \"ip_address_location\" = \"\";\n            like = 0;\n            \"like_count\" = 0;\n            \"reply_id\" = 8349313;\n            \"reply_user\" =             {\n                \"followers_count_text\" = \"\";\n                id = 24612462;\n                \"is_prime\" = 0;\n                lv = 0;\n                lvl = 1;\n                n = \"\\U946b\\U5b9d\\U5988\\U5988\\U5c0f\\U53a8Ad\";\n                p = \"http:\/\/tx1.douguo.net\/upload\/photo\/5\/f\/9\/70_u54238134786941191944.jpeg\";\n                \"progress_image\" = \"\";\n                \"recipes_count_text\" = \"\";\n                relationship = \"-1\";\n                title = \"\";\n                v = 0;\n                \"verified_image\" = \"\";\n            };\n            \"sticker_icon\" =             (\n            );\n            time = \"2020-11-17 12:11:15\";\n            u =             {\n                \"followers_count_text\" = \"\";\n                id = 25222984;\n                \"is_prime\" = 0;\n                lv = 0;\n                lvl = 6;\n                n = Da1ly;\n                p = \"http:\/\/tx1.douguo.net\/upload\/photo\/5\/2\/4\/70_u85099550972296095148.jpeg\";\n                \"progress_image\" = \"\";\n                \"recipes_count_text\" = \"\";\n                relationship = \"-1\";\n                title = \"\";\n                v = 1;\n                \"verified_image\" = \"\";\n            };\n        }\n    );\n    city = \"\";\n    cmc = 2;\n    content =     (\n                {\n            c = \"\\U505a\\U505a\\U505a\\Uff0c\\U50cf\\U4f60\\U5b66\\U4e60\\Uff01\\Uff01\\Uff01\";\n        }\n    );\n    ia = 0;\n    id = 8349313;\n    \"ip_address_location\" = \"\";\n    like = 0;\n    \"like_count\" = 0;\n    \"reply_id\" = 0;\n    \"sticker_icon\" =     (\n    );\n    time = \"2020-11-17 10:24:06\";\n    u =     {\n        \"followers_count_text\" = \"\";\n        id = 24612462;\n        \"is_prime\" = 0;\n        lv = 0;\n        lvl = 1;\n        n = \"\\U946b\\U5b9d\\U5988\\U5988\\U5c0f\\U53a8Ad\";\n        p = \"http:\/\/tx1.douguo.net\/upload\/photo\/5\/f\/9\/70_u54238134786941191944.jpeg\";\n        \"progress_image\" = \"\";\n        \"recipes_count_text\" = \"\";\n        relationship = \"-1\";\n        title = \"\";\n        v = 0;\n        \"verified_image\" = \"\";\n    };\n}",
        "{\n    ac = \"#999999\";\n    at = \"\";\n    ccc = 1;\n    \"child_comments\" =     (\n                {\n            ac = \"#999999\";\n            at = \"\\U6e29\\U5dde\\U5e02\";\n            ccc = 0;\n            city = \"\\U6e29\\U5dde\\U5e02\";\n            cmc = 2;\n            content =             (\n                                {\n                    c = \" \\U597d\\U5403\\Ud83d\\Ude0b\";\n                }\n            );\n            ia = 1;\n            id = 8349558;\n            \"ip_address_location\" = \"\";\n            like = 0;\n            \"like_count\" = 0;\n            \"reply_id\" = 8349283;\n            \"reply_user\" =             {\n                \"followers_count_text\" = \"\";\n                id = 24538331;\n                \"is_prime\" = 0;\n                lv = 0;\n                lvl = 1;\n                n = \"\\U6c27\\U5316\\U94dcavrbQq\";\n                p = \"http:\/\/tx1.douguo.net\/upload\/photo\/6\/c\/4\/70_u06005903694843161436.jpg\";\n                \"progress_image\" = \"\";\n                \"recipes_count_text\" = \"\";\n                relationship = \"-1\";\n                title = \"\";\n                v = 0;\n                \"verified_image\" = \"\";\n            };\n            \"sticker_icon\" =             (\n            );\n            time = \"2020-11-17 12:11:19\";\n            u =             {\n                \"followers_count_text\" = \"\";\n                id = 25222984;\n                \"is_prime\" = 0;\n                lv = 0;\n                lvl = 6;\n                n = Da1ly;\n                p = \"http:\/\/tx1.douguo.net\/upload\/photo\/5\/2\/4\/70_u85099550972296095148.jpeg\";\n                \"progress_image\" = \"\";\n                \"recipes_count_text\" = \"\";\n                relationship = \"-1\";\n                title = \"\";\n                v = 1;\n                \"verified_image\" = \"\";\n            };\n        }\n    );\n    city = \"\";\n    cmc = 2;\n    content =     (\n                {\n            c = \"\\U611f\\U89c9\\U771f\\U597d~\\U6d41\\U53e3\\U6c34\\Uff01\";\n        }\n    );\n    ia = 0;\n    id = 8349283;\n    \"ip_address_location\" = \"\";\n    like = 0;\n    \"like_count\" = 0;\n    \"reply_id\" = 0;\n    \"sticker_icon\" =     (\n    );\n    time = \"2020-11-17 09:55:08\";\n    u =     {\n        \"followers_count_text\" = \"\";\n        id = 24538331;\n        \"is_prime\" = 0;\n        lv = 0;\n        lvl = 1;\n        n = \"\\U6c27\\U5316\\U94dcavrbQq\";\n        p = \"http:\/\/tx1.douguo.net\/upload\/photo\/6\/c\/4\/70_u06005903694843161436.jpg\";\n        \"progress_image\" = \"\";\n        \"recipes_count_text\" = \"\";\n        relationship = \"-1\";\n        title = \"\";\n        v = 0;\n        \"verified_image\" = \"\";\n    };\n}",
        "{\n    ac = \"#999999\";\n    at = \"\";\n    ccc = 1;\n    \"child_comments\" =     (\n                {\n            ac = \"#999999\";\n            at = \"\\U6e29\\U5dde\\U5e02\";\n            ccc = 0;\n            city = \"\\U6e29\\U5dde\\U5e02\";\n            cmc = 2;\n            content =             (\n                                {\n                    c = \" \\U771f\\U6ef4\\U63a8\\U8350\\Uff01\";\n                }\n            );\n            ia = 1;\n            id = 8349560;\n            \"ip_address_location\" = \"\";\n            like = 0;\n            \"like_count\" = 0;\n            \"reply_id\" = 8349274;\n            \"reply_user\" =             {\n                \"followers_count_text\" = \"\";\n                id = 23563838;\n                \"is_prime\" = 0;\n                lv = 0;\n                lvl = 2;\n                n = \"\\U5343\\U5c18\\U96e8rgau\";\n                p = \"http:\/\/tx1.douguo.net\/upload\/photo\/b\/4\/9\/70_u2631819912690329163458.jpg\";\n                \"progress_image\" = \"\";\n                \"recipes_count_text\" = \"\";\n                relationship = \"-1\";\n                title = \"\";\n                v = 0;\n                \"verified_image\" = \"\";\n            };\n            \"sticker_icon\" =             (\n            );\n            time = \"2020-11-17 12:11:24\";\n            u =             {\n                \"followers_count_text\" = \"\";\n                id = 25222984;\n                \"is_prime\" = 0;\n                lv = 0;\n                lvl = 6;\n                n = Da1ly;\n                p = \"http:\/\/tx1.douguo.net\/upload\/photo\/5\/2\/4\/70_u85099550972296095148.jpeg\";\n                \"progress_image\" = \"\";\n                \"recipes_count_text\" = \"\";\n                relationship = \"-1\";\n                title = \"\";\n                v = 1;\n                \"verified_image\" = \"\";\n            };\n        }\n    );\n    city = \"\";\n    cmc = 2;\n    content =     (\n                {\n            c = \"\\U597d\\U770b\\U6709\\U98df\\U6b32\\Uff01\";\n        }\n    );\n    ia = 0;\n    id = 8349274;\n    \"ip_address_location\" = \"\";\n    like = 0;\n    \"like_count\" = 0;\n    \"reply_id\" = 0;\n    \"sticker_icon\" =     (\n    );\n    time = \"2020-11-17 09:42:05\";\n    u =     {\n        \"followers_count_text\" = \"\";\n        id = 23563838;\n        \"is_prime\" = 0;\n        lv = 0;\n        lvl = 2;\n        n = \"\\U5343\\U5c18\\U96e8rgau\";\n        p = \"http:\/\/tx1.douguo.net\/upload\/photo\/b\/4\/9\/70_u2631819912690329163458.jpg\";\n        \"progress_image\" = \"\";\n        \"recipes_count_text\" = \"\";\n        relationship = \"-1\";\n        title = \"\";\n        v = 0;\n        \"verified_image\" = \"\";\n    };\n}"
      ],
      "rrpt" : "",
      "author_photo" : "http:\/\/tx1.douguo.net\/upload\/photo\/5\/2\/4\/70_u85099550972296095148.jpeg",
      "rpt" : "",
      "rips" : 0,
      "top_mdsp" : [

      ],
      "rdsps" : [

      ],
      "cookstorys" : [
        {
          "type" : 0,
          "color" : "",
          "id" : 0,
          "u" : "",
          "icon" : "",
          "c" : "港式餐厅的招牌就是奶油猪和冻柠茶了吧！没想到在家做起来这么简单～\n面包酥脆的外皮，混合黄油的香气。甜甜的炼乳简直就是点睛之笔。清香的冻柠茶，冰冰爽爽，真得太过瘾了～"
        }
      ]
    }
  }
}