{
  "result" : {
    "recipe" : {
      "guide_image" : "",
      "dish_count" : 0,
      "hqu" : "recipes:\/\/www.douguo.com\/notedetail?id=21162253",
      "ph" : 1280,
      "eu" : "recipes:\/\/www.douguo.com\/postdetail?id=242016",
      "event" : {
        "id" : 0
      },
      "rsm" : "该功能暂停使用",
      "ipia" : [

      ],
      "recommendation_tag" : "",
      "original_photo_path" : "http:\/\/i1.douguo.net\/upload\/caiku\/1\/d\/8\/yuan_1df77bbf93a9e29899f1d8e40a8637b8.jpeg",
      "rdsps" : [

      ],
      "rpid" : 0,
      "views_count_text" : "32.2万",
      "first_level_comment_count" : 1,
      "recent_comments" : [

      ],
      "rips" : 0,
      "title" : "韭菜鸡蛋馅饼",
      "thumb_height" : 0,
      "cookstep" : [
        {
          "image" : "https:\/\/i1.douguo.com\/upload\/caiku\/0\/2\/d\/02e82f184016e74ad95b8d92cdf9935d.jpg",
          "frame" : "-1",
          "position" : 1,
          "thumb" : "https:\/\/i1.douguo.com\/upload\/caiku\/0\/2\/d\/140_02e82f184016e74ad95b8d92cdf9935d.jpg",
          "image_height" : 2848,
          "content" : "准备食材",
          "image_width" : 4288
        },
        {
          "frame" : "-1",
          "content" : "面粉用温水和开，先用筷子搅拌成絮状，然后再用手揉成面团，揉好的面团一定要盖上锅盖醒发一会，这样面团韧性和延展性更好。",
          "image_height" : 2848,
          "thumb" : "https:\/\/i1.douguo.com\/upload\/caiku\/c\/3\/7\/140_c3d4fcbb2b5b1f5c2b0d188116786377.jpg",
          "position" : 2,
          "image" : "https:\/\/i1.douguo.com\/upload\/caiku\/c\/3\/7\/c3d4fcbb2b5b1f5c2b0d188116786377.jpg",
          "image_width" : 4288
        },
        {
          "image_width" : 3990,
          "content" : "把鸡蛋碎、韭菜碎、虾仁碎放入盆中，加入2勺味极鲜、少许鸡精、适量香油和熟油，搅拌均匀。",
          "image" : "https:\/\/i1.douguo.com\/upload\/caiku\/8\/8\/f\/88c642f7761e1afe9e4ce5118f6da6cf.jpg",
          "thumb" : "https:\/\/i1.douguo.com\/upload\/caiku\/8\/8\/f\/140_88c642f7761e1afe9e4ce5118f6da6cf.jpg",
          "image_height" : 2660,
          "frame" : "-1",
          "position" : 3
        },
        {
          "image_width" : 4271,
          "position" : 4,
          "thumb" : "https:\/\/i1.douguo.com\/upload\/caiku\/4\/e\/2\/140_4e828041fc59b7f9a4a5bf5ef277cf72.jpg",
          "image" : "https:\/\/i1.douguo.com\/upload\/caiku\/4\/e\/2\/4e828041fc59b7f9a4a5bf5ef277cf72.jpg",
          "frame" : "-1",
          "content" : "醒发好的面团分成3份、揉成面棍，切成面剂子，擀成圆饼，放入馅料\r\n像包包子一样包起来，然后压成面饼。电饼铛提前加热好。",
          "image_height" : 2848
        },
        {
          "thumb" : "https:\/\/i1.douguo.com\/upload\/caiku\/f\/0\/7\/140_f06e551b4418d21ee023f715799c9d37.jpg",
          "image" : "https:\/\/i1.douguo.com\/upload\/caiku\/f\/0\/7\/f06e551b4418d21ee023f715799c9d37.jpg",
          "image_height" : 2306,
          "image_width" : 3459,
          "frame" : "-1",
          "position" : 5,
          "content" : "做好的馅饼放入预热好的电饼铛中，烙制2面金黄，美味的三鲜馅饼就做好了。"
        }
      ],
      "recipe_list_tags" : [
        {
          "background_end_color" : "#F4F5F5",
          "background_border_color" : "",
          "text" : "关注的人",
          "jump_url" : "",
          "right_image" : "",
          "text_color" : "#141515",
          "background_start_color" : "#F4F5F5"
        }
      ],
      "tips" : "",
      "rate" : 0,
      "vfurl" : "",
      "dish_count_text" : "",
      "comments_count" : 1,
      "author_photo" : "http:\/\/tx1.douguo.net\/upload\/photo\/4\/8\/9\/70_u76029627392009001643.jpeg",
      "rcs" : [

      ],
      "title_ad" : [

      ],
      "favo_counts_text" : "4069",
      "packages_id" : [

      ],
      "old_comments" : [

      ],
      "rewarded_video_dsp" : [

      ],
      "recommended" : 0,
      "recommend_label" : "4069人刚刚收藏过",
      "cook_difficulty" : "配菜(中级)",
      "mid_mdsp" : [

      ],
      "act_des" : "",
      "pw" : 1920,
      "ipci" : "",
      "rpst" : "",
      "story_dsp" : [

      ],
      "ecs" : 0,
      "vu" : "",
      "rate_count" : 0,
      "ipoi" : "",
      "tags" : [

      ],
      "ss" : [

      ],
      "sc" : 0,
      "comments_count_text" : "1",
      "author" : "悠悠小厨Z",
      "share_info" : {
        "image" : "https:\/\/cp1.douguo.com\/upload\/caiku\/1\/d\/8\/1df77bbf93a9e29899f1d8e40a8637b8.jpeg",
        "qr_image" : "",
        "name" : "#餐桌上的春日限定#韭菜鸡蛋馅饼-会做饭很酷!",
        "mini_program" : [

        ],
        "object_id" : "2439950",
        "s_d" : "#餐桌上的春日限定#韭菜鸡蛋馅饼-会做饭很酷!",
        "s_u" : "http:\/\/m.douguo.com\/cookbook\/2439950.html",
        "infos" : [
          {
            "channel" : "1",
            "image" : "https:\/\/cp1.douguo.com\/upload\/caiku\/1\/d\/8\/1df77bbf93a9e29899f1d8e40a8637b8.jpeg",
            "mini_program" : [

            ],
            "object_id" : "2439950",
            "name" : "#餐桌上的春日限定#韭菜鸡蛋馅饼-会做饭很酷!",
            "qr_image" : "",
            "s_u" : "",
            "s_d" : "#学做饭用豆果美食# 会做饭真是好酷啊！我在@豆果美食 分享了【#餐桌上的春日限定#韭菜鸡蛋馅饼-会做饭很酷!】，快来康康我这道菜做的怎么样～美味停不下来！查看图片了解菜谱（你喜欢的美食都在这里！https:\/\/m.weibo.cn\/p\/100404i33631）"
          },
          {
            "mini_program" : [

            ],
            "image" : "https:\/\/cp1.douguo.com\/upload\/caiku\/1\/d\/8\/1df77bbf93a9e29899f1d8e40a8637b8.jpeg",
            "s_u" : "http:\/\/m.douguo.com\/cookbook\/2439950.html",
            "object_id" : "2439950",
            "qr_image" : "",
            "s_d" : "#餐桌上的春日限定#韭菜鸡蛋馅饼-会做饭很酷!",
            "name" : "#餐桌上的春日限定#韭菜鸡蛋馅饼-会做饭很酷!",
            "channel" : "7"
          },
          {
            "image" : "https:\/\/cp1.douguo.com\/upload\/caiku\/1\/d\/8\/1df77bbf93a9e29899f1d8e40a8637b8.jpeg",
            "name" : "#餐桌上的春日限定#韭菜鸡蛋馅饼-会做饭很酷!",
            "s_d" : "#餐桌上的春日限定#韭菜鸡蛋馅饼-会做饭很酷!",
            "object_id" : "2439950",
            "qr_image" : "",
            "s_u" : "http:\/\/m.douguo.com\/cookbook\/2439950.html",
            "mini_program" : [

            ],
            "channel" : "8"
          }
        ]
      },
      "user" : {
        "gender" : 2,
        "is_prime" : 0,
        "birthday" : "",
        "recipes_count" : 0,
        "user_id" : "3088213",
        "user_cover" : "",
        "followers_count" : 0,
        "nick" : "悠悠小厨Z",
        "setted_email" : 0,
        "qq_weibo_nick" : "",
        "favorites_count" : 0,
        "regist_time" : "",
        "avatar_medium" : "http:\/\/tx1.douguo.net\/upload\/photo\/4\/8\/9\/140_u76029627392009001643.jpeg",
        "weibo_nick" : "",
        "dishes_count" : 0,
        "pc" : 0,
        "verified_image" : "https:\/\/i1.douguo.com\/upload\/note\/d\/a\/a\/da84247847aebe48d9dd0fcdac88862a.png",
        "sign" : "",
        "lv" : 0,
        "subscription_article_count" : 0,
        "user_large_photo" : "http:\/\/tx1.douguo.net\/upload\/photo\/4\/8\/9\/yuan_u76029627392009001643.jpeg",
        "coursecount" : 0,
        "user_photo" : "http:\/\/tx1.douguo.net\/upload\/photo\/4\/8\/9\/70_u76029627392009001643.jpeg",
        "diaries_count" : 0,
        "introduction" : "",
        "email" : "",
        "userid" : "3088213",
        "lvl" : 6,
        "point" : 0,
        "mobile" : "",
        "qzone_nick" : "",
        "location" : 0,
        "favor_diaries_count" : 0,
        "following_count" : 0,
        "subscription" : 0,
        "verified" : 1,
        "verified_url" : "https:\/\/m.douguo.com\/user\/prodesc",
        "age" : "",
        "progress_image" : "",
        "fc" : 0
      },
      "brand_day_dsp" : [

      ],
      "create_time" : "2020-03-22 15:51:09",
      "cook_id" : "2439950",
      "major" : [
        {
          "title" : "普通面粉",
          "note" : "300g"
        },
        {
          "title" : "水350g左右",
          "note" : "250g开水100g凉水"
        },
        {
          "tu" : "https:\/\/m.douguo.com\/ingredients\/韭菜\/detailmaterial",
          "note" : "一把",
          "title" : "韭菜"
        },
        {
          "note" : "3个",
          "tu" : "https:\/\/m.douguo.com\/ingredients\/鸡蛋\/detailmaterial",
          "title" : "鸡蛋"
        },
        {
          "title" : "干虾米",
          "note" : "适量"
        },
        {
          "title" : "味极鲜",
          "note" : "2勺"
        },
        {
          "title" : "盐",
          "tu" : "https:\/\/m.douguo.com\/ingredients\/盐\/detailmaterial",
          "note" : "适量"
        },
        {
          "note" : "适量",
          "tu" : "https:\/\/m.douguo.com\/ingredients\/香油\/detailmaterial",
          "title" : "香油"
        },
        {
          "title" : "植物油",
          "tu" : "https:\/\/m.douguo.com\/ingredients\/植物油\/detailmaterial",
          "note" : "适量"
        }
      ],
      "rpt" : "",
      "levelid" : 2,
      "ipt" : "",
      "su" : "",
      "rrpt" : "",
      "rate_show" : 0,
      "comments" : [
        "{\n    ac = \"#999999\";\n    at = \"\\U97f6\\U5173\\U5e02\";\n    ccc = 0;\n    \"child_comments\" =     (\n    );\n    city = \"\\U97f6\\U5173\\U5e02\";\n    cmc = 2;\n    content =     (\n                {\n            c = \"\\U5f88\\U597d\\U5403\\U7684\\U6837\\U5b50\\U54e6\\Uff01\";\n        }\n    );\n    ia = 0;\n    id = 7807411;\n    \"ip_address_location\" = \"\";\n    like = 0;\n    \"like_count\" = 0;\n    \"reply_id\" = 0;\n    \"sticker_icon\" =     (\n    );\n    time = \"2020-03-23 01:57:12\";\n    u =     {\n        \"followers_count_text\" = \"\";\n        id = 16246100;\n        \"is_prime\" = 0;\n        lv = 0;\n        lvl = 6;\n        n = Eden1588;\n        p = \"http:\/\/tx1.douguo.net\/upload\/photo\/e\/a\/e\/70_u52834523698553030820.jpg\";\n        \"progress_image\" = \"\";\n        \"recipes_count_text\" = \"\";\n        relationship = \"-1\";\n        title = \"\";\n        v = 0;\n        \"verified_image\" = \"\";\n    };\n}"
      ],
      "top_mdsp" : [

      ],
      "author_verified" : 1,
      "ssu" : "",
      "v_u" : "",
      "release_time" : "",
      "hq" : 1,
      "image" : "http:\/\/i1.douguo.net\/upload\/caiku\/1\/d\/8\/300_1df77bbf93a9e29899f1d8e40a8637b8.jpeg",
      "favo_counts" : 4069,
      "photo_path" : "https:\/\/i1.douguo.com\/upload\/caiku\/1\/d\/8\/600_1df77bbf93a9e29899f1d8e40a8637b8.jpeg",
      "ipurl" : "",
      "notes" : [

      ],
      "cook_difficulty_image" : "https:\/\/i1.douguo.com\/upload\/banner\/1551424413.png",
      "minor" : [

      ],
      "bs" : [

      ],
      "collect_status" : 0,
      "advice" : {
        "has" : [

        ],
        "da" : {
          "url" : "https:\/\/m.douguo.com\/recipe\/nutrient_self\/2439950",
          "iu" : "https:\/\/i1.douguo.com\/upload\/banner\/f\/4\/d\/f48877e53c37759bc12ac494be82ec8d.png",
          "t" : "查看详细分析"
        }
      },
      "cook_time" : "",
      "rrps" : [

      ],
      "clicks" : "309295",
      "related_ads" : [

      ],
      "cookstorys" : [
        {
          "c" : "早餐除了豆浆油条、包子米粥。我家最爱的就是馅饼，皮包馅大配上一碗热乎乎的粥，再来点小咸菜，就是一份美味的早餐。但早餐时间紧，我们要选择最快速、最简单的做法，才最实用。我家做馅饼要讲究皮薄馅大，这样的馅饼最符合我家的口味，那你喜欢怎样的馅饼呢？我们先从和面说起，了解和面的原理，你也能做出适合你口味的馅饼～",
          "color" : "",
          "id" : 0,
          "u" : "",
          "type" : 0,
          "icon" : ""
        }
      ],
      "vc" : "321545",
      "dishes" : [

      ],
      "sr" : "",
      "ipit" : 0,
      "display_ingredient" : 1,
      "btm_dsp" : [

      ],
      "cookwares" : [

      ],
      "cook_time_image" : "",
      "purl" : "",
      "recipe_tags" : [

      ],
      "thumb_path" : "https:\/\/i1.douguo.com\/upload\/caiku\/1\/d\/8\/300_1df77bbf93a9e29899f1d8e40a8637b8.jpeg",
      "author_id" : 3088213,
      "cookstory" : "早餐除了豆浆油条、包子米粥。我家最爱的就是馅饼，皮包馅大配上一碗热乎乎的粥，再来点小咸菜，就是一份美味的早餐。但早餐时间紧，我们要选择最快速、最简单的做法，才最实用。我家做馅饼要讲究皮薄馅大，这样的馅饼最符合我家的口味，那你喜欢怎样的馅饼呢？我们先从和面说起，了解和面的原理，你也能做出适合你口味的馅饼～"
    }
  },
  "status" : 0,
  "state" : "success"
}