{
  "result" : {
    "recipe" : {
      "sc" : 0,
      "tags" : [

      ],
      "ecs" : 1,
      "mid_mdsp" : [

      ],
      "ipia" : [

      ],
      "rate_show" : 0,
      "eu" : "recipes:\/\/www.douguo.com\/postdetail?id=242016",
      "notes" : [

      ],
      "rpid" : 0,
      "rsm" : "该功能暂停使用",
      "sr" : "",
      "cook_difficulty_image" : "https:\/\/i1.douguo.com\/upload\/banner\/1551424390.png",
      "dish_count_text" : "",
      "old_comments" : [

      ],
      "views_count_text" : "8.6万",
      "recommended" : 0,
      "ph" : 800,
      "cookstep" : [
        {
          "image" : "https:\/\/i1.douguo.com\/upload\/caiku\/7\/0\/2\/70b74d20d6370a5351830f505d5afb52.jpeg",
          "content" : "把蔬菜馅料拌好后备用。",
          "thumb" : "https:\/\/i1.douguo.com\/upload\/caiku\/7\/0\/2\/140_70b74d20d6370a5351830f505d5afb52.jpeg",
          "frame" : "-1",
          "image_width" : 1280,
          "position" : 1,
          "image_height" : 960
        },
        {
          "frame" : "-1",
          "thumb" : "https:\/\/i1.douguo.com\/upload\/caiku\/3\/a\/7\/140_3ac9e1b30353195dcb91078f5eab27c7.jpeg",
          "content" : "馅料放入各种调料拌匀，团成团后在玉米粉中滚圆，团实。",
          "position" : 2,
          "image_width" : 1080,
          "image_height" : 1440,
          "image" : "https:\/\/i1.douguo.com\/upload\/caiku\/3\/a\/7\/3ac9e1b30353195dcb91078f5eab27c7.jpeg"
        },
        {
          "thumb" : "https:\/\/i1.douguo.com\/upload\/caiku\/5\/b\/f\/140_5bcb42f8ad7de30ae6c6dbb5b2b5019f.jpeg",
          "image" : "https:\/\/i1.douguo.com\/upload\/caiku\/5\/b\/f\/5bcb42f8ad7de30ae6c6dbb5b2b5019f.jpeg",
          "image_height" : 1706,
          "content" : "锅中蒸熟。",
          "position" : 3,
          "image_width" : 1280,
          "frame" : "-1"
        },
        {
          "image_width" : 1280,
          "thumb" : "https:\/\/i1.douguo.com\/upload\/caiku\/a\/7\/6\/140_a70b53f0dd16948e2acbabab957f7a36.jpeg",
          "position" : 4,
          "frame" : "-1",
          "image" : "https:\/\/i1.douguo.com\/upload\/caiku\/a\/7\/6\/a70b53f0dd16948e2acbabab957f7a36.jpeg",
          "image_height" : 1706,
          "content" : "营养健康。"
        },
        {
          "image_height" : 1706,
          "content" : "适合不喜欢吃粗粮和蔬菜的孩子们",
          "thumb" : "https:\/\/i1.douguo.com\/upload\/caiku\/f\/1\/9\/140_f11a1f13c8f2e21ce24c032e429b2759.jpeg",
          "position" : 5,
          "frame" : "-1",
          "image_width" : 1280,
          "image" : "https:\/\/i1.douguo.com\/upload\/caiku\/f\/1\/9\/f11a1f13c8f2e21ce24c032e429b2759.jpeg"
        },
        {
          "position" : 6,
          "thumb" : "https:\/\/i1.douguo.com\/upload\/caiku\/1\/a\/2\/140_1a2b48bac5892a251a7b0907950edb62.jpeg",
          "image" : "https:\/\/i1.douguo.com\/upload\/caiku\/1\/a\/2\/1a2b48bac5892a251a7b0907950edb62.jpeg",
          "image_height" : 1706,
          "image_width" : 1280,
          "frame" : "-1",
          "content" : "搭配一份砂锅土豆粉"
        }
      ],
      "v_u" : "",
      "rpt" : "",
      "guide_image" : "",
      "photo_path" : "https:\/\/i1.douguo.com\/upload\/caiku\/e\/4\/4\/600_e4ab453fe27b3f80ce19e9def4422934.jpeg",
      "btm_dsp" : [

      ],
      "rrps" : [

      ],
      "rcs" : [

      ],
      "title" : "菜饽饽",
      "image" : "http:\/\/i1.douguo.net\/upload\/caiku\/e\/4\/4\/300_e4ab453fe27b3f80ce19e9def4422934.jpeg",
      "related_ads" : [

      ],
      "user" : {
        "sign" : "",
        "gender" : 2,
        "nick" : "土豆萝卜的小食光",
        "favor_diaries_count" : 0,
        "subscription_article_count" : 0,
        "userid" : "16041720",
        "diaries_count" : 0,
        "following_count" : 0,
        "verified" : 0,
        "weibo_nick" : "",
        "recipes_count" : 0,
        "subscription" : 0,
        "introduction" : "",
        "user_photo" : "http:\/\/tx1.douguo.net\/upload\/photo\/a\/4\/5\/70_u51227969246520224531.jpeg",
        "lv" : 0,
        "avatar_medium" : "http:\/\/tx1.douguo.net\/upload\/photo\/a\/4\/5\/140_u51227969246520224531.jpeg",
        "location" : 0,
        "qq_weibo_nick" : "",
        "progress_image" : "",
        "birthday" : "",
        "verified_image" : "",
        "dishes_count" : 0,
        "setted_email" : 0,
        "favorites_count" : 0,
        "age" : "",
        "fc" : 0,
        "user_cover" : "",
        "email" : "",
        "regist_time" : "",
        "followers_count" : 0,
        "lvl" : 6,
        "coursecount" : 0,
        "user_large_photo" : "http:\/\/tx1.douguo.net\/upload\/photo\/a\/4\/5\/yuan_u51227969246520224531.jpeg",
        "point" : 0,
        "is_prime" : 0,
        "verified_url" : "https:\/\/m.douguo.com\/user\/prodesc",
        "user_id" : "16041720",
        "pc" : 0,
        "mobile" : "",
        "qzone_nick" : ""
      },
      "ipt" : "",
      "brand_day_dsp" : [

      ],
      "thumb_path" : "https:\/\/i1.douguo.com\/upload\/caiku\/e\/4\/4\/300_e4ab453fe27b3f80ce19e9def4422934.jpeg",
      "share_info" : {
        "mini_program" : [

        ],
        "infos" : [
          {
            "image" : "https:\/\/cp1.douguo.com\/upload\/caiku\/e\/4\/4\/e4ab453fe27b3f80ce19e9def4422934.jpeg",
            "channel" : "1",
            "qr_image" : "",
            "s_u" : "",
            "mini_program" : [

            ],
            "object_id" : "2480620",
            "name" : "菜饽饽-会做饭很酷!",
            "s_d" : "#学做饭用豆果美食# 我在@豆果美食 分享了【菜饽饽-会做饭很酷!】，哟，集美们～你看这是神仙美味～快跟着我做一份，做一份！查看图片了解菜谱（更多美食秘籍点击https:\/\/m.weibo.cn\/p\/100404i33631获取）#会做饭很酷# "
          },
          {
            "object_id" : "2480620",
            "image" : "https:\/\/cp1.douguo.com\/upload\/caiku\/e\/4\/4\/e4ab453fe27b3f80ce19e9def4422934.jpeg",
            "s_u" : "http:\/\/m.douguo.com\/cookbook\/2480620.html",
            "mini_program" : [

            ],
            "qr_image" : "",
            "s_d" : "菜饽饽-会做饭很酷!",
            "channel" : "7",
            "name" : "菜饽饽-会做饭很酷!"
          },
          {
            "qr_image" : "",
            "s_u" : "http:\/\/m.douguo.com\/cookbook\/2480620.html",
            "channel" : "8",
            "image" : "https:\/\/cp1.douguo.com\/upload\/caiku\/e\/4\/4\/e4ab453fe27b3f80ce19e9def4422934.jpeg",
            "mini_program" : [

            ],
            "name" : "菜饽饽-会做饭很酷!",
            "s_d" : "菜饽饽-会做饭很酷!",
            "object_id" : "2480620"
          }
        ],
        "object_id" : "2480620",
        "qr_image" : "",
        "s_d" : "菜饽饽-会做饭很酷!",
        "name" : "菜饽饽-会做饭很酷!",
        "image" : "https:\/\/cp1.douguo.com\/upload\/caiku\/e\/4\/4\/e4ab453fe27b3f80ce19e9def4422934.jpeg",
        "s_u" : "http:\/\/m.douguo.com\/cookbook\/2480620.html"
      },
      "cookstorys" : [

      ],
      "favo_counts_text" : "295",
      "vc" : "86088",
      "packages_id" : [

      ],
      "original_photo_path" : "http:\/\/i1.douguo.net\/upload\/caiku\/e\/4\/4\/yuan_e4ab453fe27b3f80ce19e9def4422934.jpeg",
      "thumb_height" : 0,
      "hq" : 1,
      "ipit" : 0,
      "author_photo" : "http:\/\/tx1.douguo.net\/upload\/photo\/a\/4\/5\/70_u51227969246520224531.jpeg",
      "major" : [
        {
          "tu" : "https:\/\/m.douguo.com\/ingredients\/玉米面\/detailmaterial",
          "note" : "适量",
          "title" : "玉米面"
        },
        {
          "title" : "菠菜",
          "tu" : "https:\/\/m.douguo.com\/ingredients\/菠菜\/detailmaterial",
          "note" : "300g"
        },
        {
          "note" : "3个",
          "title" : "鸡蛋",
          "tu" : "https:\/\/m.douguo.com\/ingredients\/鸡蛋\/detailmaterial"
        },
        {
          "tu" : "https:\/\/m.douguo.com\/ingredients\/胡萝卜\/detailmaterial",
          "title" : "胡萝卜",
          "note" : "250g"
        },
        {
          "note" : "适量",
          "title" : "色拉油",
          "tu" : "https:\/\/m.douguo.com\/ingredients\/色拉油\/detailmaterial"
        },
        {
          "title" : "盐",
          "tu" : "https:\/\/m.douguo.com\/ingredients\/盐\/detailmaterial",
          "note" : "适量"
        },
        {
          "note" : "适量",
          "tu" : "https:\/\/m.douguo.com\/ingredients\/糖\/detailmaterial",
          "title" : "糖"
        },
        {
          "tu" : "https:\/\/m.douguo.com\/ingredients\/蚝油\/detailmaterial",
          "title" : "蚝油",
          "note" : "一勺"
        },
        {
          "title" : "胡椒粉",
          "note" : "适量",
          "tu" : "https:\/\/m.douguo.com\/ingredients\/胡椒粉\/detailmaterial"
        },
        {
          "title" : "香油",
          "note" : "适量",
          "tu" : "https:\/\/m.douguo.com\/ingredients\/香油\/detailmaterial"
        }
      ],
      "create_time" : "2020-05-04 14:02:19",
      "comments_count" : 1,
      "recent_comments" : [

      ],
      "recommend_label" : "8.6万人看过",
      "rdsps" : [

      ],
      "cookwares" : [

      ],
      "ipci" : "",
      "ssu" : "",
      "dishes" : [

      ],
      "act_des" : "",
      "tips" : "",
      "rrpt" : "",
      "vu" : "",
      "advice" : {
        "has" : [
          {
            "t" : "富含维生素A",
            "url" : "recipes:\/\/www.douguo.com\/simplerecipelist?t=富含维生素A&id=富含维生素A"
          }
        ],
        "da" : {
          "iu" : "https:\/\/i1.douguo.com\/upload\/banner\/f\/4\/d\/f48877e53c37759bc12ac494be82ec8d.png",
          "url" : "https:\/\/m.douguo.com\/recipe\/nutrient_self\/2480620",
          "t" : "查看详细分析"
        },
        "at" : "有助于维持皮肤和黏膜健康～"
      },
      "favo_counts" : 295,
      "su" : "",
      "vfurl" : "",
      "bs" : [

      ],
      "display_ingredient" : 1,
      "recommendation_tag" : "",
      "recipe_tags" : [

      ],
      "rips" : 0,
      "comments" : [
        "{\n    ac = \"#999999\";\n    at = \"\";\n    ccc = 0;\n    \"child_comments\" =     (\n    );\n    city = \"\";\n    cmc = 2;\n    content =     (\n                {\n            c = \"\\U770b\\U4e0a\\U53bb\\U8fd8\\U662f\\U4e0d\\U9519\\U7684\\Uff0c\\U5f88\\U6709\\U98df\\U6b32\\U6ef4\\Uff01\";\n        }\n    );\n    ia = 0;\n    id = 7945928;\n    \"ip_address_location\" = \"\";\n    like = 0;\n    \"like_count\" = 0;\n    \"reply_id\" = 0;\n    \"sticker_icon\" =     (\n    );\n    time = \"2020-05-04 15:26:03\";\n    u =     {\n        \"followers_count_text\" = \"\";\n        id = 18543125;\n        \"is_prime\" = 0;\n        lv = 0;\n        lvl = 1;\n        n = \"\\U52aa\\U529b\\U5b66\\U4e60\\U7684\\U4e3b\\U5987\";\n        p = \"http:\/\/tx1.douguo.net\/upload\/photo\/7\/8\/d\/70_u20062939155260408221855.jpg\";\n        \"progress_image\" = \"\";\n        \"recipes_count_text\" = \"\";\n        relationship = \"-1\";\n        title = \"\";\n        v = 0;\n        \"verified_image\" = \"\";\n    };\n}"
      ],
      "story_dsp" : [

      ],
      "first_level_comment_count" : 1,
      "rate_count" : 0,
      "rewarded_video_dsp" : [

      ],
      "top_mdsp" : [

      ],
      "release_time" : "",
      "pw" : 600,
      "rate" : 0,
      "cook_difficulty" : "切墩(初级)",
      "author_verified" : 0,
      "recipe_list_tags" : [
        {
          "background_end_color" : "#F4F5F5",
          "text" : "关注的人",
          "background_start_color" : "#F4F5F5",
          "jump_url" : "",
          "text_color" : "#141515",
          "background_border_color" : "",
          "right_image" : ""
        }
      ],
      "author_id" : 16041720,
      "comments_count_text" : "1",
      "dish_count" : 0,
      "purl" : "",
      "hqu" : "recipes:\/\/www.douguo.com\/notedetail?id=21162253",
      "clicks" : "73216",
      "ipoi" : "",
      "minor" : [

      ],
      "cook_time" : "30~60分钟",
      "cook_id" : "2480620",
      "cook_time_image" : "https:\/\/i1.douguo.com\/upload\/banner\/1551424318.png",
      "ss" : [

      ],
      "rpst" : "",
      "author" : "土豆萝卜的小食光",
      "title_ad" : [

      ],
      "levelid" : 2,
      "collect_status" : 0,
      "ipurl" : "",
      "cookstory" : ""
    }
  },
  "state" : "success",
  "status" : 0
}