{
  "state" : "success",
  "status" : 0,
  "result" : {
    "recipe" : {
      "old_comments" : [

      ],
      "ssu" : "",
      "hq" : 1,
      "ipoi" : "",
      "tags" : [
        "{\n    text = \"\\U751c\\U54c1\";\n}",
        "{\n    text = \"\\U996e\\U54c1\";\n}",
        "{\n    text = \"\\U5c0f\\U5403\";\n}",
        "{\n    text = \"\\U69a8\\U6c41\\U673a\\U98df\\U8c31\";\n}",
        "{\n    text = \"\\U69a8\\U6c41\";\n}",
        "{\n    text = \"\\U751c\";\n}",
        "{\n    text = \"\\U723d\\U53e3\";\n}",
        "{\n    text = \"\\U5348\\U9910\";\n}",
        "{\n    text = \"\\U4e00\\U5bb6\\U4e09\\U53e3\";\n}"
      ],
      "comments_count" : 22,
      "original_photo_path" : "http:\/\/i1.douguo.net\/upload\/caiku\/6\/f\/f\/yuan_6f1cc2034a2f40ab6e39116739d7900f.jpg",
      "photo_path" : "https:\/\/i1.douguo.com\/upload\/caiku\/6\/f\/f\/600_6f1cc2034a2f40ab6e39116739d7900f.jpg",
      "release_time" : "",
      "rrps" : [

      ],
      "dishes" : [

      ],
      "rrpt" : "",
      "rpid" : 0,
      "comments_count_text" : "22",
      "btm_dsp" : [

      ],
      "author_verified" : 0,
      "recommendation_tag" : "",
      "author" : "姝susie",
      "rips" : 0,
      "recommend_label" : "10人学做",
      "ipit" : 0,
      "hqu" : "recipes:\/\/www.douguo.com\/notedetail?id=21162253",
      "create_time" : "2016-06-24 07:14:39",
      "v_u" : "",
      "vu" : "",
      "ipurl" : "",
      "packages_id" : [

      ],
      "user" : {
        "verified_url" : "https:\/\/m.douguo.com\/user\/prodesc",
        "verified" : 0,
        "favorites_count" : 0,
        "following_count" : 0,
        "introduction" : "",
        "user_cover" : "",
        "setted_email" : 0,
        "favor_diaries_count" : 0,
        "user_id" : "9603352",
        "avatar_medium" : "http:\/\/tx1.douguo.net\/upload\/photo\/4\/e\/4\/140_u32740257537425223425.jpeg",
        "is_prime" : 0,
        "birthday" : "",
        "pc" : 0,
        "fc" : 0,
        "age" : "",
        "sign" : "",
        "mobile" : "",
        "progress_image" : "",
        "qzone_nick" : "",
        "point" : 0,
        "verified_image" : "",
        "diaries_count" : 0,
        "userid" : "9603352",
        "subscription_article_count" : 0,
        "coursecount" : 0,
        "qq_weibo_nick" : "",
        "regist_time" : "",
        "subscription" : 0,
        "email" : "",
        "lvl" : 6,
        "followers_count" : 0,
        "nick" : "姝susie",
        "lv" : 0,
        "location" : 0,
        "user_large_photo" : "http:\/\/tx1.douguo.net\/upload\/photo\/4\/e\/4\/yuan_u32740257537425223425.jpeg",
        "weibo_nick" : "",
        "gender" : 2,
        "user_photo" : "http:\/\/tx1.douguo.net\/upload\/photo\/4\/e\/4\/70_u32740257537425223425.jpeg",
        "dishes_count" : 0,
        "recipes_count" : 0
      },
      "ecs" : 0,
      "cookstorys" : [
        {
          "icon" : "",
          "color" : "",
          "id" : 0,
          "c" : "西芹热量低，膳食纤维含量高，有利于肠道消化和吸收，帮助排出体内杂质；苹果中丰富的果胶能将体内多余的胆固醇排出体外，达到减肥的目的。",
          "type" : 0,
          "u" : ""
        }
      ],
      "cook_time" : "",
      "recent_comments" : [

      ],
      "mid_mdsp" : [

      ],
      "author_photo" : "http:\/\/tx1.douguo.net\/upload\/photo\/4\/e\/4\/70_u32740257537425223425.jpeg",
      "notes" : [

      ],
      "bs" : [

      ],
      "favo_counts" : 8033,
      "cook_time_image" : "",
      "share_info" : {
        "infos" : [
          {
            "qr_image" : "",
            "s_u" : "",
            "object_id" : "1399430",
            "s_d" : "#学做饭用豆果美食#  我在@豆果美食 分享了【【减肥果蔬汁】西芹苹果汁-会做饭很酷!】，制作美食的过程承载了我生活中的热情，和我一起感受这份小确幸吧！查看图片了解菜谱（你喜欢的美食都在这里！https:\/\/m.weibo.cn\/p\/100404i33631）#会做饭很酷# ",
            "channel" : "1",
            "name" : "【减肥果蔬汁】西芹苹果汁-会做饭很酷!",
            "image" : "https:\/\/cp1.douguo.com\/upload\/caiku\/6\/f\/f\/6f1cc2034a2f40ab6e39116739d7900f.jpg",
            "mini_program" : [

            ]
          },
          {
            "s_d" : "【减肥果蔬汁】西芹苹果汁-会做饭很酷!",
            "name" : "【减肥果蔬汁】西芹苹果汁-会做饭很酷!",
            "qr_image" : "",
            "object_id" : "1399430",
            "channel" : "7",
            "s_u" : "http:\/\/m.douguo.com\/cookbook\/1399430.html",
            "mini_program" : [

            ],
            "image" : "https:\/\/cp1.douguo.com\/upload\/caiku\/6\/f\/f\/6f1cc2034a2f40ab6e39116739d7900f.jpg"
          },
          {
            "name" : "【减肥果蔬汁】西芹苹果汁-会做饭很酷!",
            "qr_image" : "",
            "s_d" : "【减肥果蔬汁】西芹苹果汁-会做饭很酷!",
            "object_id" : "1399430",
            "mini_program" : [

            ],
            "s_u" : "http:\/\/m.douguo.com\/cookbook\/1399430.html",
            "channel" : "8",
            "image" : "https:\/\/cp1.douguo.com\/upload\/caiku\/6\/f\/f\/6f1cc2034a2f40ab6e39116739d7900f.jpg"
          }
        ],
        "s_d" : "【减肥果蔬汁】西芹苹果汁-会做饭很酷!",
        "image" : "https:\/\/cp1.douguo.com\/upload\/caiku\/6\/f\/f\/6f1cc2034a2f40ab6e39116739d7900f.jpg",
        "object_id" : "1399430",
        "mini_program" : [

        ],
        "s_u" : "http:\/\/m.douguo.com\/cookbook\/1399430.html",
        "qr_image" : "",
        "name" : "【减肥果蔬汁】西芹苹果汁-会做饭很酷!"
      },
      "pw" : 800,
      "minor" : [

      ],
      "rate" : 4,
      "rate_count" : 8,
      "cookstep" : [
        {
          "content" : "准备材料。",
          "position" : 1,
          "thumb" : "https:\/\/i1.douguo.com\/upload\/caiku\/c\/c\/1\/140_cc997594eee8e089ee889b2c5839e921.jpg",
          "image_width" : 799,
          "image" : "https:\/\/i1.douguo.com\/upload\/caiku\/c\/c\/1\/cc997594eee8e089ee889b2c5839e921.jpg",
          "image_height" : 601,
          "frame" : "-1"
        },
        {
          "frame" : "-1",
          "position" : 2,
          "image" : "https:\/\/i1.douguo.com\/upload\/caiku\/6\/e\/f\/6e9b0ad68a19c5019af5877f876ce09f.jpg",
          "content" : "西芹洗净，切小段；苹果洗净去皮去核，切小块。",
          "image_width" : 799,
          "image_height" : 601,
          "thumb" : "https:\/\/i1.douguo.com\/upload\/caiku\/6\/e\/f\/140_6e9b0ad68a19c5019af5877f876ce09f.jpg"
        },
        {
          "content" : "将西芹、苹果和凉开水放入榨汁机，搅打成汁即可。",
          "image" : "",
          "image_height" : 0,
          "image_width" : 0,
          "thumb" : "",
          "frame" : "-1",
          "position" : 3
        }
      ],
      "related_ads" : [

      ],
      "ss" : [

      ],
      "cookstory" : "西芹热量低，膳食纤维含量高，有利于肠道消化和吸收，帮助排出体内杂质；苹果中丰富的果胶能将体内多余的胆固醇排出体外，达到减肥的目的。",
      "tips" : "",
      "views_count_text" : "78.3万",
      "advice" : {
        "has" : [
          {
            "t" : "低热量",
            "url" : "recipes:\/\/www.douguo.com\/simplerecipelist?t=低热量&id=低热量"
          },
          {
            "t" : "低盐",
            "url" : "recipes:\/\/www.douguo.com\/simplerecipelist?t=低盐&id=低盐"
          }
        ],
        "at" : "能有效控制体重～",
        "da" : {
          "t" : "查看详细分析",
          "url" : "https:\/\/m.douguo.com\/recipe\/nutrient_self\/1399430",
          "iu" : "https:\/\/i1.douguo.com\/upload\/banner\/f\/4\/d\/f48877e53c37759bc12ac494be82ec8d.png"
        }
      },
      "first_level_comment_count" : 14,
      "ipt" : "",
      "image" : "http:\/\/i1.douguo.net\/upload\/caiku\/6\/f\/f\/300_6f1cc2034a2f40ab6e39116739d7900f.jpg",
      "su" : "",
      "ph" : 534,
      "rpst" : "",
      "recommended" : 0,
      "recipe_list_tags" : [
        {
          "background_border_color" : "",
          "right_image" : "",
          "text_color" : "#141515",
          "text" : "关注的人",
          "background_end_color" : "#F4F5F5",
          "background_start_color" : "#F4F5F5",
          "jump_url" : ""
        }
      ],
      "eu" : "recipes:\/\/www.douguo.com\/postdetail?id=242016",
      "rewarded_video_dsp" : [

      ],
      "ipci" : "",
      "favo_counts_text" : "8033",
      "act_des" : "",
      "major" : [
        {
          "title" : "西芹",
          "note" : "100g",
          "tu" : "https:\/\/m.douguo.com\/ingredients\/西芹\/detailmaterial"
        },
        {
          "title" : "苹果",
          "tu" : "https:\/\/m.douguo.com\/ingredients\/苹果\/detailmaterial",
          "note" : "1个(去皮后约200g)"
        },
        {
          "note" : "100ml",
          "title" : "凉开水"
        }
      ],
      "thumb_path" : "https:\/\/i1.douguo.com\/upload\/caiku\/6\/f\/f\/300_6f1cc2034a2f40ab6e39116739d7900f.jpg",
      "dish_count_text" : "10",
      "rate_show" : 0,
      "recipe_tags" : [

      ],
      "title_ad" : [

      ],
      "purl" : "",
      "title" : "【减肥果蔬汁】西芹苹果汁",
      "display_ingredient" : 1,
      "brand_day_dsp" : [

      ],
      "story_dsp" : [

      ],
      "rsm" : "该功能暂停使用",
      "cook_difficulty_image" : "",
      "sc" : 0,
      "sr" : "",
      "cook_id" : "1399430",
      "rpt" : "",
      "rcs" : [

      ],
      "ipia" : [

      ],
      "dish_count" : 10,
      "comments" : [
        "{\n    ac = \"#999999\";\n    at = \"\";\n    ccc = 2;\n    \"child_comments\" =     (\n                {\n            ac = \"#999999\";\n            at = \"\\U8302\\U540d\\U5e02\";\n            ccc = 0;\n            city = \"\\U8302\\U540d\\U5e02\";\n            cmc = 2;\n            content =             (\n                                {\n                    c = \" \\U6d3e\\U591a\\U4e50\\U5973\\U795e\\U676f\\Uff0c\\U4fbf\\U643a\\U5f0f\\U7684\";\n                }\n            );\n            ia = 0;\n            id = 5839701;\n            \"ip_address_location\" = \"\";\n            like = 0;\n            \"like_count\" = 0;\n            \"reply_id\" = 4665905;\n            \"reply_user\" =             {\n                \"followers_count_text\" = \"\";\n                id = 2937124;\n                \"is_prime\" = 0;\n                lv = 0;\n                lvl = 3;\n                n = \"\\U5357\\U59888\";\n                p = \"http:\/\/tx1.douguo.net\/upload\/photo\/8\/b\/f\/70_u73078000744323114625.jpg\";\n                \"progress_image\" = \"\";\n                \"recipes_count_text\" = \"\";\n                relationship = \"-1\";\n                title = \"\";\n                v = 0;\n                \"verified_image\" = \"\";\n            };\n            \"sticker_icon\" =             (\n            );\n            time = \"2018-07-11 11:13:59\";\n            u =             {\n                \"followers_count_text\" = \"\";\n                id = 16850606;\n                \"is_prime\" = 0;\n                lv = 0;\n                lvl = 2;\n                n = \"\\U529b\\U91cf\\U5988\\U5988\";\n                p = \"http:\/\/tx1.douguo.net\/upload\/photo\/0\/3\/9\/70_u57929629301059215904.jpeg\";\n                \"progress_image\" = \"\";\n                \"recipes_count_text\" = \"\";\n                relationship = \"-1\";\n                title = \"\";\n                v = 0;\n                \"verified_image\" = \"\";\n            };\n        },\n                {\n            ac = \"#999999\";\n            at = \"\\U7ef5\\U9633\\U5e02\";\n            ccc = 0;\n            city = \"\\U7ef5\\U9633\\U5e02\";\n            cmc = 2;\n            content =             (\n                                {\n                    c = \" \\U6211\\U7528\\U7684\\U7834\\U58c1\\U673a\";\n                }\n            );\n            ia = 0;\n            id = 6485740;\n            \"ip_address_location\" = \"\";\n            like = 0;\n            \"like_count\" = 0;\n            \"reply_id\" = 4665905;\n            \"reply_user\" =             {\n                \"followers_count_text\" = \"\";\n                id = 2937124;\n                \"is_prime\" = 0;\n                lv = 0;\n                lvl = 3;\n                n = \"\\U5357\\U59888\";\n                p = \"http:\/\/tx1.douguo.net\/upload\/photo\/8\/b\/f\/70_u73078000744323114625.jpg\";\n                \"progress_image\" = \"\";\n                \"recipes_count_text\" = \"\";\n                relationship = \"-1\";\n                title = \"\";\n                v = 0;\n                \"verified_image\" = \"\";\n            };\n            \"sticker_icon\" =             (\n            );\n            time = \"2019-04-04 18:51:10\";\n            u =             {\n                \"followers_count_text\" = \"\";\n                id = 22273511;\n                \"is_prime\" = 0;\n                lv = 0;\n                lvl = 4;\n                n = \"\\U7b11\\U772f\\U772fh\\U5927\\U767d\\U83dc\";\n                p = \"http:\/\/tx1.douguo.net\/upload\/photo\/4\/7\/4\/70_4705f0a5a1c4373dc5a6bdecc2905e34.jpg\";\n                \"progress_image\" = \"\";\n                \"recipes_count_text\" = \"\";\n                relationship = \"-1\";\n                title = \"\";\n                v = 0;\n                \"verified_image\" = \"\";\n            };\n        }\n    );\n    city = \"\";\n    cmc = 2;\n    content =     (\n                {\n            c = \"\\U60f3\\U95ee\\U54ea\\U79cd\\U69a8\\U6c41\\U673a\\U6bd4\\U8f83\\U597d\\U5462\";\n        }\n    );\n    ia = 0;\n    id = 4665905;\n    \"ip_address_location\" = \"\";\n    like = 0;\n    \"like_count\" = 0;\n    \"reply_id\" = 0;\n    \"sticker_icon\" =     (\n    );\n    time = \"2017-04-23 01:36:55\";\n    u =     {\n        \"followers_count_text\" = \"\";\n        id = 2937124;\n        \"is_prime\" = 0;\n        lv = 0;\n        lvl = 3;\n        n = \"\\U5357\\U59888\";\n        p = \"http:\/\/tx1.douguo.net\/upload\/photo\/8\/b\/f\/70_u73078000744323114625.jpg\";\n        \"progress_image\" = \"\";\n        \"recipes_count_text\" = \"\";\n        relationship = \"-1\";\n        title = \"\";\n        v = 0;\n        \"verified_image\" = \"\";\n    };\n}",
        "{\n    ac = \"#999999\";\n    at = \"\\U6e29\\U5dde\\U5e02\";\n    ccc = 1;\n    \"child_comments\" =     (\n                {\n            ac = \"#999999\";\n            at = \"\\U53a6\\U95e8\\U5e02\";\n            ccc = 0;\n            city = \"\\U53a6\\U95e8\\U5e02\";\n            cmc = 2;\n            content =             (\n                                {\n                    c = \" \\U4e0d\\U7528\\Uff5e\";\n                }\n            );\n            ia = 1;\n            id = 7615246;\n            \"ip_address_location\" = \"\";\n            like = 0;\n            \"like_count\" = 0;\n            \"reply_id\" = 7614403;\n            \"reply_user\" =             {\n                \"followers_count_text\" = \"\";\n                id = 24781880;\n                \"is_prime\" = 0;\n                lv = 0;\n                lvl = 1;\n                n = \"\\U653e\\U8086\\U7684\\U767d\\U6761\\U9c7c\\U5f88\\U6709\\U94b1\";\n                p = \"http:\/\/tx1.douguo.net\/upload\/photo\/1\/1\/1\/70_917a55641e1c847c219cc6bffed8874e.png\";\n                \"progress_image\" = \"\";\n                \"recipes_count_text\" = \"\";\n                relationship = \"-1\";\n                title = \"\";\n                v = 0;\n                \"verified_image\" = \"\";\n            };\n            \"sticker_icon\" =             (\n            );\n            time = \"2020-02-12 13:46:55\";\n            u =             {\n                \"followers_count_text\" = \"\";\n                id = 9603352;\n                \"is_prime\" = 0;\n                lv = 0;\n                lvl = 6;\n                n = \"\\U59ddsusie\";\n                p = \"http:\/\/tx1.douguo.net\/upload\/photo\/4\/e\/4\/70_u32740257537425223425.jpeg\";\n                \"progress_image\" = \"\";\n                \"recipes_count_text\" = \"\";\n                relationship = \"-1\";\n                title = \"\";\n                v = 0;\n                \"verified_image\" = \"\";\n            };\n        }\n    );\n    city = \"\\U6e29\\U5dde\\U5e02\";\n    cmc = 2;\n    content =     (\n                {\n            c = \"\\U9700\\U8981\\U8fc7\\U6e23\\U5417\";\n        }\n    );\n    ia = 0;\n    id = 7614403;\n    \"ip_address_location\" = \"\";\n    like = 0;\n    \"like_count\" = 0;\n    \"reply_id\" = 0;\n    \"sticker_icon\" =     (\n    );\n    time = \"2020-02-12 01:40:52\";\n    u =     {\n        \"followers_count_text\" = \"\";\n        id = 24781880;\n        \"is_prime\" = 0;\n        lv = 0;\n        lvl = 1;\n        n = \"\\U653e\\U8086\\U7684\\U767d\\U6761\\U9c7c\\U5f88\\U6709\\U94b1\";\n        p = \"http:\/\/tx1.douguo.net\/upload\/photo\/1\/1\/1\/70_917a55641e1c847c219cc6bffed8874e.png\";\n        \"progress_image\" = \"\";\n        \"recipes_count_text\" = \"\";\n        relationship = \"-1\";\n        title = \"\";\n        v = 0;\n        \"verified_image\" = \"\";\n    };\n}",
        "{\n    ac = \"#999999\";\n    at = \"\\U68a7\\U5dde\\U5e02\";\n    ccc = 1;\n    \"child_comments\" =     (\n                {\n            ac = \"#999999\";\n            at = \"\\U7ef5\\U9633\\U5e02\";\n            ccc = 0;\n            city = \"\\U7ef5\\U9633\\U5e02\";\n            cmc = 2;\n            content =             (\n                                {\n                    c = \" \\U4e0d\\U7528\\Uff0c\\U5c31\\U7528\\U9c9c\\U7684\";\n                }\n            );\n            ia = 0;\n            id = 6485737;\n            \"ip_address_location\" = \"\";\n            like = 0;\n            \"like_count\" = 0;\n            \"reply_id\" = 5623493;\n            \"reply_user\" =             {\n                \"followers_count_text\" = \"\";\n                id = 21932462;\n                \"is_prime\" = 0;\n                lv = 0;\n                lvl = 2;\n                n = \"\\U5c0f\\U53ef\\U8010\\U6e05\\U6e05\";\n                p = \"http:\/\/tx1.douguo.net\/upload\/photo\/2\/5\/4\/70_u23974762956311222145.jpg\";\n                \"progress_image\" = \"\";\n                \"recipes_count_text\" = \"\";\n                relationship = \"-1\";\n                title = \"\";\n                v = 0;\n                \"verified_image\" = \"\";\n            };\n            \"sticker_icon\" =             (\n            );\n            time = \"2019-04-04 18:50:18\";\n            u =             {\n                \"followers_count_text\" = \"\";\n                id = 22273511;\n                \"is_prime\" = 0;\n                lv = 0;\n                lvl = 4;\n                n = \"\\U7b11\\U772f\\U772fh\\U5927\\U767d\\U83dc\";\n                p = \"http:\/\/tx1.douguo.net\/upload\/photo\/4\/7\/4\/70_4705f0a5a1c4373dc5a6bdecc2905e34.jpg\";\n                \"progress_image\" = \"\";\n                \"recipes_count_text\" = \"\";\n                relationship = \"-1\";\n                title = \"\";\n                v = 0;\n                \"verified_image\" = \"\";\n            };\n        }\n    );\n    city = \"\\U68a7\\U5dde\\U5e02\";\n    cmc = 2;\n    content =     (\n                {\n            c = \"\\U69a8\\U597d\\U4e4b\\U540e  \\U7528\\U716e\\U8fc7\\U518d\\U559d\\U5417\\Uff1f\";\n        }\n    );\n    ia = 0;\n    id = 5623493;\n    \"ip_address_location\" = \"\";\n    like = 0;\n    \"like_count\" = 0;\n    \"reply_id\" = 0;\n    \"sticker_icon\" =     (\n    );\n    time = \"2018-04-21 20:22:32\";\n    u =     {\n        \"followers_count_text\" = \"\";\n        id = 21932462;\n        \"is_prime\" = 0;\n        lv = 0;\n        lvl = 2;\n        n = \"\\U5c0f\\U53ef\\U8010\\U6e05\\U6e05\";\n        p = \"http:\/\/tx1.douguo.net\/upload\/photo\/2\/5\/4\/70_u23974762956311222145.jpg\";\n        \"progress_image\" = \"\";\n        \"recipes_count_text\" = \"\";\n        relationship = \"-1\";\n        title = \"\";\n        v = 0;\n        \"verified_image\" = \"\";\n    };\n}"
      ],
      "rdsps" : [

      ],
      "levelid" : 2,
      "vfurl" : "",
      "clicks" : "740551",
      "top_mdsp" : [

      ],
      "cook_difficulty" : "",
      "cookwares" : [

      ],
      "vc" : "783475",
      "guide_image" : "",
      "author_id" : 9603352,
      "thumb_height" : 0,
      "collect_status" : 0
    }
  }
}