{
  "status" : 0,
  "state" : "success",
  "result" : {
    "recipe" : {
      "sc" : 0,
      "advice" : {
        "at" : "能有效控制体重～",
        "has" : [
          {
            "t" : "低脂",
            "url" : "recipes:\/\/www.douguo.com\/simplerecipelist?t=低脂&id=低脂"
          },
          {
            "t" : "低饱和脂肪",
            "url" : "recipes:\/\/www.douguo.com\/simplerecipelist?t=低饱和脂肪&id=低饱和脂肪"
          }
        ],
        "da" : {
          "url" : "https:\/\/m.douguo.com\/recipe\/nutrient_self\/1614063",
          "iu" : "https:\/\/i1.douguo.com\/upload\/banner\/f\/4\/d\/f48877e53c37759bc12ac494be82ec8d.png",
          "t" : "查看详细分析"
        }
      },
      "ph" : 637,
      "vfurl" : "",
      "rate_show" : 0,
      "rate" : 0,
      "comments_count_text" : "6",
      "ipia" : [

      ],
      "author_photo" : "http:\/\/tx1.douguo.net\/upload\/photo\/5\/0\/4\/70_u9509150534528151223.jpeg",
      "tags" : [

      ],
      "ipoi" : "",
      "author_id" : 20259999,
      "hq" : 1,
      "old_comments" : [

      ],
      "story_dsp" : [

      ],
      "dish_count" : 0,
      "related_ads" : [

      ],
      "rate_count" : 0,
      "dish_count_text" : "",
      "ss" : [

      ],
      "cook_time" : "",
      "rrpt" : "",
      "recipe_tags" : [

      ],
      "ssu" : "",
      "cook_id" : "1614063",
      "vc" : "209605",
      "original_photo_path" : "http:\/\/i1.douguo.net\/upload\/caiku\/d\/6\/e\/yuan_d6454d7e98946f25fc60ae207cf50afe.png",
      "comments" : [
        "{\n    ac = \"#999999\";\n    at = \"\";\n    ccc = 0;\n    \"child_comments\" =     (\n    );\n    city = \"\";\n    cmc = 2;\n    content =     (\n                {\n            c = \"\\U5065\\U5eb7\\U65b0\\U65f6\\U5c1a\\Uff01\\Uff01 \";\n        }\n    );\n    ia = 0;\n    id = 5163766;\n    \"ip_address_location\" = \"\";\n    like = 0;\n    \"like_count\" = 0;\n    \"reply_id\" = 0;\n    \"sticker_icon\" =     (\n    );\n    time = \"2017-11-07 13:26:24\";\n    u =     {\n        \"followers_count_text\" = \"\";\n        id = 3734328;\n        \"is_prime\" = 0;\n        lv = 0;\n        lvl = 7;\n        n = Elenayan;\n        p = \"http:\/\/tx1.douguo.net\/upload\/photo\/9\/0\/2\/70_u86917275101216175157.jpg\";\n        \"progress_image\" = \"\";\n        \"recipes_count_text\" = \"\";\n        relationship = \"-1\";\n        title = \"\";\n        v = 1;\n        \"verified_image\" = \"\";\n    };\n}",
        "{\n    ac = \"#999999\";\n    at = \"\";\n    ccc = 0;\n    \"child_comments\" =     (\n    );\n    city = \"\";\n    cmc = 2;\n    content =     (\n    );\n    ia = 0;\n    id = 5122190;\n    \"ip_address_location\" = \"\";\n    like = 0;\n    \"like_count\" = 0;\n    \"reply_id\" = 0;\n    \"sticker_icon\" =     (\n    );\n    time = \"2017-10-18 13:31:58\";\n    u =     {\n        \"followers_count_text\" = \"\";\n        id = 17540240;\n        \"is_prime\" = 0;\n        lv = 0;\n        lvl = 5;\n        n = \"\\U5927\\U706f\\U7b3c\";\n        p = \"http:\/\/tx1.douguo.net\/upload\/photo\/7\/3\/0\/70_u64270785554726150056.jpg\";\n        \"progress_image\" = \"\";\n        \"recipes_count_text\" = \"\";\n        relationship = \"-1\";\n        title = \"\";\n        v = 0;\n        \"verified_image\" = \"\";\n    };\n}",
        "{\n    ac = \"#999999\";\n    at = \"\";\n    ccc = 0;\n    \"child_comments\" =     (\n    );\n    city = \"\";\n    cmc = 2;\n    content =     (\n                {\n            c = \"\\U8d5e\\U8d5e\\U8d5e\\U8d5e\";\n        }\n    );\n    ia = 0;\n    id = 5121016;\n    \"ip_address_location\" = \"\";\n    like = 0;\n    \"like_count\" = 0;\n    \"reply_id\" = 0;\n    \"sticker_icon\" =     (\n    );\n    time = \"2017-10-18 03:22:25\";\n    u =     {\n        \"followers_count_text\" = \"\";\n        id = 21101689;\n        \"is_prime\" = 0;\n        lv = 0;\n        lvl = 5;\n        n = \"\\U55b5_\\U55b5\\U54d2\";\n        p = \"http:\/\/tx1.douguo.net\/upload\/photo\/0\/0\/2\/70_u06679432463500180748.jpeg\";\n        \"progress_image\" = \"\";\n        \"recipes_count_text\" = \"\";\n        relationship = \"-1\";\n        title = \"\";\n        v = 0;\n        \"verified_image\" = \"\";\n    };\n}"
      ],
      "cook_difficulty_image" : "",
      "image" : "http:\/\/i1.douguo.net\/upload\/caiku\/d\/6\/e\/300_d6454d7e98946f25fc60ae207cf50afe.png",
      "clicks" : "206117",
      "cook_difficulty" : "",
      "thumb_path" : "https:\/\/i1.douguo.com\/upload\/caiku\/d\/6\/e\/300_d6454d7e98946f25fc60ae207cf50afe.png",
      "author_verified" : 2,
      "title_ad" : [

      ],
      "cookwares" : [

      ],
      "recommendation_tag" : "",
      "guide_image" : "",
      "purl" : "",
      "create_time" : "2017-10-11 14:37:37",
      "levelid" : 2,
      "ipurl" : "",
      "recommend_label" : "21.0万人看过",
      "cookstep" : [
        {
          "content" : "用切片刀盘分别将黄瓜,樱桃萝卜,球生菜,紫甘蓝切成片状和丝状。",
          "image" : "https:\/\/i1.douguo.com\/upload\/caiku\/2\/a\/f\/2a093de83ef8dc7de7cc46534d6987ff.png",
          "image_width" : 706,
          "thumb" : "https:\/\/i1.douguo.com\/upload\/caiku\/2\/a\/f\/140_2a093de83ef8dc7de7cc46534d6987ff.png",
          "frame" : "-1",
          "position" : 1,
          "image_height" : 638
        },
        {
          "thumb" : "https:\/\/i1.douguo.com\/upload\/caiku\/3\/8\/7\/140_38bebbc020006145722a53cfdab34857.png",
          "frame" : "-1",
          "image_height" : 551,
          "position" : 2,
          "image_width" : 875,
          "content" : "将红椒和胡萝卜切成片状和丝状，将小黄番茄对剖。",
          "image" : "https:\/\/i1.douguo.com\/upload\/caiku\/3\/8\/7\/38bebbc020006145722a53cfdab34857.png"
        },
        {
          "image_width" : 894,
          "image" : "https:\/\/i1.douguo.com\/upload\/caiku\/e\/0\/b\/e0c09bee44cf84abeef0927c3a6c550b.png",
          "image_height" : 610,
          "thumb" : "https:\/\/i1.douguo.com\/upload\/caiku\/e\/0\/b\/140_e0c09bee44cf84abeef0927c3a6c550b.png",
          "content" : "在碗中放入果珍醋,芝麻色拉酱,花生酱和蜂蜜，用手持电动搅拌机搅拌制得沙拉酱后，在盘底垫上苦菊和芝麻菜，放入切好的蔬菜，再淋上沙拉酱即可。",
          "position" : 3,
          "frame" : "-1"
        }
      ],
      "ipt" : "",
      "notes" : [

      ],
      "rewarded_video_dsp" : [

      ],
      "eu" : "recipes:\/\/www.douguo.com\/postdetail?id=242016",
      "favo_counts" : 695,
      "recent_comments" : [

      ],
      "rpt" : "",
      "v_u" : "",
      "rcs" : [

      ],
      "comments_count" : 6,
      "rpst" : "",
      "brand_day_dsp" : [

      ],
      "rdsps" : [

      ],
      "recipe_list_tags" : [
        {
          "text" : "关注的人",
          "right_image" : "",
          "text_color" : "#141515",
          "background_border_color" : "",
          "jump_url" : "",
          "background_start_color" : "#F4F5F5",
          "background_end_color" : "#F4F5F5"
        }
      ],
      "pw" : 1118,
      "rsm" : "该功能暂停使用",
      "top_mdsp" : [

      ],
      "first_level_comment_count" : 6,
      "major" : [
        {
          "note" : "适量",
          "tu" : "https:\/\/m.douguo.com\/ingredients\/黄瓜\/detailmaterial",
          "title" : "黄瓜"
        },
        {
          "note" : "适量",
          "tu" : "https:\/\/m.douguo.com\/ingredients\/胡萝卜\/detailmaterial",
          "title" : "胡萝卜"
        },
        {
          "note" : "适量",
          "tu" : "https:\/\/m.douguo.com\/ingredients\/樱桃萝卜\/detailmaterial",
          "title" : "樱桃萝卜"
        },
        {
          "tu" : "https:\/\/m.douguo.com\/ingredients\/黄瓜\/detailmaterial",
          "title" : "黄瓜",
          "note" : "适量"
        },
        {
          "note" : "适量",
          "tu" : "https:\/\/m.douguo.com\/ingredients\/芝麻菜\/detailmaterial",
          "title" : "芝麻菜"
        },
        {
          "note" : "适量",
          "tu" : "https:\/\/m.douguo.com\/ingredients\/紫甘蓝\/detailmaterial",
          "title" : "紫甘蓝"
        },
        {
          "title" : "球生菜",
          "note" : "适量"
        },
        {
          "title" : "紫叶生菜",
          "note" : "适量",
          "tu" : "https:\/\/m.douguo.com\/ingredients\/紫叶生菜\/detailmaterial"
        },
        {
          "title" : "小黄番茄",
          "note" : "适量"
        },
        {
          "title" : "苦菊",
          "note" : "适量",
          "tu" : "https:\/\/m.douguo.com\/ingredients\/苦菊\/detailmaterial"
        },
        {
          "tu" : "https:\/\/m.douguo.com\/ingredients\/彩椒\/detailmaterial",
          "title" : "彩椒",
          "note" : "适量"
        }
      ],
      "favo_counts_text" : "695",
      "dishes" : [

      ],
      "rrps" : [

      ],
      "photo_path" : "https:\/\/i1.douguo.com\/upload\/caiku\/d\/6\/e\/600_d6454d7e98946f25fc60ae207cf50afe.png",
      "cookstory" : "蔬菜沙拉做法简单，炎炎夏日吃起来清爽可口，保持了蔬果中的营养不流失",
      "views_count_text" : "21.0万",
      "minor" : [
        "{\n    note = \"\";\n    title = \"\\U679c\\U73cd\\U918b\";\n}",
        "{\n    note = \"\";\n    title = \"\\U829d\\U9ebb\\U8272\\U62c9\\U9171\";\n}",
        "{\n    note = \"\";\n    title = \"\\U82b1\\U751f\\U9171\";\n    tu = \"https:\/\/https:\/\/m.douguo.com\/ingredients\/\\U82b1\\U751f\\U9171\/detailmaterial\";\n}",
        "{\n    note = \"\";\n    title = \"\\U8702\\U871c\";\n    tu = \"https:\/\/https:\/\/m.douguo.com\/ingredients\/\\U8702\\U871c\/detailmaterial\";\n}"
      ],
      "rips" : 0,
      "author" : "博世家电厨房",
      "thumb_height" : 0,
      "share_info" : {
        "image" : "https:\/\/cp1.douguo.com\/upload\/caiku\/d\/6\/e\/d6454d7e98946f25fc60ae207cf50afe.png",
        "name" : "蔬菜沙拉-会做饭很酷!",
        "s_d" : "蔬菜沙拉-会做饭很酷!",
        "s_u" : "http:\/\/m.douguo.com\/cookbook\/1614063.html",
        "qr_image" : "",
        "object_id" : "1614063",
        "mini_program" : [

        ],
        "infos" : [
          {
            "mini_program" : [

            ],
            "image" : "https:\/\/cp1.douguo.com\/upload\/caiku\/d\/6\/e\/d6454d7e98946f25fc60ae207cf50afe.png",
            "s_u" : "",
            "object_id" : "1614063",
            "qr_image" : "",
            "name" : "蔬菜沙拉-会做饭很酷!",
            "channel" : "1",
            "s_d" : "#学做饭用豆果美食#  我在@豆果美食 分享了【蔬菜沙拉-会做饭很酷!】，制作美食的过程承载了我生活中的热情，和我一起感受这份小确幸吧！查看图片了解菜谱（你喜欢的美食都在这里！https:\/\/m.weibo.cn\/p\/100404i33631）#会做饭很酷# "
          },
          {
            "channel" : "7",
            "s_d" : "蔬菜沙拉-会做饭很酷!",
            "image" : "https:\/\/cp1.douguo.com\/upload\/caiku\/d\/6\/e\/d6454d7e98946f25fc60ae207cf50afe.png",
            "qr_image" : "",
            "object_id" : "1614063",
            "s_u" : "http:\/\/m.douguo.com\/cookbook\/1614063.html",
            "mini_program" : [

            ],
            "name" : "蔬菜沙拉-会做饭很酷!"
          },
          {
            "name" : "蔬菜沙拉-会做饭很酷!",
            "channel" : "8",
            "mini_program" : [

            ],
            "object_id" : "1614063",
            "image" : "https:\/\/cp1.douguo.com\/upload\/caiku\/d\/6\/e\/d6454d7e98946f25fc60ae207cf50afe.png",
            "s_d" : "蔬菜沙拉-会做饭很酷!",
            "qr_image" : "",
            "s_u" : "http:\/\/m.douguo.com\/cookbook\/1614063.html"
          }
        ]
      },
      "su" : "",
      "cook_time_image" : "",
      "display_ingredient" : 1,
      "title" : "蔬菜沙拉",
      "bs" : [

      ],
      "sr" : "",
      "tips" : "",
      "release_time" : "",
      "recommended" : 0,
      "ecs" : 0,
      "collect_status" : 0,
      "rpid" : 0,
      "cookstorys" : [
        {
          "id" : 0,
          "c" : "蔬菜沙拉做法简单，炎炎夏日吃起来清爽可口，保持了蔬果中的营养不流失",
          "color" : "",
          "icon" : "",
          "u" : "",
          "type" : 0
        }
      ],
      "ipit" : 0,
      "packages_id" : [

      ],
      "ipci" : "",
      "user" : {
        "dishes_count" : 0,
        "is_prime" : 0,
        "favor_diaries_count" : 0,
        "lvl" : 4,
        "setted_email" : 0,
        "fc" : 0,
        "verified_image" : "https:\/\/i1.douguo.com\/upload\/note\/2\/b\/1\/2ba3cf1657cbf92e474d7e0534ce8da1.png",
        "followers_count" : 0,
        "pc" : 0,
        "email" : "",
        "qq_weibo_nick" : "",
        "progress_image" : "",
        "recipes_count" : 0,
        "regist_time" : "",
        "avatar_medium" : "http:\/\/tx1.douguo.net\/upload\/photo\/5\/0\/4\/140_u9509150534528151223.jpeg",
        "birthday" : "",
        "verified_url" : "https:\/\/m.douguo.com\/user\/prodesc",
        "introduction" : "",
        "mobile" : "",
        "gender" : 1,
        "following_count" : 0,
        "point" : 0,
        "nick" : "博世家电厨房",
        "verified" : 2,
        "coursecount" : 0,
        "qzone_nick" : "",
        "userid" : "20259999",
        "user_photo" : "http:\/\/tx1.douguo.net\/upload\/photo\/5\/0\/4\/70_u9509150534528151223.jpeg",
        "user_cover" : "",
        "location" : 0,
        "sign" : "",
        "age" : "",
        "subscription_article_count" : 0,
        "user_large_photo" : "http:\/\/tx1.douguo.net\/upload\/photo\/5\/0\/4\/yuan_u9509150534528151223.jpeg",
        "weibo_nick" : "",
        "lv" : 0,
        "user_id" : "20259999",
        "diaries_count" : 0,
        "subscription" : 0,
        "favorites_count" : 0
      },
      "hqu" : "recipes:\/\/www.douguo.com\/notedetail?id=21162253",
      "mid_mdsp" : [

      ],
      "btm_dsp" : [

      ],
      "vu" : "",
      "act_des" : ""
    }
  }
}