{
  "result" : {
    "recipe" : {
      "title_ad" : [

      ],
      "tags" : [

      ],
      "ecs" : 0,
      "mid_mdsp" : [

      ],
      "rate_show" : 0,
      "ipia" : [

      ],
      "rsm" : "该功能暂停使用",
      "eu" : "recipes:\/\/www.douguo.com\/postdetail?id=242016",
      "rpid" : 0,
      "notes" : [

      ],
      "sr" : "",
      "cook_difficulty_image" : "https:\/\/i1.douguo.com\/upload\/banner\/1551424390.png",
      "old_comments" : [

      ],
      "dish_count_text" : "6",
      "views_count_text" : "8.8万",
      "recommended" : 0,
      "ph" : 531,
      "cookstep" : [
        {
          "image_width" : 2260,
          "content" : "首先要准备一个电磁炉和一个不粘锅，像这种平底锅或者我下面用的小奶锅都是可以的；",
          "thumb" : "https:\/\/i1.douguo.com\/upload\/caiku\/6\/2\/a\/140_620428df11ec8ed922150dfc8266e4ca.jpg",
          "frame" : "-1",
          "image_height" : 1500,
          "position" : 1,
          "image" : "https:\/\/i1.douguo.com\/upload\/caiku\/6\/2\/a\/620428df11ec8ed922150dfc8266e4ca.jpg"
        },
        {
          "position" : 2,
          "content" : "在锅里放入黄油、可可粉、细砂糖、盐、牛奶；",
          "image" : "https:\/\/i1.douguo.com\/upload\/caiku\/6\/3\/5\/63b6165db85d120316dfafae336c1895.jpg",
          "frame" : "-1",
          "image_width" : 2260,
          "image_height" : 1500,
          "thumb" : "https:\/\/i1.douguo.com\/upload\/caiku\/6\/3\/5\/140_63b6165db85d120316dfafae336c1895.jpg"
        },
        {
          "frame" : "-1",
          "image_height" : 1500,
          "image_width" : 2260,
          "image" : "https:\/\/i1.douguo.com\/upload\/caiku\/e\/e\/e\/eed767fefb2961e33c5f8494079e683e.jpg",
          "content" : "核桃碎和燕麦提前称好，需要的是熟的哦；",
          "thumb" : "https:\/\/i1.douguo.com\/upload\/caiku\/e\/e\/e\/140_eed767fefb2961e33c5f8494079e683e.jpg",
          "position" : 3
        },
        {
          "image_height" : 1500,
          "thumb" : "https:\/\/i1.douguo.com\/upload\/caiku\/c\/0\/c\/140_c0350d8688142f0dc2b682e75bc32ecc.jpg",
          "content" : "小火三档加热，一边搅拌；",
          "image_width" : 2260,
          "frame" : "-1",
          "image" : "https:\/\/i1.douguo.com\/upload\/caiku\/c\/0\/c\/c0350d8688142f0dc2b682e75bc32ecc.jpg",
          "position" : 4
        },
        {
          "content" : "等到沸腾；",
          "image" : "https:\/\/i1.douguo.com\/upload\/caiku\/3\/2\/b\/32962aeeb16548fbf8fc31ae8ce2fd6b.jpg",
          "frame" : "-1",
          "thumb" : "https:\/\/i1.douguo.com\/upload\/caiku\/3\/2\/b\/140_32962aeeb16548fbf8fc31ae8ce2fd6b.jpg",
          "image_width" : 2260,
          "image_height" : 1500,
          "position" : 5
        },
        {
          "thumb" : "https:\/\/i1.douguo.com\/upload\/caiku\/6\/d\/c\/140_6d9578f6f731e1f3b43577fc8ec94cec.jpg",
          "frame" : "-1",
          "content" : "倒入燕麦片和核桃碎；",
          "position" : 6,
          "image_width" : 2260,
          "image_height" : 1500,
          "image" : "https:\/\/i1.douguo.com\/upload\/caiku\/6\/d\/c\/6d9578f6f731e1f3b43577fc8ec94cec.jpg"
        },
        {
          "thumb" : "https:\/\/i1.douguo.com\/upload\/caiku\/e\/f\/1\/140_ef7aa6f5707c8dc245e0cd21bc4c4481.jpg",
          "image" : "https:\/\/i1.douguo.com\/upload\/caiku\/e\/f\/1\/ef7aa6f5707c8dc245e0cd21bc4c4481.jpg",
          "image_height" : 1500,
          "content" : "关火，拌匀；",
          "position" : 7,
          "image_width" : 2260,
          "frame" : "-1"
        },
        {
          "thumb" : "https:\/\/i1.douguo.com\/upload\/caiku\/4\/5\/d\/140_45e6017f1086f60a4a9046a59c73914d.jpg",
          "image_height" : 1500,
          "frame" : "-1",
          "position" : 8,
          "content" : "用勺子舀一勺放在一个圆形的饼干模内，压实，然后拿掉饼干模，就成为一块圆形的饼干了；",
          "image_width" : 2260,
          "image" : "https:\/\/i1.douguo.com\/upload\/caiku\/4\/5\/d\/45e6017f1086f60a4a9046a59c73914d.jpg"
        },
        {
          "image" : "https:\/\/i1.douguo.com\/upload\/caiku\/d\/1\/4\/d14cf2edd449be54186a2400e490c4b4.jpg",
          "content" : "全部都在油布上做好，放入冰箱冷藏至硬即可。",
          "image_width" : 2260,
          "image_height" : 1500,
          "frame" : "-1",
          "thumb" : "https:\/\/i1.douguo.com\/upload\/caiku\/d\/1\/4\/140_d14cf2edd449be54186a2400e490c4b4.jpg",
          "position" : 9
        }
      ],
      "guide_image" : "",
      "image" : "http:\/\/i1.douguo.net\/upload\/caiku\/6\/5\/9\/300_656171edc51e9f4266dcc79efa87c609.jpg",
      "v_u" : "",
      "photo_path" : "https:\/\/i1.douguo.com\/upload\/caiku\/6\/5\/9\/600_656171edc51e9f4266dcc79efa87c609.jpg",
      "rrps" : [

      ],
      "btm_dsp" : [

      ],
      "title" : "燕麦巧克力小圆饼——不用烤箱的小曲奇",
      "rcs" : [

      ],
      "rpt" : "",
      "related_ads" : [

      ],
      "user" : {
        "user_large_photo" : "http:\/\/tx1.douguo.net\/upload\/photo\/a\/e\/2\/yuan_ae0ddac49b37cb5798564f2af7bebaa2.jpeg",
        "user_id" : "617941",
        "age" : "",
        "is_prime" : 0,
        "verified_image" : "https:\/\/i1.douguo.com\/upload\/note\/d\/a\/a\/da84247847aebe48d9dd0fcdac88862a.png",
        "location" : 0,
        "followers_count" : 0,
        "email" : "",
        "nick" : "马琳malin",
        "favorites_count" : 0,
        "weibo_nick" : "",
        "introduction" : "",
        "recipes_count" : 0,
        "gender" : 2,
        "regist_time" : "",
        "mobile" : "",
        "following_count" : 0,
        "avatar_medium" : "http:\/\/tx1.douguo.net\/upload\/photo\/a\/e\/2\/140_ae0ddac49b37cb5798564f2af7bebaa2.jpeg",
        "fc" : 0,
        "progress_image" : "",
        "favor_diaries_count" : 0,
        "dishes_count" : 0,
        "subscription" : 0,
        "birthday" : "",
        "user_cover" : "",
        "point" : 0,
        "lvl" : 6,
        "userid" : "617941",
        "verified_url" : "https:\/\/m.douguo.com\/user\/prodesc",
        "sign" : "",
        "user_photo" : "http:\/\/tx1.douguo.net\/upload\/photo\/a\/e\/2\/70_ae0ddac49b37cb5798564f2af7bebaa2.jpeg",
        "subscription_article_count" : 0,
        "qq_weibo_nick" : "",
        "pc" : 0,
        "coursecount" : 0,
        "lv" : 0,
        "setted_email" : 0,
        "verified" : 1,
        "diaries_count" : 0,
        "qzone_nick" : ""
      },
      "brand_day_dsp" : [

      ],
      "ipt" : "",
      "thumb_path" : "https:\/\/i1.douguo.com\/upload\/caiku\/6\/5\/9\/300_656171edc51e9f4266dcc79efa87c609.jpg",
      "share_info" : {
        "qr_image" : "",
        "object_id" : "1428919",
        "image" : "https:\/\/cp1.douguo.com\/upload\/caiku\/6\/5\/9\/656171edc51e9f4266dcc79efa87c609.jpg",
        "name" : "燕麦巧克力小圆饼——不用烤箱的小曲奇-会做饭很酷!",
        "mini_program" : [

        ],
        "s_u" : "http:\/\/m.douguo.com\/cookbook\/1428919.html",
        "s_d" : "燕麦巧克力小圆饼——不用烤箱的小曲奇-会做饭很酷!",
        "infos" : [
          {
            "channel" : "1",
            "image" : "https:\/\/cp1.douguo.com\/upload\/caiku\/6\/5\/9\/656171edc51e9f4266dcc79efa87c609.jpg",
            "name" : "燕麦巧克力小圆饼——不用烤箱的小曲奇-会做饭很酷!",
            "qr_image" : "",
            "object_id" : "1428919",
            "mini_program" : [

            ],
            "s_u" : "",
            "s_d" : "#学做饭用豆果美食# 会做饭真是太酷了！我在@豆果美食 分享了【燕麦巧克力小圆饼——不用烤箱的小曲奇-会做饭很酷!】，看着是不是馋到不行呢～快来跟我学学吧！查看图片了解菜谱，（想要获取更多美食就看这https:\/\/m.weibo.cn\/p\/100404i33631）"
          },
          {
            "mini_program" : [

            ],
            "s_u" : "http:\/\/m.douguo.com\/cookbook\/1428919.html",
            "image" : "https:\/\/cp1.douguo.com\/upload\/caiku\/6\/5\/9\/656171edc51e9f4266dcc79efa87c609.jpg",
            "name" : "燕麦巧克力小圆饼——不用烤箱的小曲奇-会做饭很酷!",
            "qr_image" : "",
            "object_id" : "1428919",
            "channel" : "7",
            "s_d" : "燕麦巧克力小圆饼——不用烤箱的小曲奇-会做饭很酷!"
          },
          {
            "qr_image" : "",
            "mini_program" : [

            ],
            "channel" : "8",
            "name" : "燕麦巧克力小圆饼——不用烤箱的小曲奇-会做饭很酷!",
            "object_id" : "1428919",
            "s_u" : "http:\/\/m.douguo.com\/cookbook\/1428919.html",
            "image" : "https:\/\/cp1.douguo.com\/upload\/caiku\/6\/5\/9\/656171edc51e9f4266dcc79efa87c609.jpg",
            "s_d" : "燕麦巧克力小圆饼——不用烤箱的小曲奇-会做饭很酷!"
          }
        ]
      },
      "cookstorys" : [
        {
          "u" : "",
          "c" : "虽然已经立了秋，最近这几天西安的温度那是蹭蹭蹭的一路往四十度去了。吹着空调看电视成了我的最爱，那得来点什么好吃的吧，看电视套餐必须是零食。所以呢，就有了这个小饼干。因为没有用烤箱，所以它的口感会有点湿润，有点像软曲奇，但是很醇厚，做法也超级简单，你只需要一个电磁炉和一只小锅子。",
          "id" : 0,
          "color" : "",
          "icon" : "",
          "type" : 0
        }
      ],
      "vc" : "88336",
      "favo_counts_text" : "1967",
      "packages_id" : [

      ],
      "comments_count" : 10,
      "major" : [
        {
          "title" : "熟燕麦",
          "note" : "100克"
        },
        {
          "tu" : "https:\/\/m.douguo.com\/ingredients\/细砂糖\/detailmaterial",
          "note" : "25克",
          "title" : "细砂糖"
        },
        {
          "title" : "熟核桃碎",
          "note" : "40克"
        },
        {
          "title" : "可可粉",
          "tu" : "https:\/\/m.douguo.com\/ingredients\/可可粉\/detailmaterial",
          "note" : "10克"
        },
        {
          "tu" : "https:\/\/m.douguo.com\/ingredients\/黄油\/detailmaterial",
          "title" : "黄油",
          "note" : "25克"
        },
        {
          "tu" : "https:\/\/m.douguo.com\/ingredients\/盐\/detailmaterial",
          "note" : "1\/8小勺",
          "title" : "盐"
        },
        {
          "title" : "牛奶",
          "note" : "60克",
          "tu" : "https:\/\/m.douguo.com\/ingredients\/牛奶\/detailmaterial"
        }
      ],
      "thumb_height" : 0,
      "ipit" : 0,
      "original_photo_path" : "http:\/\/i1.douguo.net\/upload\/caiku\/6\/5\/9\/yuan_656171edc51e9f4266dcc79efa87c609.jpg",
      "create_time" : "2016-08-13 16:29:05",
      "author_photo" : "http:\/\/tx1.douguo.net\/upload\/photo\/a\/e\/2\/70_ae0ddac49b37cb5798564f2af7bebaa2.jpeg",
      "hq" : 1,
      "recent_comments" : [

      ],
      "recommend_label" : "6人学做",
      "rdsps" : [

      ],
      "cookwares" : [

      ],
      "ipci" : "",
      "ssu" : "",
      "dishes" : [

      ],
      "tips" : "1、核桃碎也可以换成其他坚果碎；\n2、如果没有可可粉，就放入10克巧克力。",
      "act_des" : "",
      "rrpt" : "",
      "vu" : "",
      "advice" : {
        "da" : {
          "url" : "https:\/\/m.douguo.com\/recipe\/nutrient_self\/1428919",
          "t" : "查看详细分析",
          "iu" : "https:\/\/i1.douguo.com\/upload\/banner\/f\/4\/d\/f48877e53c37759bc12ac494be82ec8d.png"
        },
        "has" : [
          {
            "url" : "recipes:\/\/www.douguo.com\/simplerecipelist?t=高脂肪&id=高脂肪",
            "t" : "高脂肪"
          },
          {
            "url" : "recipes:\/\/www.douguo.com\/simplerecipelist?t=低盐&id=低盐",
            "t" : "低盐"
          }
        ],
        "at" : "减肥的美女注意喽～"
      },
      "favo_counts" : 1967,
      "su" : "",
      "bs" : [

      ],
      "vfurl" : "",
      "display_ingredient" : 1,
      "recommendation_tag" : "",
      "recipe_tags" : [

      ],
      "comments" : [
        "{\n    ac = \"#999999\";\n    at = \"\";\n    ccc = 2;\n    \"child_comments\" =     (\n                {\n            ac = \"#999999\";\n            at = \"\";\n            ccc = 0;\n            city = \"\";\n            cmc = 2;\n            content =             (\n                                {\n                    c = \"   \\U719f\\U71d5\\U9ea6\\Uff0c\\U6211\\U770b\\U4e86\\U4e0b\\Uff0c\\U8d85\\U5e02\\U90a3\\U79cd\\U65e2\\U51b2\\U7684\\U5c31\\U662f\\U719f\\U5316\\U8fc7\\U7684\\Uff0c\\U6211\\U4e70\\U4e86\\U6842\\U683c\\U7684\";\n                }\n            );\n            ia = 0;\n            id = 4014977;\n            \"ip_address_location\" = \"\";\n            like = 0;\n            \"like_count\" = 0;\n            \"reply_id\" = 3984677;\n            \"reply_user\" =             {\n                \"followers_count_text\" = \"\";\n                id = 18014679;\n                \"is_prime\" = 0;\n                lv = 0;\n                lvl = 1;\n                n = \"\\U5728\\U6307\\U5c16\\U8df3\\U821e\";\n                p = \"http:\/\/tx1.douguo.net\/upload\/photo\/9\/5\/d\/70_u68588721942677195300.jpeg\";\n                \"progress_image\" = \"\";\n                \"recipes_count_text\" = \"\";\n                relationship = \"-1\";\n                title = \"\";\n                v = 0;\n                \"verified_image\" = \"\";\n            };\n            \"sticker_icon\" =             (\n            );\n            time = \"2016-08-20 12:09:29\";\n            u =             {\n                \"followers_count_text\" = \"\";\n                id = 8526913;\n                \"is_prime\" = 0;\n                lv = 0;\n                lvl = 1;\n                n = \"\\U9542\\U7a7a\\U7eb1\";\n                p = \"http:\/\/tx1.douguo.net\/upload\/photo\/f\/2\/2\/70_u26081419453999070704.jpg\";\n                \"progress_image\" = \"\";\n                \"recipes_count_text\" = \"\";\n                relationship = \"-1\";\n                title = \"\";\n                v = 0;\n                \"verified_image\" = \"\";\n            };\n        },\n                {\n            ac = \"#999999\";\n            at = \"\";\n            ccc = 0;\n            city = \"\";\n            cmc = 2;\n            content =             (\n                                {\n                    c = \" \\U597d\\U7684\\Uff0c\\U8c22\\U8c22\\Uff01\";\n                }\n            );\n            ia = 0;\n            id = 4028479;\n            \"ip_address_location\" = \"\";\n            like = 0;\n            \"like_count\" = 0;\n            \"reply_id\" = 4014977;\n            \"reply_user\" =             {\n                \"followers_count_text\" = \"\";\n                id = 8526913;\n                \"is_prime\" = 0;\n                lv = 0;\n                lvl = 1;\n                n = \"\\U9542\\U7a7a\\U7eb1\";\n                p = \"http:\/\/tx1.douguo.net\/upload\/photo\/f\/2\/2\/70_u26081419453999070704.jpg\";\n                \"progress_image\" = \"\";\n                \"recipes_count_text\" = \"\";\n                relationship = \"-1\";\n                title = \"\";\n                v = 0;\n                \"verified_image\" = \"\";\n            };\n            \"sticker_icon\" =             (\n            );\n            time = \"2016-08-24 06:48:16\";\n            u =             {\n                \"followers_count_text\" = \"\";\n                id = 18014679;\n                \"is_prime\" = 0;\n                lv = 0;\n                lvl = 1;\n                n = \"\\U5728\\U6307\\U5c16\\U8df3\\U821e\";\n                p = \"http:\/\/tx1.douguo.net\/upload\/photo\/9\/5\/d\/70_u68588721942677195300.jpeg\";\n                \"progress_image\" = \"\";\n                \"recipes_count_text\" = \"\";\n                relationship = \"-1\";\n                title = \"\";\n                v = 0;\n                \"verified_image\" = \"\";\n            };\n        }\n    );\n    city = \"\";\n    cmc = 2;\n    content =     (\n                {\n            c = \"\\U8bf7\\U95ee\\U719f\\U71d5\\U9ea6\\U5728\\U54ea\\U91cc\\U80fd\\U4e70\\U5230\";\n        }\n    );\n    ia = 0;\n    id = 3984677;\n    \"ip_address_location\" = \"\";\n    like = 0;\n    \"like_count\" = 0;\n    \"reply_id\" = 0;\n    \"sticker_icon\" =     (\n    );\n    time = \"2016-08-13 22:39:23\";\n    u =     {\n        \"followers_count_text\" = \"\";\n        id = 18014679;\n        \"is_prime\" = 0;\n        lv = 0;\n        lvl = 1;\n        n = \"\\U5728\\U6307\\U5c16\\U8df3\\U821e\";\n        p = \"http:\/\/tx1.douguo.net\/upload\/photo\/9\/5\/d\/70_u68588721942677195300.jpeg\";\n        \"progress_image\" = \"\";\n        \"recipes_count_text\" = \"\";\n        relationship = \"-1\";\n        title = \"\";\n        v = 0;\n        \"verified_image\" = \"\";\n    };\n}",
        "{\n    ac = \"#999999\";\n    at = \"\\U6606\\U660e\\U5e02\";\n    ccc = 0;\n    \"child_comments\" =     (\n    );\n    city = \"\\U6606\\U660e\\U5e02\";\n    cmc = 2;\n    content =     (\n                {\n            c = \"\\U8d5e\\U8d5e\\U8d5e\";\n        }\n    );\n    ia = 0;\n    id = 5575195;\n    \"ip_address_location\" = \"\";\n    like = 0;\n    \"like_count\" = 0;\n    \"reply_id\" = 0;\n    \"sticker_icon\" =     (\n    );\n    time = \"2018-04-21 05:29:38\";\n    u =     {\n        \"followers_count_text\" = \"\";\n        id = 21481280;\n        \"is_prime\" = 0;\n        lv = 0;\n        lvl = 5;\n        n = \"\\U6bdb\\U4e91\\U5229\";\n        p = \"http:\/\/tx1.douguo.net\/upload\/photo\/2\/7\/2\/70_u15121846822297083658.jpg\";\n        \"progress_image\" = \"\";\n        \"recipes_count_text\" = \"\";\n        relationship = \"-1\";\n        title = \"\";\n        v = 0;\n        \"verified_image\" = \"\";\n    };\n}",
        "{\n    ac = \"#999999\";\n    at = \"\";\n    ccc = 0;\n    \"child_comments\" =     (\n    );\n    city = \"\";\n    cmc = 2;\n    content =     (\n                {\n            c = \"\\U597d\\U5403\\U5417\";\n        }\n    );\n    ia = 0;\n    id = 4269977;\n    \"ip_address_location\" = \"\";\n    like = 0;\n    \"like_count\" = 0;\n    \"reply_id\" = 0;\n    \"sticker_icon\" =     (\n    );\n    time = \"2016-11-17 15:26:12\";\n    u =     {\n        \"followers_count_text\" = \"\";\n        id = 18905244;\n        \"is_prime\" = 0;\n        lv = 0;\n        lvl = 4;\n        n = \"\\U97e9\\U6a31\\U5b50VV\";\n        p = \"http:\/\/tx1.douguo.net\/upload\/photo\/3\/0\/b\/70_u77205501973628035041.jpeg\";\n        \"progress_image\" = \"\";\n        \"recipes_count_text\" = \"\";\n        relationship = \"-1\";\n        title = \"\";\n        v = 0;\n        \"verified_image\" = \"\";\n    };\n}"
      ],
      "first_level_comment_count" : 8,
      "story_dsp" : [

      ],
      "rips" : 0,
      "rewarded_video_dsp" : [

      ],
      "rate_count" : 0,
      "pw" : 800,
      "cook_difficulty" : "切墩(初级)",
      "rate" : 0,
      "release_time" : "",
      "top_mdsp" : [

      ],
      "author_verified" : 1,
      "recipe_list_tags" : [
        {
          "text" : "关注的人",
          "right_image" : "",
          "jump_url" : "",
          "background_start_color" : "#F4F5F5",
          "text_color" : "#141515",
          "background_end_color" : "#F4F5F5",
          "background_border_color" : ""
        },
        {
          "right_image" : "",
          "background_start_color" : "#F4F5F5",
          "text_color" : "#141515",
          "jump_url" : "",
          "background_border_color" : "",
          "text" : "内容详细",
          "background_end_color" : "#F4F5F5"
        }
      ],
      "author_id" : 617941,
      "hqu" : "recipes:\/\/www.douguo.com\/notedetail?id=21162253",
      "dish_count" : 6,
      "comments_count_text" : "10",
      "purl" : "",
      "clicks" : "84891",
      "ipoi" : "",
      "minor" : [

      ],
      "cook_time" : "10-30分钟",
      "cook_id" : "1428919",
      "cook_time_image" : "https:\/\/i1.douguo.com\/upload\/banner\/1551424341.png",
      "ss" : [

      ],
      "author" : "马琳malin",
      "rpst" : "",
      "levelid" : 2,
      "sc" : 0,
      "collect_status" : 0,
      "ipurl" : "",
      "cookstory" : "虽然已经立了秋，最近这几天西安的温度那是蹭蹭蹭的一路往四十度去了。吹着空调看电视成了我的最爱，那得来点什么好吃的吧，看电视套餐必须是零食。所以呢，就有了这个小饼干。因为没有用烤箱，所以它的口感会有点湿润，有点像软曲奇，但是很醇厚，做法也超级简单，你只需要一个电磁炉和一只小锅子。"
    }
  },
  "state" : "success",
  "status" : 0
}