{
  "result" : {
    "recipe" : {
      "vu" : "",
      "image" : "http:\/\/i1.douguo.net\/upload\/caiku\/f\/8\/1\/300_f8fc7a47740ed77e8fd2da2f51813b61.jpg",
      "vfurl" : "",
      "views_count_text" : "39.2万",
      "vc" : "392494",
      "purl" : "",
      "story_dsp" : [

      ],
      "minor" : [

      ],
      "sr" : "",
      "eu" : "recipes:\/\/www.douguo.com\/postdetail?id=242016",
      "su" : "",
      "author" : "蜜桃爱营养师私厨",
      "cook_difficulty" : "",
      "share_info" : {
        "mini_program" : [

        ],
        "infos" : [
          {
            "s_d" : "#学做饭用豆果美食# 会做饭真是太酷了！我在@豆果美食 分享了【娘惹天使咖喱鸡翼【鸡翅包肉】泰式泰国菜蜜桃爱营养师私厨-会做饭很酷!】OMG！这是什么神仙美味啊~真的强烈推荐你们试一试～查看图片了解菜谱（每天限量免费课程，想跟大师学厨艺就来这https:\/\/m.weibo.cn\/p\/100404i33631）",
            "qr_image" : "",
            "image" : "https:\/\/cp1.douguo.com\/upload\/caiku\/f\/8\/1\/f8fc7a47740ed77e8fd2da2f51813b61.jpg",
            "s_u" : "",
            "object_id" : "1487045",
            "channel" : "1",
            "mini_program" : [

            ],
            "name" : "娘惹天使咖喱鸡翼【鸡翅包肉】泰式泰国菜蜜桃爱营养师私厨-会做饭很酷!"
          },
          {
            "object_id" : "1487045",
            "qr_image" : "",
            "mini_program" : [

            ],
            "s_d" : "娘惹天使咖喱鸡翼【鸡翅包肉】泰式泰国菜蜜桃爱营养师私厨-会做饭很酷!",
            "channel" : "7",
            "s_u" : "http:\/\/m.douguo.com\/cookbook\/1487045.html",
            "name" : "娘惹天使咖喱鸡翼【鸡翅包肉】泰式泰国菜蜜桃爱营养师私厨-会做饭很酷!",
            "image" : "https:\/\/cp1.douguo.com\/upload\/caiku\/f\/8\/1\/f8fc7a47740ed77e8fd2da2f51813b61.jpg"
          },
          {
            "image" : "https:\/\/cp1.douguo.com\/upload\/caiku\/f\/8\/1\/f8fc7a47740ed77e8fd2da2f51813b61.jpg",
            "mini_program" : [

            ],
            "qr_image" : "",
            "name" : "娘惹天使咖喱鸡翼【鸡翅包肉】泰式泰国菜蜜桃爱营养师私厨-会做饭很酷!",
            "s_d" : "娘惹天使咖喱鸡翼【鸡翅包肉】泰式泰国菜蜜桃爱营养师私厨-会做饭很酷!",
            "object_id" : "1487045",
            "channel" : "8",
            "s_u" : "http:\/\/m.douguo.com\/cookbook\/1487045.html"
          }
        ],
        "qr_image" : "",
        "s_u" : "http:\/\/m.douguo.com\/cookbook\/1487045.html",
        "image" : "https:\/\/cp1.douguo.com\/upload\/caiku\/f\/8\/1\/f8fc7a47740ed77e8fd2da2f51813b61.jpg",
        "name" : "娘惹天使咖喱鸡翼【鸡翅包肉】泰式泰国菜蜜桃爱营养师私厨-会做饭很酷!",
        "s_d" : "娘惹天使咖喱鸡翼【鸡翅包肉】泰式泰国菜蜜桃爱营养师私厨-会做饭很酷!",
        "object_id" : "1487045"
      },
      "clicks" : "377676",
      "favo_counts_text" : "2993",
      "comments_count" : 14,
      "ipt" : "",
      "user" : {
        "verified_image" : "https:\/\/i1.douguo.com\/upload\/note\/d\/a\/a\/da84247847aebe48d9dd0fcdac88862a.png",
        "user_cover" : "",
        "location" : 0,
        "dishes_count" : 0,
        "diaries_count" : 0,
        "user_large_photo" : "http:\/\/tx1.douguo.net\/upload\/photo\/9\/4\/d\/yuan_u65020868733420113222.jpg",
        "introduction" : "",
        "mobile" : "",
        "qq_weibo_nick" : "",
        "setted_email" : 0,
        "recipes_count" : 0,
        "followers_count" : 0,
        "user_id" : "17616733",
        "subscription_article_count" : 0,
        "age" : "",
        "userid" : "17616733",
        "gender" : 2,
        "avatar_medium" : "http:\/\/tx1.douguo.net\/upload\/photo\/9\/4\/d\/140_u65020868733420113222.jpg",
        "weibo_nick" : "",
        "favor_diaries_count" : 0,
        "fc" : 0,
        "point" : 0,
        "subscription" : 0,
        "nick" : "蜜桃爱营养师私厨",
        "pc" : 0,
        "verified" : 1,
        "lvl" : 6,
        "birthday" : "",
        "progress_image" : "",
        "is_prime" : 0,
        "following_count" : 0,
        "lv" : 0,
        "user_photo" : "http:\/\/tx1.douguo.net\/upload\/photo\/9\/4\/d\/70_u65020868733420113222.jpg",
        "email" : "",
        "coursecount" : 0,
        "verified_url" : "https:\/\/m.douguo.com\/user\/prodesc",
        "sign" : "",
        "favorites_count" : 0,
        "regist_time" : "",
        "qzone_nick" : ""
      },
      "original_photo_path" : "http:\/\/i1.douguo.net\/upload\/caiku\/f\/8\/1\/yuan_f8fc7a47740ed77e8fd2da2f51813b61.jpg",
      "rpst" : "",
      "cookstorys" : [
        {
          "u" : "",
          "type" : 0,
          "icon" : "",
          "c" : "Panang Curry 娘惹咖喱，又是另一翻口味，比红咖喱辣一些。\n全鸡翼，去骨3根，塞入肉馅，封口，腌一下，蒸熟、炒咖喱+椰浆、放鸡翼烧浓稠。\n算是泰国菜里的功夫菜了。\n配上蓝色镶嵌金边花纹的餐盘，佛教金灿灿的厚重刀叉，绝美。",
          "id" : 0,
          "color" : ""
        }
      ],
      "recipe_list_tags" : [
        {
          "background_end_color" : "#F4F5F5",
          "right_image" : "",
          "background_border_color" : "",
          "jump_url" : "",
          "text" : "关注的人",
          "text_color" : "#141515",
          "background_start_color" : "#F4F5F5"
        },
        {
          "text_color" : "#141515",
          "background_start_color" : "#F4F5F5",
          "right_image" : "",
          "text" : "内容详细",
          "background_end_color" : "#F4F5F5",
          "jump_url" : "",
          "background_border_color" : ""
        }
      ],
      "brand_day_dsp" : [

      ],
      "photo_path" : "https:\/\/i1.douguo.com\/upload\/caiku\/f\/8\/1\/600_f8fc7a47740ed77e8fd2da2f51813b61.jpg",
      "ph" : 450,
      "comments" : [
        "{\n    ac = \"#999999\";\n    at = \"\\U4e0a\\U6d77\\U5e02\";\n    ccc = 1;\n    \"child_comments\" =     (\n                {\n            ac = \"#999999\";\n            at = \"\\U4e0a\\U6d77\\U5e02\";\n            ccc = 0;\n            city = \"\\U4e0a\\U6d77\\U5e02\";\n            cmc = 2;\n            content =             (\n                                {\n                    c = \" \\U8fd9\\U5f20\\U7167\\U7247 \\U6211\\U6700\\U559c\\U6b22 \\U4f60\\U597d\\U597d\\U6b23\\U8d4f\\n\\U6211\\U7684\\U6cf0\\U56fd\\U83dc\\U90fd\\U5f88\\U8d5e\";\n                }\n            );\n            ia = 1;\n            id = 5237808;\n            \"ip_address_location\" = \"\";\n            like = 0;\n            \"like_count\" = 0;\n            \"reply_id\" = 5237000;\n            \"reply_user\" =             {\n                \"followers_count_text\" = \"\";\n                id = 21334701;\n                \"is_prime\" = 0;\n                lv = 0;\n                lvl = 3;\n                n = \"\\U4e0a\\U6d77\\U7684\\U6162\\U534a\\U62cd\";\n                p = \"http:\/\/tx1.douguo.net\/upload\/photo\/5\/2\/9\/70_u11339874700326180103.jpg\";\n                \"progress_image\" = \"\";\n                \"recipes_count_text\" = \"\";\n                relationship = \"-1\";\n                title = \"\";\n                v = 0;\n                \"verified_image\" = \"\";\n            };\n            \"sticker_icon\" =             (\n            );\n            time = \"2017-12-25 17:20:43\";\n            u =             {\n                \"followers_count_text\" = \"\";\n                id = 17616733;\n                \"is_prime\" = 0;\n                lv = 0;\n                lvl = 6;\n                n = \"\\U871c\\U6843\\U7231\\U8425\\U517b\\U5e08\\U79c1\\U53a8\";\n                p = \"http:\/\/tx1.douguo.net\/upload\/photo\/9\/4\/d\/70_u65020868733420113222.jpg\";\n                \"progress_image\" = \"\";\n                \"recipes_count_text\" = \"\";\n                relationship = \"-1\";\n                title = \"\";\n                v = 1;\n                \"verified_image\" = \"\";\n            };\n        }\n    );\n    city = \"\\U4e0a\\U6d77\\U5e02\";\n    cmc = 2;\n    content =     (\n                {\n            c = \"\\U592a\\U725b\\U4e86\\Uff0c\\U53a8\\U5e08\\U5389\\U5bb3\";\n        }\n    );\n    ia = 0;\n    id = 5237000;\n    \"ip_address_location\" = \"\";\n    like = 0;\n    \"like_count\" = 1;\n    \"reply_id\" = 0;\n    \"sticker_icon\" =     (\n    );\n    time = \"2017-12-25 09:30:52\";\n    u =     {\n        \"followers_count_text\" = \"\";\n        id = 21334701;\n        \"is_prime\" = 0;\n        lv = 0;\n        lvl = 3;\n        n = \"\\U4e0a\\U6d77\\U7684\\U6162\\U534a\\U62cd\";\n        p = \"http:\/\/tx1.douguo.net\/upload\/photo\/5\/2\/9\/70_u11339874700326180103.jpg\";\n        \"progress_image\" = \"\";\n        \"recipes_count_text\" = \"\";\n        relationship = \"-1\";\n        title = \"\";\n        v = 0;\n        \"verified_image\" = \"\";\n    };\n}",
        "{\n    ac = \"#999999\";\n    at = \"\";\n    ccc = 1;\n    \"child_comments\" =     (\n                {\n            ac = \"#999999\";\n            at = \"\";\n            ccc = 0;\n            city = \"\";\n            cmc = 2;\n            content =             (\n                                {\n                    c = \" \\U4f60\\U8bd5\\U8bd5\";\n                }\n            );\n            ia = 1;\n            id = 4372286;\n            \"ip_address_location\" = \"\";\n            like = 0;\n            \"like_count\" = 0;\n            \"reply_id\" = 4372263;\n            \"reply_user\" =             {\n                \"followers_count_text\" = \"\";\n                id = 19217623;\n                \"is_prime\" = 0;\n                lv = 0;\n                lvl = 4;\n                n = \"\\U53ef\\U53ef\\U897f\\U91cc2016\";\n                p = \"http:\/\/tx1.douguo.net\/upload\/photo\/0\/5\/e\/70_u8144536953429100955.jpg\";\n                \"progress_image\" = \"\";\n                \"recipes_count_text\" = \"\";\n                relationship = \"-1\";\n                title = \"\";\n                v = 0;\n                \"verified_image\" = \"\";\n            };\n            \"sticker_icon\" =             (\n            );\n            time = \"2016-12-22 14:50:53\";\n            u =             {\n                \"followers_count_text\" = \"\";\n                id = 17616733;\n                \"is_prime\" = 0;\n                lv = 0;\n                lvl = 6;\n                n = \"\\U871c\\U6843\\U7231\\U8425\\U517b\\U5e08\\U79c1\\U53a8\";\n                p = \"http:\/\/tx1.douguo.net\/upload\/photo\/9\/4\/d\/70_u65020868733420113222.jpg\";\n                \"progress_image\" = \"\";\n                \"recipes_count_text\" = \"\";\n                relationship = \"-1\";\n                title = \"\";\n                v = 1;\n                \"verified_image\" = \"\";\n            };\n        }\n    );\n    city = \"\";\n    cmc = 2;\n    content =     (\n                {\n            c = \"\\U4e0d\\U9519\";\n        }\n    );\n    ia = 0;\n    id = 4372263;\n    \"ip_address_location\" = \"\";\n    like = 0;\n    \"like_count\" = 0;\n    \"reply_id\" = 0;\n    \"sticker_icon\" =     (\n    );\n    time = \"2016-12-22 14:44:10\";\n    u =     {\n        \"followers_count_text\" = \"\";\n        id = 19217623;\n        \"is_prime\" = 0;\n        lv = 0;\n        lvl = 4;\n        n = \"\\U53ef\\U53ef\\U897f\\U91cc2016\";\n        p = \"http:\/\/tx1.douguo.net\/upload\/photo\/0\/5\/e\/70_u8144536953429100955.jpg\";\n        \"progress_image\" = \"\";\n        \"recipes_count_text\" = \"\";\n        relationship = \"-1\";\n        title = \"\";\n        v = 0;\n        \"verified_image\" = \"\";\n    };\n}",
        "{\n    ac = \"#999999\";\n    at = \"\";\n    ccc = 1;\n    \"child_comments\" =     (\n                {\n            ac = \"#999999\";\n            at = \"\";\n            ccc = 0;\n            city = \"\";\n            cmc = 2;\n            content =             (\n                                {\n                    c = \" \\U662f\\U7684\\Uff0c\\U90fd\\U53ef\\U4ee5\\U3002\\U9985\\U6599\\U81ea\\U5df1\\U7814\\U53d1\";\n                }\n            );\n            ia = 1;\n            id = 4343367;\n            \"ip_address_location\" = \"\";\n            like = 0;\n            \"like_count\" = 0;\n            \"reply_id\" = 4342897;\n            \"reply_user\" =             {\n                \"followers_count_text\" = \"\";\n                id = 2045863;\n                \"is_prime\" = 0;\n                lv = 0;\n                lvl = 3;\n                n = \"\\U6de1\\U6de1\\U6728\\U9999\";\n                p = \"http:\/\/tx1.douguo.net\/upload\/photo\/7\/4\/4\/70_u49704705799039003755.jpeg\";\n                \"progress_image\" = \"\";\n                \"recipes_count_text\" = \"\";\n                relationship = \"-1\";\n                title = \"\";\n                v = 0;\n                \"verified_image\" = \"\";\n            };\n            \"sticker_icon\" =             (\n            );\n            time = \"2016-12-10 04:16:28\";\n            u =             {\n                \"followers_count_text\" = \"\";\n                id = 17616733;\n                \"is_prime\" = 0;\n                lv = 0;\n                lvl = 6;\n                n = \"\\U871c\\U6843\\U7231\\U8425\\U517b\\U5e08\\U79c1\\U53a8\";\n                p = \"http:\/\/tx1.douguo.net\/upload\/photo\/9\/4\/d\/70_u65020868733420113222.jpg\";\n                \"progress_image\" = \"\";\n                \"recipes_count_text\" = \"\";\n                relationship = \"-1\";\n                title = \"\";\n                v = 1;\n                \"verified_image\" = \"\";\n            };\n        }\n    );\n    city = \"\";\n    cmc = 2;\n    content =     (\n                {\n            c = \"\\U7075\\U7684\\Uff0c\\U4e0d\\U8fc7\\U6211\\U66f4\\U559c\\U6b22\\U628a\\U8089\\U7cdc\\U6362\\U6210\\U7cef\\U7c73\\U996d \\U6211\\U8981\\U8bd5\\U8bd5\\U770b\";\n        }\n    );\n    ia = 0;\n    id = 4342897;\n    \"ip_address_location\" = \"\";\n    like = 0;\n    \"like_count\" = 0;\n    \"reply_id\" = 0;\n    \"sticker_icon\" =     (\n    );\n    time = \"2016-12-09 20:11:10\";\n    u =     {\n        \"followers_count_text\" = \"\";\n        id = 2045863;\n        \"is_prime\" = 0;\n        lv = 0;\n        lvl = 3;\n        n = \"\\U6de1\\U6de1\\U6728\\U9999\";\n        p = \"http:\/\/tx1.douguo.net\/upload\/photo\/7\/4\/4\/70_u49704705799039003755.jpeg\";\n        \"progress_image\" = \"\";\n        \"recipes_count_text\" = \"\";\n        relationship = \"-1\";\n        title = \"\";\n        v = 0;\n        \"verified_image\" = \"\";\n    };\n}"
      ],
      "display_ingredient" : 1,
      "tags" : [

      ],
      "old_comments" : [

      ],
      "cook_time_image" : "",
      "v_u" : "",
      "btm_dsp" : [

      ],
      "ssu" : "",
      "cook_difficulty_image" : "",
      "dish_count_text" : "19",
      "rate_count" : 0,
      "recommended" : 0,
      "rips" : 0,
      "rrpt" : "",
      "comments_count_text" : "14",
      "pw" : 800,
      "ipurl" : "",
      "notes" : [

      ],
      "rate_show" : 0,
      "guide_image" : "",
      "levelid" : 2,
      "cook_time" : "",
      "thumb_path" : "https:\/\/i1.douguo.com\/upload\/caiku\/f\/8\/1\/300_f8fc7a47740ed77e8fd2da2f51813b61.jpg",
      "rate" : 0,
      "release_time" : "",
      "hqu" : "recipes:\/\/www.douguo.com\/notedetail?id=21162253",
      "thumb_height" : 0,
      "hq" : 1,
      "title" : "娘惹天使咖喱鸡翼【鸡翅包肉】泰式泰国菜蜜桃爱营养师私厨",
      "create_time" : "2016-12-08 23:46:13",
      "tips" : "猪肉如果是小肉块，用木锤，锤出来的扁肉，也许更加Q弹。或许该放入肉皮冻，让肉馅多汁。也或许该放一些淀粉+猪油或玉米油，让肉馅更加滑爽肥美。不过泰国人就是这么做的。待我日后改良吧。",
      "rdsps" : [

      ],
      "ecs" : 1,
      "ipci" : "",
      "rewarded_video_dsp" : [

      ],
      "packages_id" : [

      ],
      "ipoi" : "",
      "bs" : [

      ],
      "recommendation_tag" : "",
      "rrps" : [

      ],
      "dishes" : [

      ],
      "ss" : [

      ],
      "recent_comments" : [

      ],
      "act_des" : "",
      "collect_status" : 0,
      "author_photo" : "http:\/\/tx1.douguo.net\/upload\/photo\/9\/4\/d\/70_u65020868733420113222.jpg",
      "related_ads" : [

      ],
      "recommend_label" : "19人学做",
      "major" : [
        {
          "note" : "适用3-4人份",
          "title" : "【主要食材】："
        },
        {
          "note" : "6个",
          "title" : "全鸡翼（三节的）草鸡"
        },
        {
          "title" : "猪肉肉糜（3分油7分精）",
          "note" : "240g"
        },
        {
          "note" : "1小匙",
          "title" : "肉馅：料酒（正宗泰国菜不放）"
        },
        {
          "title" : "肉馅：白胡椒粉",
          "note" : "1小匙"
        },
        {
          "title" : "肉馅：鱼露",
          "note" : "1小匙"
        },
        {
          "note" : "1.5小匙",
          "title" : "肉馅：白砂糖"
        },
        {
          "title" : "腌鸡翼：鱼露",
          "note" : "3大匙"
        },
        {
          "note" : "一小锅",
          "title" : "鸡骨高汤，生姜6片"
        },
        {
          "title" : "【调味及辅料】",
          "note" : ""
        },
        {
          "title" : "Panang娘惹咖喱",
          "note" : "30g"
        },
        {
          "title" : "椰浆",
          "tu" : "https:\/\/m.douguo.com\/ingredients\/椰浆\/detailmaterial",
          "note" : "50ml*3"
        },
        {
          "title" : "椰奶",
          "note" : "200ml≈1盒245ml"
        },
        {
          "title" : "蒸鸡翼后的鱼露汁",
          "note" : "全部"
        },
        {
          "title" : "椰子糖",
          "note" : "1大匙"
        },
        {
          "title" : "柠檬叶",
          "note" : "6片"
        }
      ],
      "author_id" : 17616733,
      "cookstory" : "Panang Curry 娘惹咖喱，又是另一翻口味，比红咖喱辣一些。\n全鸡翼，去骨3根，塞入肉馅，封口，腌一下，蒸熟、炒咖喱+椰浆、放鸡翼烧浓稠。\n算是泰国菜里的功夫菜了。\n配上蓝色镶嵌金边花纹的餐盘，佛教金灿灿的厚重刀叉，绝美。",
      "title_ad" : [

      ],
      "cook_id" : "1487045",
      "cookstep" : [
        {
          "image_width" : 800,
          "frame" : "-1",
          "image_height" : 450,
          "image" : "https:\/\/i1.douguo.com\/upload\/caiku\/c\/2\/f\/c202a0468f4b37e507c3835637c2908f.jpg",
          "position" : 1,
          "content" : "鸡翼洗净，去骨。用剪刀把鸡骨π骨周边一圈的筋和肌肉剪断，剪刀深入鸡π骨约1.5cm。然后用小刀或者半圆刻刀，沿着鸡骨两侧，剔除鸡肉。把鸡肉翻过来，完全露出鸡骨。抓住鸡骨旋转几下，一揪骨头就揪下来了。接下来翅中也是一样操作，只不过多了1根细骨。",
          "thumb" : "https:\/\/i1.douguo.com\/upload\/caiku\/c\/2\/f\/140_c202a0468f4b37e507c3835637c2908f.jpg"
        },
        {
          "image" : "https:\/\/i1.douguo.com\/upload\/caiku\/0\/8\/c\/0854e8706a215ed94fd526453cf4c5cc.jpg",
          "image_height" : 450,
          "image_width" : 800,
          "position" : 2,
          "frame" : "-1",
          "content" : "骨肉分离完毕。注意：尽量不要破皮。万一破了，用牙签缝缝补补。倒入料酒，腌一下，去腥15分钟。然后冲洗干净酒味，沥干，用厨房纸，吸干水分。鸡骨，冲洗一下，放入汤锅，放一锅凉水，6片生姜，大火煮滚5分钟，转小火蛮炖。",
          "thumb" : "https:\/\/i1.douguo.com\/upload\/caiku\/0\/8\/c\/140_0854e8706a215ed94fd526453cf4c5cc.jpg"
        },
        {
          "image_height" : 450,
          "content" : "倒入3大匙鱼露，腌制鸡肉，放一边，夏天要盖保鲜膜，放冷藏。",
          "image_width" : 800,
          "image" : "https:\/\/i1.douguo.com\/upload\/caiku\/e\/0\/1\/e04ab906d3a3d6b9c94a5cc9f1848111.jpg",
          "frame" : "-1",
          "thumb" : "https:\/\/i1.douguo.com\/upload\/caiku\/e\/0\/1\/140_e04ab906d3a3d6b9c94a5cc9f1848111.jpg",
          "position" : 3
        },
        {
          "image_width" : 800,
          "frame" : "-1",
          "image_height" : 450,
          "position" : 4,
          "image" : "https:\/\/i1.douguo.com\/upload\/caiku\/d\/5\/0\/d53ef2598188f3f2c7abb15a32f25040.jpg",
          "content" : "猪肉，放料酒、白胡椒粉、鱼露、糖。顺时针搅拌，直到上劲，搅拌均匀。",
          "thumb" : "https:\/\/i1.douguo.com\/upload\/caiku\/d\/5\/0\/140_d53ef2598188f3f2c7abb15a32f25040.jpg"
        },
        {
          "content" : "腌好的鸡翼和猪肉馅。",
          "image" : "https:\/\/i1.douguo.com\/upload\/caiku\/9\/9\/e\/992b5574acf232d5c82676784db594be.jpg",
          "frame" : "-1",
          "image_height" : 450,
          "image_width" : 800,
          "thumb" : "https:\/\/i1.douguo.com\/upload\/caiku\/9\/9\/e\/140_992b5574acf232d5c82676784db594be.jpg",
          "position" : 5
        },
        {
          "frame" : "-1",
          "position" : 6,
          "content" : "找个长柄小匙，把肉糜塞入鸡翅内。直到塞到8分满。但是不要鼓起来太满，蒸熟后会胀开把皮撑破。",
          "image_width" : 800,
          "thumb" : "https:\/\/i1.douguo.com\/upload\/caiku\/7\/5\/9\/140_751f242c7b8ca0482e9f88df4193b319.jpg",
          "image_height" : 450,
          "image" : "https:\/\/i1.douguo.com\/upload\/caiku\/7\/5\/9\/751f242c7b8ca0482e9f88df4193b319.jpg"
        },
        {
          "image_width" : 800,
          "image_height" : 450,
          "thumb" : "https:\/\/i1.douguo.com\/upload\/caiku\/0\/4\/d\/140_04252b6ea9fdf83fd46dd04d5d1e017d.jpg",
          "image" : "https:\/\/i1.douguo.com\/upload\/caiku\/0\/4\/d\/04252b6ea9fdf83fd46dd04d5d1e017d.jpg",
          "frame" : "-1",
          "position" : 7,
          "content" : "像这样就塞太满了。鸡翼洞口，用牙签S形穿入，封口。"
        },
        {
          "position" : 8,
          "frame" : "-1",
          "image" : "https:\/\/i1.douguo.com\/upload\/caiku\/e\/f\/d\/eff1388789c96ec197324b939c60c7ed.jpg",
          "content" : "用牙签在鸡翅上，扎一些小孔，方便后续入味。（我一般用粉刺针扎起来比较过瘾，牙签容易折断。）",
          "image_height" : 450,
          "image_width" : 800,
          "thumb" : "https:\/\/i1.douguo.com\/upload\/caiku\/e\/f\/d\/140_eff1388789c96ec197324b939c60c7ed.jpg"
        },
        {
          "position" : 9,
          "frame" : "-1",
          "thumb" : "https:\/\/i1.douguo.com\/upload\/caiku\/8\/7\/c\/140_8709e082fac432888f1406203501098c.jpg",
          "content" : "都塞好肉的鸡翼，把腌制鸡翼的鱼露淋上。盖盖，进冷藏室，腌制1小匙。",
          "image" : "https:\/\/i1.douguo.com\/upload\/caiku\/8\/7\/c\/8709e082fac432888f1406203501098c.jpg",
          "image_height" : 450,
          "image_width" : 800
        },
        {
          "thumb" : "https:\/\/i1.douguo.com\/upload\/caiku\/9\/f\/f\/140_9ff7385c739508e5543460d50a74cfff.jpg",
          "image_height" : 450,
          "frame" : "-1",
          "image" : "https:\/\/i1.douguo.com\/upload\/caiku\/9\/f\/f\/9ff7385c739508e5543460d50a74cfff.jpg",
          "content" : "这是刚才的鸡骨，加生姜和冷水，煮沸5分钟，然后小火慢炖1小时。",
          "position" : 10,
          "image_width" : 800
        },
        {
          "image_height" : 450,
          "thumb" : "https:\/\/i1.douguo.com\/upload\/caiku\/0\/3\/0\/140_03a6adf89c72b1dbf044ed9ea84300c0.jpg",
          "position" : 11,
          "image" : "https:\/\/i1.douguo.com\/upload\/caiku\/0\/3\/0\/03a6adf89c72b1dbf044ed9ea84300c0.jpg",
          "image_width" : 800,
          "frame" : "-1",
          "content" : "1小时后，你看，炖出1小锅鸡骨高汤。很鲜美。"
        },
        {
          "frame" : "-1",
          "image_width" : 800,
          "position" : 12,
          "content" : "蒸锅烧一锅热水，沸腾后，冰箱取出鸡翼，蒸10分钟。腌制碗内的鱼露淋到鸡肉上，蒸。",
          "thumb" : "https:\/\/i1.douguo.com\/upload\/caiku\/e\/5\/a\/140_e591daf963b22a2d48c19b1d6274ceca.jpg",
          "image" : "https:\/\/i1.douguo.com\/upload\/caiku\/e\/5\/a\/e591daf963b22a2d48c19b1d6274ceca.jpg",
          "image_height" : 450
        },
        {
          "thumb" : "https:\/\/i1.douguo.com\/upload\/caiku\/8\/6\/5\/140_861ab258280c6c26b9f71fd1ce3fa8e5.jpg",
          "frame" : "-1",
          "image_height" : 450,
          "content" : "10分钟后，鸡肉基本蒸熟和定型了。关火。",
          "image" : "https:\/\/i1.douguo.com\/upload\/caiku\/8\/6\/5\/861ab258280c6c26b9f71fd1ce3fa8e5.jpg",
          "position" : 13,
          "image_width" : 800
        },
        {
          "frame" : "-1",
          "image" : "https:\/\/i1.douguo.com\/upload\/caiku\/b\/6\/4\/b6c36f2674f45d2b36fe9bfdad1f8774.jpg",
          "image_height" : 450,
          "position" : 14,
          "image_width" : 800,
          "thumb" : "https:\/\/i1.douguo.com\/upload\/caiku\/b\/6\/4\/140_b6c36f2674f45d2b36fe9bfdad1f8774.jpg",
          "content" : "准备上述调味品，准备好所需调味品的容量及重量。"
        },
        {
          "image_width" : 800,
          "thumb" : "https:\/\/i1.douguo.com\/upload\/caiku\/7\/8\/5\/140_78e5d34ed7e66fc72f4517a887d79185.jpg",
          "position" : 15,
          "image" : "https:\/\/i1.douguo.com\/upload\/caiku\/7\/8\/5\/78e5d34ed7e66fc72f4517a887d79185.jpg",
          "content" : "大火热锅，转小火。倒入50ml椰浆。煮沸腾。",
          "frame" : "-1",
          "image_height" : 450
        },
        {
          "frame" : "-1",
          "image" : "https:\/\/i1.douguo.com\/upload\/caiku\/2\/e\/a\/2ef726bd9a00080fb2c9171a72a4018a.jpg",
          "image_height" : 450,
          "image_width" : 800,
          "content" : "倒入娘惹咖喱30g。",
          "thumb" : "https:\/\/i1.douguo.com\/upload\/caiku\/2\/e\/a\/140_2ef726bd9a00080fb2c9171a72a4018a.jpg",
          "position" : 16
        },
        {
          "image" : "https:\/\/i1.douguo.com\/upload\/caiku\/0\/0\/3\/001f554e1b72805c1d95eacd42cf3ef3.jpg",
          "frame" : "-1",
          "image_height" : 450,
          "position" : 17,
          "image_width" : 800,
          "thumb" : "https:\/\/i1.douguo.com\/upload\/caiku\/0\/0\/3\/140_001f554e1b72805c1d95eacd42cf3ef3.jpg",
          "content" : "拌匀，炒咖喱。还是小火，咖喱不能大火。"
        },
        {
          "content" : "有一些些红油出浮上来了，再倒入50ml的椰浆。继续炒咖喱。",
          "thumb" : "https:\/\/i1.douguo.com\/upload\/caiku\/9\/0\/5\/140_908650a3518f8675b089f9290499ccd5.jpg",
          "image_height" : 450,
          "position" : 18,
          "image" : "https:\/\/i1.douguo.com\/upload\/caiku\/9\/0\/5\/908650a3518f8675b089f9290499ccd5.jpg",
          "frame" : "-1",
          "image_width" : 800
        },
        {
          "position" : 19,
          "thumb" : "https:\/\/i1.douguo.com\/upload\/caiku\/3\/8\/a\/140_38cf84d4b397dec0b7b3dbac30c9063a.jpg",
          "content" : "炒到咖喱油浮上来，倒入最后50ml椰浆。开中小火，继续炒。",
          "image" : "https:\/\/i1.douguo.com\/upload\/caiku\/3\/8\/a\/38cf84d4b397dec0b7b3dbac30c9063a.jpg",
          "frame" : "-1",
          "image_width" : 800,
          "image_height" : 450
        },
        {
          "image_width" : 800,
          "content" : "炒到红油浮出，加鸡骨高汤265ml。(我这把汤勺，满勺是33-35ml)，所以我放8汤勺高汤。",
          "image_height" : 450,
          "image" : "https:\/\/i1.douguo.com\/upload\/caiku\/e\/9\/a\/e9afbbe401e7ac3525452fc85778adaa.jpg",
          "frame" : "-1",
          "thumb" : "https:\/\/i1.douguo.com\/upload\/caiku\/e\/9\/a\/140_e9afbbe401e7ac3525452fc85778adaa.jpg",
          "position" : 20
        },
        {
          "content" : "加入高汤后，开大火。煮到滚。一边煮一边慢慢搅拌。",
          "image" : "https:\/\/i1.douguo.com\/upload\/caiku\/3\/a\/e\/3a4f5a6a40c39a012e8fd02c211c3a3e.jpg",
          "image_height" : 450,
          "position" : 21,
          "image_width" : 800,
          "thumb" : "https:\/\/i1.douguo.com\/upload\/caiku\/3\/a\/e\/140_3a4f5a6a40c39a012e8fd02c211c3a3e.jpg",
          "frame" : "-1"
        },
        {
          "content" : "倒入椰奶200ml。搅拌煮沸。",
          "thumb" : "https:\/\/i1.douguo.com\/upload\/caiku\/c\/a\/7\/140_ca19e04d9f7061f23884e6ef5205c987.jpg",
          "position" : 22,
          "image_height" : 450,
          "image" : "https:\/\/i1.douguo.com\/upload\/caiku\/c\/a\/7\/ca19e04d9f7061f23884e6ef5205c987.jpg",
          "frame" : "-1",
          "image_width" : 800
        },
        {
          "image_height" : 450,
          "content" : "放入蒸好的鸡翅包肉。",
          "image_width" : 800,
          "position" : 23,
          "frame" : "-1",
          "image" : "https:\/\/i1.douguo.com\/upload\/caiku\/8\/5\/e\/85409ddfac3a8a87a8624257c15aeb8e.jpg",
          "thumb" : "https:\/\/i1.douguo.com\/upload\/caiku\/8\/5\/e\/140_85409ddfac3a8a87a8624257c15aeb8e.jpg"
        },
        {
          "frame" : "-1",
          "image_width" : 800,
          "content" : "导入蒸鸡翼留下的汤汁，约1汤勺35ml。",
          "image" : "https:\/\/i1.douguo.com\/upload\/caiku\/0\/1\/c\/0142cb6179a354a4773278247bd3890c.jpg",
          "thumb" : "https:\/\/i1.douguo.com\/upload\/caiku\/0\/1\/c\/140_0142cb6179a354a4773278247bd3890c.jpg",
          "position" : 24,
          "image_height" : 450
        },
        {
          "content" : "煮沸腾5分钟，把鸡翅翻身。然后尝味。如果够咸，就不必放鱼露了，浓稠后会比现在更咸。放入椰子糖，滑炒均匀。",
          "image" : "https:\/\/i1.douguo.com\/upload\/caiku\/d\/c\/f\/dca8b560451fe54a85c174fa161d2faf.jpg",
          "position" : 25,
          "frame" : "-1",
          "image_width" : 800,
          "thumb" : "https:\/\/i1.douguo.com\/upload\/caiku\/d\/c\/f\/140_dca8b560451fe54a85c174fa161d2faf.jpg",
          "image_height" : 450
        },
        {
          "frame" : "-1",
          "image" : "https:\/\/i1.douguo.com\/upload\/caiku\/3\/d\/5\/3d06deebe7a599ea4fb56226e34a9fd5.jpg",
          "image_width" : 800,
          "image_height" : 450,
          "content" : "转中小火，每5分钟给鸡翅翻身。直到汤汁变得浓稠，尝味。最终调整咸味和甜味。放入6片柠檬叶。",
          "position" : 26,
          "thumb" : "https:\/\/i1.douguo.com\/upload\/caiku\/3\/d\/5\/140_3d06deebe7a599ea4fb56226e34a9fd5.jpg"
        },
        {
          "position" : 27,
          "frame" : "-1",
          "thumb" : "https:\/\/i1.douguo.com\/upload\/caiku\/8\/a\/3\/140_8aade2ca99e4cefc3836e0ff3090ab23.jpg",
          "image_height" : 450,
          "image_width" : 800,
          "image" : "https:\/\/i1.douguo.com\/upload\/caiku\/8\/a\/3\/8aade2ca99e4cefc3836e0ff3090ab23.jpg",
          "content" : "汤汁浓稠，只淹没鸡翅2\/5的部分，尝尝味道，确定味道，就做好了。关火吧。"
        },
        {
          "image" : "https:\/\/i1.douguo.com\/upload\/caiku\/5\/4\/4\/5491feea53a86ebd5d781e28deb79084.jpg",
          "image_height" : 450,
          "frame" : "-1",
          "position" : 28,
          "content" : "盘子，刀叉，桌布，伺候！",
          "image_width" : 800,
          "thumb" : "https:\/\/i1.douguo.com\/upload\/caiku\/5\/4\/4\/140_5491feea53a86ebd5d781e28deb79084.jpg"
        },
        {
          "frame" : "-1",
          "thumb" : "https:\/\/i1.douguo.com\/upload\/caiku\/8\/a\/e\/140_8a649102aa06d6db57170f0b3c47442e.jpg",
          "image_width" : 800,
          "image" : "https:\/\/i1.douguo.com\/upload\/caiku\/8\/a\/e\/8a649102aa06d6db57170f0b3c47442e.jpg",
          "position" : 29,
          "image_height" : 436,
          "content" : "美的一塌糊涂。"
        },
        {
          "frame" : "-1",
          "thumb" : "https:\/\/i1.douguo.com\/upload\/caiku\/3\/3\/0\/140_3357a5daa82148d6c99691471a811d70.jpg",
          "position" : 30,
          "image" : "https:\/\/i1.douguo.com\/upload\/caiku\/3\/3\/0\/3357a5daa82148d6c99691471a811d70.jpg",
          "content" : "切一个鸡翅看看，满满都是肉馅。",
          "image_height" : 450,
          "image_width" : 800
        },
        {
          "frame" : "-1",
          "image_height" : 450,
          "position" : 31,
          "content" : "吃一块，咀嚼中，极好吃。",
          "image" : "https:\/\/i1.douguo.com\/upload\/caiku\/0\/5\/c\/05a404346b2960162dc5340a12fe37cc.jpg",
          "image_width" : 800,
          "thumb" : "https:\/\/i1.douguo.com\/upload\/caiku\/0\/5\/c\/140_05a404346b2960162dc5340a12fe37cc.jpg"
        },
        {
          "thumb" : "https:\/\/i1.douguo.com\/upload\/caiku\/b\/d\/7\/140_bd71f664afd0e98c50a36a51fcb13967.jpg",
          "image" : "https:\/\/i1.douguo.com\/upload\/caiku\/b\/d\/7\/bd71f664afd0e98c50a36a51fcb13967.jpg",
          "image_width" : 800,
          "position" : 32,
          "frame" : "-1",
          "content" : "泰国娘惹咖喱天使鸡翼，鸡翅包肉，你学会了吗？",
          "image_height" : 1172
        }
      ],
      "author_verified" : 1,
      "rpid" : 0,
      "cookwares" : [

      ],
      "favo_counts" : 2993,
      "top_mdsp" : [

      ],
      "rsm" : "该功能暂停使用",
      "ipia" : [

      ],
      "ipit" : 0,
      "rcs" : [

      ],
      "rpt" : "",
      "mid_mdsp" : [

      ],
      "dish_count" : 19,
      "sc" : 0,
      "first_level_comment_count" : 9,
      "recipe_tags" : [

      ]
    }
  },
  "state" : "success",
  "status" : 0
}