{
  "state" : "success",
  "result" : {
    "recipe" : {
      "author" : "阿冒冒美食",
      "dish_count" : 0,
      "release_time" : "",
      "top_mdsp" : [

      ],
      "advice" : {
        "has" : [
          {
            "url" : "recipes:\/\/www.douguo.com\/simplerecipelist?t=低脂&id=低脂",
            "t" : "低脂"
          },
          {
            "t" : "0胆固醇",
            "url" : "recipes:\/\/www.douguo.com\/simplerecipelist?t=0胆固醇&id=0胆固醇"
          }
        ],
        "da" : {
          "t" : "查看详细分析",
          "iu" : "https:\/\/i1.douguo.com\/upload\/banner\/f\/4\/d\/f48877e53c37759bc12ac494be82ec8d.png",
          "url" : "https:\/\/m.douguo.com\/recipe\/nutrient_self\/3262267"
        },
        "at" : "健身人群可以吃～"
      },
      "rate_show" : 0,
      "ipt" : "",
      "rate_count" : 0,
      "cook_difficulty" : "切墩(初级)",
      "rdsps" : [

      ],
      "old_comments" : [

      ],
      "image" : "http:\/\/i1.douguo.net\/upload\/caiku\/7\/d\/7\/300_7d77d4a10b85df3e684d640172980547.jpg",
      "minor" : [

      ],
      "rrps" : [

      ],
      "event" : {
        "url" : "https:\/\/m.douguo.com\/activity\/ncpzj\/detail\/3805?isapp=1&open=0&_vs=1000300&&dg_refreshkey=publishnote",
        "id" : 3805,
        "name" : "浓情端午 粽粽有赏"
      },
      "vc" : "119549",
      "ecs" : 1,
      "title" : "酸奶粽子水果捞",
      "create_time" : "2023-07-09 21:49:15",
      "sc" : 0,
      "mid_mdsp" : [

      ],
      "original_photo_path" : "http:\/\/i1.douguo.net\/upload\/caiku\/7\/d\/7\/yuan_7d77d4a10b85df3e684d640172980547.jpg",
      "recent_comments" : [

      ],
      "dishes" : [

      ],
      "eu" : "recipes:\/\/www.douguo.com\/postdetail?id=242016",
      "author_verified" : 1,
      "hq" : 1,
      "cookwares" : [

      ],
      "ssu" : "",
      "rsm" : "该功能暂停使用",
      "favo_counts" : 3748,
      "guide_image" : "",
      "tags" : [

      ],
      "cook_difficulty_image" : "https:\/\/i1.douguo.com\/upload\/banner\/1551424390.png",
      "purl" : "",
      "user" : {
        "dishes_count" : 0,
        "user_large_photo" : "http:\/\/tx1.douguo.net\/upload\/photo\/c\/e\/d\/yuan_u19922396106873170446.jpg",
        "is_prime" : 0,
        "fc" : 0,
        "age" : "",
        "gender" : 2,
        "qq_weibo_nick" : "",
        "userid" : "26618527",
        "email" : "",
        "following_count" : 0,
        "nick" : "阿冒冒美食",
        "user_cover" : "",
        "verified_image" : "https:\/\/i1.douguo.com\/upload\/note\/d\/a\/a\/da84247847aebe48d9dd0fcdac88862a.png",
        "diaries_count" : 0,
        "location" : 0,
        "subscription_article_count" : 0,
        "lvl" : 6,
        "weibo_nick" : "",
        "birthday" : "",
        "favorites_count" : 0,
        "qzone_nick" : "",
        "favor_diaries_count" : 0,
        "followers_count" : 0,
        "recipes_count" : 0,
        "coursecount" : 0,
        "progress_image" : "",
        "verified_url" : "https:\/\/m.douguo.com\/user\/prodesc",
        "mobile" : "",
        "point" : 0,
        "sign" : "",
        "verified" : 1,
        "introduction" : "",
        "lv" : 0,
        "subscription" : 0,
        "avatar_medium" : "http:\/\/tx1.douguo.net\/upload\/photo\/c\/e\/d\/140_u19922396106873170446.jpg",
        "regist_time" : "",
        "pc" : 0,
        "user_id" : "26618527",
        "user_photo" : "http:\/\/tx1.douguo.net\/upload\/photo\/c\/e\/d\/70_u19922396106873170446.jpg",
        "setted_email" : 0
      },
      "rpst" : "",
      "recipe_tags" : [

      ],
      "comments_count_text" : "",
      "major" : [
        {
          "title" : "粽子",
          "note" : "3个"
        },
        {
          "title" : "火龙果",
          "note" : "1个",
          "tu" : "https:\/\/m.douguo.com\/ingredients\/火龙果\/detailmaterial"
        },
        {
          "title" : "酸奶",
          "note" : "1盒"
        },
        {
          "title" : "蓝莓",
          "note" : "60克",
          "tu" : "https:\/\/m.douguo.com\/ingredients\/蓝莓\/detailmaterial"
        }
      ],
      "ipia" : [

      ],
      "rpid" : 0,
      "cookstorys" : [
        {
          "u" : "",
          "type" : 0,
          "color" : "",
          "c" : "      酸奶，粽子，水果的奇特搭配，碰撞出的是奇特的美味，在炎炎夏日吃起来冰冰凉凉，不要太爽了。",
          "icon" : "",
          "id" : 0
        },
        {
          "color" : "",
          "icon" : "",
          "c" : "\n参与活动:",
          "type" : 0,
          "id" : 0,
          "u" : ""
        },
        {
          "u" : "https:\/\/m.douguo.com\/activity\/ncpzj\/detail\/3805?isapp=1&open=0&_vs=1000300&&dg_refreshkey=publishnote",
          "type" : 0,
          "c" : "#浓情端午 粽粽有赏#",
          "icon" : "",
          "id" : 0
        }
      ],
      "rate" : 0,
      "recommendation_tag" : "",
      "levelid" : 2,
      "cookstep" : [
        {
          "image_height" : 1280,
          "thumb" : "https:\/\/i1.douguo.com\/upload\/caiku\/0\/4\/c\/140_0411b8f1d28018e1d05fd3bfff04418c.jpg",
          "position" : 1,
          "frame" : "-1",
          "content" : "准备好材料备用。刚开始准备了2个粽子，后来觉得太少了又加了一个。",
          "image" : "https:\/\/i1.douguo.com\/upload\/caiku\/0\/4\/c\/0411b8f1d28018e1d05fd3bfff04418c.jpg",
          "image_width" : 1280
        },
        {
          "image_width" : 1280,
          "position" : 2,
          "image" : "https:\/\/i1.douguo.com\/upload\/caiku\/9\/b\/6\/9ba87d5dba3ca0a20a297eac88e93436.jpg",
          "thumb" : "https:\/\/i1.douguo.com\/upload\/caiku\/9\/b\/6\/140_9ba87d5dba3ca0a20a297eac88e93436.jpg",
          "frame" : "-1",
          "content" : "将粽子煮熟或上锅蒸熟后放凉。",
          "image_height" : 1280
        },
        {
          "image" : "https:\/\/i1.douguo.com\/upload\/caiku\/0\/3\/e\/0329d637e4f525794a94179491dd889e.jpg",
          "thumb" : "https:\/\/i1.douguo.com\/upload\/caiku\/0\/3\/e\/140_0329d637e4f525794a94179491dd889e.jpg",
          "image_height" : 1280,
          "image_width" : 1280,
          "frame" : "-1",
          "position" : 3,
          "content" : "将放凉的粽子去掉粽叶，划成小块放入碗里。"
        },
        {
          "position" : 4,
          "image_height" : 1280,
          "frame" : "-1",
          "image" : "https:\/\/i1.douguo.com\/upload\/caiku\/7\/d\/1\/7d9fa3b759e05e8925ee1604b54129b1.jpg",
          "content" : "火龙果去皮划成小块。也可以是其他自己喜欢的水果。",
          "image_width" : 1280,
          "thumb" : "https:\/\/i1.douguo.com\/upload\/caiku\/7\/d\/1\/140_7d9fa3b759e05e8925ee1604b54129b1.jpg"
        },
        {
          "content" : "将火龙果放入碗里。",
          "image" : "https:\/\/i1.douguo.com\/upload\/caiku\/3\/4\/7\/34e4d3d31e0262dac7eca65d2a39d7e7.jpg",
          "image_width" : 1280,
          "thumb" : "https:\/\/i1.douguo.com\/upload\/caiku\/3\/4\/7\/140_34e4d3d31e0262dac7eca65d2a39d7e7.jpg",
          "frame" : "-1",
          "position" : 5,
          "image_height" : 1280
        },
        {
          "image_height" : 1280,
          "frame" : "-1",
          "thumb" : "https:\/\/i1.douguo.com\/upload\/caiku\/f\/f\/c\/140_ffb14812d568e9219aeb44f02bcf065c.jpg",
          "image_width" : 1280,
          "position" : 6,
          "content" : "加入酸奶。",
          "image" : "https:\/\/i1.douguo.com\/upload\/caiku\/f\/f\/c\/ffb14812d568e9219aeb44f02bcf065c.jpg"
        },
        {
          "image_width" : 1280,
          "image" : "https:\/\/i1.douguo.com\/upload\/caiku\/0\/5\/d\/0559bad738582ef3e88b5eccf7dbb1ad.jpg",
          "image_height" : 1280,
          "thumb" : "https:\/\/i1.douguo.com\/upload\/caiku\/0\/5\/d\/140_0559bad738582ef3e88b5eccf7dbb1ad.jpg",
          "content" : "最后放上蓝莓。",
          "position" : 7,
          "frame" : "-1"
        },
        {
          "image_height" : 1280,
          "image_width" : 1280,
          "position" : 8,
          "frame" : "-1",
          "image" : "https:\/\/i1.douguo.com\/upload\/caiku\/d\/4\/c\/d4d87d17f406d5bd88491c7bb8596a4c.jpg",
          "thumb" : "https:\/\/i1.douguo.com\/upload\/caiku\/d\/4\/c\/140_d4d87d17f406d5bd88491c7bb8596a4c.jpg",
          "content" : "做法简单。炎炎夏日吃起来太爽了。"
        }
      ],
      "pw" : 1280,
      "story_dsp" : [

      ],
      "author_photo" : "http:\/\/tx1.douguo.net\/upload\/photo\/c\/e\/d\/70_u19922396106873170446.jpg",
      "thumb_path" : "https:\/\/i1.douguo.com\/upload\/caiku\/7\/d\/7\/300_7d77d4a10b85df3e684d640172980547.jpg",
      "views_count_text" : "12.0万",
      "sr" : "",
      "collect_status" : 0,
      "packages_id" : [

      ],
      "v_u" : "",
      "display_ingredient" : 1,
      "tips" : "",
      "related_ads" : [

      ],
      "favo_counts_text" : "3748",
      "rpt" : "",
      "recommended" : 0,
      "ipit" : 0,
      "btm_dsp" : [

      ],
      "vu" : "",
      "brand_day_dsp" : [

      ],
      "share_info" : {
        "object_id" : "3262267",
        "image" : "https:\/\/cp1.douguo.com\/upload\/caiku\/7\/d\/7\/7d77d4a10b85df3e684d640172980547.jpg",
        "name" : "#浓情端午 粽粽有赏#酸奶粽子水果捞-会做饭很酷!",
        "mini_program" : [

        ],
        "infos" : [
          {
            "object_id" : "3262267",
            "mini_program" : [

            ],
            "channel" : "1",
            "qr_image" : "",
            "image" : "https:\/\/cp1.douguo.com\/upload\/caiku\/7\/d\/7\/7d77d4a10b85df3e684d640172980547.jpg",
            "s_u" : "",
            "s_d" : "#学做饭用豆果美食# 我在@豆果美食 分享了【#浓情端午 粽粽有赏#酸奶粽子水果捞-会做饭很酷!】，色香味俱全说的就是这道菜！查看图片了解菜谱（快来点击https:\/\/m.weibo.cn\/p\/100404i33631和我一起修炼厨艺吧）#会做饭很酷# ",
            "name" : "#浓情端午 粽粽有赏#酸奶粽子水果捞-会做饭很酷!"
          },
          {
            "qr_image" : "",
            "object_id" : "3262267",
            "s_u" : "http:\/\/m.douguo.com\/cookbook\/3262267.html",
            "mini_program" : [

            ],
            "image" : "https:\/\/cp1.douguo.com\/upload\/caiku\/7\/d\/7\/7d77d4a10b85df3e684d640172980547.jpg",
            "channel" : "7",
            "name" : "#浓情端午 粽粽有赏#酸奶粽子水果捞-会做饭很酷!",
            "s_d" : "#浓情端午 粽粽有赏#酸奶粽子水果捞-会做饭很酷!"
          },
          {
            "s_d" : "#浓情端午 粽粽有赏#酸奶粽子水果捞-会做饭很酷!",
            "s_u" : "http:\/\/m.douguo.com\/cookbook\/3262267.html",
            "mini_program" : [

            ],
            "image" : "https:\/\/cp1.douguo.com\/upload\/caiku\/7\/d\/7\/7d77d4a10b85df3e684d640172980547.jpg",
            "name" : "#浓情端午 粽粽有赏#酸奶粽子水果捞-会做饭很酷!",
            "channel" : "8",
            "object_id" : "3262267",
            "qr_image" : ""
          }
        ],
        "s_u" : "http:\/\/m.douguo.com\/cookbook\/3262267.html",
        "s_d" : "#浓情端午 粽粽有赏#酸奶粽子水果捞-会做饭很酷!",
        "qr_image" : ""
      },
      "first_level_comment_count" : 0,
      "cookstory" : "      酸奶，粽子，水果的奇特搭配，碰撞出的是奇特的美味，在炎炎夏日吃起来冰冰凉凉，不要太爽了。",
      "comments" : [

      ],
      "recommend_label" : "3748人刚刚收藏过",
      "notes" : [

      ],
      "su" : "",
      "rips" : 0,
      "ph" : 1280,
      "rcs" : [

      ],
      "cook_id" : "3262267",
      "vfurl" : "",
      "bs" : [

      ],
      "thumb_height" : 0,
      "ipurl" : "",
      "rrpt" : "",
      "clicks" : "1",
      "rewarded_video_dsp" : [

      ],
      "comments_count" : 0,
      "photo_path" : "https:\/\/i1.douguo.com\/upload\/caiku\/7\/d\/7\/600_7d77d4a10b85df3e684d640172980547.jpg",
      "cook_time_image" : "https:\/\/i1.douguo.com\/upload\/banner\/1551424358.png",
      "ipoi" : "",
      "ipci" : "",
      "title_ad" : [

      ],
      "author_id" : 26618527,
      "hqu" : "recipes:\/\/www.douguo.com\/notedetail?id=21162253",
      "ss" : [

      ],
      "dish_count_text" : "",
      "recipe_list_tags" : [
        {
          "text_color" : "#141515",
          "jump_url" : "",
          "right_image" : "",
          "text" : "关注的人",
          "background_start_color" : "#F4F5F5",
          "background_border_color" : "",
          "background_end_color" : "#F4F5F5"
        }
      ],
      "act_des" : "",
      "cook_time" : "10分钟左右"
    }
  },
  "status" : 0
}