{
  "state" : "success",
  "result" : {
    "recipe" : {
      "author_verified" : 0,
      "rewarded_video_dsp" : [

      ],
      "views_count_text" : "3.0万",
      "tags" : [

      ],
      "rpt" : "",
      "hqu" : "recipes:\/\/www.douguo.com\/notedetail?id=21162253",
      "rate_show" : 0,
      "mid_mdsp" : [

      ],
      "cookstorys" : [

      ],
      "rate_count" : 0,
      "pw" : 596,
      "advice" : {
        "at" : "有助于组织的形成和生长～",
        "has" : [
          {
            "t" : "富含蛋白质",
            "url" : "recipes:\/\/www.douguo.com\/simplerecipelist?t=富含蛋白质&id=富含蛋白质"
          },
          {
            "t" : "低糖",
            "url" : "recipes:\/\/www.douguo.com\/simplerecipelist?t=低糖&id=低糖"
          }
        ],
        "da" : {
          "iu" : "https:\/\/i1.douguo.com\/upload\/banner\/f\/4\/d\/f48877e53c37759bc12ac494be82ec8d.png",
          "t" : "查看详细分析",
          "url" : "https:\/\/m.douguo.com\/recipe\/nutrient_self\/1612659"
        }
      },
      "recent_comments" : [

      ],
      "cook_difficulty_image" : "",
      "ss" : [

      ],
      "share_info" : {
        "infos" : [
          {
            "qr_image" : "",
            "name" : "虾-会做饭很酷!",
            "image" : "https:\/\/cp1.douguo.com\/upload\/caiku\/c\/1\/2\/c19702094f86701e0c205e29ebb78dc2.jpg",
            "object_id" : "1612659",
            "s_u" : "",
            "s_d" : "#学做饭用豆果美食# 会做饭真是太酷了！我在@豆果美食 分享了【虾-会做饭很酷!】，这道菜真的神仙美味！喜欢的一定要试试绝对不会错的！～查看图片了解菜谱（快来点击https:\/\/m.weibo.cn\/p\/100404i33631和我一起修炼厨艺吧）",
            "channel" : "1",
            "mini_program" : [

            ]
          },
          {
            "s_d" : "虾-会做饭很酷!",
            "channel" : "7",
            "s_u" : "http:\/\/m.douguo.com\/cookbook\/1612659.html",
            "mini_program" : [

            ],
            "name" : "虾-会做饭很酷!",
            "qr_image" : "",
            "object_id" : "1612659",
            "image" : "https:\/\/cp1.douguo.com\/upload\/caiku\/c\/1\/2\/c19702094f86701e0c205e29ebb78dc2.jpg"
          },
          {
            "object_id" : "1612659",
            "s_u" : "http:\/\/m.douguo.com\/cookbook\/1612659.html",
            "image" : "https:\/\/cp1.douguo.com\/upload\/caiku\/c\/1\/2\/c19702094f86701e0c205e29ebb78dc2.jpg",
            "name" : "虾-会做饭很酷!",
            "mini_program" : [

            ],
            "s_d" : "虾-会做饭很酷!",
            "channel" : "8",
            "qr_image" : ""
          }
        ],
        "object_id" : "1612659",
        "s_u" : "http:\/\/m.douguo.com\/cookbook\/1612659.html",
        "mini_program" : [

        ],
        "qr_image" : "",
        "image" : "https:\/\/cp1.douguo.com\/upload\/caiku\/c\/1\/2\/c19702094f86701e0c205e29ebb78dc2.jpg",
        "name" : "虾-会做饭很酷!",
        "s_d" : "虾-会做饭很酷!"
      },
      "create_time" : "2017-10-06 19:47:28",
      "ph" : 491,
      "recipe_tags" : [

      ],
      "purl" : "",
      "collect_status" : 0,
      "dishes" : [

      ],
      "rcs" : [

      ],
      "ipit" : 0,
      "ecs" : 0,
      "comments_count" : 6,
      "old_comments" : [

      ],
      "vc" : "30133",
      "original_photo_path" : "http:\/\/i1.douguo.net\/upload\/caiku\/c\/1\/2\/yuan_c19702094f86701e0c205e29ebb78dc2.jpg",
      "user" : {
        "lv" : 0,
        "qzone_nick" : "",
        "favor_diaries_count" : 0,
        "avatar_medium" : "http:\/\/tx1.douguo.net\/upload\/photo\/0\/2\/0\/140_u04367160201616203156.jpg",
        "birthday" : "",
        "qq_weibo_nick" : "",
        "userid" : "4733517",
        "gender" : 2,
        "progress_image" : "",
        "fc" : 0,
        "diaries_count" : 0,
        "coursecount" : 0,
        "age" : "",
        "verified" : 0,
        "recipes_count" : 0,
        "favorites_count" : 0,
        "introduction" : "",
        "user_cover" : "",
        "email" : "",
        "followers_count" : 0,
        "user_photo" : "http:\/\/tx1.douguo.net\/upload\/photo\/0\/2\/0\/70_u04367160201616203156.jpg",
        "regist_time" : "",
        "verified_url" : "https:\/\/m.douguo.com\/user\/prodesc",
        "location" : 0,
        "following_count" : 0,
        "dishes_count" : 0,
        "setted_email" : 0,
        "pc" : 0,
        "verified_image" : "",
        "point" : 0,
        "nick" : "映雪私房菜",
        "is_prime" : 0,
        "user_large_photo" : "http:\/\/tx1.douguo.net\/upload\/photo\/0\/2\/0\/yuan_u04367160201616203156.jpg",
        "subscription" : 0,
        "lvl" : 4,
        "weibo_nick" : "",
        "sign" : "",
        "user_id" : "4733517",
        "subscription_article_count" : 0,
        "mobile" : ""
      },
      "recipe_list_tags" : [
        {
          "background_end_color" : "#F4F5F5",
          "background_start_color" : "#F4F5F5",
          "right_image" : "",
          "text" : "关注的人",
          "jump_url" : "",
          "background_border_color" : "",
          "text_color" : "#141515"
        }
      ],
      "top_mdsp" : [

      ],
      "rpst" : "",
      "cookwares" : [

      ],
      "dish_count_text" : "",
      "photo_path" : "https:\/\/i1.douguo.com\/upload\/caiku\/c\/1\/2\/600_c19702094f86701e0c205e29ebb78dc2.jpg",
      "title_ad" : [

      ],
      "comments_count_text" : "6",
      "ipci" : "",
      "rips" : 0,
      "cookstep" : [
        {
          "thumb" : "https:\/\/i1.douguo.com\/upload\/caiku\/d\/c\/7\/140_dc8e430c4b23fff9477a70f1aa832487.jpg",
          "image_height" : 1000,
          "frame" : "-1",
          "image_width" : 750,
          "position" : 1,
          "content" : "活虾",
          "image" : "https:\/\/i1.douguo.com\/upload\/caiku\/d\/c\/7\/dc8e430c4b23fff9477a70f1aa832487.jpg"
        },
        {
          "image_height" : 1000,
          "thumb" : "https:\/\/i1.douguo.com\/upload\/caiku\/0\/9\/c\/140_094462c0688eecd04a30a79db79b512c.jpg",
          "frame" : "-1",
          "content" : "打理肠子",
          "image" : "https:\/\/i1.douguo.com\/upload\/caiku\/0\/9\/c\/094462c0688eecd04a30a79db79b512c.jpg",
          "position" : 2,
          "image_width" : 750
        },
        {
          "image_height" : 1000,
          "frame" : "-1",
          "content" : "拿牙签",
          "image" : "https:\/\/i1.douguo.com\/upload\/caiku\/a\/5\/2\/a5bbbfde007972aaa37f367dbaf4bea2.jpg",
          "position" : 3,
          "image_width" : 750,
          "thumb" : "https:\/\/i1.douguo.com\/upload\/caiku\/a\/5\/2\/140_a5bbbfde007972aaa37f367dbaf4bea2.jpg"
        },
        {
          "thumb" : "https:\/\/i1.douguo.com\/upload\/caiku\/8\/6\/b\/140_86c4397aa9d504574015194a739f763b.jpg",
          "position" : 4,
          "frame" : "-1",
          "image" : "https:\/\/i1.douguo.com\/upload\/caiku\/8\/6\/b\/86c4397aa9d504574015194a739f763b.jpg",
          "image_height" : 1000,
          "content" : "准备配料",
          "image_width" : 750
        },
        {
          "image_width" : 680,
          "frame" : "-1",
          "image_height" : 515,
          "thumb" : "https:\/\/i1.douguo.com\/upload\/caiku\/f\/1\/4\/140_f14391f70dafce3b87188abbaf6ab004.jpg",
          "image" : "https:\/\/i1.douguo.com\/upload\/caiku\/f\/1\/4\/f14391f70dafce3b87188abbaf6ab004.jpg",
          "content" : "葱姜蒜",
          "position" : 5
        },
        {
          "position" : 6,
          "thumb" : "https:\/\/i1.douguo.com\/upload\/caiku\/c\/3\/2\/140_c32ab9832fa1d74d9b4cc741f0ac4882.jpg",
          "image" : "https:\/\/i1.douguo.com\/upload\/caiku\/c\/3\/2\/c32ab9832fa1d74d9b4cc741f0ac4882.jpg",
          "image_height" : 1000,
          "image_width" : 750,
          "frame" : "-1",
          "content" : "油烧热"
        },
        {
          "frame" : "-1",
          "content" : "下配菜炒香",
          "image_height" : 491,
          "image_width" : 717,
          "thumb" : "https:\/\/i1.douguo.com\/upload\/caiku\/1\/9\/f\/140_19f0b656776c09431958b1c47a88b8ef.jpg",
          "position" : 7,
          "image" : "https:\/\/i1.douguo.com\/upload\/caiku\/1\/9\/f\/19f0b656776c09431958b1c47a88b8ef.jpg"
        },
        {
          "frame" : "-1",
          "thumb" : "https:\/\/i1.douguo.com\/upload\/caiku\/9\/d\/4\/140_9de4b417a0d92669814f223fdbdbf914.jpg",
          "image_width" : 750,
          "image_height" : 563,
          "position" : 8,
          "image" : "https:\/\/i1.douguo.com\/upload\/caiku\/9\/d\/4\/9de4b417a0d92669814f223fdbdbf914.jpg",
          "content" : "番茄酱或者辣椒酱"
        },
        {
          "image_height" : 535,
          "image" : "https:\/\/i1.douguo.com\/upload\/caiku\/b\/0\/4\/b01dfb04313cde5d2315c0c947e86474.jpg",
          "frame" : "-1",
          "thumb" : "https:\/\/i1.douguo.com\/upload\/caiku\/b\/0\/4\/140_b01dfb04313cde5d2315c0c947e86474.jpg",
          "image_width" : 711,
          "content" : "之后下虾",
          "position" : 9
        },
        {
          "frame" : "-1",
          "image" : "https:\/\/i1.douguo.com\/upload\/caiku\/8\/d\/8\/8d8f9242afa355d4199bb2033ecb61f8.jpg",
          "position" : 10,
          "image_height" : 535,
          "content" : "大火收汁可以加些平常炒菜那些，盐...",
          "thumb" : "https:\/\/i1.douguo.com\/upload\/caiku\/8\/d\/8\/140_8d8f9242afa355d4199bb2033ecb61f8.jpg",
          "image_width" : 722
        },
        {
          "frame" : "-1",
          "image_width" : 596,
          "image" : "https:\/\/i1.douguo.com\/upload\/caiku\/a\/e\/b\/aeb7f32ffc4b8a4254fed6e111f3e7cb.jpg",
          "content" : "之后摆盘。",
          "position" : 11,
          "thumb" : "https:\/\/i1.douguo.com\/upload\/caiku\/a\/e\/b\/140_aeb7f32ffc4b8a4254fed6e111f3e7cb.jpg",
          "image_height" : 491
        }
      ],
      "vu" : "",
      "favo_counts" : 188,
      "comments" : [
        "{\n    ac = \"#999999\";\n    at = \"\";\n    ccc = 0;\n    \"child_comments\" =     (\n    );\n    city = \"\";\n    cmc = 2;\n    content =     (\n                {\n            c = \"\\U9047\\U89c1\\U60f3\\U5403\\U7684\\U7f8e\\U98df\\U5fc5\\U987b\\U91ca\\U653e\\U81ea\\U5df1\\U7684\\U5929\\U6027\\Uff01\";\n        }\n    );\n    ia = 0;\n    id = 5676615;\n    \"ip_address_location\" = \"\";\n    like = 0;\n    \"like_count\" = 0;\n    \"reply_id\" = 0;\n    \"sticker_icon\" =     (\n    );\n    time = \"2018-05-11 07:38:02\";\n    u =     {\n        \"followers_count_text\" = \"\";\n        id = 18569017;\n        \"is_prime\" = 0;\n        lv = 0;\n        lvl = 6;\n        n = \"\\U7eff\\U67da\\U5b50\\U4f73\";\n        p = \"http:\/\/tx1.douguo.net\/upload\/photo\/1\/6\/b\/70_u85942471692274185201.jpg\";\n        \"progress_image\" = \"\";\n        \"recipes_count_text\" = \"\";\n        relationship = \"-1\";\n        title = \"\";\n        v = 0;\n        \"verified_image\" = \"\";\n    };\n}",
        "{\n    ac = \"#999999\";\n    at = \"\";\n    ccc = 0;\n    \"child_comments\" =     (\n    );\n    city = \"\";\n    cmc = 2;\n    content =     (\n                {\n            c = \"\\U548c\\U8001\\U516c\\U5403\\U4e0d\\U5230\\U4e00\\U5757\\U53bb\\Uff0c\\U771f\\U662f\\U592a\\U8f9c\\U8d1f\\U8fd9\\U4e2a\\U7f8e\\U98df\\U4e86\";\n        }\n    );\n    ia = 0;\n    id = 5676612;\n    \"ip_address_location\" = \"\";\n    like = 0;\n    \"like_count\" = 0;\n    \"reply_id\" = 0;\n    \"sticker_icon\" =     (\n    );\n    time = \"2018-05-11 07:37:00\";\n    u =     {\n        \"followers_count_text\" = \"\";\n        id = 18501896;\n        \"is_prime\" = 0;\n        lv = 0;\n        lvl = 4;\n        n = \"\\U6211\\U7684\\U5fae\\U7b11\\U4f1a\\U54edX\";\n        p = \"http:\/\/tx1.douguo.net\/upload\/photo\/3\/5\/4\/70_355efa632e6075d581bb749f09cfc6f4.jpg\";\n        \"progress_image\" = \"\";\n        \"recipes_count_text\" = \"\";\n        relationship = \"-1\";\n        title = \"\";\n        v = 0;\n        \"verified_image\" = \"\";\n    };\n}",
        "{\n    ac = \"#999999\";\n    at = \"\";\n    ccc = 0;\n    \"child_comments\" =     (\n    );\n    city = \"\";\n    cmc = 2;\n    content =     (\n                {\n            c = \"\\U61d2\\U5f97\\U996d\\U90fd\\U4e0d\\U60f3\\U505a\\U7684\\U98d8\\U8fc7\\Uff0c\\U54c8\\U54c8\\Uff01\";\n        }\n    );\n    ia = 0;\n    id = 5429841;\n    \"ip_address_location\" = \"\";\n    like = 0;\n    \"like_count\" = 0;\n    \"reply_id\" = 0;\n    \"sticker_icon\" =     (\n    );\n    time = \"2018-03-10 11:36:21\";\n    u =     {\n        \"followers_count_text\" = \"\";\n        id = 18515919;\n        \"is_prime\" = 0;\n        lv = 0;\n        lvl = 6;\n        n = \"\\U67d0\\U79cd\\U574d\\U584c\\U7684\\U65b9\\U5f0f\";\n        p = \"http:\/\/tx1.douguo.net\/upload\/photo\/e\/b\/e\/70_u17357090867200408191728.jpg\";\n        \"progress_image\" = \"\";\n        \"recipes_count_text\" = \"\";\n        relationship = \"-1\";\n        title = \"\";\n        v = 0;\n        \"verified_image\" = \"\";\n    };\n}"
      ],
      "tips" : "",
      "rdsps" : [

      ],
      "rpid" : 0,
      "v_u" : "",
      "title" : "虾",
      "display_ingredient" : 1,
      "hq" : 1,
      "first_level_comment_count" : 6,
      "bs" : [

      ],
      "dish_count" : 0,
      "vfurl" : "",
      "notes" : [

      ],
      "su" : "",
      "rsm" : "该功能暂停使用",
      "cook_id" : "1612659",
      "cook_difficulty" : "",
      "cookstory" : "",
      "act_des" : "",
      "ipurl" : "",
      "rate" : 0,
      "clicks" : "23632",
      "release_time" : "",
      "recommendation_tag" : "",
      "ipia" : [

      ],
      "rrps" : [

      ],
      "eu" : "recipes:\/\/www.douguo.com\/postdetail?id=242016",
      "guide_image" : "",
      "ipoi" : "",
      "brand_day_dsp" : [

      ],
      "minor" : [

      ],
      "ssu" : "",
      "recommend_label" : "3.0万人看过",
      "image" : "http:\/\/i1.douguo.net\/upload\/caiku\/c\/1\/2\/300_c19702094f86701e0c205e29ebb78dc2.jpg",
      "btm_dsp" : [

      ],
      "related_ads" : [

      ],
      "levelid" : 2,
      "sc" : 0,
      "story_dsp" : [

      ],
      "recommended" : 0,
      "rrpt" : "",
      "major" : [
        {
          "title" : "鲜虾",
          "note" : ""
        },
        {
          "title" : "料酒",
          "tu" : "https:\/\/m.douguo.com\/ingredients\/料酒\/detailmaterial",
          "note" : ""
        },
        {
          "title" : "葱姜蒜",
          "tu" : "https:\/\/m.douguo.com\/ingredients\/葱姜蒜\/detailmaterial",
          "note" : ""
        },
        {
          "note" : "",
          "title" : "油",
          "tu" : "https:\/\/m.douguo.com\/ingredients\/油\/detailmaterial"
        }
      ],
      "author" : "映雪私房菜",
      "cook_time" : "",
      "author_id" : 4733517,
      "packages_id" : [

      ],
      "sr" : "",
      "thumb_height" : 0,
      "thumb_path" : "https:\/\/i1.douguo.com\/upload\/caiku\/c\/1\/2\/300_c19702094f86701e0c205e29ebb78dc2.jpg",
      "ipt" : "",
      "cook_time_image" : "",
      "author_photo" : "http:\/\/tx1.douguo.net\/upload\/photo\/0\/2\/0\/70_u04367160201616203156.jpg",
      "favo_counts_text" : "188"
    }
  },
  "status" : 0
}