{
  "status" : 0,
  "result" : {
    "recipe" : {
      "cook_difficulty" : "切墩(初级)",
      "old_comments" : [

      ],
      "ipit" : 0,
      "cook_time" : "1小时以上",
      "ipt" : "",
      "ph" : 960,
      "recent_comments" : [

      ],
      "cookstep" : [
        {
          "image_width" : 1280,
          "frame" : "-1",
          "thumb" : "https:\/\/i1.douguo.com\/upload\/caiku\/f\/f\/4\/140_ff76dec1563c3d74a716cafeec8511f4.jpg",
          "image" : "https:\/\/i1.douguo.com\/upload\/caiku\/f\/f\/4\/ff76dec1563c3d74a716cafeec8511f4.jpg",
          "image_height" : 960,
          "position" : 1,
          "content" : "准备好食材"
        },
        {
          "thumb" : "https:\/\/i1.douguo.com\/upload\/caiku\/e\/4\/1\/140_e47ea0313e8a08633393571c5926a851.jpg",
          "image" : "https:\/\/i1.douguo.com\/upload\/caiku\/e\/4\/1\/e47ea0313e8a08633393571c5926a851.jpg",
          "frame" : "-1",
          "image_width" : 1280,
          "image_height" : 960,
          "position" : 2,
          "content" : "碗中加入料酒、蜂蜜、生抽、蚝油、韩式辣酱和黑胡椒粉搅拌均匀"
        },
        {
          "position" : 3,
          "frame" : "-1",
          "image_height" : 960,
          "image" : "https:\/\/i1.douguo.com\/upload\/caiku\/9\/9\/0\/99513f406a8681ac22684b287a5f0180.jpg",
          "image_width" : 1280,
          "thumb" : "https:\/\/i1.douguo.com\/upload\/caiku\/9\/9\/0\/140_99513f406a8681ac22684b287a5f0180.jpg",
          "content" : "点击米博的烧烤酱功能，按照提示将油和洋葱放进去140度1档炒三分钟。"
        },
        {
          "content" : "倒计时三分钟，时间到了会有提示。",
          "image_height" : 600,
          "image" : "https:\/\/i1.douguo.com\/upload\/caiku\/e\/6\/2\/e656e8c21fcecad17475ac08f10f5c12.jpg",
          "image_width" : 800,
          "thumb" : "https:\/\/i1.douguo.com\/upload\/caiku\/e\/6\/2\/140_e656e8c21fcecad17475ac08f10f5c12.jpg",
          "position" : 4,
          "frame" : "-1"
        },
        {
          "image_width" : 1280,
          "content" : "根据提示一步步加各种调料，自带电子秤，方便添加。",
          "image_height" : 960,
          "image" : "https:\/\/i1.douguo.com\/upload\/caiku\/b\/a\/0\/badbffdd2c930eea97ea415622550c00.jpg",
          "frame" : "-1",
          "position" : 5,
          "thumb" : "https:\/\/i1.douguo.com\/upload\/caiku\/b\/a\/0\/140_badbffdd2c930eea97ea415622550c00.jpg"
        },
        {
          "image_height" : 600,
          "image_width" : 800,
          "thumb" : "https:\/\/i1.douguo.com\/upload\/caiku\/e\/c\/0\/140_ecb76d66a8d411ed6faa55b54dc348f0.jpg",
          "content" : "有的材料不喜欢或者家里没有我就直接跳过了，这是成品烧烤酱的样子，特别香。",
          "image" : "https:\/\/i1.douguo.com\/upload\/caiku\/e\/c\/0\/ecb76d66a8d411ed6faa55b54dc348f0.jpg",
          "position" : 6,
          "frame" : "-1"
        },
        {
          "image" : "https:\/\/i1.douguo.com\/upload\/caiku\/3\/f\/f\/3f63c709cae52d5c3c87ae5c29878f3f.jpg",
          "frame" : "-1",
          "position" : 7,
          "content" : "鸡里里外外涂上烧烤酱，保鲜膜封住腌制4小时。",
          "thumb" : "https:\/\/i1.douguo.com\/upload\/caiku\/3\/f\/f\/140_3f63c709cae52d5c3c87ae5c29878f3f.jpg",
          "image_width" : 1280,
          "image_height" : 960
        },
        {
          "content" : "腌制鸡剩下的酱料和蔬菜拌匀，和鸡一起放在烤盘里，150度烤60分钟。",
          "frame" : "-1",
          "image" : "https:\/\/i1.douguo.com\/upload\/caiku\/e\/1\/2\/e1890693ec3d0d569043e18dcdae36e2.jpg",
          "thumb" : "https:\/\/i1.douguo.com\/upload\/caiku\/e\/1\/2\/140_e1890693ec3d0d569043e18dcdae36e2.jpg",
          "position" : 8,
          "image_width" : 1280,
          "image_height" : 960
        },
        {
          "image_height" : 600,
          "frame" : "-1",
          "content" : "成品",
          "position" : 9,
          "thumb" : "https:\/\/i1.douguo.com\/upload\/caiku\/0\/7\/4\/140_07b182269f2bb4fc155cb1ab5993c754.jpg",
          "image" : "https:\/\/i1.douguo.com\/upload\/caiku\/0\/7\/4\/07b182269f2bb4fc155cb1ab5993c754.jpg",
          "image_width" : 800
        },
        {
          "content" : "成品鲜嫩多汁",
          "image_height" : 960,
          "frame" : "-1",
          "thumb" : "https:\/\/i1.douguo.com\/upload\/caiku\/0\/4\/a\/140_04efece254913af9f66bc24afa4ee98a.jpg",
          "image" : "https:\/\/i1.douguo.com\/upload\/caiku\/0\/4\/a\/04efece254913af9f66bc24afa4ee98a.jpg",
          "image_width" : 1280,
          "position" : 10
        }
      ],
      "purl" : "",
      "vfurl" : "",
      "recipe_list_tags" : [
        {
          "background_start_color" : "#F4F5F5",
          "jump_url" : "",
          "background_border_color" : "",
          "text" : "关注的人",
          "text_color" : "#141515",
          "right_image" : "",
          "background_end_color" : "#F4F5F5"
        },
        {
          "background_border_color" : "",
          "text_color" : "#141515",
          "text" : "内容详细",
          "background_start_color" : "#F4F5F5",
          "jump_url" : "",
          "right_image" : "",
          "background_end_color" : "#F4F5F5"
        }
      ],
      "ipurl" : "",
      "author" : "禹馨",
      "rrpt" : "",
      "recommendation_tag" : "",
      "top_mdsp" : [

      ],
      "ssu" : "",
      "cookwares" : [

      ],
      "thumb_height" : 0,
      "collect_status" : 0,
      "v_u" : "",
      "cook_id" : "3018192",
      "dish_count" : 1,
      "hqu" : "recipes:\/\/www.douguo.com\/notedetail?id=21162253",
      "recommended" : 0,
      "story_dsp" : [

      ],
      "ecs" : 0,
      "vc" : "101620",
      "tips" : "米博还能做更多酱料，每一步都会有提示，厨房小白操作也不会翻车！",
      "advice" : {
        "at" : "有助于组织的形成和生长～",
        "has" : [
          {
            "url" : "recipes:\/\/www.douguo.com\/simplerecipelist?t=富含蛋白质&id=富含蛋白质",
            "t" : "富含蛋白质"
          },
          {
            "url" : "recipes:\/\/www.douguo.com\/simplerecipelist?t=低糖&id=低糖",
            "t" : "低糖"
          }
        ],
        "da" : {
          "iu" : "https:\/\/i1.douguo.com\/upload\/banner\/f\/4\/d\/f48877e53c37759bc12ac494be82ec8d.png",
          "t" : "查看详细分析",
          "url" : "https:\/\/m.douguo.com\/recipe\/nutrient_self\/3018192"
        }
      },
      "guide_image" : "",
      "rpid" : 0,
      "minor" : [

      ],
      "ipoi" : "",
      "image" : "http:\/\/i1.douguo.net\/upload\/caiku\/7\/7\/f\/300_779ad5ab9c5636581630998ec1364f7f.jpg",
      "rate" : 5,
      "clicks" : "98372",
      "cookstory" : "感恩节的烤鸡来啦！这次发现了米博烹饪机的伟大功能——制作烧烤酱！！不得不说米博功能太强大了，自带电子秤一步一步引导制作，有些没有的或者不喜欢的材料可以直接跳过，超级人性化！做出来的烧烤酱烤鸡鲜嫩多汁还特别入味！越来越离不开米博啦！",
      "rips" : 0,
      "dish_count_text" : "1",
      "share_info" : {
        "s_u" : "http:\/\/m.douguo.com\/cookbook\/3018192.html",
        "object_id" : "3018192",
        "qr_image" : "",
        "image" : "https:\/\/cp1.douguo.com\/upload\/caiku\/7\/7\/f\/779ad5ab9c5636581630998ec1364f7f.jpg",
        "mini_program" : [

        ],
        "infos" : [
          {
            "name" : "感恩节烤鸡-会做饭很酷!",
            "qr_image" : "",
            "s_d" : "#学做饭用豆果美食# 会做饭真是好酷啊！我在@豆果美食 分享了【感恩节烤鸡-会做饭很酷!】，快来康康我这道菜做的怎么样～美味停不下来！查看图片了解菜谱（你喜欢的美食都在这里！https:\/\/m.weibo.cn\/p\/100404i33631）",
            "object_id" : "3018192",
            "channel" : "1",
            "mini_program" : [

            ],
            "image" : "https:\/\/cp1.douguo.com\/upload\/caiku\/7\/7\/f\/779ad5ab9c5636581630998ec1364f7f.jpg",
            "s_u" : ""
          },
          {
            "channel" : "7",
            "image" : "https:\/\/cp1.douguo.com\/upload\/caiku\/7\/7\/f\/779ad5ab9c5636581630998ec1364f7f.jpg",
            "object_id" : "3018192",
            "qr_image" : "",
            "mini_program" : [

            ],
            "name" : "感恩节烤鸡-会做饭很酷!",
            "s_d" : "感恩节烤鸡-会做饭很酷!",
            "s_u" : "http:\/\/m.douguo.com\/cookbook\/3018192.html"
          },
          {
            "image" : "https:\/\/cp1.douguo.com\/upload\/caiku\/7\/7\/f\/779ad5ab9c5636581630998ec1364f7f.jpg",
            "s_d" : "感恩节烤鸡-会做饭很酷!",
            "channel" : "8",
            "object_id" : "3018192",
            "mini_program" : [

            ],
            "name" : "感恩节烤鸡-会做饭很酷!",
            "s_u" : "http:\/\/m.douguo.com\/cookbook\/3018192.html",
            "qr_image" : ""
          }
        ],
        "name" : "感恩节烤鸡-会做饭很酷!",
        "s_d" : "感恩节烤鸡-会做饭很酷!"
      },
      "related_ads" : [

      ],
      "major" : [
        {
          "note" : "一只",
          "title" : "鸡"
        },
        {
          "note" : "50克",
          "title" : "韩式辣酱"
        },
        {
          "tu" : "https:\/\/m.douguo.com\/ingredients\/生抽\/detailmaterial",
          "note" : "2勺",
          "title" : "生抽"
        },
        {
          "note" : "15ml",
          "tu" : "https:\/\/m.douguo.com\/ingredients\/料酒\/detailmaterial",
          "title" : "料酒"
        },
        {
          "tu" : "https:\/\/m.douguo.com\/ingredients\/蜂蜜\/detailmaterial",
          "note" : "15克",
          "title" : "蜂蜜"
        },
        {
          "note" : "50克",
          "title" : "油",
          "tu" : "https:\/\/m.douguo.com\/ingredients\/油\/detailmaterial"
        },
        {
          "note" : "20克",
          "title" : "蒜末"
        },
        {
          "note" : "50克",
          "title" : "洋葱碎"
        },
        {
          "title" : "黑胡椒粉",
          "tu" : "https:\/\/m.douguo.com\/ingredients\/黑胡椒粉\/detailmaterial",
          "note" : "3克"
        },
        {
          "note" : "1根",
          "title" : "胡萝卜",
          "tu" : "https:\/\/m.douguo.com\/ingredients\/胡萝卜\/detailmaterial"
        },
        {
          "note" : "100克",
          "title" : "西兰花",
          "tu" : "https:\/\/m.douguo.com\/ingredients\/西兰花\/detailmaterial"
        },
        {
          "title" : "洋葱块",
          "note" : "100克"
        }
      ],
      "sc" : 0,
      "packages_id" : [

      ],
      "recipe_tags" : [

      ],
      "cookstorys" : [
        {
          "u" : "",
          "id" : 0,
          "color" : "",
          "icon" : "",
          "type" : 0,
          "c" : "感恩节的烤鸡来啦！这次发现了米博烹饪机的伟大功能——制作烧烤酱！！不得不说米博功能太强大了，自带电子秤一步一步引导制作，有些没有的或者不喜欢的材料可以直接跳过，超级人性化！做出来的烧烤酱烤鸡鲜嫩多汁还特别入味！越来越离不开米博啦！"
        }
      ],
      "ipia" : [

      ],
      "thumb_path" : "https:\/\/i1.douguo.com\/upload\/caiku\/7\/7\/f\/300_779ad5ab9c5636581630998ec1364f7f.jpg",
      "rpst" : "",
      "eu" : "recipes:\/\/www.douguo.com\/postdetail?id=242016",
      "pw" : 1280,
      "views_count_text" : "10.2万",
      "recommend_label" : "1人学做",
      "bs" : [

      ],
      "title_ad" : [

      ],
      "brand_day_dsp" : [

      ],
      "author_id" : 4342920,
      "favo_counts_text" : "896",
      "levelid" : 2,
      "rate_show" : 0,
      "comments_count_text" : "",
      "tags" : [

      ],
      "cook_time_image" : "https:\/\/i1.douguo.com\/upload\/banner\/1551423815.png",
      "photo_path" : "https:\/\/i1.douguo.com\/upload\/caiku\/7\/7\/f\/600_779ad5ab9c5636581630998ec1364f7f.jpg",
      "comments" : [

      ],
      "ss" : [

      ],
      "rewarded_video_dsp" : [

      ],
      "release_time" : "",
      "sr" : "",
      "mid_mdsp" : [

      ],
      "rcs" : [

      ],
      "favo_counts" : 896,
      "rpt" : "",
      "notes" : [

      ],
      "first_level_comment_count" : 0,
      "display_ingredient" : 1,
      "author_verified" : 1,
      "rate_count" : 1,
      "su" : "",
      "vu" : "",
      "cook_difficulty_image" : "https:\/\/i1.douguo.com\/upload\/banner\/1551424390.png",
      "rdsps" : [

      ],
      "btm_dsp" : [

      ],
      "rsm" : "该功能暂停使用",
      "act_des" : "",
      "comments_count" : 0,
      "create_time" : "2020-11-27 03:18:56",
      "user" : {
        "following_count" : 0,
        "mobile" : "",
        "avatar_medium" : "http:\/\/tx1.douguo.net\/upload\/photo\/d\/2\/e\/140_u98965501516416134837.jpg",
        "favorites_count" : 0,
        "is_prime" : 0,
        "user_cover" : "",
        "verified_image" : "https:\/\/i1.douguo.com\/upload\/note\/d\/a\/a\/da84247847aebe48d9dd0fcdac88862a.png",
        "nick" : "禹馨",
        "lv" : 0,
        "lvl" : 6,
        "birthday" : "",
        "user_photo" : "http:\/\/tx1.douguo.net\/upload\/photo\/d\/2\/e\/70_u98965501516416134837.jpg",
        "introduction" : "",
        "weibo_nick" : "",
        "favor_diaries_count" : 0,
        "sign" : "",
        "point" : 0,
        "verified_url" : "https:\/\/m.douguo.com\/user\/prodesc",
        "user_id" : "4342920",
        "qq_weibo_nick" : "",
        "progress_image" : "",
        "verified" : 1,
        "fc" : 0,
        "dishes_count" : 0,
        "user_large_photo" : "http:\/\/tx1.douguo.net\/upload\/photo\/d\/2\/e\/yuan_u98965501516416134837.jpg",
        "age" : "",
        "coursecount" : 0,
        "qzone_nick" : "",
        "pc" : 0,
        "location" : 0,
        "gender" : 2,
        "email" : "",
        "recipes_count" : 0,
        "regist_time" : "",
        "userid" : "4342920",
        "setted_email" : 0,
        "followers_count" : 0,
        "diaries_count" : 0,
        "subscription_article_count" : 0,
        "subscription" : 0
      },
      "ipci" : "",
      "title" : "感恩节烤鸡",
      "dishes" : [

      ],
      "hq" : 1,
      "author_photo" : "http:\/\/tx1.douguo.net\/upload\/photo\/d\/2\/e\/70_u98965501516416134837.jpg",
      "original_photo_path" : "http:\/\/i1.douguo.net\/upload\/caiku\/7\/7\/f\/yuan_779ad5ab9c5636581630998ec1364f7f.jpg",
      "rrps" : [

      ]
    }
  },
  "state" : "success"
}