{
  "state" : "success",
  "status" : 0,
  "result" : {
    "recipe" : {
      "cook_difficulty" : "配菜(中级)",
      "old_comments" : [

      ],
      "ipit" : 0,
      "original_photo_path" : "http:\/\/i1.douguo.net\/upload\/caiku\/f\/7\/1\/yuan_f705146bea597b8653d9f35981c312e1.jpg",
      "ipt" : "",
      "ph" : 800,
      "purl" : "",
      "cookstep" : [
        {
          "content" : "准备食材",
          "frame" : "-1",
          "image" : "https:\/\/i1.douguo.com\/upload\/caiku\/5\/f\/d\/5f00ef95532a410bbca72b4a9f642c4d.jpg",
          "thumb" : "https:\/\/i1.douguo.com\/upload\/caiku\/5\/f\/d\/140_5f00ef95532a410bbca72b4a9f642c4d.jpg",
          "position" : 1,
          "image_width" : 1280,
          "image_height" : 1707
        },
        {
          "image_height" : 714,
          "image_width" : 800,
          "thumb" : "https:\/\/i1.douguo.com\/upload\/caiku\/c\/c\/d\/140_cc2bde3f62ad24ab706618f365a6f1bd.jpg",
          "content" : "煮熟鸡蛋，剥皮。此图是鹌鹑蛋",
          "image" : "https:\/\/i1.douguo.com\/upload\/caiku\/c\/c\/d\/cc2bde3f62ad24ab706618f365a6f1bd.jpg",
          "position" : 2,
          "frame" : "-1"
        },
        {
          "image" : "https:\/\/i1.douguo.com\/upload\/caiku\/7\/7\/f\/77d1320abda7e198dc48928a3d2472ff.jpg",
          "frame" : "-1",
          "position" : 3,
          "content" : "加入卤包（卤包内含花椒，大料，桂皮，香叶，陈皮等）",
          "image_width" : 1280,
          "thumb" : "https:\/\/i1.douguo.com\/upload\/caiku\/7\/7\/f\/140_77d1320abda7e198dc48928a3d2472ff.jpg",
          "image_height" : 1707
        },
        {
          "image_height" : 1707,
          "frame" : "-1",
          "image" : "https:\/\/i1.douguo.com\/upload\/caiku\/e\/2\/e\/e27b3b4afd5c2aab728748ce11610dbe.jpg",
          "position" : 4,
          "content" : "煮熟捞出晾凉",
          "thumb" : "https:\/\/i1.douguo.com\/upload\/caiku\/e\/2\/e\/140_e27b3b4afd5c2aab728748ce11610dbe.jpg",
          "image_width" : 1280
        },
        {
          "image" : "https:\/\/i1.douguo.com\/upload\/caiku\/6\/6\/1\/665961368c6d9e01a459ef65df456771.jpg",
          "content" : "复煮两次",
          "frame" : "-1",
          "image_height" : 960,
          "image_width" : 1280,
          "thumb" : "https:\/\/i1.douguo.com\/upload\/caiku\/6\/6\/1\/140_665961368c6d9e01a459ef65df456771.jpg",
          "position" : 5
        },
        {
          "position" : 6,
          "frame" : "-1",
          "image_height" : 960,
          "image_width" : 1280,
          "content" : "第三次复煮的鹌鹑蛋",
          "thumb" : "https:\/\/i1.douguo.com\/upload\/caiku\/c\/1\/6\/140_c195025cb96850a1032ce2b9b4739b26.jpg",
          "image" : "https:\/\/i1.douguo.com\/upload\/caiku\/c\/1\/6\/c195025cb96850a1032ce2b9b4739b26.jpg"
        },
        {
          "content" : "每次复煮要充分晾凉，成功",
          "image" : "https:\/\/i1.douguo.com\/upload\/caiku\/9\/9\/a\/99f447a8e60fd718c941aec2837efbaa.jpg",
          "image_width" : 1280,
          "image_height" : 865,
          "thumb" : "https:\/\/i1.douguo.com\/upload\/caiku\/9\/9\/a\/140_99f447a8e60fd718c941aec2837efbaa.jpg",
          "position" : 7,
          "frame" : "-1"
        },
        {
          "image_width" : 800,
          "content" : "小炒卤肉",
          "image" : "https:\/\/i1.douguo.com\/upload\/caiku\/d\/9\/1\/d9eaed409b1398e39cc1fd6c1fd1bea1.jpg",
          "thumb" : "https:\/\/i1.douguo.com\/upload\/caiku\/d\/9\/1\/140_d9eaed409b1398e39cc1fd6c1fd1bea1.jpg",
          "position" : 8,
          "frame" : "-1",
          "image_height" : 1067
        },
        {
          "image_height" : 1707,
          "position" : 9,
          "image" : "https:\/\/i1.douguo.com\/upload\/caiku\/7\/b\/a\/7bee4981be12a0fbdb99122d04ce4a0a.jpg",
          "content" : "凉拌卤牛肉",
          "thumb" : "https:\/\/i1.douguo.com\/upload\/caiku\/7\/b\/a\/140_7bee4981be12a0fbdb99122d04ce4a0a.jpg",
          "image_width" : 1280,
          "frame" : "-1"
        }
      ],
      "recipe_list_tags" : [
        {
          "text_color" : "#141515",
          "text" : "关注的人",
          "background_border_color" : "",
          "background_end_color" : "#F4F5F5",
          "jump_url" : "",
          "right_image" : "",
          "background_start_color" : "#F4F5F5"
        }
      ],
      "vfurl" : "",
      "recent_comments" : [

      ],
      "author" : "小甜厨",
      "rrpt" : "",
      "ipurl" : "",
      "recommendation_tag" : "",
      "ssu" : "",
      "top_mdsp" : [

      ],
      "thumb_height" : 0,
      "cookwares" : [

      ],
      "collect_status" : 0,
      "cook_id" : "2437284",
      "v_u" : "",
      "hqu" : "recipes:\/\/www.douguo.com\/notedetail?id=21162253",
      "recommended" : 0,
      "dish_count" : 0,
      "story_dsp" : [

      ],
      "ecs" : 1,
      "tips" : "卤完的肉可以炒，凉拌。喜欢吃辣的你，可以加点辣椒油蘸着吃",
      "vc" : "72485",
      "advice" : {
        "has" : [
          {
            "url" : "recipes:\/\/www.douguo.com\/simplerecipelist?t=富含蛋白质&id=富含蛋白质",
            "t" : "富含蛋白质"
          },
          {
            "url" : "recipes:\/\/www.douguo.com\/simplerecipelist?t=低糖&id=低糖",
            "t" : "低糖"
          }
        ],
        "at" : "有助于组织的形成和生长～",
        "da" : {
          "url" : "https:\/\/m.douguo.com\/recipe\/nutrient_self\/2437284",
          "iu" : "https:\/\/i1.douguo.com\/upload\/banner\/f\/4\/d\/f48877e53c37759bc12ac494be82ec8d.png",
          "t" : "查看详细分析"
        }
      },
      "rpid" : 0,
      "minor" : [

      ],
      "guide_image" : "",
      "ipoi" : "",
      "image" : "http:\/\/i1.douguo.net\/upload\/caiku\/f\/7\/1\/300_f705146bea597b8653d9f35981c312e1.jpg",
      "rate" : 0,
      "clicks" : "66173",
      "cookstory" : "",
      "rips" : 0,
      "dish_count_text" : "",
      "share_info" : {
        "mini_program" : [

        ],
        "object_id" : "2437284",
        "image" : "https:\/\/cp1.douguo.com\/upload\/caiku\/f\/7\/1\/f705146bea597b8653d9f35981c312e1.jpg",
        "s_u" : "http:\/\/m.douguo.com\/cookbook\/2437284.html",
        "s_d" : "湘味卤菜-会做饭很酷!",
        "infos" : [
          {
            "qr_image" : "",
            "s_d" : "#学做饭用豆果美食# 会做饭真是好酷啊！我在@豆果美食 分享了【湘味卤菜-会做饭很酷!】，快来康康我这道菜做的怎么样～美味停不下来！查看图片了解菜谱（你喜欢的美食都在这里！https:\/\/m.weibo.cn\/p\/100404i33631）",
            "name" : "湘味卤菜-会做饭很酷!",
            "image" : "https:\/\/cp1.douguo.com\/upload\/caiku\/f\/7\/1\/f705146bea597b8653d9f35981c312e1.jpg",
            "object_id" : "2437284",
            "mini_program" : [

            ],
            "s_u" : "",
            "channel" : "1"
          },
          {
            "s_u" : "http:\/\/m.douguo.com\/cookbook\/2437284.html",
            "channel" : "7",
            "qr_image" : "",
            "s_d" : "湘味卤菜-会做饭很酷!",
            "mini_program" : [

            ],
            "image" : "https:\/\/cp1.douguo.com\/upload\/caiku\/f\/7\/1\/f705146bea597b8653d9f35981c312e1.jpg",
            "object_id" : "2437284",
            "name" : "湘味卤菜-会做饭很酷!"
          },
          {
            "channel" : "8",
            "mini_program" : [

            ],
            "object_id" : "2437284",
            "name" : "湘味卤菜-会做饭很酷!",
            "s_d" : "湘味卤菜-会做饭很酷!",
            "s_u" : "http:\/\/m.douguo.com\/cookbook\/2437284.html",
            "image" : "https:\/\/cp1.douguo.com\/upload\/caiku\/f\/7\/1\/f705146bea597b8653d9f35981c312e1.jpg",
            "qr_image" : ""
          }
        ],
        "qr_image" : "",
        "name" : "湘味卤菜-会做饭很酷!"
      },
      "ipia" : [

      ],
      "major" : [
        {
          "note" : "200克",
          "tu" : "https:\/\/m.douguo.com\/ingredients\/五花肉\/detailmaterial",
          "title" : "五花肉"
        },
        {
          "title" : "卤料",
          "note" : "1包"
        },
        {
          "title" : "老抽",
          "note" : "6勺",
          "tu" : "https:\/\/m.douguo.com\/ingredients\/老抽\/detailmaterial"
        },
        {
          "title" : "料酒",
          "tu" : "https:\/\/m.douguo.com\/ingredients\/料酒\/detailmaterial",
          "note" : "3勺"
        },
        {
          "tu" : "https:\/\/m.douguo.com\/ingredients\/鸡翅\/detailmaterial",
          "note" : "8个",
          "title" : "鸡翅"
        },
        {
          "title" : "鸡爪",
          "note" : "300克",
          "tu" : "https:\/\/m.douguo.com\/ingredients\/鸡爪\/detailmaterial"
        },
        {
          "note" : "15个",
          "title" : "鸡蛋\/鹌鹑蛋"
        },
        {
          "note" : "4只",
          "title" : "猪蹄",
          "tu" : "https:\/\/m.douguo.com\/ingredients\/猪蹄\/detailmaterial"
        },
        {
          "note" : "10片",
          "tu" : "https:\/\/m.douguo.com\/ingredients\/姜\/detailmaterial",
          "title" : "姜"
        }
      ],
      "packages_id" : [

      ],
      "related_ads" : [

      ],
      "recipe_tags" : [

      ],
      "cookstorys" : [

      ],
      "sc" : 0,
      "thumb_path" : "https:\/\/i1.douguo.com\/upload\/caiku\/f\/7\/1\/300_f705146bea597b8653d9f35981c312e1.jpg",
      "eu" : "recipes:\/\/www.douguo.com\/postdetail?id=242016",
      "rpst" : "",
      "pw" : 600,
      "views_count_text" : "7.2万",
      "recommend_label" : "7.2万人看过",
      "author_id" : 25200111,
      "title_ad" : [

      ],
      "brand_day_dsp" : [

      ],
      "notes" : [

      ],
      "favo_counts_text" : "385",
      "rate_show" : 0,
      "comments_count_text" : "3",
      "levelid" : 2,
      "tags" : [

      ],
      "cook_time_image" : "https:\/\/i1.douguo.com\/upload\/banner\/1551423815.png",
      "photo_path" : "https:\/\/i1.douguo.com\/upload\/caiku\/f\/7\/1\/600_f705146bea597b8653d9f35981c312e1.jpg",
      "comments" : [
        "{\n    ac = \"#999999\";\n    at = \"\\U5317\\U4eac\\U5e02\";\n    ccc = 1;\n    \"child_comments\" =     (\n                {\n            ac = \"#999999\";\n            at = \"\\U5eca\\U574a\\U5e02\";\n            ccc = 0;\n            city = \"\\U5eca\\U574a\\U5e02\";\n            cmc = 2;\n            content =             (\n                                {\n                    c = \" \\U563b\\U563b\\Ud83d\\Ude0a\\U8c22\\U8c22\";\n                }\n            );\n            ia = 1;\n            id = 7803828;\n            \"ip_address_location\" = \"\";\n            like = 0;\n            \"like_count\" = 0;\n            \"reply_id\" = 7803293;\n            \"reply_user\" =             {\n                \"followers_count_text\" = \"\";\n                id = 25202534;\n                \"is_prime\" = 0;\n                lv = 0;\n                lvl = 5;\n                n = \"\\U66fe\\U5bb6\\U53a8\\U623f\";\n                p = \"http:\/\/tx1.douguo.net\/upload\/photo\/f\/f\/6\/70_u84701331754126221900.jpeg\";\n                \"progress_image\" = \"\";\n                \"recipes_count_text\" = \"\";\n                relationship = \"-1\";\n                title = \"\";\n                v = 0;\n                \"verified_image\" = \"\";\n            };\n            \"sticker_icon\" =             (\n            );\n            time = \"2020-03-21 23:18:42\";\n            u =             {\n                \"followers_count_text\" = \"\";\n                id = 25200111;\n                \"is_prime\" = 0;\n                lv = 0;\n                lvl = 5;\n                n = \"\\U5c0f\\U751c\\U53a8\";\n                p = \"http:\/\/tx1.douguo.net\/upload\/photo\/4\/0\/5\/70_u84663160999654111847.jpg\";\n                \"progress_image\" = \"\";\n                \"recipes_count_text\" = \"\";\n                relationship = \"-1\";\n                title = \"\";\n                v = 0;\n                \"verified_image\" = \"\";\n            };\n        }\n    );\n    city = \"\\U5317\\U4eac\\U5e02\";\n    cmc = 2;\n    content =     (\n                {\n            c = \"\\U5364\\U7684\\U597d\\Ud83d\\Udc4d\";\n        }\n    );\n    ia = 0;\n    id = 7803293;\n    \"ip_address_location\" = \"\";\n    like = 0;\n    \"like_count\" = 1;\n    \"reply_id\" = 0;\n    \"sticker_icon\" =     (\n    );\n    time = \"2020-03-21 20:33:32\";\n    u =     {\n        \"followers_count_text\" = \"\";\n        id = 25202534;\n        \"is_prime\" = 0;\n        lv = 0;\n        lvl = 5;\n        n = \"\\U66fe\\U5bb6\\U53a8\\U623f\";\n        p = \"http:\/\/tx1.douguo.net\/upload\/photo\/f\/f\/6\/70_u84701331754126221900.jpeg\";\n        \"progress_image\" = \"\";\n        \"recipes_count_text\" = \"\";\n        relationship = \"-1\";\n        title = \"\";\n        v = 0;\n        \"verified_image\" = \"\";\n    };\n}",
        "{\n    ac = \"#999999\";\n    at = \"\\U5317\\U4eac\\U5e02\";\n    ccc = 0;\n    \"child_comments\" =     (\n    );\n    city = \"\\U5317\\U4eac\\U5e02\";\n    cmc = 2;\n    content =     (\n                {\n            c = \"\\U597d\\U5477\\U7684\\U72e0\\Ud83d\\Udc4d\\Ud83d\\Udc4d\\Ud83d\\Udc4d\";\n        }\n    );\n    ia = 0;\n    id = 7804386;\n    \"ip_address_location\" = \"\";\n    like = 0;\n    \"like_count\" = 1;\n    \"reply_id\" = 0;\n    \"sticker_icon\" =     (\n    );\n    time = \"2020-03-22 08:23:58\";\n    u =     {\n        \"followers_count_text\" = \"\";\n        id = 25206120;\n        \"is_prime\" = 0;\n        lv = 0;\n        lvl = 5;\n        n = \"\\U5a1f\\U59d1\\U5a18\\U7f8e\\U5c0f\\U53a8\";\n        p = \"http:\/\/tx1.douguo.net\/upload\/photo\/a\/6\/7\/70_a685bfa0e60ceee210377052b7720607.jpg\";\n        \"progress_image\" = \"\";\n        \"recipes_count_text\" = \"\";\n        relationship = \"-1\";\n        title = \"\";\n        v = 0;\n        \"verified_image\" = \"\";\n    };\n}"
      ],
      "ss" : [

      ],
      "rewarded_video_dsp" : [

      ],
      "bs" : [

      ],
      "rpt" : "",
      "sr" : "",
      "mid_mdsp" : [

      ],
      "favo_counts" : 385,
      "vu" : "",
      "release_time" : "",
      "rate_count" : 0,
      "first_level_comment_count" : 2,
      "display_ingredient" : 1,
      "rcs" : [

      ],
      "su" : "",
      "ipci" : "",
      "cook_difficulty_image" : "https:\/\/i1.douguo.com\/upload\/banner\/1551424413.png",
      "btm_dsp" : [

      ],
      "rdsps" : [

      ],
      "rsm" : "该功能暂停使用",
      "act_des" : "",
      "user" : {
        "user_id" : "25200111",
        "qq_weibo_nick" : "",
        "avatar_medium" : "http:\/\/tx1.douguo.net\/upload\/photo\/4\/0\/5\/140_u84663160999654111847.jpg",
        "coursecount" : 0,
        "location" : 0,
        "lv" : 0,
        "verified_url" : "https:\/\/m.douguo.com\/user\/prodesc",
        "email" : "",
        "is_prime" : 0,
        "favor_diaries_count" : 0,
        "verified" : 0,
        "favorites_count" : 0,
        "diaries_count" : 0,
        "birthday" : "",
        "verified_image" : "",
        "lvl" : 5,
        "sign" : "",
        "age" : "",
        "nick" : "小甜厨",
        "user_large_photo" : "http:\/\/tx1.douguo.net\/upload\/photo\/4\/0\/5\/yuan_u84663160999654111847.jpg",
        "following_count" : 0,
        "progress_image" : "",
        "subscription" : 0,
        "pc" : 0,
        "setted_email" : 0,
        "user_cover" : "",
        "qzone_nick" : "",
        "userid" : "25200111",
        "weibo_nick" : "",
        "gender" : 2,
        "followers_count" : 0,
        "point" : 0,
        "dishes_count" : 0,
        "user_photo" : "http:\/\/tx1.douguo.net\/upload\/photo\/4\/0\/5\/70_u84663160999654111847.jpg",
        "mobile" : "",
        "introduction" : "",
        "subscription_article_count" : 0,
        "regist_time" : "",
        "fc" : 0,
        "recipes_count" : 0
      },
      "comments_count" : 3,
      "create_time" : "2020-03-20 08:40:20",
      "author_verified" : 0,
      "dishes" : [

      ],
      "title" : "湘味卤菜",
      "hq" : 1,
      "cook_time" : "1小时以上",
      "author_photo" : "http:\/\/tx1.douguo.net\/upload\/photo\/4\/0\/5\/70_u84663160999654111847.jpg",
      "rrps" : [

      ]
    }
  }
}