{
  "result" : {
    "recipe" : {
      "cook_difficulty" : "切墩(初级)",
      "old_comments" : [

      ],
      "ipit" : 0,
      "author_photo" : "http:\/\/tx1.douguo.net\/upload\/photo\/8\/2\/4\/70_u21037183234407114010.jpeg",
      "ipt" : "",
      "ph" : 818,
      "purl" : "",
      "cookstep" : [
        {
          "content" : "先把鸡蛋和面粉一起放进容器里搅拌均匀",
          "image_height" : 525,
          "image" : "https:\/\/i1.douguo.com\/upload\/caiku\/8\/9\/a\/8905fc19776e7dabc64fad9fea5e2a5a.jpeg",
          "image_width" : 700,
          "thumb" : "https:\/\/i1.douguo.com\/upload\/caiku\/8\/9\/a\/140_8905fc19776e7dabc64fad9fea5e2a5a.jpeg",
          "position" : 1,
          "frame" : "-1"
        },
        {
          "position" : 2,
          "frame" : "-1",
          "image_height" : 530,
          "image" : "https:\/\/i1.douguo.com\/upload\/caiku\/e\/d\/1\/ed2d0f7f65663c5e1849b9878f06a281.jpeg",
          "image_width" : 800,
          "thumb" : "https:\/\/i1.douguo.com\/upload\/caiku\/e\/d\/1\/140_ed2d0f7f65663c5e1849b9878f06a281.jpeg",
          "content" : "搅拌均匀后过筛，如图。"
        },
        {
          "image_width" : 750,
          "frame" : "-1",
          "thumb" : "https:\/\/i1.douguo.com\/upload\/caiku\/1\/c\/6\/140_1c3a3d52e2316cacfd3ede50a9de3da6.jpeg",
          "image" : "https:\/\/i1.douguo.com\/upload\/caiku\/1\/c\/6\/1c3a3d52e2316cacfd3ede50a9de3da6.jpeg",
          "image_height" : 1000,
          "position" : 3,
          "content" : "放进微波炉里，调中火三分钟即可。"
        },
        {
          "thumb" : "https:\/\/i1.douguo.com\/upload\/caiku\/d\/e\/b\/140_de52c65fc30de3f4a506fb51a71e622b.jpeg",
          "image" : "https:\/\/i1.douguo.com\/upload\/caiku\/d\/e\/b\/de52c65fc30de3f4a506fb51a71e622b.jpeg",
          "frame" : "-1",
          "image_width" : 200,
          "image_height" : 200,
          "position" : 4,
          "content" : "盐、酱油、蚝油勾芡放进肉末里搅拌均匀，热锅放油炒熟。"
        },
        {
          "image_width" : 600,
          "content" : "先把胡萝卜和玉米煮熟，再炒熟香菇盛到碗里放着，最后单独煮熟番茄倒入米饭翻炒均匀后，再把煮好的胡萝卜玉米香菇猪肉末一同倒入米饭里搅拌均匀即可。",
          "image_height" : 600,
          "image" : "https:\/\/i1.douguo.com\/upload\/caiku\/3\/7\/9\/371aefab67a452aa3ff10f9bb27690c9.jpeg",
          "frame" : "-1",
          "thumb" : "https:\/\/i1.douguo.com\/upload\/caiku\/3\/7\/9\/140_371aefab67a452aa3ff10f9bb27690c9.jpeg",
          "position" : 5
        },
        {
          "content" : "用锅煮开水后，放小许盐和油，再把西兰花放进锅里煮熟后捞出沥干水分。",
          "image" : "https:\/\/i1.douguo.com\/upload\/caiku\/b\/2\/3\/b2d7121dd640ed2467f8963aa831df23.jpeg",
          "frame" : "-1",
          "thumb" : "https:\/\/i1.douguo.com\/upload\/caiku\/b\/2\/3\/140_b2d7121dd640ed2467f8963aa831df23.jpeg",
          "position" : 6,
          "image_width" : 800,
          "image_height" : 809
        },
        {
          "image" : "https:\/\/i1.douguo.com\/upload\/caiku\/1\/c\/7\/1c44565c05852c16a927c9ceb18ab357.jpeg",
          "frame" : "-1",
          "position" : 7,
          "thumb" : "https:\/\/i1.douguo.com\/upload\/caiku\/1\/c\/7\/140_1c44565c05852c16a927c9ceb18ab357.jpeg",
          "content" : "上盘后的作品",
          "image_width" : 800,
          "image_height" : 872
        }
      ],
      "recent_comments" : [

      ],
      "vfurl" : "",
      "recipe_list_tags" : [
        {
          "background_end_color" : "#F4F5F5",
          "jump_url" : "",
          "right_image" : "",
          "text" : "关注的人",
          "background_start_color" : "#F4F5F5",
          "text_color" : "#141515",
          "background_border_color" : ""
        }
      ],
      "rrpt" : "",
      "ipurl" : "",
      "author" : "Cindy蚊",
      "top_mdsp" : [

      ],
      "ssu" : "",
      "recommendation_tag" : "",
      "thumb_height" : 0,
      "cookwares" : [

      ],
      "collect_status" : 0,
      "v_u" : "",
      "recommended" : 0,
      "hqu" : "recipes:\/\/www.douguo.com\/notedetail?id=21162253",
      "dish_count" : 0,
      "cook_id" : "1660448",
      "ecs" : 0,
      "story_dsp" : [

      ],
      "tips" : "",
      "vc" : "12112",
      "advice" : {
        "has" : [
          {
            "url" : "recipes:\/\/www.douguo.com\/simplerecipelist?t=低饱和脂肪&id=低饱和脂肪",
            "t" : "低饱和脂肪"
          }
        ],
        "da" : {
          "url" : "https:\/\/m.douguo.com\/recipe\/nutrient_self\/1660448",
          "iu" : "https:\/\/i1.douguo.com\/upload\/banner\/f\/4\/d\/f48877e53c37759bc12ac494be82ec8d.png",
          "t" : "查看详细分析"
        },
        "at" : "对血管有保护作用～"
      },
      "rpid" : 0,
      "minor" : [

      ],
      "guide_image" : "",
      "ipoi" : "",
      "image" : "http:\/\/i1.douguo.net\/upload\/caiku\/e\/e\/4\/300_ee82cb0407b8dff3135729af18a52e54.jpeg",
      "rate" : 0,
      "clicks" : "8402",
      "cookstory" : "",
      "rips" : 0,
      "share_info" : {
        "name" : "好朋友-会做饭很酷!",
        "image" : "https:\/\/cp1.douguo.com\/upload\/caiku\/e\/e\/4\/ee82cb0407b8dff3135729af18a52e54.jpeg",
        "s_d" : "好朋友-会做饭很酷!",
        "qr_image" : "",
        "mini_program" : [

        ],
        "infos" : [
          {
            "mini_program" : [

            ],
            "name" : "好朋友-会做饭很酷!",
            "s_d" : "#学做饭用豆果美食# 会做饭真是太酷了！我在@豆果美食 分享了【好朋友-会做饭很酷!】OMG！这是什么神仙美味啊~真的强烈推荐你们试一试～查看图片了解菜谱（每天限量免费课程，想跟大师学厨艺就来这https:\/\/m.weibo.cn\/p\/100404i33631）",
            "channel" : "1",
            "object_id" : "1660448",
            "image" : "https:\/\/cp1.douguo.com\/upload\/caiku\/e\/e\/4\/ee82cb0407b8dff3135729af18a52e54.jpeg",
            "s_u" : "",
            "qr_image" : ""
          },
          {
            "object_id" : "1660448",
            "s_u" : "http:\/\/m.douguo.com\/cookbook\/1660448.html",
            "channel" : "7",
            "mini_program" : [

            ],
            "image" : "https:\/\/cp1.douguo.com\/upload\/caiku\/e\/e\/4\/ee82cb0407b8dff3135729af18a52e54.jpeg",
            "qr_image" : "",
            "s_d" : "好朋友-会做饭很酷!",
            "name" : "好朋友-会做饭很酷!"
          },
          {
            "image" : "https:\/\/cp1.douguo.com\/upload\/caiku\/e\/e\/4\/ee82cb0407b8dff3135729af18a52e54.jpeg",
            "s_d" : "好朋友-会做饭很酷!",
            "s_u" : "http:\/\/m.douguo.com\/cookbook\/1660448.html",
            "qr_image" : "",
            "name" : "好朋友-会做饭很酷!",
            "object_id" : "1660448",
            "channel" : "8",
            "mini_program" : [

            ]
          }
        ],
        "object_id" : "1660448",
        "s_u" : "http:\/\/m.douguo.com\/cookbook\/1660448.html"
      },
      "ipia" : [

      ],
      "related_ads" : [

      ],
      "major" : [
        {
          "tu" : "https:\/\/m.douguo.com\/ingredients\/鸡蛋\/detailmaterial",
          "note" : "2个",
          "title" : "鸡蛋"
        },
        {
          "note" : "50g",
          "title" : "面粉",
          "tu" : "https:\/\/m.douguo.com\/ingredients\/面粉\/detailmaterial"
        },
        {
          "tu" : "https:\/\/m.douguo.com\/ingredients\/水\/detailmaterial",
          "note" : "100g",
          "title" : "水"
        },
        {
          "tu" : "https:\/\/m.douguo.com\/ingredients\/米饭\/detailmaterial",
          "note" : "一碗",
          "title" : "米饭"
        },
        {
          "note" : "100g",
          "title" : "猪肉末"
        },
        {
          "tu" : "https:\/\/m.douguo.com\/ingredients\/胡萝卜\/detailmaterial",
          "title" : "胡萝卜",
          "note" : "半根"
        },
        {
          "note" : "2只",
          "title" : "西红柿",
          "tu" : "https:\/\/m.douguo.com\/ingredients\/西红柿\/detailmaterial"
        },
        {
          "tu" : "https:\/\/m.douguo.com\/ingredients\/香菇\/detailmaterial",
          "note" : "3朵",
          "title" : "香菇"
        },
        {
          "note" : "半根",
          "title" : "玉米",
          "tu" : "https:\/\/m.douguo.com\/ingredients\/玉米\/detailmaterial"
        },
        {
          "tu" : "https:\/\/m.douguo.com\/ingredients\/西兰花\/detailmaterial",
          "note" : "一棵（小）",
          "title" : "西兰花"
        },
        {
          "title" : "小番茄",
          "note" : "3只"
        }
      ],
      "packages_id" : [

      ],
      "sc" : 0,
      "recipe_tags" : [

      ],
      "cookstorys" : [

      ],
      "dish_count_text" : "",
      "thumb_path" : "https:\/\/i1.douguo.com\/upload\/caiku\/e\/e\/4\/300_ee82cb0407b8dff3135729af18a52e54.jpeg",
      "rpst" : "",
      "eu" : "recipes:\/\/www.douguo.com\/postdetail?id=242016",
      "pw" : 750,
      "views_count_text" : "1.2万",
      "recommend_label" : "1.2万人看过",
      "bs" : [

      ],
      "favo_counts_text" : "73",
      "title_ad" : [

      ],
      "brand_day_dsp" : [

      ],
      "rewarded_video_dsp" : [

      ],
      "comments_count_text" : "9",
      "cook_time_image" : "https:\/\/i1.douguo.com\/upload\/banner\/1551424341.png",
      "rate_show" : 0,
      "levelid" : 3,
      "comments" : [
        "{\n    ac = \"#999999\";\n    at = \"\";\n    ccc = 1;\n    \"child_comments\" =     (\n                {\n            ac = \"#999999\";\n            at = \"\\U5e7f\\U5dde\\U5e02\";\n            ccc = 0;\n            city = \"\\U5e7f\\U5dde\\U5e02\";\n            cmc = 2;\n            content =             (\n                                {\n                    c = \" \\U53ef\\U80fd\\U662f\\U98ce\\U5149\\U7684\\U95ee\\U9898\\U5427\\U3001\";\n                }\n            );\n            ia = 1;\n            id = 6512538;\n            \"ip_address_location\" = \"\";\n            like = 0;\n            \"like_count\" = 0;\n            \"reply_id\" = 6508832;\n            \"reply_user\" =             {\n                \"followers_count_text\" = \"\";\n                id = 18443966;\n                \"is_prime\" = 0;\n                lv = 0;\n                lvl = 6;\n                n = roycechang;\n                p = \"http:\/\/tx1.douguo.net\/upload\/photo\/8\/3\/1\/70_u49161532458209163730.jpg\";\n                \"progress_image\" = \"\";\n                \"recipes_count_text\" = \"\";\n                relationship = \"-1\";\n                title = \"\";\n                v = 0;\n                \"verified_image\" = \"\";\n            };\n            \"sticker_icon\" =             (\n            );\n            time = \"2019-04-15 18:22:40\";\n            u =             {\n                \"followers_count_text\" = \"\";\n                id = 7791251;\n                \"is_prime\" = 0;\n                lv = 0;\n                lvl = 5;\n                n = \"Cindy\\U868a\";\n                p = \"http:\/\/tx1.douguo.net\/upload\/photo\/8\/2\/4\/70_u21037183234407114010.jpeg\";\n                \"progress_image\" = \"\";\n                \"recipes_count_text\" = \"\";\n                relationship = \"-1\";\n                title = \"\";\n                v = 0;\n                \"verified_image\" = \"\";\n            };\n        }\n    );\n    city = \"\";\n    cmc = 2;\n    content =     (\n                {\n            c = \"\\U8bf7\\U95ee\\U697c\\U4e3b\\Uff0c\\U4e3a\\U4ec0\\U4e48\\U4f60\\U505a\\U7684\\U989c\\U8272\\U8fd9\\U4e48\\U597d\\U770b\\Uff1f\";\n        }\n    );\n    ia = 0;\n    id = 6508832;\n    \"ip_address_location\" = \"\";\n    like = 0;\n    \"like_count\" = 0;\n    \"reply_id\" = 0;\n    \"sticker_icon\" =     (\n    );\n    time = \"2019-04-14 10:43:34\";\n    u =     {\n        \"followers_count_text\" = \"\";\n        id = 18443966;\n        \"is_prime\" = 0;\n        lv = 0;\n        lvl = 6;\n        n = roycechang;\n        p = \"http:\/\/tx1.douguo.net\/upload\/photo\/8\/3\/1\/70_u49161532458209163730.jpg\";\n        \"progress_image\" = \"\";\n        \"recipes_count_text\" = \"\";\n        relationship = \"-1\";\n        title = \"\";\n        v = 0;\n        \"verified_image\" = \"\";\n    };\n}",
        "{\n    ac = \"#999999\";\n    at = \"\";\n    ccc = 0;\n    \"child_comments\" =     (\n    );\n    city = \"\";\n    cmc = 2;\n    content =     (\n                {\n            c = \"\\U770b\\U997f\\U4e86\\Uff0c\\U600e\\U4e48\\U529e\";\n        }\n    );\n    ia = 0;\n    id = 6508831;\n    \"ip_address_location\" = \"\";\n    like = 0;\n    \"like_count\" = 0;\n    \"reply_id\" = 0;\n    \"sticker_icon\" =     (\n    );\n    time = \"2019-04-14 10:43:34\";\n    u =     {\n        \"followers_count_text\" = \"\";\n        id = 18448865;\n        \"is_prime\" = 0;\n        lv = 0;\n        lvl = 4;\n        n = \"\\U6709\\U5929\\U8d4b\\U7684\\U6728\\U74dc\\U5f88\\U786e\\U786e\";\n        p = \"http:\/\/tx1.douguo.net\/upload\/photo\/1\/1\/1\/70_004976861ec13b4af62b1d8db8c5c9f7.png\";\n        \"progress_image\" = \"\";\n        \"recipes_count_text\" = \"\";\n        relationship = \"-1\";\n        title = \"\";\n        v = 0;\n        \"verified_image\" = \"\";\n    };\n}",
        "{\n    ac = \"#999999\";\n    at = \"\";\n    ccc = 0;\n    \"child_comments\" =     (\n    );\n    city = \"\";\n    cmc = 2;\n    content =     (\n                {\n            c = \"\\U5fc3\\U60c5\\U4e0d\\U597d\\U65f6\\U6211\\U5c31\\U4f1a\\U6765\\U770b\\U5403\\U7684\\Uff0c\\U770b\\U5230\\U8fd9\\U4e2a\\U83dc\\U4ee5\\U540e\\U771f\\U7684\\U4e16\\U754c\\U90fd\\U6674\\U6717\\U5566\";\n        }\n    );\n    ia = 0;\n    id = 5875688;\n    \"ip_address_location\" = \"\";\n    like = 0;\n    \"like_count\" = 0;\n    \"reply_id\" = 0;\n    \"sticker_icon\" =     (\n    );\n    time = \"2018-07-23 20:15:38\";\n    u =     {\n        \"followers_count_text\" = \"\";\n        id = 18538928;\n        \"is_prime\" = 0;\n        lv = 0;\n        lvl = 4;\n        n = \"\\U5feb\\U4e50\\U5fd7\\U7ea2\";\n        p = \"http:\/\/tx1.douguo.net\/upload\/photo\/b\/d\/7\/70_u19643536170670408214607.jpg\";\n        \"progress_image\" = \"\";\n        \"recipes_count_text\" = \"\";\n        relationship = \"-1\";\n        title = \"\";\n        v = 0;\n        \"verified_image\" = \"\";\n    };\n}"
      ],
      "photo_path" : "https:\/\/i1.douguo.com\/upload\/caiku\/e\/e\/4\/600_ee82cb0407b8dff3135729af18a52e54.jpeg",
      "notes" : [

      ],
      "ss" : [

      ],
      "tags" : [

      ],
      "release_time" : "",
      "sr" : "",
      "mid_mdsp" : [

      ],
      "rpt" : "",
      "vu" : "",
      "favo_counts" : 73,
      "rcs" : [

      ],
      "display_ingredient" : 1,
      "rate_count" : 0,
      "first_level_comment_count" : 7,
      "author_verified" : 0,
      "su" : "",
      "ipci" : "",
      "cook_difficulty_image" : "https:\/\/i1.douguo.com\/upload\/banner\/1551424390.png",
      "btm_dsp" : [

      ],
      "rsm" : "该功能暂停使用",
      "rdsps" : [

      ],
      "act_des" : "",
      "user" : {
        "following_count" : 0,
        "mobile" : "",
        "avatar_medium" : "http:\/\/tx1.douguo.net\/upload\/photo\/8\/2\/4\/140_u21037183234407114010.jpeg",
        "lvl" : 5,
        "is_prime" : 0,
        "user_cover" : "",
        "verified_image" : "",
        "nick" : "Cindy蚊",
        "lv" : 0,
        "favor_diaries_count" : 0,
        "user_photo" : "http:\/\/tx1.douguo.net\/upload\/photo\/8\/2\/4\/70_u21037183234407114010.jpeg",
        "qzone_nick" : "",
        "introduction" : "",
        "birthday" : "",
        "favorites_count" : 0,
        "sign" : "",
        "dishes_count" : 0,
        "coursecount" : 0,
        "user_id" : "7791251",
        "verified_url" : "https:\/\/m.douguo.com\/user\/prodesc",
        "point" : 0,
        "user_large_photo" : "http:\/\/tx1.douguo.net\/upload\/photo\/8\/2\/4\/yuan_u21037183234407114010.jpeg",
        "fc" : 0,
        "weibo_nick" : "",
        "progress_image" : "",
        "age" : "",
        "verified" : 0,
        "qq_weibo_nick" : "",
        "pc" : 0,
        "location" : 0,
        "gender" : 2,
        "email" : "",
        "recipes_count" : 0,
        "regist_time" : "",
        "userid" : "7791251",
        "setted_email" : 0,
        "followers_count" : 0,
        "diaries_count" : 0,
        "subscription_article_count" : 0,
        "subscription" : 0
      },
      "create_time" : "2018-03-24 16:42:26",
      "comments_count" : 9,
      "author_id" : 7791251,
      "dishes" : [

      ],
      "title" : "好朋友",
      "cook_time" : "10~30分钟",
      "hq" : 0,
      "original_photo_path" : "http:\/\/i1.douguo.net\/upload\/caiku\/e\/e\/4\/yuan_ee82cb0407b8dff3135729af18a52e54.jpeg",
      "rrps" : [

      ]
    }
  },
  "state" : "success",
  "status" : 0
}