{
  "state" : "success",
  "result" : {
    "recipe" : {
      "ipurl" : "",
      "tags" : [

      ],
      "ecs" : 0,
      "mid_mdsp" : [

      ],
      "ipia" : [

      ],
      "rate_show" : 0,
      "notes" : [

      ],
      "rsm" : "该功能暂停使用",
      "rpid" : 0,
      "eu" : "recipes:\/\/www.douguo.com\/postdetail?id=242016",
      "sr" : "",
      "dish_count_text" : "",
      "old_comments" : [

      ],
      "cook_difficulty_image" : "https:\/\/i1.douguo.com\/upload\/banner\/1551424390.png",
      "views_count_text" : "55.4万",
      "recommended" : 0,
      "ph" : 853,
      "cookstep" : [
        {
          "thumb" : "https:\/\/i1.douguo.com\/upload\/caiku\/0\/8\/5\/140_08ceceb9ed0a8f34f792d79261e03e45.jpeg",
          "image_height" : 1706,
          "position" : 1,
          "image_width" : 1280,
          "image" : "https:\/\/i1.douguo.com\/upload\/caiku\/0\/8\/5\/08ceceb9ed0a8f34f792d79261e03e45.jpeg",
          "frame" : "-1",
          "content" : "将所有材料全部放在一起"
        },
        {
          "image_width" : 1280,
          "position" : 2,
          "image" : "https:\/\/i1.douguo.com\/upload\/caiku\/c\/d\/7\/cdf4c46a2daaee75cfde07ab9e29fb87.jpeg",
          "content" : "用蛋抽混合搅拌均匀",
          "thumb" : "https:\/\/i1.douguo.com\/upload\/caiku\/c\/d\/7\/140_cdf4c46a2daaee75cfde07ab9e29fb87.jpeg",
          "image_height" : 1706,
          "frame" : "-1"
        },
        {
          "content" : "装入裱花袋中",
          "image_height" : 1706,
          "frame" : "-1",
          "image" : "https:\/\/i1.douguo.com\/upload\/caiku\/5\/6\/4\/569e6aefabcd0cafdfdfd73c2e631c94.jpeg",
          "image_width" : 1280,
          "position" : 3,
          "thumb" : "https:\/\/i1.douguo.com\/upload\/caiku\/5\/6\/4\/140_569e6aefabcd0cafdfdfd73c2e631c94.jpeg"
        },
        {
          "position" : 4,
          "frame" : "-1",
          "image_height" : 1706,
          "content" : "将面糊挤在华夫饼的烤盘中，我用的是插电的蛋卷机，可以换烤盘的那种。",
          "image" : "https:\/\/i1.douguo.com\/upload\/caiku\/5\/6\/1\/56b72630f61eef5aeda7bf06f1455571.jpeg",
          "thumb" : "https:\/\/i1.douguo.com\/upload\/caiku\/5\/6\/1\/140_56b72630f61eef5aeda7bf06f1455571.jpeg",
          "image_width" : 1280
        },
        {
          "image_height" : 1706,
          "position" : 5,
          "thumb" : "https:\/\/i1.douguo.com\/upload\/caiku\/e\/7\/5\/140_e79d98bd6f84d1425926b9449bd6a295.jpeg",
          "image" : "https:\/\/i1.douguo.com\/upload\/caiku\/e\/7\/5\/e79d98bd6f84d1425926b9449bd6a295.jpeg",
          "content" : "面糊膨胀中，烤出香味后在烤1-2分钟即可。",
          "frame" : "-1",
          "image_width" : 1280
        },
        {
          "content" : "成品",
          "image_height" : 853,
          "image_width" : 1280,
          "thumb" : "https:\/\/i1.douguo.com\/upload\/caiku\/5\/9\/b\/140_59ee57ee909cb916f257857f09aef69b.jpeg",
          "frame" : "-1",
          "image" : "https:\/\/i1.douguo.com\/upload\/caiku\/5\/9\/b\/59ee57ee909cb916f257857f09aef69b.jpeg",
          "position" : 6
        },
        {
          "position" : 7,
          "thumb" : "https:\/\/i1.douguo.com\/upload\/caiku\/d\/9\/9\/140_d9a7747d1e9999470d8c214ba105c349.jpeg",
          "image_height" : 853,
          "content" : "成品",
          "image_width" : 1280,
          "image" : "https:\/\/i1.douguo.com\/upload\/caiku\/d\/9\/9\/d9a7747d1e9999470d8c214ba105c349.jpeg",
          "frame" : "-1"
        }
      ],
      "v_u" : "",
      "image" : "http:\/\/i1.douguo.net\/upload\/caiku\/a\/5\/1\/300_a5ccad9138b7c45b40231a834574d2b1.jpeg",
      "rpt" : "",
      "photo_path" : "https:\/\/i1.douguo.com\/upload\/caiku\/a\/5\/1\/600_a5ccad9138b7c45b40231a834574d2b1.jpeg",
      "rrps" : [

      ],
      "btm_dsp" : [

      ],
      "title" : "黑芝麻华夫饼：",
      "guide_image" : "",
      "rcs" : [

      ],
      "related_ads" : [

      ],
      "user" : {
        "following_count" : 0,
        "birthday" : "",
        "weibo_nick" : "",
        "setted_email" : 0,
        "fc" : 0,
        "mobile" : "",
        "qzone_nick" : "",
        "point" : 0,
        "verified_image" : "https:\/\/i1.douguo.com\/upload\/note\/d\/a\/a\/da84247847aebe48d9dd0fcdac88862a.png",
        "user_large_photo" : "http:\/\/tx1.douguo.net\/upload\/photo\/1\/6\/9\/yuan_u04984907910066075715.jpeg",
        "lv" : 0,
        "dishes_count" : 0,
        "location" : 0,
        "introduction" : "",
        "is_prime" : 0,
        "email" : "",
        "diaries_count" : 0,
        "user_id" : "4797779",
        "favor_diaries_count" : 0,
        "verified_url" : "https:\/\/m.douguo.com\/user\/prodesc",
        "coursecount" : 0,
        "verified" : 1,
        "subscription" : 0,
        "followers_count" : 0,
        "userid" : "4797779",
        "subscription_article_count" : 0,
        "sign" : "",
        "progress_image" : "",
        "user_photo" : "http:\/\/tx1.douguo.net\/upload\/photo\/1\/6\/9\/70_u04984907910066075715.jpeg",
        "nick" : "yn高小疯",
        "qq_weibo_nick" : "",
        "user_cover" : "",
        "gender" : 2,
        "avatar_medium" : "http:\/\/tx1.douguo.net\/upload\/photo\/1\/6\/9\/140_u04984907910066075715.jpeg",
        "lvl" : 7,
        "age" : "",
        "pc" : 0,
        "recipes_count" : 0,
        "regist_time" : "",
        "favorites_count" : 0
      },
      "brand_day_dsp" : [

      ],
      "ipt" : "",
      "thumb_path" : "https:\/\/i1.douguo.com\/upload\/caiku\/a\/5\/1\/300_a5ccad9138b7c45b40231a834574d2b1.jpeg",
      "cookstorys" : [
        {
          "u" : "",
          "c" : "华夫饼的版本很多，甚至还有夹馅的，酵母版、泡打粉版，今天我来一个快手泡打粉版的，有很多人担心泡打粉属添加剂，宝宝吃了会对身体发育不好，选对无铝添加，只要正确的运用和添加是没问题的。\n\n\n配方可做图片上的4小块。",
          "id" : 0,
          "color" : "",
          "type" : 0,
          "icon" : ""
        }
      ],
      "share_info" : {
        "s_u" : "http:\/\/m.douguo.com\/cookbook\/1724724.html",
        "s_d" : "黑芝麻华夫饼：-会做饭很酷!",
        "qr_image" : "",
        "mini_program" : [

        ],
        "infos" : [
          {
            "object_id" : "1724724",
            "qr_image" : "",
            "image" : "https:\/\/cp1.douguo.com\/upload\/caiku\/a\/5\/1\/a5ccad9138b7c45b40231a834574d2b1.jpeg",
            "s_u" : "",
            "channel" : "1",
            "mini_program" : [

            ],
            "name" : "黑芝麻华夫饼：-会做饭很酷!",
            "s_d" : "#学做饭用豆果美食#  我在@豆果美食 分享了【黑芝麻华夫饼：-会做饭很酷!】，制作美食的过程承载了我生活中的热情，和我一起感受这份小确幸吧！查看图片了解菜谱（你喜欢的美食都在这里！https:\/\/m.weibo.cn\/p\/100404i33631）#会做饭很酷# "
          },
          {
            "object_id" : "1724724",
            "s_d" : "黑芝麻华夫饼：-会做饭很酷!",
            "mini_program" : [

            ],
            "qr_image" : "",
            "name" : "黑芝麻华夫饼：-会做饭很酷!",
            "s_u" : "http:\/\/m.douguo.com\/cookbook\/1724724.html",
            "channel" : "7",
            "image" : "https:\/\/cp1.douguo.com\/upload\/caiku\/a\/5\/1\/a5ccad9138b7c45b40231a834574d2b1.jpeg"
          },
          {
            "qr_image" : "",
            "s_u" : "http:\/\/m.douguo.com\/cookbook\/1724724.html",
            "name" : "黑芝麻华夫饼：-会做饭很酷!",
            "image" : "https:\/\/cp1.douguo.com\/upload\/caiku\/a\/5\/1\/a5ccad9138b7c45b40231a834574d2b1.jpeg",
            "object_id" : "1724724",
            "s_d" : "黑芝麻华夫饼：-会做饭很酷!",
            "mini_program" : [

            ],
            "channel" : "8"
          }
        ],
        "name" : "黑芝麻华夫饼：-会做饭很酷!",
        "object_id" : "1724724",
        "image" : "https:\/\/cp1.douguo.com\/upload\/caiku\/a\/5\/1\/a5ccad9138b7c45b40231a834574d2b1.jpeg"
      },
      "vc" : "554435",
      "favo_counts_text" : "9942",
      "packages_id" : [

      ],
      "thumb_height" : 0,
      "major" : [
        {
          "tu" : "https:\/\/m.douguo.com\/ingredients\/黄油\/detailmaterial",
          "note" : "30克",
          "title" : "黄油"
        },
        {
          "tu" : "https:\/\/m.douguo.com\/ingredients\/低筋面粉\/detailmaterial",
          "note" : "60克",
          "title" : "低筋面粉"
        },
        {
          "note" : "一个",
          "title" : "鸡蛋",
          "tu" : "https:\/\/m.douguo.com\/ingredients\/鸡蛋\/detailmaterial"
        },
        {
          "tu" : "https:\/\/m.douguo.com\/ingredients\/泡打粉\/detailmaterial",
          "note" : "1克",
          "title" : "泡打粉"
        },
        {
          "note" : "25克",
          "tu" : "https:\/\/m.douguo.com\/ingredients\/牛奶\/detailmaterial",
          "title" : "牛奶"
        },
        {
          "title" : "黑芝麻酱",
          "note" : "8克"
        }
      ],
      "ipit" : 0,
      "author_photo" : "http:\/\/tx1.douguo.net\/upload\/photo\/1\/6\/9\/70_u04984907910066075715.jpeg",
      "original_photo_path" : "http:\/\/i1.douguo.net\/upload\/caiku\/a\/5\/1\/yuan_a5ccad9138b7c45b40231a834574d2b1.jpeg",
      "create_time" : "2018-12-15 09:29:01",
      "comments_count" : 8,
      "hq" : 1,
      "recent_comments" : [

      ],
      "recommend_label" : "9942人刚刚收藏过",
      "rdsps" : [

      ],
      "cookwares" : [

      ],
      "ipci" : "",
      "ssu" : "",
      "act_des" : "",
      "dishes" : [

      ],
      "rrpt" : "",
      "tips" : "",
      "vu" : "",
      "advice" : {
        "da" : {
          "url" : "https:\/\/m.douguo.com\/recipe\/nutrient_self\/1724724",
          "iu" : "https:\/\/i1.douguo.com\/upload\/banner\/f\/4\/d\/f48877e53c37759bc12ac494be82ec8d.png",
          "t" : "查看详细分析"
        },
        "has" : [

        ]
      },
      "favo_counts" : 9942,
      "su" : "",
      "bs" : [

      ],
      "vfurl" : "",
      "display_ingredient" : 1,
      "recommendation_tag" : "",
      "recipe_tags" : [

      ],
      "first_level_comment_count" : 6,
      "rips" : 0,
      "story_dsp" : [

      ],
      "comments" : [
        "{\n    ac = \"#999999\";\n    at = \"\";\n    ccc = 2;\n    \"child_comments\" =     (\n                {\n            ac = \"#999999\";\n            at = \"\\U4e1c\\U8425\\U5e02\";\n            ccc = 0;\n            city = \"\\U4e1c\\U8425\\U5e02\";\n            cmc = 2;\n            content =             (\n                                {\n                    c = \" \\U4e0d\\U884c\\U54e6\";\n                }\n            );\n            ia = 1;\n            id = 6287919;\n            \"ip_address_location\" = \"\";\n            like = 0;\n            \"like_count\" = 0;\n            \"reply_id\" = 6287794;\n            \"reply_user\" =             {\n                \"followers_count_text\" = \"\";\n                id = 18515761;\n                \"is_prime\" = 0;\n                lv = 0;\n                lvl = 6;\n                n = \"\\U847d\\U6dac\\U844d\";\n                p = \"http:\/\/tx1.douguo.net\/upload\/photo\/f\/2\/9\/70_u29622870217255220657.jpg\";\n                \"progress_image\" = \"\";\n                \"recipes_count_text\" = \"\";\n                relationship = \"-1\";\n                title = \"\";\n                v = 0;\n                \"verified_image\" = \"\";\n            };\n            \"sticker_icon\" =             (\n            );\n            time = \"2018-12-19 11:50:28\";\n            u =             {\n                \"followers_count_text\" = \"\";\n                id = 4797779;\n                \"is_prime\" = 0;\n                lv = 0;\n                lvl = 7;\n                n = \"yn\\U9ad8\\U5c0f\\U75af\";\n                p = \"http:\/\/tx1.douguo.net\/upload\/photo\/1\/6\/9\/70_u04984907910066075715.jpeg\";\n                \"progress_image\" = \"\";\n                \"recipes_count_text\" = \"\";\n                relationship = \"-1\";\n                title = \"\";\n                v = 1;\n                \"verified_image\" = \"\";\n            };\n        },\n                {\n            ac = \"#999999\";\n            at = \"\\U9ed4\\U897f\\U5357\\U5e03\\U4f9d\\U65cf\\U82d7\\U65cf\\U81ea\\U6cbb\\U5dde\";\n            ccc = 0;\n            city = \"\\U9ed4\\U897f\\U5357\\U5e03\\U4f9d\\U65cf\\U82d7\\U65cf\\U81ea\\U6cbb\\U5dde\";\n            cmc = 2;\n            content =             (\n                                {\n                    c = \" \\U53ef\\U4ee5\\U7528\\U7389\\U7c73\\U6cb9\\U5417\\Uff1f\";\n                }\n            );\n            ia = 0;\n            id = 7997196;\n            \"ip_address_location\" = \"\";\n            like = 0;\n            \"like_count\" = 0;\n            \"reply_id\" = 6287919;\n            \"reply_user\" =             {\n                \"followers_count_text\" = \"\";\n                id = 4797779;\n                \"is_prime\" = 0;\n                lv = 0;\n                lvl = 7;\n                n = \"yn\\U9ad8\\U5c0f\\U75af\";\n                p = \"http:\/\/tx1.douguo.net\/upload\/photo\/1\/6\/9\/70_u04984907910066075715.jpeg\";\n                \"progress_image\" = \"\";\n                \"recipes_count_text\" = \"\";\n                relationship = \"-1\";\n                title = \"\";\n                v = 1;\n                \"verified_image\" = \"\";\n            };\n            \"sticker_icon\" =             (\n            );\n            time = \"2020-05-20 16:56:38\";\n            u =             {\n                \"followers_count_text\" = \"\";\n                id = 24996670;\n                \"is_prime\" = 0;\n                lv = 0;\n                lvl = 1;\n                n = \"\\U6d77\\U7ef5\\U86cb\\U7cd5\";\n                p = \"http:\/\/tx1.douguo.net\/upload\/photo\/1\/1\/1\/70_07220b4b85fcb8ef15a2785fc98258f3.png\";\n                \"progress_image\" = \"\";\n                \"recipes_count_text\" = \"\";\n                relationship = \"-1\";\n                title = \"\";\n                v = 0;\n                \"verified_image\" = \"\";\n            };\n        }\n    );\n    city = \"\";\n    cmc = 2;\n    content =     (\n                {\n            c = \"\\U6211\\U53ea\\U6709\\U9165\\U6cb9\\U884c\\U4e0d\\U884c\";\n        }\n    );\n    ia = 0;\n    id = 6287794;\n    \"ip_address_location\" = \"\";\n    like = 0;\n    \"like_count\" = 0;\n    \"reply_id\" = 0;\n    \"sticker_icon\" =     (\n    );\n    time = \"2018-12-19 11:08:25\";\n    u =     {\n        \"followers_count_text\" = \"\";\n        id = 18515761;\n        \"is_prime\" = 0;\n        lv = 0;\n        lvl = 6;\n        n = \"\\U847d\\U6dac\\U844d\";\n        p = \"http:\/\/tx1.douguo.net\/upload\/photo\/f\/2\/9\/70_u29622870217255220657.jpg\";\n        \"progress_image\" = \"\";\n        \"recipes_count_text\" = \"\";\n        relationship = \"-1\";\n        title = \"\";\n        v = 0;\n        \"verified_image\" = \"\";\n    };\n}",
        "{\n    ac = \"#999999\";\n    at = \"\\U82cf\\U5dde\\U5e02\";\n    ccc = 0;\n    \"child_comments\" =     (\n    );\n    city = \"\\U82cf\\U5dde\\U5e02\";\n    cmc = 2;\n    content =     (\n                {\n            c = \"\\U7528\\U7684\\U4ec0\\U4e48\\U724c\\U5b50\\U9ed1\\U829d\\U9ebb\\U9171\\Uff1f\\U2764\\Ufe0f\";\n        }\n    );\n    ia = 0;\n    id = 7875148;\n    \"ip_address_location\" = \"\";\n    like = 0;\n    \"like_count\" = 0;\n    \"reply_id\" = 0;\n    \"sticker_icon\" =     (\n    );\n    time = \"2020-04-14 16:34:11\";\n    u =     {\n        \"followers_count_text\" = \"\";\n        id = 7754718;\n        \"is_prime\" = 0;\n        lv = 0;\n        lvl = 1;\n        n = \"\\U77b3\\U30025\";\n        p = \"http:\/\/tx1.douguo.net\/upload\/photo\/e\/7\/8\/70_u20732678662143123428.jpg\";\n        \"progress_image\" = \"\";\n        \"recipes_count_text\" = \"\";\n        relationship = \"-1\";\n        title = \"\";\n        v = 0;\n        \"verified_image\" = \"\";\n    };\n}",
        "{\n    ac = \"#999999\";\n    at = \"\";\n    ccc = 0;\n    \"child_comments\" =     (\n    );\n    city = \"\";\n    cmc = 2;\n    content =     (\n                {\n            c = \"\\U6211\\U4e5f\\U60f3\\U505a\\U8fd9\\U4e2a\";\n        }\n    );\n    ia = 0;\n    id = 6277690;\n    \"ip_address_location\" = \"\";\n    like = 0;\n    \"like_count\" = 0;\n    \"reply_id\" = 0;\n    \"sticker_icon\" =     (\n    );\n    time = \"2018-12-15 16:10:00\";\n    u =     {\n        \"followers_count_text\" = \"\";\n        id = 18521178;\n        \"is_prime\" = 0;\n        lv = 0;\n        lvl = 4;\n        n = \"\\U2764\\U6c88\\U5c0f\\U80d6\\U2764\";\n        p = \"http:\/\/tx1.douguo.net\/upload\/photo\/a\/c\/f\/70_u17882420842130408194447.jpg\";\n        \"progress_image\" = \"\";\n        \"recipes_count_text\" = \"\";\n        relationship = \"-1\";\n        title = \"\";\n        v = 0;\n        \"verified_image\" = \"\";\n    };\n}"
      ],
      "rewarded_video_dsp" : [

      ],
      "rate" : 0,
      "pw" : 1280,
      "cook_difficulty" : "切墩(初级)",
      "rate_count" : 0,
      "release_time" : "",
      "top_mdsp" : [

      ],
      "author_verified" : 1,
      "recipe_list_tags" : [
        {
          "background_start_color" : "#F4F5F5",
          "background_end_color" : "#F4F5F5",
          "text_color" : "#141515",
          "text" : "关注的人",
          "background_border_color" : "",
          "right_image" : "",
          "jump_url" : ""
        }
      ],
      "author_id" : 4797779,
      "hqu" : "recipes:\/\/www.douguo.com\/notedetail?id=21162253",
      "comments_count_text" : "8",
      "purl" : "",
      "dish_count" : 0,
      "clicks" : "538248",
      "ipoi" : "",
      "minor" : [

      ],
      "cook_time" : "1小时以上",
      "cook_id" : "1724724",
      "cook_time_image" : "https:\/\/i1.douguo.com\/upload\/banner\/1551423815.png",
      "ss" : [

      ],
      "author" : "yn高小疯",
      "rpst" : "",
      "levelid" : 2,
      "title_ad" : [

      ],
      "collect_status" : 0,
      "sc" : 0,
      "cookstory" : "华夫饼的版本很多，甚至还有夹馅的，酵母版、泡打粉版，今天我来一个快手泡打粉版的，有很多人担心泡打粉属添加剂，宝宝吃了会对身体发育不好，选对无铝添加，只要正确的运用和添加是没问题的。\n\n\n配方可做图片上的4小块。"
    }
  },
  "status" : 0
}