{
  "status" : 0,
  "result" : {
    "recipe" : {
      "rate_show" : 0,
      "cookstorys" : [
        {
          "id" : 0,
          "u" : "",
          "color" : "",
          "c" : "就这锅米线谁敢说不爱",
          "icon" : "",
          "type" : 0
        },
        {
          "c" : "\n参与活动:",
          "color" : "",
          "id" : 0,
          "icon" : "",
          "type" : 0,
          "u" : ""
        },
        {
          "icon" : "",
          "c" : "#参与蘑菇屋的美味复刻，赢金龙鱼外婆乡小榨菜籽油全年用#",
          "u" : "https:\/\/m.douguo.com\/activity\/ncpzj\/detail\/3789?isapp=1&open=0&_vs=1000300&&dg_refreshkey=publishnote",
          "type" : 0,
          "id" : 0
        }
      ],
      "author_id" : 24683223,
      "bs" : [

      ],
      "title_ad" : [

      ],
      "original_photo_path" : "http:\/\/i1.douguo.net\/upload\/caiku\/b\/b\/c\/yuan_bb86d2c0a41d5c8c14c27613a1c1881c.jpg",
      "story_dsp" : [

      ],
      "cook_time" : "10分钟左右",
      "vfurl" : "https:\/\/vplay.douguo.com\/lvrRjNCzAotMZNB4uaBLYrlR0KPq__640x362.mp4",
      "ss" : [

      ],
      "pw" : 1080,
      "clicks" : "1",
      "recent_comments" : [

      ],
      "advice" : {
        "has" : [
          {
            "url" : "recipes:\/\/www.douguo.com\/simplerecipelist?t=富含蛋白质&id=富含蛋白质",
            "t" : "富含蛋白质"
          },
          {
            "url" : "recipes:\/\/www.douguo.com\/simplerecipelist?t=低盐&id=低盐",
            "t" : "低盐"
          }
        ],
        "at" : "有助于构成或修复人体组织～",
        "da" : {
          "iu" : "https:\/\/i1.douguo.com\/upload\/banner\/f\/4\/d\/f48877e53c37759bc12ac494be82ec8d.png",
          "t" : "查看详细分析",
          "url" : "https:\/\/m.douguo.com\/recipe\/nutrient_self\/3256450"
        }
      },
      "dish_count" : 0,
      "author_verified" : 0,
      "release_time" : "",
      "purl" : "",
      "rate_count" : 0,
      "rips" : 0,
      "su" : "",
      "cookwares" : [

      ],
      "cookstep" : [
        {
          "position" : 1,
          "frame" : "20323",
          "thumb" : "https:\/\/i1.douguo.com\/upload\/caiku\/d\/8\/1\/140_d81d1de70753a08f18433f6c53e8be11.jpg",
          "image" : "https:\/\/i1.douguo.com\/upload\/caiku\/d\/8\/1\/d81d1de70753a08f18433f6c53e8be11.jpg",
          "image_height" : 580,
          "image_width" : 1031,
          "content" : "先用肉沫，火锅底料，郫县豆瓣酱等炒一个肉臊子备用"
        },
        {
          "position" : 2,
          "frame" : "62811",
          "image_height" : 580,
          "image" : "https:\/\/i1.douguo.com\/upload\/caiku\/6\/8\/6\/68e926252863ac39282198c1fd55f646.jpg",
          "image_width" : 1031,
          "thumb" : "https:\/\/i1.douguo.com\/upload\/caiku\/6\/8\/6\/140_68e926252863ac39282198c1fd55f646.jpg",
          "content" : "砂锅里放一些油，加葱姜，花椒、麻椒，郫县豆瓣酱、火锅底料炒出红油，加适量清水烧开后煮三到五分钟，然后捞出料渣"
        },
        {
          "image_width" : 1031,
          "content" : "米粉提前煮到八成熟捞出来放进砂锅里",
          "image_height" : 580,
          "image" : "https:\/\/i1.douguo.com\/upload\/caiku\/e\/e\/e\/ee03a6ec71054fc7aa27b71f964fad4e.jpg",
          "frame" : "75712",
          "position" : 3,
          "thumb" : "https:\/\/i1.douguo.com\/upload\/caiku\/e\/e\/e\/140_ee03a6ec71054fc7aa27b71f964fad4e.jpg"
        },
        {
          "image_height" : 580,
          "image_width" : 1031,
          "thumb" : "https:\/\/i1.douguo.com\/upload\/caiku\/6\/f\/a\/140_6ffe1f20422b25d203f2f18f94adf22a.jpg",
          "content" : "放入自己喜欢的配菜，我今天放了鹌鹑蛋、鱼丸、干豆腐和鸡毛菜",
          "image" : "https:\/\/i1.douguo.com\/upload\/caiku\/6\/f\/a\/6ffe1f20422b25d203f2f18f94adf22a.jpg",
          "position" : 4,
          "frame" : "88232"
        },
        {
          "image" : "https:\/\/i1.douguo.com\/upload\/caiku\/6\/c\/b\/6c0175db6b9b3fecd8f1bacc1e68344b.jpg",
          "frame" : "97428",
          "position" : 5,
          "image_width" : 1031,
          "content" : "盛出来浇上肉臊子，撒上一些小香葱就好了",
          "thumb" : "https:\/\/i1.douguo.com\/upload\/caiku\/6\/c\/b\/140_6c0175db6b9b3fecd8f1bacc1e68344b.jpg",
          "image_height" : 580
        }
      ],
      "minor" : [

      ],
      "recommendation_tag" : "",
      "share_info" : {
        "qr_image" : "",
        "s_d" : "#向往的生活 就是外婆乡#麻辣米线-会做饭很酷!",
        "name" : "#向往的生活 就是外婆乡#麻辣米线-会做饭很酷!",
        "image" : "https:\/\/cp1.douguo.com\/upload\/caiku\/b\/b\/c\/bb86d2c0a41d5c8c14c27613a1c1881c.jpg",
        "object_id" : "3256450",
        "infos" : [
          {
            "s_u" : "",
            "s_d" : "#学做饭用豆果美食# 我在@豆果美食 分享了【#向往的生活 就是外婆乡#麻辣米线-会做饭很酷!】，色香味俱全说的就是这道菜！查看图片了解菜谱（快来点击https:\/\/m.weibo.cn\/p\/100404i33631和我一起修炼厨艺吧）#会做饭很酷# ",
            "qr_image" : "",
            "name" : "#向往的生活 就是外婆乡#麻辣米线-会做饭很酷!",
            "mini_program" : [

            ],
            "object_id" : "3256450",
            "image" : "https:\/\/cp1.douguo.com\/upload\/caiku\/b\/b\/c\/bb86d2c0a41d5c8c14c27613a1c1881c.jpg",
            "channel" : "1"
          },
          {
            "object_id" : "3256450",
            "s_u" : "http:\/\/m.douguo.com\/cookbook\/3256450.html",
            "s_d" : "#向往的生活 就是外婆乡#麻辣米线-会做饭很酷!",
            "mini_program" : [

            ],
            "name" : "#向往的生活 就是外婆乡#麻辣米线-会做饭很酷!",
            "image" : "https:\/\/cp1.douguo.com\/upload\/caiku\/b\/b\/c\/bb86d2c0a41d5c8c14c27613a1c1881c.jpg",
            "channel" : "7",
            "qr_image" : ""
          },
          {
            "mini_program" : [

            ],
            "image" : "https:\/\/cp1.douguo.com\/upload\/caiku\/b\/b\/c\/bb86d2c0a41d5c8c14c27613a1c1881c.jpg",
            "object_id" : "3256450",
            "s_u" : "http:\/\/m.douguo.com\/cookbook\/3256450.html",
            "channel" : "8",
            "s_d" : "#向往的生活 就是外婆乡#麻辣米线-会做饭很酷!",
            "qr_image" : "",
            "name" : "#向往的生活 就是外婆乡#麻辣米线-会做饭很酷!"
          }
        ],
        "s_u" : "http:\/\/m.douguo.com\/cookbook\/3256450.html",
        "mini_program" : [

        ]
      },
      "ipoi" : "",
      "first_level_comment_count" : 0,
      "views_count_text" : "11.6万",
      "ecs" : 1,
      "ipurl" : "",
      "thumb_height" : 0,
      "rpt" : "",
      "cook_difficulty_image" : "https:\/\/i1.douguo.com\/upload\/banner\/1551424390.png",
      "thumb_path" : "https:\/\/i1.douguo.com\/upload\/caiku\/b\/b\/c\/300_bb86d2c0a41d5c8c14c27613a1c1881c.jpg",
      "rrpt" : "",
      "image" : "http:\/\/i1.douguo.net\/upload\/caiku\/b\/b\/c\/300_bb86d2c0a41d5c8c14c27613a1c1881c.jpg",
      "display_ingredient" : 1,
      "rewarded_video_dsp" : [

      ],
      "event" : {
        "url" : "https:\/\/m.douguo.com\/activity\/ncpzj\/detail\/3789?isapp=1&open=0&_vs=1000300&&dg_refreshkey=publishnote",
        "name" : "参与蘑菇屋的美味复刻，赢金龙鱼外婆乡小榨菜籽油全年用",
        "id" : 3789
      },
      "comments_count_text" : "",
      "rpid" : 0,
      "eu" : "recipes:\/\/www.douguo.com\/postdetail?id=242016",
      "cookstory" : "就这锅米线谁敢说不爱",
      "favo_counts_text" : "3420",
      "user" : {
        "coursecount" : 0,
        "lv" : 0,
        "user_photo" : "http:\/\/tx1.douguo.net\/upload\/photo\/4\/0\/6\/70_u75892056889087231838.jpg",
        "birthday" : "",
        "weibo_nick" : "",
        "age" : "",
        "userid" : "24683223",
        "progress_image" : "",
        "pc" : 0,
        "diaries_count" : 0,
        "mobile" : "",
        "fc" : 0,
        "following_count" : 0,
        "point" : 0,
        "favorites_count" : 0,
        "favor_diaries_count" : 0,
        "is_prime" : 0,
        "subscription" : 0,
        "avatar_medium" : "http:\/\/tx1.douguo.net\/upload\/photo\/4\/0\/6\/140_u75892056889087231838.jpg",
        "sign" : "",
        "verified" : 0,
        "setted_email" : 0,
        "user_large_photo" : "http:\/\/tx1.douguo.net\/upload\/photo\/4\/0\/6\/yuan_u75892056889087231838.jpg",
        "verified_url" : "https:\/\/m.douguo.com\/user\/prodesc",
        "qq_weibo_nick" : "",
        "location" : 0,
        "user_cover" : "",
        "introduction" : "",
        "gender" : 2,
        "followers_count" : 0,
        "lvl" : 6,
        "qzone_nick" : "",
        "nick" : "养怡小厨",
        "recipes_count" : 0,
        "regist_time" : "",
        "email" : "",
        "subscription_article_count" : 0,
        "verified_image" : "",
        "dishes_count" : 0,
        "user_id" : "24683223"
      },
      "comments_count" : 0,
      "mid_mdsp" : [

      ],
      "btm_dsp" : [

      ],
      "tips" : "",
      "top_mdsp" : [

      ],
      "sc" : 0,
      "collect_status" : 0,
      "notes" : [

      ],
      "levelid" : 2,
      "old_comments" : [

      ],
      "guide_image" : "",
      "vc" : "116041",
      "brand_day_dsp" : [

      ],
      "cook_difficulty" : "切墩(初级)",
      "ssu" : "",
      "ipt" : "",
      "rdsps" : [

      ],
      "act_des" : "",
      "rpst" : "",
      "hq" : 1,
      "favo_counts" : 3420,
      "rsm" : "该功能暂停使用",
      "create_time" : "2023-06-06 20:37:40",
      "recipe_list_tags" : [
        {
          "right_image" : "",
          "text_color" : "#141515",
          "background_border_color" : "",
          "text" : "关注的人",
          "background_start_color" : "#F4F5F5",
          "jump_url" : "",
          "background_end_color" : "#F4F5F5"
        }
      ],
      "cook_id" : "3256450",
      "recipe_tags" : [

      ],
      "related_ads" : [

      ],
      "dishes" : [

      ],
      "photo_path" : "https:\/\/i1.douguo.com\/upload\/caiku\/b\/b\/c\/600_bb86d2c0a41d5c8c14c27613a1c1881c.jpg",
      "major" : [
        {
          "note" : "300g",
          "title" : "干米线(三人份)"
        },
        {
          "note" : "1块",
          "title" : "火锅底料"
        },
        {
          "note" : "1大勺",
          "title" : "郫县豆瓣酱"
        },
        {
          "note" : "适量",
          "title" : "葱姜",
          "tu" : "https:\/\/m.douguo.com\/ingredients\/葱姜\/detailmaterial"
        },
        {
          "tu" : "https:\/\/m.douguo.com\/ingredients\/花椒\/detailmaterial",
          "note" : "15粒",
          "title" : "花椒"
        },
        {
          "note" : "15粒",
          "title" : "麻椒"
        },
        {
          "tu" : "https:\/\/m.douguo.com\/ingredients\/鹌鹑蛋\/detailmaterial",
          "note" : "12个",
          "title" : "鹌鹑蛋"
        },
        {
          "note" : "2张",
          "title" : "豆皮",
          "tu" : "https:\/\/m.douguo.com\/ingredients\/豆皮\/detailmaterial"
        },
        {
          "note" : "1把",
          "title" : "鸡毛菜",
          "tu" : "https:\/\/m.douguo.com\/ingredients\/鸡毛菜\/detailmaterial"
        },
        {
          "note" : "适量",
          "title" : "各种丸子"
        },
        {
          "note" : "适量",
          "title" : "肉臊子"
        },
        {
          "note" : "2根",
          "title" : "香葱",
          "tu" : "https:\/\/m.douguo.com\/ingredients\/香葱\/detailmaterial"
        }
      ],
      "recommend_label" : "3420人刚刚收藏过",
      "ipia" : [

      ],
      "dish_count_text" : "",
      "ipit" : 0,
      "rate" : 0,
      "rcs" : [

      ],
      "author_photo" : "http:\/\/tx1.douguo.net\/upload\/photo\/4\/0\/6\/70_u75892056889087231838.jpg",
      "v_u" : "",
      "sr" : "",
      "rrps" : [

      ],
      "ph" : 607,
      "hqu" : "recipes:\/\/www.douguo.com\/notedetail?id=21162253",
      "packages_id" : [

      ],
      "author" : "养怡小厨",
      "ipci" : "",
      "recommended" : 0,
      "title" : "麻辣米线",
      "tags" : [

      ],
      "vu" : "https:\/\/vplay.douguo.com\/lvrRjNCzAotMZNB4uaBLYrlR0KPq",
      "cook_time_image" : "https:\/\/i1.douguo.com\/upload\/banner\/1551424358.png",
      "comments" : [

      ]
    }
  },
  "state" : "success"
}