{
  "state" : "success",
  "result" : {
    "recipe" : {
      "mid_mdsp" : [

      ],
      "levelid" : 2,
      "cookwares" : [

      ],
      "top_mdsp" : [

      ],
      "bs" : [

      ],
      "favo_counts" : 3181,
      "ipci" : "",
      "rips" : 0,
      "recipe_list_tags" : [
        {
          "right_image" : "",
          "background_border_color" : "",
          "background_end_color" : "#F4F5F5",
          "background_start_color" : "#F4F5F5",
          "jump_url" : "",
          "text" : "关注的人",
          "text_color" : "#141515"
        },
        {
          "right_image" : "",
          "text" : "内容详细",
          "background_border_color" : "",
          "background_start_color" : "#F4F5F5",
          "background_end_color" : "#F4F5F5",
          "text_color" : "#141515",
          "jump_url" : ""
        }
      ],
      "release_time" : "",
      "guide_image" : "",
      "recipe_tags" : [

      ],
      "eu" : "recipes:\/\/www.douguo.com\/postdetail?id=242016",
      "hq" : 1,
      "favo_counts_text" : "3181",
      "author" : "优雅的长围巾",
      "rsm" : "该功能暂停使用",
      "cookstory" : "   樱桃萝卜，外形小巧玲珑特别可爱，浑身是宝，萝卜缨清洗干净可生食，蘸上甜面酱，脆嫩爽口，而樱桃萝卜分割下来、味甘甜、口感脆嫩宜生吃，切蓑衣片，用盐腌制入味，蔓越莓鲜果解冻，与白糖一起煮出酸甜适口的汤水，晾凉，加入柠檬片浸泡萝卜，腌制几个小时就可以吃了，清清凉凉、酸酸甜甜的还有蔓越莓和柠檬的果香，入口清爽、层次丰富，健康营养小菜。",
      "ipia" : [

      ],
      "dishes" : [

      ],
      "su" : "",
      "title_ad" : [

      ],
      "views_count_text" : "10.5万",
      "cook_id" : "3184996",
      "pw" : 1280,
      "comments_count_text" : "",
      "ipt" : "",
      "event" : {
        "url" : "https:\/\/m.douguo.com\/activity\/ncpzj\/detail\/3455?isapp=1&open=0&_vs=1000300&&dg_refreshkey=publishnote",
        "name" : "莓语健康日记丨用春日清新蔓越莓滋味点缀你的莓好生活",
        "id" : 3455
      },
      "recommendation_tag" : "",
      "thumb_height" : 0,
      "related_ads" : [

      ],
      "dish_count" : 0,
      "share_info" : {
        "s_u" : "http:\/\/m.douguo.com\/cookbook\/3184996.html",
        "qr_image" : "",
        "image" : "https:\/\/cp1.douguo.com\/upload\/caiku\/0\/7\/9\/074b4d2dcea136b1c73f38eaf101ce99.jpg",
        "infos" : [
          {
            "image" : "https:\/\/cp1.douguo.com\/upload\/caiku\/0\/7\/9\/074b4d2dcea136b1c73f38eaf101ce99.jpg",
            "object_id" : "3184996",
            "s_d" : "#学做饭用豆果美食# 会做饭真是太酷了！我在@豆果美食 分享了【#莓语健康日记#莓果柠檬泡樱桃萝卜-会做饭很酷!】OMG！这是什么神仙美味啊~真的强烈推荐你们试一试～查看图片了解菜谱（每天限量免费课程，想跟大师学厨艺就来这https:\/\/m.weibo.cn\/p\/100404i33631）",
            "qr_image" : "",
            "s_u" : "",
            "name" : "#莓语健康日记#莓果柠檬泡樱桃萝卜-会做饭很酷!",
            "mini_program" : [

            ],
            "channel" : "1"
          },
          {
            "name" : "#莓语健康日记#莓果柠檬泡樱桃萝卜-会做饭很酷!",
            "s_d" : "#莓语健康日记#莓果柠檬泡樱桃萝卜-会做饭很酷!",
            "qr_image" : "",
            "object_id" : "3184996",
            "channel" : "7",
            "mini_program" : [

            ],
            "image" : "https:\/\/cp1.douguo.com\/upload\/caiku\/0\/7\/9\/074b4d2dcea136b1c73f38eaf101ce99.jpg",
            "s_u" : "http:\/\/m.douguo.com\/cookbook\/3184996.html"
          },
          {
            "object_id" : "3184996",
            "mini_program" : [

            ],
            "qr_image" : "",
            "image" : "https:\/\/cp1.douguo.com\/upload\/caiku\/0\/7\/9\/074b4d2dcea136b1c73f38eaf101ce99.jpg",
            "name" : "#莓语健康日记#莓果柠檬泡樱桃萝卜-会做饭很酷!",
            "channel" : "8",
            "s_d" : "#莓语健康日记#莓果柠檬泡樱桃萝卜-会做饭很酷!",
            "s_u" : "http:\/\/m.douguo.com\/cookbook\/3184996.html"
          }
        ],
        "mini_program" : [

        ],
        "name" : "#莓语健康日记#莓果柠檬泡樱桃萝卜-会做饭很酷!",
        "object_id" : "3184996",
        "s_d" : "#莓语健康日记#莓果柠檬泡樱桃萝卜-会做饭很酷!"
      },
      "ipurl" : "",
      "sc" : 0,
      "comments_count" : 0,
      "rate_show" : 0,
      "rpt" : "",
      "rewarded_video_dsp" : [

      ],
      "rpid" : 0,
      "image" : "http:\/\/i1.douguo.net\/upload\/caiku\/0\/7\/9\/300_074b4d2dcea136b1c73f38eaf101ce99.jpg",
      "user" : {
        "subscription" : 0,
        "is_prime" : 0,
        "following_count" : 0,
        "recipes_count" : 0,
        "mobile" : "",
        "lv" : 0,
        "email" : "",
        "subscription_article_count" : 0,
        "qzone_nick" : "",
        "coursecount" : 0,
        "verified_url" : "https:\/\/m.douguo.com\/user\/prodesc",
        "user_id" : "19245977",
        "weibo_nick" : "",
        "age" : "",
        "point" : 0,
        "setted_email" : 0,
        "sign" : "",
        "diaries_count" : 0,
        "favor_diaries_count" : 0,
        "nick" : "优雅的长围巾",
        "verified_image" : "https:\/\/i1.douguo.com\/upload\/note\/d\/a\/a\/da84247847aebe48d9dd0fcdac88862a.png",
        "user_photo" : "http:\/\/tx1.douguo.net\/upload\/photo\/b\/1\/9\/70_u81810127339673230706.jpg",
        "location" : 0,
        "birthday" : "",
        "progress_image" : "",
        "dishes_count" : 0,
        "regist_time" : "",
        "favorites_count" : 0,
        "avatar_medium" : "http:\/\/tx1.douguo.net\/upload\/photo\/b\/1\/9\/140_u81810127339673230706.jpg",
        "lvl" : 7,
        "verified" : 1,
        "gender" : 2,
        "introduction" : "",
        "followers_count" : 0,
        "fc" : 0,
        "userid" : "19245977",
        "user_large_photo" : "http:\/\/tx1.douguo.net\/upload\/photo\/b\/1\/9\/yuan_u81810127339673230706.jpg",
        "qq_weibo_nick" : "",
        "pc" : 0,
        "user_cover" : ""
      },
      "author_verified" : 1,
      "recommend_label" : "3181人刚刚收藏过",
      "tags" : [

      ],
      "old_comments" : [

      ],
      "display_ingredient" : 1,
      "ssu" : "",
      "cook_time" : "",
      "story_dsp" : [

      ],
      "ph" : 961,
      "btm_dsp" : [

      ],
      "first_level_comment_count" : 0,
      "major" : [
        {
          "note" : "10个",
          "title" : "樱桃小萝卜"
        },
        {
          "note" : "30克",
          "tu" : "https:\/\/m.douguo.com\/ingredients\/蔓越莓\/detailmaterial",
          "title" : "蔓越莓"
        },
        {
          "note" : "1片",
          "tu" : "https:\/\/m.douguo.com\/ingredients\/柠檬\/detailmaterial",
          "title" : "柠檬"
        },
        {
          "note" : "20克",
          "tu" : "https:\/\/m.douguo.com\/ingredients\/白糖\/detailmaterial",
          "title" : "白糖"
        },
        {
          "title" : "盐",
          "tu" : "https:\/\/m.douguo.com\/ingredients\/盐\/detailmaterial",
          "note" : "3克"
        }
      ],
      "recommended" : 0,
      "packages_id" : [

      ],
      "advice" : {
        "at" : "能有效控制体重～",
        "da" : {
          "t" : "查看详细分析",
          "url" : "https:\/\/m.douguo.com\/recipe\/nutrient_self\/3184996",
          "iu" : "https:\/\/i1.douguo.com\/upload\/banner\/f\/4\/d\/f48877e53c37759bc12ac494be82ec8d.png"
        },
        "has" : [
          {
            "url" : "recipes:\/\/www.douguo.com\/simplerecipelist?t=低热量&id=低热量",
            "t" : "低热量"
          },
          {
            "url" : "recipes:\/\/www.douguo.com\/simplerecipelist?t=低脂&id=低脂",
            "t" : "低脂"
          }
        ]
      },
      "thumb_path" : "https:\/\/i1.douguo.com\/upload\/caiku\/0\/7\/9\/300_074b4d2dcea136b1c73f38eaf101ce99.jpg",
      "ipit" : 0,
      "cook_difficulty" : "",
      "brand_day_dsp" : [

      ],
      "clicks" : "1",
      "author_photo" : "http:\/\/tx1.douguo.net\/upload\/photo\/b\/1\/9\/70_u81810127339673230706.jpg",
      "cook_time_image" : "",
      "notes" : [

      ],
      "recent_comments" : [

      ],
      "ecs" : 0,
      "collect_status" : 0,
      "v_u" : "",
      "rate" : 0,
      "act_des" : "",
      "rate_count" : 0,
      "rdsps" : [

      ],
      "vu" : "",
      "purl" : "",
      "sr" : "",
      "ss" : [

      ],
      "minor" : [

      ],
      "title" : "莓果柠檬泡樱桃萝卜",
      "original_photo_path" : "http:\/\/i1.douguo.net\/upload\/caiku\/0\/7\/9\/yuan_074b4d2dcea136b1c73f38eaf101ce99.jpg",
      "comments" : [

      ],
      "author_id" : 19245977,
      "vc" : "104991",
      "vfurl" : "",
      "photo_path" : "https:\/\/i1.douguo.com\/upload\/caiku\/0\/7\/9\/600_074b4d2dcea136b1c73f38eaf101ce99.jpg",
      "create_time" : "2022-04-23 20:23:27",
      "cookstorys" : [
        {
          "color" : "",
          "c" : "   樱桃萝卜，外形小巧玲珑特别可爱，浑身是宝，萝卜缨清洗干净可生食，蘸上甜面酱，脆嫩爽口，而樱桃萝卜分割下来、味甘甜、口感脆嫩宜生吃，切蓑衣片，用盐腌制入味，蔓越莓鲜果解冻，与白糖一起煮出酸甜适口的汤水，晾凉，加入柠檬片浸泡萝卜，腌制几个小时就可以吃了，清清凉凉、酸酸甜甜的还有蔓越莓和柠檬的果香，入口清爽、层次丰富，健康营养小菜。",
          "u" : "",
          "id" : 0,
          "icon" : "",
          "type" : 0
        },
        {
          "type" : 0,
          "icon" : "",
          "u" : "",
          "c" : "\n参与活动:",
          "color" : "",
          "id" : 0
        },
        {
          "c" : "#莓语健康日记丨用春日清新蔓越莓滋味点缀你的莓好生活#",
          "id" : 0,
          "u" : "https:\/\/m.douguo.com\/activity\/ncpzj\/detail\/3455?isapp=1&open=0&_vs=1000300&&dg_refreshkey=publishnote",
          "icon" : "",
          "type" : 0
        }
      ],
      "hqu" : "recipes:\/\/www.douguo.com\/notedetail?id=21162253",
      "rrps" : [

      ],
      "ipoi" : "",
      "dish_count_text" : "",
      "cook_difficulty_image" : "",
      "rpst" : "",
      "rrpt" : "",
      "rcs" : [

      ],
      "cookstep" : [
        {
          "image_width" : 1180,
          "thumb" : "https:\/\/i1.douguo.com\/upload\/caiku\/9\/5\/c\/140_95413f2eb654d7c67b49be50988d05ac.jpg",
          "position" : 1,
          "image_height" : 892,
          "image" : "https:\/\/i1.douguo.com\/upload\/caiku\/9\/5\/c\/95413f2eb654d7c67b49be50988d05ac.jpg",
          "content" : "食材准备好。",
          "frame" : "-1"
        },
        {
          "position" : 2,
          "thumb" : "https:\/\/i1.douguo.com\/upload\/caiku\/0\/d\/a\/140_0d04aef93aab3a642206c2b9956d455a.jpg",
          "frame" : "-1",
          "content" : "樱桃萝卜分割下来，清洗干净。",
          "image_height" : 959,
          "image" : "https:\/\/i1.douguo.com\/upload\/caiku\/0\/d\/a\/0d04aef93aab3a642206c2b9956d455a.jpg",
          "image_width" : 1280
        },
        {
          "thumb" : "https:\/\/i1.douguo.com\/upload\/caiku\/d\/4\/f\/140_d42dff87327e786534ea4eed4a538e5f.jpg",
          "frame" : "-1",
          "image_height" : 1070,
          "image_width" : 1280,
          "image" : "https:\/\/i1.douguo.com\/upload\/caiku\/d\/4\/f\/d42dff87327e786534ea4eed4a538e5f.jpg",
          "position" : 3,
          "content" : "蔓越莓果放入汤锅。"
        },
        {
          "thumb" : "https:\/\/i1.douguo.com\/upload\/caiku\/3\/4\/c\/140_34953b4008bb136409cca77928eb497c.jpg",
          "image_width" : 1280,
          "position" : 4,
          "image" : "https:\/\/i1.douguo.com\/upload\/caiku\/3\/4\/c\/34953b4008bb136409cca77928eb497c.jpg",
          "content" : "加入清水烧开。",
          "frame" : "-1",
          "image_height" : 965
        },
        {
          "position" : 5,
          "image" : "https:\/\/i1.douguo.com\/upload\/caiku\/4\/4\/0\/44f73c3f68e114ca3d140a4795641500.jpg",
          "image_height" : 960,
          "image_width" : 1280,
          "content" : "汤汁煮成红色，放入白糖中和味道。",
          "thumb" : "https:\/\/i1.douguo.com\/upload\/caiku\/4\/4\/0\/140_44f73c3f68e114ca3d140a4795641500.jpg",
          "frame" : "-1"
        },
        {
          "content" : "白糖融化后关火晾凉。",
          "image_height" : 962,
          "position" : 6,
          "image" : "https:\/\/i1.douguo.com\/upload\/caiku\/6\/4\/0\/64347056a561fc2f2f1277f7c79337e0.jpg",
          "image_width" : 1280,
          "thumb" : "https:\/\/i1.douguo.com\/upload\/caiku\/6\/4\/0\/140_64347056a561fc2f2f1277f7c79337e0.jpg",
          "frame" : "-1"
        },
        {
          "content" : "樱桃萝卜切蓑衣片，薄片，底部相连。",
          "image_height" : 986,
          "image" : "https:\/\/i1.douguo.com\/upload\/caiku\/4\/9\/7\/49515edea55f075229f4852e4cbabe87.jpg",
          "frame" : "-1",
          "image_width" : 1280,
          "thumb" : "https:\/\/i1.douguo.com\/upload\/caiku\/4\/9\/7\/140_49515edea55f075229f4852e4cbabe87.jpg",
          "position" : 7
        },
        {
          "thumb" : "https:\/\/i1.douguo.com\/upload\/caiku\/d\/c\/8\/140_dca5ad4b58b04ea1b17bfbcf5f769758.jpg",
          "frame" : "-1",
          "content" : "放入盐，腌制15分钟。",
          "position" : 8,
          "image_width" : 1280,
          "image_height" : 951,
          "image" : "https:\/\/i1.douguo.com\/upload\/caiku\/d\/c\/8\/dca5ad4b58b04ea1b17bfbcf5f769758.jpg"
        },
        {
          "thumb" : "https:\/\/i1.douguo.com\/upload\/caiku\/c\/9\/b\/140_c91896aa5b8ed5e455f4dce475ede20b.jpg",
          "image" : "https:\/\/i1.douguo.com\/upload\/caiku\/c\/9\/b\/c91896aa5b8ed5e455f4dce475ede20b.jpg",
          "content" : "腌好后，用清水冲洗一遍。",
          "image_height" : 938,
          "position" : 9,
          "image_width" : 1280,
          "frame" : "-1"
        },
        {
          "frame" : "-1",
          "image_height" : 816,
          "position" : 10,
          "thumb" : "https:\/\/i1.douguo.com\/upload\/caiku\/5\/3\/3\/140_53618c6a915b0164b70a6d582d9ad883.jpg",
          "content" : "放入器皿中，",
          "image" : "https:\/\/i1.douguo.com\/upload\/caiku\/5\/3\/3\/53618c6a915b0164b70a6d582d9ad883.jpg",
          "image_width" : 1049
        },
        {
          "frame" : "-1",
          "image" : "https:\/\/i1.douguo.com\/upload\/caiku\/b\/9\/9\/b9f19fed9906cebba0d7bf1ce850b799.jpg",
          "content" : "倒入煮好的蔓越莓汤水。",
          "thumb" : "https:\/\/i1.douguo.com\/upload\/caiku\/b\/9\/9\/140_b9f19fed9906cebba0d7bf1ce850b799.jpg",
          "position" : 11,
          "image_width" : 1151,
          "image_height" : 872
        },
        {
          "thumb" : "https:\/\/i1.douguo.com\/upload\/caiku\/4\/6\/7\/140_46e69152079a144a0adedb35829deb37.jpg",
          "image" : "https:\/\/i1.douguo.com\/upload\/caiku\/4\/6\/7\/46e69152079a144a0adedb35829deb37.jpg",
          "image_width" : 1204,
          "position" : 12,
          "frame" : "-1",
          "image_height" : 974,
          "content" : "放入柠檬片增香，放入冰箱冷藏3个小时以上。"
        },
        {
          "image" : "https:\/\/i1.douguo.com\/upload\/caiku\/5\/9\/e\/59be3853327b43d6a50f9f7897941aee.jpg",
          "thumb" : "https:\/\/i1.douguo.com\/upload\/caiku\/5\/9\/e\/140_59be3853327b43d6a50f9f7897941aee.jpg",
          "content" : "清凉开胃，酸酸甜甜的。",
          "position" : 13,
          "image_height" : 961,
          "image_width" : 1280,
          "frame" : "-1"
        }
      ],
      "tips" : "蔓越莓果煮汤水，加入糖或蜂蜜调味。"
    }
  },
  "status" : 0
}