{
  "result" : {
    "recipe" : {
      "purl" : "",
      "rpid" : 0,
      "sc" : 0,
      "cookwares" : [

      ],
      "comments" : [
        "{\n    ac = \"#999999\";\n    at = \"\";\n    ccc = 1;\n    \"child_comments\" =     (\n                {\n            ac = \"#999999\";\n            at = \"\\U4e0a\\U6d77\\U5e02\";\n            ccc = 0;\n            city = \"\\U4e0a\\U6d77\\U5e02\";\n            cmc = 2;\n            content =             (\n                                {\n                    c = \" \\U54c8\\U54c8\\U54c8\\U54c8\";\n                }\n            );\n            ia = 1;\n            id = 7940157;\n            \"ip_address_location\" = \"\";\n            like = 0;\n            \"like_count\" = 0;\n            \"reply_id\" = 7939500;\n            \"reply_user\" =             {\n                \"followers_count_text\" = \"\";\n                id = 24602326;\n                \"is_prime\" = 0;\n                lv = 0;\n                lvl = 1;\n                n = \"\\U671f\\U5f85\\U82b1\\U5f002YMh\";\n                p = \"http:\/\/tx1.douguo.net\/upload\/photo\/4\/a\/c\/70_u586458605792171002.jpeg\";\n                \"progress_image\" = \"\";\n                \"recipes_count_text\" = \"\";\n                relationship = \"-1\";\n                title = \"\";\n                v = 0;\n                \"verified_image\" = \"\";\n            };\n            \"sticker_icon\" =             (\n            );\n            time = \"2020-05-02 11:59:59\";\n            u =             {\n                \"followers_count_text\" = \"\";\n                id = 17616733;\n                \"is_prime\" = 0;\n                lv = 0;\n                lvl = 6;\n                n = \"\\U871c\\U6843\\U7231\\U8425\\U517b\\U5e08\\U79c1\\U53a8\";\n                p = \"http:\/\/tx1.douguo.net\/upload\/photo\/9\/4\/d\/70_u65020868733420113222.jpg\";\n                \"progress_image\" = \"\";\n                \"recipes_count_text\" = \"\";\n                relationship = \"-1\";\n                title = \"\";\n                v = 1;\n                \"verified_image\" = \"\";\n            };\n        }\n    );\n    city = \"\";\n    cmc = 2;\n    content =     (\n                {\n            c = \"\\U5403\\U5b8c\\U4eba\\U90fd\\U590d\\U6d3b\\U4e86\\U3002\\U54c8\\U54c8\\Uff01\";\n        }\n    );\n    ia = 0;\n    id = 7939500;\n    \"ip_address_location\" = \"\";\n    like = 0;\n    \"like_count\" = 0;\n    \"reply_id\" = 0;\n    \"sticker_icon\" =     (\n    );\n    time = \"2020-05-02 07:11:04\";\n    u =     {\n        \"followers_count_text\" = \"\";\n        id = 24602326;\n        \"is_prime\" = 0;\n        lv = 0;\n        lvl = 1;\n        n = \"\\U671f\\U5f85\\U82b1\\U5f002YMh\";\n        p = \"http:\/\/tx1.douguo.net\/upload\/photo\/4\/a\/c\/70_u586458605792171002.jpeg\";\n        \"progress_image\" = \"\";\n        \"recipes_count_text\" = \"\";\n        relationship = \"-1\";\n        title = \"\";\n        v = 0;\n        \"verified_image\" = \"\";\n    };\n}"
      ],
      "first_level_comment_count" : 1,
      "cookstory" : "想吃川菜了\n配一碗泡饭\n\n莴笋和胡萝卜\n都脆脆的，素炒双脆吧\n\n橘红色和绿色的组合\n颜色很迷人\n\n初级川菜入门\n一定要学\n",
      "clicks" : "705285",
      "views_count_text" : "72.4万",
      "packages_id" : [

      ],
      "bs" : [

      ],
      "top_mdsp" : [

      ],
      "minor" : [

      ],
      "recommended" : 0,
      "ph" : 399,
      "advice" : {
        "at" : "可以预防血栓形成～",
        "has" : [
          {
            "url" : "recipes:\/\/www.douguo.com\/simplerecipelist?t=低饱和脂肪&id=低饱和脂肪",
            "t" : "低饱和脂肪"
          }
        ],
        "da" : {
          "t" : "查看详细分析",
          "url" : "https:\/\/m.douguo.com\/recipe\/nutrient_self\/2478622",
          "iu" : "https:\/\/i1.douguo.com\/upload\/banner\/f\/4\/d\/f48877e53c37759bc12ac494be82ec8d.png"
        }
      },
      "author_photo" : "http:\/\/tx1.douguo.net\/upload\/photo\/9\/4\/d\/70_u65020868733420113222.jpg",
      "recipe_tags" : [

      ],
      "rrps" : [

      ],
      "comments_count" : 2,
      "eu" : "recipes:\/\/www.douguo.com\/postdetail?id=242016",
      "ss" : [

      ],
      "rrpt" : "",
      "collect_status" : 0,
      "recommendation_tag" : "",
      "levelid" : 2,
      "old_comments" : [

      ],
      "cookstep" : [
        {
          "thumb" : "https:\/\/i1.douguo.com\/upload\/caiku\/9\/7\/1\/140_97db0e0f48ba47546b3ef01e1d0ec6f1.jpg",
          "position" : 1,
          "image_height" : 640,
          "image" : "https:\/\/i1.douguo.com\/upload\/caiku\/9\/7\/1\/97db0e0f48ba47546b3ef01e1d0ec6f1.jpg",
          "image_width" : 1280,
          "content" : "胡萝卜洗净，滚刀切块",
          "frame" : "-1"
        },
        {
          "image_width" : 800,
          "image_height" : 400,
          "thumb" : "https:\/\/i1.douguo.com\/upload\/caiku\/f\/d\/6\/140_fd6ed832f641bec2e1538b8af4b29dc6.jpg",
          "content" : "莴笋冲洗，去皮",
          "image" : "https:\/\/i1.douguo.com\/upload\/caiku\/f\/d\/6\/fd6ed832f641bec2e1538b8af4b29dc6.jpg",
          "position" : 2,
          "frame" : "-1"
        },
        {
          "frame" : "-1",
          "thumb" : "https:\/\/i1.douguo.com\/upload\/caiku\/8\/c\/6\/140_8caaf088370d950c9b28d8e40d7c88f6.jpg",
          "position" : 3,
          "content" : "滚刀切块",
          "image_width" : 800,
          "image_height" : 400,
          "image" : "https:\/\/i1.douguo.com\/upload\/caiku\/8\/c\/6\/8caaf088370d950c9b28d8e40d7c88f6.jpg"
        },
        {
          "thumb" : "https:\/\/i1.douguo.com\/upload\/caiku\/1\/8\/2\/140_18b26f00bdb872878f0e966beaadf8b2.jpg",
          "frame" : "-1",
          "image" : "https:\/\/i1.douguo.com\/upload\/caiku\/1\/8\/2\/18b26f00bdb872878f0e966beaadf8b2.jpg",
          "position" : 4,
          "image_height" : 640,
          "content" : "小葱，切末，葱绿，葱白分开放\n正宗川菜，是不放小葱的",
          "image_width" : 1280
        },
        {
          "image_width" : 1280,
          "image" : "https:\/\/i1.douguo.com\/upload\/caiku\/4\/a\/7\/4af93d8f295e2053b1fd85681670b0e7.jpg",
          "image_height" : 640,
          "frame" : "-1",
          "thumb" : "https:\/\/i1.douguo.com\/upload\/caiku\/4\/a\/7\/140_4af93d8f295e2053b1fd85681670b0e7.jpg",
          "content" : "蒜末，葱花，葱白，红花椒，青花椒(漏集合)，子弹头干辣椒，桂皮，八角，白豆蔻",
          "position" : 5
        },
        {
          "thumb" : "https:\/\/i1.douguo.com\/upload\/caiku\/2\/a\/8\/140_2a61b03d2071a725f4cf847a54538608.jpg",
          "content" : "这些香料，如果觉得脏，冲洗一下，用厨房纸吸干水分哦。辣椒剪成3段",
          "image_width" : 1280,
          "image" : "https:\/\/i1.douguo.com\/upload\/caiku\/2\/a\/8\/2a61b03d2071a725f4cf847a54538608.jpg",
          "position" : 6,
          "frame" : "-1",
          "image_height" : 640
        },
        {
          "image" : "https:\/\/i1.douguo.com\/upload\/caiku\/6\/9\/9\/69360e9ded10f667247050eda087f679.jpg",
          "position" : 7,
          "image_width" : 1280,
          "frame" : "-1",
          "content" : "热锅热油，油要多一点点，最起码40ml，熬出川味油",
          "image_height" : 640,
          "thumb" : "https:\/\/i1.douguo.com\/upload\/caiku\/6\/9\/9\/140_69360e9ded10f667247050eda087f679.jpg"
        },
        {
          "frame" : "-1",
          "image" : "https:\/\/i1.douguo.com\/upload\/caiku\/c\/0\/f\/c010af15e2f75be7d6f08a799f8f4c9f.jpg",
          "content" : "中火，先放入红花椒，慢慢熬出麻麻的花椒香味",
          "position" : 8,
          "image_width" : 1280,
          "image_height" : 640,
          "thumb" : "https:\/\/i1.douguo.com\/upload\/caiku\/c\/0\/f\/140_c010af15e2f75be7d6f08a799f8f4c9f.jpg"
        },
        {
          "frame" : "-1",
          "thumb" : "https:\/\/i1.douguo.com\/upload\/caiku\/e\/4\/5\/140_e49459d1bd9583d036fc60ad28a667f5.jpg",
          "content" : "放入一半的干辣椒️段(省下的辣椒️后面用)，熬出辣味,决定麻辣的基调",
          "position" : 9,
          "image_height" : 640,
          "image_width" : 1280,
          "image" : "https:\/\/i1.douguo.com\/upload\/caiku\/e\/4\/5\/e49459d1bd9583d036fc60ad28a667f5.jpg"
        },
        {
          "frame" : "-1",
          "position" : 10,
          "thumb" : "https:\/\/i1.douguo.com\/upload\/caiku\/b\/a\/8\/140_ba8fa210447a31e37b3045b786872908.jpg",
          "image_height" : 640,
          "content" : "放一些青花椒，提香，不放也可以。",
          "image_width" : 1280,
          "image" : "https:\/\/i1.douguo.com\/upload\/caiku\/b\/a\/8\/ba8fa210447a31e37b3045b786872908.jpg"
        },
        {
          "image_width" : 1280,
          "thumb" : "https:\/\/i1.douguo.com\/upload\/caiku\/7\/7\/e\/140_778f508b368075c08c9b05c0e3da254e.jpg",
          "frame" : "-1",
          "position" : 11,
          "image" : "https:\/\/i1.douguo.com\/upload\/caiku\/7\/7\/e\/778f508b368075c08c9b05c0e3da254e.jpg",
          "content" : "捞出花椒和辣椒，以免煎过头，发黑发苦",
          "image_height" : 640
        },
        {
          "thumb" : "https:\/\/i1.douguo.com\/upload\/caiku\/7\/f\/3\/140_7f9a31ace79b69197fda4c9955397123.jpg",
          "image_height" : 400,
          "frame" : "-1",
          "content" : "放在一边，最后可以放回菜肴里，一起上桌，也可以不放。",
          "image_width" : 800,
          "position" : 12,
          "image" : "https:\/\/i1.douguo.com\/upload\/caiku\/7\/f\/3\/7f9a31ace79b69197fda4c9955397123.jpg"
        },
        {
          "image" : "https:\/\/i1.douguo.com\/upload\/caiku\/e\/1\/f\/e1e5bd8878c7133d8216906fd3753ddf.jpg",
          "thumb" : "https:\/\/i1.douguo.com\/upload\/caiku\/e\/1\/f\/140_e1e5bd8878c7133d8216906fd3753ddf.jpg",
          "content" : "麻辣油里，放入蒜和葱，煸香",
          "image_height" : 640,
          "position" : 13,
          "image_width" : 1280,
          "frame" : "-1"
        },
        {
          "frame" : "-1",
          "position" : 14,
          "image_height" : 640,
          "content" : "放入八角，桂皮，白豆蔻",
          "image" : "https:\/\/i1.douguo.com\/upload\/caiku\/1\/a\/c\/1a1965ab9d34a5023c0a58a2be86ad4c.jpg",
          "image_width" : 1280,
          "thumb" : "https:\/\/i1.douguo.com\/upload\/caiku\/1\/a\/c\/140_1a1965ab9d34a5023c0a58a2be86ad4c.jpg"
        },
        {
          "frame" : "-1",
          "thumb" : "https:\/\/i1.douguo.com\/upload\/caiku\/d\/d\/4\/140_dd3b43540b3ec2dd22ea6afbc343b834.jpg",
          "image" : "https:\/\/i1.douguo.com\/upload\/caiku\/d\/d\/4\/dd3b43540b3ec2dd22ea6afbc343b834.jpg",
          "image_width" : 912,
          "content" : "蒜变金蒜时，ok了",
          "position" : 15,
          "image_height" : 1824
        },
        {
          "thumb" : "https:\/\/i1.douguo.com\/upload\/caiku\/1\/3\/f\/140_13fe7d8ad890cc77a4800c2fdf8e905f.jpg",
          "content" : "开大火，放入胡萝卜，快炒",
          "image_width" : 800,
          "position" : 16,
          "image_height" : 400,
          "image" : "https:\/\/i1.douguo.com\/upload\/caiku\/1\/3\/f\/13fe7d8ad890cc77a4800c2fdf8e905f.jpg",
          "frame" : "-1"
        },
        {
          "image_width" : 912,
          "image_height" : 1824,
          "frame" : "-1",
          "thumb" : "https:\/\/i1.douguo.com\/upload\/caiku\/5\/b\/b\/140_5bbfea76c709adf0cb09de4297ae580b.jpg",
          "position" : 17,
          "content" : "放入莴笋，好艳丽的组合 翻炒",
          "image" : "https:\/\/i1.douguo.com\/upload\/caiku\/5\/b\/b\/5bbfea76c709adf0cb09de4297ae580b.jpg"
        },
        {
          "thumb" : "https:\/\/i1.douguo.com\/upload\/caiku\/1\/6\/b\/140_16df05f06458cec8e68db47892244ecb.jpg",
          "frame" : "-1",
          "position" : 18,
          "image_height" : 640,
          "image" : "https:\/\/i1.douguo.com\/upload\/caiku\/1\/6\/b\/16df05f06458cec8e68db47892244ecb.jpg",
          "image_width" : 1280,
          "content" : "放生抽2大匙30ml"
        },
        {
          "image" : "https:\/\/i1.douguo.com\/upload\/caiku\/8\/b\/9\/8b4b4922a047f921feafa388a5c167c9.jpg",
          "image_width" : 800,
          "frame" : "-1",
          "image_height" : 400,
          "thumb" : "https:\/\/i1.douguo.com\/upload\/caiku\/8\/b\/9\/140_8b4b4922a047f921feafa388a5c167c9.jpg",
          "content" : "放入另一半干辣椒️",
          "position" : 19
        },
        {
          "frame" : "-1",
          "position" : 20,
          "image" : "https:\/\/i1.douguo.com\/upload\/caiku\/d\/9\/4\/d9bd40fdafdd64f4aeea40bf3a1dc364.jpg",
          "content" : "放入蚝油15ml，翻炒",
          "thumb" : "https:\/\/i1.douguo.com\/upload\/caiku\/d\/9\/4\/140_d9bd40fdafdd64f4aeea40bf3a1dc364.jpg",
          "image_height" : 400,
          "image_width" : 800
        },
        {
          "position" : 21,
          "thumb" : "https:\/\/i1.douguo.com\/upload\/caiku\/8\/4\/e\/140_8490eab9afdb7236eed5781b0d6ce7ee.jpg",
          "content" : "放入白砂糖2小匙，撒些葱花，关火，炒匀\n正宗川菜，这一步会放入之前煎过得辣椒和花椒，我怕咬到花椒粒，就不放了",
          "image" : "https:\/\/i1.douguo.com\/upload\/caiku\/8\/4\/e\/8490eab9afdb7236eed5781b0d6ce7ee.jpg",
          "image_width" : 1280,
          "image_height" : 640,
          "frame" : "-1"
        },
        {
          "position" : 22,
          "image_height" : 640,
          "image" : "https:\/\/i1.douguo.com\/upload\/caiku\/c\/d\/6\/cd2c02bb283924fb3601dfe0459ecc16.jpg",
          "image_width" : 1280,
          "content" : "盛出，拍照",
          "thumb" : "https:\/\/i1.douguo.com\/upload\/caiku\/c\/d\/6\/140_cd2c02bb283924fb3601dfe0459ecc16.jpg",
          "frame" : "-1"
        },
        {
          "image_height" : 853,
          "content" : "太香了\n这种家常川菜做法，值得学习和记忆\n适合很多食材这样做",
          "thumb" : "https:\/\/i1.douguo.com\/upload\/caiku\/7\/7\/d\/140_779ea92946122b1ec99a02b7cc0254fd.jpg",
          "position" : 23,
          "frame" : "-1",
          "image" : "https:\/\/i1.douguo.com\/upload\/caiku\/7\/7\/d\/779ea92946122b1ec99a02b7cc0254fd.jpg",
          "image_width" : 1280
        }
      ],
      "hq" : 1,
      "vc" : "724051",
      "tags" : [

      ],
      "rsm" : "该功能暂停使用",
      "thumb_height" : 0,
      "ipurl" : "",
      "rdsps" : [

      ],
      "brand_day_dsp" : [

      ],
      "recent_comments" : [

      ],
      "notes" : [

      ],
      "su" : "",
      "author_verified" : 1,
      "v_u" : "",
      "author" : "蜜桃爱营养师私厨",
      "release_time" : "",
      "cook_id" : "2478622",
      "pw" : 600,
      "photo_path" : "https:\/\/i1.douguo.com\/upload\/caiku\/d\/e\/f\/600_de419bf99ac1e44f5f5f0b0f59c2795f.jpg",
      "mid_mdsp" : [

      ],
      "rcs" : [

      ],
      "dish_count_text" : "4",
      "ipt" : "",
      "rips" : 0,
      "btm_dsp" : [

      ],
      "ecs" : 1,
      "image" : "http:\/\/i1.douguo.net\/upload\/caiku\/d\/e\/f\/300_de419bf99ac1e44f5f5f0b0f59c2795f.jpg",
      "major" : [
        {
          "tu" : "https:\/\/m.douguo.com\/ingredients\/莴笋\/detailmaterial",
          "title" : "莴笋",
          "note" : "≈300g"
        },
        {
          "title" : "胡萝卜",
          "note" : "2小根≈150g",
          "tu" : "https:\/\/m.douguo.com\/ingredients\/胡萝卜\/detailmaterial"
        },
        {
          "title" : "大蒜头",
          "note" : "1个"
        },
        {
          "note" : "2根",
          "title" : "小葱(正宗川菜不放葱)"
        },
        {
          "note" : "7-8个",
          "title" : "干辣椒",
          "tu" : "https:\/\/m.douguo.com\/ingredients\/干辣椒\/detailmaterial"
        },
        {
          "note" : "50粒左右",
          "title" : "红花椒"
        },
        {
          "title" : "青花椒",
          "note" : "40粒左右"
        },
        {
          "note" : "1个",
          "title" : "八角",
          "tu" : "https:\/\/m.douguo.com\/ingredients\/八角\/detailmaterial"
        },
        {
          "note" : "2粒",
          "title" : "白豆蔻"
        },
        {
          "title" : "桂皮",
          "note" : "1小瓣",
          "tu" : "https:\/\/m.douguo.com\/ingredients\/桂皮\/detailmaterial"
        },
        {
          "tu" : "https:\/\/m.douguo.com\/ingredients\/油\/detailmaterial",
          "title" : "油",
          "note" : "适量"
        },
        {
          "note" : "适量",
          "tu" : "https:\/\/m.douguo.com\/ingredients\/生抽\/detailmaterial",
          "title" : "生抽"
        },
        {
          "title" : "蚝油",
          "note" : "适量",
          "tu" : "https:\/\/m.douguo.com\/ingredients\/蚝油\/detailmaterial"
        },
        {
          "tu" : "https:\/\/m.douguo.com\/ingredients\/白砂糖\/detailmaterial",
          "title" : "白砂糖",
          "note" : "2小匙"
        }
      ],
      "title_ad" : [

      ],
      "title" : "居然没有肉肉【素炒双萃【❤️川菜】素食莴笋胡萝卜蜜桃爱营养师",
      "display_ingredient" : 1,
      "vfurl" : "",
      "rate_count" : 2,
      "rate_show" : 0,
      "sr" : "",
      "cook_difficulty_image" : "https:\/\/i1.douguo.com\/upload\/banner\/1551424413.png",
      "user" : {
        "birthday" : "",
        "recipes_count" : 0,
        "nick" : "蜜桃爱营养师私厨",
        "progress_image" : "",
        "verified_url" : "https:\/\/m.douguo.com\/user\/prodesc",
        "user_photo" : "http:\/\/tx1.douguo.net\/upload\/photo\/9\/4\/d\/70_u65020868733420113222.jpg",
        "qq_weibo_nick" : "",
        "favor_diaries_count" : 0,
        "user_id" : "17616733",
        "user_large_photo" : "http:\/\/tx1.douguo.net\/upload\/photo\/9\/4\/d\/yuan_u65020868733420113222.jpg",
        "verified_image" : "https:\/\/i1.douguo.com\/upload\/note\/d\/a\/a\/da84247847aebe48d9dd0fcdac88862a.png",
        "qzone_nick" : "",
        "is_prime" : 0,
        "point" : 0,
        "dishes_count" : 0,
        "setted_email" : 0,
        "user_cover" : "",
        "following_count" : 0,
        "followers_count" : 0,
        "verified" : 1,
        "email" : "",
        "gender" : 2,
        "sign" : "",
        "subscription" : 0,
        "avatar_medium" : "http:\/\/tx1.douguo.net\/upload\/photo\/9\/4\/d\/140_u65020868733420113222.jpg",
        "coursecount" : 0,
        "pc" : 0,
        "favorites_count" : 0,
        "diaries_count" : 0,
        "fc" : 0,
        "lv" : 0,
        "userid" : "17616733",
        "mobile" : "",
        "weibo_nick" : "",
        "subscription_article_count" : 0,
        "age" : "",
        "location" : 0,
        "lvl" : 6,
        "introduction" : "",
        "regist_time" : ""
      },
      "favo_counts" : 3717,
      "recipe_list_tags" : [
        {
          "text_color" : "#141515",
          "background_end_color" : "#F4F5F5",
          "right_image" : "",
          "text" : "关注的人",
          "background_start_color" : "#F4F5F5",
          "background_border_color" : "",
          "jump_url" : ""
        },
        {
          "background_start_color" : "#F4F5F5",
          "jump_url" : "",
          "text_color" : "#141515",
          "right_image" : "",
          "background_end_color" : "#F4F5F5",
          "text" : "内容详细",
          "background_border_color" : ""
        }
      ],
      "original_photo_path" : "http:\/\/i1.douguo.net\/upload\/caiku\/d\/e\/f\/yuan_de419bf99ac1e44f5f5f0b0f59c2795f.jpg",
      "hqu" : "recipes:\/\/www.douguo.com\/notedetail?id=21162253",
      "recommend_label" : "4人学做",
      "related_ads" : [

      ],
      "act_des" : "",
      "vu" : "",
      "tips" : "学会这种川菜做法\n适合很多食材，都这么做\n很好吃\n多吃素，少吃荤，\n素食也可以很好吃",
      "cook_time_image" : "https:\/\/i1.douguo.com\/upload\/banner\/1551424358.png",
      "rpt" : "",
      "guide_image" : "",
      "rpst" : "",
      "ipit" : 0,
      "story_dsp" : [

      ],
      "create_time" : "2020-05-02 03:48:26",
      "share_info" : {
        "qr_image" : "",
        "infos" : [
          {
            "qr_image" : "",
            "image" : "https:\/\/cp1.douguo.com\/upload\/caiku\/d\/e\/f\/de419bf99ac1e44f5f5f0b0f59c2795f.jpg",
            "s_d" : "#学做饭用豆果美食# 会做饭好酷啊！我在@豆果美食 分享了【居然没有肉肉【素炒双萃【❤️川菜】素食莴笋胡萝卜蜜桃爱营养师-会做饭很酷!】，今天也是厨艺满满的一天呢，快来和我一起学做美食吧！查看图片了解菜谱（更多美食秘籍点击https:\/\/m.weibo.cn\/p\/100404i33631获取）",
            "mini_program" : [

            ],
            "s_u" : "",
            "name" : "居然没有肉肉【素炒双萃【❤️川菜】素食莴笋胡萝卜蜜桃爱营养师-会做饭很酷!",
            "channel" : "1",
            "object_id" : "2478622"
          },
          {
            "mini_program" : [

            ],
            "image" : "https:\/\/cp1.douguo.com\/upload\/caiku\/d\/e\/f\/de419bf99ac1e44f5f5f0b0f59c2795f.jpg",
            "s_u" : "http:\/\/m.douguo.com\/cookbook\/2478622.html",
            "channel" : "7",
            "qr_image" : "",
            "s_d" : "居然没有肉肉【素炒双萃【❤️川菜】素食莴笋胡萝卜蜜桃爱营养师-会做饭很酷!",
            "name" : "居然没有肉肉【素炒双萃【❤️川菜】素食莴笋胡萝卜蜜桃爱营养师-会做饭很酷!",
            "object_id" : "2478622"
          },
          {
            "qr_image" : "",
            "channel" : "8",
            "s_u" : "http:\/\/m.douguo.com\/cookbook\/2478622.html",
            "mini_program" : [

            ],
            "image" : "https:\/\/cp1.douguo.com\/upload\/caiku\/d\/e\/f\/de419bf99ac1e44f5f5f0b0f59c2795f.jpg",
            "s_d" : "居然没有肉肉【素炒双萃【❤️川菜】素食莴笋胡萝卜蜜桃爱营养师-会做饭很酷!",
            "object_id" : "2478622",
            "name" : "居然没有肉肉【素炒双萃【❤️川菜】素食莴笋胡萝卜蜜桃爱营养师-会做饭很酷!"
          }
        ],
        "name" : "居然没有肉肉【素炒双萃【❤️川菜】素食莴笋胡萝卜蜜桃爱营养师-会做饭很酷!",
        "mini_program" : [

        ],
        "s_u" : "http:\/\/m.douguo.com\/cookbook\/2478622.html",
        "object_id" : "2478622",
        "image" : "https:\/\/cp1.douguo.com\/upload\/caiku\/d\/e\/f\/de419bf99ac1e44f5f5f0b0f59c2795f.jpg",
        "s_d" : "居然没有肉肉【素炒双萃【❤️川菜】素食莴笋胡萝卜蜜桃爱营养师-会做饭很酷!"
      },
      "cook_time" : "10分钟左右",
      "cookstorys" : [
        {
          "color" : "",
          "u" : "",
          "type" : 0,
          "id" : 0,
          "icon" : "",
          "c" : "想吃川菜了\n配一碗泡饭\n\n莴笋和胡萝卜\n都脆脆的，素炒双脆吧\n\n橘红色和绿色的组合\n颜色很迷人\n\n初级川菜入门\n一定要学\n"
        }
      ],
      "dish_count" : 4,
      "rewarded_video_dsp" : [

      ],
      "dishes" : [

      ],
      "rate" : 5,
      "favo_counts_text" : "3717",
      "ssu" : "",
      "thumb_path" : "https:\/\/i1.douguo.com\/upload\/caiku\/d\/e\/f\/300_de419bf99ac1e44f5f5f0b0f59c2795f.jpg",
      "comments_count_text" : "2",
      "cook_difficulty" : "配菜(中级)",
      "ipia" : [

      ],
      "ipci" : "",
      "ipoi" : "",
      "author_id" : 17616733
    }
  },
  "status" : 0,
  "state" : "success"
}