{
  "state" : "success",
  "status" : 0,
  "result" : {
    "recipe" : {
      "cook_difficulty_image" : "",
      "author_id" : 7337057,
      "rewarded_video_dsp" : [

      ],
      "eu" : "recipes:\/\/www.douguo.com\/postdetail?id=242016",
      "btm_dsp" : [

      ],
      "cook_id" : "1511158",
      "author" : "泥鳅的美食厨房",
      "comments" : [
        "{\n    ac = \"#999999\";\n    at = \"\";\n    ccc = 2;\n    \"child_comments\" =     (\n                {\n            ac = \"#999999\";\n            at = \"\\U5929\\U6d25\\U5e02\";\n            ccc = 0;\n            city = \"\\U5929\\U6d25\\U5e02\";\n            cmc = 2;\n            content =             (\n                                {\n                    c = \" \\U918b\\U4e2d\\U548c\\U8fa3\\U5473\";\n                }\n            );\n            ia = 0;\n            id = 6786253;\n            \"ip_address_location\" = \"\";\n            like = 0;\n            \"like_count\" = 0;\n            \"reply_id\" = 6661464;\n            \"reply_user\" =             {\n                \"followers_count_text\" = \"\";\n                id = 23780787;\n                \"is_prime\" = 0;\n                lv = 0;\n                lvl = 1;\n                n = \"\\U5929\\U5b98\\U70e7\\U83dc\";\n                p = \"http:\/\/tx1.douguo.net\/upload\/photo\/2\/c\/c\/70_u56957353189749004107.jpg\";\n                \"progress_image\" = \"\";\n                \"recipes_count_text\" = \"\";\n                relationship = \"-1\";\n                title = \"\";\n                v = 0;\n                \"verified_image\" = \"\";\n            };\n            \"sticker_icon\" =             (\n            );\n            time = \"2019-07-17 18:50:52\";\n            u =             {\n                \"followers_count_text\" = \"\";\n                id = 23194495;\n                \"is_prime\" = 0;\n                lv = 0;\n                lvl = 1;\n                n = \"\\U8c46\\U7c89265836\";\n                p = \"\";\n                \"progress_image\" = \"\";\n                \"recipes_count_text\" = \"\";\n                relationship = \"-1\";\n                title = \"\";\n                v = 0;\n                \"verified_image\" = \"\";\n            };\n        },\n                {\n            ac = \"#999999\";\n            at = \"\";\n            ccc = 0;\n            city = \"\";\n            cmc = 2;\n            content =             (\n                                {\n                    c = \" \\U8c22\\U8c22\\U4f60\\U7684\\U70b9\\U62e8\\Ud83d\\Ude03\";\n                }\n            );\n            ia = 0;\n            id = 6835287;\n            \"ip_address_location\" = \"\";\n            like = 0;\n            \"like_count\" = 0;\n            \"reply_id\" = 6786253;\n            \"reply_user\" =             {\n                \"followers_count_text\" = \"\";\n                id = 23194495;\n                \"is_prime\" = 0;\n                lv = 0;\n                lvl = 1;\n                n = \"\\U8c46\\U7c89265836\";\n                p = \"\";\n                \"progress_image\" = \"\";\n                \"recipes_count_text\" = \"\";\n                relationship = \"-1\";\n                title = \"\";\n                v = 0;\n                \"verified_image\" = \"\";\n            };\n            \"sticker_icon\" =             (\n            );\n            time = \"2019-07-29 18:40:25\";\n            u =             {\n                \"followers_count_text\" = \"\";\n                id = 23780787;\n                \"is_prime\" = 0;\n                lv = 0;\n                lvl = 1;\n                n = \"\\U5929\\U5b98\\U70e7\\U83dc\";\n                p = \"http:\/\/tx1.douguo.net\/upload\/photo\/2\/c\/c\/70_u56957353189749004107.jpg\";\n                \"progress_image\" = \"\";\n                \"recipes_count_text\" = \"\";\n                relationship = \"-1\";\n                title = \"\";\n                v = 0;\n                \"verified_image\" = \"\";\n            };\n        }\n    );\n    city = \"\";\n    cmc = 2;\n    content =     (\n                {\n            c = \"\\U4e3a\\U4ec0\\U4e48\\U90fd\\U8981\\U52a0\\U918b\\U554a\\Uff1f\\U918b\\U8d77\\U5230\\U4ec0\\U4e48\\U4f5c\\U7528\\U554a\\Uff1f\";\n        }\n    );\n    ia = 0;\n    id = 6661464;\n    \"ip_address_location\" = \"\";\n    like = 0;\n    \"like_count\" = 8;\n    \"reply_id\" = 0;\n    \"sticker_icon\" =     (\n    );\n    time = \"2019-06-13 19:57:21\";\n    u =     {\n        \"followers_count_text\" = \"\";\n        id = 23780787;\n        \"is_prime\" = 0;\n        lv = 0;\n        lvl = 1;\n        n = \"\\U5929\\U5b98\\U70e7\\U83dc\";\n        p = \"http:\/\/tx1.douguo.net\/upload\/photo\/2\/c\/c\/70_u56957353189749004107.jpg\";\n        \"progress_image\" = \"\";\n        \"recipes_count_text\" = \"\";\n        relationship = \"-1\";\n        title = \"\";\n        v = 0;\n        \"verified_image\" = \"\";\n    };\n}",
        "{\n    ac = \"#999999\";\n    at = \"\\U5927\\U8fde\\U5e02\";\n    ccc = 5;\n    \"child_comments\" =     (\n                {\n            ac = \"#999999\";\n            at = \"\";\n            ccc = 0;\n            city = \"\";\n            cmc = 2;\n            content =             (\n                                {\n                    c = \" \\U9648\\U918b\\U7c73\\U918b\\U90fd\\U53ef\\U4ee5\\Uff0c\\U522b\\U662f\\U767d\\U918b\\U5c31\\U6210\\Uff0c\\U4f60\\U7092\\U6bd4\\U5982\\U8bf4\\U9178\\U8fa3\\U571f\\U8c46\\U4e1d\\Uff0c\\U6216\\U8005\\U8c03\\U4e2a\\U83b2\\U83dc\\U90a3\\U80af\\U5b9a\\U90fd\\U662f\\U8981\\U767d\\U918b\\U7684\";\n                }\n            );\n            ia = 0;\n            id = 7572755;\n            \"ip_address_location\" = \"\";\n            like = 0;\n            \"like_count\" = 0;\n            \"reply_id\" = 7519063;\n            \"reply_user\" =             {\n                \"followers_count_text\" = \"\";\n                id = 9575799;\n                \"is_prime\" = 0;\n                lv = 0;\n                lvl = 3;\n                n = \"\\U5450\\U558a\\U7684\\U5c0f\\U866b\";\n                p = \"http:\/\/tx1.douguo.net\/upload\/photo\/d\/6\/6\/70_u32567111991502082934.jpg\";\n                \"progress_image\" = \"\";\n                \"recipes_count_text\" = \"\";\n                relationship = \"-1\";\n                title = \"\";\n                v = 0;\n                \"verified_image\" = \"\";\n            };\n            \"sticker_icon\" =             (\n            );\n            time = \"2020-02-01 10:42:15\";\n            u =             {\n                \"followers_count_text\" = \"\";\n                id = 23344694;\n                \"is_prime\" = 0;\n                lv = 0;\n                lvl = 1;\n                n = \"\\U3002\\U3002sfta\";\n                p = \"\";\n                \"progress_image\" = \"\";\n                \"recipes_count_text\" = \"\";\n                relationship = \"-1\";\n                title = \"\";\n                v = 0;\n                \"verified_image\" = \"\";\n            };\n        },\n                {\n            ac = \"#999999\";\n            at = \"\\U5b81\\U6ce2\\U5e02\";\n            ccc = 0;\n            city = \"\\U5b81\\U6ce2\\U5e02\";\n            cmc = 2;\n            content =             (\n                                {\n                    c = \" \\U767d\\U918b\\U4e3a\\U5565\\U4e0d\\U884c\\U5462\";\n                }\n            );\n            ia = 0;\n            id = 8281114;\n            \"ip_address_location\" = \"\";\n            like = 0;\n            \"like_count\" = 0;\n            \"reply_id\" = 7572755;\n            \"reply_user\" =             {\n                \"followers_count_text\" = \"\";\n                id = 23344694;\n                \"is_prime\" = 0;\n                lv = 0;\n                lvl = 1;\n                n = \"\\U3002\\U3002sfta\";\n                p = \"\";\n                \"progress_image\" = \"\";\n                \"recipes_count_text\" = \"\";\n                relationship = \"-1\";\n                title = \"\";\n                v = 0;\n                \"verified_image\" = \"\";\n            };\n            \"sticker_icon\" =             (\n            );\n            time = \"2020-10-08 19:07:23\";\n            u =             {\n                \"followers_count_text\" = \"\";\n                id = 11603984;\n                \"is_prime\" = 0;\n                lv = 0;\n                lvl = 2;\n                n = \"\\U963f\\U6bdb\\U7684\\U5c0f\\U7535\\U9a74\";\n                p = \"http:\/\/tx1.douguo.net\/upload\/photo\/6\/3\/c\/70_u44125954476967211234.jpg\";\n                \"progress_image\" = \"\";\n                \"recipes_count_text\" = \"\";\n                relationship = \"-1\";\n                title = \"\";\n                v = 0;\n                \"verified_image\" = \"\";\n            };\n        }\n    );\n    city = \"\\U5927\\U8fde\\U5e02\";\n    cmc = 2;\n    content =     (\n                {\n            c = \"\\U4ec0\\U4e48\\U918b\\Uff1f\\U7c73\\U918b\\Uff1f\\U9648\\U918b\\Uff1f\\U767d\\U918b\\Uff1f\";\n        }\n    );\n    ia = 0;\n    id = 7519063;\n    \"ip_address_location\" = \"\";\n    like = 0;\n    \"like_count\" = 7;\n    \"reply_id\" = 0;\n    \"sticker_icon\" =     (\n    );\n    time = \"2020-01-07 18:14:03\";\n    u =     {\n        \"followers_count_text\" = \"\";\n        id = 9575799;\n        \"is_prime\" = 0;\n        lv = 0;\n        lvl = 3;\n        n = \"\\U5450\\U558a\\U7684\\U5c0f\\U866b\";\n        p = \"http:\/\/tx1.douguo.net\/upload\/photo\/d\/6\/6\/70_u32567111991502082934.jpg\";\n        \"progress_image\" = \"\";\n        \"recipes_count_text\" = \"\";\n        relationship = \"-1\";\n        title = \"\";\n        v = 0;\n        \"verified_image\" = \"\";\n    };\n}",
        "{\n    ac = \"#999999\";\n    at = \"\\U4fdd\\U5b9a\\U5e02\";\n    ccc = 2;\n    \"child_comments\" =     (\n                {\n            ac = \"#999999\";\n            at = \"\\U4fdd\\U5b9a\\U5e02\";\n            ccc = 0;\n            city = \"\\U4fdd\\U5b9a\\U5e02\";\n            cmc = 2;\n            content =             (\n                                {\n                    c = \" \\U653e\\U591a\\U4e86\\U5c31\\U6210\\U70b8\\U4e86 \\U5144\\U5f1f\";\n                }\n            );\n            ia = 0;\n            id = 8940833;\n            \"ip_address_location\" = \"\";\n            like = 0;\n            \"like_count\" = 0;\n            \"reply_id\" = 8730901;\n            \"reply_user\" =             {\n                \"followers_count_text\" = \"\";\n                id = 26782544;\n                \"is_prime\" = 0;\n                lv = 0;\n                lvl = 1;\n                n = \"\\U5c0f\\U67abtmwx\";\n                p = \"http:\/\/tx1.douguo.net\/upload\/photo\/8\/1\/d\/70_u25821384396597183826.jpg\";\n                \"progress_image\" = \"\";\n                \"recipes_count_text\" = \"\";\n                relationship = \"-1\";\n                title = \"\";\n                v = 0;\n                \"verified_image\" = \"\";\n            };\n            \"sticker_icon\" =             (\n            );\n            time = \"2022-05-12 00:40:43\";\n            u =             {\n                \"followers_count_text\" = \"\";\n                id = 25585792;\n                \"is_prime\" = 0;\n                lv = 0;\n                lvl = 1;\n                n = \"\\U8e09\\U8dc4\\U7684\\U84b2\\U516c\\U82f1\\U53f6\";\n                p = \"http:\/\/tx1.douguo.net\/upload\/photo\/1\/1\/1\/70_5ef4441f687d47f348f17b4b7a982c15.png\";\n                \"progress_image\" = \"\";\n                \"recipes_count_text\" = \"\";\n                relationship = \"-1\";\n                title = \"\";\n                v = 0;\n                \"verified_image\" = \"\";\n            };\n        },\n                {\n            ac = \"#999999\";\n            at = \"\";\n            ccc = 0;\n            city = \"\";\n            cmc = 2;\n            content =             (\n                                {\n                    c = \" \\U6ca1\\U6709\\U5f88\\U591a\\U6cb9 \\U8fa3\\U6912\\U8981\\U538b\";\n                }\n            );\n            ia = 0;\n            id = 8953177;\n            \"ip_address_location\" = \"\";\n            like = 0;\n            \"like_count\" = 0;\n            \"reply_id\" = 8730901;\n            \"reply_user\" =             {\n                \"followers_count_text\" = \"\";\n                id = 26782544;\n                \"is_prime\" = 0;\n                lv = 0;\n                lvl = 1;\n                n = \"\\U5c0f\\U67abtmwx\";\n                p = \"http:\/\/tx1.douguo.net\/upload\/photo\/8\/1\/d\/70_u25821384396597183826.jpg\";\n                \"progress_image\" = \"\";\n                \"recipes_count_text\" = \"\";\n                relationship = \"-1\";\n                title = \"\";\n                v = 0;\n                \"verified_image\" = \"\";\n            };\n            \"sticker_icon\" =             (\n            );\n            time = \"2022-07-02 22:00:17\";\n            u =             {\n                \"followers_count_text\" = \"\";\n                id = 2372000;\n                \"is_prime\" = 0;\n                lv = 0;\n                lvl = 5;\n                n = Dorothym;\n                p = \"http:\/\/tx1.douguo.net\/upload\/photo\/9\/f\/d\/70_9f3eb389dcdcaf949b785ea05a21a3ed.jpeg\";\n                \"progress_image\" = \"\";\n                \"recipes_count_text\" = \"\";\n                relationship = \"-1\";\n                title = \"\";\n                v = 0;\n                \"verified_image\" = \"\";\n            };\n        }\n    );\n    city = \"\\U4fdd\\U5b9a\\U5e02\";\n    cmc = 2;\n    content =     (\n                {\n            c = \"\\U714e\\U7684\\U65f6\\U5019\\U8981\\U653e\\U5f88\\U591a\\U6cb9\\U5427\";\n        }\n    );\n    ia = 0;\n    id = 8730901;\n    \"ip_address_location\" = \"\";\n    like = 0;\n    \"like_count\" = 0;\n    \"reply_id\" = 0;\n    \"sticker_icon\" =     (\n    );\n    time = \"2021-07-09 18:45:38\";\n    u =     {\n        \"followers_count_text\" = \"\";\n        id = 26782544;\n        \"is_prime\" = 0;\n        lv = 0;\n        lvl = 1;\n        n = \"\\U5c0f\\U67abtmwx\";\n        p = \"http:\/\/tx1.douguo.net\/upload\/photo\/8\/1\/d\/70_u25821384396597183826.jpg\";\n        \"progress_image\" = \"\";\n        \"recipes_count_text\" = \"\";\n        relationship = \"-1\";\n        title = \"\";\n        v = 0;\n        \"verified_image\" = \"\";\n    };\n}"
      ],
      "hqu" : "recipes:\/\/www.douguo.com\/notedetail?id=21162253",
      "tags" : [

      ],
      "share_info" : {
        "mini_program" : [

        ],
        "s_u" : "http:\/\/m.douguo.com\/cookbook\/1511158.html",
        "qr_image" : "",
        "s_d" : "虎皮尖椒-会做饭很酷!",
        "object_id" : "1511158",
        "image" : "https:\/\/cp1.douguo.com\/upload\/caiku\/5\/0\/d\/5080ccc49de634d86cb66807911ec5fd.jpg",
        "infos" : [
          {
            "s_u" : "",
            "image" : "https:\/\/cp1.douguo.com\/upload\/caiku\/5\/0\/d\/5080ccc49de634d86cb66807911ec5fd.jpg",
            "qr_image" : "",
            "channel" : "1",
            "mini_program" : [

            ],
            "name" : "虎皮尖椒-会做饭很酷!",
            "s_d" : "#学做饭用豆果美食# 我在@豆果美食 分享了【虎皮尖椒-会做饭很酷!】，这菜真的很好吃，而且做法简单不难学，还不快来跟我学～查看图片了解菜谱（每天限量免费课程，想跟大师学厨艺就来这https:\/\/m.weibo.cn\/p\/100404i33631）#会做饭很酷# ",
            "object_id" : "1511158"
          },
          {
            "s_d" : "虎皮尖椒-会做饭很酷!",
            "s_u" : "http:\/\/m.douguo.com\/cookbook\/1511158.html",
            "object_id" : "1511158",
            "image" : "https:\/\/cp1.douguo.com\/upload\/caiku\/5\/0\/d\/5080ccc49de634d86cb66807911ec5fd.jpg",
            "channel" : "7",
            "name" : "虎皮尖椒-会做饭很酷!",
            "mini_program" : [

            ],
            "qr_image" : ""
          },
          {
            "mini_program" : [

            ],
            "object_id" : "1511158",
            "image" : "https:\/\/cp1.douguo.com\/upload\/caiku\/5\/0\/d\/5080ccc49de634d86cb66807911ec5fd.jpg",
            "channel" : "8",
            "qr_image" : "",
            "s_u" : "http:\/\/m.douguo.com\/cookbook\/1511158.html",
            "s_d" : "虎皮尖椒-会做饭很酷!",
            "name" : "虎皮尖椒-会做饭很酷!"
          }
        ],
        "name" : "虎皮尖椒-会做饭很酷!"
      },
      "vu" : "",
      "story_dsp" : [

      ],
      "create_time" : "2017-02-14 13:25:47",
      "release_time" : "",
      "ipurl" : "",
      "dish_count_text" : "195",
      "recommend_label" : "195人学做",
      "rcs" : [

      ],
      "cook_time" : "",
      "thumb_path" : "https:\/\/i1.douguo.com\/upload\/caiku\/5\/0\/d\/300_5080ccc49de634d86cb66807911ec5fd.jpg",
      "su" : "",
      "ipit" : 0,
      "original_photo_path" : "http:\/\/i1.douguo.net\/upload\/caiku\/5\/0\/d\/yuan_5080ccc49de634d86cb66807911ec5fd.jpg",
      "author_photo" : "http:\/\/tx1.douguo.net\/upload\/photo\/d\/0\/6\/70_u17847891532610222643.jpg",
      "rrps" : [

      ],
      "comments_count" : 56,
      "dishes" : [

      ],
      "rate" : 4,
      "title" : "虎皮尖椒",
      "act_des" : "",
      "v_u" : "",
      "vfurl" : "",
      "notes" : [

      ],
      "cookstory" : "辣椒有丰富的维生素C、叶酸、镁及钾等营养成分。一直想做虎皮尖椒这道菜，因为家中有人不太能吃辣，所以一直都没能实践。后来发现辣椒辣的程度也不同，挑选有方法。其实那些身宽体胖、个头偏大，颜色相对浅的尖椒没什么辣味。而细长、窄小、皮薄，颜色相对深的尖椒比较辣。新鲜程度也可以从辣椒表面辨别，表皮光亮，硬挺，没有裂口的才新鲜。像我们家就可以根据这些，就可以有选择性的挑选不太辣的辣椒来烹饪了。",
      "old_comments" : [

      ],
      "favo_counts_text" : "9.6万",
      "minor" : [
        "{\n    note = \"1\\U52fa\";\n    title = \"\\U751f\\U62bd\";\n    tu = \"https:\/\/https:\/\/m.douguo.com\/ingredients\/\\U751f\\U62bd\/detailmaterial\";\n}",
        "{\n    note = \"2\\U514b\";\n    title = \"\\U76d0\";\n    tu = \"https:\/\/https:\/\/m.douguo.com\/ingredients\/\\U76d0\/detailmaterial\";\n}",
        "{\n    note = \"1\\U52fa\";\n    title = \"\\U767d\\U7cd6\";\n    tu = \"https:\/\/https:\/\/m.douguo.com\/ingredients\/\\U767d\\U7cd6\/detailmaterial\";\n}",
        "{\n    note = \"2\\U52fa\";\n    title = \"\\U918b\";\n    tu = \"https:\/\/https:\/\/m.douguo.com\/ingredients\/\\U918b\/detailmaterial\";\n}",
        "{\n    note = \"\\U9002\\U91cf\";\n    title = \"\\U849c\\U672b\";\n}",
        "{\n    note = \"\\U9002\\U91cf\";\n    title = \"\\U98df\\U7528\\U6cb9\";\n    tu = \"https:\/\/https:\/\/m.douguo.com\/ingredients\/\\U98df\\U7528\\U6cb9\/detailmaterial\";\n}"
      ],
      "rpt" : "",
      "cookstorys" : [
        {
          "id" : 0,
          "c" : "辣椒有丰富的维生素C、叶酸、镁及钾等营养成分。一直想做虎皮尖椒这道菜，因为家中有人不太能吃辣，所以一直都没能实践。后来发现辣椒辣的程度也不同，挑选有方法。其实那些身宽体胖、个头偏大，颜色相对浅的尖椒没什么辣味。而细长、窄小、皮薄，颜色相对深的尖椒比较辣。新鲜程度也可以从辣椒表面辨别，表皮光亮，硬挺，没有裂口的才新鲜。像我们家就可以根据这些，就可以有选择性的挑选不太辣的辣椒来烹饪了。",
          "type" : 0,
          "color" : "",
          "u" : "",
          "icon" : ""
        }
      ],
      "ipia" : [

      ],
      "rate_show" : 1,
      "pw" : 800,
      "author_verified" : 1,
      "rpid" : 0,
      "display_ingredient" : 1,
      "title_ad" : [

      ],
      "comments_count_text" : "56",
      "related_ads" : [

      ],
      "rsm" : "该功能暂停使用",
      "clicks" : "16256181",
      "user" : {
        "user_id" : "7337057",
        "recipes_count" : 0,
        "regist_time" : "",
        "verified" : 1,
        "pc" : 0,
        "age" : "",
        "user_large_photo" : "http:\/\/tx1.douguo.net\/upload\/photo\/d\/0\/6\/yuan_u17847891532610222643.jpg",
        "lvl" : 6,
        "lv" : 0,
        "location" : 0,
        "userid" : "7337057",
        "qq_weibo_nick" : "",
        "fc" : 0,
        "introduction" : "",
        "nick" : "泥鳅的美食厨房",
        "point" : 0,
        "progress_image" : "",
        "birthday" : "",
        "coursecount" : 0,
        "setted_email" : 0,
        "mobile" : "",
        "subscription_article_count" : 0,
        "weibo_nick" : "",
        "gender" : 2,
        "following_count" : 0,
        "favorites_count" : 0,
        "diaries_count" : 0,
        "user_cover" : "",
        "qzone_nick" : "",
        "subscription" : 0,
        "verified_url" : "https:\/\/m.douguo.com\/user\/prodesc",
        "sign" : "",
        "dishes_count" : 0,
        "followers_count" : 0,
        "is_prime" : 0,
        "user_photo" : "http:\/\/tx1.douguo.net\/upload\/photo\/d\/0\/6\/70_u17847891532610222643.jpg",
        "favor_diaries_count" : 0,
        "email" : "",
        "verified_image" : "https:\/\/i1.douguo.com\/upload\/note\/d\/a\/a\/da84247847aebe48d9dd0fcdac88862a.png",
        "avatar_medium" : "http:\/\/tx1.douguo.net\/upload\/photo\/d\/0\/6\/140_u17847891532610222643.jpg"
      },
      "views_count_text" : "1716.5万",
      "favo_counts" : 95932,
      "guide_image" : "",
      "bs" : [

      ],
      "image" : "http:\/\/i1.douguo.net\/upload\/caiku\/5\/0\/d\/300_5080ccc49de634d86cb66807911ec5fd.jpg",
      "cook_difficulty" : "",
      "dish_count" : 195,
      "ssu" : "",
      "sc" : 0,
      "thumb_height" : 0,
      "mid_mdsp" : [

      ],
      "recommended" : 0,
      "photo_path" : "https:\/\/i1.douguo.com\/upload\/caiku\/5\/0\/d\/600_5080ccc49de634d86cb66807911ec5fd.jpg",
      "rpst" : "",
      "top_mdsp" : [

      ],
      "brand_day_dsp" : [

      ],
      "ph" : 535,
      "advice" : {
        "at" : "可以预防血栓形成～",
        "has" : [
          {
            "t" : "低饱和脂肪",
            "url" : "recipes:\/\/www.douguo.com\/simplerecipelist?t=低饱和脂肪&id=低饱和脂肪"
          },
          {
            "t" : "富含维生素C",
            "url" : "recipes:\/\/www.douguo.com\/simplerecipelist?t=富含维生素C&id=富含维生素C"
          }
        ],
        "da" : {
          "iu" : "https:\/\/i1.douguo.com\/upload\/banner\/f\/4\/d\/f48877e53c37759bc12ac494be82ec8d.png",
          "url" : "https:\/\/m.douguo.com\/recipe\/nutrient_self\/1511158",
          "t" : "查看详细分析"
        }
      },
      "ss" : [

      ],
      "recent_comments" : [

      ],
      "ipoi" : "",
      "ipci" : "",
      "tips" : "",
      "cook_time_image" : "",
      "levelid" : 2,
      "packages_id" : [

      ],
      "major" : [
        {
          "title" : "尖椒",
          "note" : "4根"
        }
      ],
      "recipe_list_tags" : [
        {
          "background_start_color" : "#FAE9CD",
          "text" : "荣誉殿堂",
          "background_border_color" : "",
          "text_color" : "#413C32",
          "right_image" : "https:\/\/i1.douguo.com\/upload\/caiku\/0\/a\/b\/0a317d98c713e7e7d0d47ed003f2d93b.png",
          "background_end_color" : "#F5D39F",
          "jump_url" : ""
        },
        {
          "background_end_color" : "#F4F5F5",
          "background_start_color" : "#F4F5F5",
          "text" : "关注的人",
          "jump_url" : "",
          "text_color" : "#141515",
          "right_image" : "",
          "background_border_color" : ""
        }
      ],
      "rrpt" : "",
      "rdsps" : [

      ],
      "hq" : 1,
      "rips" : 0,
      "rate_count" : 176,
      "sr" : "",
      "recipe_tags" : [
        "{\n    \"background_border_color\" = \"\";\n    \"background_end_color\" = \"#F5D39F\";\n    \"background_start_color\" = \"#FAE9CD\";\n    index = 1616;\n    \"jump_url\" = \"https:\/\/m.douguo.com\/activity\/page\/xuezuo?isapp=1&type=honor\";\n    \"right_image\" = \"https:\/\/i1.douguo.com\/upload\/caiku\/0\/a\/b\/0a317d98c713e7e7d0d47ed003f2d93b.png\";\n    text = \"\\U8363\\U8a89\\U6bbf\\U5802\";\n    \"text_color\" = \"#413C32\";\n}"
      ],
      "ecs" : 0,
      "first_level_comment_count" : 45,
      "purl" : "",
      "recommendation_tag" : "",
      "vc" : "17165252",
      "collect_status" : 0,
      "cookwares" : [

      ],
      "ipt" : "",
      "cookstep" : [
        {
          "image_width" : 1616,
          "image" : "https:\/\/i1.douguo.com\/upload\/caiku\/1\/5\/2\/15554fc6655e3e6dcf4c95610b100af2.jpg",
          "frame" : "-1",
          "content" : "尖椒洗净，切掉根蒂部。",
          "image_height" : 1080,
          "position" : 1,
          "thumb" : "https:\/\/i1.douguo.com\/upload\/caiku\/1\/5\/2\/140_15554fc6655e3e6dcf4c95610b100af2.jpg"
        },
        {
          "content" : "用小刀将尖椒内部的籽和筋挖掉。",
          "image_width" : 1616,
          "position" : 2,
          "thumb" : "https:\/\/i1.douguo.com\/upload\/caiku\/3\/6\/7\/140_36e054874ca0c0eaec2382b1edfc3b67.jpg",
          "image" : "https:\/\/i1.douguo.com\/upload\/caiku\/3\/6\/7\/36e054874ca0c0eaec2382b1edfc3b67.jpg",
          "image_height" : 1080,
          "frame" : "-1"
        },
        {
          "frame" : "-1",
          "content" : "将尖椒一分为二，切开。擦干水分。",
          "image_height" : 1080,
          "image" : "https:\/\/i1.douguo.com\/upload\/caiku\/6\/6\/e\/66b937b2c86e934b1ccd3553cb557a8e.jpg",
          "image_width" : 1616,
          "thumb" : "https:\/\/i1.douguo.com\/upload\/caiku\/6\/6\/e\/140_66b937b2c86e934b1ccd3553cb557a8e.jpg",
          "position" : 3
        },
        {
          "frame" : "-1",
          "image_height" : 1080,
          "image" : "https:\/\/i1.douguo.com\/upload\/caiku\/c\/7\/c\/c7bc6ab3badd5c6f7160dce85485226c.jpg",
          "position" : 4,
          "image_width" : 1616,
          "content" : "锅中放适量的油，中小火，将尖椒放进锅中，用铲子不时的按压和翻面。",
          "thumb" : "https:\/\/i1.douguo.com\/upload\/caiku\/c\/7\/c\/140_c7bc6ab3badd5c6f7160dce85485226c.jpg"
        },
        {
          "image" : "https:\/\/i1.douguo.com\/upload\/caiku\/9\/4\/7\/9437fe1d5f8659045e8b907cdc334e87.jpg",
          "image_width" : 1616,
          "thumb" : "https:\/\/i1.douguo.com\/upload\/caiku\/9\/4\/7\/140_9437fe1d5f8659045e8b907cdc334e87.jpg",
          "image_height" : 1080,
          "content" : "使尖椒两面受热均匀，煎出虎皮。",
          "frame" : "-1",
          "position" : 5
        },
        {
          "thumb" : "https:\/\/i1.douguo.com\/upload\/caiku\/f\/9\/6\/140_f9e61ec2c843f3e35f841b9c1325ad36.jpg",
          "content" : "盛出备用。",
          "image_width" : 1616,
          "position" : 6,
          "frame" : "-1",
          "image_height" : 1080,
          "image" : "https:\/\/i1.douguo.com\/upload\/caiku\/f\/9\/6\/f9e61ec2c843f3e35f841b9c1325ad36.jpg"
        },
        {
          "thumb" : "https:\/\/i1.douguo.com\/upload\/caiku\/8\/6\/4\/140_867be27475e8029601a79ade6bc58d54.jpg",
          "frame" : "-1",
          "image" : "https:\/\/i1.douguo.com\/upload\/caiku\/8\/6\/4\/867be27475e8029601a79ade6bc58d54.jpg",
          "content" : "调碗汁。碗中加入生抽1勺，盐2克，白糖1勺，醋2勺。",
          "position" : 7,
          "image_height" : 428,
          "image_width" : 640
        },
        {
          "position" : 8,
          "image_height" : 1080,
          "frame" : "-1",
          "image_width" : 1616,
          "content" : "热锅凉油，放入蒜末煸香。",
          "thumb" : "https:\/\/i1.douguo.com\/upload\/caiku\/7\/2\/9\/140_72c4d16774ee3b5a0f0638131cc2e4c9.jpg",
          "image" : "https:\/\/i1.douguo.com\/upload\/caiku\/7\/2\/9\/72c4d16774ee3b5a0f0638131cc2e4c9.jpg"
        },
        {
          "thumb" : "https:\/\/i1.douguo.com\/upload\/caiku\/5\/2\/a\/140_52bf60e14185ebabe8cb8e3afa93562a.jpg",
          "frame" : "-1",
          "content" : "倒入碗汁，翻炒加热至沸腾。",
          "image_height" : 1080,
          "image" : "https:\/\/i1.douguo.com\/upload\/caiku\/5\/2\/a\/52bf60e14185ebabe8cb8e3afa93562a.jpg",
          "image_width" : 1616,
          "position" : 9
        },
        {
          "frame" : "-1",
          "content" : "把煎好的尖椒倒入锅中，翻炒均匀，待汁变浓即可出锅。",
          "thumb" : "https:\/\/i1.douguo.com\/upload\/caiku\/2\/8\/3\/140_283f329e483d3647ebf2e8a1ec795c33.jpg",
          "image_width" : 1616,
          "image_height" : 1080,
          "image" : "https:\/\/i1.douguo.com\/upload\/caiku\/2\/8\/3\/283f329e483d3647ebf2e8a1ec795c33.jpg",
          "position" : 10
        }
      ]
    }
  }
}