{
  "result" : {
    "recipe" : {
      "tags" : [
        "{\n    text = \"\\U79c1\\U5bb6\\U83dc\";\n}",
        "{\n    text = \"\\U5feb\\U624b\\U83dc\";\n}",
        "{\n    text = \"\\U521b\\U610f\\U83dc\";\n}",
        "{\n    text = \"\\U7092\";\n}",
        "{\n    text = \"\\U9999\";\n}"
      ],
      "ipurl" : "",
      "title_ad" : [

      ],
      "hqu" : "recipes:\/\/www.douguo.com\/notedetail?id=21162253",
      "cook_id" : "1370748",
      "recipe_list_tags" : [
        {
          "background_border_color" : "",
          "text_color" : "#141515",
          "right_image" : "",
          "jump_url" : "",
          "text" : "关注的人",
          "background_start_color" : "#F4F5F5",
          "background_end_color" : "#F4F5F5"
        },
        {
          "text" : "内容详细",
          "right_image" : "",
          "text_color" : "#141515",
          "background_border_color" : "",
          "background_end_color" : "#F4F5F5",
          "jump_url" : "",
          "background_start_color" : "#F4F5F5"
        }
      ],
      "ph" : 543,
      "rpt" : "",
      "sr" : "",
      "minor" : [

      ],
      "rrpt" : "",
      "mid_mdsp" : [

      ],
      "ipci" : "",
      "sc" : 0,
      "ipt" : "",
      "dish_count_text" : "8",
      "hq" : 1,
      "ecs" : 0,
      "rsm" : "该功能暂停使用",
      "release_time" : "",
      "bs" : [

      ],
      "image" : "http:\/\/i1.douguo.net\/upload\/caiku\/e\/4\/7\/300_e492df704e94779185597e4d22285537.jpeg",
      "dish_count" : 8,
      "recommendation_tag" : "",
      "views_count_text" : "23.6万",
      "rpid" : 0,
      "author_photo" : "http:\/\/tx1.douguo.net\/upload\/photo\/f\/4\/2\/70_u48002547528665093043.jpeg",
      "author" : "陈江鸟一",
      "event" : {
        "id" : 0
      },
      "cook_difficulty" : "",
      "thumb_height" : 0,
      "photo_path" : "https:\/\/i1.douguo.com\/upload\/caiku\/e\/4\/7\/600_e492df704e94779185597e4d22285537.jpeg",
      "ipia" : [

      ],
      "favo_counts_text" : "2449",
      "clicks" : "222567",
      "story_dsp" : [

      ],
      "cook_difficulty_image" : "",
      "original_photo_path" : "http:\/\/i1.douguo.net\/upload\/caiku\/e\/4\/7\/yuan_e492df704e94779185597e4d22285537.jpeg",
      "rcs" : [

      ],
      "purl" : "",
      "dishes" : [

      ],
      "share_info" : {
        "name" : "快速熬猪油——十分钟熬出一锅又老又香的猪油-会做饭很酷!",
        "infos" : [
          {
            "channel" : "1",
            "qr_image" : "",
            "mini_program" : [

            ],
            "s_d" : "#学做饭用豆果美食# 会做饭真是太酷了！我在@豆果美食 分享了【快速熬猪油——十分钟熬出一锅又老又香的猪油-会做饭很酷!】，这道菜真的神仙美味！喜欢的一定要试试绝对不会错的！～查看图片了解菜谱（快来点击https:\/\/m.weibo.cn\/p\/100404i33631和我一起修炼厨艺吧）",
            "s_u" : "",
            "image" : "https:\/\/cp1.douguo.com\/upload\/caiku\/e\/4\/7\/e492df704e94779185597e4d22285537.jpeg",
            "name" : "快速熬猪油——十分钟熬出一锅又老又香的猪油-会做饭很酷!",
            "object_id" : "1370748"
          },
          {
            "mini_program" : [

            ],
            "image" : "https:\/\/cp1.douguo.com\/upload\/caiku\/e\/4\/7\/e492df704e94779185597e4d22285537.jpeg",
            "s_u" : "http:\/\/m.douguo.com\/cookbook\/1370748.html",
            "name" : "快速熬猪油——十分钟熬出一锅又老又香的猪油-会做饭很酷!",
            "channel" : "7",
            "s_d" : "快速熬猪油——十分钟熬出一锅又老又香的猪油-会做饭很酷!",
            "qr_image" : "",
            "object_id" : "1370748"
          },
          {
            "channel" : "8",
            "qr_image" : "",
            "s_d" : "快速熬猪油——十分钟熬出一锅又老又香的猪油-会做饭很酷!",
            "image" : "https:\/\/cp1.douguo.com\/upload\/caiku\/e\/4\/7\/e492df704e94779185597e4d22285537.jpeg",
            "s_u" : "http:\/\/m.douguo.com\/cookbook\/1370748.html",
            "mini_program" : [

            ],
            "object_id" : "1370748",
            "name" : "快速熬猪油——十分钟熬出一锅又老又香的猪油-会做饭很酷!"
          }
        ],
        "object_id" : "1370748",
        "s_u" : "http:\/\/m.douguo.com\/cookbook\/1370748.html",
        "mini_program" : [

        ],
        "qr_image" : "",
        "image" : "https:\/\/cp1.douguo.com\/upload\/caiku\/e\/4\/7\/e492df704e94779185597e4d22285537.jpeg",
        "s_d" : "快速熬猪油——十分钟熬出一锅又老又香的猪油-会做饭很酷!"
      },
      "rate" : 5,
      "packages_id" : [

      ],
      "top_mdsp" : [

      ],
      "tips" : "猪肥膘刚入锅还没熬出油时记得要多上下翻动，以免锅底的变焦，熬油的整个过程最好人不离锅，注意安全！",
      "cookstory" : "很多人熬油不管猪板油还是肥膘油，都会采取加水而且整个过程差不多都用小火慢熬，但我觉得这样的方法很费时，熬出的油也不老，所以我都喜欢先持续大火最后再小火，每次差不多十分钟就能搞定一锅既老又香的油，而且肥膘油渣用来炒菜或者直接食用都比板油渣来的香脆。如果没有经常食用动物油的人也许不知道，用猪肥膘油烹饪的菜肴盛的锅碗比板油盛过的油质容易清洗的多！",
      "ssu" : "",
      "vfurl" : "",
      "major" : [
        {
          "note" : "1000g",
          "title" : "猪肥膘"
        }
      ],
      "favo_counts" : 2449,
      "rpst" : "",
      "rate_count" : 5,
      "related_ads" : [

      ],
      "pw" : 640,
      "vu" : "",
      "recommend_label" : "8人学做",
      "rrps" : [

      ],
      "rdsps" : [

      ],
      "cookstorys" : [
        {
          "id" : 0,
          "type" : 0,
          "icon" : "",
          "c" : "很多人熬油不管猪板油还是肥膘油，都会采取加水而且整个过程差不多都用小火慢熬，但我觉得这样的方法很费时，熬出的油也不老，所以我都喜欢先持续大火最后再小火，每次差不多十分钟就能搞定一锅既老又香的油，而且肥膘油渣用来炒菜或者直接食用都比板油渣来的香脆。如果没有经常食用动物油的人也许不知道，用猪肥膘油烹饪的菜肴盛的锅碗比板油盛过的油质容易清洗的多！",
          "color" : "",
          "u" : ""
        }
      ],
      "act_des" : "",
      "guide_image" : "",
      "author_verified" : 0,
      "ss" : [

      ],
      "cookwares" : [

      ],
      "create_time" : "2016-05-01 17:25:52",
      "user" : {
        "setted_email" : 0,
        "regist_time" : "",
        "pc" : 0,
        "qzone_nick" : "",
        "userid" : "15002320",
        "birthday" : "",
        "is_prime" : 0,
        "point" : 0,
        "user_cover" : "",
        "qq_weibo_nick" : "",
        "age" : "",
        "gender" : 2,
        "sign" : "",
        "recipes_count" : 0,
        "location" : 0,
        "user_large_photo" : "http:\/\/tx1.douguo.net\/upload\/photo\/f\/4\/2\/yuan_u48002547528665093043.jpeg",
        "lvl" : 6,
        "verified" : 0,
        "user_photo" : "http:\/\/tx1.douguo.net\/upload\/photo\/f\/4\/2\/70_u48002547528665093043.jpeg",
        "verified_image" : "",
        "subscription" : 0,
        "subscription_article_count" : 0,
        "introduction" : "",
        "favorites_count" : 0,
        "user_id" : "15002320",
        "fc" : 0,
        "nick" : "陈江鸟一",
        "following_count" : 0,
        "favor_diaries_count" : 0,
        "progress_image" : "",
        "lv" : 0,
        "followers_count" : 0,
        "avatar_medium" : "http:\/\/tx1.douguo.net\/upload\/photo\/f\/4\/2\/140_u48002547528665093043.jpeg",
        "dishes_count" : 0,
        "verified_url" : "https:\/\/m.douguo.com\/user\/prodesc",
        "diaries_count" : 0,
        "email" : "",
        "weibo_nick" : "",
        "coursecount" : 0,
        "mobile" : ""
      },
      "rewarded_video_dsp" : [

      ],
      "old_comments" : [

      ],
      "ipit" : 0,
      "recipe_tags" : [

      ],
      "cook_time_image" : "",
      "thumb_path" : "https:\/\/i1.douguo.com\/upload\/caiku\/e\/4\/7\/300_e492df704e94779185597e4d22285537.jpeg",
      "recommended" : 0,
      "comments" : [
        "{\n    ac = \"#999999\";\n    at = \"\";\n    ccc = 3;\n    \"child_comments\" =     (\n                {\n            ac = \"#999999\";\n            at = \"\";\n            ccc = 0;\n            city = \"\";\n            cmc = 2;\n            content =             (\n                                {\n                    c = \" \\U4e0d\\U4f1a\\U7684\\Uff0c\\U6211\\U4e00\\U5411\\U90fd\\U662f\\U8fd9\\U6837\\U5148\\U5927\\U706b\\U71ac\\U518d\\U8f6c\\U5c0f\\U706b\\Uff0c\\U8fd9\\U6837\\U4e0d\\U4ec5\\U7701\\U65f6\\U800c\\U4e14\\U6cb9\\U4e5f\\U8001\\U9999\\Uff0c\\U5c31\\U662f\\U8fd8\\U6ca1\\U5b8c\\U5168\\U51fa\\U6cb9\\U65f6\\U8981\\U8bb0\\U5f97\\U591a\\U7ffb\\U9505\\Uff0c\\U4ee5\\U514d\\U70e7\\U7126\\Uff01\";\n                }\n            );\n            ia = 1;\n            id = 3386521;\n            \"ip_address_location\" = \"\";\n            like = 0;\n            \"like_count\" = 0;\n            \"reply_id\" = 3386506;\n            \"reply_user\" =             {\n                \"followers_count_text\" = \"\";\n                id = 3090863;\n                \"is_prime\" = 0;\n                lv = 0;\n                lvl = 1;\n                n = \"\\U98de\\U8774\\U8776\";\n                p = \"http:\/\/tx1.douguo.net\/upload\/photo\/4\/6\/8\/70_u76063273833970135647.jpg\";\n                \"progress_image\" = \"\";\n                \"recipes_count_text\" = \"\";\n                relationship = \"-1\";\n                title = \"\";\n                v = 0;\n                \"verified_image\" = \"\";\n            };\n            \"sticker_icon\" =             (\n            );\n            time = \"2016-05-01 14:16:39\";\n            u =             {\n                \"followers_count_text\" = \"\";\n                id = 15002320;\n                \"is_prime\" = 0;\n                lv = 0;\n                lvl = 6;\n                n = \"\\U9648\\U6c5f\\U9e1f\\U4e00\";\n                p = \"http:\/\/tx1.douguo.net\/upload\/photo\/f\/4\/2\/70_u48002547528665093043.jpeg\";\n                \"progress_image\" = \"\";\n                \"recipes_count_text\" = \"\";\n                relationship = \"-1\";\n                title = \"\";\n                v = 0;\n                \"verified_image\" = \"\";\n            };\n        },\n                {\n            ac = \"#999999\";\n            at = \"\";\n            ccc = 0;\n            city = \"\";\n            cmc = 2;\n            content =             (\n                                {\n                    c = \" \\U8c22\\U8c22\\Uff0c\\U4f11\\U606f\\U7684\\U65f6\\U5019\\U8bd5\\U8bd5\\Uff0c\\U4e00\\U822c\\U4e00\\U6b21\\U4e70\\U591a\\U5c11\\U624d\\U80fd\\U71ac\\U51fa\\U90a3\\U4e48\\U591a\\Uff1f\\U6709\\U4e13\\U95e8\\U7684\\U4f4d\\U7f6e\\U5417\\Uff1f\\U5c31\\U53bb\\U4e70\\U80a5\\U732a\\U8089\\U5c31\\U53ef\\U4ee5\\U5417\\Uff1f\";\n                }\n            );\n            ia = 0;\n            id = 3391467;\n            \"ip_address_location\" = \"\";\n            like = 0;\n            \"like_count\" = 0;\n            \"reply_id\" = 3386521;\n            \"reply_user\" =             {\n                \"followers_count_text\" = \"\";\n                id = 15002320;\n                \"is_prime\" = 0;\n                lv = 0;\n                lvl = 6;\n                n = \"\\U9648\\U6c5f\\U9e1f\\U4e00\";\n                p = \"http:\/\/tx1.douguo.net\/upload\/photo\/f\/4\/2\/70_u48002547528665093043.jpeg\";\n                \"progress_image\" = \"\";\n                \"recipes_count_text\" = \"\";\n                relationship = \"-1\";\n                title = \"\";\n                v = 0;\n                \"verified_image\" = \"\";\n            };\n            \"sticker_icon\" =             (\n            );\n            time = \"2016-05-02 14:36:49\";\n            u =             {\n                \"followers_count_text\" = \"\";\n                id = 3090863;\n                \"is_prime\" = 0;\n                lv = 0;\n                lvl = 1;\n                n = \"\\U98de\\U8774\\U8776\";\n                p = \"http:\/\/tx1.douguo.net\/upload\/photo\/4\/6\/8\/70_u76063273833970135647.jpg\";\n                \"progress_image\" = \"\";\n                \"recipes_count_text\" = \"\";\n                relationship = \"-1\";\n                title = \"\";\n                v = 0;\n                \"verified_image\" = \"\";\n            };\n        }\n    );\n    city = \"\";\n    cmc = 2;\n    content =     (\n                {\n            c = \"\\U732a\\U6cb9\\U4e0d\\U4f1a\\U6709\\U5f88\\U6d53\\U7684\\U5f02\\U5473\\U5417\\Uff1f\\U4e0d\\U7528\\U52a0\\U5f00\\U6c34\\U76f4\\U63a5\\U5165\\U9505\\U71ac\\U5417\\Uff1f\";\n        }\n    );\n    ia = 0;\n    id = 3386506;\n    \"ip_address_location\" = \"\";\n    like = 0;\n    \"like_count\" = 0;\n    \"reply_id\" = 0;\n    \"sticker_icon\" =     (\n    );\n    time = \"2016-05-01 14:10:10\";\n    u =     {\n        \"followers_count_text\" = \"\";\n        id = 3090863;\n        \"is_prime\" = 0;\n        lv = 0;\n        lvl = 1;\n        n = \"\\U98de\\U8774\\U8776\";\n        p = \"http:\/\/tx1.douguo.net\/upload\/photo\/4\/6\/8\/70_u76063273833970135647.jpg\";\n        \"progress_image\" = \"\";\n        \"recipes_count_text\" = \"\";\n        relationship = \"-1\";\n        title = \"\";\n        v = 0;\n        \"verified_image\" = \"\";\n    };\n}",
        "{\n    ac = \"#999999\";\n    at = \"\";\n    ccc = 1;\n    \"child_comments\" =     (\n                {\n            ac = \"#999999\";\n            at = \"\";\n            ccc = 0;\n            city = \"\";\n            cmc = 2;\n            content =             (\n                                {\n                    c = \" \\U90a3\\U6211\\U6ca1\\U6709\\U53bb\\U79f0\\U91cf\\U54e6\\U4eb2\\Uff01\";\n                }\n            );\n            ia = 1;\n            id = 4058169;\n            \"ip_address_location\" = \"\";\n            like = 0;\n            \"like_count\" = 0;\n            \"reply_id\" = 4057376;\n            \"reply_user\" =             {\n                \"followers_count_text\" = \"\";\n                id = 18545352;\n                \"is_prime\" = 0;\n                lv = 0;\n                lvl = 1;\n                n = \"\\U878d\\U878d\\U878d\\U878d\\U878d\\U878d\\U878d\\U878d\";\n                p = \"\";\n                \"progress_image\" = \"\";\n                \"recipes_count_text\" = \"\";\n                relationship = \"-1\";\n                title = \"\";\n                v = 0;\n                \"verified_image\" = \"\";\n            };\n            \"sticker_icon\" =             (\n            );\n            time = \"2016-09-01 07:59:24\";\n            u =             {\n                \"followers_count_text\" = \"\";\n                id = 15002320;\n                \"is_prime\" = 0;\n                lv = 0;\n                lvl = 6;\n                n = \"\\U9648\\U6c5f\\U9e1f\\U4e00\";\n                p = \"http:\/\/tx1.douguo.net\/upload\/photo\/f\/4\/2\/70_u48002547528665093043.jpeg\";\n                \"progress_image\" = \"\";\n                \"recipes_count_text\" = \"\";\n                relationship = \"-1\";\n                title = \"\";\n                v = 0;\n                \"verified_image\" = \"\";\n            };\n        }\n    );\n    city = \"\";\n    cmc = 2;\n    content =     (\n                {\n            c = \"\\U8bf7\\U95ee\\Uff0c\\U71ac\\U51fa\\U4e86\\U51e0\\U65a4\\U732a\\U6cb9\\U554a\\Uff1f\";\n        }\n    );\n    ia = 0;\n    id = 4057376;\n    \"ip_address_location\" = \"\";\n    like = 0;\n    \"like_count\" = 0;\n    \"reply_id\" = 0;\n    \"sticker_icon\" =     (\n    );\n    time = \"2016-09-01 03:23:11\";\n    u =     {\n        \"followers_count_text\" = \"\";\n        id = 18545352;\n        \"is_prime\" = 0;\n        lv = 0;\n        lvl = 1;\n        n = \"\\U878d\\U878d\\U878d\\U878d\\U878d\\U878d\\U878d\\U878d\";\n        p = \"\";\n        \"progress_image\" = \"\";\n        \"recipes_count_text\" = \"\";\n        relationship = \"-1\";\n        title = \"\";\n        v = 0;\n        \"verified_image\" = \"\";\n    };\n}",
        "{\n    ac = \"#999999\";\n    at = \"\";\n    ccc = 1;\n    \"child_comments\" =     (\n                {\n            ac = \"#999999\";\n            at = \"\";\n            ccc = 0;\n            city = \"\";\n            cmc = 2;\n            content =             (\n                                {\n                    c = \" \\U80fd\\U5427\\Uff01\";\n                }\n            );\n            ia = 1;\n            id = 3812690;\n            \"ip_address_location\" = \"\";\n            like = 0;\n            \"like_count\" = 0;\n            \"reply_id\" = 3812667;\n            \"reply_user\" =             {\n                \"followers_count_text\" = \"\";\n                id = 7421271;\n                \"is_prime\" = 0;\n                lv = 0;\n                lvl = 1;\n                n = \"\\U8c03\\U76ae\\U5e03\\U4e01\";\n                p = \"http:\/\/tx1.douguo.net\/upload\/photo\/2\/d\/b\/70_2dbcd674e7d3d9f9b5e703cf5fbd0a0b.jpg\";\n                \"progress_image\" = \"\";\n                \"recipes_count_text\" = \"\";\n                relationship = \"-1\";\n                title = \"\";\n                v = 0;\n                \"verified_image\" = \"\";\n            };\n            \"sticker_icon\" =             (\n            );\n            time = \"2016-07-13 21:36:26\";\n            u =             {\n                \"followers_count_text\" = \"\";\n                id = 15002320;\n                \"is_prime\" = 0;\n                lv = 0;\n                lvl = 6;\n                n = \"\\U9648\\U6c5f\\U9e1f\\U4e00\";\n                p = \"http:\/\/tx1.douguo.net\/upload\/photo\/f\/4\/2\/70_u48002547528665093043.jpeg\";\n                \"progress_image\" = \"\";\n                \"recipes_count_text\" = \"\";\n                relationship = \"-1\";\n                title = \"\";\n                v = 0;\n                \"verified_image\" = \"\";\n            };\n        }\n    );\n    city = \"\";\n    cmc = 2;\n    content =     (\n                {\n            c = \"\\U71ac\\U51fa\\U6765\\U7684\\U80fd\\U505a\\U9165\\U70b9\\U5417\\Uff1f\";\n        }\n    );\n    ia = 0;\n    id = 3812667;\n    \"ip_address_location\" = \"\";\n    like = 0;\n    \"like_count\" = 0;\n    \"reply_id\" = 0;\n    \"sticker_icon\" =     (\n    );\n    time = \"2016-07-13 17:44:25\";\n    u =     {\n        \"followers_count_text\" = \"\";\n        id = 7421271;\n        \"is_prime\" = 0;\n        lv = 0;\n        lvl = 1;\n        n = \"\\U8c03\\U76ae\\U5e03\\U4e01\";\n        p = \"http:\/\/tx1.douguo.net\/upload\/photo\/2\/d\/b\/70_2dbcd674e7d3d9f9b5e703cf5fbd0a0b.jpg\";\n        \"progress_image\" = \"\";\n        \"recipes_count_text\" = \"\";\n        relationship = \"-1\";\n        title = \"\";\n        v = 0;\n        \"verified_image\" = \"\";\n    };\n}"
      ],
      "cook_time" : "",
      "brand_day_dsp" : [

      ],
      "rips" : 0,
      "levelid" : 2,
      "eu" : "recipes:\/\/www.douguo.com\/postdetail?id=242016",
      "first_level_comment_count" : 12,
      "cookstep" : [
        {
          "image_width" : 640,
          "position" : 1,
          "image_height" : 853,
          "content" : "买猪肥膘时，要挑选新鲜的看起来很油亮，色泽呈奶白色！",
          "image" : "https:\/\/i1.douguo.com\/upload\/caiku\/f\/e\/b\/fee3321160874a18aeed6ed7111d401b.jpeg",
          "frame" : "-1",
          "thumb" : "https:\/\/i1.douguo.com\/upload\/caiku\/f\/e\/b\/140_fee3321160874a18aeed6ed7111d401b.jpeg"
        },
        {
          "image_width" : 640,
          "frame" : "-1",
          "position" : 2,
          "thumb" : "https:\/\/i1.douguo.com\/upload\/caiku\/d\/b\/4\/140_db69da271fc0710d1905766778d20fb4.jpeg",
          "content" : "猪肥膘放置锅里加盖开大火烧开，隔片刻揭盖用铲勺将锅底的的铲翻上来，使上下肥膘肉受热均匀锅底的不会变焦",
          "image_height" : 887,
          "image" : "https:\/\/i1.douguo.com\/upload\/caiku\/d\/b\/4\/db69da271fc0710d1905766778d20fb4.jpeg"
        },
        {
          "image_width" : 640,
          "image" : "https:\/\/i1.douguo.com\/upload\/caiku\/9\/a\/5\/9aa7f5c5fcae5afd732186ca81118e45.jpeg",
          "position" : 3,
          "thumb" : "https:\/\/i1.douguo.com\/upload\/caiku\/9\/a\/5\/140_9aa7f5c5fcae5afd732186ca81118e45.jpeg",
          "image_height" : 887,
          "frame" : "-1",
          "content" : "持续大火烧至肥膘变油渣，油渣还呈白色时马上转小火再熬几分钟"
        },
        {
          "content" : "小火再熬制猪油渣变干，色泽有所金黄就即可捞出，从开火到熬油成功整个过程只需十分钟左右",
          "frame" : "-1",
          "position" : 4,
          "thumb" : "https:\/\/i1.douguo.com\/upload\/caiku\/b\/c\/1\/140_bc170c99933927f44a5bbe57ef46f281.jpeg",
          "image_width" : 640,
          "image" : "https:\/\/i1.douguo.com\/upload\/caiku\/b\/c\/1\/bc170c99933927f44a5bbe57ef46f281.jpeg",
          "image_height" : 887
        },
        {
          "position" : 5,
          "thumb" : "https:\/\/i1.douguo.com\/upload\/caiku\/1\/9\/9\/140_198ff0985f79c7c01618ba17e88de519.jpeg",
          "content" : "熬好后倒入油缸的肥膘油，色泽老、味道香",
          "frame" : "-1",
          "image_width" : 640,
          "image" : "https:\/\/i1.douguo.com\/upload\/caiku\/1\/9\/9\/198ff0985f79c7c01618ba17e88de519.jpeg",
          "image_height" : 853
        },
        {
          "thumb" : "https:\/\/i1.douguo.com\/upload\/caiku\/a\/1\/d\/140_a193aefe14722a5314bf80d11cfef3dd.jpeg",
          "frame" : "-1",
          "content" : "凉至一晚后的猪肥膘油质地柔软，色泽奶白，舀出一勺烧菜、下面等，香味浓郁！",
          "image_width" : 640,
          "image" : "https:\/\/i1.douguo.com\/upload\/caiku\/a\/1\/d\/a193aefe14722a5314bf80d11cfef3dd.jpeg",
          "position" : 6,
          "image_height" : 543
        }
      ],
      "comments_count" : 24,
      "author_id" : 15002320,
      "collect_status" : 0,
      "recent_comments" : [

      ],
      "advice" : {
        "da" : {
          "url" : "https:\/\/m.douguo.com\/recipe\/nutrient_self\/1370748",
          "iu" : "https:\/\/i1.douguo.com\/upload\/banner\/f\/4\/d\/f48877e53c37759bc12ac494be82ec8d.png",
          "t" : "查看详细分析"
        },
        "has" : [
          {
            "t" : "高热量",
            "url" : "recipes:\/\/www.douguo.com\/simplerecipelist?t=高热量&id=高热量"
          },
          {
            "url" : "recipes:\/\/www.douguo.com\/simplerecipelist?t=高脂肪&id=高脂肪",
            "t" : "高脂肪"
          }
        ],
        "at" : "适量即可～"
      },
      "comments_count_text" : "24",
      "notes" : [

      ],
      "rate_show" : 0,
      "vc" : "235663",
      "btm_dsp" : [

      ],
      "title" : "快速熬猪油——十分钟熬出一锅又老又香的猪油",
      "ipoi" : "",
      "su" : "",
      "display_ingredient" : 1,
      "v_u" : ""
    }
  },
  "status" : 0,
  "state" : "success"
}