{
  "result" : {
    "recipe" : {
      "release_time" : "",
      "packages_id" : [

      ],
      "first_level_comment_count" : 0,
      "thumb_height" : 0,
      "dishes" : [

      ],
      "tags" : [

      ],
      "rpid" : 0,
      "cook_time" : "10~30分钟",
      "cook_difficulty" : "切墩(初级)",
      "rate_count" : 0,
      "ipci" : "",
      "major" : [
        {
          "note" : "600克",
          "title" : "夹板虾"
        },
        {
          "title" : "青椒",
          "tu" : "https:\/\/m.douguo.com\/ingredients\/青椒\/detailmaterial",
          "note" : "1个"
        },
        {
          "note" : "半个",
          "title" : "红椒",
          "tu" : "https:\/\/m.douguo.com\/ingredients\/红椒\/detailmaterial"
        },
        {
          "title" : "姜",
          "note" : "2片",
          "tu" : "https:\/\/m.douguo.com\/ingredients\/姜\/detailmaterial"
        },
        {
          "title" : "料酒",
          "note" : "1勺",
          "tu" : "https:\/\/m.douguo.com\/ingredients\/料酒\/detailmaterial"
        },
        {
          "tu" : "https:\/\/m.douguo.com\/ingredients\/豆瓣酱\/detailmaterial",
          "title" : "豆瓣酱",
          "note" : "1勺"
        },
        {
          "tu" : "https:\/\/m.douguo.com\/ingredients\/白糖\/detailmaterial",
          "title" : "白糖",
          "note" : "1勺"
        },
        {
          "title" : "花生油",
          "tu" : "https:\/\/m.douguo.com\/ingredients\/花生油\/detailmaterial",
          "note" : "30克"
        },
        {
          "title" : "花椒",
          "tu" : "https:\/\/m.douguo.com\/ingredients\/花椒\/detailmaterial",
          "note" : "10粒"
        },
        {
          "tu" : "https:\/\/m.douguo.com\/ingredients\/葱\/detailmaterial",
          "note" : "半根",
          "title" : "葱"
        },
        {
          "note" : "半勺",
          "tu" : "https:\/\/m.douguo.com\/ingredients\/盐\/detailmaterial",
          "title" : "盐"
        }
      ],
      "rdsps" : [

      ],
      "rrps" : [

      ],
      "cookwares" : [

      ],
      "minor" : [

      ],
      "event" : {
        "id" : 2767,
        "url" : "https:\/\/m.douguo.com\/activity\/ncpzj\/detail\/2767?isapp=1&open=0&_vs=1000300&&dg_refreshkey=publishnote",
        "name" : "合理膳食 营养健康进家庭"
      },
      "rewarded_video_dsp" : [

      ],
      "notes" : [

      ],
      "share_info" : {
        "name" : "#合理膳食 营养健康进家庭#酱爆夹板虾-会做饭很酷!",
        "mini_program" : [

        ],
        "qr_image" : "",
        "s_u" : "http:\/\/m.douguo.com\/cookbook\/2987846.html",
        "object_id" : "2987846",
        "s_d" : "#合理膳食 营养健康进家庭#酱爆夹板虾-会做饭很酷!",
        "image" : "https:\/\/cp1.douguo.com\/upload\/caiku\/8\/a\/d\/8a380123520b2030dc09c2d755006bed.jpeg",
        "infos" : [
          {
            "qr_image" : "",
            "s_d" : "#学做饭用豆果美食# 我在@豆果美食 分享了【#合理膳食 营养健康进家庭#酱爆夹板虾-会做饭很酷!】，帅哥美眉们～你们喜欢的美食来咯！快来跟我一起做吧～查看图片了解菜谱（想要获取更多美食就看这https:\/\/m.weibo.cn\/p\/100404i33631）#会做饭很酷#",
            "image" : "https:\/\/cp1.douguo.com\/upload\/caiku\/8\/a\/d\/8a380123520b2030dc09c2d755006bed.jpeg",
            "s_u" : "",
            "object_id" : "2987846",
            "channel" : "1",
            "mini_program" : [

            ],
            "name" : "#合理膳食 营养健康进家庭#酱爆夹板虾-会做饭很酷!"
          },
          {
            "object_id" : "2987846",
            "qr_image" : "",
            "mini_program" : [

            ],
            "s_d" : "#合理膳食 营养健康进家庭#酱爆夹板虾-会做饭很酷!",
            "channel" : "7",
            "s_u" : "http:\/\/m.douguo.com\/cookbook\/2987846.html",
            "name" : "#合理膳食 营养健康进家庭#酱爆夹板虾-会做饭很酷!",
            "image" : "https:\/\/cp1.douguo.com\/upload\/caiku\/8\/a\/d\/8a380123520b2030dc09c2d755006bed.jpeg"
          },
          {
            "image" : "https:\/\/cp1.douguo.com\/upload\/caiku\/8\/a\/d\/8a380123520b2030dc09c2d755006bed.jpeg",
            "mini_program" : [

            ],
            "qr_image" : "",
            "name" : "#合理膳食 营养健康进家庭#酱爆夹板虾-会做饭很酷!",
            "object_id" : "2987846",
            "s_d" : "#合理膳食 营养健康进家庭#酱爆夹板虾-会做饭很酷!",
            "channel" : "8",
            "s_u" : "http:\/\/m.douguo.com\/cookbook\/2987846.html"
          }
        ]
      },
      "sc" : 0,
      "ecs" : 0,
      "act_des" : "",
      "rpst" : "",
      "recipe_list_tags" : [
        {
          "right_image" : "",
          "background_border_color" : "",
          "background_start_color" : "#F4F5F5",
          "text" : "关注的人",
          "background_end_color" : "#F4F5F5",
          "jump_url" : "",
          "text_color" : "#141515"
        }
      ],
      "create_time" : "2020-09-26 00:25:11",
      "photo_path" : "https:\/\/i1.douguo.com\/upload\/caiku\/8\/a\/d\/600_8a380123520b2030dc09c2d755006bed.jpeg",
      "ipurl" : "",
      "cookstory" : "海边的孩子的福利来了，又到了一年一度吃夹板虾的季节，因其口感鲜美无比，所以我三天两头都会买上2斤回家，或是炒或是煮，今天做了酱爆的口味，简直不要太好吃咯……",
      "rrpt" : "",
      "original_photo_path" : "http:\/\/i1.douguo.net\/upload\/caiku\/8\/a\/d\/yuan_8a380123520b2030dc09c2d755006bed.jpeg",
      "guide_image" : "",
      "author_verified" : 1,
      "ipoi" : "",
      "favo_counts_text" : "4601",
      "ipit" : 0,
      "dish_count" : 0,
      "user" : {
        "mobile" : "",
        "recipes_count" : 0,
        "qq_weibo_nick" : "",
        "verified_image" : "https:\/\/i1.douguo.com\/upload\/note\/d\/a\/a\/da84247847aebe48d9dd0fcdac88862a.png",
        "user_cover" : "",
        "user_photo" : "http:\/\/tx1.douguo.net\/upload\/photo\/2\/8\/4\/70_286c8630337257d0859de92cd96512f4.jpeg",
        "regist_time" : "",
        "diaries_count" : 0,
        "fc" : 0,
        "dishes_count" : 0,
        "userid" : "20141474",
        "email" : "",
        "point" : 0,
        "favorites_count" : 0,
        "verified" : 1,
        "gender" : 2,
        "following_count" : 0,
        "lv" : 0,
        "subscription" : 0,
        "lvl" : 7,
        "sign" : "",
        "qzone_nick" : "",
        "verified_url" : "https:\/\/m.douguo.com\/user\/prodesc",
        "setted_email" : 0,
        "followers_count" : 0,
        "user_id" : "20141474",
        "progress_image" : "",
        "user_large_photo" : "http:\/\/tx1.douguo.net\/upload\/photo\/2\/8\/4\/yuan_286c8630337257d0859de92cd96512f4.jpeg",
        "weibo_nick" : "",
        "nick" : "月色家的小厨房",
        "favor_diaries_count" : 0,
        "age" : "",
        "introduction" : "",
        "location" : 0,
        "coursecount" : 0,
        "subscription_article_count" : 0,
        "avatar_medium" : "http:\/\/tx1.douguo.net\/upload\/photo\/2\/8\/4\/140_286c8630337257d0859de92cd96512f4.jpeg",
        "is_prime" : 0,
        "pc" : 0,
        "birthday" : ""
      },
      "tips" : "",
      "ipia" : [

      ],
      "su" : "",
      "recommend_label" : "4601人刚刚收藏过",
      "recent_comments" : [

      ],
      "dish_count_text" : "",
      "rpt" : "",
      "purl" : "",
      "ipt" : "",
      "vfurl" : "",
      "related_ads" : [

      ],
      "rcs" : [

      ],
      "collect_status" : 0,
      "clicks" : "236811",
      "top_mdsp" : [

      ],
      "views_count_text" : "24.7万",
      "author_id" : 20141474,
      "recipe_tags" : [

      ],
      "ssu" : "",
      "vu" : "",
      "recommended" : 0,
      "recommendation_tag" : "",
      "cookstorys" : [
        {
          "id" : 0,
          "color" : "",
          "type" : 0,
          "c" : "海边的孩子的福利来了，又到了一年一度吃夹板虾的季节，因其口感鲜美无比，所以我三天两头都会买上2斤回家，或是炒或是煮，今天做了酱爆的口味，简直不要太好吃咯……",
          "icon" : "",
          "u" : ""
        },
        {
          "c" : "\n参与活动:",
          "type" : 0,
          "u" : "",
          "icon" : "",
          "id" : 0,
          "color" : ""
        },
        {
          "u" : "https:\/\/m.douguo.com\/activity\/ncpzj\/detail\/2767?isapp=1&open=0&_vs=1000300&&dg_refreshkey=publishnote",
          "type" : 0,
          "icon" : "",
          "c" : "#合理膳食 营养健康进家庭#",
          "id" : 0
        }
      ],
      "brand_day_dsp" : [

      ],
      "pw" : 1920,
      "story_dsp" : [

      ],
      "title_ad" : [

      ],
      "cook_id" : "2987846",
      "eu" : "recipes:\/\/www.douguo.com\/postdetail?id=242016",
      "comments_count" : 0,
      "rate_show" : 0,
      "author_photo" : "http:\/\/tx1.douguo.net\/upload\/photo\/2\/8\/4\/70_286c8630337257d0859de92cd96512f4.jpeg",
      "ph" : 1280,
      "sr" : "",
      "author" : "月色家的小厨房",
      "ss" : [

      ],
      "old_comments" : [

      ],
      "rsm" : "该功能暂停使用",
      "mid_mdsp" : [

      ],
      "thumb_path" : "https:\/\/i1.douguo.com\/upload\/caiku\/8\/a\/d\/300_8a380123520b2030dc09c2d755006bed.jpeg",
      "hq" : 1,
      "display_ingredient" : 1,
      "comments" : [

      ],
      "image" : "http:\/\/i1.douguo.net\/upload\/caiku\/8\/a\/d\/300_8a380123520b2030dc09c2d755006bed.jpeg",
      "bs" : [

      ],
      "cook_difficulty_image" : "https:\/\/i1.douguo.com\/upload\/banner\/1551424390.png",
      "vc" : "246869",
      "rate" : 0,
      "rips" : 0,
      "btm_dsp" : [

      ],
      "cookstep" : [
        {
          "image_height" : 853,
          "content" : "首先备齐所有的食材，海鲜一定要买活得哟。",
          "image_width" : 1280,
          "position" : 1,
          "frame" : "-1",
          "image" : "https:\/\/i1.douguo.com\/upload\/caiku\/b\/c\/7\/bc5df0ac4344291e6cad0fd801ebfff7.jpeg",
          "thumb" : "https:\/\/i1.douguo.com\/upload\/caiku\/b\/c\/7\/140_bc5df0ac4344291e6cad0fd801ebfff7.jpeg"
        },
        {
          "image_width" : 1280,
          "frame" : "-1",
          "content" : "把夹板虾去虾线虾须。",
          "image" : "https:\/\/i1.douguo.com\/upload\/caiku\/2\/1\/a\/219ffb961e9dfef12d257b14d6e712ea.jpeg",
          "thumb" : "https:\/\/i1.douguo.com\/upload\/caiku\/2\/1\/a\/140_219ffb961e9dfef12d257b14d6e712ea.jpeg",
          "position" : 2,
          "image_height" : 853
        },
        {
          "content" : "把清理干净的夹板虾，用自来水反复冲洗干净后沥干水分。",
          "image" : "https:\/\/i1.douguo.com\/upload\/caiku\/1\/8\/c\/18fc2922a3f8204c17eb6c5c28fe2eec.jpeg",
          "position" : 3,
          "thumb" : "https:\/\/i1.douguo.com\/upload\/caiku\/1\/8\/c\/140_18fc2922a3f8204c17eb6c5c28fe2eec.jpeg",
          "image_width" : 1280,
          "image_height" : 853,
          "frame" : "-1"
        },
        {
          "frame" : "-1",
          "image" : "https:\/\/i1.douguo.com\/upload\/caiku\/2\/a\/9\/2a9392dc12cb977c9827fbcce097b729.jpeg",
          "image_width" : 1280,
          "image_height" : 853,
          "content" : "青红辣椒去籽后切细条，葱姜切碎。",
          "position" : 4,
          "thumb" : "https:\/\/i1.douguo.com\/upload\/caiku\/2\/a\/9\/140_2a9392dc12cb977c9827fbcce097b729.jpeg"
        },
        {
          "position" : 5,
          "frame" : "-1",
          "thumb" : "https:\/\/i1.douguo.com\/upload\/caiku\/6\/2\/4\/140_62416f5b6f9d1f779008aecd18e6ee54.jpeg",
          "image_height" : 853,
          "image_width" : 1280,
          "image" : "https:\/\/i1.douguo.com\/upload\/caiku\/6\/2\/4\/62416f5b6f9d1f779008aecd18e6ee54.jpeg",
          "content" : "锅烧热后倒入花生油烧热，放入花椒小火慢慢炸出香味，再爆香葱姜。"
        },
        {
          "image" : "https:\/\/i1.douguo.com\/upload\/caiku\/3\/2\/3\/32cdd6632458af8e92b7f7e68abca453.jpeg",
          "image_height" : 853,
          "frame" : "-1",
          "position" : 6,
          "content" : "这个时候倒入黄豆酱。",
          "image_width" : 1280,
          "thumb" : "https:\/\/i1.douguo.com\/upload\/caiku\/3\/2\/3\/140_32cdd6632458af8e92b7f7e68abca453.jpeg"
        },
        {
          "frame" : "-1",
          "thumb" : "https:\/\/i1.douguo.com\/upload\/caiku\/6\/0\/0\/140_60209e5082b03571e5e40a472e536800.jpeg",
          "image_width" : 1280,
          "image" : "https:\/\/i1.douguo.com\/upload\/caiku\/6\/0\/0\/60209e5082b03571e5e40a472e536800.jpeg",
          "position" : 7,
          "image_height" : 853,
          "content" : "慢慢炒至豆瓣酱出红油。"
        },
        {
          "frame" : "-1",
          "thumb" : "https:\/\/i1.douguo.com\/upload\/caiku\/8\/b\/0\/140_8bf6617598a52fbbb30376b2e9cbcde0.jpeg",
          "position" : 8,
          "image" : "https:\/\/i1.douguo.com\/upload\/caiku\/8\/b\/0\/8bf6617598a52fbbb30376b2e9cbcde0.jpeg",
          "content" : "这个时候加入洗净的夹板虾。",
          "image_height" : 853,
          "image_width" : 1280
        },
        {
          "frame" : "-1",
          "image_height" : 853,
          "position" : 9,
          "content" : "大火快速翻炒均匀。",
          "image" : "https:\/\/i1.douguo.com\/upload\/caiku\/3\/7\/4\/37d745242624c38805a7323a7ab62074.jpeg",
          "image_width" : 1280,
          "thumb" : "https:\/\/i1.douguo.com\/upload\/caiku\/3\/7\/4\/140_37d745242624c38805a7323a7ab62074.jpeg"
        },
        {
          "thumb" : "https:\/\/i1.douguo.com\/upload\/caiku\/7\/5\/3\/140_75c7230698d22e6f49ec727e72d9c8c3.jpeg",
          "image" : "https:\/\/i1.douguo.com\/upload\/caiku\/7\/5\/3\/75c7230698d22e6f49ec727e72d9c8c3.jpeg",
          "image_width" : 1280,
          "image_height" : 853,
          "content" : "先加入白糖调味增鲜。",
          "position" : 10,
          "frame" : "-1"
        },
        {
          "frame" : "-1",
          "image" : "https:\/\/i1.douguo.com\/upload\/caiku\/0\/3\/b\/039e35f8c66b7a3fc9e7ac8646f9a3cb.jpeg",
          "thumb" : "https:\/\/i1.douguo.com\/upload\/caiku\/0\/3\/b\/140_039e35f8c66b7a3fc9e7ac8646f9a3cb.jpeg",
          "image_width" : 1280,
          "position" : 11,
          "content" : "再倒入料酒增加口感。",
          "image_height" : 853
        },
        {
          "thumb" : "https:\/\/i1.douguo.com\/upload\/caiku\/3\/d\/a\/140_3d637c70c6388d0409ef67fcbcb6d36a.jpeg",
          "image_width" : 1280,
          "frame" : "-1",
          "content" : "最后加入盐调味后，大火快速翻炒至所有的食材调料混合均匀。",
          "image" : "https:\/\/i1.douguo.com\/upload\/caiku\/3\/d\/a\/3d637c70c6388d0409ef67fcbcb6d36a.jpeg",
          "position" : 12,
          "image_height" : 853
        },
        {
          "content" : "加入切好的青红辣椒条。",
          "position" : 13,
          "frame" : "-1",
          "thumb" : "https:\/\/i1.douguo.com\/upload\/caiku\/6\/1\/f\/140_615d6624591709033bee0aa39d72925f.jpeg",
          "image_width" : 1280,
          "image" : "https:\/\/i1.douguo.com\/upload\/caiku\/6\/1\/f\/615d6624591709033bee0aa39d72925f.jpeg",
          "image_height" : 853
        },
        {
          "content" : "大火继续快速翻炒1分钟左右。",
          "thumb" : "https:\/\/i1.douguo.com\/upload\/caiku\/8\/d\/e\/140_8d1f450d4b1efb8d7bec299df82b8c9e.jpeg",
          "frame" : "-1",
          "image_width" : 1280,
          "image_height" : 853,
          "position" : 14,
          "image" : "https:\/\/i1.douguo.com\/upload\/caiku\/8\/d\/e\/8d1f450d4b1efb8d7bec299df82b8c9e.jpeg"
        },
        {
          "image" : "https:\/\/i1.douguo.com\/upload\/caiku\/1\/b\/3\/1bdf06318256a39b2650f44ea4e89263.jpeg",
          "position" : 15,
          "image_width" : 1280,
          "frame" : "-1",
          "content" : "看见青红辣椒条，断生变色的时候即可关火。",
          "thumb" : "https:\/\/i1.douguo.com\/upload\/caiku\/1\/b\/3\/140_1bdf06318256a39b2650f44ea4e89263.jpeg",
          "image_height" : 853
        },
        {
          "image" : "https:\/\/i1.douguo.com\/upload\/caiku\/5\/5\/5\/55e7f8a8764bdba59775ad7f923548b5.jpeg",
          "thumb" : "https:\/\/i1.douguo.com\/upload\/caiku\/5\/5\/5\/140_55e7f8a8764bdba59775ad7f923548b5.jpeg",
          "content" : "鲜辣味十足，好吃到爆，下酒下饭都超赞。",
          "frame" : "-1",
          "image_width" : 1280,
          "position" : 16,
          "image_height" : 853
        },
        {
          "position" : 17,
          "image_width" : 1280,
          "frame" : "-1",
          "image_height" : 853,
          "thumb" : "https:\/\/i1.douguo.com\/upload\/caiku\/1\/d\/2\/140_1d360fb0cbedb317ceed9216b8a0e882.jpeg",
          "content" : "一次2斤不够吃，这个季节多吃一些，滋补又营养哟。",
          "image" : "https:\/\/i1.douguo.com\/upload\/caiku\/1\/d\/2\/1d360fb0cbedb317ceed9216b8a0e882.jpeg"
        },
        {
          "thumb" : "https:\/\/i1.douguo.com\/upload\/caiku\/f\/f\/8\/140_ff82203244ede48bbaf42a19bd330748.jpeg",
          "image" : "https:\/\/i1.douguo.com\/upload\/caiku\/f\/f\/8\/ff82203244ede48bbaf42a19bd330748.jpeg",
          "content" : "成品",
          "image_width" : 1280,
          "frame" : "-1",
          "image_height" : 853,
          "position" : 18
        }
      ],
      "title" : "酱爆夹板虾",
      "favo_counts" : 4601,
      "v_u" : "",
      "levelid" : 2,
      "advice" : {
        "has" : [
          {
            "url" : "recipes:\/\/www.douguo.com\/simplerecipelist?t=富含维生素C&id=富含维生素C",
            "t" : "富含维生素C"
          }
        ],
        "da" : {
          "t" : "查看详细分析",
          "iu" : "https:\/\/i1.douguo.com\/upload\/banner\/f\/4\/d\/f48877e53c37759bc12ac494be82ec8d.png",
          "url" : "https:\/\/m.douguo.com\/recipe\/nutrient_self\/2987846"
        },
        "at" : "能够预防和缓解贫血的发生"
      },
      "comments_count_text" : "",
      "hqu" : "recipes:\/\/www.douguo.com\/notedetail?id=21162253",
      "cook_time_image" : "https:\/\/i1.douguo.com\/upload\/banner\/1551424341.png"
    }
  },
  "status" : 0,
  "state" : "success"
}