{
  "result" : {
    "recipe" : {
      "ipia" : [

      ],
      "cookstorys" : [
        {
          "c" : "这次教大家做个芋泥馅儿的月饼，刚进了超可爱的星球月饼模具，打算来试一下~\n\n芋泥馅颜色偏紫，所以外皮掺了点紫色的色素，星星部分用的是黑色色素，配方还是一样的大概能做15个月饼。\n\n做法跟之前一样，我会简化下步骤，如果还有问题，可以去参考之前的豆沙冰皮月饼。\n\n芋泥馅的也相当好吃，希望看到大家的作品哦！",
          "color" : "",
          "icon" : "",
          "id" : 0,
          "type" : 0,
          "u" : ""
        },
        {
          "c" : "\n参与活动:",
          "u" : "",
          "id" : 0,
          "type" : 0,
          "color" : "",
          "icon" : ""
        },
        {
          "id" : 0,
          "type" : 0,
          "u" : "https:\/\/m.douguo.com\/activity\/ncpzj\/detail\/3216?isapp=1&open=0&_vs=1000300&&dg_refreshkey=publishnote",
          "c" : "#我的养生日常——远离秋燥#",
          "icon" : ""
        }
      ],
      "mid_mdsp" : [

      ],
      "share_info" : {
        "s_d" : "#我的养生日常-远离秋燥#冰皮月饼：香甜芋泥馅儿，快乐星球！-会做饭很酷!",
        "s_u" : "http:\/\/m.douguo.com\/cookbook\/3119556.html",
        "qr_image" : "",
        "infos" : [
          {
            "channel" : "1",
            "qr_image" : "",
            "s_u" : "",
            "image" : "https:\/\/cp1.douguo.com\/upload\/caiku\/9\/d\/2\/9d89827629ed335a7ffeaf7591549ac2.jpeg",
            "name" : "#我的养生日常-远离秋燥#冰皮月饼：香甜芋泥馅儿，快乐星球！-会做饭很酷!",
            "mini_program" : [

            ],
            "s_d" : "#学做饭用豆果美食# 会做饭真是太酷了！我在@豆果美食 分享了【#我的养生日常-远离秋燥#冰皮月饼：香甜芋泥馅儿，快乐星球！-会做饭很酷!】，这道菜真的神仙美味！喜欢的一定要试试绝对不会错的！～查看图片了解菜谱（快来点击https:\/\/m.weibo.cn\/p\/100404i33631和我一起修炼厨艺吧）",
            "object_id" : "3119556"
          },
          {
            "object_id" : "3119556",
            "s_u" : "http:\/\/m.douguo.com\/cookbook\/3119556.html",
            "name" : "#我的养生日常-远离秋燥#冰皮月饼：香甜芋泥馅儿，快乐星球！-会做饭很酷!",
            "s_d" : "#我的养生日常-远离秋燥#冰皮月饼：香甜芋泥馅儿，快乐星球！-会做饭很酷!",
            "qr_image" : "",
            "channel" : "7",
            "image" : "https:\/\/cp1.douguo.com\/upload\/caiku\/9\/d\/2\/9d89827629ed335a7ffeaf7591549ac2.jpeg",
            "mini_program" : [

            ]
          },
          {
            "channel" : "8",
            "name" : "#我的养生日常-远离秋燥#冰皮月饼：香甜芋泥馅儿，快乐星球！-会做饭很酷!",
            "mini_program" : [

            ],
            "s_d" : "#我的养生日常-远离秋燥#冰皮月饼：香甜芋泥馅儿，快乐星球！-会做饭很酷!",
            "image" : "https:\/\/cp1.douguo.com\/upload\/caiku\/9\/d\/2\/9d89827629ed335a7ffeaf7591549ac2.jpeg",
            "object_id" : "3119556",
            "s_u" : "http:\/\/m.douguo.com\/cookbook\/3119556.html",
            "qr_image" : ""
          }
        ],
        "image" : "https:\/\/cp1.douguo.com\/upload\/caiku\/9\/d\/2\/9d89827629ed335a7ffeaf7591549ac2.jpeg",
        "name" : "#我的养生日常-远离秋燥#冰皮月饼：香甜芋泥馅儿，快乐星球！-会做饭很酷!",
        "object_id" : "3119556",
        "mini_program" : [

        ]
      },
      "old_comments" : [

      ],
      "original_photo_path" : "http:\/\/i1.douguo.net\/upload\/caiku\/9\/d\/2\/yuan_9d89827629ed335a7ffeaf7591549ac2.jpeg",
      "recommendation_tag" : "",
      "thumb_path" : "https:\/\/i1.douguo.com\/upload\/caiku\/9\/d\/2\/300_9d89827629ed335a7ffeaf7591549ac2.jpeg",
      "create_time" : "2021-08-09 13:26:12",
      "act_des" : "",
      "title" : "冰皮月饼：香甜芋泥馅儿，快乐星球！",
      "cook_difficulty" : "切墩(初级)",
      "guide_image" : "",
      "rsm" : "该功能暂停使用",
      "author_id" : 17174854,
      "collect_status" : 0,
      "rate" : 5,
      "recent_comments" : [

      ],
      "recipe_list_tags" : [
        {
          "text" : "关注的人",
          "text_color" : "#141515",
          "background_start_color" : "#F4F5F5",
          "background_end_color" : "#F4F5F5",
          "background_border_color" : "",
          "right_image" : "",
          "jump_url" : ""
        },
        {
          "right_image" : "",
          "background_border_color" : "",
          "background_end_color" : "#F4F5F5",
          "text" : "内容详细",
          "background_start_color" : "#F4F5F5",
          "jump_url" : "",
          "text_color" : "#141515"
        }
      ],
      "hq" : 1,
      "rcs" : [

      ],
      "photo_path" : "https:\/\/i1.douguo.com\/upload\/caiku\/9\/d\/2\/600_9d89827629ed335a7ffeaf7591549ac2.jpeg",
      "ecs" : 0,
      "rrps" : [

      ],
      "rate_show" : 0,
      "cookstep" : [
        {
          "image_width" : 1280,
          "content" : "1. 配方还是一样的，50克糯米粉、50克粘米粉和30克澄粉的配比，45克白砂糖、30克奶粉，放在一个可以蒸制的碗里。",
          "position" : 1,
          "thumb" : "https:\/\/i1.douguo.com\/upload\/caiku\/0\/b\/a\/140_0be03f6ef584aceda81d15f1728cbdea.jpeg",
          "image" : "https:\/\/i1.douguo.com\/upload\/caiku\/0\/b\/a\/0be03f6ef584aceda81d15f1728cbdea.jpeg",
          "image_height" : 853,
          "frame" : "-1"
        },
        {
          "thumb" : "https:\/\/i1.douguo.com\/upload\/caiku\/7\/5\/4\/140_75819d776b0792561bd46edcbe8f80d4.jpeg",
          "content" : "2. 加入200克凉白开水\/矿泉水。\r\n\r\n注：230克的牛奶，我用奶粉冲的，30克奶粉和200克清水就可以了。",
          "position" : 2,
          "image_width" : 1280,
          "frame" : "-1",
          "image_height" : 853,
          "image" : "https:\/\/i1.douguo.com\/upload\/caiku\/7\/5\/4\/75819d776b0792561bd46edcbe8f80d4.jpeg"
        },
        {
          "thumb" : "https:\/\/i1.douguo.com\/upload\/caiku\/7\/d\/7\/140_7da9230fe71923a052637e91a0eb2527.jpeg",
          "frame" : "-1",
          "image" : "https:\/\/i1.douguo.com\/upload\/caiku\/7\/d\/7\/7da9230fe71923a052637e91a0eb2527.jpeg",
          "content" : "3. 用打蛋器搅拌均匀，用筷子也行。",
          "position" : 3,
          "image_height" : 853,
          "image_width" : 1280
        },
        {
          "position" : 4,
          "image_height" : 853,
          "frame" : "-1",
          "image_width" : 1280,
          "content" : "4. 加入30克玉米油，继续搅拌均匀。",
          "thumb" : "https:\/\/i1.douguo.com\/upload\/caiku\/c\/0\/f\/140_c080bc7e674c197d83dd48802d72679f.jpeg",
          "image" : "https:\/\/i1.douguo.com\/upload\/caiku\/c\/0\/f\/c080bc7e674c197d83dd48802d72679f.jpeg"
        },
        {
          "thumb" : "https:\/\/i1.douguo.com\/upload\/caiku\/f\/8\/e\/140_f85f59880baf7e0690dde269408acc0e.jpeg",
          "frame" : "-1",
          "content" : "5. 面糊里加一点紫色的色素，这样蒸出来的皮就是紫色的。",
          "image_height" : 853,
          "image" : "https:\/\/i1.douguo.com\/upload\/caiku\/f\/8\/e\/f85f59880baf7e0690dde269408acc0e.jpeg",
          "image_width" : 1280,
          "position" : 5
        },
        {
          "frame" : "-1",
          "content" : "6. 混合均匀后，外皮部分的操作基本完成。",
          "thumb" : "https:\/\/i1.douguo.com\/upload\/caiku\/c\/0\/4\/140_c07a71277998e0a5eb82d4f299d6f024.jpeg",
          "image_width" : 1280,
          "image_height" : 853,
          "image" : "https:\/\/i1.douguo.com\/upload\/caiku\/c\/0\/4\/c07a71277998e0a5eb82d4f299d6f024.jpeg",
          "position" : 6
        },
        {
          "thumb" : "https:\/\/i1.douguo.com\/upload\/caiku\/2\/a\/6\/140_2aed35df2a5a745d19e3823e5f791926.jpeg",
          "image_height" : 853,
          "position" : 7,
          "frame" : "-1",
          "image" : "https:\/\/i1.douguo.com\/upload\/caiku\/2\/a\/6\/2aed35df2a5a745d19e3823e5f791926.jpeg",
          "content" : "7. 水开后，大火蒸25分钟，蒸好后取出晾凉。",
          "image_width" : 1280
        },
        {
          "image_height" : 853,
          "thumb" : "https:\/\/i1.douguo.com\/upload\/caiku\/b\/7\/3\/140_b7d698b17f62f0dc945a29e10d23fe53.jpeg",
          "image" : "https:\/\/i1.douguo.com\/upload\/caiku\/b\/7\/3\/b7d698b17f62f0dc945a29e10d23fe53.jpeg",
          "image_width" : 1280,
          "content" : "8. 同时来蒸芋头，时间15-20分钟。",
          "frame" : "-1",
          "position" : 8
        },
        {
          "thumb" : "https:\/\/i1.douguo.com\/upload\/caiku\/6\/f\/9\/140_6ff5e086a0c8453184eb39c0c5e69339.jpeg",
          "image" : "https:\/\/i1.douguo.com\/upload\/caiku\/6\/f\/9\/6ff5e086a0c8453184eb39c0c5e69339.jpeg",
          "frame" : "-1",
          "position" : 9,
          "image_height" : 853,
          "content" : "9. 外皮晾凉时间会比较长，所以先来准备芋泥馅，蒸熟的芋头捣碎，加入15克黄油、20克白砂糖。",
          "image_width" : 1280
        },
        {
          "image_width" : 1280,
          "frame" : "-1",
          "image_height" : 853,
          "thumb" : "https:\/\/i1.douguo.com\/upload\/caiku\/9\/3\/2\/140_9304a23c7bddf9089de1700557134f12.jpeg",
          "image" : "https:\/\/i1.douguo.com\/upload\/caiku\/9\/3\/2\/9304a23c7bddf9089de1700557134f12.jpeg",
          "content" : "10. 加入50ml牛奶和半个鸡蛋，中火炒制。",
          "position" : 10
        },
        {
          "content" : "11. 炒到水分蒸发完，不粘手指的状态就可以了，分成25克左右一份，馅料准备完成。",
          "image" : "https:\/\/i1.douguo.com\/upload\/caiku\/e\/8\/7\/e8938e4bb9f278a86f67d8f5f8dd8b27.jpeg",
          "position" : 11,
          "frame" : "-1",
          "image_width" : 1280,
          "thumb" : "https:\/\/i1.douguo.com\/upload\/caiku\/e\/8\/7\/140_e8938e4bb9f278a86f67d8f5f8dd8b27.jpeg",
          "image_height" : 853
        },
        {
          "frame" : "-1",
          "image" : "https:\/\/i1.douguo.com\/upload\/caiku\/f\/2\/6\/f237a41cdd2dd395876e19725926ec76.jpeg",
          "thumb" : "https:\/\/i1.douguo.com\/upload\/caiku\/f\/2\/6\/140_f237a41cdd2dd395876e19725926ec76.jpeg",
          "image_width" : 1280,
          "image_height" : 853,
          "content" : "12. 外皮冷却到不烫手的程度，用手揉匀，一样分成25克每份。",
          "position" : 12
        },
        {
          "image" : "https:\/\/i1.douguo.com\/upload\/caiku\/1\/d\/0\/1d9779d92c0330a642e5152f40f3f710.jpeg",
          "image_width" : 1280,
          "frame" : "-1",
          "position" : 13,
          "image_height" : 853,
          "thumb" : "https:\/\/i1.douguo.com\/upload\/caiku\/1\/d\/0\/140_1d9779d92c0330a642e5152f40f3f710.jpeg",
          "content" : "13. 25克的面团，沾一点糕粉防粘，用手摊开成圆形。"
        },
        {
          "content" : "14. 包住馅料。",
          "frame" : "-1",
          "image" : "https:\/\/i1.douguo.com\/upload\/caiku\/7\/b\/8\/7be843a6a654fe5408ce08f59f2f01f8.jpeg",
          "thumb" : "https:\/\/i1.douguo.com\/upload\/caiku\/7\/b\/8\/140_7be843a6a654fe5408ce08f59f2f01f8.jpeg",
          "image_width" : 1280,
          "position" : 14,
          "image_height" : 853
        },
        {
          "image_height" : 853,
          "position" : 15,
          "content" : "15. 捏紧收口处朝下。",
          "image" : "https:\/\/i1.douguo.com\/upload\/caiku\/8\/0\/8\/80217a5fb9a0e4932c74f16d79b308d8.jpeg",
          "thumb" : "https:\/\/i1.douguo.com\/upload\/caiku\/8\/0\/8\/140_80217a5fb9a0e4932c74f16d79b308d8.jpeg",
          "image_width" : 1280,
          "frame" : "-1"
        },
        {
          "image_height" : 853,
          "position" : 16,
          "image_width" : 1280,
          "content" : "16. 放入模具。",
          "frame" : "-1",
          "image" : "https:\/\/i1.douguo.com\/upload\/caiku\/3\/8\/f\/38b6f437a6e0e7ca2825b0b750de9e5f.jpeg",
          "thumb" : "https:\/\/i1.douguo.com\/upload\/caiku\/3\/8\/f\/140_38b6f437a6e0e7ca2825b0b750de9e5f.jpeg"
        },
        {
          "image_width" : 1280,
          "frame" : "-1",
          "thumb" : "https:\/\/i1.douguo.com\/upload\/caiku\/3\/d\/4\/140_3d020a3b3baf4a4c67a5b77044544714.jpeg",
          "content" : "17. 压平。",
          "image_height" : 853,
          "position" : 17,
          "image" : "https:\/\/i1.douguo.com\/upload\/caiku\/3\/d\/4\/3d020a3b3baf4a4c67a5b77044544714.jpeg"
        },
        {
          "thumb" : "https:\/\/i1.douguo.com\/upload\/caiku\/d\/1\/b\/140_d1ea34eec9867fca9bd36cfd40ee9e8b.jpeg",
          "position" : 18,
          "frame" : "-1",
          "content" : "18. 切开看看~",
          "image_height" : 853,
          "image_width" : 1280,
          "image" : "https:\/\/i1.douguo.com\/upload\/caiku\/d\/1\/b\/d1ea34eec9867fca9bd36cfd40ee9e8b.jpeg"
        },
        {
          "thumb" : "https:\/\/i1.douguo.com\/upload\/caiku\/f\/7\/2\/140_f7245bd9bc4b6961834bc2aafd282192.jpeg",
          "image_width" : 1280,
          "content" : "19. 完成！\r\n\r\n注：表面的星星是我用黑色素加入外皮面团，再用月饼模具里的星星模子压出来的。",
          "image" : "https:\/\/i1.douguo.com\/upload\/caiku\/f\/7\/2\/f7245bd9bc4b6961834bc2aafd282192.jpeg",
          "frame" : "-1",
          "image_height" : 1706,
          "position" : 19
        }
      ],
      "cook_time" : "30-60分钟",
      "clicks" : "238530",
      "recommend_label" : "1人学做",
      "pw" : 1920,
      "dishes" : [

      ],
      "comments_count_text" : "15",
      "cookstory" : "这次教大家做个芋泥馅儿的月饼，刚进了超可爱的星球月饼模具，打算来试一下~\n\n芋泥馅颜色偏紫，所以外皮掺了点紫色的色素，星星部分用的是黑色色素，配方还是一样的大概能做15个月饼。\n\n做法跟之前一样，我会简化下步骤，如果还有问题，可以去参考之前的豆沙冰皮月饼。\n\n芋泥馅的也相当好吃，希望看到大家的作品哦！",
      "dish_count_text" : "1",
      "rdsps" : [

      ],
      "author_photo" : "http:\/\/tx1.douguo.net\/upload\/photo\/b\/0\/8\/70_u60822135121386034738.jpeg",
      "notes" : [

      ],
      "author" : "No糯糯oN",
      "author_verified" : 1,
      "user" : {
        "location" : 0,
        "progress_image" : "",
        "favorites_count" : 0,
        "mobile" : "",
        "subscription_article_count" : 0,
        "followers_count" : 0,
        "gender" : 2,
        "regist_time" : "",
        "dishes_count" : 0,
        "user_large_photo" : "http:\/\/tx1.douguo.net\/upload\/photo\/b\/0\/8\/yuan_u60822135121386034738.jpeg",
        "user_cover" : "",
        "qzone_nick" : "",
        "setted_email" : 0,
        "user_id" : "17174854",
        "lvl" : 6,
        "avatar_medium" : "http:\/\/tx1.douguo.net\/upload\/photo\/b\/0\/8\/140_u60822135121386034738.jpeg",
        "is_prime" : 0,
        "user_photo" : "http:\/\/tx1.douguo.net\/upload\/photo\/b\/0\/8\/70_u60822135121386034738.jpeg",
        "lv" : 0,
        "verified" : 1,
        "nick" : "No糯糯oN",
        "fc" : 0,
        "weibo_nick" : "",
        "verified_image" : "https:\/\/i1.douguo.com\/upload\/note\/d\/a\/a\/da84247847aebe48d9dd0fcdac88862a.png",
        "following_count" : 0,
        "age" : "",
        "email" : "",
        "subscription" : 0,
        "qq_weibo_nick" : "",
        "introduction" : "",
        "verified_url" : "https:\/\/m.douguo.com\/user\/prodesc",
        "pc" : 0,
        "diaries_count" : 0,
        "coursecount" : 0,
        "sign" : "",
        "recipes_count" : 0,
        "favor_diaries_count" : 0,
        "userid" : "17174854",
        "birthday" : "",
        "point" : 0
      },
      "packages_id" : [

      ],
      "tags" : [

      ],
      "release_time" : "",
      "views_count_text" : "26.8万",
      "comments_count" : 15,
      "minor" : [

      ],
      "btm_dsp" : [

      ],
      "ipurl" : "",
      "title_ad" : [

      ],
      "levelid" : 2,
      "image" : "http:\/\/i1.douguo.net\/upload\/caiku\/9\/d\/2\/300_9d89827629ed335a7ffeaf7591549ac2.jpeg",
      "cook_difficulty_image" : "https:\/\/i1.douguo.com\/upload\/banner\/1551424390.png",
      "ss" : [

      ],
      "sr" : "",
      "favo_counts" : 5315,
      "v_u" : "",
      "vu" : "",
      "purl" : "",
      "comments" : [
        "{\n    ac = \"#999999\";\n    at = \"\";\n    ccc = 2;\n    \"child_comments\" =     (\n                {\n            ac = \"#999999\";\n            at = \"\\U5408\\U80a5\\U5e02\";\n            ccc = 0;\n            city = \"\\U5408\\U80a5\\U5e02\";\n            cmc = 2;\n            content =             (\n                                {\n                    c = \" \\U5efa\\U8bae1-2\\U514b\\Uff0c\\U53ef\\U4ee5\\U4e00\\U8fb9\\U52a0\\U4e00\\U8fb9\\U63c9\\Uff0c\\U4ee5\\U4e0a\\U8272\\U4e3a\\U76ee\\U7684\\U2764\\Ufe0f\";\n                }\n            );\n            ia = 1;\n            id = 8956511;\n            \"ip_address_location\" = \"\";\n            like = 0;\n            \"like_count\" = 0;\n            \"reply_id\" = 8956418;\n            \"reply_user\" =             {\n                \"followers_count_text\" = \"\";\n                id = 9622666;\n                \"is_prime\" = 0;\n                lv = 0;\n                lvl = 1;\n                n = \"\\U8bb8\\U743c\\U6a31\";\n                p = \"\";\n                \"progress_image\" = \"\";\n                \"recipes_count_text\" = \"\";\n                relationship = \"-1\";\n                title = \"\";\n                v = 0;\n                \"verified_image\" = \"\";\n            };\n            \"sticker_icon\" =             (\n            );\n            time = \"2022-07-18 12:46:58\";\n            u =             {\n                \"followers_count_text\" = \"\";\n                id = 17174854;\n                \"is_prime\" = 0;\n                lv = 0;\n                lvl = 6;\n                n = \"No\\U7cef\\U7cefoN\";\n                p = \"http:\/\/tx1.douguo.net\/upload\/photo\/b\/0\/8\/70_u60822135121386034738.jpeg\";\n                \"progress_image\" = \"\";\n                \"recipes_count_text\" = \"\";\n                relationship = \"-1\";\n                title = \"\";\n                v = 1;\n                \"verified_image\" = \"\";\n            };\n        },\n                {\n            ac = \"#999999\";\n            at = \"\";\n            ccc = 0;\n            city = \"\";\n            cmc = 2;\n            content =             (\n                                {\n                    c = \" \\U597d\\U7684\\Uff0c\\U8c22\\U8c22\";\n                }\n            );\n            ia = 0;\n            id = 8959803;\n            \"ip_address_location\" = \"\\U5e7f\\U4e1c\\U7701\";\n            like = 0;\n            \"like_count\" = 0;\n            \"reply_id\" = 8956511;\n            \"reply_user\" =             {\n                \"followers_count_text\" = \"\";\n                id = 17174854;\n                \"is_prime\" = 0;\n                lv = 0;\n                lvl = 6;\n                n = \"No\\U7cef\\U7cefoN\";\n                p = \"http:\/\/tx1.douguo.net\/upload\/photo\/b\/0\/8\/70_u60822135121386034738.jpeg\";\n                \"progress_image\" = \"\";\n                \"recipes_count_text\" = \"\";\n                relationship = \"-1\";\n                title = \"\";\n                v = 1;\n                \"verified_image\" = \"\";\n            };\n            \"sticker_icon\" =             (\n            );\n            time = \"2022-08-02 14:23:36\";\n            u =             {\n                \"followers_count_text\" = \"\";\n                id = 9622666;\n                \"is_prime\" = 0;\n                lv = 0;\n                lvl = 1;\n                n = \"\\U8bb8\\U743c\\U6a31\";\n                p = \"\";\n                \"progress_image\" = \"\";\n                \"recipes_count_text\" = \"\";\n                relationship = \"-1\";\n                title = \"\";\n                v = 0;\n                \"verified_image\" = \"\";\n            };\n        }\n    );\n    city = \"\";\n    cmc = 2;\n    content =     (\n                {\n            c = \"\\U4f60\\U597d\\Uff0c\\U52a0\\U7d2b\\U85af\\U7c89\\U7684\\U8bdd\\U6bd4\\U4f8b\\U5e94\\U8be5\\U662f\\U591a\\U5c11\\U514b\\Uff1f\";\n        }\n    );\n    ia = 0;\n    id = 8956418;\n    \"ip_address_location\" = \"\";\n    like = 0;\n    \"like_count\" = 0;\n    \"reply_id\" = 0;\n    \"sticker_icon\" =     (\n    );\n    time = \"2022-07-17 21:58:27\";\n    u =     {\n        \"followers_count_text\" = \"\";\n        id = 9622666;\n        \"is_prime\" = 0;\n        lv = 0;\n        lvl = 1;\n        n = \"\\U8bb8\\U743c\\U6a31\";\n        p = \"\";\n        \"progress_image\" = \"\";\n        \"recipes_count_text\" = \"\";\n        relationship = \"-1\";\n        title = \"\";\n        v = 0;\n        \"verified_image\" = \"\";\n    };\n}",
        "{\n    ac = \"#999999\";\n    at = \"\";\n    ccc = 2;\n    \"child_comments\" =     (\n                {\n            ac = \"#999999\";\n            at = \"\\U5408\\U80a5\\U5e02\";\n            ccc = 0;\n            city = \"\\U5408\\U80a5\\U5e02\";\n            cmc = 2;\n            content =             (\n                                {\n                    c = \" \\U6211\\U7528\\U7684\\U6cb9\\U662f\\U7389\\U7c73\\U6cb9\\Uff0c\\U5efa\\U8bae\\U4f7f\\U7528\\U5473\\U9053\\U4e0d\\U91cd\\U7684\\U6cb9\\Uff0c\\U6bd4\\U5982\\U7389\\U7c73\\U6cb9\\Uff0c\\U8475\\U82b1\\U7c7d\\U6cb9\\U706f\";\n                }\n            );\n            ia = 1;\n            id = 8786905;\n            \"ip_address_location\" = \"\";\n            like = 0;\n            \"like_count\" = 0;\n            \"reply_id\" = 8786793;\n            \"reply_user\" =             {\n                \"followers_count_text\" = \"\";\n                id = 25448382;\n                \"is_prime\" = 0;\n                lv = 0;\n                lvl = 1;\n                n = \"\\U5f00\\U5fc3\\U7684\\U7f8a\\U8e44\\U7b4b\";\n                p = \"http:\/\/tx1.douguo.net\/upload\/photo\/1\/1\/1\/70_ed31701cb56d1f008298e29ea489b45c.png\";\n                \"progress_image\" = \"\";\n                \"recipes_count_text\" = \"\";\n                relationship = \"-1\";\n                title = \"\";\n                v = 0;\n                \"verified_image\" = \"\";\n            };\n            \"sticker_icon\" =             (\n            );\n            time = \"2021-09-15 16:42:49\";\n            u =             {\n                \"followers_count_text\" = \"\";\n                id = 17174854;\n                \"is_prime\" = 0;\n                lv = 0;\n                lvl = 6;\n                n = \"No\\U7cef\\U7cefoN\";\n                p = \"http:\/\/tx1.douguo.net\/upload\/photo\/b\/0\/8\/70_u60822135121386034738.jpeg\";\n                \"progress_image\" = \"\";\n                \"recipes_count_text\" = \"\";\n                relationship = \"-1\";\n                title = \"\";\n                v = 1;\n                \"verified_image\" = \"\";\n            };\n        },\n                {\n            ac = \"#999999\";\n            at = \"\";\n            ccc = 0;\n            city = \"\";\n            cmc = 2;\n            content =             (\n                                {\n                    c = \" \\U90a3\\U8272\\U62c9\\U6cb9\\U5462\\Uff0c\\U6211\\U5c31\\U770b\\U7740\\U914d\\U6599\\U8868\\U4e70\\U7684\\U8272\\U62c9\\U6cb9\\Ud83d\\Ude33\\Ud83d\\Ude33\";\n                }\n            );\n            ia = 0;\n            id = 8786919;\n            \"ip_address_location\" = \"\";\n            like = 0;\n            \"like_count\" = 0;\n            \"reply_id\" = 8786905;\n            \"reply_user\" =             {\n                \"followers_count_text\" = \"\";\n                id = 17174854;\n                \"is_prime\" = 0;\n                lv = 0;\n                lvl = 6;\n                n = \"No\\U7cef\\U7cefoN\";\n                p = \"http:\/\/tx1.douguo.net\/upload\/photo\/b\/0\/8\/70_u60822135121386034738.jpeg\";\n                \"progress_image\" = \"\";\n                \"recipes_count_text\" = \"\";\n                relationship = \"-1\";\n                title = \"\";\n                v = 1;\n                \"verified_image\" = \"\";\n            };\n            \"sticker_icon\" =             (\n            );\n            time = \"2021-09-15 16:52:25\";\n            u =             {\n                \"followers_count_text\" = \"\";\n                id = 25448382;\n                \"is_prime\" = 0;\n                lv = 0;\n                lvl = 1;\n                n = \"\\U5f00\\U5fc3\\U7684\\U7f8a\\U8e44\\U7b4b\";\n                p = \"http:\/\/tx1.douguo.net\/upload\/photo\/1\/1\/1\/70_ed31701cb56d1f008298e29ea489b45c.png\";\n                \"progress_image\" = \"\";\n                \"recipes_count_text\" = \"\";\n                relationship = \"-1\";\n                title = \"\";\n                v = 0;\n                \"verified_image\" = \"\";\n            };\n        }\n    );\n    city = \"\";\n    cmc = 2;\n    content =     (\n                {\n            c = \"\\U7389\\U7c73\\U6cb9\\U548c\\U8272\\U62c9\\U6cb9\\U662f\\U4e00\\U4e2a\\U4e1c\\U897f\\U5417\\Uff1f\\U4e3a\\U4ec0\\U4e48\\U914d\\U6599\\U4e2d\\U662f\\U8272\\U62c9\\U6cb9\\Uff0c\\U6b65\\U9aa4\\U4e2d\\U662f\\U7389\\U7c73\\U6cb9\\Uff1f\\Uff08\\U840c\\U65b0\\U4e0d\\U61c2\\Uff0c\\U6c42\\U544a\\U77e5\\Ud83d\\Ude33\\Uff09\";\n        }\n    );\n    ia = 0;\n    id = 8786793;\n    \"ip_address_location\" = \"\";\n    like = 0;\n    \"like_count\" = 0;\n    \"reply_id\" = 0;\n    \"sticker_icon\" =     (\n    );\n    time = \"2021-09-15 15:07:18\";\n    u =     {\n        \"followers_count_text\" = \"\";\n        id = 25448382;\n        \"is_prime\" = 0;\n        lv = 0;\n        lvl = 1;\n        n = \"\\U5f00\\U5fc3\\U7684\\U7f8a\\U8e44\\U7b4b\";\n        p = \"http:\/\/tx1.douguo.net\/upload\/photo\/1\/1\/1\/70_ed31701cb56d1f008298e29ea489b45c.png\";\n        \"progress_image\" = \"\";\n        \"recipes_count_text\" = \"\";\n        relationship = \"-1\";\n        title = \"\";\n        v = 0;\n        \"verified_image\" = \"\";\n    };\n}",
        "{\n    ac = \"#999999\";\n    at = \"\\U5317\\U4eac\\U5e02\";\n    ccc = 2;\n    \"child_comments\" =     (\n                {\n            ac = \"#999999\";\n            at = \"\\U5408\\U80a5\\U5e02\";\n            ccc = 0;\n            city = \"\\U5408\\U80a5\\U5e02\";\n            cmc = 2;\n            content =             (\n                                {\n                    c = \" \\U53ef\\U98df\\U7528\\U8272\\U7d20\\Uff0c\\U6db2\\U4f53\\U7684\\Uff0c\\U7f51\\U4e0a\\U53ef\\U4ee5\\U4e70\\U5230\\Ud83d\\Udc4f\\U6216\\U8005\\U52a0\\U70b9\\U7d2b\\U85af\\U7c89\\U4e5f\\U662f\\U4e00\\U6837\\U7684\\Uff0c\\U66f4\\U5065\\U5eb7\\Ud83d\\Udc4d\";\n                }\n            );\n            ia = 1;\n            id = 8761339;\n            \"ip_address_location\" = \"\";\n            like = 0;\n            \"like_count\" = 0;\n            \"reply_id\" = 8761337;\n            \"reply_user\" =             {\n                \"followers_count_text\" = \"\";\n                id = 8653556;\n                \"is_prime\" = 0;\n                lv = 0;\n                lvl = 6;\n                n = \"\\U5b89\\U8fbe\\U8d5b\\U5a1c\";\n                p = \"http:\/\/tx1.douguo.net\/upload\/photo\/f\/a\/6\/70_u2701212418200151710.jpg\";\n                \"progress_image\" = \"\";\n                \"recipes_count_text\" = \"\";\n                relationship = \"-1\";\n                title = \"\";\n                v = 0;\n                \"verified_image\" = \"\";\n            };\n            \"sticker_icon\" =             (\n            );\n            time = \"2021-08-17 11:37:16\";\n            u =             {\n                \"followers_count_text\" = \"\";\n                id = 17174854;\n                \"is_prime\" = 0;\n                lv = 0;\n                lvl = 6;\n                n = \"No\\U7cef\\U7cefoN\";\n                p = \"http:\/\/tx1.douguo.net\/upload\/photo\/b\/0\/8\/70_u60822135121386034738.jpeg\";\n                \"progress_image\" = \"\";\n                \"recipes_count_text\" = \"\";\n                relationship = \"-1\";\n                title = \"\";\n                v = 1;\n                \"verified_image\" = \"\";\n            };\n        },\n                {\n            ac = \"#999999\";\n            at = \"\\U5317\\U4eac\\U5e02\";\n            ccc = 0;\n            city = \"\\U5317\\U4eac\\U5e02\";\n            cmc = 2;\n            content =             (\n                                {\n                    c = \" \\U54e6\\Uff0c\\U6211\\U8fd8\\U662f\\U89c9\\U5f97\\U52a0\\U7d2b\\U85af\\U7c89\\U6bd4\\U8f83\\U597d\\Ud83d\\Ude0b\";\n                }\n            );\n            ia = 0;\n            id = 8761350;\n            \"ip_address_location\" = \"\";\n            like = 0;\n            \"like_count\" = 0;\n            \"reply_id\" = 8761339;\n            \"reply_user\" =             {\n                \"followers_count_text\" = \"\";\n                id = 17174854;\n                \"is_prime\" = 0;\n                lv = 0;\n                lvl = 6;\n                n = \"No\\U7cef\\U7cefoN\";\n                p = \"http:\/\/tx1.douguo.net\/upload\/photo\/b\/0\/8\/70_u60822135121386034738.jpeg\";\n                \"progress_image\" = \"\";\n                \"recipes_count_text\" = \"\";\n                relationship = \"-1\";\n                title = \"\";\n                v = 1;\n                \"verified_image\" = \"\";\n            };\n            \"sticker_icon\" =             (\n            );\n            time = \"2021-08-17 11:43:52\";\n            u =             {\n                \"followers_count_text\" = \"\";\n                id = 8653556;\n                \"is_prime\" = 0;\n                lv = 0;\n                lvl = 6;\n                n = \"\\U5b89\\U8fbe\\U8d5b\\U5a1c\";\n                p = \"http:\/\/tx1.douguo.net\/upload\/photo\/f\/a\/6\/70_u2701212418200151710.jpg\";\n                \"progress_image\" = \"\";\n                \"recipes_count_text\" = \"\";\n                relationship = \"-1\";\n                title = \"\";\n                v = 0;\n                \"verified_image\" = \"\";\n            };\n        }\n    );\n    city = \"\\U5317\\U4eac\\U5e02\";\n    cmc = 2;\n    content =     (\n                {\n            c = \"\\U9999\\U828b\\U7d2b\\U8272\\U662f\\U4ec0\\U4e48\\U6dfb\\U52a0\\U5242\\Uff1f\";\n        }\n    );\n    ia = 0;\n    id = 8761337;\n    \"ip_address_location\" = \"\";\n    like = 0;\n    \"like_count\" = 0;\n    \"reply_id\" = 0;\n    \"sticker_icon\" =     (\n    );\n    time = \"2021-08-17 11:34:50\";\n    u =     {\n        \"followers_count_text\" = \"\";\n        id = 8653556;\n        \"is_prime\" = 0;\n        lv = 0;\n        lvl = 6;\n        n = \"\\U5b89\\U8fbe\\U8d5b\\U5a1c\";\n        p = \"http:\/\/tx1.douguo.net\/upload\/photo\/f\/a\/6\/70_u2701212418200151710.jpg\";\n        \"progress_image\" = \"\";\n        \"recipes_count_text\" = \"\";\n        relationship = \"-1\";\n        title = \"\";\n        v = 0;\n        \"verified_image\" = \"\";\n    };\n}"
      ],
      "ssu" : "",
      "advice" : {
        "da" : {
          "url" : "https:\/\/m.douguo.com\/recipe\/nutrient_self\/3119556",
          "iu" : "https:\/\/i1.douguo.com\/upload\/banner\/f\/4\/d\/f48877e53c37759bc12ac494be82ec8d.png",
          "t" : "查看详细分析"
        },
        "at" : "盐摄入过高有害健康～",
        "has" : [
          {
            "url" : "recipes:\/\/www.douguo.com\/simplerecipelist?t=低盐&id=低盐",
            "t" : "低盐"
          }
        ]
      },
      "top_mdsp" : [

      ],
      "ipit" : 0,
      "thumb_height" : 0,
      "ipoi" : "",
      "su" : "",
      "favo_counts_text" : "5315",
      "tips" : "1. 模具可以随意选择，但馅料和外皮的克数都应该是25克，加起来小于等于50克；\n2. 如果喜欢豆沙馅，可以参考之前的菜谱，其他材料都一样；\n3. 期待看到大家的作品~",
      "story_dsp" : [

      ],
      "cook_time_image" : "https:\/\/i1.douguo.com\/upload\/banner\/1551424318.png",
      "first_level_comment_count" : 8,
      "cookwares" : [

      ],
      "recipe_tags" : [

      ],
      "rate_count" : 1,
      "rewarded_video_dsp" : [

      ],
      "rips" : 0,
      "dish_count" : 1,
      "recommended" : 0,
      "eu" : "recipes:\/\/www.douguo.com\/postdetail?id=242016",
      "ipci" : "",
      "vfurl" : "",
      "brand_day_dsp" : [

      ],
      "bs" : [

      ],
      "rpt" : "",
      "cook_id" : "3119556",
      "ph" : 1280,
      "sc" : 0,
      "rrpt" : "",
      "vc" : "268374",
      "related_ads" : [

      ],
      "major" : [
        {
          "title" : "外皮部分",
          "note" : ""
        },
        {
          "tu" : "https:\/\/m.douguo.com\/ingredients\/糯米粉\/detailmaterial",
          "title" : "糯米粉",
          "note" : "50g"
        },
        {
          "title" : "粘米粉",
          "note" : "50g"
        },
        {
          "title" : "澄粉",
          "note" : "30g"
        },
        {
          "note" : "45g",
          "title" : "白砂糖",
          "tu" : "https:\/\/m.douguo.com\/ingredients\/白砂糖\/detailmaterial"
        },
        {
          "note" : "230g",
          "title" : "牛奶",
          "tu" : "https:\/\/m.douguo.com\/ingredients\/牛奶\/detailmaterial"
        },
        {
          "note" : "30g",
          "title" : "色拉油",
          "tu" : "https:\/\/m.douguo.com\/ingredients\/色拉油\/detailmaterial"
        },
        {
          "title" : "香芋紫色素",
          "note" : "3滴"
        },
        {
          "title" : "内陷部分",
          "note" : ""
        },
        {
          "title" : "芋头",
          "note" : "250g",
          "tu" : "https:\/\/m.douguo.com\/ingredients\/芋头\/detailmaterial"
        },
        {
          "title" : "牛奶",
          "tu" : "https:\/\/m.douguo.com\/ingredients\/牛奶\/detailmaterial",
          "note" : "50ml"
        },
        {
          "note" : "半个（25g）",
          "title" : "鸡蛋（可不加）"
        },
        {
          "title" : "白砂糖",
          "tu" : "https:\/\/m.douguo.com\/ingredients\/白砂糖\/detailmaterial",
          "note" : "20g"
        },
        {
          "tu" : "https:\/\/m.douguo.com\/ingredients\/黄油\/detailmaterial",
          "title" : "黄油",
          "note" : "15g"
        },
        {
          "title" : "其他",
          "note" : ""
        },
        {
          "title" : "黑色色素",
          "note" : "2滴"
        },
        {
          "note" : "适量",
          "title" : "炒熟的糯米粉（糕粉）"
        }
      ],
      "ipt" : "",
      "display_ingredient" : 1,
      "rpid" : 0,
      "hqu" : "recipes:\/\/www.douguo.com\/notedetail?id=21162253",
      "event" : {
        "name" : "我的养生日常——远离秋燥",
        "id" : 3216,
        "url" : "https:\/\/m.douguo.com\/activity\/ncpzj\/detail\/3216?isapp=1&open=0&_vs=1000300&&dg_refreshkey=publishnote"
      },
      "rpst" : ""
    }
  },
  "state" : "success",
  "status" : 0
}