{
  "result" : {
    "recipe" : {
      "event" : {
        "name" : "莓语健康日记丨用春日清新蔓越莓滋味点缀你的莓好生活",
        "url" : "https:\/\/m.douguo.com\/activity\/ncpzj\/detail\/3455?isapp=1&open=0&_vs=1000300&&dg_refreshkey=publishnote",
        "id" : 3455
      },
      "ipurl" : "",
      "rips" : 0,
      "ph" : 1566,
      "guide_image" : "",
      "su" : "",
      "cook_time_image" : "",
      "rdsps" : [

      ],
      "notes" : [

      ],
      "cookstorys" : [
        {
          "u" : "",
          "type" : 0,
          "color" : "",
          "id" : 0,
          "c" : "做了一杯，感觉做少了，超香超好喝。\n蔓越莓冻撞椰奶，给春天增加一抹甜滋味。",
          "icon" : ""
        },
        {
          "color" : "",
          "id" : 0,
          "type" : 0,
          "u" : "",
          "icon" : "",
          "c" : "\n参与活动:"
        },
        {
          "id" : 0,
          "type" : 0,
          "icon" : "",
          "c" : "#莓语健康日记丨用春日清新蔓越莓滋味点缀你的莓好生活#",
          "u" : "https:\/\/m.douguo.com\/activity\/ncpzj\/detail\/3455?isapp=1&open=0&_vs=1000300&&dg_refreshkey=publishnote"
        }
      ],
      "old_comments" : [

      ],
      "comments_count" : 0,
      "recommendation_tag" : "",
      "create_time" : "2022-04-16 15:48:17",
      "vc" : "119272",
      "rpt" : "",
      "release_time" : "",
      "hqu" : "recipes:\/\/www.douguo.com\/notedetail?id=21162253",
      "tips" : "做一杯可能不够喝哦！",
      "brand_day_dsp" : [

      ],
      "cookstep" : [
        {
          "image" : "https:\/\/i1.douguo.com\/upload\/caiku\/e\/c\/9\/eca7b847579453b03a33d543ce27e639.jpeg",
          "content" : "食材",
          "frame" : "-1",
          "image_height" : 2880,
          "position" : 1,
          "thumb" : "https:\/\/i1.douguo.com\/upload\/caiku\/e\/c\/9\/140_eca7b847579453b03a33d543ce27e639.jpeg",
          "image_width" : 3840
        },
        {
          "image_width" : 3840,
          "position" : 2,
          "image" : "https:\/\/i1.douguo.com\/upload\/caiku\/6\/f\/6\/6fced7505dd1fb374239fe90a9a04406.jpeg",
          "thumb" : "https:\/\/i1.douguo.com\/upload\/caiku\/6\/f\/6\/140_6fced7505dd1fb374239fe90a9a04406.jpeg",
          "frame" : "-1",
          "content" : "蔓越莓汁倒入锅中煮开。",
          "image_height" : 2880
        },
        {
          "image" : "https:\/\/i1.douguo.com\/upload\/caiku\/a\/f\/f\/afe1a92d2f4aefb286da1f28e8d7fd6f.jpeg",
          "thumb" : "https:\/\/i1.douguo.com\/upload\/caiku\/a\/f\/f\/140_afe1a92d2f4aefb286da1f28e8d7fd6f.jpeg",
          "image_height" : 2880,
          "frame" : "-1",
          "image_width" : 3840,
          "position" : 3,
          "content" : "加入白凉粉搅匀，再煮一分钟，关火"
        },
        {
          "position" : 4,
          "image_height" : 2880,
          "frame" : "-1",
          "image" : "https:\/\/i1.douguo.com\/upload\/caiku\/7\/0\/a\/7024b164a6e49f8ecf64a603ffce2a2a.jpeg",
          "content" : "倒入杯子里放凉，放入冰箱~差不多一小时就结冻了。",
          "image_width" : 3840,
          "thumb" : "https:\/\/i1.douguo.com\/upload\/caiku\/7\/0\/a\/140_7024b164a6e49f8ecf64a603ffce2a2a.jpeg"
        },
        {
          "position" : 5,
          "content" : "倒入椰奶用勺子或竹签儿，搅拌一下",
          "thumb" : "https:\/\/i1.douguo.com\/upload\/caiku\/d\/1\/7\/140_d1c770d479c727f7a55f370ffa75e4a7.jpeg",
          "image_height" : 2880,
          "image" : "https:\/\/i1.douguo.com\/upload\/caiku\/d\/1\/7\/d1c770d479c727f7a55f370ffa75e4a7.jpeg",
          "frame" : "-1",
          "image_width" : 3840
        },
        {
          "content" : "成品，好好喝",
          "image" : "https:\/\/i1.douguo.com\/upload\/caiku\/9\/0\/0\/9093cd9b068e98444907f80fe0ad2ed0.jpeg",
          "image_height" : 2880,
          "frame" : "-1",
          "image_width" : 3840,
          "position" : 6,
          "thumb" : "https:\/\/i1.douguo.com\/upload\/caiku\/9\/0\/0\/140_9093cd9b068e98444907f80fe0ad2ed0.jpeg"
        }
      ],
      "top_mdsp" : [

      ],
      "recent_comments" : [

      ],
      "user" : {
        "gender" : 2,
        "regist_time" : "",
        "age" : "",
        "avatar_medium" : "http:\/\/tx1.douguo.net\/upload\/photo\/c\/8\/5\/140_c8e958598184b7d05b4da40b48ad9175.jpg",
        "email" : "",
        "user_id" : "5681875",
        "verified_url" : "https:\/\/m.douguo.com\/user\/prodesc",
        "introduction" : "",
        "user_cover" : "",
        "lv" : 0,
        "following_count" : 0,
        "favorites_count" : 0,
        "fc" : 0,
        "weibo_nick" : "",
        "lvl" : 7,
        "birthday" : "",
        "favor_diaries_count" : 0,
        "followers_count" : 0,
        "verified_image" : "https:\/\/i1.douguo.com\/upload\/note\/d\/a\/a\/da84247847aebe48d9dd0fcdac88862a.png",
        "point" : 0,
        "setted_email" : 0,
        "mobile" : "",
        "is_prime" : 0,
        "user_photo" : "http:\/\/tx1.douguo.net\/upload\/photo\/c\/8\/5\/70_c8e958598184b7d05b4da40b48ad9175.jpg",
        "location" : 0,
        "nick" : "零度甜品",
        "subscription" : 0,
        "dishes_count" : 0,
        "qq_weibo_nick" : "",
        "user_large_photo" : "http:\/\/tx1.douguo.net\/upload\/photo\/c\/8\/5\/yuan_c8e958598184b7d05b4da40b48ad9175.jpg",
        "pc" : 0,
        "recipes_count" : 0,
        "progress_image" : "",
        "verified" : 1,
        "sign" : "",
        "diaries_count" : 0,
        "qzone_nick" : "",
        "coursecount" : 0,
        "subscription_article_count" : 0,
        "userid" : "5681875"
      },
      "sr" : "",
      "sc" : 0,
      "related_ads" : [

      ],
      "btm_dsp" : [

      ],
      "rsm" : "该功能暂停使用",
      "comments" : [

      ],
      "comments_count_text" : "",
      "cook_id" : "3182957",
      "display_ingredient" : 1,
      "story_dsp" : [

      ],
      "dish_count" : 0,
      "purl" : "",
      "title" : "蔓越莓冻撞椰奶",
      "ipoi" : "",
      "ecs" : 1,
      "tags" : [

      ],
      "share_info" : {
        "s_d" : "蔓越莓冻撞椰奶-会做饭很酷!",
        "qr_image" : "",
        "mini_program" : [

        ],
        "image" : "https:\/\/cp1.douguo.com\/upload\/caiku\/d\/a\/b\/da74653cf3ec0ab5b57e7131ecdfbf1b.jpeg",
        "infos" : [
          {
            "image" : "https:\/\/cp1.douguo.com\/upload\/caiku\/d\/a\/b\/da74653cf3ec0ab5b57e7131ecdfbf1b.jpeg",
            "qr_image" : "",
            "s_u" : "",
            "channel" : "1",
            "name" : "蔓越莓冻撞椰奶-会做饭很酷!",
            "object_id" : "3182957",
            "s_d" : "#学做饭用豆果美食# 我在@豆果美食 分享了【蔓越莓冻撞椰奶-会做饭很酷!】，色香味俱全说的就是这道菜！查看图片了解菜谱（快来点击https:\/\/m.weibo.cn\/p\/100404i33631和我一起修炼厨艺吧）#会做饭很酷# ",
            "mini_program" : [

            ]
          },
          {
            "object_id" : "3182957",
            "image" : "https:\/\/cp1.douguo.com\/upload\/caiku\/d\/a\/b\/da74653cf3ec0ab5b57e7131ecdfbf1b.jpeg",
            "channel" : "7",
            "s_d" : "蔓越莓冻撞椰奶-会做饭很酷!",
            "name" : "蔓越莓冻撞椰奶-会做饭很酷!",
            "qr_image" : "",
            "mini_program" : [

            ],
            "s_u" : "http:\/\/m.douguo.com\/cookbook\/3182957.html"
          },
          {
            "s_u" : "http:\/\/m.douguo.com\/cookbook\/3182957.html",
            "qr_image" : "",
            "object_id" : "3182957",
            "image" : "https:\/\/cp1.douguo.com\/upload\/caiku\/d\/a\/b\/da74653cf3ec0ab5b57e7131ecdfbf1b.jpeg",
            "name" : "蔓越莓冻撞椰奶-会做饭很酷!",
            "s_d" : "蔓越莓冻撞椰奶-会做饭很酷!",
            "mini_program" : [

            ],
            "channel" : "8"
          }
        ],
        "s_u" : "http:\/\/m.douguo.com\/cookbook\/3182957.html",
        "object_id" : "3182957",
        "name" : "蔓越莓冻撞椰奶-会做饭很酷!"
      },
      "cook_time" : "",
      "thumb_path" : "https:\/\/i1.douguo.com\/upload\/caiku\/d\/a\/b\/300_da74653cf3ec0ab5b57e7131ecdfbf1b.jpeg",
      "rate_show" : 0,
      "views_count_text" : "11.9万",
      "title_ad" : [

      ],
      "recipe_list_tags" : [
        {
          "background_end_color" : "#F4F5F5",
          "background_border_color" : "",
          "text" : "关注的人",
          "text_color" : "#141515",
          "jump_url" : "",
          "right_image" : "",
          "background_start_color" : "#F4F5F5"
        },
        {
          "text" : "内容详细",
          "jump_url" : "",
          "text_color" : "#141515",
          "background_end_color" : "#F4F5F5",
          "background_border_color" : "",
          "background_start_color" : "#F4F5F5",
          "right_image" : ""
        }
      ],
      "act_des" : "",
      "recommend_label" : "3617人刚刚收藏过",
      "ss" : [

      ],
      "eu" : "recipes:\/\/www.douguo.com\/postdetail?id=242016",
      "ipit" : 0,
      "pw" : 1920,
      "rate" : 0,
      "author_verified" : 1,
      "dish_count_text" : "",
      "rpst" : "",
      "hq" : 1,
      "author_id" : 5681875,
      "packages_id" : [

      ],
      "clicks" : "1",
      "first_level_comment_count" : 0,
      "original_photo_path" : "http:\/\/i1.douguo.net\/upload\/caiku\/d\/a\/b\/yuan_da74653cf3ec0ab5b57e7131ecdfbf1b.jpeg",
      "cook_difficulty_image" : "",
      "photo_path" : "https:\/\/i1.douguo.com\/upload\/caiku\/d\/a\/b\/600_da74653cf3ec0ab5b57e7131ecdfbf1b.jpeg",
      "ipt" : "",
      "rpid" : 0,
      "author_photo" : "http:\/\/tx1.douguo.net\/upload\/photo\/c\/8\/5\/70_c8e958598184b7d05b4da40b48ad9175.jpg",
      "rcs" : [

      ],
      "collect_status" : 0,
      "ipci" : "",
      "cook_difficulty" : "",
      "thumb_height" : 0,
      "rrps" : [

      ],
      "mid_mdsp" : [

      ],
      "favo_counts_text" : "3617",
      "ssu" : "",
      "recommended" : 0,
      "vfurl" : "",
      "ipia" : [

      ],
      "cookwares" : [

      ],
      "author" : "零度甜品",
      "recipe_tags" : [

      ],
      "rrpt" : "",
      "minor" : [

      ],
      "cookstory" : "做了一杯，感觉做少了，超香超好喝。\n蔓越莓冻撞椰奶，给春天增加一抹甜滋味。",
      "major" : [
        {
          "title" : "蔓越莓汁",
          "note" : "200克"
        },
        {
          "note" : "10克",
          "title" : "白凉粉"
        },
        {
          "note" : "适量",
          "title" : "椰奶"
        }
      ],
      "dishes" : [

      ],
      "bs" : [

      ],
      "vu" : "",
      "rewarded_video_dsp" : [

      ],
      "image" : "http:\/\/i1.douguo.net\/upload\/caiku\/d\/a\/b\/300_da74653cf3ec0ab5b57e7131ecdfbf1b.jpeg",
      "favo_counts" : 3617,
      "rate_count" : 0,
      "v_u" : "",
      "levelid" : 2
    }
  },
  "state" : "success",
  "status" : 0
}