{
  "status" : 0,
  "state" : "success",
  "result" : {
    "recipe" : {
      "rate_show" : 0,
      "cookstorys" : [
        {
          "u" : "",
          "id" : 0,
          "c" : "千张皮有的地方叫做豆皮，富含优质蛋白质，低脂肪又健康的食材，搭配剁椒、胡萝卜，营养丰富，美味可口",
          "icon" : "",
          "type" : 0,
          "color" : ""
        },
        {
          "c" : "\n参与活动:",
          "u" : "",
          "icon" : "",
          "color" : "",
          "id" : 0,
          "type" : 0
        },
        {
          "icon" : "",
          "c" : "#创作达人挑战赛--健康减脂餐#",
          "id" : 0,
          "type" : 0,
          "u" : "https:\/\/m.douguo.com\/activity\/ncpzj\/detail\/3205?isapp=1&open=0&_vs=1000300&&dg_refreshkey=publishnote"
        }
      ],
      "author_id" : 23207227,
      "bs" : [

      ],
      "title_ad" : [

      ],
      "original_photo_path" : "http:\/\/i1.douguo.net\/upload\/caiku\/1\/9\/e\/yuan_19a88edd25e80532791d18437cbcd71e.jpeg",
      "story_dsp" : [

      ],
      "cook_time" : "10~30分钟",
      "vfurl" : "",
      "clicks" : "137388",
      "ss" : [

      ],
      "pw" : 1084,
      "recent_comments" : [

      ],
      "advice" : {
        "has" : [
          {
            "t" : "高脂肪",
            "url" : "recipes:\/\/www.douguo.com\/simplerecipelist?t=高脂肪&id=高脂肪"
          },
          {
            "t" : "高盐",
            "url" : "recipes:\/\/www.douguo.com\/simplerecipelist?t=高盐&id=高盐"
          }
        ],
        "at" : "不控制会变胖啊！！～",
        "da" : {
          "t" : "查看详细分析",
          "iu" : "https:\/\/i1.douguo.com\/upload\/banner\/f\/4\/d\/f48877e53c37759bc12ac494be82ec8d.png",
          "url" : "https:\/\/m.douguo.com\/recipe\/nutrient_self\/3121418"
        }
      },
      "author_verified" : 0,
      "dish_count" : 0,
      "release_time" : "",
      "rate_count" : 0,
      "purl" : "",
      "rips" : 0,
      "su" : "",
      "cookwares" : [
        "{\n    binded = 1;\n    \"brand_id\" = 4;\n    \"brand_name\" = \"\\U4e5d\\U9633\";\n    \"cookware_category_id\" = 32;\n    \"cookware_category_name\" = \"\\U7535\\U78c1\\U7089\";\n    image = \"https:\/\/i1.douguo.com\/upload\/item\/1\/5\/1\/15caaca7205bac272aaa7dda4075bbc1.jpg\";\n    \"model_name\" = \"\";\n    url = \"\";\n}"
      ],
      "cookstep" : [
        {
          "content" : "千张皮洗净，切成丝，用少量的食盐腌制一下，这样千张丝比较有韧性",
          "image_height" : 1090,
          "image" : "https:\/\/i1.douguo.com\/upload\/caiku\/3\/a\/8\/3a2fb9a50b6782bdc852f155b5363728.jpeg",
          "image_width" : 1080,
          "thumb" : "https:\/\/i1.douguo.com\/upload\/caiku\/3\/a\/8\/140_3a2fb9a50b6782bdc852f155b5363728.jpeg",
          "position" : 1,
          "frame" : "-1"
        },
        {
          "content" : "准备剁椒，小葱洗净切成葱花，胡萝卜切片用开水烫一下备用",
          "frame" : "-1",
          "thumb" : "https:\/\/i1.douguo.com\/upload\/caiku\/8\/7\/2\/140_8778ba57acf7b40f7c997b857a3d0f52.jpeg",
          "image" : "https:\/\/i1.douguo.com\/upload\/caiku\/8\/7\/2\/8778ba57acf7b40f7c997b857a3d0f52.jpeg",
          "image_height" : 1080,
          "image_width" : 1080,
          "position" : 2
        },
        {
          "position" : 3,
          "frame" : "-1",
          "image_height" : 1080,
          "image" : "https:\/\/i1.douguo.com\/upload\/caiku\/5\/0\/8\/5069cd428c983b7bf8694a02d0f41c08.jpeg",
          "image_width" : 1080,
          "thumb" : "https:\/\/i1.douguo.com\/upload\/caiku\/5\/0\/8\/140_5069cd428c983b7bf8694a02d0f41c08.jpeg",
          "content" : "锅里倒入适量的食用油烧开，加入剁椒煸炒一下"
        },
        {
          "thumb" : "https:\/\/i1.douguo.com\/upload\/caiku\/5\/e\/1\/140_5e9bebb9f2f482cefddcc6f184bc8781.jpeg",
          "image" : "https:\/\/i1.douguo.com\/upload\/caiku\/5\/e\/1\/5e9bebb9f2f482cefddcc6f184bc8781.jpeg",
          "image_width" : 1080,
          "frame" : "-1",
          "image_height" : 1080,
          "position" : 4,
          "content" : "加入千张丝和剁椒一起翻炒均匀"
        },
        {
          "image_width" : 1080,
          "content" : "加入适量的白醋",
          "image_height" : 1080,
          "image" : "https:\/\/i1.douguo.com\/upload\/caiku\/a\/5\/5\/a5aeab4ca6ce4e58c1041e293f1d5985.jpeg",
          "frame" : "-1",
          "position" : 5,
          "thumb" : "https:\/\/i1.douguo.com\/upload\/caiku\/a\/5\/5\/140_a5aeab4ca6ce4e58c1041e293f1d5985.jpeg"
        },
        {
          "image_height" : 1080,
          "image_width" : 1080,
          "thumb" : "https:\/\/i1.douguo.com\/upload\/caiku\/4\/8\/2\/140_48f997504ec84bd4b14a5c9d8cbf1b92.jpeg",
          "content" : "加入少许水焖煮一下，大约2分钟左右",
          "image" : "https:\/\/i1.douguo.com\/upload\/caiku\/4\/8\/2\/48f997504ec84bd4b14a5c9d8cbf1b92.jpeg",
          "position" : 6,
          "frame" : "-1"
        },
        {
          "image" : "https:\/\/i1.douguo.com\/upload\/caiku\/1\/a\/0\/1ae729c7de7ef9d9442594e827130640.jpeg",
          "frame" : "-1",
          "position" : 7,
          "content" : "加入适量的蔬菜精翻炒均匀",
          "image_width" : 1080,
          "thumb" : "https:\/\/i1.douguo.com\/upload\/caiku\/1\/a\/0\/140_1ae729c7de7ef9d9442594e827130640.jpeg",
          "image_height" : 1080
        },
        {
          "content" : "最后撒上一把葱花，翻炒均匀即可出锅",
          "image" : "https:\/\/i1.douguo.com\/upload\/caiku\/9\/6\/f\/96b65e74a4f567b534a3c2400a31c28f.jpeg",
          "frame" : "-1",
          "thumb" : "https:\/\/i1.douguo.com\/upload\/caiku\/9\/6\/f\/140_96b65e74a4f567b534a3c2400a31c28f.jpeg",
          "image_width" : 1080,
          "position" : 8,
          "image_height" : 1080
        },
        {
          "image_height" : 1078,
          "frame" : "-1",
          "content" : "将千张丝盛入盘中，摆上胡萝卜片即可食用",
          "position" : 9,
          "image" : "https:\/\/i1.douguo.com\/upload\/caiku\/e\/5\/9\/e504163fbd927ab578dc55def0c3a049.jpeg",
          "thumb" : "https:\/\/i1.douguo.com\/upload\/caiku\/e\/5\/9\/140_e504163fbd927ab578dc55def0c3a049.jpeg",
          "image_width" : 1088
        },
        {
          "position" : 10,
          "frame" : "-1",
          "image_width" : 1084,
          "image_height" : 1080,
          "content" : "一盘漂亮美味可口的剁椒炒千张丝，你可以开动啦",
          "thumb" : "https:\/\/i1.douguo.com\/upload\/caiku\/d\/b\/4\/140_dbf5c55f5d35467253f1520eb67a5304.jpeg",
          "image" : "https:\/\/i1.douguo.com\/upload\/caiku\/d\/b\/4\/dbf5c55f5d35467253f1520eb67a5304.jpeg"
        }
      ],
      "share_info" : {
        "s_d" : "#一周减脂不重样#剁椒炒千张～普通食材不普通的味道，别样诱惑-会做饭很酷!",
        "infos" : [
          {
            "image" : "https:\/\/cp1.douguo.com\/upload\/caiku\/1\/9\/e\/19a88edd25e80532791d18437cbcd71e.jpeg",
            "channel" : "1",
            "object_id" : "3121418",
            "mini_program" : [

            ],
            "s_u" : "",
            "qr_image" : "",
            "name" : "#一周减脂不重样#剁椒炒千张～普通食材不普通的味道，别样诱惑-会做饭很酷!",
            "s_d" : "#学做饭用豆果美食# 我在@豆果美食 分享了【#一周减脂不重样#剁椒炒千张～普通食材不普通的味道，别样诱惑-会做饭很酷!】，色香味俱全说的就是这道菜！查看图片了解菜谱（快来点击https:\/\/m.weibo.cn\/p\/100404i33631和我一起修炼厨艺吧）#会做饭很酷# "
          },
          {
            "s_d" : "#一周减脂不重样#剁椒炒千张～普通食材不普通的味道，别样诱惑-会做饭很酷!",
            "image" : "https:\/\/cp1.douguo.com\/upload\/caiku\/1\/9\/e\/19a88edd25e80532791d18437cbcd71e.jpeg",
            "object_id" : "3121418",
            "channel" : "7",
            "mini_program" : [

            ],
            "name" : "#一周减脂不重样#剁椒炒千张～普通食材不普通的味道，别样诱惑-会做饭很酷!",
            "s_u" : "http:\/\/m.douguo.com\/cookbook\/3121418.html",
            "qr_image" : ""
          },
          {
            "s_u" : "http:\/\/m.douguo.com\/cookbook\/3121418.html",
            "channel" : "8",
            "qr_image" : "",
            "object_id" : "3121418",
            "image" : "https:\/\/cp1.douguo.com\/upload\/caiku\/1\/9\/e\/19a88edd25e80532791d18437cbcd71e.jpeg",
            "mini_program" : [

            ],
            "name" : "#一周减脂不重样#剁椒炒千张～普通食材不普通的味道，别样诱惑-会做饭很酷!",
            "s_d" : "#一周减脂不重样#剁椒炒千张～普通食材不普通的味道，别样诱惑-会做饭很酷!"
          }
        ],
        "image" : "https:\/\/cp1.douguo.com\/upload\/caiku\/1\/9\/e\/19a88edd25e80532791d18437cbcd71e.jpeg",
        "s_u" : "http:\/\/m.douguo.com\/cookbook\/3121418.html",
        "object_id" : "3121418",
        "qr_image" : "",
        "mini_program" : [

        ],
        "name" : "#一周减脂不重样#剁椒炒千张～普通食材不普通的味道，别样诱惑-会做饭很酷!"
      },
      "recommendation_tag" : "",
      "minor" : [

      ],
      "ipoi" : "",
      "first_level_comment_count" : 1,
      "views_count_text" : "14.1万",
      "ecs" : 1,
      "thumb_height" : 0,
      "ipurl" : "",
      "cook_difficulty_image" : "https:\/\/i1.douguo.com\/upload\/banner\/1551424390.png",
      "rpt" : "",
      "thumb_path" : "https:\/\/i1.douguo.com\/upload\/caiku\/1\/9\/e\/300_19a88edd25e80532791d18437cbcd71e.jpeg",
      "rrpt" : "",
      "image" : "http:\/\/i1.douguo.net\/upload\/caiku\/1\/9\/e\/300_19a88edd25e80532791d18437cbcd71e.jpeg",
      "display_ingredient" : 1,
      "rewarded_video_dsp" : [

      ],
      "event" : {
        "url" : "https:\/\/m.douguo.com\/activity\/ncpzj\/detail\/3205?isapp=1&open=0&_vs=1000300&&dg_refreshkey=publishnote",
        "id" : 3205,
        "name" : "创作达人挑战赛--健康减脂餐"
      },
      "comments_count_text" : "1",
      "rpid" : 0,
      "eu" : "recipes:\/\/www.douguo.com\/postdetail?id=242016",
      "cookstory" : "千张皮有的地方叫做豆皮，富含优质蛋白质，低脂肪又健康的食材，搭配剁椒、胡萝卜，营养丰富，美味可口",
      "favo_counts_text" : "4263",
      "user" : {
        "email" : "",
        "gender" : 2,
        "fc" : 0,
        "location" : 0,
        "age" : "",
        "qq_weibo_nick" : "",
        "weibo_nick" : "",
        "verified" : 0,
        "avatar_medium" : "http:\/\/tx1.douguo.net\/upload\/photo\/e\/d\/5\/140_u48751581627022092036.jpeg",
        "setted_email" : 0,
        "lv" : 0,
        "recipes_count" : 0,
        "favor_diaries_count" : 0,
        "qzone_nick" : "",
        "point" : 0,
        "mobile" : "",
        "regist_time" : "",
        "subscription" : 0,
        "sign" : "",
        "birthday" : "",
        "nick" : "浅夏༇雨中弥漫着淡淡的花香",
        "user_id" : "23207227",
        "verified_image" : "",
        "is_prime" : 0,
        "dishes_count" : 0,
        "userid" : "23207227",
        "user_photo" : "http:\/\/tx1.douguo.net\/upload\/photo\/e\/d\/5\/70_u48751581627022092036.jpeg",
        "subscription_article_count" : 0,
        "favorites_count" : 0,
        "progress_image" : "",
        "verified_url" : "https:\/\/m.douguo.com\/user\/prodesc",
        "user_large_photo" : "http:\/\/tx1.douguo.net\/upload\/photo\/e\/d\/5\/yuan_u48751581627022092036.jpeg",
        "introduction" : "",
        "followers_count" : 0,
        "diaries_count" : 0,
        "pc" : 0,
        "lvl" : 7,
        "user_cover" : "",
        "following_count" : 0,
        "coursecount" : 0
      },
      "comments_count" : 1,
      "mid_mdsp" : [

      ],
      "btm_dsp" : [

      ],
      "tips" : "",
      "top_mdsp" : [

      ],
      "sc" : 0,
      "collect_status" : 0,
      "notes" : [

      ],
      "levelid" : 2,
      "old_comments" : [

      ],
      "guide_image" : "",
      "vc" : "140733",
      "brand_day_dsp" : [

      ],
      "cook_difficulty" : "切墩(初级)",
      "ssu" : "",
      "ipt" : "",
      "rdsps" : [

      ],
      "act_des" : "",
      "rpst" : "",
      "hq" : 1,
      "favo_counts" : 4263,
      "create_time" : "2021-08-15 10:34:23",
      "rsm" : "该功能暂停使用",
      "recipe_list_tags" : [
        {
          "background_border_color" : "",
          "text_color" : "#141515",
          "text" : "关注的人",
          "background_start_color" : "#F4F5F5",
          "right_image" : "",
          "jump_url" : "",
          "background_end_color" : "#F4F5F5"
        }
      ],
      "cook_id" : "3121418",
      "recipe_tags" : [

      ],
      "related_ads" : [

      ],
      "dishes" : [

      ],
      "photo_path" : "https:\/\/i1.douguo.com\/upload\/caiku\/1\/9\/e\/600_19a88edd25e80532791d18437cbcd71e.jpeg",
      "major" : [
        {
          "note" : "2张",
          "title" : "千张皮"
        },
        {
          "note" : "2勺",
          "title" : "剁椒",
          "tu" : "https:\/\/m.douguo.com\/ingredients\/剁椒\/detailmaterial"
        },
        {
          "note" : "适量",
          "tu" : "https:\/\/m.douguo.com\/ingredients\/食盐\/detailmaterial",
          "title" : "食盐"
        },
        {
          "note" : "适量",
          "title" : "蔬菜精"
        },
        {
          "note" : "1\/4根",
          "tu" : "https:\/\/m.douguo.com\/ingredients\/胡萝卜\/detailmaterial",
          "title" : "胡萝卜"
        },
        {
          "tu" : "https:\/\/m.douguo.com\/ingredients\/小葱\/detailmaterial",
          "title" : "小葱",
          "note" : "2根"
        },
        {
          "note" : "2勺",
          "title" : "食用油",
          "tu" : "https:\/\/m.douguo.com\/ingredients\/食用油\/detailmaterial"
        },
        {
          "tu" : "https:\/\/m.douguo.com\/ingredients\/白醋\/detailmaterial",
          "note" : "5克",
          "title" : "白醋"
        }
      ],
      "recommend_label" : "4263人刚刚收藏过",
      "ipia" : [

      ],
      "dish_count_text" : "",
      "rate" : 0,
      "ipit" : 0,
      "rcs" : [

      ],
      "author_photo" : "http:\/\/tx1.douguo.net\/upload\/photo\/e\/d\/5\/70_u48751581627022092036.jpeg",
      "v_u" : "",
      "sr" : "",
      "rrps" : [

      ],
      "ph" : 1080,
      "hqu" : "recipes:\/\/www.douguo.com\/notedetail?id=21162253",
      "packages_id" : [

      ],
      "author" : "浅夏༇雨中弥漫着淡淡的花香",
      "ipci" : "",
      "recommended" : 0,
      "title" : "剁椒炒千张～普通食材不普通的味道，别样诱惑",
      "tags" : [

      ],
      "vu" : "",
      "cook_time_image" : "https:\/\/i1.douguo.com\/upload\/banner\/1551424341.png",
      "comments" : [
        "{\n    ac = \"#999999\";\n    at = \"\";\n    ccc = 0;\n    \"child_comments\" =     (\n    );\n    city = \"\";\n    cmc = 2;\n    content =     (\n                {\n            c = \"\\U4e0b\\U6b21\\U8981\\U8bd5\\U8bd5\\U4e00\\U5b9a\\U4e00\\U5b9a\\Uff01\";\n        }\n    );\n    ia = 0;\n    id = 8759845;\n    \"ip_address_location\" = \"\";\n    like = 0;\n    \"like_count\" = 0;\n    \"reply_id\" = 0;\n    \"sticker_icon\" =     (\n    );\n    time = \"2021-08-15 11:22:07\";\n    u =     {\n        \"followers_count_text\" = \"\";\n        id = 18490761;\n        \"is_prime\" = 0;\n        lv = 0;\n        lvl = 3;\n        n = \"\\U039cm\\U6211\\U61f7\\U5ff5\\U7684\\U2605\";\n        p = \"http:\/\/tx1.douguo.net\/upload\/photo\/d\/6\/d\/70_u14848555421860408162151.jpg\";\n        \"progress_image\" = \"\";\n        \"recipes_count_text\" = \"\";\n        relationship = \"-1\";\n        title = \"\";\n        v = 0;\n        \"verified_image\" = \"\";\n    };\n}"
      ]
    }
  }
}