{
  "state" : "success",
  "result" : {
    "recipe" : {
      "old_comments" : [

      ],
      "hq" : 0,
      "ssu" : "",
      "ipoi" : "",
      "tags" : [
        "{\n    text = \"\\U751c\\U54c1\";\n}",
        "{\n    text = \"\\U4e0b\\U5348\\U8336\";\n}"
      ],
      "comments_count" : 0,
      "original_photo_path" : "http:\/\/i1.douguo.net\/upload\/caiku\/b\/e\/a\/yuan_bea0e922aa3e8282340c061c8592119a.jpeg",
      "release_time" : "",
      "photo_path" : "https:\/\/i1.douguo.com\/upload\/caiku\/b\/e\/a\/600_bea0e922aa3e8282340c061c8592119a.jpeg",
      "dishes" : [

      ],
      "rrps" : [

      ],
      "rrpt" : "",
      "author_verified" : 0,
      "rpid" : 0,
      "btm_dsp" : [

      ],
      "comments_count_text" : "",
      "author" : "Dorry冬",
      "ipurl" : "",
      "ipit" : 0,
      "recommend_label" : "1.7万人看过",
      "recommendation_tag" : "",
      "vu" : "",
      "rips" : 0,
      "create_time" : "2016-02-22 19:44:33",
      "v_u" : "",
      "hqu" : "recipes:\/\/www.douguo.com\/notedetail?id=21162253",
      "packages_id" : [

      ],
      "user" : {
        "introduction" : "",
        "userid" : "16314860",
        "avatar_medium" : "http:\/\/tx1.douguo.net\/upload\/photo\/2\/8\/6\/140_u53358189915517212714.jpeg",
        "diaries_count" : 0,
        "subscription_article_count" : 0,
        "subscription" : 0,
        "is_prime" : 0,
        "coursecount" : 0,
        "point" : 0,
        "favorites_count" : 0,
        "setted_email" : 0,
        "qq_weibo_nick" : "",
        "email" : "",
        "user_cover" : "",
        "recipes_count" : 0,
        "mobile" : "",
        "qzone_nick" : "",
        "birthday" : "",
        "dishes_count" : 0,
        "user_photo" : "http:\/\/tx1.douguo.net\/upload\/photo\/2\/8\/6\/70_u53358189915517212714.jpeg",
        "gender" : 2,
        "age" : "",
        "lvl" : 3,
        "weibo_nick" : "",
        "progress_image" : "",
        "nick" : "Dorry冬",
        "fc" : 0,
        "verified" : 0,
        "followers_count" : 0,
        "verified_image" : "",
        "regist_time" : "",
        "location" : 0,
        "sign" : "",
        "user_large_photo" : "http:\/\/tx1.douguo.net\/upload\/photo\/2\/8\/6\/yuan_u53358189915517212714.jpeg",
        "favor_diaries_count" : 0,
        "verified_url" : "https:\/\/m.douguo.com\/user\/prodesc",
        "following_count" : 0,
        "pc" : 0,
        "lv" : 0,
        "user_id" : "16314860"
      },
      "ecs" : 0,
      "cookstorys" : [
        {
          "u" : "",
          "color" : "",
          "id" : 0,
          "type" : 0,
          "c" : "因为想做点汤圆，刚好有没吃完的绿豆糕，就加了黄油做成馅",
          "icon" : ""
        }
      ],
      "cook_time" : "30~60分钟",
      "recent_comments" : [

      ],
      "mid_mdsp" : [

      ],
      "bs" : [

      ],
      "author_photo" : "http:\/\/tx1.douguo.net\/upload\/photo\/2\/8\/6\/70_u53358189915517212714.jpeg",
      "notes" : [

      ],
      "favo_counts" : 32,
      "cook_time_image" : "https:\/\/i1.douguo.com\/upload\/banner\/1551424318.png",
      "share_info" : {
        "s_d" : "元宵节-汤圆-会做饭很酷!",
        "object_id" : "1335474",
        "image" : "https:\/\/cp1.douguo.com\/upload\/caiku\/b\/e\/a\/bea0e922aa3e8282340c061c8592119a.jpeg",
        "infos" : [
          {
            "channel" : "1",
            "mini_program" : [

            ],
            "qr_image" : "",
            "object_id" : "1335474",
            "s_u" : "",
            "image" : "https:\/\/cp1.douguo.com\/upload\/caiku\/b\/e\/a\/bea0e922aa3e8282340c061c8592119a.jpeg",
            "s_d" : "#学做饭用豆果美食# 我在@豆果美食 分享了【元宵节-汤圆-会做饭很酷!】，色香味俱全说的就是这道菜！查看图片了解菜谱（快来点击https:\/\/m.weibo.cn\/p\/100404i33631和我一起修炼厨艺吧）#会做饭很酷# ",
            "name" : "元宵节-汤圆-会做饭很酷!"
          },
          {
            "s_u" : "http:\/\/m.douguo.com\/cookbook\/1335474.html",
            "qr_image" : "",
            "name" : "元宵节-汤圆-会做饭很酷!",
            "mini_program" : [

            ],
            "image" : "https:\/\/cp1.douguo.com\/upload\/caiku\/b\/e\/a\/bea0e922aa3e8282340c061c8592119a.jpeg",
            "object_id" : "1335474",
            "channel" : "7",
            "s_d" : "元宵节-汤圆-会做饭很酷!"
          },
          {
            "channel" : "8",
            "mini_program" : [

            ],
            "image" : "https:\/\/cp1.douguo.com\/upload\/caiku\/b\/e\/a\/bea0e922aa3e8282340c061c8592119a.jpeg",
            "name" : "元宵节-汤圆-会做饭很酷!",
            "s_u" : "http:\/\/m.douguo.com\/cookbook\/1335474.html",
            "object_id" : "1335474",
            "s_d" : "元宵节-汤圆-会做饭很酷!",
            "qr_image" : ""
          }
        ],
        "qr_image" : "",
        "s_u" : "http:\/\/m.douguo.com\/cookbook\/1335474.html",
        "name" : "元宵节-汤圆-会做饭很酷!",
        "mini_program" : [

        ]
      },
      "pw" : 800,
      "minor" : [

      ],
      "rate" : 0,
      "rate_count" : 0,
      "cookstep" : [
        {
          "content" : "用的剩下的绿豆糕加了黄油做成馅..",
          "frame" : "-1",
          "position" : 1,
          "image_height" : 1067,
          "image_width" : 800,
          "thumb" : "https:\/\/i1.douguo.com\/upload\/caiku\/8\/f\/7\/140_8f061dbaad94bc7d4d45cb0b0c57cd47.jpeg",
          "image" : "https:\/\/i1.douguo.com\/upload\/caiku\/8\/f\/7\/8f061dbaad94bc7d4d45cb0b0c57cd47.jpeg"
        },
        {
          "image_height" : 0,
          "thumb" : "",
          "position" : 2,
          "image_width" : 0,
          "frame" : "-1",
          "image" : "",
          "content" : "糯米粉加温水，取一半糯米团蒸熟可以更塑形，然后取一些揉好的糯米团分别加红曲，抹茶，可可粉..."
        },
        {
          "thumb" : "https:\/\/i1.douguo.com\/upload\/caiku\/4\/c\/7\/140_4ce5b5f1a813da524ac73f2f52a691c7.jpeg",
          "image_height" : 1067,
          "image_width" : 800,
          "position" : 3,
          "image" : "https:\/\/i1.douguo.com\/upload\/caiku\/4\/c\/7\/4ce5b5f1a813da524ac73f2f52a691c7.jpeg",
          "frame" : "-1",
          "content" : "包上绿豆馅随意装饰下.."
        },
        {
          "frame" : "-1",
          "position" : 4,
          "image" : "https:\/\/i1.douguo.com\/upload\/caiku\/f\/0\/2\/f0a3b833edd6953a33015c79014ca3c2.jpeg",
          "thumb" : "https:\/\/i1.douguo.com\/upload\/caiku\/f\/0\/2\/140_f0a3b833edd6953a33015c79014ca3c2.jpeg",
          "image_height" : 1067,
          "content" : "下锅煮飘起即可...好有成就感",
          "image_width" : 800
        }
      ],
      "related_ads" : [

      ],
      "ss" : [

      ],
      "cookstory" : "因为想做点汤圆，刚好有没吃完的绿豆糕，就加了黄油做成馅",
      "tips" : "汤圆包好一定要用保鲜膜保护起来，不然干的很快",
      "image" : "http:\/\/i1.douguo.net\/upload\/caiku\/b\/e\/a\/300_bea0e922aa3e8282340c061c8592119a.jpeg",
      "first_level_comment_count" : 0,
      "recipe_list_tags" : [
        {
          "background_border_color" : "",
          "background_end_color" : "#F4F5F5",
          "background_start_color" : "#F4F5F5",
          "jump_url" : "",
          "text" : "关注的人",
          "right_image" : "",
          "text_color" : "#141515"
        }
      ],
      "ipt" : "",
      "recommended" : 0,
      "ph" : 1067,
      "eu" : "recipes:\/\/www.douguo.com\/postdetail?id=242016",
      "rpst" : "",
      "views_count_text" : "1.7万",
      "su" : "",
      "ipci" : "",
      "rewarded_video_dsp" : [

      ],
      "favo_counts_text" : "32",
      "act_des" : "",
      "major" : [
        {
          "tu" : "https:\/\/m.douguo.com\/ingredients\/糯米粉\/detailmaterial",
          "title" : "糯米粉",
          "note" : "150g"
        },
        {
          "tu" : "https:\/\/m.douguo.com\/ingredients\/温水\/detailmaterial",
          "title" : "温水",
          "note" : ""
        },
        {
          "note" : "",
          "title" : "红曲，抹茶，可可粉"
        },
        {
          "note" : "",
          "tu" : "https:\/\/m.douguo.com\/ingredients\/绿豆糕\/detailmaterial",
          "title" : "绿豆糕"
        }
      ],
      "thumb_path" : "https:\/\/i1.douguo.com\/upload\/caiku\/b\/e\/a\/300_bea0e922aa3e8282340c061c8592119a.jpeg",
      "rate_show" : 0,
      "dish_count_text" : "",
      "recipe_tags" : [

      ],
      "purl" : "",
      "display_ingredient" : 1,
      "title_ad" : [

      ],
      "title" : "元宵节-汤圆",
      "brand_day_dsp" : [

      ],
      "cook_id" : "1335474",
      "story_dsp" : [

      ],
      "sr" : "",
      "cook_difficulty_image" : "https:\/\/i1.douguo.com\/upload\/banner\/1551424430.png",
      "sc" : 0,
      "rsm" : "该功能暂停使用",
      "rpt" : "",
      "rcs" : [

      ],
      "dish_count" : 0,
      "ipia" : [

      ],
      "rdsps" : [

      ],
      "levelid" : 3,
      "comments" : [

      ],
      "clicks" : "14560",
      "vfurl" : "",
      "top_mdsp" : [

      ],
      "author_id" : 16314860,
      "cookwares" : [

      ],
      "vc" : "17112",
      "guide_image" : "",
      "thumb_height" : 0,
      "cook_difficulty" : "掌勺(高级)",
      "collect_status" : 0
    }
  },
  "status" : 0
}