{
  "state" : "success",
  "result" : {
    "recipe" : {
      "levelid" : 2,
      "tags" : [

      ],
      "ecs" : 0,
      "mid_mdsp" : [

      ],
      "rate_show" : 0,
      "ipia" : [

      ],
      "rsm" : "该功能暂停使用",
      "eu" : "recipes:\/\/www.douguo.com\/postdetail?id=242016",
      "notes" : [

      ],
      "rpid" : 0,
      "sr" : "",
      "dish_count_text" : "8",
      "cook_difficulty_image" : "",
      "old_comments" : [

      ],
      "views_count_text" : "45.4万",
      "recommended" : 0,
      "guide_image" : "",
      "cookstep" : [
        {
          "content" : "里脊肉竖着切条加入调味料【除番茄酱，淀粉以外】",
          "image" : "https:\/\/i1.douguo.com\/upload\/caiku\/d\/8\/9\/d854fdd56212e0f56af0ed49c699a4f9.jpg",
          "thumb" : "https:\/\/i1.douguo.com\/upload\/caiku\/d\/8\/9\/140_d854fdd56212e0f56af0ed49c699a4f9.jpg",
          "frame" : "-1",
          "position" : 1,
          "image_height" : 600,
          "image_width" : 800
        },
        {
          "image_width" : 1280,
          "thumb" : "https:\/\/i1.douguo.com\/upload\/caiku\/a\/f\/a\/140_afd3611419a197226b4e62997df60e9a.jpg",
          "position" : 2,
          "frame" : "-1",
          "image" : "https:\/\/i1.douguo.com\/upload\/caiku\/a\/f\/a\/afd3611419a197226b4e62997df60e9a.jpg",
          "image_height" : 960,
          "content" : "搅拌均匀腌制15分钟。"
        },
        {
          "thumb" : "https:\/\/i1.douguo.com\/upload\/caiku\/e\/b\/7\/140_eba7fa3dfda9e6eb27048d06da076077.jpg",
          "frame" : "-1",
          "image_width" : 800,
          "image_height" : 600,
          "position" : 3,
          "content" : "腌制后加入鸡蛋一个【里脊肉少可以选择小个鸡蛋】玉米淀粉【玉米淀粉可以把里脊肉裹一层，吃的时候外酥里嫩】",
          "image" : "https:\/\/i1.douguo.com\/upload\/caiku\/e\/b\/7\/eba7fa3dfda9e6eb27048d06da076077.jpg"
        },
        {
          "content" : "搅拌上浆【淀粉的量可以拿一根肉丝看一下，肉丝挂上糊就正好】",
          "thumb" : "https:\/\/i1.douguo.com\/upload\/caiku\/0\/d\/3\/140_0d6c6b341e971a74bda1dc9fcbff9a43.jpg",
          "frame" : "-1",
          "image_height" : 600,
          "image_width" : 800,
          "position" : 4,
          "image" : "https:\/\/i1.douguo.com\/upload\/caiku\/0\/d\/3\/0d6c6b341e971a74bda1dc9fcbff9a43.jpg"
        },
        {
          "frame" : "-1",
          "content" : "番茄酱要挑选番茄沙司来做，口感酸甜适口！",
          "thumb" : "https:\/\/i1.douguo.com\/upload\/caiku\/9\/b\/5\/140_9bba3b45f7a71e627abf5d232b633d65.jpg",
          "position" : 5,
          "image_width" : 800,
          "image_height" : 600,
          "image" : "https:\/\/i1.douguo.com\/upload\/caiku\/9\/b\/5\/9bba3b45f7a71e627abf5d232b633d65.jpg"
        },
        {
          "thumb" : "https:\/\/i1.douguo.com\/upload\/caiku\/9\/4\/b\/140_941bd4c36d3766e5e35349eb7065a95b.jpg",
          "image" : "https:\/\/i1.douguo.com\/upload\/caiku\/9\/4\/b\/941bd4c36d3766e5e35349eb7065a95b.jpg",
          "image_height" : 600,
          "content" : "锅多放一点油，油温用筷子试一下，筷子周围冒泡泡就正好。里脊肉要一根根下，等定型后再用筷子拌。煎至两面金黄捞出。",
          "position" : 6,
          "image_width" : 800,
          "frame" : "-1"
        },
        {
          "image_height" : 960,
          "image" : "https:\/\/i1.douguo.com\/upload\/caiku\/9\/8\/f\/9862b585066f3355e931a753c4e1fc3f.jpg",
          "content" : "等油温再次上升放里脊肉复炸再一次盛盘。",
          "position" : 7,
          "image_width" : 1280,
          "frame" : "-1",
          "thumb" : "https:\/\/i1.douguo.com\/upload\/caiku\/9\/8\/f\/140_9862b585066f3355e931a753c4e1fc3f.jpg"
        },
        {
          "image_width" : 800,
          "frame" : "-1",
          "image_height" : 600,
          "content" : "锅里留一点底油，放入番茄酱开小火翻炒一下下。",
          "image" : "https:\/\/i1.douguo.com\/upload\/caiku\/0\/8\/0\/085dbe75e0eecd099df89bf769eedd70.jpg",
          "position" : 8,
          "thumb" : "https:\/\/i1.douguo.com\/upload\/caiku\/0\/8\/0\/140_085dbe75e0eecd099df89bf769eedd70.jpg"
        },
        {
          "image_width" : 1280,
          "image_height" : 960,
          "content" : "放入里脊肉反复颠几下，让每根里脊肉都裹上番茄酱。",
          "frame" : "-1",
          "position" : 9,
          "image" : "https:\/\/i1.douguo.com\/upload\/caiku\/5\/5\/c\/5533b36f13b01f5e7713be3d93546f0c.jpg",
          "thumb" : "https:\/\/i1.douguo.com\/upload\/caiku\/5\/5\/c\/140_5533b36f13b01f5e7713be3d93546f0c.jpg"
        },
        {
          "content" : "出锅撒点熟的白芝麻更香！",
          "image" : "https:\/\/i1.douguo.com\/upload\/caiku\/e\/7\/f\/e716e07e6419ec5506e06ca7f4784e2f.jpg",
          "position" : 10,
          "frame" : "-1",
          "image_width" : 800,
          "thumb" : "https:\/\/i1.douguo.com\/upload\/caiku\/e\/7\/f\/140_e716e07e6419ec5506e06ca7f4784e2f.jpg",
          "image_height" : 600
        },
        {
          "frame" : "-1",
          "image" : "https:\/\/i1.douguo.com\/upload\/caiku\/e\/1\/f\/e1dc8a786ba9d20f180a9f90cf71a41f.jpg",
          "thumb" : "https:\/\/i1.douguo.com\/upload\/caiku\/e\/1\/f\/140_e1dc8a786ba9d20f180a9f90cf71a41f.jpg",
          "image_width" : 800,
          "image_height" : 1067,
          "content" : "酸酸甜甜口感不错！外酥里嫩！吃的好满足！",
          "position" : 11
        }
      ],
      "v_u" : "",
      "rpt" : "",
      "image" : "http:\/\/i1.douguo.net\/upload\/caiku\/1\/d\/c\/300_1dfab12135b9a475862ad3fcf1eda08c.jpg",
      "photo_path" : "https:\/\/i1.douguo.com\/upload\/caiku\/1\/d\/c\/600_1dfab12135b9a475862ad3fcf1eda08c.jpg",
      "rrps" : [

      ],
      "btm_dsp" : [

      ],
      "rcs" : [

      ],
      "title" : "年夜饭宴客菜之糖醋里脊",
      "ph" : 600,
      "related_ads" : [

      ],
      "user" : {
        "avatar_medium" : "http:\/\/tx1.douguo.net\/upload\/photo\/3\/c\/f\/140_u89686533279815013437.jpg",
        "introduction" : "",
        "pc" : 0,
        "subscription" : 0,
        "userid" : "3912629",
        "verified" : 1,
        "sign" : "",
        "user_photo" : "http:\/\/tx1.douguo.net\/upload\/photo\/3\/c\/f\/70_u89686533279815013437.jpg",
        "coursecount" : 0,
        "subscription_article_count" : 0,
        "location" : 0,
        "qzone_nick" : "",
        "recipes_count" : 0,
        "favor_diaries_count" : 0,
        "gender" : 2,
        "progress_image" : "",
        "qq_weibo_nick" : "",
        "nick" : "尝尝好味道",
        "weibo_nick" : "",
        "mobile" : "",
        "user_id" : "3912629",
        "user_cover" : "",
        "verified_url" : "https:\/\/m.douguo.com\/user\/prodesc",
        "birthday" : "",
        "following_count" : 0,
        "verified_image" : "https:\/\/i1.douguo.com\/upload\/note\/d\/a\/a\/da84247847aebe48d9dd0fcdac88862a.png",
        "is_prime" : 0,
        "diaries_count" : 0,
        "age" : "",
        "user_large_photo" : "http:\/\/tx1.douguo.net\/upload\/photo\/3\/c\/f\/yuan_u89686533279815013437.jpg",
        "lvl" : 8,
        "fc" : 0,
        "lv" : 0,
        "dishes_count" : 0,
        "regist_time" : "",
        "followers_count" : 0,
        "favorites_count" : 0,
        "setted_email" : 0,
        "email" : "",
        "point" : 0
      },
      "brand_day_dsp" : [

      ],
      "ipt" : "",
      "thumb_path" : "https:\/\/i1.douguo.com\/upload\/caiku\/1\/d\/c\/300_1dfab12135b9a475862ad3fcf1eda08c.jpg",
      "share_info" : {
        "qr_image" : "",
        "mini_program" : [

        ],
        "name" : "年夜饭宴客菜之糖醋里脊-会做饭很酷!",
        "s_u" : "http:\/\/m.douguo.com\/cookbook\/2388456.html",
        "infos" : [
          {
            "name" : "年夜饭宴客菜之糖醋里脊-会做饭很酷!",
            "image" : "https:\/\/cp1.douguo.com\/upload\/caiku\/1\/d\/c\/1dfab12135b9a475862ad3fcf1eda08c.jpg",
            "mini_program" : [

            ],
            "s_u" : "",
            "object_id" : "2388456",
            "s_d" : "#学做饭用豆果美食# 我在@豆果美食 分享了【年夜饭宴客菜之糖醋里脊-会做饭很酷!】，帅哥美眉们～你们喜欢的美食来咯！快来跟我一起做吧～查看图片了解菜谱（想要获取更多美食就看这https:\/\/m.weibo.cn\/p\/100404i33631）#会做饭很酷#",
            "qr_image" : "",
            "channel" : "1"
          },
          {
            "s_u" : "http:\/\/m.douguo.com\/cookbook\/2388456.html",
            "image" : "https:\/\/cp1.douguo.com\/upload\/caiku\/1\/d\/c\/1dfab12135b9a475862ad3fcf1eda08c.jpg",
            "s_d" : "年夜饭宴客菜之糖醋里脊-会做饭很酷!",
            "object_id" : "2388456",
            "name" : "年夜饭宴客菜之糖醋里脊-会做饭很酷!",
            "qr_image" : "",
            "channel" : "7",
            "mini_program" : [

            ]
          },
          {
            "channel" : "8",
            "s_u" : "http:\/\/m.douguo.com\/cookbook\/2388456.html",
            "name" : "年夜饭宴客菜之糖醋里脊-会做饭很酷!",
            "qr_image" : "",
            "s_d" : "年夜饭宴客菜之糖醋里脊-会做饭很酷!",
            "object_id" : "2388456",
            "mini_program" : [

            ],
            "image" : "https:\/\/cp1.douguo.com\/upload\/caiku\/1\/d\/c\/1dfab12135b9a475862ad3fcf1eda08c.jpg"
          }
        ],
        "image" : "https:\/\/cp1.douguo.com\/upload\/caiku\/1\/d\/c\/1dfab12135b9a475862ad3fcf1eda08c.jpg",
        "object_id" : "2388456",
        "s_d" : "年夜饭宴客菜之糖醋里脊-会做饭很酷!"
      },
      "cookstorys" : [
        {
          "icon" : "",
          "u" : "",
          "type" : 0,
          "c" : "糖醋里脊只要掌握好挂糊和糖醋的比例，做法很简单的，口感香酥细嫩！味道酸甜可口！家人们都很喜欢，学会一款可以做像糖醋鸡肉、糖醋排骨之类的。",
          "color" : "",
          "id" : 0
        }
      ],
      "vc" : "454061",
      "favo_counts_text" : "5822",
      "packages_id" : [

      ],
      "thumb_height" : 0,
      "ipit" : 0,
      "comments_count" : 33,
      "author_photo" : "http:\/\/tx1.douguo.net\/upload\/photo\/3\/c\/f\/70_u89686533279815013437.jpg",
      "hq" : 1,
      "create_time" : "2019-12-25 19:37:43",
      "original_photo_path" : "http:\/\/i1.douguo.net\/upload\/caiku\/1\/d\/c\/yuan_1dfab12135b9a475862ad3fcf1eda08c.jpg",
      "major" : [
        {
          "title" : "里脊肉",
          "note" : "300克"
        },
        {
          "note" : "一个",
          "tu" : "https:\/\/m.douguo.com\/ingredients\/鸡蛋\/detailmaterial",
          "title" : "鸡蛋"
        },
        {
          "tu" : "https:\/\/m.douguo.com\/ingredients\/玉米淀粉\/detailmaterial",
          "title" : "玉米淀粉",
          "note" : "30克"
        },
        {
          "tu" : "https:\/\/m.douguo.com\/ingredients\/番茄酱\/detailmaterial",
          "title" : "番茄酱",
          "note" : "50克"
        },
        {
          "title" : "盐",
          "note" : "5克",
          "tu" : "https:\/\/m.douguo.com\/ingredients\/盐\/detailmaterial"
        },
        {
          "tu" : "https:\/\/m.douguo.com\/ingredients\/生抽\/detailmaterial",
          "title" : "生抽",
          "note" : "3克"
        },
        {
          "note" : "2克",
          "tu" : "https:\/\/m.douguo.com\/ingredients\/十三香\/detailmaterial",
          "title" : "十三香"
        },
        {
          "note" : "3克",
          "title" : "蚝油",
          "tu" : "https:\/\/m.douguo.com\/ingredients\/蚝油\/detailmaterial"
        }
      ],
      "recent_comments" : [

      ],
      "recommend_label" : "8人学做",
      "rdsps" : [

      ],
      "cookwares" : [

      ],
      "ipci" : "",
      "dishes" : [

      ],
      "act_des" : "",
      "rrpt" : "",
      "tips" : "",
      "ssu" : "",
      "vu" : "",
      "advice" : {
        "at" : "有助于组织的形成和生长～",
        "has" : [
          {
            "t" : "富含蛋白质",
            "url" : "recipes:\/\/www.douguo.com\/simplerecipelist?t=富含蛋白质&id=富含蛋白质"
          },
          {
            "url" : "recipes:\/\/www.douguo.com\/simplerecipelist?t=富含烟酸&id=富含烟酸",
            "t" : "富含烟酸"
          }
        ],
        "da" : {
          "url" : "https:\/\/m.douguo.com\/recipe\/nutrient_self\/2388456",
          "t" : "查看详细分析",
          "iu" : "https:\/\/i1.douguo.com\/upload\/banner\/f\/4\/d\/f48877e53c37759bc12ac494be82ec8d.png"
        }
      },
      "favo_counts" : 5822,
      "su" : "",
      "vfurl" : "",
      "bs" : [

      ],
      "display_ingredient" : 1,
      "recommendation_tag" : "",
      "recipe_tags" : [

      ],
      "rips" : 0,
      "recipe_list_tags" : [
        {
          "text" : "关注的人",
          "background_end_color" : "#F4F5F5",
          "background_start_color" : "#F4F5F5",
          "text_color" : "#141515",
          "background_border_color" : "",
          "right_image" : "",
          "jump_url" : ""
        }
      ],
      "story_dsp" : [

      ],
      "first_level_comment_count" : 29,
      "rate_count" : 7,
      "rate" : 4,
      "pw" : 800,
      "release_time" : "",
      "top_mdsp" : [

      ],
      "comments" : [
        "{\n    ac = \"#999999\";\n    at = \"\";\n    ccc = 1;\n    \"child_comments\" =     (\n                {\n            ac = \"#999999\";\n            at = \"\\U5e73\\U9876\\U5c71\\U5e02\";\n            ccc = 0;\n            city = \"\\U5e73\\U9876\\U5c71\\U5e02\";\n            cmc = 2;\n            content =             (\n                                {\n                    c = \" \\U4e0d\\U7528\\U554a\\Uff0c\\U756a\\U8304\\U9171\\U4e0d\\U662f\\U9178\\U9178\\U751c\\U751c\\U7684\";\n                }\n            );\n            ia = 0;\n            id = 8787281;\n            \"ip_address_location\" = \"\";\n            like = 0;\n            \"like_count\" = 0;\n            \"reply_id\" = 8510570;\n            \"reply_user\" =             {\n                \"followers_count_text\" = \"\";\n                id = 9118228;\n                \"is_prime\" = 0;\n                lv = 0;\n                lvl = 4;\n                n = \"\\U7ca4\\U83dc\\U517b\\U751f\\U5802\";\n                p = \"http:\/\/tx1.douguo.net\/upload\/photo\/3\/e\/5\/70_u29971205259073132714.jpg\";\n                \"progress_image\" = \"\";\n                \"recipes_count_text\" = \"\";\n                relationship = \"-1\";\n                title = \"\";\n                v = 0;\n                \"verified_image\" = \"\";\n            };\n            \"sticker_icon\" =             (\n            );\n            time = \"2021-09-15 22:51:07\";\n            u =             {\n                \"followers_count_text\" = \"\";\n                id = 3490554;\n                \"is_prime\" = 0;\n                lv = 0;\n                lvl = 1;\n                n = \"\\U8f6f\\U59b9\\U54e6~\";\n                p = \"http:\/\/tx1.douguo.net\/upload\/photo\/8\/f\/7\/70_u82519483373409124320.jpg\";\n                \"progress_image\" = \"\";\n                \"recipes_count_text\" = \"\";\n                relationship = \"-1\";\n                title = \"\";\n                v = 0;\n                \"verified_image\" = \"\";\n            };\n        }\n    );\n    city = \"\";\n    cmc = 2;\n    content =     (\n                {\n            c = \"\\U4eb2 \\U4f60\\U6ca1\\U6709\\U8bf4\\U653e\\U7cd6\";\n        }\n    );\n    ia = 0;\n    id = 8510570;\n    \"ip_address_location\" = \"\";\n    like = 0;\n    \"like_count\" = 0;\n    \"reply_id\" = 0;\n    \"sticker_icon\" =     (\n    );\n    time = \"2021-02-16 23:12:05\";\n    u =     {\n        \"followers_count_text\" = \"\";\n        id = 9118228;\n        \"is_prime\" = 0;\n        lv = 0;\n        lvl = 4;\n        n = \"\\U7ca4\\U83dc\\U517b\\U751f\\U5802\";\n        p = \"http:\/\/tx1.douguo.net\/upload\/photo\/3\/e\/5\/70_u29971205259073132714.jpg\";\n        \"progress_image\" = \"\";\n        \"recipes_count_text\" = \"\";\n        relationship = \"-1\";\n        title = \"\";\n        v = 0;\n        \"verified_image\" = \"\";\n    };\n}",
        "{\n    ac = \"#999999\";\n    at = \"\\U5e38\\U5dde\\U5e02\";\n    ccc = 1;\n    \"child_comments\" =     (\n                {\n            ac = \"#999999\";\n            at = \"\\U5b81\\U6ce2\\U5e02\";\n            ccc = 0;\n            city = \"\\U5b81\\U6ce2\\U5e02\";\n            cmc = 2;\n            content =             (\n                                {\n                    c = \" \\U8c22\\U8c22\";\n                }\n            );\n            ia = 1;\n            id = 7650528;\n            \"ip_address_location\" = \"\";\n            like = 0;\n            \"like_count\" = 0;\n            \"reply_id\" = 7649310;\n            \"reply_user\" =             {\n                \"followers_count_text\" = \"\";\n                id = 6954657;\n                \"is_prime\" = 0;\n                lv = 0;\n                lvl = 6;\n                n = \"\\U8717\\U725b\\U4e00\\U6837\\U725b\";\n                p = \"http:\/\/tx1.douguo.net\/upload\/photo\/9\/1\/5\/70_u16134079336245221326.jpg\";\n                \"progress_image\" = \"\";\n                \"recipes_count_text\" = \"\";\n                relationship = \"-1\";\n                title = \"\";\n                v = 0;\n                \"verified_image\" = \"\";\n            };\n            \"sticker_icon\" =             (\n            );\n            time = \"2020-02-20 18:54:25\";\n            u =             {\n                \"followers_count_text\" = \"\";\n                id = 3912629;\n                \"is_prime\" = 0;\n                lv = 0;\n                lvl = 8;\n                n = \"\\U5c1d\\U5c1d\\U597d\\U5473\\U9053\";\n                p = \"http:\/\/tx1.douguo.net\/upload\/photo\/3\/c\/f\/70_u89686533279815013437.jpg\";\n                \"progress_image\" = \"\";\n                \"recipes_count_text\" = \"\";\n                relationship = \"-1\";\n                title = \"\";\n                v = 1;\n                \"verified_image\" = \"\";\n            };\n        }\n    );\n    city = \"\\U5e38\\U5dde\\U5e02\";\n    cmc = 2;\n    content =     (\n                {\n            c = \"\\U6536\\U85cf\\U4e86\\Uff01\";\n        }\n    );\n    ia = 0;\n    id = 7649310;\n    \"ip_address_location\" = \"\";\n    like = 0;\n    \"like_count\" = 2;\n    \"reply_id\" = 0;\n    \"sticker_icon\" =     (\n    );\n    time = \"2020-02-20 14:48:22\";\n    u =     {\n        \"followers_count_text\" = \"\";\n        id = 6954657;\n        \"is_prime\" = 0;\n        lv = 0;\n        lvl = 6;\n        n = \"\\U8717\\U725b\\U4e00\\U6837\\U725b\";\n        p = \"http:\/\/tx1.douguo.net\/upload\/photo\/9\/1\/5\/70_u16134079336245221326.jpg\";\n        \"progress_image\" = \"\";\n        \"recipes_count_text\" = \"\";\n        relationship = \"-1\";\n        title = \"\";\n        v = 0;\n        \"verified_image\" = \"\";\n    };\n}",
        "{\n    ac = \"#999999\";\n    at = \"\";\n    ccc = 0;\n    \"child_comments\" =     (\n    );\n    city = \"\";\n    cmc = 2;\n    content =     (\n                {\n            c = \"\\U4e0d\\U7528\\U653e\\U7cd6\\U5417\";\n        }\n    );\n    ia = 0;\n    id = 8510571;\n    \"ip_address_location\" = \"\";\n    like = 0;\n    \"like_count\" = 0;\n    \"reply_id\" = 0;\n    \"sticker_icon\" =     (\n    );\n    time = \"2021-02-16 23:12:42\";\n    u =     {\n        \"followers_count_text\" = \"\";\n        id = 9118228;\n        \"is_prime\" = 0;\n        lv = 0;\n        lvl = 4;\n        n = \"\\U7ca4\\U83dc\\U517b\\U751f\\U5802\";\n        p = \"http:\/\/tx1.douguo.net\/upload\/photo\/3\/e\/5\/70_u29971205259073132714.jpg\";\n        \"progress_image\" = \"\";\n        \"recipes_count_text\" = \"\";\n        relationship = \"-1\";\n        title = \"\";\n        v = 0;\n        \"verified_image\" = \"\";\n    };\n}"
      ],
      "rewarded_video_dsp" : [

      ],
      "author_verified" : 1,
      "cook_difficulty" : "",
      "hqu" : "recipes:\/\/www.douguo.com\/notedetail?id=21162253",
      "comments_count_text" : "33",
      "dish_count" : 8,
      "purl" : "",
      "author_id" : 3912629,
      "clicks" : "431040",
      "ipoi" : "",
      "minor" : [

      ],
      "cook_time" : "",
      "cook_id" : "2388456",
      "cook_time_image" : "",
      "ss" : [

      ],
      "rpst" : "",
      "author" : "尝尝好味道",
      "title_ad" : [

      ],
      "sc" : 0,
      "collect_status" : 0,
      "ipurl" : "",
      "cookstory" : "糖醋里脊只要掌握好挂糊和糖醋的比例，做法很简单的，口感香酥细嫩！味道酸甜可口！家人们都很喜欢，学会一款可以做像糖醋鸡肉、糖醋排骨之类的。"
    }
  },
  "status" : 0
}