{
  "status" : 0,
  "result" : {
    "recipe" : {
      "original_photo_path" : "http:\/\/i1.douguo.net\/upload\/caiku\/0\/1\/1\/yuan_014ef485b943a7d1632005894cf98db1.jpg",
      "top_mdsp" : [

      ],
      "rate_count" : 18,
      "create_time" : "2023-02-08 15:28:51",
      "v_u" : "",
      "ipci" : "",
      "notes" : [

      ],
      "display_ingredient" : 1,
      "eu" : "recipes:\/\/www.douguo.com\/postdetail?id=242016",
      "image" : "http:\/\/i1.douguo.net\/upload\/caiku\/0\/1\/1\/300_014ef485b943a7d1632005894cf98db1.jpg",
      "purl" : "",
      "vc" : "1713510",
      "rcs" : [

      ],
      "advice" : {
        "has" : [
          {
            "url" : "recipes:\/\/www.douguo.com\/simplerecipelist?t=高热量&id=高热量",
            "t" : "高热量"
          },
          {
            "t" : "高脂肪",
            "url" : "recipes:\/\/www.douguo.com\/simplerecipelist?t=高脂肪&id=高脂肪"
          }
        ],
        "at" : "适量即可～",
        "da" : {
          "iu" : "https:\/\/i1.douguo.com\/upload\/banner\/f\/4\/d\/f48877e53c37759bc12ac494be82ec8d.png",
          "t" : "查看详细分析",
          "url" : "https:\/\/m.douguo.com\/recipe\/nutrient_self\/3237557"
        }
      },
      "author_photo" : "http:\/\/tx1.douguo.net\/upload\/photo\/a\/9\/d\/70_a9dfe2e36c59f2f6c4e2fd10c7db626d.jpg",
      "dish_count" : 19,
      "cook_difficulty" : "",
      "ssu" : "",
      "cook_id" : "3237557",
      "recipe_tags" : [

      ],
      "recommended" : 0,
      "rpst" : "",
      "recent_comments" : [

      ],
      "comments" : [
        "{\n    ac = \"#999999\";\n    at = \"\";\n    ccc = 21;\n    \"child_comments\" =     (\n                {\n            ac = \"#999999\";\n            at = \"\";\n            ccc = 0;\n            city = \"\";\n            cmc = 2;\n            content =             (\n                                {\n                    c = \" \\U8c46\\U89d2\\U8fd8\\U6709\\U4e0d\\U540c\\U7684\\U8c46\\U89d2\\U5417\\Uff1f\\Ud83d\\Ude26\\Ud83d\\Ude26\";\n                }\n            );\n            ia = 0;\n            id = 9001526;\n            \"ip_address_location\" = \"\\U5e7f\\U4e1c\";\n            like = 0;\n            \"like_count\" = 0;\n            \"reply_id\" = 9001510;\n            \"reply_user\" =             {\n                \"followers_count_text\" = \"\";\n                id = 15716935;\n                \"is_prime\" = 0;\n                lv = 0;\n                lvl = 1;\n                n = \"\\U4e39\\U5b9d\\U8d1d\\U5988\\U5988\";\n                p = \"\";\n                \"progress_image\" = \"\";\n                \"recipes_count_text\" = \"\";\n                relationship = \"-1\";\n                title = \"\";\n                v = 0;\n                \"verified_image\" = \"\";\n            };\n            \"sticker_icon\" =             (\n            );\n            time = \"2023-02-08 17:31:11\";\n            u =             {\n                \"followers_count_text\" = \"\";\n                id = 25906893;\n                \"is_prime\" = 0;\n                lv = 0;\n                lvl = 3;\n                n = Hellolnqr;\n                p = \"http:\/\/tx1.douguo.net\/upload\/photo\/8\/9\/a\/70_u99301075181041171926.jpeg\";\n                \"progress_image\" = \"\";\n                \"recipes_count_text\" = \"\";\n                relationship = \"-1\";\n                title = \"\";\n                v = 0;\n                \"verified_image\" = \"\";\n            };\n        },\n                {\n            ac = \"#999999\";\n            at = \"\\U5f90\\U5dde\\U5e02\";\n            ccc = 0;\n            city = \"\\U5f90\\U5dde\\U5e02\";\n            cmc = 2;\n            content =             (\n                                {\n                    c = \" \\U5c31\\U662f\\U666e\\U901a\\U8c46\\U89d2\\U5b50\\U554a\\Uff0c\\U957f\\U6761\\U7684\\U90a3\\U79cd\\U4e0d\\U8981\\U8001\\U7684\";\n                }\n            );\n            ia = 0;\n            id = 9001571;\n            \"ip_address_location\" = \"\\U6c5f\\U82cf\\U7701\";\n            like = 0;\n            \"like_count\" = 0;\n            \"reply_id\" = 9001510;\n            \"reply_user\" =             {\n                \"followers_count_text\" = \"\";\n                id = 15716935;\n                \"is_prime\" = 0;\n                lv = 0;\n                lvl = 1;\n                n = \"\\U4e39\\U5b9d\\U8d1d\\U5988\\U5988\";\n                p = \"\";\n                \"progress_image\" = \"\";\n                \"recipes_count_text\" = \"\";\n                relationship = \"-1\";\n                title = \"\";\n                v = 0;\n                \"verified_image\" = \"\";\n            };\n            \"sticker_icon\" =             (\n            );\n            time = \"2023-02-08 20:11:55\";\n            u =             {\n                \"followers_count_text\" = \"\";\n                id = 13271470;\n                \"is_prime\" = 0;\n                lv = 0;\n                lvl = 4;\n                n = \"\\U5c0f\\U8273\\U7231\\U5792\\U5792\";\n                p = \"http:\/\/tx1.douguo.net\/upload\/photo\/e\/3\/d\/70_u47750492916197120203.jpeg\";\n                \"progress_image\" = \"\";\n                \"recipes_count_text\" = \"\";\n                relationship = \"-1\";\n                title = \"\";\n                v = 0;\n                \"verified_image\" = \"\";\n            };\n        }\n    );\n    city = \"\";\n    cmc = 2;\n    content =     (\n                {\n            c = \"\\U4ec0\\U4e48\\U8c46\\U89d2\\Uff1f\\U4f60\\U4e5f\\U6ca1\\U62cd\\U7167\\U7247\\U554a\\Uff1f\\U8fd9\\U4e48\\U591a\\U54c1\\U79cd\\U6211\\U9009\\U54ea\\U4e00\\U4e2a\\Uff1f\\Ud83d\\Ude0b\\Ud83d\\Ude0b\\Ud83d\\Ude0b\";\n        }\n    );\n    ia = 0;\n    id = 9001510;\n    \"ip_address_location\" = \"\\U5929\\U6d25\\U5e02\";\n    like = 0;\n    \"like_count\" = 2;\n    \"reply_id\" = 0;\n    \"sticker_icon\" =     (\n    );\n    time = \"2023-02-08 16:20:19\";\n    u =     {\n        \"followers_count_text\" = \"\";\n        id = 15716935;\n        \"is_prime\" = 0;\n        lv = 0;\n        lvl = 1;\n        n = \"\\U4e39\\U5b9d\\U8d1d\\U5988\\U5988\";\n        p = \"\";\n        \"progress_image\" = \"\";\n        \"recipes_count_text\" = \"\";\n        relationship = \"-1\";\n        title = \"\";\n        v = 0;\n        \"verified_image\" = \"\";\n    };\n}",
        "{\n    ac = \"#999999\";\n    at = \"\\U9752\\U5c9b\\U5e02\";\n    ccc = 6;\n    \"child_comments\" =     (\n                {\n            ac = \"#999999\";\n            at = \"\\U4e0a\\U6d77\\U5e02\";\n            ccc = 0;\n            city = \"\\U4e0a\\U6d77\\U5e02\";\n            cmc = 2;\n            content =             (\n                                {\n                    c = \" \\U4f60\\U53d6\\U5427\";\n                }\n            );\n            ia = 1;\n            id = 9002171;\n            \"ip_address_location\" = \"\\U4e0a\\U6d77\\U5e02\";\n            like = 0;\n            \"like_count\" = 0;\n            \"reply_id\" = 9002059;\n            \"reply_user\" =             {\n                \"followers_count_text\" = \"\";\n                id = 24922973;\n                \"is_prime\" = 0;\n                lv = 0;\n                lvl = 1;\n                n = \"\\U5c11\\U6797\\U5bfa\\U7b2c18\\U4ee3\\U98df\\U795e\";\n                p = \"http:\/\/tx1.douguo.net\/upload\/photo\/f\/b\/7\/70_u80967543738000133946.jpg\";\n                \"progress_image\" = \"\";\n                \"recipes_count_text\" = \"\";\n                relationship = \"-1\";\n                title = \"\";\n                v = 0;\n                \"verified_image\" = \"\";\n            };\n            \"sticker_icon\" =             (\n            );\n            time = \"2023-02-12 11:55:21\";\n            u =             {\n                \"followers_count_text\" = \"\";\n                id = 27417868;\n                \"is_prime\" = 0;\n                lv = 0;\n                lvl = 6;\n                n = \"\\U7f8e\\U98df\\U96f6\\U98df\\U5e97\\U94fa\";\n                p = \"http:\/\/tx1.douguo.net\/upload\/photo\/a\/9\/d\/70_a9dfe2e36c59f2f6c4e2fd10c7db626d.jpg\";\n                \"progress_image\" = \"\";\n                \"recipes_count_text\" = \"\";\n                relationship = \"-1\";\n                title = \"\";\n                v = 1;\n                \"verified_image\" = \"\";\n            };\n        },\n                {\n            ac = \"#999999\";\n            at = \"\\U5f90\\U5dde\\U5e02\";\n            ccc = 0;\n            city = \"\\U5f90\\U5dde\\U5e02\";\n            cmc = 2;\n            content =             (\n                                {\n                    c = \" \\U6211\\U4eec\\U8fd9\\U53eb\\U5343\\U5200\\U8089\\Uff0c\\U4e0d\\U8fc7\\U7528\\U7684\\U662f\\U849c\\U85b9\\Uff0c\\U4e0d\\U662f\\U8c46\\U89d2\\Ud83d\\Ude0b\";\n                }\n            );\n            ia = 0;\n            id = 9002938;\n            \"ip_address_location\" = \"\\U6c5f\\U82cf\";\n            like = 0;\n            \"like_count\" = 0;\n            \"reply_id\" = 9002059;\n            \"reply_user\" =             {\n                \"followers_count_text\" = \"\";\n                id = 24922973;\n                \"is_prime\" = 0;\n                lv = 0;\n                lvl = 1;\n                n = \"\\U5c11\\U6797\\U5bfa\\U7b2c18\\U4ee3\\U98df\\U795e\";\n                p = \"http:\/\/tx1.douguo.net\/upload\/photo\/f\/b\/7\/70_u80967543738000133946.jpg\";\n                \"progress_image\" = \"\";\n                \"recipes_count_text\" = \"\";\n                relationship = \"-1\";\n                title = \"\";\n                v = 0;\n                \"verified_image\" = \"\";\n            };\n            \"sticker_icon\" =             (\n            );\n            time = \"2023-02-16 11:17:39\";\n            u =             {\n                \"followers_count_text\" = \"\";\n                id = 10014037;\n                \"is_prime\" = 0;\n                lv = 0;\n                lvl = 1;\n                n = \"\\U963f\\U6ce2\\U5179\\U5fb7\\U9102\\U4f5b\\U683c\";\n                p = \"http:\/\/tx1.douguo.net\/upload\/photo\/9\/d\/2\/70_u35118516325181122517.jpeg\";\n                \"progress_image\" = \"\";\n                \"recipes_count_text\" = \"\";\n                relationship = \"-1\";\n                title = \"\";\n                v = 0;\n                \"verified_image\" = \"\";\n            };\n        }\n    );\n    city = \"\\U9752\\U5c9b\\U5e02\";\n    cmc = 2;\n    content =     (\n                {\n            c = \"\\U4e0d\\U7ba1\\U600e\\U4e48\\U6837\\Uff0c\\U4f60\\U603b\\U5f97\\U7ed9\\U8fd9\\U83dc\\U53d6\\U4e2a\\U540d\\U5b57\\U5427\\Uff1f\\Uff1f\";\n        }\n    );\n    ia = 0;\n    id = 9002059;\n    \"ip_address_location\" = \"\\U5c71\\U4e1c\\U7701\";\n    like = 0;\n    \"like_count\" = 0;\n    \"reply_id\" = 0;\n    \"sticker_icon\" =     (\n    );\n    time = \"2023-02-11 18:14:40\";\n    u =     {\n        \"followers_count_text\" = \"\";\n        id = 24922973;\n        \"is_prime\" = 0;\n        lv = 0;\n        lvl = 1;\n        n = \"\\U5c11\\U6797\\U5bfa\\U7b2c18\\U4ee3\\U98df\\U795e\";\n        p = \"http:\/\/tx1.douguo.net\/upload\/photo\/f\/b\/7\/70_u80967543738000133946.jpg\";\n        \"progress_image\" = \"\";\n        \"recipes_count_text\" = \"\";\n        relationship = \"-1\";\n        title = \"\";\n        v = 0;\n        \"verified_image\" = \"\";\n    };\n}",
        "{\n    ac = \"#999999\";\n    at = \"\";\n    ccc = 5;\n    \"child_comments\" =     (\n                {\n            ac = \"#999999\";\n            at = \"\\U5b9d\\U9e21\\U5e02\";\n            ccc = 0;\n            city = \"\\U5b9d\\U9e21\\U5e02\";\n            cmc = 2;\n            content =             (\n                                {\n                    c = \" \\U6211\\U4e5f\\U60f3\\U77e5\\U9053\\U6700\\U540e\\U5012\\U7684\\U662f\\U5565\";\n                }\n            );\n            ia = 0;\n            id = 9001802;\n            \"ip_address_location\" = \"\\U9655\\U897f\\U7701\";\n            like = 0;\n            \"like_count\" = 0;\n            \"reply_id\" = 9001683;\n            \"reply_user\" =             {\n                \"followers_count_text\" = \"\";\n                id = 9055774;\n                \"is_prime\" = 0;\n                lv = 0;\n                lvl = 2;\n                n = \"\\U83df\\U30a6\\U30b5\\U30ae\\U59eb\";\n                p = \"http:\/\/tx1.douguo.net\/upload\/photo\/d\/5\/1\/70_d5030e56fecbf6b56d250b83cf21bbc1.jpg\";\n                \"progress_image\" = \"\";\n                \"recipes_count_text\" = \"\";\n                relationship = \"-1\";\n                title = \"\";\n                v = 0;\n                \"verified_image\" = \"\";\n            };\n            \"sticker_icon\" =             (\n            );\n            time = \"2023-02-09 20:53:35\";\n            u =             {\n                \"followers_count_text\" = \"\";\n                id = 26998202;\n                \"is_prime\" = 0;\n                lv = 0;\n                lvl = 3;\n                n = \"\\U6768\\U4e39\\U4e39tpxj\";\n                p = \"http:\/\/tx1.douguo.net\/upload\/photo\/e\/6\/0\/70_u37298525716976141752.jpg\";\n                \"progress_image\" = \"\";\n                \"recipes_count_text\" = \"\";\n                relationship = \"-1\";\n                title = \"\";\n                v = 0;\n                \"verified_image\" = \"\";\n            };\n        },\n                {\n            ac = \"#999999\";\n            at = \"\\U4e0a\\U6d77\\U5e02\";\n            ccc = 0;\n            city = \"\\U4e0a\\U6d77\\U5e02\";\n            cmc = 2;\n            content =             (\n                                {\n                    c = \" \\U55ef\";\n                }\n            );\n            ia = 1;\n            id = 9001847;\n            \"ip_address_location\" = \"\\U4e0a\\U6d77\\U5e02\";\n            like = 0;\n            \"like_count\" = 0;\n            \"reply_id\" = 9001683;\n            \"reply_user\" =             {\n                \"followers_count_text\" = \"\";\n                id = 9055774;\n                \"is_prime\" = 0;\n                lv = 0;\n                lvl = 2;\n                n = \"\\U83df\\U30a6\\U30b5\\U30ae\\U59eb\";\n                p = \"http:\/\/tx1.douguo.net\/upload\/photo\/d\/5\/1\/70_d5030e56fecbf6b56d250b83cf21bbc1.jpg\";\n                \"progress_image\" = \"\";\n                \"recipes_count_text\" = \"\";\n                relationship = \"-1\";\n                title = \"\";\n                v = 0;\n                \"verified_image\" = \"\";\n            };\n            \"sticker_icon\" =             (\n            );\n            time = \"2023-02-10 11:34:34\";\n            u =             {\n                \"followers_count_text\" = \"\";\n                id = 27417868;\n                \"is_prime\" = 0;\n                lv = 0;\n                lvl = 6;\n                n = \"\\U7f8e\\U98df\\U96f6\\U98df\\U5e97\\U94fa\";\n                p = \"http:\/\/tx1.douguo.net\/upload\/photo\/a\/9\/d\/70_a9dfe2e36c59f2f6c4e2fd10c7db626d.jpg\";\n                \"progress_image\" = \"\";\n                \"recipes_count_text\" = \"\";\n                relationship = \"-1\";\n                title = \"\";\n                v = 1;\n                \"verified_image\" = \"\";\n            };\n        }\n    );\n    city = \"\";\n    cmc = 2;\n    content =     (\n                {\n            c = \"\\U6700\\U540e\\U5012\\U5165\\U7684\\U662f\\U6dc0\\U7c89\\U6c34\\U5417\\Uff1f\";\n        }\n    );\n    ia = 0;\n    id = 9001683;\n    \"ip_address_location\" = \"\\U5e7f\\U4e1c\\U7701\";\n    like = 0;\n    \"like_count\" = 1;\n    \"reply_id\" = 0;\n    \"sticker_icon\" =     (\n    );\n    time = \"2023-02-09 14:55:21\";\n    u =     {\n        \"followers_count_text\" = \"\";\n        id = 9055774;\n        \"is_prime\" = 0;\n        lv = 0;\n        lvl = 2;\n        n = \"\\U83df\\U30a6\\U30b5\\U30ae\\U59eb\";\n        p = \"http:\/\/tx1.douguo.net\/upload\/photo\/d\/5\/1\/70_d5030e56fecbf6b56d250b83cf21bbc1.jpg\";\n        \"progress_image\" = \"\";\n        \"recipes_count_text\" = \"\";\n        relationship = \"-1\";\n        title = \"\";\n        v = 0;\n        \"verified_image\" = \"\";\n    };\n}"
      ],
      "author" : "美食零食店铺",
      "recipe_list_tags" : [
        {
          "text" : "关注的人",
          "background_end_color" : "#F4F5F5",
          "background_start_color" : "#F4F5F5",
          "right_image" : "",
          "jump_url" : "",
          "background_border_color" : "",
          "text_color" : "#141515"
        }
      ],
      "clicks" : "1",
      "dish_count_text" : "19",
      "sr" : "",
      "tips" : "想告诉全世界!豆角这样做真的巨巨巨下饭!!\n豆角炒肉末泰好吃啦!又香又辣!\n拌米饭\t绝啦着一不小心吃了两大碗!太费\t\n米饭了!\n做法简单，姐妹们赶紧试试儿感记得多闷米饭不然不够吃哈~\n食材:豆角、肉末、蒜末、葱花做法:如图所示~",
      "share_info" : {
        "infos" : [
          {
            "image" : "https:\/\/cp1.douguo.com\/upload\/caiku\/0\/1\/1\/014ef485b943a7d1632005894cf98db1.jpg",
            "object_id" : "3237557",
            "qr_image" : "",
            "name" : "想告诉全世界!豆角这样做真的巨巨巨下饭!!-会做饭很酷!",
            "s_d" : "#学做饭用豆果美食# 会做饭好酷啊！我在@豆果美食 分享了【想告诉全世界!豆角这样做真的巨巨巨下饭!!-会做饭很酷!】，今天也是厨艺满满的一天呢，快来和我一起学做美食吧！查看图片了解菜谱（更多美食秘籍点击https:\/\/m.weibo.cn\/p\/100404i33631获取）",
            "channel" : "1",
            "mini_program" : [

            ],
            "s_u" : ""
          },
          {
            "image" : "https:\/\/cp1.douguo.com\/upload\/caiku\/0\/1\/1\/014ef485b943a7d1632005894cf98db1.jpg",
            "channel" : "7",
            "s_d" : "想告诉全世界!豆角这样做真的巨巨巨下饭!!-会做饭很酷!",
            "qr_image" : "",
            "object_id" : "3237557",
            "name" : "想告诉全世界!豆角这样做真的巨巨巨下饭!!-会做饭很酷!",
            "mini_program" : [

            ],
            "s_u" : "http:\/\/m.douguo.com\/cookbook\/3237557.html"
          },
          {
            "mini_program" : [

            ],
            "image" : "https:\/\/cp1.douguo.com\/upload\/caiku\/0\/1\/1\/014ef485b943a7d1632005894cf98db1.jpg",
            "qr_image" : "",
            "name" : "想告诉全世界!豆角这样做真的巨巨巨下饭!!-会做饭很酷!",
            "object_id" : "3237557",
            "s_d" : "想告诉全世界!豆角这样做真的巨巨巨下饭!!-会做饭很酷!",
            "s_u" : "http:\/\/m.douguo.com\/cookbook\/3237557.html",
            "channel" : "8"
          }
        ],
        "name" : "想告诉全世界!豆角这样做真的巨巨巨下饭!!-会做饭很酷!",
        "mini_program" : [

        ],
        "qr_image" : "",
        "s_u" : "http:\/\/m.douguo.com\/cookbook\/3237557.html",
        "image" : "https:\/\/cp1.douguo.com\/upload\/caiku\/0\/1\/1\/014ef485b943a7d1632005894cf98db1.jpg",
        "object_id" : "3237557",
        "s_d" : "想告诉全世界!豆角这样做真的巨巨巨下饭!!-会做饭很酷!"
      },
      "recommendation_tag" : "",
      "hqu" : "recipes:\/\/www.douguo.com\/notedetail?id=21162253",
      "comments_count_text" : "66",
      "related_ads" : [

      ],
      "major" : [
        {
          "tu" : "https:\/\/m.douguo.com\/ingredients\/豆角\/detailmaterial",
          "note" : "",
          "title" : "豆角"
        },
        {
          "title" : "肉末",
          "note" : ""
        },
        {
          "note" : "",
          "title" : "蒜末"
        },
        {
          "title" : "葱花",
          "tu" : "https:\/\/m.douguo.com\/ingredients\/葱花\/detailmaterial",
          "note" : ""
        }
      ],
      "rsm" : "该功能暂停使用",
      "old_comments" : [

      ],
      "cookstorys" : [
        {
          "id" : 0,
          "c" : " 想告诉全世界!豆角这样做真的巨巨巨下饭!!\n豆角炒肉末泰好吃啦!又香又辣!\n拌米饭\t绝啦着一不小心吃了两大碗!太费\t\n米饭了!\n做法简单，姐妹们赶紧试试儿感记得多闷米饭不然不够吃哈~\n食材:豆角、肉末、蒜末、葱花做法:如图所示~ ",
          "color" : "",
          "icon" : "",
          "type" : 0,
          "u" : ""
        }
      ],
      "act_des" : "",
      "packages_id" : [

      ],
      "rrps" : [

      ],
      "cook_difficulty_image" : "",
      "cook_time_image" : "",
      "ecs" : 1,
      "first_level_comment_count" : 30,
      "brand_day_dsp" : [

      ],
      "vfurl" : "",
      "comments_count" : 66,
      "author_id" : 27417868,
      "cookwares" : [

      ],
      "rpt" : "",
      "cook_time" : "",
      "ipia" : [

      ],
      "cookstory" : " 想告诉全世界!豆角这样做真的巨巨巨下饭!!\n豆角炒肉末泰好吃啦!又香又辣!\n拌米饭\t绝啦着一不小心吃了两大碗!太费\t\n米饭了!\n做法简单，姐妹们赶紧试试儿感记得多闷米饭不然不够吃哈~\n食材:豆角、肉末、蒜末、葱花做法:如图所示~ ",
      "guide_image" : "",
      "rips" : 0,
      "thumb_height" : 0,
      "ipurl" : "",
      "rewarded_video_dsp" : [

      ],
      "views_count_text" : "171.4万",
      "title_ad" : [

      ],
      "rrpt" : "",
      "story_dsp" : [

      ],
      "levelid" : 2,
      "thumb_path" : "https:\/\/i1.douguo.com\/upload\/caiku\/0\/1\/1\/300_014ef485b943a7d1632005894cf98db1.jpg",
      "ipt" : "",
      "favo_counts" : 10417,
      "rdsps" : [

      ],
      "dishes" : [

      ],
      "pw" : 1280,
      "rate_show" : 0,
      "cookstep" : [
        {
          "image_height" : 1707,
          "content" : "想告诉全世界!豆角这样做真的巨巨巨下饭!!\n豆角炒肉末泰好吃啦!又香又辣!\n拌米饭\t绝啦着一不小心吃了两大碗!太费\t\n米饭了!\n做法简单，姐妹们赶紧试试儿感记得多闷米饭不然不够吃哈~\n食材:豆角、肉末、蒜末、葱花做法:如图所示~",
          "position" : 1,
          "thumb" : "https:\/\/i1.douguo.com\/upload\/caiku\/2\/c\/3\/140_2c0cb8c8d897e90f9f1f1893d9aabd53.jpg",
          "image_width" : 1280,
          "frame" : "-1",
          "image" : "https:\/\/i1.douguo.com\/upload\/caiku\/2\/c\/3\/2c0cb8c8d897e90f9f1f1893d9aabd53.jpg"
        },
        {
          "position" : 2,
          "content" : "想告诉全世界!豆角这样做真的巨巨巨下饭!!\n豆角炒肉末泰好吃啦!又香又辣!\n拌米饭\t绝啦着一不小心吃了两大碗!太费\t\n米饭了!\n做法简单，姐妹们赶紧试试儿感记得多闷米饭不然不够吃哈~\n食材:豆角、肉末、蒜末、葱花做法:如图所示~",
          "frame" : "-1",
          "image_height" : 1707,
          "image" : "https:\/\/i1.douguo.com\/upload\/caiku\/e\/0\/b\/e06cf7ffb89635f95221e8fb382957db.jpg",
          "thumb" : "https:\/\/i1.douguo.com\/upload\/caiku\/e\/0\/b\/140_e06cf7ffb89635f95221e8fb382957db.jpg",
          "image_width" : 1280
        },
        {
          "position" : 3,
          "image" : "https:\/\/i1.douguo.com\/upload\/caiku\/d\/e\/7\/de8da3f247a3b6f20686477850772347.jpg",
          "thumb" : "https:\/\/i1.douguo.com\/upload\/caiku\/d\/e\/7\/140_de8da3f247a3b6f20686477850772347.jpg",
          "image_width" : 1280,
          "frame" : "-1",
          "content" : "想告诉全世界!豆角这样做真的巨巨巨下饭!!\n豆角炒肉末泰好吃啦!又香又辣!\n拌米饭\t绝啦着一不小心吃了两大碗!太费\t\n米饭了!\n做法简单，姐妹们赶紧试试儿感记得多闷米饭不然不够吃哈~\n食材:豆角、肉末、蒜末、葱花做法:如图所示~",
          "image_height" : 1707
        }
      ],
      "ipoi" : "",
      "photo_path" : "https:\/\/i1.douguo.com\/upload\/caiku\/0\/1\/1\/600_014ef485b943a7d1632005894cf98db1.jpg",
      "user" : {
        "favorites_count" : 0,
        "lv" : 0,
        "user_large_photo" : "http:\/\/tx1.douguo.net\/upload\/photo\/a\/9\/d\/yuan_a9dfe2e36c59f2f6c4e2fd10c7db626d.jpg",
        "subscription" : 0,
        "age" : "",
        "recipes_count" : 0,
        "diaries_count" : 0,
        "userid" : "27417868",
        "avatar_medium" : "http:\/\/tx1.douguo.net\/upload\/photo\/a\/9\/d\/140_a9dfe2e36c59f2f6c4e2fd10c7db626d.jpg",
        "dishes_count" : 0,
        "user_id" : "27417868",
        "sign" : "",
        "user_photo" : "http:\/\/tx1.douguo.net\/upload\/photo\/a\/9\/d\/70_a9dfe2e36c59f2f6c4e2fd10c7db626d.jpg",
        "gender" : 2,
        "qq_weibo_nick" : "",
        "followers_count" : 0,
        "coursecount" : 0,
        "qzone_nick" : "",
        "point" : 0,
        "verified_url" : "https:\/\/m.douguo.com\/user\/prodesc",
        "setted_email" : 0,
        "user_cover" : "",
        "progress_image" : "",
        "location" : 0,
        "verified_image" : "https:\/\/i1.douguo.com\/upload\/note\/d\/a\/a\/da84247847aebe48d9dd0fcdac88862a.png",
        "subscription_article_count" : 0,
        "nick" : "美食零食店铺",
        "is_prime" : 0,
        "lvl" : 6,
        "regist_time" : "",
        "introduction" : "",
        "weibo_nick" : "",
        "email" : "",
        "following_count" : 0,
        "favor_diaries_count" : 0,
        "mobile" : "",
        "pc" : 0,
        "verified" : 1,
        "fc" : 0,
        "birthday" : ""
      },
      "ipit" : 0,
      "mid_mdsp" : [

      ],
      "release_time" : "",
      "recommend_label" : "19人学做",
      "ss" : [

      ],
      "author_verified" : 1,
      "minor" : [

      ],
      "collect_status" : 0,
      "tags" : [

      ],
      "btm_dsp" : [

      ],
      "favo_counts_text" : "1.0万",
      "ph" : 1707,
      "bs" : [

      ],
      "title" : "想告诉全世界!豆角这样做真的巨巨巨下饭!!",
      "hq" : 1,
      "rate" : 5,
      "sc" : 0,
      "su" : "",
      "vu" : "",
      "rpid" : 0
    }
  },
  "state" : "success"
}