{
  "result" : {
    "recipe" : {
      "related_ads" : [

      ],
      "author_verified" : 0,
      "rate" : 5,
      "hqu" : "recipes:\/\/www.douguo.com\/notedetail?id=21162253",
      "favo_counts_text" : "4374",
      "tags" : [

      ],
      "ipci" : "",
      "brand_day_dsp" : [

      ],
      "clicks" : "366001",
      "vfurl" : "",
      "author_id" : 17643424,
      "share_info" : {
        "s_d" : "剁椒罗非鱼#精品菜谱挑战赛#-会做饭很酷!",
        "image" : "https:\/\/cp1.douguo.com\/upload\/caiku\/b\/b\/e\/bb689a50d09131d4afcf6349b7ac712e.jpg",
        "object_id" : "2290349",
        "infos" : [
          {
            "channel" : "1",
            "s_u" : "",
            "qr_image" : "",
            "s_d" : "#学做饭用豆果美食# 我在@豆果美食 分享了【剁椒罗非鱼#精品菜谱挑战赛#-会做饭很酷!】，色香味俱全说的就是这道菜！查看图片了解菜谱（快来点击https:\/\/m.weibo.cn\/p\/100404i33631和我一起修炼厨艺吧）#会做饭很酷# ",
            "image" : "https:\/\/cp1.douguo.com\/upload\/caiku\/b\/b\/e\/bb689a50d09131d4afcf6349b7ac712e.jpg",
            "mini_program" : [

            ],
            "object_id" : "2290349",
            "name" : "剁椒罗非鱼#精品菜谱挑战赛#-会做饭很酷!"
          },
          {
            "channel" : "7",
            "mini_program" : [

            ],
            "object_id" : "2290349",
            "name" : "剁椒罗非鱼#精品菜谱挑战赛#-会做饭很酷!",
            "s_d" : "剁椒罗非鱼#精品菜谱挑战赛#-会做饭很酷!",
            "qr_image" : "",
            "image" : "https:\/\/cp1.douguo.com\/upload\/caiku\/b\/b\/e\/bb689a50d09131d4afcf6349b7ac712e.jpg",
            "s_u" : "http:\/\/m.douguo.com\/cookbook\/2290349.html"
          },
          {
            "object_id" : "2290349",
            "name" : "剁椒罗非鱼#精品菜谱挑战赛#-会做饭很酷!",
            "mini_program" : [

            ],
            "qr_image" : "",
            "s_u" : "http:\/\/m.douguo.com\/cookbook\/2290349.html",
            "image" : "https:\/\/cp1.douguo.com\/upload\/caiku\/b\/b\/e\/bb689a50d09131d4afcf6349b7ac712e.jpg",
            "s_d" : "剁椒罗非鱼#精品菜谱挑战赛#-会做饭很酷!",
            "channel" : "8"
          }
        ],
        "name" : "剁椒罗非鱼#精品菜谱挑战赛#-会做饭很酷!",
        "s_u" : "http:\/\/m.douguo.com\/cookbook\/2290349.html",
        "qr_image" : "",
        "mini_program" : [

        ]
      },
      "minor" : [

      ],
      "rrpt" : "",
      "notes" : [

      ],
      "rdsps" : [

      ],
      "tips" : "检验鱼蒸熟的方式可以用一根筷子从鱼背插下去，能插到底，说明熟了。",
      "btm_dsp" : [

      ],
      "ipia" : [

      ],
      "sr" : "",
      "image" : "http:\/\/i1.douguo.net\/upload\/caiku\/b\/b\/e\/300_bb689a50d09131d4afcf6349b7ac712e.jpg",
      "rate_count" : 1,
      "ssu" : "",
      "rpid" : 0,
      "old_comments" : [

      ],
      "rsm" : "该功能暂停使用",
      "cook_time" : "10-30分钟",
      "rpst" : "",
      "purl" : "",
      "vc" : "374652",
      "first_level_comment_count" : 1,
      "rrps" : [

      ],
      "original_photo_path" : "http:\/\/i1.douguo.net\/upload\/caiku\/b\/b\/e\/yuan_bb689a50d09131d4afcf6349b7ac712e.jpg",
      "advice" : {
        "has" : [
          {
            "url" : "recipes:\/\/www.douguo.com\/simplerecipelist?t=富含蛋白质&id=富含蛋白质",
            "t" : "富含蛋白质"
          },
          {
            "t" : "低脂",
            "url" : "recipes:\/\/www.douguo.com\/simplerecipelist?t=低脂&id=低脂"
          }
        ],
        "da" : {
          "iu" : "https:\/\/i1.douguo.com\/upload\/banner\/f\/4\/d\/f48877e53c37759bc12ac494be82ec8d.png",
          "t" : "查看详细分析",
          "url" : "https:\/\/m.douguo.com\/recipe\/nutrient_self\/2290349"
        },
        "at" : "是组织形成和生长的主要营养素～"
      },
      "sc" : 0,
      "user" : {
        "user_cover" : "",
        "qq_weibo_nick" : "",
        "user_photo" : "http:\/\/tx1.douguo.net\/upload\/photo\/c\/d\/c\/70_u65263293877018071532.jpg",
        "dishes_count" : 0,
        "following_count" : 0,
        "nick" : "小西西11111",
        "sign" : "",
        "progress_image" : "",
        "diaries_count" : 0,
        "user_id" : "17643424",
        "birthday" : "",
        "weibo_nick" : "",
        "introduction" : "",
        "verified_image" : "",
        "subscription_article_count" : 0,
        "lvl" : 5,
        "followers_count" : 0,
        "mobile" : "",
        "age" : "",
        "location" : 0,
        "favor_diaries_count" : 0,
        "gender" : 2,
        "recipes_count" : 0,
        "pc" : 0,
        "coursecount" : 0,
        "lv" : 0,
        "verified" : 0,
        "setted_email" : 0,
        "user_large_photo" : "http:\/\/tx1.douguo.net\/upload\/photo\/c\/d\/c\/yuan_u65263293877018071532.jpg",
        "userid" : "17643424",
        "subscription" : 0,
        "verified_url" : "https:\/\/m.douguo.com\/user\/prodesc",
        "email" : "",
        "regist_time" : "",
        "favorites_count" : 0,
        "qzone_nick" : "",
        "is_prime" : 0,
        "point" : 0,
        "fc" : 0,
        "avatar_medium" : "http:\/\/tx1.douguo.net\/upload\/photo\/c\/d\/c\/140_u65263293877018071532.jpg"
      },
      "bs" : [

      ],
      "ecs" : 1,
      "cookstorys" : [
        {
          "type" : 0,
          "u" : "",
          "color" : "",
          "id" : 0,
          "c" : "鱼肉热量低，脂肪低，适合减肥又想吃肉的人群。",
          "icon" : ""
        }
      ],
      "author_photo" : "http:\/\/tx1.douguo.net\/upload\/photo\/c\/d\/c\/70_u65263293877018071532.jpg",
      "ipoi" : "",
      "pw" : 800,
      "top_mdsp" : [

      ],
      "levelid" : 2,
      "eu" : "recipes:\/\/www.douguo.com\/postdetail?id=242016",
      "comments" : [
        "{\n    ac = \"#999999\";\n    at = \"\\U5317\\U4eac\\U5e02\";\n    ccc = 0;\n    \"child_comments\" =     (\n    );\n    city = \"\\U5317\\U4eac\\U5e02\";\n    cmc = 2;\n    content =     (\n                {\n            c = \"\\U8fd9\\U4e2a\\U70b9\\U770b\\U5230 \\U771f\\U662f\\U8bf1\\U4eba\";\n        }\n    );\n    ia = 0;\n    id = 6644049;\n    \"ip_address_location\" = \"\";\n    like = 0;\n    \"like_count\" = 0;\n    \"reply_id\" = 0;\n    \"sticker_icon\" =     (\n    );\n    time = \"2019-06-05 23:06:20\";\n    u =     {\n        \"followers_count_text\" = \"\";\n        id = 23823022;\n        \"is_prime\" = 0;\n        lv = 0;\n        lvl = 3;\n        n = \"Anchor_Z\";\n        p = \"http:\/\/tx1.douguo.net\/upload\/photo\/c\/4\/1\/70_u57900756662519230704.jpeg\";\n        \"progress_image\" = \"\";\n        \"recipes_count_text\" = \"\";\n        relationship = \"-1\";\n        title = \"\";\n        v = 0;\n        \"verified_image\" = \"\";\n    };\n}"
      ],
      "collect_status" : 0,
      "rips" : 0,
      "release_time" : "",
      "major" : [
        {
          "tu" : "https:\/\/m.douguo.com\/ingredients\/罗非鱼\/detailmaterial",
          "note" : "一条",
          "title" : "罗非鱼"
        },
        {
          "note" : "100g",
          "title" : "小米辣"
        },
        {
          "note" : "一块",
          "tu" : "https:\/\/m.douguo.com\/ingredients\/生姜\/detailmaterial",
          "title" : "生姜"
        },
        {
          "note" : "一段",
          "title" : "大葱",
          "tu" : "https:\/\/m.douguo.com\/ingredients\/大葱\/detailmaterial"
        },
        {
          "tu" : "https:\/\/m.douguo.com\/ingredients\/生抽\/detailmaterial",
          "note" : "少许",
          "title" : "生抽"
        },
        {
          "title" : "蒸鱼豉油",
          "note" : "适量"
        },
        {
          "note" : "少许",
          "title" : "香醋",
          "tu" : "https:\/\/m.douguo.com\/ingredients\/香醋\/detailmaterial"
        },
        {
          "title" : "盐",
          "tu" : "https:\/\/m.douguo.com\/ingredients\/盐\/detailmaterial",
          "note" : "适量"
        },
        {
          "note" : "少许",
          "title" : "香油",
          "tu" : "https:\/\/m.douguo.com\/ingredients\/香油\/detailmaterial"
        },
        {
          "note" : "1个",
          "title" : "大蒜",
          "tu" : "https:\/\/m.douguo.com\/ingredients\/大蒜\/detailmaterial"
        },
        {
          "note" : "适量",
          "title" : "料酒",
          "tu" : "https:\/\/m.douguo.com\/ingredients\/料酒\/detailmaterial"
        }
      ],
      "ipt" : "",
      "recipe_list_tags" : [
        {
          "background_start_color" : "#F4F5F5",
          "text_color" : "#141515",
          "text" : "关注的人",
          "background_border_color" : "",
          "background_end_color" : "#F4F5F5",
          "jump_url" : "",
          "right_image" : ""
        },
        {
          "right_image" : "",
          "text" : "内容详细",
          "background_border_color" : "",
          "background_start_color" : "#F4F5F5",
          "jump_url" : "",
          "text_color" : "#141515",
          "background_end_color" : "#F4F5F5"
        }
      ],
      "cook_id" : "2290349",
      "guide_image" : "",
      "display_ingredient" : 1,
      "photo_path" : "https:\/\/i1.douguo.com\/upload\/caiku\/b\/b\/e\/600_bb689a50d09131d4afcf6349b7ac712e.jpg",
      "cookwares" : [

      ],
      "create_time" : "2019-04-18 22:23:33",
      "rate_show" : 0,
      "cook_difficulty" : "切墩(初级)",
      "recipe_tags" : [

      ],
      "rpt" : "",
      "recommended" : 0,
      "story_dsp" : [

      ],
      "ipurl" : "",
      "recommendation_tag" : "",
      "thumb_height" : 0,
      "cookstory" : "鱼肉热量低，脂肪低，适合减肥又想吃肉的人群。",
      "ss" : [

      ],
      "dishes" : [

      ],
      "mid_mdsp" : [

      ],
      "comments_count" : 1,
      "act_des" : "",
      "dish_count" : 1,
      "recent_comments" : [

      ],
      "title_ad" : [

      ],
      "packages_id" : [

      ],
      "favo_counts" : 4374,
      "ipit" : 0,
      "cook_time_image" : "https:\/\/i1.douguo.com\/upload\/banner\/1551424341.png",
      "su" : "",
      "recommend_label" : "1人学做",
      "rewarded_video_dsp" : [

      ],
      "thumb_path" : "https:\/\/i1.douguo.com\/upload\/caiku\/b\/b\/e\/300_bb689a50d09131d4afcf6349b7ac712e.jpg",
      "ph" : 600,
      "cook_difficulty_image" : "https:\/\/i1.douguo.com\/upload\/banner\/1551424390.png",
      "title" : "剁椒罗非鱼",
      "event" : {
        "id" : 0
      },
      "dish_count_text" : "1",
      "hq" : 1,
      "views_count_text" : "37.5万",
      "rcs" : [

      ],
      "cookstep" : [
        {
          "image_height" : 600,
          "image_width" : 800,
          "thumb" : "https:\/\/i1.douguo.com\/upload\/caiku\/5\/d\/4\/140_5d362f64e685ca782dea2b23fe49a294.jpg",
          "content" : "一条罗非鱼宰杀洗干净，在背上划几刀，以便于腌制配料入味。",
          "image" : "https:\/\/i1.douguo.com\/upload\/caiku\/5\/d\/4\/5d362f64e685ca782dea2b23fe49a294.jpg",
          "position" : 1,
          "frame" : "-1"
        },
        {
          "content" : "放在一个盆里好拌，放入剁碎的小米辣，葱花，蒜末，姜末。",
          "image" : "https:\/\/i1.douguo.com\/upload\/caiku\/a\/d\/f\/ada5d7c1cb264c256dcb95c72d70a75f.jpg",
          "frame" : "-1",
          "thumb" : "https:\/\/i1.douguo.com\/upload\/caiku\/a\/d\/f\/140_ada5d7c1cb264c256dcb95c72d70a75f.jpg",
          "image_width" : 1152,
          "position" : 2,
          "image_height" : 1536
        },
        {
          "image_height" : 1067,
          "frame" : "-1",
          "image" : "https:\/\/i1.douguo.com\/upload\/caiku\/b\/6\/c\/b6197fb3ccf84deed1c9c12e90389e1c.jpg",
          "thumb" : "https:\/\/i1.douguo.com\/upload\/caiku\/b\/6\/c\/140_b6197fb3ccf84deed1c9c12e90389e1c.jpg",
          "content" : "再放料酒，生抽，适量食盐。戴上手套，把配料均匀抹在鱼身上。腌制15分钟。",
          "position" : 3,
          "image_width" : 800
        },
        {
          "image" : "https:\/\/i1.douguo.com\/upload\/caiku\/9\/0\/4\/907c1cdff6c5bdbbd5d1b7a1d957b754.jpg",
          "image_height" : 1440,
          "image_width" : 1080,
          "thumb" : "https:\/\/i1.douguo.com\/upload\/caiku\/9\/0\/4\/140_907c1cdff6c5bdbbd5d1b7a1d957b754.jpg",
          "content" : "锅里水开后，上鱼蒸10分钟。",
          "frame" : "-1",
          "position" : 4
        },
        {
          "position" : 5,
          "frame" : "-1",
          "image_height" : 600,
          "image_width" : 800,
          "content" : "鱼蒸好撒上葱花，再浇热油。就完成了。",
          "thumb" : "https:\/\/i1.douguo.com\/upload\/caiku\/0\/e\/2\/140_0e55614732d05f23f6a62463d73eed92.jpg",
          "image" : "https:\/\/i1.douguo.com\/upload\/caiku\/0\/e\/2\/0e55614732d05f23f6a62463d73eed92.jpg"
        },
        {
          "image_width" : 800,
          "position" : 6,
          "image_height" : 600,
          "thumb" : "https:\/\/i1.douguo.com\/upload\/caiku\/a\/4\/0\/140_a46a3777e706160440302d17843a5130.jpg",
          "image" : "https:\/\/i1.douguo.com\/upload\/caiku\/a\/4\/0\/a46a3777e706160440302d17843a5130.jpg",
          "content" : "成品图。",
          "frame" : "-1"
        }
      ],
      "comments_count_text" : "1",
      "author" : "小西西11111",
      "vu" : "",
      "v_u" : ""
    }
  },
  "status" : 0,
  "state" : "success"
}