{
  "status" : 0,
  "result" : {
    "recipe" : {
      "comments_count" : 71,
      "ipurl" : "",
      "act_des" : "",
      "rate" : 5,
      "sc" : 0,
      "vu" : "",
      "advice" : {
        "da" : {
          "t" : "查看详细分析",
          "url" : "https:\/\/m.douguo.com\/recipe\/nutrient_self\/1649581",
          "iu" : "https:\/\/i1.douguo.com\/upload\/banner\/f\/4\/d\/f48877e53c37759bc12ac494be82ec8d.png"
        },
        "at" : "有助于构成或修复人体组织～",
        "has" : [
          {
            "t" : "富含蛋白质",
            "url" : "recipes:\/\/www.douguo.com\/simplerecipelist?t=富含蛋白质&id=富含蛋白质"
          }
        ]
      },
      "recipe_tags" : [
        "{\n    \"background_border_color\" = \"\";\n    \"background_end_color\" = \"#F5D39F\";\n    \"background_start_color\" = \"#FAE9CD\";\n    index = 443;\n    \"jump_url\" = \"https:\/\/m.douguo.com\/activity\/page\/xuezuo?isapp=1&type=honor\";\n    \"right_image\" = \"https:\/\/i1.douguo.com\/upload\/caiku\/0\/a\/b\/0a317d98c713e7e7d0d47ed003f2d93b.png\";\n    text = \"\\U8363\\U8a89\\U6bbf\\U5802\";\n    \"text_color\" = \"#413C32\";\n}"
      ],
      "cook_id" : "1649581",
      "first_level_comment_count" : 56,
      "create_time" : "2018-02-02 17:23:14",
      "rpt" : "",
      "author_photo" : "http:\/\/tx1.douguo.net\/upload\/photo\/7\/b\/3\/70_u21224741728010223548.jpeg",
      "levelid" : 2,
      "comments" : [
        "{\n    ac = \"#999999\";\n    at = \"\\U4e0a\\U6d77\\U5e02\";\n    ccc = 3;\n    \"child_comments\" =     (\n                {\n            ac = \"#999999\";\n            at = \"\\U5bbf\\U5dde\\U5e02\";\n            ccc = 0;\n            city = \"\\U5bbf\\U5dde\\U5e02\";\n            cmc = 2;\n            content =             (\n                                {\n                    c = \" \\U90a3\\U5c31\\U7528\\U5564\\U9152\\U4ee3\\U66ff\\Uff0c\";\n                }\n            );\n            ia = 0;\n            id = 8237255;\n            \"ip_address_location\" = \"\";\n            like = 0;\n            \"like_count\" = 0;\n            \"reply_id\" = 7897586;\n            \"reply_user\" =             {\n                \"followers_count_text\" = \"\";\n                id = 25387750;\n                \"is_prime\" = 0;\n                lv = 0;\n                lvl = 1;\n                n = \"\\U58f0\\U97f3\\U597d\\U542c\\U7684\\U6ed1\\U5b50\\U83c7\\U5f88\\U660e\\U6643\\U6643\";\n                p = \"http:\/\/tx1.douguo.net\/upload\/photo\/1\/1\/1\/70_004976861ec13b4af62b1d8db8c5c9f7.png\";\n                \"progress_image\" = \"\";\n                \"recipes_count_text\" = \"\";\n                relationship = \"-1\";\n                title = \"\";\n                v = 0;\n                \"verified_image\" = \"\";\n            };\n            \"sticker_icon\" =             (\n            );\n            time = \"2020-09-12 20:25:06\";\n            u =             {\n                \"followers_count_text\" = \"\";\n                id = 22642383;\n                \"is_prime\" = 0;\n                lv = 0;\n                lvl = 2;\n                n = \"\\U6211\\U8981\\U4e70\\U6240\\U6709\\U70f9\\U996a\\U7535\\U5668\";\n                p = \"http:\/\/tx1.douguo.net\/upload\/photo\/9\/6\/e\/70_u36384273831450104225.jpg\";\n                \"progress_image\" = \"\";\n                \"recipes_count_text\" = \"\";\n                relationship = \"-1\";\n                title = \"\";\n                v = 0;\n                \"verified_image\" = \"\";\n            };\n        },\n                {\n            ac = \"#999999\";\n            at = \"\\U54b8\\U5b81\\U5e02\";\n            ccc = 0;\n            city = \"\\U54b8\\U5b81\\U5e02\";\n            cmc = 2;\n            content =             (\n                                {\n                    c = \" \\U767d\\U9152\\U4e5f\\U884c\\Uff0c\\U4e3b\\U8981\\U662f\\U53bb\\U8165\\U5473\";\n                }\n            );\n            ia = 0;\n            id = 8503910;\n            \"ip_address_location\" = \"\";\n            like = 0;\n            \"like_count\" = 0;\n            \"reply_id\" = 7897586;\n            \"reply_user\" =             {\n                \"followers_count_text\" = \"\";\n                id = 25387750;\n                \"is_prime\" = 0;\n                lv = 0;\n                lvl = 1;\n                n = \"\\U58f0\\U97f3\\U597d\\U542c\\U7684\\U6ed1\\U5b50\\U83c7\\U5f88\\U660e\\U6643\\U6643\";\n                p = \"http:\/\/tx1.douguo.net\/upload\/photo\/1\/1\/1\/70_004976861ec13b4af62b1d8db8c5c9f7.png\";\n                \"progress_image\" = \"\";\n                \"recipes_count_text\" = \"\";\n                relationship = \"-1\";\n                title = \"\";\n                v = 0;\n                \"verified_image\" = \"\";\n            };\n            \"sticker_icon\" =             (\n            );\n            time = \"2021-02-11 19:33:36\";\n            u =             {\n                \"followers_count_text\" = \"\";\n                id = 22002607;\n                \"is_prime\" = 0;\n                lv = 0;\n                lvl = 1;\n                n = \"\\U73b0\\U5b9eidzx\";\n                p = \"http:\/\/tx1.douguo.net\/upload\/photo\/3\/4\/c\/70_u2530831690038152738.jpg\";\n                \"progress_image\" = \"\";\n                \"recipes_count_text\" = \"\";\n                relationship = \"-1\";\n                title = \"\";\n                v = 0;\n                \"verified_image\" = \"\";\n            };\n        }\n    );\n    city = \"\\U4e0a\\U6d77\\U5e02\";\n    cmc = 2;\n    content =     (\n                {\n            c = \"\\U6ca1\\U6599\\U9152\\U884c\\U4e0d\\U884c\";\n        }\n    );\n    ia = 0;\n    id = 7897586;\n    \"ip_address_location\" = \"\";\n    like = 0;\n    \"like_count\" = 2;\n    \"reply_id\" = 0;\n    \"sticker_icon\" =     (\n    );\n    time = \"2020-04-20 21:07:42\";\n    u =     {\n        \"followers_count_text\" = \"\";\n        id = 25387750;\n        \"is_prime\" = 0;\n        lv = 0;\n        lvl = 1;\n        n = \"\\U58f0\\U97f3\\U597d\\U542c\\U7684\\U6ed1\\U5b50\\U83c7\\U5f88\\U660e\\U6643\\U6643\";\n        p = \"http:\/\/tx1.douguo.net\/upload\/photo\/1\/1\/1\/70_004976861ec13b4af62b1d8db8c5c9f7.png\";\n        \"progress_image\" = \"\";\n        \"recipes_count_text\" = \"\";\n        relationship = \"-1\";\n        title = \"\";\n        v = 0;\n        \"verified_image\" = \"\";\n    };\n}",
        "{\n    ac = \"#999999\";\n    at = \"\";\n    ccc = 2;\n    \"child_comments\" =     (\n                {\n            ac = \"#999999\";\n            at = \"\\U63ed\\U9633\\U5e02\";\n            ccc = 0;\n            city = \"\\U63ed\\U9633\\U5e02\";\n            cmc = 2;\n            content =             (\n                                {\n                    c = \" \\U8bd5\\U8bd5\";\n                }\n            );\n            ia = 1;\n            id = 5359379;\n            \"ip_address_location\" = \"\";\n            like = 0;\n            \"like_count\" = 0;\n            \"reply_id\" = 5358378;\n            \"reply_user\" =             {\n                \"followers_count_text\" = \"\";\n                id = 18461771;\n                \"is_prime\" = 0;\n                lv = 0;\n                lvl = 6;\n                n = \"\\U4f50\\U513f\\U5988\";\n                p = \"http:\/\/tx1.douguo.net\/upload\/photo\/7\/a\/8\/70_u11960635806050408131419.jpg\";\n                \"progress_image\" = \"\";\n                \"recipes_count_text\" = \"\";\n                relationship = \"-1\";\n                title = \"\";\n                v = 0;\n                \"verified_image\" = \"\";\n            };\n            \"sticker_icon\" =             (\n            );\n            time = \"2018-02-03 10:30:58\";\n            u =             {\n                \"followers_count_text\" = \"\";\n                id = 7815869;\n                \"is_prime\" = 0;\n                lv = 0;\n                lvl = 7;\n                n = \"\\U8339\\U7d6e\";\n                p = \"http:\/\/tx1.douguo.net\/upload\/photo\/7\/b\/3\/70_u21224741728010223548.jpeg\";\n                \"progress_image\" = \"\";\n                \"recipes_count_text\" = \"\";\n                relationship = \"-1\";\n                title = \"\";\n                v = 1;\n                \"verified_image\" = \"\";\n            };\n        },\n                {\n            ac = \"#999999\";\n            at = \"\\U676d\\U5dde\\U5e02\";\n            ccc = 0;\n            city = \"\\U676d\\U5dde\\U5e02\";\n            cmc = 2;\n            content =             (\n                                {\n                    c = \" \\Ud83d\\Ude0b\\Ud83d\\Ude0b\";\n                }\n            );\n            ia = 0;\n            id = 8886154;\n            \"ip_address_location\" = \"\";\n            like = 0;\n            \"like_count\" = 0;\n            \"reply_id\" = 5358378;\n            \"reply_user\" =             {\n                \"followers_count_text\" = \"\";\n                id = 18461771;\n                \"is_prime\" = 0;\n                lv = 0;\n                lvl = 6;\n                n = \"\\U4f50\\U513f\\U5988\";\n                p = \"http:\/\/tx1.douguo.net\/upload\/photo\/7\/a\/8\/70_u11960635806050408131419.jpg\";\n                \"progress_image\" = \"\";\n                \"recipes_count_text\" = \"\";\n                relationship = \"-1\";\n                title = \"\";\n                v = 0;\n                \"verified_image\" = \"\";\n            };\n            \"sticker_icon\" =             (\n            );\n            time = \"2021-12-11 16:55:26\";\n            u =             {\n                \"followers_count_text\" = \"\";\n                id = 26396932;\n                \"is_prime\" = 0;\n                lv = 0;\n                lvl = 1;\n                n = \"\\U98a4\\U6296\\U7684\\U833c\\U84bf\\U5f88\\U4f60\\U5bb6\\U697c\\U4e0b\";\n                p = \"http:\/\/tx1.douguo.net\/upload\/photo\/1\/1\/1\/70_1bc7a2286b31c7e3e9d75156b0407ce9.png\";\n                \"progress_image\" = \"\";\n                \"recipes_count_text\" = \"\";\n                relationship = \"-1\";\n                title = \"\";\n                v = 0;\n                \"verified_image\" = \"\";\n            };\n        }\n    );\n    city = \"\";\n    cmc = 2;\n    content =     (\n                {\n            c = \"\\U770b\\U7740\\U5c31\\U4e0d\\U9519\\Uff0c\\U56de\\U5bb6\\U8bd5\\U8bd5\\U770b\\Uff01\";\n        }\n    );\n    ia = 0;\n    id = 5358378;\n    \"ip_address_location\" = \"\";\n    like = 0;\n    \"like_count\" = 3;\n    \"reply_id\" = 0;\n    \"sticker_icon\" =     (\n    );\n    time = \"2018-02-02 22:48:29\";\n    u =     {\n        \"followers_count_text\" = \"\";\n        id = 18461771;\n        \"is_prime\" = 0;\n        lv = 0;\n        lvl = 6;\n        n = \"\\U4f50\\U513f\\U5988\";\n        p = \"http:\/\/tx1.douguo.net\/upload\/photo\/7\/a\/8\/70_u11960635806050408131419.jpg\";\n        \"progress_image\" = \"\";\n        \"recipes_count_text\" = \"\";\n        relationship = \"-1\";\n        title = \"\";\n        v = 0;\n        \"verified_image\" = \"\";\n    };\n}",
        "{\n    ac = \"#999999\";\n    at = \"\";\n    ccc = 1;\n    \"child_comments\" =     (\n                {\n            ac = \"#999999\";\n            at = \"\\U63ed\\U9633\\U5e02\";\n            ccc = 0;\n            city = \"\\U63ed\\U9633\\U5e02\";\n            cmc = 2;\n            content =             (\n                                {\n                    c = \" \\U8bd5\\U8bd5\";\n                }\n            );\n            ia = 1;\n            id = 5359378;\n            \"ip_address_location\" = \"\";\n            like = 0;\n            \"like_count\" = 0;\n            \"reply_id\" = 5358379;\n            \"reply_user\" =             {\n                \"followers_count_text\" = \"\";\n                id = 18528253;\n                \"is_prime\" = 0;\n                lv = 0;\n                lvl = 6;\n                n = \"\\U6e90\\U6e90'''\";\n                p = \"http:\/\/tx1.douguo.net\/upload\/photo\/8\/6\/8\/70_869d138f1c47456dfc28e7dd212c47f8.jpg\";\n                \"progress_image\" = \"\";\n                \"recipes_count_text\" = \"\";\n                relationship = \"-1\";\n                title = \"\";\n                v = 0;\n                \"verified_image\" = \"\";\n            };\n            \"sticker_icon\" =             (\n            );\n            time = \"2018-02-03 10:30:54\";\n            u =             {\n                \"followers_count_text\" = \"\";\n                id = 7815869;\n                \"is_prime\" = 0;\n                lv = 0;\n                lvl = 7;\n                n = \"\\U8339\\U7d6e\";\n                p = \"http:\/\/tx1.douguo.net\/upload\/photo\/7\/b\/3\/70_u21224741728010223548.jpeg\";\n                \"progress_image\" = \"\";\n                \"recipes_count_text\" = \"\";\n                relationship = \"-1\";\n                title = \"\";\n                v = 1;\n                \"verified_image\" = \"\";\n            };\n        }\n    );\n    city = \"\";\n    cmc = 2;\n    content =     (\n                {\n            c = \"\\U6709\\U65f6\\U95f4\\U8981\\U5f04\\U6765\\U5c1d\\U4e00\\U5c1d~\";\n        }\n    );\n    ia = 0;\n    id = 5358379;\n    \"ip_address_location\" = \"\";\n    like = 0;\n    \"like_count\" = 0;\n    \"reply_id\" = 0;\n    \"sticker_icon\" =     (\n    );\n    time = \"2018-02-02 22:49:31\";\n    u =     {\n        \"followers_count_text\" = \"\";\n        id = 18528253;\n        \"is_prime\" = 0;\n        lv = 0;\n        lvl = 6;\n        n = \"\\U6e90\\U6e90'''\";\n        p = \"http:\/\/tx1.douguo.net\/upload\/photo\/8\/6\/8\/70_869d138f1c47456dfc28e7dd212c47f8.jpg\";\n        \"progress_image\" = \"\";\n        \"recipes_count_text\" = \"\";\n        relationship = \"-1\";\n        title = \"\";\n        v = 0;\n        \"verified_image\" = \"\";\n    };\n}"
      ],
      "clicks" : "25347843",
      "favo_counts_text" : "11.0万",
      "vc" : "26193861",
      "dish_count" : 118,
      "cookstorys" : [
        {
          "u" : "",
          "color" : "",
          "type" : 0,
          "id" : 0,
          "c" : "红烧猪蹄是一道传统的汉族名菜，属于川菜，湘菜或者粤菜。本菜是以猪蹄为主要食材的家常菜，味道可口，营养价值丰富，具有美容养颜的功效。",
          "icon" : ""
        }
      ],
      "rips" : 0,
      "cook_time_image" : "",
      "ss" : [

      ],
      "pw" : 1620,
      "thumb_path" : "https:\/\/i1.douguo.com\/upload\/caiku\/2\/0\/e\/300_207d62a60a5d49ce3862d349ef8bc47e.jpeg",
      "ipoi" : "",
      "eu" : "recipes:\/\/www.douguo.com\/postdetail?id=242016",
      "recommendation_tag" : "",
      "story_dsp" : [

      ],
      "rdsps" : [

      ],
      "vfurl" : "",
      "favo_counts" : 110236,
      "collect_status" : 0,
      "su" : "",
      "notes" : [

      ],
      "hqu" : "recipes:\/\/www.douguo.com\/notedetail?id=21162253",
      "user" : {
        "userid" : "7815869",
        "lv" : 0,
        "diaries_count" : 0,
        "coursecount" : 0,
        "qzone_nick" : "",
        "progress_image" : "",
        "dishes_count" : 0,
        "user_cover" : "",
        "favor_diaries_count" : 0,
        "pc" : 0,
        "user_large_photo" : "http:\/\/tx1.douguo.net\/upload\/photo\/7\/b\/3\/yuan_u21224741728010223548.jpeg",
        "lvl" : 7,
        "qq_weibo_nick" : "",
        "user_id" : "7815869",
        "birthday" : "",
        "regist_time" : "",
        "mobile" : "",
        "recipes_count" : 0,
        "age" : "",
        "subscription" : 0,
        "setted_email" : 0,
        "point" : 0,
        "verified" : 1,
        "verified_image" : "https:\/\/i1.douguo.com\/upload\/note\/d\/a\/a\/da84247847aebe48d9dd0fcdac88862a.png",
        "subscription_article_count" : 0,
        "weibo_nick" : "",
        "is_prime" : 0,
        "favorites_count" : 0,
        "nick" : "茹絮",
        "user_photo" : "http:\/\/tx1.douguo.net\/upload\/photo\/7\/b\/3\/70_u21224741728010223548.jpeg",
        "following_count" : 0,
        "location" : 0,
        "gender" : 2,
        "verified_url" : "https:\/\/m.douguo.com\/user\/prodesc",
        "sign" : "",
        "avatar_medium" : "http:\/\/tx1.douguo.net\/upload\/photo\/7\/b\/3\/140_u21224741728010223548.jpeg",
        "fc" : 0,
        "followers_count" : 0,
        "introduction" : "",
        "email" : ""
      },
      "title" : "红烧猪蹄",
      "rsm" : "该功能暂停使用",
      "dishes" : [

      ],
      "purl" : "",
      "cook_difficulty_image" : "",
      "dish_count_text" : "118",
      "recommend_label" : "118人学做",
      "thumb_height" : 0,
      "share_info" : {
        "image" : "https:\/\/cp1.douguo.com\/upload\/caiku\/2\/0\/e\/207d62a60a5d49ce3862d349ef8bc47e.jpeg",
        "s_d" : "红烧猪蹄-会做饭很酷!",
        "s_u" : "http:\/\/m.douguo.com\/cookbook\/1649581.html",
        "object_id" : "1649581",
        "name" : "红烧猪蹄-会做饭很酷!",
        "mini_program" : [

        ],
        "infos" : [
          {
            "name" : "红烧猪蹄-会做饭很酷!",
            "qr_image" : "",
            "channel" : "1",
            "image" : "https:\/\/cp1.douguo.com\/upload\/caiku\/2\/0\/e\/207d62a60a5d49ce3862d349ef8bc47e.jpeg",
            "mini_program" : [

            ],
            "object_id" : "1649581",
            "s_d" : "#学做饭用豆果美食# 我在@豆果美食 分享了【红烧猪蹄-会做饭很酷!】，色香味俱全说的就是这道菜！查看图片了解菜谱（快来点击https:\/\/m.weibo.cn\/p\/100404i33631和我一起修炼厨艺吧）#会做饭很酷# ",
            "s_u" : ""
          },
          {
            "object_id" : "1649581",
            "image" : "https:\/\/cp1.douguo.com\/upload\/caiku\/2\/0\/e\/207d62a60a5d49ce3862d349ef8bc47e.jpeg",
            "s_u" : "http:\/\/m.douguo.com\/cookbook\/1649581.html",
            "channel" : "7",
            "name" : "红烧猪蹄-会做饭很酷!",
            "mini_program" : [

            ],
            "qr_image" : "",
            "s_d" : "红烧猪蹄-会做饭很酷!"
          },
          {
            "mini_program" : [

            ],
            "qr_image" : "",
            "s_u" : "http:\/\/m.douguo.com\/cookbook\/1649581.html",
            "name" : "红烧猪蹄-会做饭很酷!",
            "channel" : "8",
            "s_d" : "红烧猪蹄-会做饭很酷!",
            "object_id" : "1649581",
            "image" : "https:\/\/cp1.douguo.com\/upload\/caiku\/2\/0\/e\/207d62a60a5d49ce3862d349ef8bc47e.jpeg"
          }
        ],
        "qr_image" : ""
      },
      "photo_path" : "https:\/\/i1.douguo.com\/upload\/caiku\/2\/0\/e\/600_207d62a60a5d49ce3862d349ef8bc47e.jpeg",
      "guide_image" : "",
      "packages_id" : [

      ],
      "major" : [
        {
          "tu" : "https:\/\/m.douguo.com\/ingredients\/猪蹄\/detailmaterial",
          "title" : "猪蹄",
          "note" : "800克"
        },
        {
          "title" : "葱",
          "note" : "10克",
          "tu" : "https:\/\/m.douguo.com\/ingredients\/葱\/detailmaterial"
        },
        {
          "tu" : "https:\/\/m.douguo.com\/ingredients\/姜\/detailmaterial",
          "note" : "10克",
          "title" : "姜"
        },
        {
          "note" : "10克",
          "title" : "蒜",
          "tu" : "https:\/\/m.douguo.com\/ingredients\/蒜\/detailmaterial"
        },
        {
          "note" : "适量",
          "tu" : "https:\/\/m.douguo.com\/ingredients\/花椒\/detailmaterial",
          "title" : "花椒"
        },
        {
          "title" : "八角",
          "note" : "3个",
          "tu" : "https:\/\/m.douguo.com\/ingredients\/八角\/detailmaterial"
        },
        {
          "tu" : "https:\/\/m.douguo.com\/ingredients\/香叶\/detailmaterial",
          "note" : "3片",
          "title" : "香叶"
        },
        {
          "note" : "1小块",
          "title" : "桂皮",
          "tu" : "https:\/\/m.douguo.com\/ingredients\/桂皮\/detailmaterial"
        },
        {
          "title" : "干红辣椒",
          "note" : "3条"
        },
        {
          "note" : "50克",
          "tu" : "https:\/\/m.douguo.com\/ingredients\/冰糖\/detailmaterial",
          "title" : "冰糖"
        },
        {
          "note" : "1汤匙",
          "tu" : "https:\/\/m.douguo.com\/ingredients\/料酒\/detailmaterial",
          "title" : "料酒"
        },
        {
          "note" : "适量",
          "tu" : "https:\/\/m.douguo.com\/ingredients\/老抽\/detailmaterial",
          "title" : "老抽"
        },
        {
          "tu" : "https:\/\/m.douguo.com\/ingredients\/生抽\/detailmaterial",
          "title" : "生抽",
          "note" : "1汤匙"
        },
        {
          "tu" : "https:\/\/m.douguo.com\/ingredients\/鸡精\/detailmaterial",
          "title" : "鸡精",
          "note" : "适量"
        },
        {
          "tu" : "https:\/\/m.douguo.com\/ingredients\/盐\/detailmaterial",
          "note" : "适量",
          "title" : "盐"
        },
        {
          "tu" : "https:\/\/m.douguo.com\/ingredients\/清水\/detailmaterial",
          "title" : "清水",
          "note" : "适量"
        },
        {
          "note" : "适量",
          "title" : "食用油",
          "tu" : "https:\/\/m.douguo.com\/ingredients\/食用油\/detailmaterial"
        }
      ],
      "old_comments" : [

      ],
      "cookstep" : [
        {
          "frame" : "-1",
          "position" : 1,
          "content" : "猪蹄斩块洗净备用",
          "thumb" : "https:\/\/i1.douguo.com\/upload\/caiku\/e\/3\/3\/140_e3cb6b25d1e57c92ce4950382650a773.jpeg",
          "image_width" : 800,
          "image" : "https:\/\/i1.douguo.com\/upload\/caiku\/e\/3\/3\/e3cb6b25d1e57c92ce4950382650a773.jpeg",
          "image_height" : 600
        },
        {
          "image_width" : 800,
          "image" : "https:\/\/i1.douguo.com\/upload\/caiku\/c\/a\/a\/cae00845aa0c5f4ac399b1bff6a3218a.jpeg",
          "position" : 2,
          "image_height" : 600,
          "content" : "葱切段、姜切片、蒜拍扁",
          "thumb" : "https:\/\/i1.douguo.com\/upload\/caiku\/c\/a\/a\/140_cae00845aa0c5f4ac399b1bff6a3218a.jpeg",
          "frame" : "-1"
        },
        {
          "image_height" : 1440,
          "thumb" : "https:\/\/i1.douguo.com\/upload\/caiku\/c\/d\/f\/140_cd5a2246ffd0a82636b5a89c6f6830ff.jpeg",
          "frame" : "-1",
          "image" : "https:\/\/i1.douguo.com\/upload\/caiku\/c\/d\/f\/cd5a2246ffd0a82636b5a89c6f6830ff.jpeg",
          "image_width" : 1920,
          "position" : 3,
          "content" : "冰糖、八角、桂皮、香叶、花椒、干红辣椒备好"
        },
        {
          "thumb" : "https:\/\/i1.douguo.com\/upload\/caiku\/e\/d\/c\/140_edde03fbca45145e2e46c3682329bbdc.jpeg",
          "position" : 4,
          "content" : "冷水下锅，放入猪蹄",
          "image_width" : 800,
          "image_height" : 600,
          "image" : "https:\/\/i1.douguo.com\/upload\/caiku\/e\/d\/c\/edde03fbca45145e2e46c3682329bbdc.jpeg",
          "frame" : "-1"
        },
        {
          "image_width" : 800,
          "content" : "大火烧开，捞出浮沫",
          "position" : 5,
          "thumb" : "https:\/\/i1.douguo.com\/upload\/caiku\/a\/b\/1\/140_ab69eff588de23f293f45bf78a317ca1.jpeg",
          "image" : "https:\/\/i1.douguo.com\/upload\/caiku\/a\/b\/1\/ab69eff588de23f293f45bf78a317ca1.jpeg",
          "frame" : "-1",
          "image_height" : 600
        },
        {
          "position" : 6,
          "image_height" : 600,
          "content" : "再捞出猪蹄沥干水份备用",
          "image_width" : 800,
          "thumb" : "https:\/\/i1.douguo.com\/upload\/caiku\/5\/d\/6\/140_5d2e66090cbf3cedc9f3d620d20d87f6.jpeg",
          "image" : "https:\/\/i1.douguo.com\/upload\/caiku\/5\/d\/6\/5d2e66090cbf3cedc9f3d620d20d87f6.jpeg",
          "frame" : "-1"
        },
        {
          "image" : "https:\/\/i1.douguo.com\/upload\/caiku\/e\/b\/1\/ebdcca1df518bc2d86ed18f935a18e71.jpeg",
          "image_height" : 600,
          "thumb" : "https:\/\/i1.douguo.com\/upload\/caiku\/e\/b\/1\/140_ebdcca1df518bc2d86ed18f935a18e71.jpeg",
          "frame" : "-1",
          "content" : "锅中倒入适量的食用油烧热",
          "image_width" : 800,
          "position" : 7
        },
        {
          "position" : 8,
          "image" : "https:\/\/i1.douguo.com\/upload\/caiku\/2\/a\/3\/2af3d4cc70342d509f49f08425193b33.jpeg",
          "frame" : "-1",
          "image_height" : 600,
          "image_width" : 800,
          "content" : "放入冰糖",
          "thumb" : "https:\/\/i1.douguo.com\/upload\/caiku\/2\/a\/3\/140_2af3d4cc70342d509f49f08425193b33.jpeg"
        },
        {
          "content" : "小火炒至冰糖融化变成焦黄色",
          "image_height" : 600,
          "position" : 9,
          "image_width" : 800,
          "image" : "https:\/\/i1.douguo.com\/upload\/caiku\/c\/0\/7\/c059b234df83aa80065e46b27e63bdd7.jpeg",
          "thumb" : "https:\/\/i1.douguo.com\/upload\/caiku\/c\/0\/7\/140_c059b234df83aa80065e46b27e63bdd7.jpeg",
          "frame" : "-1"
        },
        {
          "position" : 10,
          "content" : "放入猪蹄",
          "image_width" : 1920,
          "image_height" : 1440,
          "thumb" : "https:\/\/i1.douguo.com\/upload\/caiku\/f\/9\/c\/140_f9483f360d1d50ef7a33bcdbd871beec.jpeg",
          "image" : "https:\/\/i1.douguo.com\/upload\/caiku\/f\/9\/c\/f9483f360d1d50ef7a33bcdbd871beec.jpeg",
          "frame" : "-1"
        },
        {
          "image" : "https:\/\/i1.douguo.com\/upload\/caiku\/7\/3\/3\/73249b750d49c3c9713de49f2015d183.jpeg",
          "thumb" : "https:\/\/i1.douguo.com\/upload\/caiku\/7\/3\/3\/140_73249b750d49c3c9713de49f2015d183.jpeg",
          "frame" : "-1",
          "image_width" : 800,
          "position" : 11,
          "image_height" : 600,
          "content" : "翻炒至上糖色"
        },
        {
          "image_width" : 800,
          "thumb" : "https:\/\/i1.douguo.com\/upload\/caiku\/5\/1\/2\/140_510fe30a4d0f54ee8d086de742b6c2a2.jpeg",
          "content" : "放入葱姜蒜爆香",
          "image" : "https:\/\/i1.douguo.com\/upload\/caiku\/5\/1\/2\/510fe30a4d0f54ee8d086de742b6c2a2.jpeg",
          "frame" : "-1",
          "position" : 12,
          "image_height" : 600
        },
        {
          "image" : "https:\/\/i1.douguo.com\/upload\/caiku\/a\/5\/4\/a5796a2d6ed2ff39ce470c4aadf60a94.jpeg",
          "content" : "放入花椒、八角、桂皮、香叶、干红辣椒，翻炒均匀",
          "thumb" : "https:\/\/i1.douguo.com\/upload\/caiku\/a\/5\/4\/140_a5796a2d6ed2ff39ce470c4aadf60a94.jpeg",
          "position" : 13,
          "image_width" : 800,
          "frame" : "-1",
          "image_height" : 600
        },
        {
          "content" : "加入料酒",
          "image" : "https:\/\/i1.douguo.com\/upload\/caiku\/9\/2\/c\/92ee69b465aa827e813ea95aa51d191c.jpeg",
          "position" : 14,
          "frame" : "-1",
          "image_width" : 800,
          "image_height" : 600,
          "thumb" : "https:\/\/i1.douguo.com\/upload\/caiku\/9\/2\/c\/140_92ee69b465aa827e813ea95aa51d191c.jpeg"
        },
        {
          "frame" : "-1",
          "image" : "https:\/\/i1.douguo.com\/upload\/caiku\/c\/f\/e\/cf3690057811868f40e659f0b3430cde.jpeg",
          "image_height" : 600,
          "image_width" : 800,
          "thumb" : "https:\/\/i1.douguo.com\/upload\/caiku\/c\/f\/e\/140_cf3690057811868f40e659f0b3430cde.jpeg",
          "content" : "加入老抽",
          "position" : 15
        },
        {
          "image" : "https:\/\/i1.douguo.com\/upload\/caiku\/8\/4\/6\/84f31aa91f479eb726cb6e5c1c730a86.jpeg",
          "image_width" : 800,
          "frame" : "-1",
          "position" : 16,
          "image_height" : 600,
          "thumb" : "https:\/\/i1.douguo.com\/upload\/caiku\/8\/4\/6\/140_84f31aa91f479eb726cb6e5c1c730a86.jpeg",
          "content" : "加入生抽，翻炒至上色"
        },
        {
          "frame" : "-1",
          "content" : "加入适量的清水",
          "image" : "https:\/\/i1.douguo.com\/upload\/caiku\/8\/1\/e\/8170eef2bf3c50d0bd11b62c49dd821e.jpeg",
          "thumb" : "https:\/\/i1.douguo.com\/upload\/caiku\/8\/1\/e\/140_8170eef2bf3c50d0bd11b62c49dd821e.jpeg",
          "image_width" : 800,
          "position" : 17,
          "image_height" : 600
        },
        {
          "image_height" : 600,
          "position" : 18,
          "content" : "大火烧开",
          "image" : "https:\/\/i1.douguo.com\/upload\/caiku\/e\/d\/0\/edda6176a1f306faf766caf879233b30.jpeg",
          "thumb" : "https:\/\/i1.douguo.com\/upload\/caiku\/e\/d\/0\/140_edda6176a1f306faf766caf879233b30.jpeg",
          "image_width" : 800,
          "frame" : "-1"
        },
        {
          "image_height" : 1440,
          "position" : 19,
          "image_width" : 1920,
          "content" : "转中小火炖煮一小时",
          "frame" : "-1",
          "image" : "https:\/\/i1.douguo.com\/upload\/caiku\/1\/7\/e\/17f7863a3532280930248d3493571dfe.jpeg",
          "thumb" : "https:\/\/i1.douguo.com\/upload\/caiku\/1\/7\/e\/140_17f7863a3532280930248d3493571dfe.jpeg"
        },
        {
          "image_width" : 1920,
          "frame" : "-1",
          "thumb" : "https:\/\/i1.douguo.com\/upload\/caiku\/4\/c\/9\/140_4ceb3463837198c61552b33ff7f8bc99.jpeg",
          "content" : "炖至汤汁浓稠猪蹄软糯时加入鸡精",
          "image_height" : 1440,
          "position" : 20,
          "image" : "https:\/\/i1.douguo.com\/upload\/caiku\/4\/c\/9\/4ceb3463837198c61552b33ff7f8bc99.jpeg"
        },
        {
          "thumb" : "https:\/\/i1.douguo.com\/upload\/caiku\/9\/d\/1\/140_9d89708a3c4947c48706d95d70f3e461.jpeg",
          "position" : 21,
          "frame" : "-1",
          "content" : "加入盐",
          "image_height" : 600,
          "image_width" : 800,
          "image" : "https:\/\/i1.douguo.com\/upload\/caiku\/9\/d\/1\/9d89708a3c4947c48706d95d70f3e461.jpeg"
        },
        {
          "thumb" : "https:\/\/i1.douguo.com\/upload\/caiku\/1\/e\/f\/140_1e235eb7336729eb42504fa7efd929ef.jpeg",
          "image_width" : 800,
          "content" : "转大火收汁即可",
          "image" : "https:\/\/i1.douguo.com\/upload\/caiku\/1\/e\/f\/1e235eb7336729eb42504fa7efd929ef.jpeg",
          "frame" : "-1",
          "image_height" : 600,
          "position" : 22
        },
        {
          "image_width" : 1620,
          "image" : "https:\/\/i1.douguo.com\/upload\/caiku\/6\/2\/0\/62d8fa5b2c484da2d86a9a7a5b7ccc50.jpeg",
          "position" : 23,
          "content" : "成品图",
          "thumb" : "https:\/\/i1.douguo.com\/upload\/caiku\/6\/2\/0\/140_62d8fa5b2c484da2d86a9a7a5b7ccc50.jpeg",
          "frame" : "-1",
          "image_height" : 1080
        }
      ],
      "mid_mdsp" : [

      ],
      "author" : "茹絮",
      "cookwares" : [

      ],
      "display_ingredient" : 1,
      "related_ads" : [

      ],
      "views_count_text" : "2619.4万",
      "tags" : [

      ],
      "v_u" : "",
      "ipia" : [

      ],
      "rate_count" : 105,
      "rpst" : "",
      "ssu" : "",
      "title_ad" : [

      ],
      "comments_count_text" : "71",
      "cookstory" : "红烧猪蹄是一道传统的汉族名菜，属于川菜，湘菜或者粤菜。本菜是以猪蹄为主要食材的家常菜，味道可口，营养价值丰富，具有美容养颜的功效。",
      "tips" : "",
      "sr" : "",
      "hq" : 1,
      "rpid" : 0,
      "rrps" : [

      ],
      "minor" : [

      ],
      "cook_time" : "",
      "bs" : [

      ],
      "image" : "http:\/\/i1.douguo.net\/upload\/caiku\/2\/0\/e\/300_207d62a60a5d49ce3862d349ef8bc47e.jpeg",
      "ipci" : "",
      "author_verified" : 1,
      "rcs" : [

      ],
      "top_mdsp" : [

      ],
      "ipit" : 0,
      "rrpt" : "",
      "rewarded_video_dsp" : [

      ],
      "author_id" : 7815869,
      "brand_day_dsp" : [

      ],
      "rate_show" : 1,
      "recent_comments" : [

      ],
      "recipe_list_tags" : [
        {
          "jump_url" : "",
          "background_end_color" : "#F5D39F",
          "background_border_color" : "",
          "text" : "荣誉殿堂",
          "background_start_color" : "#FAE9CD",
          "text_color" : "#413C32",
          "right_image" : "https:\/\/i1.douguo.com\/upload\/caiku\/0\/a\/b\/0a317d98c713e7e7d0d47ed003f2d93b.png"
        },
        {
          "text_color" : "#141515",
          "text" : "关注的人",
          "right_image" : "",
          "background_start_color" : "#F4F5F5",
          "jump_url" : "",
          "background_border_color" : "",
          "background_end_color" : "#F4F5F5"
        }
      ],
      "recommended" : 0,
      "ecs" : 0,
      "ipt" : "",
      "release_time" : "",
      "ph" : 1080,
      "original_photo_path" : "http:\/\/i1.douguo.net\/upload\/caiku\/2\/0\/e\/yuan_207d62a60a5d49ce3862d349ef8bc47e.jpeg",
      "cook_difficulty" : "",
      "btm_dsp" : [

      ]
    }
  },
  "state" : "success"
}