{
  "status" : 0,
  "result" : {
    "recipe" : {
      "ecs" : 1,
      "cook_difficulty_image" : "https:\/\/i1.douguo.com\/upload\/banner\/1551424390.png",
      "old_comments" : [

      ],
      "story_dsp" : [

      ],
      "ph" : 600,
      "eu" : "recipes:\/\/www.douguo.com\/postdetail?id=242016",
      "sr" : "",
      "minor" : [

      ],
      "mid_mdsp" : [

      ],
      "rrpt" : "",
      "thumb_path" : "https:\/\/i1.douguo.com\/upload\/caiku\/d\/c\/3\/300_dc8e0a828355e93e9d48bcae85764b33.jpg",
      "favo_counts_text" : "6542",
      "comments_count" : 17,
      "rate" : 5,
      "tips" : "切菜的同时就可上蒸锅先烧开水，节省时间\n豆豉切碎更好入味。\n生抽是出锅后调味用，具体可以尝下咸淡决定\n如果豆豉用的多，够味了就不需再加生抽。\n出锅后还可以烧热油淋上，我为了不摄入过多油，就省略了。",
      "vfurl" : "",
      "share_info" : {
        "infos" : [
          {
            "qr_image" : "",
            "mini_program" : [

            ],
            "s_u" : "",
            "s_d" : "#学做饭用豆果美食# 会做饭真是好酷啊！我在@豆果美食 分享了【#花10分钟，做一道菜！#夏日当家菜，豉香蒜蓉蒸丝瓜-会做饭很酷!】，快来康康我这道菜做的怎么样～美味停不下来！查看图片了解菜谱（你喜欢的美食都在这里！https:\/\/m.weibo.cn\/p\/100404i33631）",
            "object_id" : "2310745",
            "channel" : "1",
            "image" : "https:\/\/cp1.douguo.com\/upload\/caiku\/d\/c\/3\/dc8e0a828355e93e9d48bcae85764b33.jpg",
            "name" : "#花10分钟，做一道菜！#夏日当家菜，豉香蒜蓉蒸丝瓜-会做饭很酷!"
          },
          {
            "name" : "#花10分钟，做一道菜！#夏日当家菜，豉香蒜蓉蒸丝瓜-会做饭很酷!",
            "channel" : "7",
            "image" : "https:\/\/cp1.douguo.com\/upload\/caiku\/d\/c\/3\/dc8e0a828355e93e9d48bcae85764b33.jpg",
            "mini_program" : [

            ],
            "object_id" : "2310745",
            "s_u" : "http:\/\/m.douguo.com\/cookbook\/2310745.html",
            "s_d" : "#花10分钟，做一道菜！#夏日当家菜，豉香蒜蓉蒸丝瓜-会做饭很酷!",
            "qr_image" : ""
          },
          {
            "channel" : "8",
            "image" : "https:\/\/cp1.douguo.com\/upload\/caiku\/d\/c\/3\/dc8e0a828355e93e9d48bcae85764b33.jpg",
            "mini_program" : [

            ],
            "name" : "#花10分钟，做一道菜！#夏日当家菜，豉香蒜蓉蒸丝瓜-会做饭很酷!",
            "s_u" : "http:\/\/m.douguo.com\/cookbook\/2310745.html",
            "qr_image" : "",
            "object_id" : "2310745",
            "s_d" : "#花10分钟，做一道菜！#夏日当家菜，豉香蒜蓉蒸丝瓜-会做饭很酷!"
          }
        ],
        "s_u" : "http:\/\/m.douguo.com\/cookbook\/2310745.html",
        "image" : "https:\/\/cp1.douguo.com\/upload\/caiku\/d\/c\/3\/dc8e0a828355e93e9d48bcae85764b33.jpg",
        "object_id" : "2310745",
        "mini_program" : [

        ],
        "name" : "#花10分钟，做一道菜！#夏日当家菜，豉香蒜蓉蒸丝瓜-会做饭很酷!",
        "s_d" : "#花10分钟，做一道菜！#夏日当家菜，豉香蒜蓉蒸丝瓜-会做饭很酷!",
        "qr_image" : ""
      },
      "vu" : "",
      "image" : "http:\/\/i1.douguo.net\/upload\/caiku\/d\/c\/3\/300_dc8e0a828355e93e9d48bcae85764b33.jpg",
      "ipit" : 0,
      "recommended" : 0,
      "cook_difficulty" : "切墩(初级)",
      "top_mdsp" : [

      ],
      "recipe_tags" : [

      ],
      "cook_id" : "2310745",
      "cookwares" : [

      ],
      "rsm" : "该功能暂停使用",
      "advice" : {
        "has" : [
          {
            "url" : "recipes:\/\/www.douguo.com\/simplerecipelist?t=低热量&id=低热量",
            "t" : "低热量"
          },
          {
            "url" : "recipes:\/\/www.douguo.com\/simplerecipelist?t=低脂&id=低脂",
            "t" : "低脂"
          }
        ],
        "da" : {
          "url" : "https:\/\/m.douguo.com\/recipe\/nutrient_self\/2310745",
          "t" : "查看详细分析",
          "iu" : "https:\/\/i1.douguo.com\/upload\/banner\/f\/4\/d\/f48877e53c37759bc12ac494be82ec8d.png"
        },
        "at" : "能有效控制体重～"
      },
      "title" : "夏日当家菜，豉香蒜蓉蒸丝瓜",
      "rpid" : 0,
      "major" : [
        {
          "title" : "丝瓜",
          "note" : "300克",
          "tu" : "https:\/\/m.douguo.com\/ingredients\/丝瓜\/detailmaterial"
        },
        {
          "note" : "5克",
          "title" : "豆豉"
        },
        {
          "tu" : "https:\/\/m.douguo.com\/ingredients\/蒜头\/detailmaterial",
          "title" : "蒜头",
          "note" : "5瓣"
        },
        {
          "note" : "点缀",
          "title" : "辣椒",
          "tu" : "https:\/\/m.douguo.com\/ingredients\/辣椒\/detailmaterial"
        },
        {
          "tu" : "https:\/\/m.douguo.com\/ingredients\/生抽\/detailmaterial",
          "note" : "适量",
          "title" : "生抽"
        }
      ],
      "dish_count" : 3,
      "author_id" : 4241233,
      "comments" : [
        "{\n    ac = \"#999999\";\n    at = \"\";\n    ccc = 0;\n    \"child_comments\" =     (\n    );\n    city = \"\";\n    cmc = 2;\n    content =     (\n                {\n            c = \"\\U5927\\U5e08\\U7ea7\\U7684\\U5236\\U4f5c\\U5440~\";\n        }\n    );\n    ia = 0;\n    id = 7347772;\n    \"ip_address_location\" = \"\";\n    like = 0;\n    \"like_count\" = 0;\n    \"reply_id\" = 0;\n    \"sticker_icon\" =     (\n    );\n    time = \"2019-11-22 12:36:47\";\n    u =     {\n        \"followers_count_text\" = \"\";\n        id = 18539419;\n        \"is_prime\" = 0;\n        lv = 0;\n        lvl = 6;\n        n = \"\\U4e10\\U5e2e\\U5e2e\\U4e3b\\U82b1\\U82b1\\U82b1\\U513f\";\n        p = \"http:\/\/tx1.douguo.net\/upload\/photo\/d\/c\/3\/70_u85194481900518154844.jpg\";\n        \"progress_image\" = \"\";\n        \"recipes_count_text\" = \"\";\n        relationship = \"-1\";\n        title = \"\";\n        v = 0;\n        \"verified_image\" = \"\";\n    };\n}",
        "{\n    ac = \"#999999\";\n    at = \"\";\n    ccc = 0;\n    \"child_comments\" =     (\n    );\n    city = \"\";\n    cmc = 2;\n    content =     (\n                {\n            c = \"\\U597d\\U5403\\U6b7b\\U4e86\\Uff01\";\n        }\n    );\n    ia = 0;\n    id = 7347751;\n    \"ip_address_location\" = \"\";\n    like = 0;\n    \"like_count\" = 0;\n    \"reply_id\" = 0;\n    \"sticker_icon\" =     (\n    );\n    time = \"2019-11-22 12:31:09\";\n    u =     {\n        \"followers_count_text\" = \"\";\n        id = 23598288;\n        \"is_prime\" = 0;\n        lv = 0;\n        lvl = 2;\n        n = \"V\\U795ecbva\";\n        p = \"http:\/\/tx1.douguo.net\/upload\/photo\/d\/c\/e\/70_u6059626587370329220703.jpg\";\n        \"progress_image\" = \"\";\n        \"recipes_count_text\" = \"\";\n        relationship = \"-1\";\n        title = \"\";\n        v = 0;\n        \"verified_image\" = \"\";\n    };\n}",
        "{\n    ac = \"#999999\";\n    at = \"\";\n    ccc = 0;\n    \"child_comments\" =     (\n    );\n    city = \"\";\n    cmc = 2;\n    content =     (\n                {\n            c = \"\\U60f3\\U60f3\\U5c31\\U597d\\U5403\\Uff0c\\U6211\\U8981\\U53bb\\U8bd5\\U8bd5\";\n        }\n    );\n    ia = 0;\n    id = 7347471;\n    \"ip_address_location\" = \"\";\n    like = 0;\n    \"like_count\" = 0;\n    \"reply_id\" = 0;\n    \"sticker_icon\" =     (\n    );\n    time = \"2019-11-22 11:47:08\";\n    u =     {\n        \"followers_count_text\" = \"\";\n        id = 23632469;\n        \"is_prime\" = 0;\n        lv = 0;\n        lvl = 4;\n        n = C3707L;\n        p = \"http:\/\/tx1.douguo.net\/upload\/photo\/3\/8\/e\/70_u9462931800140330020840.jpg\";\n        \"progress_image\" = \"\";\n        \"recipes_count_text\" = \"\";\n        relationship = \"-1\";\n        title = \"\";\n        v = 0;\n        \"verified_image\" = \"\";\n    };\n}"
      ],
      "cookstory" : "\n        在我们这都知道丝瓜清热解毒，有是夏季当家菜，大部分人都会在院子里菜园里种几棵丝瓜。煮汤吃最喜欢，有时就炒着吃，蒸着吃却很少，在外边饭店吃的时候，吃到蒜蓉粉丝蒸丝瓜，觉得很赞，所以我也会换着用蒸的做法。不搭配粉丝，单独蒸丝瓜，配米饭也很下饭哦！搭配一点点豆豉很香。\n\n        天气这么热，下厨就是一身汗，最喜欢做蒸菜，不用时时站在锅边，开火定时就可以走开了，这道丝瓜，蒸五六分钟就可以了。\n\n         丝瓜的营养价值很高，含有蛋白质、脂肪、碳水化合物、钙、磷、铁及各类维生素，还有皂甙、植物粘液、木糖胶、丝瓜苦味质、瓜氨酸等营养物质。\n\n丝瓜味甘、性凉，入肝、胃经，有清暑凉血、解毒通便、祛风化痰的功效。\n\n抗病毒、抗过敏：在丝瓜组织培养液中还提取到一种具抗过敏性物质泻根醇酸，其有很强的抗过敏作用。\n\n丝瓜营养丰富，具有很好的美容功效，还能增强人体抵抗力，一般人群均可食用，孕妇、产妇、哺乳期妈妈和宝宝都可以吃丝瓜。需要注意的是，体虚内寒、腹泻者不宜多食丝瓜，因为丝瓜性寒，进食过多可能会加重体虚现象，导致腹泻加重，还会引发一些胃肠道问题。\n\n\n\n\n ",
      "release_time" : "",
      "ipoi" : "",
      "ss" : [

      ],
      "author_photo" : "http:\/\/tx1.douguo.net\/upload\/photo\/d\/b\/2\/70_u97393648858568214102.jpg",
      "sc" : 0,
      "clicks" : "363412",
      "comments_count_text" : "17",
      "act_des" : "",
      "rdsps" : [

      ],
      "vc" : "373349",
      "recent_comments" : [

      ],
      "thumb_height" : 0,
      "cookstorys" : [
        {
          "c" : "\n        在我们这都知道丝瓜清热解毒，有是夏季当家菜，大部分人都会在院子里菜园里种几棵丝瓜。煮汤吃最喜欢，有时就炒着吃，蒸着吃却很少，在外边饭店吃的时候，吃到蒜蓉粉丝蒸丝瓜，觉得很赞，所以我也会换着用蒸的做法。不搭配粉丝，单独蒸丝瓜，配米饭也很下饭哦！搭配一点点豆豉很香。\n\n        天气这么热，下厨就是一身汗，最喜欢做蒸菜，不用时时站在锅边，开火定时就可以走开了，这道丝瓜，蒸五六分钟就可以了。\n\n         丝瓜的营养价值很高，含有蛋白质、脂肪、碳水化合物、钙、磷、铁及各类维生素，还有皂甙、植物粘液、木糖胶、丝瓜苦味质、瓜氨酸等营养物质。\n\n丝瓜味甘、性凉，入肝、胃经，有清暑凉血、解毒通便、祛风化痰的功效。\n\n抗病毒、抗过敏：在丝瓜组织培养液中还提取到一种具抗过敏性物质泻根醇酸，其有很强的抗过敏作用。\n\n丝瓜营养丰富，具有很好的美容功效，还能增强人体抵抗力，一般人群均可食用，孕妇、产妇、哺乳期妈妈和宝宝都可以吃丝瓜。需要注意的是，体虚内寒、腹泻者不宜多食丝瓜，因为丝瓜性寒，进食过多可能会加重体虚现象，导致腹泻加重，还会引发一些胃肠道问题。\n\n\n\n\n ",
          "icon" : "",
          "type" : 0,
          "id" : 0,
          "color" : "",
          "u" : ""
        }
      ],
      "user" : {
        "weibo_nick" : "",
        "sign" : "",
        "nick" : "铃然",
        "qzone_nick" : "",
        "mobile" : "",
        "gender" : 2,
        "lvl" : 4,
        "regist_time" : "",
        "following_count" : 0,
        "verified_image" : "https:\/\/i1.douguo.com\/upload\/note\/d\/a\/a\/da84247847aebe48d9dd0fcdac88862a.png",
        "point" : 0,
        "pc" : 0,
        "dishes_count" : 0,
        "age" : "",
        "verified" : 1,
        "coursecount" : 0,
        "birthday" : "",
        "subscription_article_count" : 0,
        "email" : "",
        "setted_email" : 0,
        "is_prime" : 0,
        "verified_url" : "https:\/\/m.douguo.com\/user\/prodesc",
        "avatar_medium" : "http:\/\/tx1.douguo.net\/upload\/photo\/d\/b\/2\/140_u97393648858568214102.jpg",
        "user_cover" : "",
        "user_id" : "4241233",
        "fc" : 0,
        "lv" : 0,
        "favor_diaries_count" : 0,
        "qq_weibo_nick" : "",
        "userid" : "4241233",
        "favorites_count" : 0,
        "user_photo" : "http:\/\/tx1.douguo.net\/upload\/photo\/d\/b\/2\/70_u97393648858568214102.jpg",
        "diaries_count" : 0,
        "subscription" : 0,
        "recipes_count" : 0,
        "location" : 0,
        "introduction" : "",
        "user_large_photo" : "http:\/\/tx1.douguo.net\/upload\/photo\/d\/b\/2\/yuan_u97393648858568214102.jpg",
        "followers_count" : 0,
        "progress_image" : ""
      },
      "favo_counts" : 6542,
      "author" : "铃然",
      "rips" : 0,
      "levelid" : 2,
      "dish_count_text" : "3",
      "ipia" : [

      ],
      "tags" : [

      ],
      "brand_day_dsp" : [

      ],
      "event" : {
        "id" : 0
      },
      "photo_path" : "https:\/\/i1.douguo.com\/upload\/caiku\/d\/c\/3\/600_dc8e0a828355e93e9d48bcae85764b33.jpg",
      "guide_image" : "",
      "recommend_label" : "3人学做",
      "bs" : [

      ],
      "purl" : "",
      "rewarded_video_dsp" : [

      ],
      "display_ingredient" : 1,
      "rpt" : "",
      "hq" : 1,
      "v_u" : "",
      "cook_time" : "10分钟左右",
      "rate_count" : 3,
      "pw" : 800,
      "collect_status" : 0,
      "cook_time_image" : "https:\/\/i1.douguo.com\/upload\/banner\/1551424358.png",
      "ipci" : "",
      "ssu" : "",
      "su" : "",
      "first_level_comment_count" : 17,
      "cookstep" : [
        {
          "image" : "https:\/\/i1.douguo.com\/upload\/caiku\/a\/9\/b\/a9ea23d4ae39d2a211892c1829b22fcb.jpg",
          "thumb" : "https:\/\/i1.douguo.com\/upload\/caiku\/a\/9\/b\/140_a9ea23d4ae39d2a211892c1829b22fcb.jpg",
          "image_width" : 1280,
          "position" : 1,
          "frame" : "-1",
          "content" : "婆婆种的丝瓜，新鲜美味。",
          "image_height" : 960
        },
        {
          "image_height" : 960,
          "frame" : "-1",
          "image" : "https:\/\/i1.douguo.com\/upload\/caiku\/d\/2\/f\/d2b56703f4305ec25e008891acdfb8ff.jpg",
          "content" : "丝瓜去皮切片备用，每片上可以划两道，方便入味",
          "image_width" : 1280,
          "position" : 2,
          "thumb" : "https:\/\/i1.douguo.com\/upload\/caiku\/d\/2\/f\/140_d2b56703f4305ec25e008891acdfb8ff.jpg"
        },
        {
          "frame" : "-1",
          "image_height" : 600,
          "image_width" : 800,
          "content" : "码入盘中",
          "thumb" : "https:\/\/i1.douguo.com\/upload\/caiku\/b\/5\/4\/140_b556b30fc7962306c29ec7e15d320c34.jpg",
          "position" : 3,
          "image" : "https:\/\/i1.douguo.com\/upload\/caiku\/b\/5\/4\/b556b30fc7962306c29ec7e15d320c34.jpg"
        },
        {
          "thumb" : "https:\/\/i1.douguo.com\/upload\/caiku\/2\/2\/b\/140_22b10375c0a61bf68829a7f39c6e73cb.jpg",
          "position" : 4,
          "frame" : "-1",
          "image_height" : 600,
          "content" : "豆豉切碎备用，蒜拍碎切碎，辣椒点缀用，喜欢辣味就一同下锅",
          "image" : "https:\/\/i1.douguo.com\/upload\/caiku\/2\/2\/b\/22b10375c0a61bf68829a7f39c6e73cb.jpg",
          "image_width" : 800
        },
        {
          "image_width" : 800,
          "frame" : "-1",
          "content" : "其中蒜取一半用油煸酥。这样更香，而生的蒜蓉味道更浓，所以生熟搭配。",
          "thumb" : "https:\/\/i1.douguo.com\/upload\/caiku\/f\/1\/0\/140_f102020bb08de9577312d58b61699780.jpg",
          "image" : "https:\/\/i1.douguo.com\/upload\/caiku\/f\/1\/0\/f102020bb08de9577312d58b61699780.jpg",
          "position" : 5,
          "image_height" : 600
        },
        {
          "content" : "铺上豆豉蒜蓉，开火蒸",
          "frame" : "-1",
          "thumb" : "https:\/\/i1.douguo.com\/upload\/caiku\/c\/c\/4\/140_cc61fb4c92890d44187e48f351f61ff4.jpg",
          "image" : "https:\/\/i1.douguo.com\/upload\/caiku\/c\/c\/4\/cc61fb4c92890d44187e48f351f61ff4.jpg",
          "image_height" : 600,
          "image_width" : 800,
          "position" : 6
        },
        {
          "image" : "https:\/\/i1.douguo.com\/upload\/caiku\/8\/3\/2\/83d5adc0290f0b487fe226e21cf4fe22.jpg",
          "frame" : "-1",
          "image_height" : 600,
          "image_width" : 800,
          "content" : "水开后蒸五六分钟即可，所以在切食材时就可以准备烧水了，这样节省时间哦，十分钟内做好这道菜一点都不难！",
          "thumb" : "https:\/\/i1.douguo.com\/upload\/caiku\/8\/3\/2\/140_83d5adc0290f0b487fe226e21cf4fe22.jpg",
          "position" : 7
        },
        {
          "thumb" : "https:\/\/i1.douguo.com\/upload\/caiku\/3\/4\/d\/140_3440ebcd796cba6c2f3512d6059dd2cd.jpg",
          "position" : 8,
          "image" : "https:\/\/i1.douguo.com\/upload\/caiku\/3\/4\/d\/3440ebcd796cba6c2f3512d6059dd2cd.jpg",
          "image_width" : 800,
          "frame" : "-1",
          "image_height" : 600,
          "content" : "出锅点缀红椒，淋一点生抽提味。"
        }
      ],
      "related_ads" : [

      ],
      "btm_dsp" : [

      ],
      "author_verified" : 1,
      "dishes" : [

      ],
      "recommendation_tag" : "",
      "hqu" : "recipes:\/\/www.douguo.com\/notedetail?id=21162253",
      "views_count_text" : "37.3万",
      "rrps" : [

      ],
      "packages_id" : [

      ],
      "rcs" : [

      ],
      "rate_show" : 0,
      "create_time" : "2019-06-23 07:53:59",
      "original_photo_path" : "http:\/\/i1.douguo.net\/upload\/caiku\/d\/c\/3\/yuan_dc8e0a828355e93e9d48bcae85764b33.jpg",
      "ipurl" : "",
      "title_ad" : [

      ],
      "recipe_list_tags" : [
        {
          "right_image" : "",
          "text_color" : "#141515",
          "jump_url" : "",
          "background_border_color" : "",
          "text" : "关注的人",
          "background_end_color" : "#F4F5F5",
          "background_start_color" : "#F4F5F5"
        },
        {
          "text_color" : "#141515",
          "background_border_color" : "",
          "background_start_color" : "#F4F5F5",
          "jump_url" : "",
          "background_end_color" : "#F4F5F5",
          "right_image" : "",
          "text" : "内容详细"
        }
      ],
      "rpst" : "",
      "notes" : [

      ],
      "ipt" : ""
    }
  },
  "state" : "success"
}