{
  "state" : "success",
  "status" : 0,
  "result" : {
    "recipe" : {
      "vfurl" : "",
      "image" : "http:\/\/i1.douguo.net\/upload\/caiku\/e\/4\/3\/300_e4871e0b8400f34fdd11d5a68e41b373.jpg",
      "views_count_text" : "13.0万",
      "vu" : "",
      "vc" : "129583",
      "purl" : "",
      "su" : "",
      "sr" : "",
      "minor" : [

      ],
      "eu" : "recipes:\/\/www.douguo.com\/postdetail?id=242016",
      "story_dsp" : [

      ],
      "share_info" : {
        "qr_image" : "",
        "infos" : [
          {
            "object_id" : "3012877",
            "image" : "https:\/\/cp1.douguo.com\/upload\/caiku\/e\/4\/3\/e4871e0b8400f34fdd11d5a68e41b373.jpg",
            "s_d" : "#学做饭用豆果美食# 我在@豆果美食 分享了【预热感恩节：奥尔良烤鸡-会做饭很酷!】，哟，集美们～你看这是神仙美味～快跟着我做一份，做一份！查看图片了解菜谱（更多美食秘籍点击https:\/\/m.weibo.cn\/p\/100404i33631获取）#会做饭很酷# ",
            "mini_program" : [

            ],
            "name" : "预热感恩节：奥尔良烤鸡-会做饭很酷!",
            "qr_image" : "",
            "channel" : "1",
            "s_u" : ""
          },
          {
            "qr_image" : "",
            "channel" : "7",
            "object_id" : "3012877",
            "s_d" : "预热感恩节：奥尔良烤鸡-会做饭很酷!",
            "name" : "预热感恩节：奥尔良烤鸡-会做饭很酷!",
            "s_u" : "http:\/\/m.douguo.com\/cookbook\/3012877.html",
            "mini_program" : [

            ],
            "image" : "https:\/\/cp1.douguo.com\/upload\/caiku\/e\/4\/3\/e4871e0b8400f34fdd11d5a68e41b373.jpg"
          },
          {
            "object_id" : "3012877",
            "channel" : "8",
            "mini_program" : [

            ],
            "name" : "预热感恩节：奥尔良烤鸡-会做饭很酷!",
            "qr_image" : "",
            "s_u" : "http:\/\/m.douguo.com\/cookbook\/3012877.html",
            "s_d" : "预热感恩节：奥尔良烤鸡-会做饭很酷!",
            "image" : "https:\/\/cp1.douguo.com\/upload\/caiku\/e\/4\/3\/e4871e0b8400f34fdd11d5a68e41b373.jpg"
          }
        ],
        "mini_program" : [

        ],
        "image" : "https:\/\/cp1.douguo.com\/upload\/caiku\/e\/4\/3\/e4871e0b8400f34fdd11d5a68e41b373.jpg",
        "name" : "预热感恩节：奥尔良烤鸡-会做饭很酷!",
        "object_id" : "3012877",
        "s_u" : "http:\/\/m.douguo.com\/cookbook\/3012877.html",
        "s_d" : "预热感恩节：奥尔良烤鸡-会做饭很酷!"
      },
      "author" : "NANA的美食工坊",
      "cook_difficulty" : "切墩(初级)",
      "clicks" : "126623",
      "favo_counts_text" : "712",
      "comments_count" : 3,
      "original_photo_path" : "http:\/\/i1.douguo.net\/upload\/caiku\/e\/4\/3\/yuan_e4871e0b8400f34fdd11d5a68e41b373.jpg",
      "ipt" : "",
      "user" : {
        "dishes_count" : 0,
        "favor_diaries_count" : 0,
        "is_prime" : 0,
        "lvl" : 6,
        "fc" : 0,
        "setted_email" : 0,
        "verified_image" : "https:\/\/i1.douguo.com\/upload\/note\/d\/a\/a\/da84247847aebe48d9dd0fcdac88862a.png",
        "followers_count" : 0,
        "email" : "",
        "recipes_count" : 0,
        "qq_weibo_nick" : "",
        "progress_image" : "",
        "pc" : 0,
        "regist_time" : "",
        "introduction" : "",
        "avatar_medium" : "http:\/\/tx1.douguo.net\/upload\/photo\/6\/6\/c\/140_66cb8152c14841e0b72a7defd94eef3c.jpg",
        "verified_url" : "https:\/\/m.douguo.com\/user\/prodesc",
        "birthday" : "",
        "mobile" : "",
        "gender" : 2,
        "following_count" : 0,
        "point" : 0,
        "verified" : 1,
        "userid" : "19282352",
        "nick" : "NANA的美食工坊",
        "qzone_nick" : "",
        "coursecount" : 0,
        "user_photo" : "http:\/\/tx1.douguo.net\/upload\/photo\/6\/6\/c\/70_66cb8152c14841e0b72a7defd94eef3c.jpg",
        "user_cover" : "",
        "location" : 0,
        "sign" : "",
        "age" : "",
        "subscription_article_count" : 0,
        "user_large_photo" : "http:\/\/tx1.douguo.net\/upload\/photo\/6\/6\/c\/yuan_66cb8152c14841e0b72a7defd94eef3c.jpg",
        "weibo_nick" : "",
        "lv" : 0,
        "user_id" : "19282352",
        "diaries_count" : 0,
        "subscription" : 0,
        "favorites_count" : 0
      },
      "advice" : {
        "da" : {
          "url" : "https:\/\/m.douguo.com\/recipe\/nutrient_self\/3012877",
          "t" : "查看详细分析",
          "iu" : "https:\/\/i1.douguo.com\/upload\/banner\/f\/4\/d\/f48877e53c37759bc12ac494be82ec8d.png"
        },
        "has" : [
          {
            "t" : "富含蛋白质",
            "url" : "recipes:\/\/www.douguo.com\/simplerecipelist?t=富含蛋白质&id=富含蛋白质"
          },
          {
            "url" : "recipes:\/\/www.douguo.com\/simplerecipelist?t=低糖&id=低糖",
            "t" : "低糖"
          }
        ],
        "at" : "有助于组织的形成和生长～"
      },
      "rpst" : "",
      "cookstorys" : [
        {
          "id" : 0,
          "c" : "很快就是感恩节了，想必大家一下子在脑子里闪现出来的就是那硕大的感恩节火鸡吧？但是国内火鸡不好买，而且也太大了一般家庭吃不了。所以我就打算换个做法来个简单又应景的奥尔良烤鸡~\r\n\r\n说到奥尔良风味的食物，自从多年前在某品牌洋快餐连锁店推出之后就一下子火爆了起来，这么多年过去人们对它依然喜爱。想起刚出奥尔良烤鸡的时候我们这在市中心商业圈的一家地下超市里有个专柜专门卖这个，当时每天都有人们排队购买，场面可谓壮观。我家老头子（那时候是男朋友）知道我爱吃，来接我下班的时候总会提前去买了给我带过来，我一次吃掉一只都还不够\r\n\r\n现在这东西普及了，再也不见排队购买的人群，但是只要想起西式鸡肉制品肯定会马上想到奥尔良烤鸡。之前我做过一次烤翅，这次我也来做做烤整鸡",
          "color" : "",
          "icon" : "",
          "type" : 0,
          "u" : ""
        }
      ],
      "brand_day_dsp" : [

      ],
      "recipe_list_tags" : [
        {
          "text" : "关注的人",
          "background_start_color" : "#F4F5F5",
          "right_image" : "",
          "background_end_color" : "#F4F5F5",
          "text_color" : "#141515",
          "background_border_color" : "",
          "jump_url" : ""
        },
        {
          "background_end_color" : "#F4F5F5",
          "jump_url" : "",
          "text_color" : "#141515",
          "background_start_color" : "#F4F5F5",
          "background_border_color" : "",
          "right_image" : "",
          "text" : "内容详细"
        }
      ],
      "ph" : 466,
      "photo_path" : "https:\/\/i1.douguo.com\/upload\/caiku\/e\/4\/3\/600_e4871e0b8400f34fdd11d5a68e41b373.jpg",
      "comments" : [
        "{\n    ac = \"#999999\";\n    at = \"\\U4f73\\U6728\\U65af\\U5e02\";\n    ccc = 1;\n    \"child_comments\" =     (\n                {\n            ac = \"#999999\";\n            at = \"\\U5927\\U8fde\\U5e02\";\n            ccc = 0;\n            city = \"\\U5927\\U8fde\\U5e02\";\n            cmc = 2;\n            content =             (\n                                {\n                    c = \" \\U8ba4\\U8bc6\\U4f60~\";\n                }\n            );\n            ia = 1;\n            id = 8344788;\n            \"ip_address_location\" = \"\";\n            like = 0;\n            \"like_count\" = 0;\n            \"reply_id\" = 8344784;\n            \"reply_user\" =             {\n                \"followers_count_text\" = \"\";\n                id = 53528;\n                \"is_prime\" = 0;\n                lv = 0;\n                lvl = 6;\n                n = \"\\U80cc\\U5bf9\\U56de\\U5fc6\";\n                p = \"http:\/\/tx1.douguo.net\/upload\/photo\/5\/9\/1\/70_u14627320001955.jpg\";\n                \"progress_image\" = \"\";\n                \"recipes_count_text\" = \"\";\n                relationship = \"-1\";\n                title = \"\";\n                v = 1;\n                \"verified_image\" = \"\";\n            };\n            \"sticker_icon\" =             (\n            );\n            time = \"2020-11-14 22:36:29\";\n            u =             {\n                \"followers_count_text\" = \"\";\n                id = 19282352;\n                \"is_prime\" = 0;\n                lv = 0;\n                lvl = 6;\n                n = \"NANA\\U7684\\U7f8e\\U98df\\U5de5\\U574a\";\n                p = \"http:\/\/tx1.douguo.net\/upload\/photo\/6\/6\/c\/70_66cb8152c14841e0b72a7defd94eef3c.jpg\";\n                \"progress_image\" = \"\";\n                \"recipes_count_text\" = \"\";\n                relationship = \"-1\";\n                title = \"\";\n                v = 1;\n                \"verified_image\" = \"\";\n            };\n        }\n    );\n    city = \"\\U4f73\\U6728\\U65af\\U5e02\";\n    cmc = 2;\n    content =     (\n                {\n            c = \"\\U6211\";\n        }\n    );\n    ia = 0;\n    id = 8344784;\n    \"ip_address_location\" = \"\";\n    like = 0;\n    \"like_count\" = 0;\n    \"reply_id\" = 0;\n    \"sticker_icon\" =     (\n    );\n    time = \"2020-11-14 22:34:21\";\n    u =     {\n        \"followers_count_text\" = \"\";\n        id = 53528;\n        \"is_prime\" = 0;\n        lv = 0;\n        lvl = 6;\n        n = \"\\U80cc\\U5bf9\\U56de\\U5fc6\";\n        p = \"http:\/\/tx1.douguo.net\/upload\/photo\/5\/9\/1\/70_u14627320001955.jpg\";\n        \"progress_image\" = \"\";\n        \"recipes_count_text\" = \"\";\n        relationship = \"-1\";\n        title = \"\";\n        v = 1;\n        \"verified_image\" = \"\";\n    };\n}",
        "{\n    ac = \"#999999\";\n    at = \"\\U53f0\\U5dde\\U5e02\";\n    ccc = 0;\n    \"child_comments\" =     (\n    );\n    city = \"\\U53f0\\U5dde\\U5e02\";\n    cmc = 2;\n    content =     (\n                {\n            c = \"\\Ud83d\\Ude0b\\Ud83d\\Ude0b\";\n        }\n    );\n    ia = 0;\n    id = 8345773;\n    \"ip_address_location\" = \"\";\n    like = 0;\n    \"like_count\" = 0;\n    \"reply_id\" = 0;\n    \"sticker_icon\" =     (\n    );\n    time = \"2020-11-15 13:50:46\";\n    u =     {\n        \"followers_count_text\" = \"\";\n        id = 15083636;\n        \"is_prime\" = 0;\n        lv = 0;\n        lvl = 6;\n        n = \"\\U7a9d\\U5c45\\U71d5\\U5de2\";\n        p = \"http:\/\/tx1.douguo.net\/upload\/photo\/7\/6\/c\/70_760e522f972c09232b9930e0ba2d5d3c.jpeg\";\n        \"progress_image\" = \"\";\n        \"recipes_count_text\" = \"\";\n        relationship = \"-1\";\n        title = \"\";\n        v = 0;\n        \"verified_image\" = \"\";\n    };\n}"
      ],
      "v_u" : "",
      "tags" : [

      ],
      "cook_time_image" : "https:\/\/i1.douguo.com\/upload\/banner\/1551424341.png",
      "display_ingredient" : 1,
      "old_comments" : [

      ],
      "btm_dsp" : [

      ],
      "ssu" : "",
      "cook_difficulty_image" : "https:\/\/i1.douguo.com\/upload\/banner\/1551424390.png",
      "dish_count_text" : "",
      "rate_count" : 0,
      "recommended" : 0,
      "rips" : 0,
      "rrpt" : "",
      "comments_count_text" : "3",
      "pw" : 700,
      "ipurl" : "",
      "notes" : [

      ],
      "rate_show" : 0,
      "guide_image" : "",
      "levelid" : 2,
      "cook_time" : "10-30分钟",
      "thumb_path" : "https:\/\/i1.douguo.com\/upload\/caiku\/e\/4\/3\/300_e4871e0b8400f34fdd11d5a68e41b373.jpg",
      "rate" : 0,
      "release_time" : "",
      "title" : "预热感恩节：奥尔良烤鸡",
      "thumb_height" : 0,
      "hq" : 1,
      "rdsps" : [

      ],
      "hqu" : "recipes:\/\/www.douguo.com\/notedetail?id=21162253",
      "tips" : "我家烤箱小，火力最高180，你可以选择200度来烤，具体的烤制时间根据你家的烤箱调节，把鸡肉烤熟，稍微上点焦色就可以了。因为是整鸡不好入味，所以长时间的腌制是必须的哈，另外每一种腌料粉味道都不太一样，你可以尝一下，要是觉得淡就自己加点盐（采用中心构图和平视角度拍摄，突出质感）",
      "ecs" : 0,
      "ipci" : "",
      "create_time" : "2020-11-14 13:24:51",
      "rewarded_video_dsp" : [

      ],
      "packages_id" : [

      ],
      "cook_id" : "3012877",
      "bs" : [

      ],
      "recommendation_tag" : "",
      "ipoi" : "",
      "rrps" : [

      ],
      "ss" : [

      ],
      "recent_comments" : [

      ],
      "act_des" : "",
      "collect_status" : 0,
      "author_photo" : "http:\/\/tx1.douguo.net\/upload\/photo\/6\/6\/c\/70_66cb8152c14841e0b72a7defd94eef3c.jpg",
      "related_ads" : [

      ],
      "author_id" : 19282352,
      "favo_counts" : 712,
      "rsm" : "该功能暂停使用",
      "cookstory" : "很快就是感恩节了，想必大家一下子在脑子里闪现出来的就是那硕大的感恩节火鸡吧？但是国内火鸡不好买，而且也太大了一般家庭吃不了。所以我就打算换个做法来个简单又应景的奥尔良烤鸡~\r\n\r\n说到奥尔良风味的食物，自从多年前在某品牌洋快餐连锁店推出之后就一下子火爆了起来，这么多年过去人们对它依然喜爱。想起刚出奥尔良烤鸡的时候我们这在市中心商业圈的一家地下超市里有个专柜专门卖这个，当时每天都有人们排队购买，场面可谓壮观。我家老头子（那时候是男朋友）知道我爱吃，来接我下班的时候总会提前去买了给我带过来，我一次吃掉一只都还不够\r\n\r\n现在这东西普及了，再也不见排队购买的人群，但是只要想起西式鸡肉制品肯定会马上想到奥尔良烤鸡。之前我做过一次烤翅，这次我也来做做烤整鸡",
      "top_mdsp" : [

      ],
      "ipit" : 0,
      "cookstep" : [
        {
          "thumb" : "https:\/\/i1.douguo.com\/upload\/caiku\/8\/a\/4\/140_8afe00f7d7a6728186c85eeef9aa94d4.JPG",
          "image_height" : 2784,
          "image_width" : 4176,
          "content" : "三黄鸡自然解冻，切掉鸡爪和脖子",
          "image" : "https:\/\/i1.douguo.com\/upload\/caiku\/8\/a\/4\/8afe00f7d7a6728186c85eeef9aa94d4.JPG",
          "frame" : "-1",
          "position" : 1
        },
        {
          "image_width" : 4176,
          "position" : 2,
          "thumb" : "https:\/\/i1.douguo.com\/upload\/caiku\/c\/4\/b\/140_c4ec129b06048df0a470cf9bfb5eb1db.JPG",
          "image" : "https:\/\/i1.douguo.com\/upload\/caiku\/c\/4\/b\/c4ec129b06048df0a470cf9bfb5eb1db.JPG",
          "frame" : "-1",
          "content" : "从腹部剖开，掏出鸡肺洗干净，用厨房纸吸干水分",
          "image_height" : 2784
        },
        {
          "thumb" : "https:\/\/i1.douguo.com\/upload\/caiku\/2\/d\/4\/140_2d5062b7078acaebded1e6ea32ac11e4.JPG",
          "image" : "https:\/\/i1.douguo.com\/upload\/caiku\/2\/d\/4\/2d5062b7078acaebded1e6ea32ac11e4.JPG",
          "image_height" : 2784,
          "frame" : "-1",
          "image_width" : 4176,
          "position" : 3,
          "content" : "把鸡展开，压平"
        },
        {
          "position" : 4,
          "image_height" : 2784,
          "frame" : "-1",
          "image" : "https:\/\/i1.douguo.com\/upload\/caiku\/3\/7\/8\/3784f20a7f842c0e6e9d7e1fed6806f8.JPG",
          "content" : "奥尔良腌料粉加少许凉水搅成糊糊，依口味放入一些蜂蜜搅匀",
          "image_width" : 4176,
          "thumb" : "https:\/\/i1.douguo.com\/upload\/caiku\/3\/7\/8\/140_3784f20a7f842c0e6e9d7e1fed6806f8.JPG"
        },
        {
          "position" : 5,
          "content" : "把腌料抹到鸡身上，内外都要抹到。放盆里，盖上保鲜膜，进冰箱冷藏腌制2-3小时",
          "thumb" : "https:\/\/i1.douguo.com\/upload\/caiku\/1\/7\/d\/140_17fb3fac4d61c95935caaab4ef8dbacd.JPG",
          "image_height" : 2784,
          "image" : "https:\/\/i1.douguo.com\/upload\/caiku\/1\/7\/d\/17fb3fac4d61c95935caaab4ef8dbacd.JPG",
          "frame" : "-1",
          "image_width" : 4176
        },
        {
          "content" : "烤盘铺锡纸，把鸡放到上面",
          "image" : "https:\/\/i1.douguo.com\/upload\/caiku\/8\/9\/d\/89c5f21c9c04bbab222f68fba7c007bd.JPG",
          "image_height" : 2784,
          "frame" : "-1",
          "image_width" : 4176,
          "position" : 6,
          "thumb" : "https:\/\/i1.douguo.com\/upload\/caiku\/8\/9\/d\/140_89c5f21c9c04bbab222f68fba7c007bd.JPG"
        },
        {
          "image_height" : 2784,
          "image" : "https:\/\/i1.douguo.com\/upload\/caiku\/e\/2\/5\/e23165d1f3fdd4db47f9468d1cc77515.JPG",
          "thumb" : "https:\/\/i1.douguo.com\/upload\/caiku\/e\/2\/5\/140_e23165d1f3fdd4db47f9468d1cc77515.JPG",
          "content" : "烤箱预热，上下火180度，烤制30分钟",
          "position" : 7,
          "image_width" : 4176,
          "frame" : "-1"
        }
      ],
      "author_verified" : 1,
      "rpid" : 0,
      "cookwares" : [

      ],
      "major" : [
        {
          "note" : "",
          "title" : "三黄鸡一只"
        },
        {
          "note" : "",
          "title" : "奥尔良腌料粉一袋（40g）"
        },
        {
          "title" : "蜂蜜适量",
          "note" : ""
        }
      ],
      "recommend_label" : "13.0万人看过",
      "dishes" : [

      ],
      "ipia" : [

      ],
      "title_ad" : [

      ],
      "rpt" : "",
      "mid_mdsp" : [

      ],
      "rcs" : [

      ],
      "sc" : 0,
      "dish_count" : 0,
      "first_level_comment_count" : 2,
      "recipe_tags" : [

      ]
    }
  }
}