{
  "result" : {
    "recipe" : {
      "ipoi" : "",
      "recipe_tags" : [

      ],
      "author_photo" : "http:\/\/tx1.douguo.net\/upload\/photo\/9\/c\/c\/70_u22967945474616095132.jpeg",
      "notes" : [

      ],
      "dish_count_text" : "",
      "user" : {
        "mobile" : "",
        "userid" : "8084354",
        "user_photo" : "http:\/\/tx1.douguo.net\/upload\/photo\/9\/c\/c\/70_u22967945474616095132.jpeg",
        "lv" : 0,
        "dishes_count" : 0,
        "following_count" : 0,
        "subscription" : 0,
        "favor_diaries_count" : 0,
        "nick" : "石头妈1",
        "subscription_article_count" : 0,
        "qzone_nick" : "",
        "pc" : 0,
        "is_prime" : 0,
        "gender" : 2,
        "recipes_count" : 0,
        "lvl" : 6,
        "regist_time" : "",
        "coursecount" : 0,
        "progress_image" : "",
        "verified" : 1,
        "location" : 0,
        "verified_image" : "https:\/\/i1.douguo.com\/upload\/note\/d\/a\/a\/da84247847aebe48d9dd0fcdac88862a.png",
        "fc" : 0,
        "age" : "",
        "birthday" : "",
        "followers_count" : 0,
        "user_cover" : "",
        "setted_email" : 0,
        "introduction" : "",
        "sign" : "",
        "verified_url" : "https:\/\/m.douguo.com\/user\/prodesc",
        "diaries_count" : 0,
        "user_large_photo" : "http:\/\/tx1.douguo.net\/upload\/photo\/9\/c\/c\/yuan_u22967945474616095132.jpeg",
        "point" : 0,
        "favorites_count" : 0,
        "email" : "",
        "qq_weibo_nick" : "",
        "user_id" : "8084354",
        "avatar_medium" : "http:\/\/tx1.douguo.net\/upload\/photo\/9\/c\/c\/140_u22967945474616095132.jpeg",
        "weibo_nick" : ""
      },
      "rpid" : 0,
      "rsm" : "该功能暂停使用",
      "display_ingredient" : 1,
      "favo_counts_text" : "6325",
      "author_verified" : 1,
      "bs" : [

      ],
      "rewarded_video_dsp" : [

      ],
      "recommendation_tag" : "",
      "author_id" : 8084354,
      "favo_counts" : 6325,
      "cookstorys" : [
        {
          "color" : "",
          "type" : 0,
          "id" : 0,
          "icon" : "",
          "c" : "年越来越近，年夜饭的菜品也得提前准备了。一碗鲫鱼豆腐汤希望来年年年有鱼……",
          "u" : ""
        },
        {
          "u" : "",
          "color" : "",
          "c" : "\n参与活动:",
          "id" : 0,
          "icon" : "",
          "type" : 0
        },
        {
          "type" : 0,
          "c" : "#食来运转 八方进福#",
          "id" : 0,
          "icon" : "",
          "u" : "https:\/\/m.douguo.com\/activity\/ncpzj\/detail\/2927?isapp=1&open=0&_vs=1000300&&dg_refreshkey=publishnote"
        }
      ],
      "cook_time_image" : "https:\/\/i1.douguo.com\/upload\/banner\/1551424318.png",
      "tags" : [

      ],
      "ipurl" : "",
      "rrpt" : "",
      "cook_time" : "30~60分钟",
      "ipia" : [

      ],
      "cookstory" : "年越来越近，年夜饭的菜品也得提前准备了。一碗鲫鱼豆腐汤希望来年年年有鱼……",
      "cookstep" : [
        {
          "image_width" : 1280,
          "content" : "黑鱼一条，把内脏扔掉洗净控水备用",
          "image_height" : 960,
          "image" : "https:\/\/i1.douguo.com\/upload\/caiku\/6\/3\/d\/638452aaf5e2687798be325a0c03af7d.jpeg",
          "frame" : "-1",
          "thumb" : "https:\/\/i1.douguo.com\/upload\/caiku\/6\/3\/d\/140_638452aaf5e2687798be325a0c03af7d.jpeg",
          "position" : 1
        },
        {
          "content" : "豆腐切成小块备用",
          "image" : "https:\/\/i1.douguo.com\/upload\/caiku\/e\/3\/7\/e32898a99ce9947d2042a2f42adf28a7.jpeg",
          "frame" : "-1",
          "thumb" : "https:\/\/i1.douguo.com\/upload\/caiku\/e\/3\/7\/140_e32898a99ce9947d2042a2f42adf28a7.jpeg",
          "position" : 2,
          "image_width" : 1280,
          "image_height" : 960
        },
        {
          "image_height" : 960,
          "image_width" : 1280,
          "thumb" : "https:\/\/i1.douguo.com\/upload\/caiku\/4\/3\/0\/140_431eda8b2b1522b99a5f22bd80997ee0.jpeg",
          "content" : "蒜，葱、八角备用",
          "image" : "https:\/\/i1.douguo.com\/upload\/caiku\/4\/3\/0\/431eda8b2b1522b99a5f22bd80997ee0.jpeg",
          "position" : 3,
          "frame" : "-1"
        },
        {
          "image" : "https:\/\/i1.douguo.com\/upload\/caiku\/c\/5\/3\/c526c4456e048e8c1bf00d7319c1d403.jpeg",
          "frame" : "-1",
          "position" : 4,
          "thumb" : "https:\/\/i1.douguo.com\/upload\/caiku\/c\/5\/3\/140_c526c4456e048e8c1bf00d7319c1d403.jpeg",
          "content" : "热锅凉油",
          "image_width" : 1280,
          "image_height" : 960
        },
        {
          "image_height" : 960,
          "frame" : "-1",
          "image" : "https:\/\/i1.douguo.com\/upload\/caiku\/d\/4\/7\/d4af69d45c5594a4c20876a4b88755b7.jpeg",
          "thumb" : "https:\/\/i1.douguo.com\/upload\/caiku\/d\/4\/7\/140_d4af69d45c5594a4c20876a4b88755b7.jpeg",
          "position" : 5,
          "content" : "油热后把鱼放入两面煎一下",
          "image_width" : 1280
        },
        {
          "image" : "https:\/\/i1.douguo.com\/upload\/caiku\/d\/7\/0\/d71ead84cfaa1288a123080e76684b60.jpeg",
          "image_height" : 960,
          "frame" : "-1",
          "thumb" : "https:\/\/i1.douguo.com\/upload\/caiku\/d\/7\/0\/140_d71ead84cfaa1288a123080e76684b60.jpeg",
          "content" : "加入没过鱼的清水",
          "image_width" : 1280,
          "position" : 6
        },
        {
          "position" : 7,
          "frame" : "-1",
          "image_height" : 960,
          "image_width" : 1280,
          "content" : "放入蒜瓣、葱段、八角加入少许料酒、白胡椒粉和少许盐",
          "thumb" : "https:\/\/i1.douguo.com\/upload\/caiku\/9\/a\/9\/140_9a6a35c10be3b19ef5ec26b761dd0ae9.jpeg",
          "image" : "https:\/\/i1.douguo.com\/upload\/caiku\/9\/a\/9\/9a6a35c10be3b19ef5ec26b761dd0ae9.jpeg"
        },
        {
          "image_width" : 1280,
          "position" : 8,
          "image_height" : 960,
          "thumb" : "https:\/\/i1.douguo.com\/upload\/caiku\/2\/4\/d\/140_24af1c791b91f0b2b9f2637af407d5fd.jpeg",
          "image" : "https:\/\/i1.douguo.com\/upload\/caiku\/2\/4\/d\/24af1c791b91f0b2b9f2637af407d5fd.jpeg",
          "frame" : "-1",
          "content" : "加入豆腐大火烧开小火慢炖，炖的汤汁奶白浓稠即可"
        },
        {
          "frame" : "-1",
          "image" : "https:\/\/i1.douguo.com\/upload\/caiku\/2\/8\/a\/28a293a8e0409c69f16f50659510a67a.jpeg",
          "image_height" : 960,
          "content" : "出锅后撒少许小葱点缀一下，我还放了一个红辣椒点缀了一下，可以不放噢……",
          "image_width" : 1280,
          "thumb" : "https:\/\/i1.douguo.com\/upload\/caiku\/2\/8\/a\/140_28a293a8e0409c69f16f50659510a67a.jpeg",
          "position" : 9
        },
        {
          "content" : "无论是寒冷的冬季还是年夜大餐来上一碗暖暖的鱼汤那是在鲜美不过了。",
          "image" : "https:\/\/i1.douguo.com\/upload\/caiku\/c\/7\/9\/c7a615778fddfc400064553330f89af9.jpeg",
          "image_height" : 960,
          "thumb" : "https:\/\/i1.douguo.com\/upload\/caiku\/c\/7\/9\/140_c7a615778fddfc400064553330f89af9.jpeg",
          "frame" : "-1",
          "image_width" : 1280,
          "position" : 10
        }
      ],
      "tips" : "",
      "recommend_label" : "6325人刚刚收藏过",
      "rdsps" : [

      ],
      "top_mdsp" : [

      ],
      "sc" : 0,
      "photo_path" : "https:\/\/i1.douguo.com\/upload\/caiku\/1\/6\/b\/600_162aef78deada7838007b72c9a84e3ab.jpeg",
      "rcs" : [

      ],
      "rate_show" : 0,
      "recipe_list_tags" : [
        {
          "background_end_color" : "#F4F5F5",
          "background_border_color" : "",
          "text_color" : "#141515",
          "text" : "关注的人",
          "right_image" : "",
          "jump_url" : "",
          "background_start_color" : "#F4F5F5"
        }
      ],
      "rate_count" : 0,
      "cookwares" : [

      ],
      "share_info" : {
        "mini_program" : [

        ],
        "object_id" : "3052627",
        "name" : "#福气年夜菜#年年有鱼-黑鱼豆腐汤-会做饭很酷!",
        "s_d" : "#福气年夜菜#年年有鱼-黑鱼豆腐汤-会做饭很酷!",
        "image" : "https:\/\/cp1.douguo.com\/upload\/caiku\/1\/6\/b\/162aef78deada7838007b72c9a84e3ab.jpeg",
        "qr_image" : "",
        "s_u" : "http:\/\/m.douguo.com\/cookbook\/3052627.html",
        "infos" : [
          {
            "qr_image" : "",
            "s_d" : "#学做饭用豆果美食# 会做饭真是太酷了！我在@豆果美食 分享了【#福气年夜菜#年年有鱼-黑鱼豆腐汤-会做饭很酷!】，看着是不是馋到不行呢～快来跟我学学吧！查看图片了解菜谱，（想要获取更多美食就看这https:\/\/m.weibo.cn\/p\/100404i33631）",
            "image" : "https:\/\/cp1.douguo.com\/upload\/caiku\/1\/6\/b\/162aef78deada7838007b72c9a84e3ab.jpeg",
            "object_id" : "3052627",
            "name" : "#福气年夜菜#年年有鱼-黑鱼豆腐汤-会做饭很酷!",
            "s_u" : "",
            "mini_program" : [

            ],
            "channel" : "1"
          },
          {
            "channel" : "7",
            "s_u" : "http:\/\/m.douguo.com\/cookbook\/3052627.html",
            "qr_image" : "",
            "s_d" : "#福气年夜菜#年年有鱼-黑鱼豆腐汤-会做饭很酷!",
            "image" : "https:\/\/cp1.douguo.com\/upload\/caiku\/1\/6\/b\/162aef78deada7838007b72c9a84e3ab.jpeg",
            "mini_program" : [

            ],
            "object_id" : "3052627",
            "name" : "#福气年夜菜#年年有鱼-黑鱼豆腐汤-会做饭很酷!"
          },
          {
            "mini_program" : [

            ],
            "channel" : "8",
            "object_id" : "3052627",
            "image" : "https:\/\/cp1.douguo.com\/upload\/caiku\/1\/6\/b\/162aef78deada7838007b72c9a84e3ab.jpeg",
            "s_u" : "http:\/\/m.douguo.com\/cookbook\/3052627.html",
            "s_d" : "#福气年夜菜#年年有鱼-黑鱼豆腐汤-会做饭很酷!",
            "qr_image" : "",
            "name" : "#福气年夜菜#年年有鱼-黑鱼豆腐汤-会做饭很酷!"
          }
        ]
      },
      "recent_comments" : [

      ],
      "old_comments" : [

      ],
      "advice" : {
        "has" : [
          {
            "url" : "recipes:\/\/www.douguo.com\/simplerecipelist?t=富含蛋白质&id=富含蛋白质",
            "t" : "富含蛋白质"
          },
          {
            "t" : "低糖",
            "url" : "recipes:\/\/www.douguo.com\/simplerecipelist?t=低糖&id=低糖"
          }
        ],
        "da" : {
          "url" : "https:\/\/m.douguo.com\/recipe\/nutrient_self\/3052627",
          "iu" : "https:\/\/i1.douguo.com\/upload\/banner\/f\/4\/d\/f48877e53c37759bc12ac494be82ec8d.png",
          "t" : "查看详细分析"
        },
        "at" : "是组织形成和生长的主要营养素～"
      },
      "v_u" : "",
      "original_photo_path" : "http:\/\/i1.douguo.net\/upload\/caiku\/1\/6\/b\/yuan_162aef78deada7838007b72c9a84e3ab.jpeg",
      "clicks" : "257408",
      "rpst" : "",
      "act_des" : "",
      "rpt" : "",
      "minor" : [

      ],
      "title_ad" : [

      ],
      "ipit" : 0,
      "views_count_text" : "29.1万",
      "thumb_height" : 0,
      "first_level_comment_count" : 5,
      "ecs" : 0,
      "guide_image" : "",
      "btm_dsp" : [

      ],
      "dish_count" : 0,
      "thumb_path" : "https:\/\/i1.douguo.com\/upload\/caiku\/1\/6\/b\/300_162aef78deada7838007b72c9a84e3ab.jpeg",
      "comments_count_text" : "7",
      "hq" : 1,
      "cook_difficulty" : "切墩(初级)",
      "mid_mdsp" : [

      ],
      "release_time" : "",
      "su" : "",
      "brand_day_dsp" : [

      ],
      "ipci" : "",
      "related_ads" : [

      ],
      "collect_status" : 0,
      "packages_id" : [

      ],
      "image" : "http:\/\/i1.douguo.net\/upload\/caiku\/1\/6\/b\/300_162aef78deada7838007b72c9a84e3ab.jpeg",
      "eu" : "recipes:\/\/www.douguo.com\/postdetail?id=242016",
      "comments_count" : 7,
      "recommended" : 0,
      "rate" : 0,
      "cook_id" : "3052627",
      "hqu" : "recipes:\/\/www.douguo.com\/notedetail?id=21162253",
      "event" : {
        "url" : "https:\/\/m.douguo.com\/activity\/ncpzj\/detail\/2927?isapp=1&open=0&_vs=1000300&&dg_refreshkey=publishnote",
        "id" : 2927,
        "name" : "食来运转 八方进福"
      },
      "dishes" : [

      ],
      "create_time" : "2021-01-15 09:48:33",
      "vu" : "",
      "cook_difficulty_image" : "https:\/\/i1.douguo.com\/upload\/banner\/1551424390.png",
      "ssu" : "",
      "rrps" : [

      ],
      "rips" : 0,
      "levelid" : 2,
      "pw" : 1920,
      "vfurl" : "",
      "purl" : "",
      "ss" : [

      ],
      "major" : [
        {
          "note" : "1条",
          "title" : "黑鱼",
          "tu" : "https:\/\/m.douguo.com\/ingredients\/黑鱼\/detailmaterial"
        },
        {
          "title" : "豆腐",
          "note" : "1块",
          "tu" : "https:\/\/m.douguo.com\/ingredients\/豆腐\/detailmaterial"
        },
        {
          "tu" : "https:\/\/m.douguo.com\/ingredients\/盐\/detailmaterial",
          "note" : "适量",
          "title" : "盐"
        },
        {
          "tu" : "https:\/\/m.douguo.com\/ingredients\/胡椒粉\/detailmaterial",
          "note" : "一点点",
          "title" : "胡椒粉"
        },
        {
          "tu" : "https:\/\/m.douguo.com\/ingredients\/料酒\/detailmaterial",
          "title" : "料酒",
          "note" : "一勺"
        },
        {
          "title" : "蒜",
          "note" : "3瓣",
          "tu" : "https:\/\/m.douguo.com\/ingredients\/蒜\/detailmaterial"
        },
        {
          "title" : "葱",
          "tu" : "https:\/\/m.douguo.com\/ingredients\/葱\/detailmaterial",
          "note" : "半根"
        },
        {
          "tu" : "https:\/\/m.douguo.com\/ingredients\/八角\/detailmaterial",
          "note" : "1个",
          "title" : "八角"
        }
      ],
      "comments" : [
        "{\n    ac = \"#999999\";\n    at = \"\";\n    ccc = 2;\n    \"child_comments\" =     (\n                {\n            ac = \"#999999\";\n            at = \"\\U65e5\\U7167\\U5e02\";\n            ccc = 0;\n            city = \"\\U65e5\\U7167\\U5e02\";\n            cmc = 2;\n            content =             (\n                                {\n                    c = \" \\U8fd9\\U5c31\\U662f\\U9ed1\\U5934\\U9c7c\\U554a\";\n                }\n            );\n            ia = 1;\n            id = 8955388;\n            \"ip_address_location\" = \"\";\n            like = 0;\n            \"like_count\" = 0;\n            \"reply_id\" = 8955226;\n            \"reply_user\" =             {\n                \"followers_count_text\" = \"\";\n                id = 23353333;\n                \"is_prime\" = 0;\n                lv = 0;\n                lvl = 1;\n                n = \"\\U8c46\\U7c899484664425\";\n                p = \"\";\n                \"progress_image\" = \"\";\n                \"recipes_count_text\" = \"\";\n                relationship = \"-1\";\n                title = \"\";\n                v = 0;\n                \"verified_image\" = \"\";\n            };\n            \"sticker_icon\" =             (\n            );\n            time = \"2022-07-12 19:40:20\";\n            u =             {\n                \"followers_count_text\" = \"\";\n                id = 8084354;\n                \"is_prime\" = 0;\n                lv = 0;\n                lvl = 6;\n                n = \"\\U77f3\\U5934\\U59881\";\n                p = \"http:\/\/tx1.douguo.net\/upload\/photo\/9\/c\/c\/70_u22967945474616095132.jpeg\";\n                \"progress_image\" = \"\";\n                \"recipes_count_text\" = \"\";\n                relationship = \"-1\";\n                title = \"\";\n                v = 1;\n                \"verified_image\" = \"\";\n            };\n        },\n                {\n            ac = \"#999999\";\n            at = \"\";\n            ccc = 0;\n            city = \"\";\n            cmc = 2;\n            content =             (\n                                {\n                    c = \" \\U8fd9\\U662f\\U6d77\\U91cc\\U7684\\U9ed1\\U9c7c\\U5417\\Uff1f\";\n                }\n            );\n            ia = 0;\n            id = 9038531;\n            \"ip_address_location\" = \"\\U6c5f\\U82cf\";\n            like = 0;\n            \"like_count\" = 0;\n            \"reply_id\" = 8955226;\n            \"reply_user\" =             {\n                \"followers_count_text\" = \"\";\n                id = 23353333;\n                \"is_prime\" = 0;\n                lv = 0;\n                lvl = 1;\n                n = \"\\U8c46\\U7c899484664425\";\n                p = \"\";\n                \"progress_image\" = \"\";\n                \"recipes_count_text\" = \"\";\n                relationship = \"-1\";\n                title = \"\";\n                v = 0;\n                \"verified_image\" = \"\";\n            };\n            \"sticker_icon\" =             (\n            );\n            time = \"2023-07-15 11:31:30\";\n            u =             {\n                \"followers_count_text\" = \"\";\n                id = 9604056;\n                \"is_prime\" = 0;\n                lv = 0;\n                lvl = 3;\n                n = \"\\U5357\\U90ca\\U8001\\U9648\";\n                p = \"http:\/\/tx1.douguo.net\/upload\/photo\/e\/f\/5\/70_u32744689769769203422.jpg\";\n                \"progress_image\" = \"\";\n                \"recipes_count_text\" = \"\";\n                relationship = \"-1\";\n                title = \"\";\n                v = 0;\n                \"verified_image\" = \"\";\n            };\n        }\n    );\n    city = \"\";\n    cmc = 2;\n    content =     (\n                {\n            c = \"\\U8fd9\\U662f\\U5047\\U9ed1\\U9c7c\";\n        }\n    );\n    ia = 0;\n    id = 8955226;\n    \"ip_address_location\" = \"\";\n    like = 0;\n    \"like_count\" = 0;\n    \"reply_id\" = 0;\n    \"sticker_icon\" =     (\n    );\n    time = \"2022-07-12 06:37:07\";\n    u =     {\n        \"followers_count_text\" = \"\";\n        id = 23353333;\n        \"is_prime\" = 0;\n        lv = 0;\n        lvl = 1;\n        n = \"\\U8c46\\U7c899484664425\";\n        p = \"\";\n        \"progress_image\" = \"\";\n        \"recipes_count_text\" = \"\";\n        relationship = \"-1\";\n        title = \"\";\n        v = 0;\n        \"verified_image\" = \"\";\n    };\n}",
        "{\n    ac = \"#999999\";\n    at = \"\\U676d\\U5dde\\U5e02\";\n    ccc = 0;\n    \"child_comments\" =     (\n    );\n    city = \"\\U676d\\U5dde\\U5e02\";\n    cmc = 2;\n    content =     (\n                {\n            c = \"\\U662f\\U4e0d\\U662f\\U5bf9\\U9ed1\\U9c7c\\U6709\\U4ec0\\U4e48\\U8bef\\U89e3\\Uff1f\";\n        }\n    );\n    ia = 0;\n    id = 8957491;\n    \"ip_address_location\" = \"\";\n    like = 0;\n    \"like_count\" = 1;\n    \"reply_id\" = 0;\n    \"sticker_icon\" =     (\n    );\n    time = \"2022-07-23 09:12:12\";\n    u =     {\n        \"followers_count_text\" = \"\";\n        id = 22738053;\n        \"is_prime\" = 0;\n        lv = 0;\n        lvl = 1;\n        n = \"\\U5854\\U5229\\U4e9arcnt\";\n        p = \"http:\/\/tx1.douguo.net\/upload\/photo\/7\/2\/9\/70_u38215396726575180318.jpeg\";\n        \"progress_image\" = \"\";\n        \"recipes_count_text\" = \"\";\n        relationship = \"-1\";\n        title = \"\";\n        v = 0;\n        \"verified_image\" = \"\";\n    };\n}",
        "{\n    ac = \"#999999\";\n    at = \"\";\n    ccc = 0;\n    \"child_comments\" =     (\n    );\n    city = \"\";\n    cmc = 2;\n    content =     (\n                {\n            c = \"\\U4e00\\U770b\\U5c31\\U60f3\\U5403\\Uff0c\\U6211\\U9700\\U8981\\U7ba1\\U7ba1\\U6211\\U81ea\\U5df1\";\n        }\n    );\n    ia = 0;\n    id = 8459135;\n    \"ip_address_location\" = \"\";\n    like = 0;\n    \"like_count\" = 1;\n    \"reply_id\" = 0;\n    \"sticker_icon\" =     (\n    );\n    time = \"2021-01-15 10:05:14\";\n    u =     {\n        \"followers_count_text\" = \"\";\n        id = 23624962;\n        \"is_prime\" = 0;\n        lv = 0;\n        lvl = 4;\n        n = \"\\U8c46\\U7c89216540uksa\";\n        p = \"http:\/\/tx1.douguo.net\/upload\/photo\/1\/a\/6\/70_u8715730711170330012526.jpg\";\n        \"progress_image\" = \"\";\n        \"recipes_count_text\" = \"\";\n        relationship = \"-1\";\n        title = \"\";\n        v = 0;\n        \"verified_image\" = \"\";\n    };\n}"
      ],
      "sr" : "",
      "vc" : "290592",
      "author" : "石头妈1",
      "ipt" : "",
      "story_dsp" : [

      ],
      "ph" : 1440,
      "title" : "年年有鱼-黑鱼豆腐汤"
    }
  },
  "status" : 0,
  "state" : "success"
}