{
  "result" : {
    "recipe" : {
      "su" : "",
      "cook_difficulty_image" : "https:\/\/i1.douguo.com\/upload\/banner\/1551424390.png",
      "btm_dsp" : [

      ],
      "hqu" : "recipes:\/\/www.douguo.com\/notedetail?id=21162253",
      "thumb_path" : "https:\/\/i1.douguo.com\/upload\/caiku\/f\/a\/c\/300_fa549cb7a4aa0a17530ca8f306dcc31c.jpeg",
      "sc" : 0,
      "rcs" : [

      ],
      "rate_show" : 0,
      "pw" : 1364,
      "eu" : "recipes:\/\/www.douguo.com\/postdetail?id=242016",
      "favo_counts" : 13,
      "old_comments" : [

      ],
      "major" : [
        {
          "title" : "中筋面粉",
          "note" : "275克",
          "tu" : "https:\/\/m.douguo.com\/ingredients\/中筋面粉\/detailmaterial"
        },
        {
          "title" : "希腊酸奶",
          "note" : "30克"
        },
        {
          "note" : "17克",
          "title" : "食用油",
          "tu" : "https:\/\/m.douguo.com\/ingredients\/食用油\/detailmaterial"
        },
        {
          "note" : "140",
          "title" : "温牛奶"
        },
        {
          "title" : "温水",
          "tu" : "https:\/\/m.douguo.com\/ingredients\/温水\/detailmaterial",
          "note" : "40克"
        },
        {
          "title" : "糖",
          "note" : "6克",
          "tu" : "https:\/\/m.douguo.com\/ingredients\/糖\/detailmaterial"
        },
        {
          "title" : "酵母",
          "tu" : "https:\/\/m.douguo.com\/ingredients\/酵母\/detailmaterial",
          "note" : "3.5克"
        },
        {
          "title" : "蒜",
          "tu" : "https:\/\/m.douguo.com\/ingredients\/蒜\/detailmaterial",
          "note" : "1瓣"
        },
        {
          "tu" : "https:\/\/m.douguo.com\/ingredients\/盐\/detailmaterial",
          "title" : "盐",
          "note" : "5克"
        },
        {
          "note" : "",
          "title" : "大蒜香菜奶油酱："
        },
        {
          "note" : "5瓣",
          "tu" : "https:\/\/m.douguo.com\/ingredients\/大蒜\/detailmaterial",
          "title" : "大蒜"
        },
        {
          "note" : "适量",
          "title" : "香菜",
          "tu" : "https:\/\/m.douguo.com\/ingredients\/香菜\/detailmaterial"
        },
        {
          "title" : "黄油",
          "note" : "适量",
          "tu" : "https:\/\/m.douguo.com\/ingredients\/黄油\/detailmaterial"
        },
        {
          "title" : "盐",
          "tu" : "https:\/\/m.douguo.com\/ingredients\/盐\/detailmaterial",
          "note" : "1小勺"
        }
      ],
      "cook_difficulty" : "切墩(初级)",
      "cook_time" : "1小时以上",
      "image" : "http:\/\/i1.douguo.net\/upload\/caiku\/f\/a\/c\/300_fa549cb7a4aa0a17530ca8f306dcc31c.jpeg",
      "user" : {
        "sign" : "",
        "lvl" : 6,
        "user_cover" : "",
        "user_large_photo" : "http:\/\/tx1.douguo.net\/upload\/photo\/c\/e\/a\/yuan_cebe23ca481191366537113e5b84de4a.jpeg",
        "verified_image" : "",
        "dishes_count" : 0,
        "verified_url" : "https:\/\/m.douguo.com\/user\/prodesc",
        "diaries_count" : 0,
        "point" : 0,
        "followers_count" : 0,
        "qzone_nick" : "",
        "nick" : "禁不住诱惑的馋猫",
        "mobile" : "",
        "recipes_count" : 0,
        "user_photo" : "http:\/\/tx1.douguo.net\/upload\/photo\/c\/e\/a\/70_cebe23ca481191366537113e5b84de4a.jpeg",
        "birthday" : "",
        "favorites_count" : 0,
        "weibo_nick" : "",
        "subscription_article_count" : 0,
        "progress_image" : "",
        "gender" : 2,
        "pc" : 0,
        "avatar_medium" : "http:\/\/tx1.douguo.net\/upload\/photo\/c\/e\/a\/140_cebe23ca481191366537113e5b84de4a.jpeg",
        "user_id" : "21154665",
        "regist_time" : "",
        "is_prime" : 0,
        "introduction" : "",
        "setted_email" : 0,
        "location" : 0,
        "coursecount" : 0,
        "verified" : 0,
        "age" : "",
        "favor_diaries_count" : 0,
        "following_count" : 0,
        "lv" : 0,
        "fc" : 0,
        "qq_weibo_nick" : "",
        "userid" : "21154665",
        "subscription" : 0,
        "email" : ""
      },
      "rrpt" : "",
      "rsm" : "该功能暂停使用",
      "ipurl" : "",
      "author_id" : 21154665,
      "dish_count" : 0,
      "first_level_comment_count" : 1,
      "comments_count" : 1,
      "ss" : [

      ],
      "recipe_tags" : [

      ],
      "act_des" : "",
      "release_time" : "",
      "rate" : 0,
      "tips" : "1. 温牛奶和温水要保证在40-42度之间，否则会烫死酵母\n\n2. 放置材料时不要让盐和酵母直接接触",
      "rate_count" : 0,
      "rpst" : "",
      "comments" : [
        "{\n    ac = \"#999999\";\n    at = \"\";\n    ccc = 0;\n    \"child_comments\" =     (\n    );\n    city = \"\";\n    cmc = 2;\n    content =     (\n                {\n            c = \"\\U5427\\U5566\\U5427\\U5566 \\U505a\\U8d77\\U6765\";\n        }\n    );\n    ia = 0;\n    id = 8869835;\n    \"ip_address_location\" = \"\";\n    like = 0;\n    \"like_count\" = 0;\n    \"reply_id\" = 0;\n    \"sticker_icon\" =     (\n    );\n    time = \"2021-11-22 14:23:08\";\n    u =     {\n        \"followers_count_text\" = \"\";\n        id = 23553120;\n        \"is_prime\" = 0;\n        lv = 0;\n        lvl = 3;\n        n = \"\\U7684\\U65e0\\U8bed\\U7b80\\U76f4\\U80fd\\U6c89\\U9ed8\\U6574\\U4e2a\\U5b87\\U5b99\";\n        p = \"http:\/\/tx1.douguo.net\/upload\/photo\/8\/3\/7\/70_u1565116728030329144829.jpg\";\n        \"progress_image\" = \"\";\n        \"recipes_count_text\" = \"\";\n        relationship = \"-1\";\n        title = \"\";\n        v = 0;\n        \"verified_image\" = \"\";\n    };\n}"
      ],
      "ecs" : 1,
      "hq" : 1,
      "original_photo_path" : "http:\/\/i1.douguo.net\/upload\/caiku\/f\/a\/c\/yuan_fa549cb7a4aa0a17530ca8f306dcc31c.jpeg",
      "vfurl" : "",
      "story_dsp" : [

      ],
      "clicks" : "3155",
      "cookstory" : "这个配方制作出来的烤饼柔软不失韧劲，蒜香浓郁，配上地道的印度菜，不出门就能品尝美味了。",
      "vc" : "10368",
      "display_ingredient" : 1,
      "top_mdsp" : [

      ],
      "tags" : [

      ],
      "sr" : "",
      "packages_id" : [

      ],
      "share_info" : {
        "mini_program" : [

        ],
        "object_id" : "3148960",
        "name" : "印度大蒜烤饼-会做饭很酷!",
        "s_d" : "印度大蒜烤饼-会做饭很酷!",
        "s_u" : "http:\/\/m.douguo.com\/cookbook\/3148960.html",
        "qr_image" : "",
        "infos" : [
          {
            "s_d" : "#学做饭用豆果美食#  我在@豆果美食 分享了【印度大蒜烤饼-会做饭很酷!】，制作美食的过程承载了我生活中的热情，和我一起感受这份小确幸吧！查看图片了解菜谱（你喜欢的美食都在这里！https:\/\/m.weibo.cn\/p\/100404i33631）#会做饭很酷# ",
            "channel" : "1",
            "s_u" : "",
            "object_id" : "3148960",
            "name" : "印度大蒜烤饼-会做饭很酷!",
            "qr_image" : "",
            "mini_program" : [

            ],
            "image" : "https:\/\/cp1.douguo.com\/upload\/caiku\/f\/a\/c\/fa549cb7a4aa0a17530ca8f306dcc31c.jpeg"
          },
          {
            "image" : "https:\/\/cp1.douguo.com\/upload\/caiku\/f\/a\/c\/fa549cb7a4aa0a17530ca8f306dcc31c.jpeg",
            "qr_image" : "",
            "channel" : "7",
            "object_id" : "3148960",
            "mini_program" : [

            ],
            "s_u" : "http:\/\/m.douguo.com\/cookbook\/3148960.html",
            "s_d" : "印度大蒜烤饼-会做饭很酷!",
            "name" : "印度大蒜烤饼-会做饭很酷!"
          },
          {
            "channel" : "8",
            "qr_image" : "",
            "name" : "印度大蒜烤饼-会做饭很酷!",
            "mini_program" : [

            ],
            "s_d" : "印度大蒜烤饼-会做饭很酷!",
            "image" : "https:\/\/cp1.douguo.com\/upload\/caiku\/f\/a\/c\/fa549cb7a4aa0a17530ca8f306dcc31c.jpeg",
            "s_u" : "http:\/\/m.douguo.com\/cookbook\/3148960.html",
            "object_id" : "3148960"
          }
        ],
        "image" : "https:\/\/cp1.douguo.com\/upload\/caiku\/f\/a\/c\/fa549cb7a4aa0a17530ca8f306dcc31c.jpeg"
      },
      "recent_comments" : [

      ],
      "rewarded_video_dsp" : [

      ],
      "thumb_height" : 0,
      "cookwares" : [

      ],
      "recommend_label" : "1.0万人看过",
      "create_time" : "2021-11-22 12:58:20",
      "author_verified" : 0,
      "brand_day_dsp" : [

      ],
      "favo_counts_text" : "13",
      "author" : "禁不住诱惑的馋猫",
      "ipit" : 0,
      "recipe_list_tags" : [
        {
          "background_end_color" : "#F4F5F5",
          "text" : "关注的人",
          "background_border_color" : "",
          "text_color" : "#141515",
          "background_start_color" : "#F4F5F5",
          "jump_url" : "",
          "right_image" : ""
        },
        {
          "text" : "内容详细",
          "right_image" : "",
          "jump_url" : "",
          "text_color" : "#141515",
          "background_start_color" : "#F4F5F5",
          "background_end_color" : "#F4F5F5",
          "background_border_color" : ""
        }
      ],
      "ipt" : "",
      "bs" : [

      ],
      "ipoi" : "",
      "cookstep" : [
        {
          "thumb" : "https:\/\/i1.douguo.com\/upload\/caiku\/a\/0\/e\/140_a0afdbd1200aafa73b46c46e9179bc5e.jpeg",
          "image_height" : 1706,
          "image_width" : 1280,
          "image" : "https:\/\/i1.douguo.com\/upload\/caiku\/a\/0\/e\/a0afdbd1200aafa73b46c46e9179bc5e.jpeg",
          "frame" : "-1",
          "position" : 1,
          "content" : "所有面团食材准备好，大蒜切碎放入面包机，选择揉面功能。没有机器也可将材料混合后，手揉至手套膜状态，盖好面团发酵至两倍大"
        },
        {
          "content" : "取一个勺子，根据需要准备大蒜香菜奶油酱。蒜蓉：香菜：黄油按1:1:1比例准备好，不必严格，大致就好",
          "position" : 2,
          "frame" : "-1",
          "image" : "https:\/\/i1.douguo.com\/upload\/caiku\/f\/e\/e\/fe27ef3e4491c439c594a717171a164e.jpeg",
          "image_width" : 1280,
          "image_height" : 1002,
          "thumb" : "https:\/\/i1.douguo.com\/upload\/caiku\/f\/e\/e\/140_fe27ef3e4491c439c594a717171a164e.jpeg"
        },
        {
          "image_height" : 960,
          "position" : 3,
          "image" : "https:\/\/i1.douguo.com\/upload\/caiku\/2\/2\/7\/22c332acd8fc362587af4013bf9d3117.jpeg",
          "content" : "发酵好的面团分成5份，每份约104克，排气后揉成团，醒面15分钟",
          "image_width" : 1280,
          "frame" : "-1",
          "thumb" : "https:\/\/i1.douguo.com\/upload\/caiku\/2\/2\/7\/140_22c332acd8fc362587af4013bf9d3117.jpeg"
        },
        {
          "image_width" : 1280,
          "frame" : "-1",
          "image_height" : 960,
          "thumb" : "https:\/\/i1.douguo.com\/upload\/caiku\/c\/0\/7\/140_c0e248308db735acb8580c21109f4107.jpeg",
          "image" : "https:\/\/i1.douguo.com\/upload\/caiku\/c\/0\/7\/c0e248308db735acb8580c21109f4107.jpeg",
          "position" : 4,
          "content" : "面团擀成椭圆形，放入预热的锅中，两面煎至金黄"
        },
        {
          "image_width" : 1280,
          "position" : 5,
          "image_height" : 1801,
          "content" : "抹上大蒜香菜奶油酱，出锅",
          "image" : "https:\/\/i1.douguo.com\/upload\/caiku\/0\/d\/6\/0d2687d451a933f20b51353b1acf12a6.jpeg",
          "frame" : "-1",
          "thumb" : "https:\/\/i1.douguo.com\/upload\/caiku\/0\/d\/6\/140_0d2687d451a933f20b51353b1acf12a6.jpeg"
        }
      ],
      "mid_mdsp" : [

      ],
      "advice" : {
        "da" : {
          "iu" : "https:\/\/i1.douguo.com\/upload\/banner\/f\/4\/d\/f48877e53c37759bc12ac494be82ec8d.png",
          "t" : "查看详细分析",
          "url" : "https:\/\/m.douguo.com\/recipe\/nutrient_self\/3148960"
        },
        "at" : "一道菜对心血管健康～",
        "has" : [
          {
            "t" : "低胆固醇",
            "url" : "recipes:\/\/www.douguo.com\/simplerecipelist?t=低胆固醇&id=低胆固醇"
          }
        ]
      },
      "ph" : 1920,
      "rpid" : 0,
      "cook_id" : "3148960",
      "levelid" : 2,
      "rpt" : "",
      "dishes" : [

      ],
      "minor" : [

      ],
      "title_ad" : [

      ],
      "related_ads" : [

      ],
      "recommendation_tag" : "",
      "v_u" : "",
      "cookstorys" : [
        {
          "c" : "这个配方制作出来的烤饼柔软不失韧劲，蒜香浓郁，配上地道的印度菜，不出门就能品尝美味了。",
          "u" : "",
          "icon" : "",
          "color" : "",
          "id" : 0,
          "type" : 0
        }
      ],
      "views_count_text" : "1.0万",
      "photo_path" : "https:\/\/i1.douguo.com\/upload\/caiku\/f\/a\/c\/600_fa549cb7a4aa0a17530ca8f306dcc31c.jpeg",
      "purl" : "",
      "notes" : [

      ],
      "recommended" : 0,
      "vu" : "",
      "title" : "印度大蒜烤饼",
      "ipci" : "",
      "comments_count_text" : "1",
      "cook_time_image" : "https:\/\/i1.douguo.com\/upload\/banner\/1551423815.png",
      "rdsps" : [

      ],
      "guide_image" : "",
      "author_photo" : "http:\/\/tx1.douguo.net\/upload\/photo\/c\/e\/a\/70_cebe23ca481191366537113e5b84de4a.jpeg",
      "rrps" : [

      ],
      "ipia" : [

      ],
      "ssu" : "",
      "rips" : 0,
      "collect_status" : 0,
      "dish_count_text" : ""
    }
  },
  "state" : "success",
  "status" : 0
}