{
  "state" : "success",
  "status" : 0,
  "result" : {
    "recipe" : {
      "original_photo_path" : "http:\/\/i1.douguo.net\/upload\/caiku\/a\/d\/8\/yuan_ad17a8a8b1d8dc192959136c011c9f08.jpg",
      "top_mdsp" : [

      ],
      "rate_count" : 101,
      "create_time" : "2016-09-27 23:13:15",
      "v_u" : "",
      "display_ingredient" : 1,
      "related_ads" : [

      ],
      "notes" : [

      ],
      "ipci" : "",
      "image" : "http:\/\/i1.douguo.net\/upload\/caiku\/a\/d\/8\/300_ad17a8a8b1d8dc192959136c011c9f08.jpg",
      "rcs" : [

      ],
      "vc" : "1799105",
      "purl" : "",
      "advice" : {
        "at" : "可以预防血栓形成～",
        "has" : [
          {
            "url" : "recipes:\/\/www.douguo.com\/simplerecipelist?t=低饱和脂肪&id=低饱和脂肪",
            "t" : "低饱和脂肪"
          },
          {
            "t" : "富含维生素B1",
            "url" : "recipes:\/\/www.douguo.com\/simplerecipelist?t=富含维生素B1&id=富含维生素B1"
          }
        ],
        "da" : {
          "iu" : "https:\/\/i1.douguo.com\/upload\/banner\/f\/4\/d\/f48877e53c37759bc12ac494be82ec8d.png",
          "url" : "https:\/\/m.douguo.com\/recipe\/nutrient_self\/1452233",
          "t" : "查看详细分析"
        }
      },
      "cook_difficulty" : "切墩(初级)",
      "dish_count" : 154,
      "eu" : "recipes:\/\/www.douguo.com\/postdetail?id=242016",
      "ssu" : "",
      "recipe_tags" : [
        "{\n    \"background_border_color\" = \"\";\n    \"background_end_color\" = \"#F5D39F\";\n    \"background_start_color\" = \"#FAE9CD\";\n    index = 1905;\n    \"jump_url\" = \"https:\/\/m.douguo.com\/activity\/page\/xuezuo?isapp=1&type=honor\";\n    \"right_image\" = \"https:\/\/i1.douguo.com\/upload\/caiku\/0\/a\/b\/0a317d98c713e7e7d0d47ed003f2d93b.png\";\n    text = \"\\U8363\\U8a89\\U6bbf\\U5802\";\n    \"text_color\" = \"#413C32\";\n}"
      ],
      "recommended" : 0,
      "rpst" : "",
      "comments" : [
        "{\n    ac = \"#999999\";\n    at = \"\";\n    ccc = 8;\n    \"child_comments\" =     (\n                {\n            ac = \"#999999\";\n            at = \"\";\n            ccc = 0;\n            city = \"\";\n            cmc = 2;\n            content =             (\n                                {\n                    c = \"  \\U4e09\\U52fa\\U7cd6\\U3002\\U3002\\U3002\\U4f1a\\U4e0d\\U4f1a\\U751c\\U8fc7\\U5934\\U4e86\";\n                }\n            );\n            ia = 0;\n            id = 4485999;\n            \"ip_address_location\" = \"\";\n            like = 0;\n            \"like_count\" = 0;\n            \"reply_id\" = 4485845;\n            \"reply_user\" =             {\n                \"followers_count_text\" = \"\";\n                id = 18625935;\n                \"is_prime\" = 0;\n                lv = 0;\n                lvl = 6;\n                n = \"Annie\\U7684\\U65e9\\U9910\\U65e5\\U8bb0\";\n                p = \"http:\/\/tx1.douguo.net\/upload\/photo\/7\/a\/0\/70_u73377729198349101804.jpeg\";\n                \"progress_image\" = \"\";\n                \"recipes_count_text\" = \"\";\n                relationship = \"-1\";\n                title = \"\";\n                v = 1;\n                \"verified_image\" = \"\";\n            };\n            \"sticker_icon\" =             (\n            );\n            time = \"2017-02-23 03:28:43\";\n            u =             {\n                \"followers_count_text\" = \"\";\n                id = 18143047;\n                \"is_prime\" = 0;\n                lv = 0;\n                lvl = 1;\n                n = \"\\U4ee5\\U4f26\\U5927\\U867e\";\n                p = \"http:\/\/tx1.douguo.net\/upload\/photo\/f\/7\/7\/70_u69707124807820101908.jpg\";\n                \"progress_image\" = \"\";\n                \"recipes_count_text\" = \"\";\n                relationship = \"-1\";\n                title = \"\";\n                v = 0;\n                \"verified_image\" = \"\";\n            };\n        },\n                {\n            ac = \"#999999\";\n            at = \"\";\n            ccc = 0;\n            city = \"\";\n            cmc = 2;\n            content =             (\n                                {\n                    c = \" \\U4e0d\\U4f1a\\U5416\\Uff0c\\U8fd8\\U6709\\U56db\\U52fa\\U918b\\U5462\\Uff5e\";\n                }\n            );\n            ia = 0;\n            id = 4486031;\n            \"ip_address_location\" = \"\";\n            like = 0;\n            \"like_count\" = 0;\n            \"reply_id\" = 4485999;\n            \"reply_user\" =             {\n                \"followers_count_text\" = \"\";\n                id = 18143047;\n                \"is_prime\" = 0;\n                lv = 0;\n                lvl = 1;\n                n = \"\\U4ee5\\U4f26\\U5927\\U867e\";\n                p = \"http:\/\/tx1.douguo.net\/upload\/photo\/f\/7\/7\/70_u69707124807820101908.jpg\";\n                \"progress_image\" = \"\";\n                \"recipes_count_text\" = \"\";\n                relationship = \"-1\";\n                title = \"\";\n                v = 0;\n                \"verified_image\" = \"\";\n            };\n            \"sticker_icon\" =             (\n            );\n            time = \"2017-02-23 03:47:15\";\n            u =             {\n                \"followers_count_text\" = \"\";\n                id = 18625935;\n                \"is_prime\" = 0;\n                lv = 0;\n                lvl = 6;\n                n = \"Annie\\U7684\\U65e9\\U9910\\U65e5\\U8bb0\";\n                p = \"http:\/\/tx1.douguo.net\/upload\/photo\/7\/a\/0\/70_u73377729198349101804.jpeg\";\n                \"progress_image\" = \"\";\n                \"recipes_count_text\" = \"\";\n                relationship = \"-1\";\n                title = \"\";\n                v = 1;\n                \"verified_image\" = \"\";\n            };\n        }\n    );\n    city = \"\";\n    cmc = 2;\n    content =     (\n                {\n            c = \"12\\U5b57\\U53e3\\U8bc0\\Uff1a\\U4e00\\U52fa\\U9152\\Uff0c\\U4e8c\\U52fa\\U9171\\Uff08\\U6cb9\\Uff09\\Uff0c\\U4e09\\U52fa\\U7cd6\\Uff0c\\U56db\\U52fa\\U918b\\U3002\\U6211\\U5988\\U5988\\U4e5f\\U7528\\U7684\\U8fd9\\U4e2a\\U65b9\\U5b50\\Uff0c\\U4eb2\\U6d4b\\U597d\\U7528~ \";\n        }\n    );\n    ia = 0;\n    id = 4485845;\n    \"ip_address_location\" = \"\";\n    like = 0;\n    \"like_count\" = 31;\n    \"reply_id\" = 0;\n    \"sticker_icon\" =     (\n    );\n    time = \"2017-02-23 01:43:52\";\n    u =     {\n        \"followers_count_text\" = \"\";\n        id = 18625935;\n        \"is_prime\" = 0;\n        lv = 0;\n        lvl = 6;\n        n = \"Annie\\U7684\\U65e9\\U9910\\U65e5\\U8bb0\";\n        p = \"http:\/\/tx1.douguo.net\/upload\/photo\/7\/a\/0\/70_u73377729198349101804.jpeg\";\n        \"progress_image\" = \"\";\n        \"recipes_count_text\" = \"\";\n        relationship = \"-1\";\n        title = \"\";\n        v = 1;\n        \"verified_image\" = \"\";\n    };\n}",
        "{\n    ac = \"#999999\";\n    at = \"\";\n    ccc = 4;\n    \"child_comments\" =     (\n                {\n            ac = \"#999999\";\n            at = \"\";\n            ccc = 0;\n            city = \"\";\n            cmc = 2;\n            content =             (\n                                {\n                    c = \"  \\U54c8\\U54c8\\Uff0c\\U8c22\\U8c22\\U559c\\U6b22\";\n                }\n            );\n            ia = 1;\n            id = 4143386;\n            \"ip_address_location\" = \"\";\n            like = 0;\n            \"like_count\" = 0;\n            \"reply_id\" = 4142636;\n            \"reply_user\" =             {\n                \"followers_count_text\" = \"\";\n                id = 17517966;\n                \"is_prime\" = 0;\n                lv = 0;\n                lvl = 1;\n                n = \"\\U7537\\U4eba\\U6837_\\U6696\\U5fc3\";\n                p = \"http:\/\/tx1.douguo.net\/upload\/photo\/1\/e\/8\/70_u64064877203797143248.jpg\";\n                \"progress_image\" = \"\";\n                \"recipes_count_text\" = \"\";\n                relationship = \"-1\";\n                title = \"\";\n                v = 0;\n                \"verified_image\" = \"\";\n            };\n            \"sticker_icon\" =             (\n            );\n            time = \"2016-09-29 11:44:09\";\n            u =             {\n                \"followers_count_text\" = \"\";\n                id = 4294565;\n                \"is_prime\" = 0;\n                lv = 0;\n                lvl = 4;\n                n = \"\\U6f2a\\U5f08_\\U6728\\U4e00\";\n                p = \"http:\/\/tx1.douguo.net\/upload\/photo\/7\/8\/7\/70_u9841343133926101200202.jpg\";\n                \"progress_image\" = \"\";\n                \"recipes_count_text\" = \"\";\n                relationship = \"-1\";\n                title = \"\";\n                v = 1;\n                \"verified_image\" = \"\";\n            };\n        },\n                {\n            ac = \"#999999\";\n            at = \"\";\n            ccc = 0;\n            city = \"\";\n            cmc = 2;\n            content =             (\n                                {\n                    c = \" \\U7b2c\\U4e00\\U6b21\\U5c1d\\U8bd5\\U3002\\U597d\\U597d\\U5403\\Ud83d\\Ude18\";\n                }\n            );\n            ia = 0;\n            id = 7694988;\n            \"ip_address_location\" = \"\";\n            like = 0;\n            \"like_count\" = 0;\n            \"reply_id\" = 4142636;\n            \"reply_user\" =             {\n                \"followers_count_text\" = \"\";\n                id = 17517966;\n                \"is_prime\" = 0;\n                lv = 0;\n                lvl = 1;\n                n = \"\\U7537\\U4eba\\U6837_\\U6696\\U5fc3\";\n                p = \"http:\/\/tx1.douguo.net\/upload\/photo\/1\/e\/8\/70_u64064877203797143248.jpg\";\n                \"progress_image\" = \"\";\n                \"recipes_count_text\" = \"\";\n                relationship = \"-1\";\n                title = \"\";\n                v = 0;\n                \"verified_image\" = \"\";\n            };\n            \"sticker_icon\" =             (\n            );\n            time = \"2020-02-29 13:28:39\";\n            u =             {\n                \"followers_count_text\" = \"\";\n                id = 25027689;\n                \"is_prime\" = 0;\n                lv = 0;\n                lvl = 1;\n                n = \"Daring\\U00b0\";\n                p = \"http:\/\/tx1.douguo.net\/upload\/photo\/b\/d\/6\/70_u821079416218132946.jpeg\";\n                \"progress_image\" = \"\";\n                \"recipes_count_text\" = \"\";\n                relationship = \"-1\";\n                title = \"\";\n                v = 0;\n                \"verified_image\" = \"\";\n            };\n        }\n    );\n    city = \"\";\n    cmc = 2;\n    content =     (\n                {\n            c = \"\\U8001\\U60f3\\U5403\\U4e86\\Uff01\\Uff01\\U770b\\U7740\\U6d41\\U53e3\\U6c34\";\n        }\n    );\n    ia = 0;\n    id = 4142636;\n    \"ip_address_location\" = \"\";\n    like = 0;\n    \"like_count\" = 3;\n    \"reply_id\" = 0;\n    \"sticker_icon\" =     (\n    );\n    time = \"2016-09-29 06:10:56\";\n    u =     {\n        \"followers_count_text\" = \"\";\n        id = 17517966;\n        \"is_prime\" = 0;\n        lv = 0;\n        lvl = 1;\n        n = \"\\U7537\\U4eba\\U6837_\\U6696\\U5fc3\";\n        p = \"http:\/\/tx1.douguo.net\/upload\/photo\/1\/e\/8\/70_u64064877203797143248.jpg\";\n        \"progress_image\" = \"\";\n        \"recipes_count_text\" = \"\";\n        relationship = \"-1\";\n        title = \"\";\n        v = 0;\n        \"verified_image\" = \"\";\n    };\n}",
        "{\n    ac = \"#999999\";\n    at = \"\";\n    ccc = 2;\n    \"child_comments\" =     (\n                {\n            ac = \"#999999\";\n            at = \"\";\n            ccc = 0;\n            city = \"\";\n            cmc = 2;\n            content =             (\n                                {\n                    c = \" \\U7b2c\\U56db\\U6b65\\Uff0c\\U548c\\U90a3\\U4e9b\\U8c03\\U6599\\U4e00\\U8d77\\U653e \";\n                }\n            );\n            ia = 1;\n            id = 4483003;\n            \"ip_address_location\" = \"\";\n            like = 0;\n            \"like_count\" = 0;\n            \"reply_id\" = 4482455;\n            \"reply_user\" =             {\n                \"followers_count_text\" = \"\";\n                id = 19203831;\n                \"is_prime\" = 0;\n                lv = 0;\n                lvl = 1;\n                n = \"\/shd*\\U7d2b\\U5fae\\U661f\";\n                p = \"http:\/\/tx1.douguo.net\/upload\/photo\/9\/6\/b\/70_u81266566895568133754.jpg\";\n                \"progress_image\" = \"\";\n                \"recipes_count_text\" = \"\";\n                relationship = \"-1\";\n                title = \"\";\n                v = 0;\n                \"verified_image\" = \"\";\n            };\n            \"sticker_icon\" =             (\n            );\n            time = \"2017-02-21 08:53:28\";\n            u =             {\n                \"followers_count_text\" = \"\";\n                id = 4294565;\n                \"is_prime\" = 0;\n                lv = 0;\n                lvl = 4;\n                n = \"\\U6f2a\\U5f08_\\U6728\\U4e00\";\n                p = \"http:\/\/tx1.douguo.net\/upload\/photo\/7\/8\/7\/70_u9841343133926101200202.jpg\";\n                \"progress_image\" = \"\";\n                \"recipes_count_text\" = \"\";\n                relationship = \"-1\";\n                title = \"\";\n                v = 1;\n                \"verified_image\" = \"\";\n            };\n        },\n                {\n            ac = \"#999999\";\n            at = \"\";\n            ccc = 0;\n            city = \"\";\n            cmc = 2;\n            content =             (\n                                {\n                    c = \" \\U8c22\\U8c22\";\n                }\n            );\n            ia = 0;\n            id = 4483131;\n            \"ip_address_location\" = \"\";\n            like = 0;\n            \"like_count\" = 0;\n            \"reply_id\" = 4483003;\n            \"reply_user\" =             {\n                \"followers_count_text\" = \"\";\n                id = 4294565;\n                \"is_prime\" = 0;\n                lv = 0;\n                lvl = 4;\n                n = \"\\U6f2a\\U5f08_\\U6728\\U4e00\";\n                p = \"http:\/\/tx1.douguo.net\/upload\/photo\/7\/8\/7\/70_u9841343133926101200202.jpg\";\n                \"progress_image\" = \"\";\n                \"recipes_count_text\" = \"\";\n                relationship = \"-1\";\n                title = \"\";\n                v = 1;\n                \"verified_image\" = \"\";\n            };\n            \"sticker_icon\" =             (\n            );\n            time = \"2017-02-21 10:05:18\";\n            u =             {\n                \"followers_count_text\" = \"\";\n                id = 19203831;\n                \"is_prime\" = 0;\n                lv = 0;\n                lvl = 1;\n                n = \"\/shd*\\U7d2b\\U5fae\\U661f\";\n                p = \"http:\/\/tx1.douguo.net\/upload\/photo\/9\/6\/b\/70_u81266566895568133754.jpg\";\n                \"progress_image\" = \"\";\n                \"recipes_count_text\" = \"\";\n                relationship = \"-1\";\n                title = \"\";\n                v = 0;\n                \"verified_image\" = \"\";\n            };\n        }\n    );\n    city = \"\";\n    cmc = 2;\n    content =     (\n                {\n            c = \"\\U751f\\U62bd\\U4ec0\\U4e48\\U65f6\\U5019\\U653e\";\n        }\n    );\n    ia = 0;\n    id = 4482455;\n    \"ip_address_location\" = \"\";\n    like = 0;\n    \"like_count\" = 0;\n    \"reply_id\" = 0;\n    \"sticker_icon\" =     (\n    );\n    time = \"2017-02-21 02:59:17\";\n    u =     {\n        \"followers_count_text\" = \"\";\n        id = 19203831;\n        \"is_prime\" = 0;\n        lv = 0;\n        lvl = 1;\n        n = \"\/shd*\\U7d2b\\U5fae\\U661f\";\n        p = \"http:\/\/tx1.douguo.net\/upload\/photo\/9\/6\/b\/70_u81266566895568133754.jpg\";\n        \"progress_image\" = \"\";\n        \"recipes_count_text\" = \"\";\n        relationship = \"-1\";\n        title = \"\";\n        v = 0;\n        \"verified_image\" = \"\";\n    };\n}"
      ],
      "recent_comments" : [

      ],
      "sr" : "",
      "dish_count_text" : "154",
      "recipe_list_tags" : [
        {
          "jump_url" : "",
          "text" : "荣誉殿堂",
          "background_border_color" : "",
          "right_image" : "https:\/\/i1.douguo.com\/upload\/caiku\/0\/a\/b\/0a317d98c713e7e7d0d47ed003f2d93b.png",
          "background_end_color" : "#F5D39F",
          "background_start_color" : "#FAE9CD",
          "text_color" : "#413C32"
        },
        {
          "text" : "关注的人",
          "background_end_color" : "#F4F5F5",
          "background_border_color" : "",
          "background_start_color" : "#F4F5F5",
          "jump_url" : "",
          "right_image" : "",
          "text_color" : "#141515"
        },
        {
          "background_end_color" : "#F4F5F5",
          "right_image" : "",
          "jump_url" : "",
          "background_start_color" : "#F4F5F5",
          "text" : "值得pick",
          "text_color" : "#141515",
          "background_border_color" : ""
        }
      ],
      "clicks" : "1071785",
      "cook_id" : "1452233",
      "author" : "漪弈_木一",
      "recommendation_tag" : "",
      "share_info" : {
        "s_d" : "快手糖醋排骨-会做饭很酷!",
        "s_u" : "http:\/\/m.douguo.com\/cookbook\/1452233.html",
        "mini_program" : [

        ],
        "qr_image" : "",
        "infos" : [
          {
            "object_id" : "1452233",
            "image" : "https:\/\/cp1.douguo.com\/upload\/caiku\/a\/d\/8\/ad17a8a8b1d8dc192959136c011c9f08.jpg",
            "s_d" : "#学做饭用豆果美食# 我在@豆果美食 分享了【快手糖醋排骨-会做饭很酷!】，帅哥美眉们～你们喜欢的美食来咯！快来跟我一起做吧～查看图片了解菜谱（想要获取更多美食就看这https:\/\/m.weibo.cn\/p\/100404i33631）#会做饭很酷#",
            "channel" : "1",
            "qr_image" : "",
            "s_u" : "",
            "name" : "快手糖醋排骨-会做饭很酷!",
            "mini_program" : [

            ]
          },
          {
            "name" : "快手糖醋排骨-会做饭很酷!",
            "channel" : "7",
            "s_u" : "http:\/\/m.douguo.com\/cookbook\/1452233.html",
            "s_d" : "快手糖醋排骨-会做饭很酷!",
            "image" : "https:\/\/cp1.douguo.com\/upload\/caiku\/a\/d\/8\/ad17a8a8b1d8dc192959136c011c9f08.jpg",
            "qr_image" : "",
            "mini_program" : [

            ],
            "object_id" : "1452233"
          },
          {
            "object_id" : "1452233",
            "qr_image" : "",
            "mini_program" : [

            ],
            "s_d" : "快手糖醋排骨-会做饭很酷!",
            "image" : "https:\/\/cp1.douguo.com\/upload\/caiku\/a\/d\/8\/ad17a8a8b1d8dc192959136c011c9f08.jpg",
            "channel" : "8",
            "name" : "快手糖醋排骨-会做饭很酷!",
            "s_u" : "http:\/\/m.douguo.com\/cookbook\/1452233.html"
          }
        ],
        "image" : "https:\/\/cp1.douguo.com\/upload\/caiku\/a\/d\/8\/ad17a8a8b1d8dc192959136c011c9f08.jpg",
        "name" : "快手糖醋排骨-会做饭很酷!",
        "object_id" : "1452233"
      },
      "tips" : "1.我用的是那种大的勺子，差不多15ML，具体量根据自己的调节，掌握好比例就行；\n2.糖和醋的比例可以调换，看口味了；\n3.提前浸泡和焯水的步骤最好不要少，这样排骨吃起来干净，也没有腥味。",
      "hqu" : "recipes:\/\/www.douguo.com\/notedetail?id=21162253",
      "author_photo" : "http:\/\/tx1.douguo.net\/upload\/photo\/7\/8\/7\/70_u9841343133926101200202.jpg",
      "comments_count_text" : "122",
      "major" : [
        {
          "title" : "排骨",
          "tu" : "https:\/\/m.douguo.com\/ingredients\/排骨\/detailmaterial",
          "note" : "500g"
        }
      ],
      "rsm" : "该功能暂停使用",
      "cookstorys" : [
        {
          "u" : "",
          "color" : "",
          "c" : "为懒人量身定做的快手版糖醋排骨，步骤简单好记，比例记好“1、2、3、4”就妥妥的啦！味道却是一点都不会打折扣，上桌就被吃光~\n喜欢糖醋排骨的不妨一试。",
          "type" : 0,
          "id" : 0,
          "icon" : ""
        }
      ],
      "old_comments" : [

      ],
      "act_des" : "",
      "author_id" : 4294565,
      "rrps" : [

      ],
      "cook_time_image" : "https:\/\/i1.douguo.com\/upload\/banner\/1551424341.png",
      "cook_difficulty_image" : "https:\/\/i1.douguo.com\/upload\/banner\/1551424390.png",
      "vfurl" : "",
      "brand_day_dsp" : [

      ],
      "first_level_comment_count" : 84,
      "ecs" : 0,
      "comments_count" : 122,
      "packages_id" : [

      ],
      "cookwares" : [

      ],
      "rpt" : "",
      "cook_time" : "10-30分钟",
      "ipia" : [

      ],
      "cookstory" : "为懒人量身定做的快手版糖醋排骨，步骤简单好记，比例记好“1、2、3、4”就妥妥的啦！味道却是一点都不会打折扣，上桌就被吃光~\n喜欢糖醋排骨的不妨一试。",
      "guide_image" : "",
      "rips" : 0,
      "thumb_height" : 0,
      "ipurl" : "",
      "rewarded_video_dsp" : [

      ],
      "views_count_text" : "179.9万",
      "title_ad" : [

      ],
      "rrpt" : "",
      "story_dsp" : [

      ],
      "levelid" : 2,
      "rdsps" : [

      ],
      "favo_counts" : 37526,
      "ipt" : "",
      "thumb_path" : "https:\/\/i1.douguo.com\/upload\/caiku\/a\/d\/8\/300_ad17a8a8b1d8dc192959136c011c9f08.jpg",
      "dishes" : [

      ],
      "pw" : 800,
      "rate_show" : 1,
      "cookstep" : [
        {
          "image" : "https:\/\/i1.douguo.com\/upload\/caiku\/b\/c\/9\/bcce2a9f6aaf252ce1408a86af9fd6b9.jpg",
          "content" : "排骨提前洗净浸泡去血水，冷水入锅焯，开锅后煮5分钟，沥干水分备用；",
          "thumb" : "https:\/\/i1.douguo.com\/upload\/caiku\/b\/c\/9\/140_bcce2a9f6aaf252ce1408a86af9fd6b9.jpg",
          "frame" : "-1",
          "image_width" : 1024,
          "position" : 1,
          "image_height" : 768
        },
        {
          "position" : 2,
          "thumb" : "https:\/\/i1.douguo.com\/upload\/caiku\/8\/3\/5\/140_83fbad34e1c00f21635dcc55634b8835.jpg",
          "frame" : "-1",
          "image_width" : 1024,
          "image" : "https:\/\/i1.douguo.com\/upload\/caiku\/8\/3\/5\/83fbad34e1c00f21635dcc55634b8835.jpg",
          "content" : "锅中少许底油爆香姜片；",
          "image_height" : 768
        },
        {
          "thumb" : "https:\/\/i1.douguo.com\/upload\/caiku\/2\/a\/e\/140_2a0802f724650a7899511da868631f7e.jpg",
          "content" : "放入排骨，小火煸至表面变色微焦；",
          "image_height" : 768,
          "image" : "https:\/\/i1.douguo.com\/upload\/caiku\/2\/a\/e\/2a0802f724650a7899511da868631f7e.jpg",
          "position" : 3,
          "image_width" : 1024,
          "frame" : "-1"
        },
        {
          "content" : "烹入一勺料酒，加入酱油；",
          "position" : 4,
          "image_width" : 1024,
          "frame" : "-1",
          "thumb" : "https:\/\/i1.douguo.com\/upload\/caiku\/8\/1\/6\/140_81fde9a0b2e754aef625103b7e60f1e6.jpg",
          "image_height" : 768,
          "image" : "https:\/\/i1.douguo.com\/upload\/caiku\/8\/1\/6\/81fde9a0b2e754aef625103b7e60f1e6.jpg"
        },
        {
          "image_width" : 1024,
          "thumb" : "https:\/\/i1.douguo.com\/upload\/caiku\/7\/6\/b\/140_768aba06ebadcf4a931e2877e1ac3f7b.jpg",
          "content" : "再烹入醋和糖；",
          "frame" : "-1",
          "image" : "https:\/\/i1.douguo.com\/upload\/caiku\/7\/6\/b\/768aba06ebadcf4a931e2877e1ac3f7b.jpg",
          "image_height" : 768,
          "position" : 5
        },
        {
          "content" : "翻炒均匀；",
          "image_height" : 768,
          "frame" : "-1",
          "position" : 6,
          "thumb" : "https:\/\/i1.douguo.com\/upload\/caiku\/9\/5\/6\/140_959d90dbbe0974b4235b0078ec69cb06.jpg",
          "image" : "https:\/\/i1.douguo.com\/upload\/caiku\/9\/5\/6\/959d90dbbe0974b4235b0078ec69cb06.jpg",
          "image_width" : 1024
        },
        {
          "image" : "https:\/\/i1.douguo.com\/upload\/caiku\/1\/9\/a\/192ed5d26b3f8dce09552dfe67e1cd1a.jpg",
          "frame" : "-1",
          "image_width" : 1024,
          "position" : 7,
          "image_height" : 768,
          "thumb" : "https:\/\/i1.douguo.com\/upload\/caiku\/1\/9\/a\/140_192ed5d26b3f8dce09552dfe67e1cd1a.jpg",
          "content" : "倒入没过排骨的水，中小火25min；"
        },
        {
          "image" : "https:\/\/i1.douguo.com\/upload\/caiku\/1\/5\/d\/15b73dd20033aefa12217dc9f33c337d.jpg",
          "position" : 8,
          "frame" : "-1",
          "image_height" : 768,
          "image_width" : 1024,
          "content" : "撒少许盐调味，大火收汁，",
          "thumb" : "https:\/\/i1.douguo.com\/upload\/caiku\/1\/5\/d\/140_15b73dd20033aefa12217dc9f33c337d.jpg"
        },
        {
          "content" : "撒芝麻装饰，出锅。",
          "image" : "https:\/\/i1.douguo.com\/upload\/caiku\/e\/3\/1\/e30d550d9bbde0ae7345ba86880ffe41.jpg",
          "image_width" : 2592,
          "position" : 9,
          "image_height" : 1944,
          "frame" : "-1",
          "thumb" : "https:\/\/i1.douguo.com\/upload\/caiku\/e\/3\/1\/140_e30d550d9bbde0ae7345ba86880ffe41.jpg"
        }
      ],
      "ipoi" : "",
      "photo_path" : "https:\/\/i1.douguo.com\/upload\/caiku\/a\/d\/8\/600_ad17a8a8b1d8dc192959136c011c9f08.jpg",
      "user" : {
        "coursecount" : 0,
        "user_cover" : "",
        "followers_count" : 0,
        "user_large_photo" : "http:\/\/tx1.douguo.net\/upload\/photo\/7\/8\/7\/yuan_u9841343133926101200202.jpg",
        "location" : 0,
        "subscription_article_count" : 0,
        "verified" : 1,
        "user_photo" : "http:\/\/tx1.douguo.net\/upload\/photo\/7\/8\/7\/70_u9841343133926101200202.jpg",
        "email" : "",
        "subscription" : 0,
        "diaries_count" : 0,
        "point" : 0,
        "userid" : "4294565",
        "lvl" : 4,
        "favor_diaries_count" : 0,
        "recipes_count" : 0,
        "introduction" : "",
        "mobile" : "",
        "pc" : 0,
        "qzone_nick" : "",
        "gender" : 2,
        "is_prime" : 0,
        "regist_time" : "",
        "age" : "",
        "favorites_count" : 0,
        "verified_url" : "https:\/\/m.douguo.com\/user\/prodesc",
        "user_id" : "4294565",
        "avatar_medium" : "http:\/\/tx1.douguo.net\/upload\/photo\/7\/8\/7\/140_u9841343133926101200202.jpg",
        "setted_email" : 0,
        "weibo_nick" : "",
        "following_count" : 0,
        "birthday" : "",
        "verified_image" : "https:\/\/i1.douguo.com\/upload\/note\/d\/a\/a\/da84247847aebe48d9dd0fcdac88862a.png",
        "qq_weibo_nick" : "",
        "progress_image" : "",
        "sign" : "",
        "fc" : 0,
        "dishes_count" : 0,
        "nick" : "漪弈_木一",
        "lv" : 0
      },
      "release_time" : "",
      "mid_mdsp" : [

      ],
      "ipit" : 0,
      "author_verified" : 1,
      "ss" : [

      ],
      "recommend_label" : "154人学做",
      "tags" : [

      ],
      "minor" : [
        "{\n    note = \"\\U9002\\U91cf\";\n    title = \"\\U6cb9\";\n    tu = \"https:\/\/https:\/\/m.douguo.com\/ingredients\/\\U6cb9\/detailmaterial\";\n}",
        "{\n    note = \"1\\U52fa\";\n    title = \"\\U6599\\U9152\";\n    tu = \"https:\/\/https:\/\/m.douguo.com\/ingredients\/\\U6599\\U9152\/detailmaterial\";\n}",
        "{\n    note = \"2\\U52fa\";\n    title = \"\\U751f\\U62bd\";\n    tu = \"https:\/\/https:\/\/m.douguo.com\/ingredients\/\\U751f\\U62bd\/detailmaterial\";\n}",
        "{\n    note = \"3\\U52fa\";\n    title = \"\\U918b\";\n    tu = \"https:\/\/https:\/\/m.douguo.com\/ingredients\/\\U918b\/detailmaterial\";\n}",
        "{\n    note = \"4\\U52fa\";\n    title = \"\\U767d\\U7802\\U7cd6\";\n    tu = \"https:\/\/https:\/\/m.douguo.com\/ingredients\/\\U767d\\U7802\\U7cd6\/detailmaterial\";\n}",
        "{\n    note = \"\\U5c11\\U8bb8\";\n    title = \"\\U59dc\\U7247\";\n    tu = \"https:\/\/https:\/\/m.douguo.com\/ingredients\/\\U59dc\\U7247\/detailmaterial\";\n}"
      ],
      "bs" : [

      ],
      "btm_dsp" : [

      ],
      "favo_counts_text" : "3.8万",
      "ph" : 600,
      "collect_status" : 0,
      "title" : "快手糖醋排骨",
      "rate" : 4,
      "hq" : 1,
      "rpid" : 0,
      "sc" : 0,
      "vu" : "",
      "su" : ""
    }
  }
}