{
  "result" : {
    "recipe" : {
      "related_ads" : [

      ],
      "author_verified" : 1,
      "rate" : 0,
      "hqu" : "recipes:\/\/www.douguo.com\/notedetail?id=21162253",
      "favo_counts_text" : "4941",
      "tags" : [

      ],
      "ipci" : "",
      "brand_day_dsp" : [

      ],
      "clicks" : "213025",
      "vfurl" : "",
      "author_id" : 12022573,
      "share_info" : {
        "s_d" : "#夏日冰品不能少#蕃茄虾意面-会做饭很酷!",
        "image" : "https:\/\/cp1.douguo.com\/upload\/caiku\/0\/8\/0\/087f0bfd9a4ace9e139938063d425ba0.jpeg",
        "object_id" : "2318041",
        "infos" : [
          {
            "mini_program" : [

            ],
            "image" : "https:\/\/cp1.douguo.com\/upload\/caiku\/0\/8\/0\/087f0bfd9a4ace9e139938063d425ba0.jpeg",
            "object_id" : "2318041",
            "s_u" : "",
            "channel" : "1",
            "s_d" : "#学做饭用豆果美食# 会做饭真是太酷了！我在@豆果美食 分享了【#夏日冰品不能少#蕃茄虾意面-会做饭很酷!】，这道菜真的神仙美味！喜欢的一定要试试绝对不会错的！～查看图片了解菜谱（快来点击https:\/\/m.weibo.cn\/p\/100404i33631和我一起修炼厨艺吧）",
            "qr_image" : "",
            "name" : "#夏日冰品不能少#蕃茄虾意面-会做饭很酷!"
          },
          {
            "qr_image" : "",
            "s_d" : "#夏日冰品不能少#蕃茄虾意面-会做饭很酷!",
            "image" : "https:\/\/cp1.douguo.com\/upload\/caiku\/0\/8\/0\/087f0bfd9a4ace9e139938063d425ba0.jpeg",
            "object_id" : "2318041",
            "name" : "#夏日冰品不能少#蕃茄虾意面-会做饭很酷!",
            "s_u" : "http:\/\/m.douguo.com\/cookbook\/2318041.html",
            "mini_program" : [

            ],
            "channel" : "7"
          },
          {
            "object_id" : "2318041",
            "mini_program" : [

            ],
            "name" : "#夏日冰品不能少#蕃茄虾意面-会做饭很酷!",
            "qr_image" : "",
            "s_u" : "http:\/\/m.douguo.com\/cookbook\/2318041.html",
            "image" : "https:\/\/cp1.douguo.com\/upload\/caiku\/0\/8\/0\/087f0bfd9a4ace9e139938063d425ba0.jpeg",
            "s_d" : "#夏日冰品不能少#蕃茄虾意面-会做饭很酷!",
            "channel" : "8"
          }
        ],
        "name" : "#夏日冰品不能少#蕃茄虾意面-会做饭很酷!",
        "s_u" : "http:\/\/m.douguo.com\/cookbook\/2318041.html",
        "qr_image" : "",
        "mini_program" : [

        ]
      },
      "minor" : [

      ],
      "rrpt" : "",
      "notes" : [

      ],
      "rdsps" : [

      ],
      "tips" : "",
      "btm_dsp" : [

      ],
      "ipia" : [

      ],
      "sr" : "",
      "image" : "http:\/\/i1.douguo.net\/upload\/caiku\/0\/8\/0\/300_087f0bfd9a4ace9e139938063d425ba0.jpeg",
      "rate_count" : 0,
      "ssu" : "",
      "rpid" : 0,
      "old_comments" : [

      ],
      "rsm" : "该功能暂停使用",
      "cook_time" : "10~30分钟",
      "rpst" : "",
      "purl" : "",
      "vc" : "224675",
      "first_level_comment_count" : 7,
      "rrps" : [

      ],
      "original_photo_path" : "http:\/\/i1.douguo.net\/upload\/caiku\/0\/8\/0\/yuan_087f0bfd9a4ace9e139938063d425ba0.jpeg",
      "advice" : {
        "has" : [
          {
            "url" : "recipes:\/\/www.douguo.com\/simplerecipelist?t=低脂&id=低脂",
            "t" : "低脂"
          },
          {
            "url" : "recipes:\/\/www.douguo.com\/simplerecipelist?t=低胆固醇&id=低胆固醇",
            "t" : "低胆固醇"
          }
        ],
        "da" : {
          "iu" : "https:\/\/i1.douguo.com\/upload\/banner\/f\/4\/d\/f48877e53c37759bc12ac494be82ec8d.png",
          "t" : "查看详细分析",
          "url" : "https:\/\/m.douguo.com\/recipe\/nutrient_self\/2318041"
        },
        "at" : "能有效控制体重～"
      },
      "sc" : 0,
      "user" : {
        "user_cover" : "",
        "qq_weibo_nick" : "",
        "user_photo" : "http:\/\/tx1.douguo.net\/upload\/photo\/3\/a\/b\/70_u4725476182534162409.jpeg",
        "dishes_count" : 0,
        "following_count" : 0,
        "nick" : "文龙妈",
        "sign" : "",
        "progress_image" : "",
        "diaries_count" : 0,
        "user_id" : "12022573",
        "birthday" : "",
        "weibo_nick" : "",
        "introduction" : "",
        "verified_image" : "https:\/\/i1.douguo.com\/upload\/note\/d\/a\/a\/da84247847aebe48d9dd0fcdac88862a.png",
        "subscription_article_count" : 0,
        "lvl" : 7,
        "followers_count" : 0,
        "mobile" : "",
        "age" : "",
        "location" : 0,
        "favor_diaries_count" : 0,
        "gender" : 2,
        "recipes_count" : 0,
        "pc" : 0,
        "coursecount" : 0,
        "lv" : 0,
        "verified" : 1,
        "setted_email" : 0,
        "user_large_photo" : "http:\/\/tx1.douguo.net\/upload\/photo\/3\/a\/b\/yuan_u4725476182534162409.jpeg",
        "userid" : "12022573",
        "subscription" : 0,
        "verified_url" : "https:\/\/m.douguo.com\/user\/prodesc",
        "email" : "",
        "regist_time" : "",
        "favorites_count" : 0,
        "qzone_nick" : "",
        "is_prime" : 0,
        "point" : 0,
        "fc" : 0,
        "avatar_medium" : "http:\/\/tx1.douguo.net\/upload\/photo\/3\/a\/b\/140_u4725476182534162409.jpeg"
      },
      "bs" : [

      ],
      "ecs" : 0,
      "cookstorys" : [

      ],
      "author_photo" : "http:\/\/tx1.douguo.net\/upload\/photo\/3\/a\/b\/70_u4725476182534162409.jpeg",
      "ipoi" : "",
      "pw" : 1920,
      "top_mdsp" : [

      ],
      "levelid" : 2,
      "eu" : "recipes:\/\/www.douguo.com\/postdetail?id=242016",
      "comments" : [
        "{\n    ac = \"#999999\";\n    at = \"\\U9102\\U5dde\\U5e02\";\n    ccc = 1;\n    \"child_comments\" =     (\n                {\n            ac = \"#999999\";\n            at = \"\\U91cd\\U5e86\\U5e02\";\n            ccc = 0;\n            city = \"\\U91cd\\U5e86\\U5e02\";\n            cmc = 2;\n            content =             (\n                                {\n                    c = \" \\U716e\\U9762\\U65f6\\U6c34\\U4e2d\\U53ef\\U4ee5\\U653e\\U5165\\U76d0\\Uff0c\\U71ac\\U8543\\U8304\\U6c64\\U65f6\\U4e5f\\U53ef\\U8c03\\U5473\\Ud83d\\Ude04\";\n                }\n            );\n            ia = 1;\n            id = 6791324;\n            \"ip_address_location\" = \"\";\n            like = 0;\n            \"like_count\" = 0;\n            \"reply_id\" = 6789976;\n            \"reply_user\" =             {\n                \"followers_count_text\" = \"\";\n                id = 24070210;\n                \"is_prime\" = 0;\n                lv = 0;\n                lvl = 1;\n                n = \"\\U71d5\\U5b50\\U98de\\U54ea\\U513f\\U53bb\\U4e86\";\n                p = \"\";\n                \"progress_image\" = \"\";\n                \"recipes_count_text\" = \"\";\n                relationship = \"-1\";\n                title = \"\";\n                v = 0;\n                \"verified_image\" = \"\";\n            };\n            \"sticker_icon\" =             (\n            );\n            time = \"2019-07-18 22:09:48\";\n            u =             {\n                \"followers_count_text\" = \"\";\n                id = 12022573;\n                \"is_prime\" = 0;\n                lv = 0;\n                lvl = 7;\n                n = \"\\U6587\\U9f99\\U5988\";\n                p = \"http:\/\/tx1.douguo.net\/upload\/photo\/3\/a\/b\/70_u4725476182534162409.jpeg\";\n                \"progress_image\" = \"\";\n                \"recipes_count_text\" = \"\";\n                relationship = \"-1\";\n                title = \"\";\n                v = 1;\n                \"verified_image\" = \"\";\n            };\n        }\n    );\n    city = \"\\U9102\\U5dde\\U5e02\";\n    cmc = 2;\n    content =     (\n                {\n            c = \"\\U54ea\\U4e2a\\U6b65\\U9aa4\\U653e\\U76d0\\U5462\\Uff1f\";\n        }\n    );\n    ia = 0;\n    id = 6789976;\n    \"ip_address_location\" = \"\";\n    like = 0;\n    \"like_count\" = 0;\n    \"reply_id\" = 0;\n    \"sticker_icon\" =     (\n    );\n    time = \"2019-07-18 16:14:13\";\n    u =     {\n        \"followers_count_text\" = \"\";\n        id = 24070210;\n        \"is_prime\" = 0;\n        lv = 0;\n        lvl = 1;\n        n = \"\\U71d5\\U5b50\\U98de\\U54ea\\U513f\\U53bb\\U4e86\";\n        p = \"\";\n        \"progress_image\" = \"\";\n        \"recipes_count_text\" = \"\";\n        relationship = \"-1\";\n        title = \"\";\n        v = 0;\n        \"verified_image\" = \"\";\n    };\n}",
        "{\n    ac = \"#999999\";\n    at = \"\";\n    ccc = 0;\n    \"child_comments\" =     (\n    );\n    city = \"\";\n    cmc = 2;\n    content =     (\n                {\n            c = \"\\U770b\\U7740\\U5c31\\U5f88\\U597d\\U5403\";\n        }\n    );\n    ia = 0;\n    id = 6775391;\n    \"ip_address_location\" = \"\";\n    like = 0;\n    \"like_count\" = 0;\n    \"reply_id\" = 0;\n    \"sticker_icon\" =     (\n    );\n    time = \"2019-07-15 11:02:06\";\n    u =     {\n        \"followers_count_text\" = \"\";\n        id = 23577688;\n        \"is_prime\" = 0;\n        lv = 0;\n        lvl = 6;\n        n = \"\\U6c5f\\U590f\\U4e91\\U85cf\";\n        p = \"http:\/\/tx1.douguo.net\/upload\/photo\/1\/d\/4\/70_u4009922795470329190422.jpg\";\n        \"progress_image\" = \"\";\n        \"recipes_count_text\" = \"\";\n        relationship = \"-1\";\n        title = \"\";\n        v = 0;\n        \"verified_image\" = \"\";\n    };\n}",
        "{\n    ac = \"#999999\";\n    at = \"\";\n    ccc = 0;\n    \"child_comments\" =     (\n    );\n    city = \"\";\n    cmc = 2;\n    content =     (\n                {\n            c = \"\\U624d\\U534e\\U6a2a\\U6ea2\\U554a\\Uff01\\U8fd9\\U4e48\\U68d2\\U7684\\U4f5c\\U54c1~\\U770b\\U8d77\\U6765\\U5c31\\U63a7\\U5236\\U4e0d\\U4f4f\";\n        }\n    );\n    ia = 0;\n    id = 6775134;\n    \"ip_address_location\" = \"\";\n    like = 0;\n    \"like_count\" = 0;\n    \"reply_id\" = 0;\n    \"sticker_icon\" =     (\n    );\n    time = \"2019-07-15 10:43:08\";\n    u =     {\n        \"followers_count_text\" = \"\";\n        id = 18573841;\n        \"is_prime\" = 0;\n        lv = 0;\n        lvl = 3;\n        n = \"\\U522b\\U95f9\\U6211\";\n        p = \"http:\/\/tx1.douguo.net\/upload\/photo\/7\/0\/0\/70_u92378426317610101145.jpg\";\n        \"progress_image\" = \"\";\n        \"recipes_count_text\" = \"\";\n        relationship = \"-1\";\n        title = \"\";\n        v = 0;\n        \"verified_image\" = \"\";\n    };\n}"
      ],
      "collect_status" : 0,
      "rips" : 0,
      "release_time" : "",
      "major" : [
        {
          "note" : "适量",
          "title" : "意大利面条 西红柿 洋葱"
        },
        {
          "note" : "适量",
          "title" : "虾",
          "tu" : "https:\/\/m.douguo.com\/ingredients\/虾\/detailmaterial"
        },
        {
          "note" : "半个",
          "title" : "洋葱",
          "tu" : "https:\/\/m.douguo.com\/ingredients\/洋葱\/detailmaterial"
        },
        {
          "tu" : "https:\/\/m.douguo.com\/ingredients\/盐\/detailmaterial",
          "note" : "适量",
          "title" : "盐"
        },
        {
          "note" : "适量",
          "title" : "芝士粉"
        },
        {
          "note" : "适量",
          "title" : "淀粉"
        }
      ],
      "ipt" : "",
      "recipe_list_tags" : [
        {
          "text" : "关注的人",
          "background_border_color" : "",
          "background_start_color" : "#F4F5F5",
          "text_color" : "#141515",
          "right_image" : "",
          "background_end_color" : "#F4F5F5",
          "jump_url" : ""
        },
        {
          "background_start_color" : "#F4F5F5",
          "jump_url" : "",
          "text" : "值得pick",
          "text_color" : "#141515",
          "background_end_color" : "#F4F5F5",
          "right_image" : "",
          "background_border_color" : ""
        }
      ],
      "cook_id" : "2318041",
      "guide_image" : "",
      "display_ingredient" : 1,
      "photo_path" : "https:\/\/i1.douguo.com\/upload\/caiku\/0\/8\/0\/600_087f0bfd9a4ace9e139938063d425ba0.jpeg",
      "cookwares" : [

      ],
      "create_time" : "2019-07-14 20:02:30",
      "rate_show" : 0,
      "cook_difficulty" : "配菜(中级)",
      "recipe_tags" : [

      ],
      "rpt" : "",
      "recommended" : 0,
      "story_dsp" : [

      ],
      "ipurl" : "",
      "recommendation_tag" : "",
      "thumb_height" : 0,
      "cookstory" : "",
      "ss" : [

      ],
      "dishes" : [

      ],
      "mid_mdsp" : [

      ],
      "comments_count" : 8,
      "act_des" : "",
      "dish_count" : 0,
      "recent_comments" : [

      ],
      "title_ad" : [

      ],
      "packages_id" : [

      ],
      "favo_counts" : 4941,
      "ipit" : 0,
      "cook_time_image" : "https:\/\/i1.douguo.com\/upload\/banner\/1551424341.png",
      "su" : "",
      "recommend_label" : "4941人刚刚收藏过",
      "rewarded_video_dsp" : [

      ],
      "thumb_path" : "https:\/\/i1.douguo.com\/upload\/caiku\/0\/8\/0\/300_087f0bfd9a4ace9e139938063d425ba0.jpeg",
      "ph" : 1440,
      "cook_difficulty_image" : "https:\/\/i1.douguo.com\/upload\/banner\/1551424413.png",
      "title" : "蕃茄虾意面",
      "event" : {
        "id" : 0
      },
      "dish_count_text" : "",
      "hq" : 1,
      "views_count_text" : "22.5万",
      "rcs" : [

      ],
      "cookstep" : [
        {
          "image_height" : 960,
          "image_width" : 1280,
          "thumb" : "https:\/\/i1.douguo.com\/upload\/caiku\/d\/c\/7\/140_dc1ec0eb290b2e41dd1ed673bfe6b607.jpeg",
          "content" : "虾头油煸出红油",
          "image" : "https:\/\/i1.douguo.com\/upload\/caiku\/d\/c\/7\/dc1ec0eb290b2e41dd1ed673bfe6b607.jpeg",
          "position" : 1,
          "frame" : "-1"
        },
        {
          "content" : "加水熬15分钟",
          "image" : "https:\/\/i1.douguo.com\/upload\/caiku\/c\/c\/d\/cce6f947f96f8d38024eb19a840deadd.jpeg",
          "frame" : "-1",
          "thumb" : "https:\/\/i1.douguo.com\/upload\/caiku\/c\/c\/d\/140_cce6f947f96f8d38024eb19a840deadd.jpeg",
          "position" : 2,
          "image_width" : 1280,
          "image_height" : 960
        },
        {
          "image" : "https:\/\/i1.douguo.com\/upload\/caiku\/4\/f\/2\/4f439a389678f91d0c24a4e96b514982.jpeg",
          "content" : "滤去虾头，汤备用",
          "image_height" : 960,
          "thumb" : "https:\/\/i1.douguo.com\/upload\/caiku\/4\/f\/2\/140_4f439a389678f91d0c24a4e96b514982.jpeg",
          "frame" : "-1",
          "image_width" : 1280,
          "position" : 3
        },
        {
          "image_height" : 960,
          "frame" : "-1",
          "image" : "https:\/\/i1.douguo.com\/upload\/caiku\/3\/e\/6\/3e4c9fe4731dc298bcde805bcad4a836.jpeg",
          "position" : 4,
          "content" : "洋葱碎温油煸香",
          "thumb" : "https:\/\/i1.douguo.com\/upload\/caiku\/3\/e\/6\/140_3e4c9fe4731dc298bcde805bcad4a836.jpeg",
          "image_width" : 1280
        },
        {
          "position" : 5,
          "frame" : "-1",
          "image_height" : 960,
          "image_width" : 1280,
          "content" : "放入番茄粒",
          "thumb" : "https:\/\/i1.douguo.com\/upload\/caiku\/e\/b\/3\/140_ebba45e0ffc087b307451c13404bc623.jpeg",
          "image" : "https:\/\/i1.douguo.com\/upload\/caiku\/e\/b\/3\/ebba45e0ffc087b307451c13404bc623.jpeg"
        },
        {
          "image_width" : 1280,
          "content" : "炒至水分快干",
          "image" : "https:\/\/i1.douguo.com\/upload\/caiku\/6\/5\/e\/654a53c588380fc64aeb0f2bd2ded63e.jpeg",
          "thumb" : "https:\/\/i1.douguo.com\/upload\/caiku\/6\/5\/e\/140_654a53c588380fc64aeb0f2bd2ded63e.jpeg",
          "position" : 6,
          "frame" : "-1",
          "image_height" : 960
        },
        {
          "image_height" : 960,
          "position" : 7,
          "image" : "https:\/\/i1.douguo.com\/upload\/caiku\/f\/f\/0\/ff06b7ca12266885b6967cc5776034a0.jpeg",
          "content" : "加入适量水熬制",
          "thumb" : "https:\/\/i1.douguo.com\/upload\/caiku\/f\/f\/0\/140_ff06b7ca12266885b6967cc5776034a0.jpeg",
          "image_width" : 1280,
          "frame" : "-1"
        },
        {
          "content" : "中途加入虾汤，继续熬",
          "image_width" : 1280,
          "image" : "https:\/\/i1.douguo.com\/upload\/caiku\/d\/6\/6\/d69af37a6be2043e7b1178a6520bbdd6.jpeg",
          "frame" : "-1",
          "thumb" : "https:\/\/i1.douguo.com\/upload\/caiku\/d\/6\/6\/140_d69af37a6be2043e7b1178a6520bbdd6.jpeg",
          "image_height" : 960,
          "position" : 8
        },
        {
          "position" : 9,
          "content" : "放入开背去完虾线的虾",
          "frame" : "-1",
          "image_width" : 1280,
          "image" : "https:\/\/i1.douguo.com\/upload\/caiku\/d\/a\/a\/da9f0380bed55245c797d0cf87dd724a.jpeg",
          "image_height" : 960,
          "thumb" : "https:\/\/i1.douguo.com\/upload\/caiku\/d\/a\/a\/140_da9f0380bed55245c797d0cf87dd724a.jpeg"
        },
        {
          "position" : 10,
          "frame" : "-1",
          "thumb" : "https:\/\/i1.douguo.com\/upload\/caiku\/a\/3\/a\/140_a3bae6780b476b81950f3b4430bae8ca.jpeg",
          "image_height" : 960,
          "image_width" : 1280,
          "image" : "https:\/\/i1.douguo.com\/upload\/caiku\/a\/3\/a\/a3bae6780b476b81950f3b4430bae8ca.jpeg",
          "content" : "水沸后煮面至五成熟，放少许盐"
        },
        {
          "frame" : "-1",
          "image_width" : 1280,
          "thumb" : "https:\/\/i1.douguo.com\/upload\/caiku\/d\/b\/b\/140_db4f0daf137621f4bb5ebcf2cd6d024b.jpeg",
          "position" : 11,
          "content" : "放入蕃茄汤中煮，调味",
          "image_height" : 960,
          "image" : "https:\/\/i1.douguo.com\/upload\/caiku\/d\/b\/b\/db4f0daf137621f4bb5ebcf2cd6d024b.jpeg"
        },
        {
          "image" : "https:\/\/i1.douguo.com\/upload\/caiku\/6\/f\/4\/6f992c6c9b8ea2ab131482c789d91894.jpeg",
          "content" : "煮熟后捞出",
          "image_width" : 1280,
          "image_height" : 960,
          "position" : 12,
          "thumb" : "https:\/\/i1.douguo.com\/upload\/caiku\/6\/f\/4\/140_6f992c6c9b8ea2ab131482c789d91894.jpeg",
          "frame" : "-1"
        },
        {
          "content" : "汤中放入淀粉勾芡",
          "image" : "https:\/\/i1.douguo.com\/upload\/caiku\/9\/e\/d\/9e405df0dbedd395cc619647850a4bed.jpeg",
          "image_width" : 1280,
          "image_height" : 960,
          "thumb" : "https:\/\/i1.douguo.com\/upload\/caiku\/9\/e\/d\/140_9e405df0dbedd395cc619647850a4bed.jpeg",
          "position" : 13,
          "frame" : "-1"
        },
        {
          "image_width" : 1280,
          "position" : 14,
          "image_height" : 960,
          "thumb" : "https:\/\/i1.douguo.com\/upload\/caiku\/0\/0\/9\/140_003ea95e1076cfb56ea7e7b3bf73ad99.jpeg",
          "image" : "https:\/\/i1.douguo.com\/upload\/caiku\/0\/0\/9\/003ea95e1076cfb56ea7e7b3bf73ad99.jpeg",
          "content" : "汤浓后淋入面中",
          "frame" : "-1"
        },
        {
          "frame" : "-1",
          "image" : "https:\/\/i1.douguo.com\/upload\/caiku\/c\/0\/7\/c06dcf8bd58c9694a3e997b9bfab21a7.jpeg",
          "image_height" : 960,
          "content" : "撒上芝士粉",
          "image_width" : 1280,
          "thumb" : "https:\/\/i1.douguo.com\/upload\/caiku\/c\/0\/7\/140_c06dcf8bd58c9694a3e997b9bfab21a7.jpeg",
          "position" : 15
        },
        {
          "content" : "开动！",
          "image" : "https:\/\/i1.douguo.com\/upload\/caiku\/7\/e\/f\/7e080e4e25d57581ff20d1c73065b89f.jpeg",
          "image_height" : 960,
          "thumb" : "https:\/\/i1.douguo.com\/upload\/caiku\/7\/e\/f\/140_7e080e4e25d57581ff20d1c73065b89f.jpeg",
          "frame" : "-1",
          "image_width" : 1280,
          "position" : 16
        },
        {
          "content" : "女儿、儿子一人一份！",
          "image_width" : 1280,
          "frame" : "-1",
          "position" : 17,
          "image_height" : 960,
          "thumb" : "https:\/\/i1.douguo.com\/upload\/caiku\/5\/8\/b\/140_58d900345bb39061589d72f27290fc7b.jpeg",
          "image" : "https:\/\/i1.douguo.com\/upload\/caiku\/5\/8\/b\/58d900345bb39061589d72f27290fc7b.jpeg"
        }
      ],
      "comments_count_text" : "8",
      "author" : "文龙妈",
      "vu" : "",
      "v_u" : ""
    }
  },
  "state" : "success",
  "status" : 0
}