{
  "state" : "success",
  "status" : 0,
  "result" : {
    "recipe" : {
      "levelid" : 3,
      "cook_id" : "2979259",
      "related_ads" : [

      ],
      "comments_count" : 2,
      "share_info" : {
        "object_id" : "2979259",
        "s_d" : "鱼片汤-会做饭很酷!",
        "name" : "鱼片汤-会做饭很酷!",
        "image" : "https:\/\/cp1.douguo.com\/upload\/caiku\/5\/1\/2\/51271c69c262cfb2d3705ddc7536a232.jpeg",
        "infos" : [
          {
            "s_u" : "",
            "channel" : "1",
            "object_id" : "2979259",
            "name" : "鱼片汤-会做饭很酷!",
            "s_d" : "#学做饭用豆果美食# 我在@豆果美食 分享了【鱼片汤-会做饭很酷!】，帅哥美眉们～你们喜欢的美食来咯！快来跟我一起做吧～查看图片了解菜谱（想要获取更多美食就看这https:\/\/m.weibo.cn\/p\/100404i33631）#会做饭很酷#",
            "qr_image" : "",
            "mini_program" : [

            ],
            "image" : "https:\/\/cp1.douguo.com\/upload\/caiku\/5\/1\/2\/51271c69c262cfb2d3705ddc7536a232.jpeg"
          },
          {
            "qr_image" : "",
            "object_id" : "2979259",
            "name" : "鱼片汤-会做饭很酷!",
            "mini_program" : [

            ],
            "s_u" : "http:\/\/m.douguo.com\/cookbook\/2979259.html",
            "image" : "https:\/\/cp1.douguo.com\/upload\/caiku\/5\/1\/2\/51271c69c262cfb2d3705ddc7536a232.jpeg",
            "channel" : "7",
            "s_d" : "鱼片汤-会做饭很酷!"
          },
          {
            "mini_program" : [

            ],
            "channel" : "8",
            "object_id" : "2979259",
            "image" : "https:\/\/cp1.douguo.com\/upload\/caiku\/5\/1\/2\/51271c69c262cfb2d3705ddc7536a232.jpeg",
            "qr_image" : "",
            "s_u" : "http:\/\/m.douguo.com\/cookbook\/2979259.html",
            "s_d" : "鱼片汤-会做饭很酷!",
            "name" : "鱼片汤-会做饭很酷!"
          }
        ],
        "s_u" : "http:\/\/m.douguo.com\/cookbook\/2979259.html",
        "qr_image" : "",
        "mini_program" : [

        ]
      },
      "views_count_text" : "6.0万",
      "title" : "鱼片汤",
      "major" : [
        {
          "title" : "财鱼",
          "note" : "一条"
        },
        {
          "title" : "生姜",
          "note" : "一块",
          "tu" : "https:\/\/m.douguo.com\/ingredients\/生姜\/detailmaterial"
        }
      ],
      "collect_status" : 0,
      "dishes" : [

      ],
      "ipurl" : "",
      "cookstep" : [
        {
          "image" : "https:\/\/i1.douguo.com\/upload\/caiku\/e\/1\/6\/e1b315fea977597ebdfb6ba69d6318e6.jpeg",
          "position" : 1,
          "image_height" : 1706,
          "content" : "财鱼宰杀鱼腹肉去皮片成鱼片后冲洗干净（多冲洗几遍）加食盐和适量生粉腌制；别的鱼骨和鱼头洗净剪去鱼鳍加食盐和生姜腌制一下。",
          "frame" : "-1",
          "image_width" : 1280,
          "thumb" : "https:\/\/i1.douguo.com\/upload\/caiku\/e\/1\/6\/140_e1b315fea977597ebdfb6ba69d6318e6.jpeg"
        },
        {
          "image_height" : 1706,
          "image" : "https:\/\/i1.douguo.com\/upload\/caiku\/a\/e\/e\/aefb14856b74998d96f31ee1f049e73e.jpeg",
          "position" : 2,
          "content" : "鱼头鱼骨煎至两面金黄，热锅凉油下鱼之前也可以先在锅内撒一点食盐可以有效避免粘锅。",
          "frame" : "-1",
          "thumb" : "https:\/\/i1.douguo.com\/upload\/caiku\/a\/e\/e\/140_aefb14856b74998d96f31ee1f049e73e.jpeg",
          "image_width" : 1280
        },
        {
          "content" : "煎好的鱼骨加入开水可以马上就出白汤了。慢煮十分钟",
          "image_width" : 1280,
          "thumb" : "https:\/\/i1.douguo.com\/upload\/caiku\/4\/c\/5\/140_4ccb6317b38604d5c977b3f3f1327f25.jpeg",
          "position" : 3,
          "image" : "https:\/\/i1.douguo.com\/upload\/caiku\/4\/c\/5\/4ccb6317b38604d5c977b3f3f1327f25.jpeg",
          "image_height" : 1706,
          "frame" : "-1"
        },
        {
          "image" : "https:\/\/i1.douguo.com\/upload\/caiku\/e\/4\/9\/e40487bc74f4d3132f7a309189b09ba9.jpeg",
          "image_height" : 1706,
          "thumb" : "https:\/\/i1.douguo.com\/upload\/caiku\/e\/4\/9\/140_e40487bc74f4d3132f7a309189b09ba9.jpeg",
          "content" : "煮好的鱼汤可以沥出鱼骨不要了、如果觉得鱼骨上的肉扔了可惜可以把肉拆下来。",
          "frame" : "-1",
          "image_width" : 1280,
          "position" : 4
        },
        {
          "image_width" : 1280,
          "thumb" : "https:\/\/i1.douguo.com\/upload\/caiku\/1\/4\/9\/140_1419095329d832599c3df8744863a219.jpeg",
          "image_height" : 1706,
          "position" : 5,
          "frame" : "-1",
          "image" : "https:\/\/i1.douguo.com\/upload\/caiku\/1\/4\/9\/1419095329d832599c3df8744863a219.jpeg",
          "content" : "鱼汤调味再次煮开后下入之前腌制好的鱼片。鱼片变色出锅装盘撒葱花上桌！"
        }
      ],
      "author" : "imyangqi",
      "rewarded_video_dsp" : [

      ],
      "mid_mdsp" : [

      ],
      "vu" : "",
      "btm_dsp" : [

      ],
      "hq" : 0,
      "cookstory" : "",
      "rpst" : "",
      "comments" : [
        "{\n    ac = \"#999999\";\n    at = \"\\U6c55\\U5934\\U5e02\";\n    ccc = 0;\n    \"child_comments\" =     (\n    );\n    city = \"\\U6c55\\U5934\\U5e02\";\n    cmc = 2;\n    content =     (\n                {\n            c = \"\\U8fd9\\U4e2a\\U98df\\U6b32\\U592a\\U5f3a\";\n        }\n    );\n    ia = 0;\n    id = 8561074;\n    \"ip_address_location\" = \"\";\n    like = 0;\n    \"like_count\" = 0;\n    \"reply_id\" = 0;\n    \"sticker_icon\" =     (\n    );\n    time = \"2021-03-06 04:12:47\";\n    u =     {\n        \"followers_count_text\" = \"\";\n        id = 4544465;\n        \"is_prime\" = 0;\n        lv = 0;\n        lvl = 5;\n        n = \"\\U8336\\U827a\\U5e08\\U54e5\\U767d\\U5c3c\";\n        p = \"http:\/\/tx1.douguo.net\/upload\/photo\/7\/f\/e\/70_7f55f3ef51cf1cc84354865c798e189e.jpg\";\n        \"progress_image\" = \"\";\n        \"recipes_count_text\" = \"\";\n        relationship = \"-1\";\n        title = \"\";\n        v = 0;\n        \"verified_image\" = \"\";\n    };\n}",
        "{\n    ac = \"#999999\";\n    at = \"\";\n    ccc = 0;\n    \"child_comments\" =     (\n    );\n    city = \"\";\n    cmc = 2;\n    content =     (\n                {\n            c = \"\\U6c14\\U6b7b\\U5b9d\\U5b9d\\U4e86\\Uff0c\\U53ea\\U80fd\\U770b\\U4e0d\\U80fd\\U5403\\Uff0c\\U4eba\\U751f\\U8fd8\\U6709\\U4ec0\\U4e48\\U610f\\U4e49\";\n        }\n    );\n    ia = 0;\n    id = 8227870;\n    \"ip_address_location\" = \"\";\n    like = 0;\n    \"like_count\" = 0;\n    \"reply_id\" = 0;\n    \"sticker_icon\" =     (\n    );\n    time = \"2020-09-06 22:38:06\";\n    u =     {\n        \"followers_count_text\" = \"\";\n        id = 24637750;\n        \"is_prime\" = 0;\n        lv = 0;\n        lvl = 1;\n        n = \"\\U81ea\\U5728\\U3002xwpuL\";\n        p = \"http:\/\/tx1.douguo.net\/upload\/photo\/2\/7\/7\/70_u80779789721536234310.jpeg\";\n        \"progress_image\" = \"\";\n        \"recipes_count_text\" = \"\";\n        relationship = \"-1\";\n        title = \"\";\n        v = 0;\n        \"verified_image\" = \"\";\n    };\n}"
      ],
      "ssu" : "",
      "user" : {
        "mobile" : "",
        "user_large_photo" : "http:\/\/tx1.douguo.net\/upload\/photo\/d\/8\/c\/yuan_u79926153888790141633.jpg",
        "userid" : "3331442",
        "verified_url" : "https:\/\/m.douguo.com\/user\/prodesc",
        "subscription" : 0,
        "favor_diaries_count" : 0,
        "dishes_count" : 0,
        "lvl" : 3,
        "user_photo" : "http:\/\/tx1.douguo.net\/upload\/photo\/d\/8\/c\/70_u79926153888790141633.jpg",
        "favorites_count" : 0,
        "verified_image" : "",
        "birthday" : "",
        "email" : "",
        "verified" : 0,
        "subscription_article_count" : 0,
        "pc" : 0,
        "gender" : 1,
        "weibo_nick" : "",
        "setted_email" : 0,
        "regist_time" : "",
        "diaries_count" : 0,
        "qzone_nick" : "",
        "qq_weibo_nick" : "",
        "user_cover" : "",
        "point" : 0,
        "age" : "",
        "recipes_count" : 0,
        "sign" : "",
        "fc" : 0,
        "coursecount" : 0,
        "progress_image" : "",
        "nick" : "imyangqi",
        "is_prime" : 0,
        "following_count" : 0,
        "introduction" : "",
        "lv" : 0,
        "user_id" : "3331442",
        "followers_count" : 0,
        "location" : 0,
        "avatar_medium" : "http:\/\/tx1.douguo.net\/upload\/photo\/d\/8\/c\/140_u79926153888790141633.jpg"
      },
      "cook_time" : "",
      "rate" : 0,
      "brand_day_dsp" : [

      ],
      "dish_count" : 0,
      "sr" : "",
      "rate_count" : 0,
      "create_time" : "2020-09-06 19:20:57",
      "image" : "http:\/\/i1.douguo.net\/upload\/caiku\/5\/1\/2\/300_51271c69c262cfb2d3705ddc7536a232.jpeg",
      "old_comments" : [

      ],
      "recipe_list_tags" : [
        {
          "text" : "关注的人",
          "background_end_color" : "#F4F5F5",
          "background_start_color" : "#F4F5F5",
          "right_image" : "",
          "jump_url" : "",
          "background_border_color" : "",
          "text_color" : "#141515"
        }
      ],
      "favo_counts_text" : "263",
      "first_level_comment_count" : 2,
      "guide_image" : "",
      "recent_comments" : [

      ],
      "rrps" : [

      ],
      "rips" : 0,
      "hqu" : "recipes:\/\/www.douguo.com\/notedetail?id=21162253",
      "recommended" : 0,
      "rsm" : "该功能暂停使用",
      "ipia" : [

      ],
      "vc" : "59668",
      "cookwares" : [

      ],
      "tips" : "洗鱼片可以加食盐抓一下再冲洗，鱼骨下锅煎前可以用厨房纸吸干一下水份避免油溅出来",
      "clicks" : "46152",
      "recommendation_tag" : "",
      "bs" : [

      ],
      "ph" : 1920,
      "rpt" : "",
      "author_photo" : "http:\/\/tx1.douguo.net\/upload\/photo\/d\/8\/c\/70_u79926153888790141633.jpg",
      "v_u" : "",
      "photo_path" : "https:\/\/i1.douguo.com\/upload\/caiku\/5\/1\/2\/600_51271c69c262cfb2d3705ddc7536a232.jpeg",
      "sc" : 0,
      "minor" : [

      ],
      "rcs" : [

      ],
      "rdsps" : [

      ],
      "su" : "",
      "rrpt" : "",
      "dish_count_text" : "",
      "cookstorys" : [

      ],
      "release_time" : "",
      "ipoi" : "",
      "eu" : "recipes:\/\/www.douguo.com\/postdetail?id=242016",
      "title_ad" : [

      ],
      "pw" : 1440,
      "rpid" : 0,
      "author_verified" : 0,
      "packages_id" : [

      ],
      "ipit" : 0,
      "cook_difficulty_image" : "",
      "rate_show" : 0,
      "top_mdsp" : [

      ],
      "author_id" : 3331442,
      "cook_difficulty" : "",
      "comments_count_text" : "2",
      "advice" : {
        "da" : {
          "url" : "https:\/\/m.douguo.com\/recipe\/nutrient_self\/2979259",
          "t" : "查看详细分析",
          "iu" : "https:\/\/i1.douguo.com\/upload\/banner\/f\/4\/d\/f48877e53c37759bc12ac494be82ec8d.png"
        },
        "has" : [
          {
            "t" : "富含蛋白质",
            "url" : "recipes:\/\/www.douguo.com\/simplerecipelist?t=富含蛋白质&id=富含蛋白质"
          },
          {
            "url" : "recipes:\/\/www.douguo.com\/simplerecipelist?t=低饱和脂肪&id=低饱和脂肪",
            "t" : "低饱和脂肪"
          }
        ],
        "at" : "可以提供多种氨基酸～"
      },
      "notes" : [

      ],
      "story_dsp" : [

      ],
      "ecs" : 1,
      "original_photo_path" : "http:\/\/i1.douguo.net\/upload\/caiku\/5\/1\/2\/yuan_51271c69c262cfb2d3705ddc7536a232.jpeg",
      "ipt" : "",
      "purl" : "",
      "ipci" : "",
      "ss" : [

      ],
      "vfurl" : "",
      "display_ingredient" : 1,
      "recipe_tags" : [

      ],
      "act_des" : "",
      "recommend_label" : "6.0万人看过",
      "thumb_path" : "https:\/\/i1.douguo.com\/upload\/caiku\/5\/1\/2\/300_51271c69c262cfb2d3705ddc7536a232.jpeg",
      "tags" : [

      ],
      "thumb_height" : 0,
      "favo_counts" : 263,
      "cook_time_image" : ""
    }
  }
}