{
  "result" : {
    "recipe" : {
      "tags" : [

      ],
      "rsm" : "该功能暂停使用",
      "minor" : [

      ],
      "bs" : [

      ],
      "recipe_tags" : [

      ],
      "pw" : 1800,
      "recommended" : 0,
      "author_id" : 4933977,
      "photo_path" : "https:\/\/i1.douguo.com\/upload\/caiku\/a\/d\/b\/600_ad48257d556a1b25ddaa1f074e90d3cb.jpg",
      "dishes" : [

      ],
      "favo_counts_text" : "6780",
      "favo_counts" : 6780,
      "author_photo" : "http:\/\/tx1.douguo.net\/upload\/photo\/c\/1\/9\/70_u0624814752746603092306.jpg",
      "title" : "玉米饼子",
      "rcs" : [

      ],
      "rrps" : [

      ],
      "major" : [
        {
          "title" : "玉米粉",
          "note" : "120克"
        },
        {
          "note" : "120克",
          "tu" : "https:\/\/m.douguo.com\/ingredients\/面粉\/detailmaterial",
          "title" : "面粉"
        },
        {
          "title" : "沸水",
          "note" : "120克"
        },
        {
          "note" : "70克",
          "title" : "冷水"
        },
        {
          "note" : "3克",
          "tu" : "https:\/\/m.douguo.com\/ingredients\/酵母\/detailmaterial",
          "title" : "酵母"
        }
      ],
      "cookstep" : [
        {
          "image" : "https:\/\/i1.douguo.com\/upload\/caiku\/4\/b\/6\/4b5128a3c54567b0553043e8e34aad36.jpg",
          "frame" : "-1",
          "content" : "玉米粉中倒入刚烧开的水，边倒边用筷子搅拌，搅拌至没有干粉为止。稍微放一会不烫手的时候，用手抓成团，待用。烫熟玉米面糊化的目的是让玉米饼更软，这一步是饼子好吃的关键。",
          "image_height" : 1199,
          "position" : 1,
          "thumb" : "https:\/\/i1.douguo.com\/upload\/caiku\/4\/b\/6\/140_4b5128a3c54567b0553043e8e34aad36.jpg",
          "image_width" : 1799
        },
        {
          "image" : "https:\/\/i1.douguo.com\/upload\/caiku\/8\/b\/e\/8b894255179668eb15de31bece25734e.jpg",
          "position" : 2,
          "image_width" : 1800,
          "image_height" : 1200,
          "frame" : "-1",
          "content" : "玉米粉放凉之后，放入面粉、酵母，加入冷水和成面团，盖保鲜膜进行发酵。烫手的时候不要放酵母，否则酵母会被烫死的。",
          "thumb" : "https:\/\/i1.douguo.com\/upload\/caiku\/8\/b\/e\/140_8b894255179668eb15de31bece25734e.jpg"
        },
        {
          "content" : "发酵到位的面团移至案板上，案板上撒面粉防粘，面团大致揉几下即可，平均分成4份。",
          "image_height" : 1199,
          "frame" : "-1",
          "image_width" : 1799,
          "position" : 3,
          "thumb" : "https:\/\/i1.douguo.com\/upload\/caiku\/d\/4\/1\/140_d4563d06401d3f8a4f6b6a58a0d7a7a1.jpg",
          "image" : "https:\/\/i1.douguo.com\/upload\/caiku\/d\/4\/1\/d4563d06401d3f8a4f6b6a58a0d7a7a1.jpg"
        },
        {
          "image" : "https:\/\/i1.douguo.com\/upload\/caiku\/7\/b\/2\/7bb2f362f81f85f651afd27d5cdae562.jpg",
          "frame" : "-1",
          "position" : 4,
          "thumb" : "https:\/\/i1.douguo.com\/upload\/caiku\/7\/b\/2\/140_7bb2f362f81f85f651afd27d5cdae562.jpg",
          "image_height" : 1200,
          "content" : "每份面团都搓成2头尖尖、中间鼓鼓的棒槌形状，盖保鲜膜再次醒发10几分钟。直接整成圆饼子也可以哈，看自己喜好。",
          "image_width" : 1800
        },
        {
          "frame" : "-1",
          "content" : "平底锅预热后，刷一点点植物油，放入上面做好的玉米棒槌。",
          "position" : 5,
          "image_height" : 1200,
          "thumb" : "https:\/\/i1.douguo.com\/upload\/caiku\/f\/1\/a\/140_f193b6bbbeaa477116485660c91f4d8a.jpg",
          "image" : "https:\/\/i1.douguo.com\/upload\/caiku\/f\/1\/a\/f193b6bbbeaa477116485660c91f4d8a.jpg",
          "image_width" : 1800
        },
        {
          "image_width" : 1800,
          "position" : 6,
          "thumb" : "https:\/\/i1.douguo.com\/upload\/caiku\/a\/3\/f\/140_a3482a988176c90cd3742a927fed0aef.jpg",
          "image" : "https:\/\/i1.douguo.com\/upload\/caiku\/a\/3\/f\/a3482a988176c90cd3742a927fed0aef.jpg",
          "frame" : "-1",
          "content" : "盖上锅盖小火煎。",
          "image_height" : 1200
        },
        {
          "thumb" : "https:\/\/i1.douguo.com\/upload\/caiku\/8\/7\/e\/140_8791fbfb2313dde7b7229deeb820ecfe.jpg",
          "image" : "https:\/\/i1.douguo.com\/upload\/caiku\/8\/7\/e\/8791fbfb2313dde7b7229deeb820ecfe.jpg",
          "image_height" : 1200,
          "frame" : "-1",
          "image_width" : 1800,
          "position" : 7,
          "content" : "煎玉米饼的时候调一碗面糊糊，玉米粉10克，加入清水70克搅拌成面糊水，待用。"
        },
        {
          "position" : 8,
          "image_height" : 1200,
          "frame" : "-1",
          "image" : "https:\/\/i1.douguo.com\/upload\/caiku\/7\/c\/0\/7ca24c78c915d585b41c5929fff62be0.jpg",
          "content" : "待玉米饼快熟的时候，倒入调好的面糊糊，盖上锅盖继续煎几分钟。",
          "image_width" : 1800,
          "thumb" : "https:\/\/i1.douguo.com\/upload\/caiku\/7\/c\/0\/140_7ca24c78c915d585b41c5929fff62be0.jpg"
        },
        {
          "frame" : "-1",
          "image_width" : 1800,
          "thumb" : "https:\/\/i1.douguo.com\/upload\/caiku\/1\/6\/8\/140_168eeeee070cbe2bd4e293b7f2f6f7e8.jpg",
          "image_height" : 1200,
          "position" : 9,
          "image" : "https:\/\/i1.douguo.com\/upload\/caiku\/1\/6\/8\/168eeeee070cbe2bd4e293b7f2f6f7e8.jpg",
          "content" : "待面糊凝固，玉米饼底部接糊渣即可出锅，趁热掰一个吃，软、香。"
        }
      ],
      "thumb_height" : 0,
      "share_info" : {
        "name" : "玉米饼子-会做饭很酷!",
        "s_d" : "玉米饼子-会做饭很酷!",
        "qr_image" : "",
        "image" : "https:\/\/cp1.douguo.com\/upload\/caiku\/a\/d\/b\/ad48257d556a1b25ddaa1f074e90d3cb.jpg",
        "s_u" : "http:\/\/m.douguo.com\/cookbook\/2296865.html",
        "mini_program" : [

        ],
        "object_id" : "2296865",
        "infos" : [
          {
            "qr_image" : "",
            "mini_program" : [

            ],
            "s_u" : "",
            "object_id" : "2296865",
            "channel" : "1",
            "image" : "https:\/\/cp1.douguo.com\/upload\/caiku\/a\/d\/b\/ad48257d556a1b25ddaa1f074e90d3cb.jpg",
            "s_d" : "#学做饭用豆果美食#  我在@豆果美食 分享了【玉米饼子-会做饭很酷!】，制作美食的过程承载了我生活中的热情，和我一起感受这份小确幸吧！查看图片了解菜谱（你喜欢的美食都在这里！https:\/\/m.weibo.cn\/p\/100404i33631）#会做饭很酷# ",
            "name" : "玉米饼子-会做饭很酷!"
          },
          {
            "object_id" : "2296865",
            "channel" : "7",
            "s_d" : "玉米饼子-会做饭很酷!",
            "mini_program" : [

            ],
            "s_u" : "http:\/\/m.douguo.com\/cookbook\/2296865.html",
            "qr_image" : "",
            "name" : "玉米饼子-会做饭很酷!",
            "image" : "https:\/\/cp1.douguo.com\/upload\/caiku\/a\/d\/b\/ad48257d556a1b25ddaa1f074e90d3cb.jpg"
          },
          {
            "name" : "玉米饼子-会做饭很酷!",
            "channel" : "8",
            "image" : "https:\/\/cp1.douguo.com\/upload\/caiku\/a\/d\/b\/ad48257d556a1b25ddaa1f074e90d3cb.jpg",
            "mini_program" : [

            ],
            "s_u" : "http:\/\/m.douguo.com\/cookbook\/2296865.html",
            "qr_image" : "",
            "s_d" : "玉米饼子-会做饭很酷!",
            "object_id" : "2296865"
          }
        ]
      },
      "dish_count_text" : "3",
      "author_verified" : 1,
      "ss" : [

      ],
      "purl" : "",
      "brand_day_dsp" : [

      ],
      "create_time" : "2019-05-07 20:30:16",
      "vu" : "",
      "recipe_list_tags" : [
        {
          "background_end_color" : "#F4F5F5",
          "text" : "关注的人",
          "background_start_color" : "#F4F5F5",
          "text_color" : "#141515",
          "right_image" : "",
          "background_border_color" : "",
          "jump_url" : ""
        },
        {
          "background_end_color" : "#F4F5F5",
          "background_start_color" : "#F4F5F5",
          "text_color" : "#141515",
          "jump_url" : "",
          "background_border_color" : "",
          "text" : "内容详细",
          "right_image" : ""
        }
      ],
      "sr" : "",
      "vc" : "1046978",
      "cookstorys" : [
        {
          "id" : 0,
          "color" : "",
          "icon" : "",
          "type" : 0,
          "c" : "市场上的玉米饼分2种，一种是老式的、粗粗拉拉的大饼子，标准的粗粮；另一种就是改良的玉米饼，合着面粉一起做的，很松软，还带有甜味，都可以做零食吃。这种玉米饼孩子很爱吃，说不拉嗓子。买过几次之后，吃货的琢磨劲就上来了。做了一次就成功，除了感觉有点火大之外，其他都OK。极简的材料，无糖无蛋，吃着更舒心。",
          "u" : ""
        }
      ],
      "ssu" : "",
      "ipt" : "",
      "eu" : "recipes:\/\/www.douguo.com\/postdetail?id=242016",
      "rips" : 0,
      "story_dsp" : [

      ],
      "views_count_text" : "104.7万",
      "packages_id" : [

      ],
      "user" : {
        "dishes_count" : 0,
        "user_photo" : "http:\/\/tx1.douguo.net\/upload\/photo\/c\/1\/9\/70_u0624814752746603092306.jpg",
        "favor_diaries_count" : 0,
        "sign" : "",
        "setted_email" : 0,
        "qzone_nick" : "",
        "progress_image" : "",
        "qq_weibo_nick" : "",
        "location" : 0,
        "email" : "",
        "gender" : 2,
        "fc" : 0,
        "user_cover" : "",
        "lvl" : 7,
        "birthday" : "",
        "verified_url" : "https:\/\/m.douguo.com\/user\/prodesc",
        "verified" : 1,
        "verified_image" : "https:\/\/i1.douguo.com\/upload\/note\/d\/a\/a\/da84247847aebe48d9dd0fcdac88862a.png",
        "lv" : 0,
        "subscription_article_count" : 0,
        "following_count" : 0,
        "avatar_medium" : "http:\/\/tx1.douguo.net\/upload\/photo\/c\/1\/9\/140_u0624814752746603092306.jpg",
        "subscription" : 0,
        "recipes_count" : 0,
        "introduction" : "",
        "regist_time" : "",
        "userid" : "4933977",
        "is_prime" : 0,
        "user_id" : "4933977",
        "followers_count" : 0,
        "diaries_count" : 0,
        "favorites_count" : 0,
        "age" : "",
        "nick" : "悠哈厨房",
        "pc" : 0,
        "coursecount" : 0,
        "user_large_photo" : "http:\/\/tx1.douguo.net\/upload\/photo\/c\/1\/9\/yuan_u0624814752746603092306.jpg",
        "point" : 0,
        "weibo_nick" : "",
        "mobile" : ""
      },
      "ipit" : 0,
      "rate" : 5,
      "ipurl" : "",
      "rpid" : 0,
      "hq" : 1,
      "cookwares" : [

      ],
      "sc" : 0,
      "rpt" : "",
      "display_ingredient" : 1,
      "author" : "悠哈厨房",
      "recommend_label" : "3人学做",
      "comments_count_text" : "7",
      "ph" : 1200,
      "old_comments" : [

      ],
      "first_level_comment_count" : 7,
      "thumb_path" : "https:\/\/i1.douguo.com\/upload\/caiku\/a\/d\/b\/300_ad48257d556a1b25ddaa1f074e90d3cb.jpg",
      "recommendation_tag" : "",
      "ipoi" : "",
      "ecs" : 0,
      "comments_count" : 7,
      "su" : "",
      "tips" : "1、做玉米饼用大铁锅是最好，现在家庭里都没有那么大的锅，用平底锅也可以做玉米饼（贴饼子）。\n2、用平底锅做玉米饼，火不要大，急火贴饼子容易糊，还不容易发起来。最后倒入面糊的时候，火稍微大一点，让底部结渣即可。",
      "act_des" : "",
      "hqu" : "recipes:\/\/www.douguo.com\/notedetail?id=21162253",
      "rate_show" : 0,
      "notes" : [

      ],
      "image" : "http:\/\/i1.douguo.net\/upload\/caiku\/a\/d\/b\/300_ad48257d556a1b25ddaa1f074e90d3cb.jpg",
      "title_ad" : [

      ],
      "cook_time" : "10分钟左右",
      "advice" : {
        "has" : [
          {
            "t" : "低脂",
            "url" : "recipes:\/\/www.douguo.com\/simplerecipelist?t=低脂&id=低脂"
          },
          {
            "url" : "recipes:\/\/www.douguo.com\/simplerecipelist?t=低饱和脂肪&id=低饱和脂肪",
            "t" : "低饱和脂肪"
          }
        ],
        "da" : {
          "url" : "https:\/\/m.douguo.com\/recipe\/nutrient_self\/2296865",
          "t" : "查看详细分析",
          "iu" : "https:\/\/i1.douguo.com\/upload\/banner\/f\/4\/d\/f48877e53c37759bc12ac494be82ec8d.png"
        },
        "at" : "能有效控制体重～"
      },
      "release_time" : "",
      "dish_count" : 3,
      "top_mdsp" : [

      ],
      "rpst" : "",
      "cook_difficulty" : "切墩(初级)",
      "recent_comments" : [

      ],
      "related_ads" : [

      ],
      "ipci" : "",
      "cook_id" : "2296865",
      "collect_status" : 0,
      "rewarded_video_dsp" : [

      ],
      "vfurl" : "",
      "v_u" : "",
      "cook_time_image" : "https:\/\/i1.douguo.com\/upload\/banner\/1551424358.png",
      "btm_dsp" : [

      ],
      "rate_count" : 3,
      "mid_mdsp" : [

      ],
      "clicks" : "982014",
      "rdsps" : [

      ],
      "levelid" : 2,
      "ipia" : [

      ],
      "guide_image" : "",
      "cookstory" : "市场上的玉米饼分2种，一种是老式的、粗粗拉拉的大饼子，标准的粗粮；另一种就是改良的玉米饼，合着面粉一起做的，很松软，还带有甜味，都可以做零食吃。这种玉米饼孩子很爱吃，说不拉嗓子。买过几次之后，吃货的琢磨劲就上来了。做了一次就成功，除了感觉有点火大之外，其他都OK。极简的材料，无糖无蛋，吃着更舒心。",
      "cook_difficulty_image" : "https:\/\/i1.douguo.com\/upload\/banner\/1551424390.png",
      "original_photo_path" : "http:\/\/i1.douguo.net\/upload\/caiku\/a\/d\/b\/yuan_ad48257d556a1b25ddaa1f074e90d3cb.jpg",
      "rrpt" : "",
      "comments" : [
        "{\n    ac = \"#999999\";\n    at = \"\";\n    ccc = 0;\n    \"child_comments\" =     (\n    );\n    city = \"\";\n    cmc = 2;\n    content =     (\n                {\n            c = \"\\U653e\\U9505\\U91cc\\U5c0f\\U706b\\U5417\\Uff1f\\U591a\\U4e45\\U719f\\Uff1f\";\n        }\n    );\n    ia = 0;\n    id = 6692163;\n    \"ip_address_location\" = \"\";\n    like = 0;\n    \"like_count\" = 1;\n    \"reply_id\" = 0;\n    \"sticker_icon\" =     (\n    );\n    time = \"2019-06-24 08:14:21\";\n    u =     {\n        \"followers_count_text\" = \"\";\n        id = 5175131;\n        \"is_prime\" = 0;\n        lv = 0;\n        lvl = 2;\n        n = \"\\U6dd8\\U6c14\\U8c46\\U8c46dg\";\n        p = \"http:\/\/tx1.douguo.net\/upload\/photo\/0\/c\/c\/70_u07814282381520214033.jpeg\";\n        \"progress_image\" = \"\";\n        \"recipes_count_text\" = \"\";\n        relationship = \"-1\";\n        title = \"\";\n        v = 0;\n        \"verified_image\" = \"\";\n    };\n}",
        "{\n    ac = \"#999999\";\n    at = \"\\U9752\\U5c9b\\U5e02\";\n    ccc = 0;\n    \"child_comments\" =     (\n    );\n    city = \"\\U9752\\U5c9b\\U5e02\";\n    cmc = 2;\n    content =     (\n                {\n            c = \"\\U52a0\\U5165\\U767d\\U9762\\U7c89\\U9175\\U6bcd\\U53d1\\U9175\\U591a\\U957f\\U65f6\\U95f4\\U5f00\\U59cb\\U505a\\Uff1f\";\n        }\n    );\n    ia = 0;\n    id = 7811960;\n    \"ip_address_location\" = \"\";\n    like = 0;\n    \"like_count\" = 0;\n    \"reply_id\" = 0;\n    \"sticker_icon\" =     (\n    );\n    time = \"2020-03-24 20:31:47\";\n    u =     {\n        \"followers_count_text\" = \"\";\n        id = 22524303;\n        \"is_prime\" = 0;\n        lv = 0;\n        lvl = 2;\n        n = \"\\U7b49\\U5f85\\U7efd\\U653ely\";\n        p = \"http:\/\/tx1.douguo.net\/upload\/photo\/7\/1\/4\/70_u34260245244950233413.jpg\";\n        \"progress_image\" = \"\";\n        \"recipes_count_text\" = \"\";\n        relationship = \"-1\";\n        title = \"\";\n        v = 0;\n        \"verified_image\" = \"\";\n    };\n}",
        "{\n    ac = \"#999999\";\n    at = \"\\U4e2d\\U5c71\\U5e02\";\n    ccc = 0;\n    \"child_comments\" =     (\n    );\n    city = \"\\U4e2d\\U5c71\\U5e02\";\n    cmc = 2;\n    content =     (\n                {\n            c = \"\\U7389\\U7c73\\U7c89\\U653e\\U51c9\\U4e86\\U653e\\U5927\\U6982\\U591a\\U5c11\\U91cf\\U7684\\U9762\\U7c89\\Ud83e\\Udd14\";\n        }\n    );\n    ia = 0;\n    id = 7754764;\n    \"ip_address_location\" = \"\";\n    like = 0;\n    \"like_count\" = 0;\n    \"reply_id\" = 0;\n    \"sticker_icon\" =     (\n    );\n    time = \"2020-03-07 19:49:40\";\n    u =     {\n        \"followers_count_text\" = \"\";\n        id = 23822622;\n        \"is_prime\" = 0;\n        lv = 0;\n        lvl = 4;\n        n = \"Amy\\U5927\\U5927\";\n        p = \"http:\/\/tx1.douguo.net\/upload\/photo\/f\/9\/f\/70_f9ce141140fa7c36d6dd435f5aa44bbf.jpeg\";\n        \"progress_image\" = \"\";\n        \"recipes_count_text\" = \"\";\n        relationship = \"-1\";\n        title = \"\";\n        v = 0;\n        \"verified_image\" = \"\";\n    };\n}"
      ]
    }
  },
  "state" : "success",
  "status" : 0
}