{
  "result" : {
    "recipe" : {
      "pw" : 540,
      "bs" : [

      ],
      "levelid" : 3,
      "user" : {
        "gender" : 2,
        "verified_url" : "https:\/\/m.douguo.com\/user\/prodesc",
        "favorites_count" : 0,
        "fc" : 0,
        "followers_count" : 0,
        "is_prime" : 0,
        "diaries_count" : 0,
        "progress_image" : "",
        "dishes_count" : 0,
        "user_id" : "8881221",
        "location" : 0,
        "user_cover" : "",
        "lvl" : 6,
        "lv" : 0,
        "coursecount" : 0,
        "email" : "",
        "favor_diaries_count" : 0,
        "introduction" : "",
        "point" : 0,
        "userid" : "8881221",
        "weibo_nick" : "",
        "recipes_count" : 0,
        "nick" : "小蜗牛爱慢生活",
        "qq_weibo_nick" : "",
        "qzone_nick" : "",
        "verified_image" : "",
        "regist_time" : "",
        "birthday" : "",
        "verified" : 0,
        "following_count" : 0,
        "subscription_article_count" : 0,
        "user_large_photo" : "http:\/\/tx1.douguo.net\/upload\/photo\/f\/b\/7\/yuan_fb330981b3acbe3e73cfbdf7f9699277.jpeg",
        "sign" : "",
        "mobile" : "",
        "user_photo" : "http:\/\/tx1.douguo.net\/upload\/photo\/f\/b\/7\/70_fb330981b3acbe3e73cfbdf7f9699277.jpeg",
        "subscription" : 0,
        "pc" : 0,
        "setted_email" : 0,
        "age" : "",
        "avatar_medium" : "http:\/\/tx1.douguo.net\/upload\/photo\/f\/b\/7\/140_fb330981b3acbe3e73cfbdf7f9699277.jpeg"
      },
      "recommendation_tag" : "",
      "recipe_tags" : [

      ],
      "create_time" : "2023-01-07 16:33:09",
      "cook_time_image" : "https:\/\/i1.douguo.com\/upload\/banner\/1551424341.png",
      "ipit" : 0,
      "rpt" : "",
      "rate_show" : 0,
      "author_photo" : "http:\/\/tx1.douguo.net\/upload\/photo\/f\/b\/7\/70_fb330981b3acbe3e73cfbdf7f9699277.jpeg",
      "mid_mdsp" : [

      ],
      "thumb_height" : 0,
      "vfurl" : "https:\/\/vplay.douguo.com\/FuA1ElUrEoTAO7jANVPw8xGMXZg-__362x640.mp4",
      "comments_count" : 0,
      "title" : "盼春",
      "clicks" : "1",
      "cook_difficulty_image" : "https:\/\/i1.douguo.com\/upload\/banner\/1551424390.png",
      "ph" : 960,
      "rate_count" : 0,
      "favo_counts" : 1,
      "cook_time" : "10~30分钟",
      "cook_id" : "3233111",
      "favo_counts_text" : "1",
      "author_id" : 8881221,
      "first_level_comment_count" : 0,
      "story_dsp" : [

      ],
      "rrpt" : "",
      "recommended" : 0,
      "ss" : [

      ],
      "sr" : "",
      "advice" : {
        "at" : "健身人群可以吃～",
        "has" : [
          {
            "url" : "recipes:\/\/www.douguo.com\/simplerecipelist?t=低脂&id=低脂",
            "t" : "低脂"
          }
        ],
        "da" : {
          "iu" : "https:\/\/i1.douguo.com\/upload\/banner\/f\/4\/d\/f48877e53c37759bc12ac494be82ec8d.png",
          "t" : "查看详细分析",
          "url" : "https:\/\/m.douguo.com\/recipe\/nutrient_self\/3233111"
        }
      },
      "rdsps" : [

      ],
      "image" : "http:\/\/i1.douguo.net\/upload\/caiku\/6\/4\/9\/300_1673080030184.jpg",
      "ipurl" : "",
      "tags" : [

      ],
      "author_verified" : 0,
      "hqu" : "recipes:\/\/www.douguo.com\/notedetail?id=21162253",
      "rcs" : [

      ],
      "rsm" : "该功能暂停使用",
      "display_ingredient" : 1,
      "notes" : [

      ],
      "ipoi" : "",
      "btm_dsp" : [

      ],
      "ssu" : "",
      "cookstorys" : [
        {
          "c" : "生活虽然普普通通\n但要乐在其中\n春节越来越近\n为新年做好铺垫",
          "u" : "",
          "color" : "",
          "type" : 0,
          "id" : 0,
          "icon" : ""
        }
      ],
      "rpst" : "",
      "ipt" : "",
      "cookwares" : [

      ],
      "cook_difficulty" : "切墩(初级)",
      "collect_status" : 0,
      "old_comments" : [

      ],
      "title_ad" : [

      ],
      "author" : "小蜗牛爱慢生活",
      "rate" : 0,
      "views_count_text" : "777",
      "photo_path" : "https:\/\/i1.douguo.com\/upload\/caiku\/6\/4\/9\/600_1673080030184.jpg",
      "brand_day_dsp" : [

      ],
      "major" : [
        {
          "note" : "适量",
          "title" : "面糊"
        },
        {
          "title" : "胡萝卜素",
          "note" : "适量"
        },
        {
          "note" : "适量",
          "title" : "青椒丝"
        },
        {
          "title" : "土豆丝",
          "note" : "适量"
        },
        {
          "title" : "黄瓜丝",
          "note" : "适量"
        },
        {
          "title" : "甜面酱，酱油，糖，黄酒",
          "note" : "适量"
        }
      ],
      "comments" : [

      ],
      "sc" : 0,
      "release_time" : "",
      "v_u" : "",
      "hq" : 0,
      "packages_id" : [

      ],
      "su" : "",
      "eu" : "recipes:\/\/www.douguo.com\/postdetail?id=242016",
      "cookstory" : "生活虽然普普通通\n但要乐在其中\n春节越来越近\n为新年做好铺垫",
      "vc" : "777",
      "act_des" : "",
      "rrps" : [

      ],
      "vu" : "https:\/\/vplay.douguo.com\/FuA1ElUrEoTAO7jANVPw8xGMXZg-",
      "share_info" : {
        "name" : "盼春-会做饭很酷!",
        "infos" : [
          {
            "channel" : "1",
            "qr_image" : "",
            "mini_program" : [

            ],
            "s_d" : "#学做饭用豆果美食# 会做饭真是太酷了！我在@豆果美食 分享了【盼春-会做饭很酷!】，这道菜真的神仙美味！喜欢的一定要试试绝对不会错的！～查看图片了解菜谱（快来点击https:\/\/m.weibo.cn\/p\/100404i33631和我一起修炼厨艺吧）",
            "s_u" : "",
            "image" : "https:\/\/cp1.douguo.com\/upload\/caiku\/6\/4\/9\/1673080030184.jpg",
            "name" : "盼春-会做饭很酷!",
            "object_id" : "3233111"
          },
          {
            "channel" : "7",
            "s_u" : "http:\/\/m.douguo.com\/cookbook\/3233111.html",
            "qr_image" : "",
            "s_d" : "盼春-会做饭很酷!",
            "image" : "https:\/\/cp1.douguo.com\/upload\/caiku\/6\/4\/9\/1673080030184.jpg",
            "mini_program" : [

            ],
            "object_id" : "3233111",
            "name" : "盼春-会做饭很酷!"
          },
          {
            "mini_program" : [

            ],
            "image" : "https:\/\/cp1.douguo.com\/upload\/caiku\/6\/4\/9\/1673080030184.jpg",
            "s_u" : "http:\/\/m.douguo.com\/cookbook\/3233111.html",
            "name" : "盼春-会做饭很酷!",
            "qr_image" : "",
            "s_d" : "盼春-会做饭很酷!",
            "channel" : "8",
            "object_id" : "3233111"
          }
        ],
        "object_id" : "3233111",
        "s_u" : "http:\/\/m.douguo.com\/cookbook\/3233111.html",
        "mini_program" : [

        ],
        "qr_image" : "",
        "image" : "https:\/\/cp1.douguo.com\/upload\/caiku\/6\/4\/9\/1673080030184.jpg",
        "s_d" : "盼春-会做饭很酷!"
      },
      "recent_comments" : [

      ],
      "related_ads" : [

      ],
      "rips" : 0,
      "cookstep" : [
        {
          "image_width" : 1280,
          "position" : 1,
          "content" : "做个春饼盼着春天～",
          "image_height" : 1707,
          "image" : "https:\/\/i1.douguo.com\/upload\/caiku\/d\/9\/7\/d9dddee144aa78b023b2036443460f77.jpg",
          "frame" : "-1",
          "thumb" : "https:\/\/i1.douguo.com\/upload\/caiku\/d\/9\/7\/140_d9dddee144aa78b023b2036443460f77.jpg"
        },
        {
          "image_width" : 1280,
          "content" : "甜面酱抹好，放入配菜。",
          "position" : 2,
          "frame" : "-1",
          "thumb" : "https:\/\/i1.douguo.com\/upload\/caiku\/9\/e\/d\/140_9ef53fc675795e8fb3b0def001f059ad.jpg",
          "image_height" : 1707,
          "image" : "https:\/\/i1.douguo.com\/upload\/caiku\/9\/e\/d\/9ef53fc675795e8fb3b0def001f059ad.jpg"
        },
        {
          "image_width" : 1280,
          "image" : "https:\/\/i1.douguo.com\/upload\/caiku\/3\/1\/2\/31b6ee534f4d39661d0c287df4074462.jpg",
          "position" : 3,
          "thumb" : "https:\/\/i1.douguo.com\/upload\/caiku\/3\/1\/2\/140_31b6ee534f4d39661d0c287df4074462.jpg",
          "image_height" : 1707,
          "content" : "卷起来开吃喽！",
          "frame" : "-1"
        },
        {
          "content" : "把菜品安排上",
          "image_width" : 1280,
          "position" : 4,
          "frame" : "-1",
          "thumb" : "https:\/\/i1.douguo.com\/upload\/caiku\/6\/2\/4\/140_622812abf5ed2dcf2cc3a4c2913f0054.jpg",
          "image" : "https:\/\/i1.douguo.com\/upload\/caiku\/6\/2\/4\/622812abf5ed2dcf2cc3a4c2913f0054.jpg",
          "image_height" : 640
        }
      ],
      "top_mdsp" : [

      ],
      "dishes" : [

      ],
      "minor" : [

      ],
      "rpid" : 0,
      "dish_count" : 0,
      "recipe_list_tags" : [
        {
          "right_image" : "",
          "jump_url" : "",
          "background_end_color" : "#F4F5F5",
          "background_start_color" : "#F4F5F5",
          "text_color" : "#141515",
          "background_border_color" : "",
          "text" : "关注的人"
        }
      ],
      "guide_image" : "",
      "ecs" : 1,
      "recommend_label" : "777人看过",
      "ipia" : [

      ],
      "purl" : "",
      "tips" : "",
      "thumb_path" : "https:\/\/i1.douguo.com\/upload\/caiku\/6\/4\/9\/300_1673080030184.jpg",
      "rewarded_video_dsp" : [

      ],
      "original_photo_path" : "http:\/\/i1.douguo.net\/upload\/caiku\/6\/4\/9\/yuan_1673080030184.jpg",
      "ipci" : "",
      "comments_count_text" : "",
      "dish_count_text" : ""
    }
  },
  "status" : 0,
  "state" : "success"
}