{
  "result" : {
    "recipe" : {
      "author_photo" : "http:\/\/tx1.douguo.net\/upload\/photo\/f\/a\/9\/70_fa0305d6af31ddb7a2d4c92cfc4cf2a9.jpg",
      "rate_show" : 0,
      "title" : "新西北风",
      "rpt" : "",
      "ss" : [

      ],
      "rewarded_video_dsp" : [

      ],
      "major" : [
        {
          "title" : "鸡胸肉",
          "tu" : "https:\/\/m.douguo.com\/ingredients\/鸡胸肉\/detailmaterial",
          "note" : ""
        },
        {
          "note" : "",
          "tu" : "https:\/\/m.douguo.com\/ingredients\/胡萝卜\/detailmaterial",
          "title" : "胡萝卜"
        },
        {
          "note" : "",
          "tu" : "https:\/\/m.douguo.com\/ingredients\/黄瓜\/detailmaterial",
          "title" : "黄瓜"
        },
        {
          "note" : "",
          "title" : "花生米"
        },
        {
          "note" : "",
          "title" : "麻辣鲜"
        }
      ],
      "su" : "",
      "v_u" : "",
      "image" : "http:\/\/i1.douguo.net\/upload\/caiku\/7\/6\/c\/300_762e51d28e5ea16247427e10b0c8206c.jpg",
      "vu" : "https:\/\/vplay.douguo.com\/lor9DeS7V-Dh0zSGrlRFwpTB8VnJ",
      "rdsps" : [

      ],
      "cook_time" : "10分钟左右",
      "dish_count_text" : "",
      "user" : {
        "sign" : "",
        "subscription" : 0,
        "pc" : 0,
        "introduction" : "",
        "verified_url" : "https:\/\/m.douguo.com\/user\/prodesc",
        "setted_email" : 0,
        "qzone_nick" : "",
        "is_prime" : 0,
        "coursecount" : 0,
        "fc" : 0,
        "point" : 0,
        "followers_count" : 0,
        "subscription_article_count" : 0,
        "nick" : "大张蘸大酱",
        "birthday" : "",
        "dishes_count" : 0,
        "user_large_photo" : "http:\/\/tx1.douguo.net\/upload\/photo\/f\/a\/9\/yuan_fa0305d6af31ddb7a2d4c92cfc4cf2a9.jpg",
        "favor_diaries_count" : 0,
        "gender" : 1,
        "user_cover" : "",
        "user_id" : "27377247",
        "user_photo" : "http:\/\/tx1.douguo.net\/upload\/photo\/f\/a\/9\/70_fa0305d6af31ddb7a2d4c92cfc4cf2a9.jpg",
        "email" : "",
        "verified_image" : "",
        "lv" : 0,
        "lvl" : 3,
        "recipes_count" : 0,
        "regist_time" : "",
        "favorites_count" : 0,
        "weibo_nick" : "",
        "diaries_count" : 0,
        "avatar_medium" : "http:\/\/tx1.douguo.net\/upload\/photo\/f\/a\/9\/140_fa0305d6af31ddb7a2d4c92cfc4cf2a9.jpg",
        "age" : "",
        "mobile" : "",
        "progress_image" : "",
        "userid" : "27377247",
        "following_count" : 0,
        "verified" : 0,
        "location" : 0,
        "qq_weibo_nick" : ""
      },
      "rcs" : [

      ],
      "thumb_path" : "https:\/\/i1.douguo.com\/upload\/caiku\/7\/6\/c\/300_762e51d28e5ea16247427e10b0c8206c.jpg",
      "story_dsp" : [

      ],
      "vfurl" : "https:\/\/vplay.douguo.com\/lor9DeS7V-Dh0zSGrlRFwpTB8VnJ__640x362.mp4",
      "rpst" : "",
      "thumb_height" : 0,
      "author_verified" : 0,
      "recommend_label" : "4063人看过",
      "collect_status" : 0,
      "first_level_comment_count" : 0,
      "act_des" : "",
      "advice" : {
        "at" : "能保护心血管～",
        "has" : [
          {
            "url" : "recipes:\/\/www.douguo.com\/simplerecipelist?t=富含烟酸&id=富含烟酸",
            "t" : "富含烟酸"
          },
          {
            "url" : "recipes:\/\/www.douguo.com\/simplerecipelist?t=低盐&id=低盐",
            "t" : "低盐"
          }
        ],
        "da" : {
          "iu" : "https:\/\/i1.douguo.com\/upload\/banner\/f\/4\/d\/f48877e53c37759bc12ac494be82ec8d.png",
          "t" : "查看详细分析",
          "url" : "https:\/\/m.douguo.com\/recipe\/nutrient_self\/3221768"
        }
      },
      "cookstep" : [
        {
          "image_width" : 1080,
          "content" : "鸡肉上浆",
          "image_height" : 2400,
          "thumb" : "https:\/\/i1.douguo.com\/upload\/caiku\/c\/c\/a\/140_cc1dd5c89c1ca1927d036c9c43a1950a.jpg",
          "image" : "https:\/\/i1.douguo.com\/upload\/caiku\/c\/c\/a\/cc1dd5c89c1ca1927d036c9c43a1950a.jpg",
          "frame" : "-1",
          "position" : 1
        },
        {
          "thumb" : "https:\/\/i1.douguo.com\/upload\/caiku\/a\/c\/a\/140_acbaff1d65fe065fc7a5875ee8c6961a.jpg",
          "image_width" : 1080,
          "position" : 2,
          "image_height" : 2400,
          "frame" : "-1",
          "content" : "煸炒",
          "image" : "https:\/\/i1.douguo.com\/upload\/caiku\/a\/c\/a\/acbaff1d65fe065fc7a5875ee8c6961a.jpg"
        },
        {
          "position" : 3,
          "image_width" : 1080,
          "frame" : "-1",
          "image_height" : 2400,
          "image" : "https:\/\/i1.douguo.com\/upload\/caiku\/c\/1\/b\/c120afa27cd0355d52266e64018a8aeb.jpg",
          "thumb" : "https:\/\/i1.douguo.com\/upload\/caiku\/c\/1\/b\/140_c120afa27cd0355d52266e64018a8aeb.jpg",
          "content" : "勾芡"
        }
      ],
      "ipt" : "",
      "cook_id" : "3221768",
      "eu" : "recipes:\/\/www.douguo.com\/postdetail?id=242016",
      "cookstory" : "简简单单",
      "display_ingredient" : 1,
      "recent_comments" : [

      ],
      "clicks" : "1",
      "top_mdsp" : [

      ],
      "bs" : [

      ],
      "original_photo_path" : "http:\/\/i1.douguo.net\/upload\/caiku\/7\/6\/c\/yuan_762e51d28e5ea16247427e10b0c8206c.jpg",
      "btm_dsp" : [

      ],
      "comments_count" : 0,
      "pw" : 1280,
      "comments_count_text" : "",
      "cook_difficulty" : "切墩(初级)",
      "favo_counts_text" : "18",
      "ipurl" : "",
      "rate" : 0,
      "related_ads" : [

      ],
      "sr" : "",
      "recommended" : 0,
      "comments" : [

      ],
      "rrps" : [

      ],
      "packages_id" : [

      ],
      "dish_count" : 0,
      "cookstorys" : [
        {
          "u" : "",
          "icon" : "",
          "id" : 0,
          "color" : "",
          "type" : 0,
          "c" : "简简单单"
        }
      ],
      "ipit" : 0,
      "minor" : [

      ],
      "rsm" : "该功能暂停使用",
      "ipia" : [

      ],
      "dishes" : [

      ],
      "ssu" : "",
      "rpid" : 0,
      "release_time" : "",
      "cook_time_image" : "https:\/\/i1.douguo.com\/upload\/banner\/1551424358.png",
      "rips" : 0,
      "views_count_text" : "4063",
      "ph" : 720,
      "brand_day_dsp" : [

      ],
      "ecs" : 1,
      "sc" : 0,
      "cookwares" : [

      ],
      "levelid" : 3,
      "recipe_tags" : [

      ],
      "ipci" : "",
      "tips" : "",
      "mid_mdsp" : [

      ],
      "hqu" : "recipes:\/\/www.douguo.com\/notedetail?id=21162253",
      "rrpt" : "",
      "photo_path" : "https:\/\/i1.douguo.com\/upload\/caiku\/7\/6\/c\/600_762e51d28e5ea16247427e10b0c8206c.jpg",
      "cook_difficulty_image" : "https:\/\/i1.douguo.com\/upload\/banner\/1551424390.png",
      "recommendation_tag" : "",
      "share_info" : {
        "infos" : [
          {
            "channel" : "1",
            "image" : "https:\/\/cp1.douguo.com\/upload\/caiku\/7\/6\/c\/762e51d28e5ea16247427e10b0c8206c.jpg",
            "s_d" : "#学做饭用豆果美食# 我在@豆果美食 分享了【新西北风-会做饭很酷!】，帅哥美眉们～你们喜欢的美食来咯！快来跟我一起做吧～查看图片了解菜谱（想要获取更多美食就看这https:\/\/m.weibo.cn\/p\/100404i33631）#会做饭很酷#",
            "qr_image" : "",
            "s_u" : "",
            "name" : "新西北风-会做饭很酷!",
            "object_id" : "3221768",
            "mini_program" : [

            ]
          },
          {
            "qr_image" : "",
            "image" : "https:\/\/cp1.douguo.com\/upload\/caiku\/7\/6\/c\/762e51d28e5ea16247427e10b0c8206c.jpg",
            "channel" : "7",
            "name" : "新西北风-会做饭很酷!",
            "mini_program" : [

            ],
            "s_d" : "新西北风-会做饭很酷!",
            "s_u" : "http:\/\/m.douguo.com\/cookbook\/3221768.html",
            "object_id" : "3221768"
          },
          {
            "mini_program" : [

            ],
            "image" : "https:\/\/cp1.douguo.com\/upload\/caiku\/7\/6\/c\/762e51d28e5ea16247427e10b0c8206c.jpg",
            "qr_image" : "",
            "name" : "新西北风-会做饭很酷!",
            "s_d" : "新西北风-会做饭很酷!",
            "channel" : "8",
            "object_id" : "3221768",
            "s_u" : "http:\/\/m.douguo.com\/cookbook\/3221768.html"
          }
        ],
        "qr_image" : "",
        "image" : "https:\/\/cp1.douguo.com\/upload\/caiku\/7\/6\/c\/762e51d28e5ea16247427e10b0c8206c.jpg",
        "s_d" : "新西北风-会做饭很酷!",
        "object_id" : "3221768",
        "name" : "新西北风-会做饭很酷!",
        "mini_program" : [

        ],
        "s_u" : "http:\/\/m.douguo.com\/cookbook\/3221768.html"
      },
      "create_time" : "2022-10-27 16:17:09",
      "favo_counts" : 18,
      "author" : "大张蘸大酱",
      "hq" : 0,
      "ipoi" : "",
      "tags" : [

      ],
      "vc" : "4063",
      "guide_image" : "",
      "rate_count" : 0,
      "purl" : "",
      "title_ad" : [

      ],
      "recipe_list_tags" : [

      ],
      "notes" : [

      ],
      "old_comments" : [

      ],
      "author_id" : 27377247
    }
  },
  "status" : 0,
  "state" : "success"
}