{
  "status" : 0,
  "state" : "success",
  "result" : {
    "recipe" : {
      "cookstorys" : [
        {
          "u" : "",
          "color" : "",
          "c" : "鸡翅中是一个很好的食材，用它可以做出好多种美味的美食！今天换一种吃法！",
          "type" : 0,
          "icon" : "",
          "id" : 0
        }
      ],
      "rate_show" : 0,
      "btm_dsp" : [

      ],
      "author_id" : 19862063,
      "bs" : [

      ],
      "title_ad" : [

      ],
      "tips" : "鸡翅中煎差不多时候看下熟透了就行，要熟透哦。",
      "original_photo_path" : "http:\/\/i1.douguo.net\/upload\/caiku\/3\/1\/a\/yuan_31d7cb29ab0308a903b0db1248bd26ba.jpeg",
      "top_mdsp" : [

      ],
      "cook_time" : "10~30分钟",
      "story_dsp" : [

      ],
      "sc" : 0,
      "collect_status" : 0,
      "vfurl" : "",
      "notes" : [

      ],
      "levelid" : 2,
      "ss" : [

      ],
      "pw" : 1920,
      "clicks" : "1",
      "old_comments" : [

      ],
      "guide_image" : "",
      "recent_comments" : [

      ],
      "advice" : {
        "has" : [
          {
            "url" : "recipes:\/\/www.douguo.com\/simplerecipelist?t=富含蛋白质&id=富含蛋白质",
            "t" : "富含蛋白质"
          }
        ],
        "da" : {
          "url" : "https:\/\/m.douguo.com\/recipe\/nutrient_self\/3218725",
          "iu" : "https:\/\/i1.douguo.com\/upload\/banner\/f\/4\/d\/f48877e53c37759bc12ac494be82ec8d.png",
          "t" : "查看详细分析"
        },
        "at" : "有助于组织的形成和生长～"
      },
      "vc" : "98577",
      "dish_count" : 0,
      "author_verified" : 1,
      "brand_day_dsp" : [

      ],
      "release_time" : "",
      "cook_difficulty" : "切墩(初级)",
      "ssu" : "",
      "ipt" : "",
      "rdsps" : [

      ],
      "act_des" : "",
      "rpst" : "",
      "hq" : 1,
      "purl" : "",
      "rips" : 0,
      "rate_count" : 0,
      "favo_counts" : 719,
      "create_time" : "2022-10-12 09:48:58",
      "su" : "",
      "rsm" : "该功能暂停使用",
      "recipe_list_tags" : [
        {
          "text_color" : "#141515",
          "text" : "关注的人",
          "background_border_color" : "",
          "background_end_color" : "#F4F5F5",
          "jump_url" : "",
          "background_start_color" : "#F4F5F5",
          "right_image" : ""
        }
      ],
      "cookwares" : [

      ],
      "cookstep" : [
        {
          "image" : "https:\/\/i1.douguo.com\/upload\/caiku\/a\/f\/7\/af988f2848422000be6b5479b8f08a77.jpeg",
          "frame" : "-1",
          "position" : 1,
          "thumb" : "https:\/\/i1.douguo.com\/upload\/caiku\/a\/f\/7\/140_af988f2848422000be6b5479b8f08a77.jpeg",
          "content" : "备好食材",
          "image_width" : 3840,
          "image_height" : 2880
        },
        {
          "content" : "鸡翅两杯各划两刀好入味。",
          "frame" : "-1",
          "image" : "https:\/\/i1.douguo.com\/upload\/caiku\/0\/c\/0\/0c9cb53f56ab1e407aa75377e3ffa160.jpeg",
          "thumb" : "https:\/\/i1.douguo.com\/upload\/caiku\/0\/c\/0\/140_0c9cb53f56ab1e407aa75377e3ffa160.jpeg",
          "position" : 2,
          "image_width" : 3840,
          "image_height" : 2880
        },
        {
          "image_height" : 5112,
          "image_width" : 3840,
          "thumb" : "https:\/\/i1.douguo.com\/upload\/caiku\/6\/c\/e\/140_6c73426688643d444cb2ee1301a0e52e.jpeg",
          "content" : "如图加入调料。",
          "image" : "https:\/\/i1.douguo.com\/upload\/caiku\/6\/c\/e\/6c73426688643d444cb2ee1301a0e52e.jpeg",
          "position" : 3,
          "frame" : "-1"
        },
        {
          "image_height" : 2880,
          "frame" : "-1",
          "thumb" : "https:\/\/i1.douguo.com\/upload\/caiku\/9\/1\/b\/140_91f038a4df6a56389e699bb7a28178ab.jpeg",
          "position" : 4,
          "content" : "抓均匀腌制30分钟，中间段翻面继续腌制。",
          "image" : "https:\/\/i1.douguo.com\/upload\/caiku\/9\/1\/b\/91f038a4df6a56389e699bb7a28178ab.jpeg",
          "image_width" : 3840
        },
        {
          "image_height" : 2880,
          "content" : "倒掉腌制的酱汁，加入淀粉和鸡蛋抓爆均匀。",
          "frame" : "-1",
          "thumb" : "https:\/\/i1.douguo.com\/upload\/caiku\/1\/8\/9\/140_1838ea2fc1e62aed6e03c49972753d59.jpeg",
          "image" : "https:\/\/i1.douguo.com\/upload\/caiku\/1\/8\/9\/1838ea2fc1e62aed6e03c49972753d59.jpeg",
          "image_width" : 3840,
          "position" : 5
        },
        {
          "position" : 6,
          "frame" : "-1",
          "image_height" : 2880,
          "image_width" : 3840,
          "content" : "油热下翅中，煎至两面金黄酥脆。",
          "thumb" : "https:\/\/i1.douguo.com\/upload\/caiku\/5\/4\/2\/140_543ecc78f811613259583fc373dc4272.jpeg",
          "image" : "https:\/\/i1.douguo.com\/upload\/caiku\/5\/4\/2\/543ecc78f811613259583fc373dc4272.jpeg"
        },
        {
          "content" : "夹出装盘，撒上椒盐个葱花就好啦！",
          "image" : "https:\/\/i1.douguo.com\/upload\/caiku\/d\/1\/7\/d1a483d76b20922b0d0f2ee3c44ee577.jpeg",
          "image_width" : 3840,
          "image_height" : 5118,
          "thumb" : "https:\/\/i1.douguo.com\/upload\/caiku\/d\/1\/7\/140_d1a483d76b20922b0d0f2ee3c44ee577.jpeg",
          "position" : 7,
          "frame" : "-1"
        }
      ],
      "cook_id" : "3218725",
      "recipe_tags" : [

      ],
      "related_ads" : [

      ],
      "dishes" : [

      ],
      "photo_path" : "https:\/\/i1.douguo.com\/upload\/caiku\/3\/1\/a\/600_31d7cb29ab0308a903b0db1248bd26ba.jpeg",
      "major" : [
        {
          "note" : "8个",
          "title" : "鸡中翅"
        },
        {
          "note" : "30g",
          "tu" : "https:\/\/m.douguo.com\/ingredients\/玉米淀粉\/detailmaterial",
          "title" : "玉米淀粉"
        },
        {
          "note" : "1茶匙",
          "title" : "椒盐"
        },
        {
          "note" : "1个",
          "title" : "鸡蛋",
          "tu" : "https:\/\/m.douguo.com\/ingredients\/鸡蛋\/detailmaterial"
        },
        {
          "tu" : "https:\/\/m.douguo.com\/ingredients\/姜\/detailmaterial",
          "note" : "5片",
          "title" : "姜"
        },
        {
          "tu" : "https:\/\/m.douguo.com\/ingredients\/料酒\/detailmaterial",
          "note" : "1勺",
          "title" : "料酒"
        },
        {
          "tu" : "https:\/\/m.douguo.com\/ingredients\/生抽\/detailmaterial",
          "note" : "2勺",
          "title" : "生抽"
        },
        {
          "tu" : "https:\/\/m.douguo.com\/ingredients\/葱花\/detailmaterial",
          "note" : "适量",
          "title" : "葱花"
        },
        {
          "tu" : "https:\/\/m.douguo.com\/ingredients\/食盐\/detailmaterial",
          "note" : "适量",
          "title" : "食盐"
        },
        {
          "tu" : "https:\/\/m.douguo.com\/ingredients\/老抽\/detailmaterial",
          "note" : "1茶匙",
          "title" : "老抽"
        }
      ],
      "recommend_label" : "9.9万人看过",
      "ipia" : [

      ],
      "dish_count_text" : "",
      "share_info" : {
        "mini_program" : [

        ],
        "image" : "https:\/\/cp1.douguo.com\/upload\/caiku\/3\/1\/a\/31d7cb29ab0308a903b0db1248bd26ba.jpeg",
        "object_id" : "3218725",
        "s_u" : "http:\/\/m.douguo.com\/cookbook\/3218725.html",
        "s_d" : "好吃到吮手指的椒盐鸡翅-会做饭很酷!",
        "infos" : [
          {
            "channel" : "1",
            "mini_program" : [

            ],
            "object_id" : "3218725",
            "name" : "好吃到吮手指的椒盐鸡翅-会做饭很酷!",
            "s_d" : "#学做饭用豆果美食# 会做饭真是太酷了！我在@豆果美食 分享了【好吃到吮手指的椒盐鸡翅-会做饭很酷!】，这道菜真的神仙美味！喜欢的一定要试试绝对不会错的！～查看图片了解菜谱（快来点击https:\/\/m.weibo.cn\/p\/100404i33631和我一起修炼厨艺吧）",
            "s_u" : "",
            "qr_image" : "",
            "image" : "https:\/\/cp1.douguo.com\/upload\/caiku\/3\/1\/a\/31d7cb29ab0308a903b0db1248bd26ba.jpeg"
          },
          {
            "qr_image" : "",
            "s_d" : "好吃到吮手指的椒盐鸡翅-会做饭很酷!",
            "name" : "好吃到吮手指的椒盐鸡翅-会做饭很酷!",
            "object_id" : "3218725",
            "image" : "https:\/\/cp1.douguo.com\/upload\/caiku\/3\/1\/a\/31d7cb29ab0308a903b0db1248bd26ba.jpeg",
            "mini_program" : [

            ],
            "s_u" : "http:\/\/m.douguo.com\/cookbook\/3218725.html",
            "channel" : "7"
          },
          {
            "s_u" : "http:\/\/m.douguo.com\/cookbook\/3218725.html",
            "channel" : "8",
            "qr_image" : "",
            "s_d" : "好吃到吮手指的椒盐鸡翅-会做饭很酷!",
            "mini_program" : [

            ],
            "image" : "https:\/\/cp1.douguo.com\/upload\/caiku\/3\/1\/a\/31d7cb29ab0308a903b0db1248bd26ba.jpeg",
            "object_id" : "3218725",
            "name" : "好吃到吮手指的椒盐鸡翅-会做饭很酷!"
          }
        ],
        "qr_image" : "",
        "name" : "好吃到吮手指的椒盐鸡翅-会做饭很酷!"
      },
      "recommendation_tag" : "",
      "minor" : [

      ],
      "ipit" : 0,
      "ipoi" : "",
      "first_level_comment_count" : 4,
      "sr" : "",
      "ecs" : 1,
      "hqu" : "recipes:\/\/www.douguo.com\/notedetail?id=21162253",
      "ph" : 1440,
      "rrps" : [

      ],
      "thumb_height" : 0,
      "ipurl" : "",
      "rate" : 0,
      "author" : "话梅真的很酸",
      "rpt" : "",
      "cook_difficulty_image" : "https:\/\/i1.douguo.com\/upload\/banner\/1551424390.png",
      "views_count_text" : "9.9万",
      "thumb_path" : "https:\/\/i1.douguo.com\/upload\/caiku\/3\/1\/a\/300_31d7cb29ab0308a903b0db1248bd26ba.jpeg",
      "rrpt" : "",
      "ipci" : "",
      "image" : "http:\/\/i1.douguo.net\/upload\/caiku\/3\/1\/a\/300_31d7cb29ab0308a903b0db1248bd26ba.jpeg",
      "recommended" : 0,
      "display_ingredient" : 1,
      "title" : "好吃到吮手指的椒盐鸡翅",
      "rcs" : [

      ],
      "rewarded_video_dsp" : [

      ],
      "tags" : [

      ],
      "packages_id" : [

      ],
      "v_u" : "",
      "comments_count_text" : "6",
      "author_photo" : "http:\/\/tx1.douguo.net\/upload\/photo\/7\/6\/6\/70_u89755308931773103609.jpeg",
      "vu" : "",
      "eu" : "recipes:\/\/www.douguo.com\/postdetail?id=242016",
      "rpid" : 0,
      "comments" : [
        "{\n    ac = \"#999999\";\n    at = \"\\U9042\\U5b81\\U5e02\";\n    ccc = 1;\n    \"child_comments\" =     (\n                {\n            ac = \"#999999\";\n            at = \"\\U798f\\U5dde\\U5e02\";\n            ccc = 0;\n            city = \"\\U798f\\U5dde\\U5e02\";\n            cmc = 2;\n            content =             (\n                                {\n                    c = \" \\U7528\\U7684\\U7389\\U7c73\\U6dc0\\U7c89\\U5462\";\n                }\n            );\n            ia = 1;\n            id = 8975303;\n            \"ip_address_location\" = \"\\U798f\\U5efa\\U7701\";\n            like = 0;\n            \"like_count\" = 0;\n            \"reply_id\" = 8975294;\n            \"reply_user\" =             {\n                \"followers_count_text\" = \"\";\n                id = 26244533;\n                \"is_prime\" = 0;\n                lv = 0;\n                lvl = 1;\n                n = \"\\U96fe\\U8499\\U8499\\U7684\\U7266\\U725b\\U8089\\U5f88\\U72e1\\U733e\";\n                p = \"http:\/\/tx1.douguo.net\/upload\/photo\/1\/1\/1\/70_55fedc7df97ad8d0960e0b7d091d2448.png\";\n                \"progress_image\" = \"\";\n                \"recipes_count_text\" = \"\";\n                relationship = \"-1\";\n                title = \"\";\n                v = 0;\n                \"verified_image\" = \"\";\n            };\n            \"sticker_icon\" =             (\n            );\n            time = \"2022-10-15 18:49:09\";\n            u =             {\n                \"followers_count_text\" = \"\";\n                id = 19862063;\n                \"is_prime\" = 0;\n                lv = 0;\n                lvl = 4;\n                n = \"\\U8bdd\\U6885\\U771f\\U7684\\U5f88\\U9178\";\n                p = \"http:\/\/tx1.douguo.net\/upload\/photo\/7\/6\/6\/70_u89755308931773103609.jpeg\";\n                \"progress_image\" = \"\";\n                \"recipes_count_text\" = \"\";\n                relationship = \"-1\";\n                title = \"\";\n                v = 1;\n                \"verified_image\" = \"\";\n            };\n        }\n    );\n    city = \"\\U9042\\U5b81\\U5e02\";\n    cmc = 2;\n    content =     (\n                {\n            c = \"\\U7528\\U7684\\U4ec0\\U4e48\\U6dc0\\U7c89\\U6602\\Ud83d\\Ude02\";\n        }\n    );\n    ia = 0;\n    id = 8975294;\n    \"ip_address_location\" = \"\\U56db\\U5ddd\";\n    like = 0;\n    \"like_count\" = 0;\n    \"reply_id\" = 0;\n    \"sticker_icon\" =     (\n    );\n    time = \"2022-10-15 17:59:10\";\n    u =     {\n        \"followers_count_text\" = \"\";\n        id = 26244533;\n        \"is_prime\" = 0;\n        lv = 0;\n        lvl = 1;\n        n = \"\\U96fe\\U8499\\U8499\\U7684\\U7266\\U725b\\U8089\\U5f88\\U72e1\\U733e\";\n        p = \"http:\/\/tx1.douguo.net\/upload\/photo\/1\/1\/1\/70_55fedc7df97ad8d0960e0b7d091d2448.png\";\n        \"progress_image\" = \"\";\n        \"recipes_count_text\" = \"\";\n        relationship = \"-1\";\n        title = \"\";\n        v = 0;\n        \"verified_image\" = \"\";\n    };\n}",
        "{\n    ac = \"#999999\";\n    at = \"\";\n    ccc = 1;\n    \"child_comments\" =     (\n                {\n            ac = \"#999999\";\n            at = \"\\U798f\\U5dde\\U5e02\";\n            ccc = 0;\n            city = \"\\U798f\\U5dde\\U5e02\";\n            cmc = 2;\n            content =             (\n                                {\n                    c = \" \\U4e0d\\U9700\\U8981\\U712f\\U6c34\\U5566\";\n                }\n            );\n            ia = 1;\n            id = 9010127;\n            \"ip_address_location\" = \"\\U798f\\U5efa\\U7701\";\n            like = 0;\n            \"like_count\" = 0;\n            \"reply_id\" = 9009854;\n            \"reply_user\" =             {\n                \"followers_count_text\" = \"\";\n                id = 26848388;\n                \"is_prime\" = 0;\n                lv = 0;\n                lvl = 1;\n                n = \"\\U9752\\U6625\\U7ec8\\U5c06\\U6563\\U573aaeih\";\n                p = \"http:\/\/tx1.douguo.net\/upload\/photo\/1\/1\/1\/70_8bb9e303921017ed2e50b5f8589a76d8.png\";\n                \"progress_image\" = \"\";\n                \"recipes_count_text\" = \"\";\n                relationship = \"-1\";\n                title = \"\";\n                v = 0;\n                \"verified_image\" = \"\";\n            };\n            \"sticker_icon\" =             (\n            );\n            time = \"2023-03-17 14:50:38\";\n            u =             {\n                \"followers_count_text\" = \"\";\n                id = 19862063;\n                \"is_prime\" = 0;\n                lv = 0;\n                lvl = 4;\n                n = \"\\U8bdd\\U6885\\U771f\\U7684\\U5f88\\U9178\";\n                p = \"http:\/\/tx1.douguo.net\/upload\/photo\/7\/6\/6\/70_u89755308931773103609.jpeg\";\n                \"progress_image\" = \"\";\n                \"recipes_count_text\" = \"\";\n                relationship = \"-1\";\n                title = \"\";\n                v = 1;\n                \"verified_image\" = \"\";\n            };\n        }\n    );\n    city = \"\";\n    cmc = 2;\n    content =     (\n                {\n            c = \"\\U9e21\\U7fc5\\U8fd8\\U9700\\U8981\\U712f\\U6c34\\U5417\\Uff1f\";\n        }\n    );\n    ia = 0;\n    id = 9009854;\n    \"ip_address_location\" = \"\\U5c71\\U4e1c\\U7701\";\n    like = 0;\n    \"like_count\" = 0;\n    \"reply_id\" = 0;\n    \"sticker_icon\" =     (\n    );\n    time = \"2023-03-16 20:16:18\";\n    u =     {\n        \"followers_count_text\" = \"\";\n        id = 26848388;\n        \"is_prime\" = 0;\n        lv = 0;\n        lvl = 1;\n        n = \"\\U9752\\U6625\\U7ec8\\U5c06\\U6563\\U573aaeih\";\n        p = \"http:\/\/tx1.douguo.net\/upload\/photo\/1\/1\/1\/70_8bb9e303921017ed2e50b5f8589a76d8.png\";\n        \"progress_image\" = \"\";\n        \"recipes_count_text\" = \"\";\n        relationship = \"-1\";\n        title = \"\";\n        v = 0;\n        \"verified_image\" = \"\";\n    };\n}",
        "{\n    ac = \"#999999\";\n    at = \"\";\n    ccc = 0;\n    \"child_comments\" =     (\n    );\n    city = \"\";\n    cmc = 2;\n    content =     (\n                {\n            c = \"\\U7f8e\\U5473\\U54df\";\n        }\n    );\n    ia = 0;\n    id = 8988561;\n    \"ip_address_location\" = \"\\U6cb3\\U5317\";\n    like = 0;\n    \"like_count\" = 0;\n    \"reply_id\" = 0;\n    \"sticker_icon\" =     (\n    );\n    time = \"2022-12-10 20:37:37\";\n    u =     {\n        \"followers_count_text\" = \"\";\n        id = 27408445;\n        \"is_prime\" = 0;\n        lv = 0;\n        lvl = 6;\n        n = \"\\U5411\\U5f80\\U7684\\U8d1d\\U5f88\\U5570\\U91cc\\U5570\\U55e6\";\n        p = \"http:\/\/tx1.douguo.net\/upload\/photo\/5\/5\/7\/70_u70057666588769022246.jpg\";\n        \"progress_image\" = \"\";\n        \"recipes_count_text\" = \"\";\n        relationship = \"-1\";\n        title = \"\";\n        v = 0;\n        \"verified_image\" = \"\";\n    };\n}"
      ],
      "favo_counts_text" : "719",
      "user" : {
        "sign" : "",
        "introduction" : "",
        "subscription" : 0,
        "pc" : 0,
        "verified_url" : "https:\/\/m.douguo.com\/user\/prodesc",
        "setted_email" : 0,
        "qzone_nick" : "",
        "is_prime" : 0,
        "coursecount" : 0,
        "fc" : 0,
        "point" : 0,
        "subscription_article_count" : 0,
        "followers_count" : 0,
        "nick" : "话梅真的很酸",
        "birthday" : "",
        "dishes_count" : 0,
        "user_large_photo" : "http:\/\/tx1.douguo.net\/upload\/photo\/7\/6\/6\/yuan_u89755308931773103609.jpeg",
        "favor_diaries_count" : 0,
        "gender" : 2,
        "user_cover" : "",
        "user_id" : "19862063",
        "user_photo" : "http:\/\/tx1.douguo.net\/upload\/photo\/7\/6\/6\/70_u89755308931773103609.jpeg",
        "email" : "",
        "verified_image" : "https:\/\/i1.douguo.com\/upload\/note\/d\/a\/a\/da84247847aebe48d9dd0fcdac88862a.png",
        "lvl" : 4,
        "lv" : 0,
        "recipes_count" : 0,
        "regist_time" : "",
        "favorites_count" : 0,
        "weibo_nick" : "",
        "diaries_count" : 0,
        "avatar_medium" : "http:\/\/tx1.douguo.net\/upload\/photo\/7\/6\/6\/140_u89755308931773103609.jpeg",
        "age" : "",
        "mobile" : "",
        "progress_image" : "",
        "userid" : "19862063",
        "following_count" : 0,
        "verified" : 1,
        "location" : 0,
        "qq_weibo_nick" : ""
      },
      "cook_time_image" : "https:\/\/i1.douguo.com\/upload\/banner\/1551424341.png",
      "cookstory" : "鸡翅中是一个很好的食材，用它可以做出好多种美味的美食！今天换一种吃法！",
      "comments_count" : 6,
      "mid_mdsp" : [

      ]
    }
  }
}