{
  "result" : {
    "recipe" : {
      "cook_time" : "10~30分钟",
      "rewarded_video_dsp" : [

      ],
      "views_count_text" : "21.2万",
      "rsm" : "该功能暂停使用",
      "first_level_comment_count" : 3,
      "comments_count_text" : "4",
      "rrpt" : "",
      "comments" : [
        "{\n    ac = \"#999999\";\n    at = \"\";\n    ccc = 1;\n    \"child_comments\" =     (\n                {\n            ac = \"#999999\";\n            at = \"\";\n            ccc = 0;\n            city = \"\";\n            cmc = 2;\n            content =             (\n                                {\n                    c = \" \\U597d\";\n                }\n            );\n            ia = 1;\n            id = 4075593;\n            \"ip_address_location\" = \"\";\n            like = 0;\n            \"like_count\" = 0;\n            \"reply_id\" = 4075469;\n            \"reply_user\" =             {\n                \"followers_count_text\" = \"\";\n                id = 18370617;\n                \"is_prime\" = 0;\n                lv = 0;\n                lvl = 6;\n                n = \"\\U5431\\U5431\\U7ae5\\U978b\";\n                p = \"http:\/\/tx1.douguo.net\/upload\/photo\/e\/7\/7\/70_u71854464242365133639.jpg\";\n                \"progress_image\" = \"\";\n                \"recipes_count_text\" = \"\";\n                relationship = \"-1\";\n                title = \"\";\n                v = 0;\n                \"verified_image\" = \"\";\n            };\n            \"sticker_icon\" =             (\n            );\n            time = \"2016-09-06 05:38:35\";\n            u =             {\n                \"followers_count_text\" = \"\";\n                id = 16446855;\n                \"is_prime\" = 0;\n                lv = 0;\n                lvl = 7;\n                n = \"\\U602a\\U5473\\U7199\";\n                p = \"http:\/\/tx1.douguo.net\/upload\/photo\/e\/8\/3\/70_e80300ba7eeb6d9067dddd676e996443.jpeg\";\n                \"progress_image\" = \"\";\n                \"recipes_count_text\" = \"\";\n                relationship = \"-1\";\n                title = \"\";\n                v = 1;\n                \"verified_image\" = \"\";\n            };\n        }\n    );\n    city = \"\";\n    cmc = 2;\n    content =     (\n                {\n            c = \"\\U6c64\\U770b\\U4e0a\\U53bb\\U5f88\\U6e05\\U723d\\U5462\\Uff0c\\U800c\\U4e14\\U505a\\U5f97\\U5f88\\U597d\\U5403\\U7684\\U6837\\U5b50\\Uff0c\\U671f\\U5f85\\U4f60\\U7684\\U65b0\\U4f5c\\U54c1\\U5462 \";\n        }\n    );\n    ia = 0;\n    id = 4075469;\n    \"ip_address_location\" = \"\";\n    like = 0;\n    \"like_count\" = 0;\n    \"reply_id\" = 0;\n    \"sticker_icon\" =     (\n    );\n    time = \"2016-09-06 05:00:47\";\n    u =     {\n        \"followers_count_text\" = \"\";\n        id = 18370617;\n        \"is_prime\" = 0;\n        lv = 0;\n        lvl = 6;\n        n = \"\\U5431\\U5431\\U7ae5\\U978b\";\n        p = \"http:\/\/tx1.douguo.net\/upload\/photo\/e\/7\/7\/70_u71854464242365133639.jpg\";\n        \"progress_image\" = \"\";\n        \"recipes_count_text\" = \"\";\n        relationship = \"-1\";\n        title = \"\";\n        v = 0;\n        \"verified_image\" = \"\";\n    };\n}",
        "{\n    ac = \"#999999\";\n    at = \"\";\n    ccc = 0;\n    \"child_comments\" =     (\n    );\n    city = \"\";\n    cmc = 2;\n    content =     (\n                {\n            c = \"\\U6211\\U4e5f\\U60f3\\U505a\";\n        }\n    );\n    ia = 0;\n    id = 5498503;\n    \"ip_address_location\" = \"\";\n    like = 0;\n    \"like_count\" = 1;\n    \"reply_id\" = 0;\n    \"sticker_icon\" =     (\n    );\n    time = \"2018-03-23 02:36:33\";\n    u =     {\n        \"followers_count_text\" = \"\";\n        id = 18556954;\n        \"is_prime\" = 0;\n        lv = 0;\n        lvl = 6;\n        n = \"\\U96ea\\U4e98\";\n        p = \"http:\/\/tx1.douguo.net\/upload\/photo\/1\/1\/1\/70_b7827e1b7bb12aeee0eb5eb4d2726f73.png\";\n        \"progress_image\" = \"\";\n        \"recipes_count_text\" = \"\";\n        relationship = \"-1\";\n        title = \"\";\n        v = 0;\n        \"verified_image\" = \"\";\n    };\n}",
        "{\n    ac = \"#999999\";\n    at = \"\\U6210\\U90fd\\U5e02\";\n    ccc = 0;\n    \"child_comments\" =     (\n    );\n    city = \"\\U6210\\U90fd\\U5e02\";\n    cmc = 2;\n    content =     (\n                {\n            c = \"\\U8bd5\\U7740\\U505a\\U4e86\\U4e0b\\U5473\\U9053\\U4e0d\\U9519\";\n        }\n    );\n    ia = 0;\n    id = 8849092;\n    \"ip_address_location\" = \"\";\n    like = 0;\n    \"like_count\" = 0;\n    \"reply_id\" = 0;\n    \"sticker_icon\" =     (\n    );\n    time = \"2021-11-03 17:48:00\";\n    u =     {\n        \"followers_count_text\" = \"\";\n        id = 5524845;\n        \"is_prime\" = 0;\n        lv = 0;\n        lvl = 3;\n        n = \"\\U8c46\\U8c46\\U9f991980\";\n        p = \"http:\/\/tx1.douguo.net\/upload\/photo\/1\/2\/f\/70_u09362737357031183747.jpg\";\n        \"progress_image\" = \"\";\n        \"recipes_count_text\" = \"\";\n        relationship = \"-1\";\n        title = \"\";\n        v = 0;\n        \"verified_image\" = \"\";\n    };\n}"
      ],
      "tips" : "",
      "ipci" : "",
      "bs" : [

      ],
      "author_photo" : "http:\/\/tx1.douguo.net\/upload\/photo\/e\/8\/3\/70_e80300ba7eeb6d9067dddd676e996443.jpeg",
      "vu" : "",
      "rate_show" : 0,
      "ss" : [

      ],
      "thumb_height" : 0,
      "release_time" : "",
      "ecs" : 0,
      "guide_image" : "",
      "hq" : 0,
      "cookstep" : [
        {
          "content" : "白菜洗净 切  水开后放白菜",
          "image" : "https:\/\/i1.douguo.com\/upload\/caiku\/0\/3\/7\/032a31208c6bf18eca84546b15dbe887.jpeg",
          "image_width" : 800,
          "thumb" : "https:\/\/i1.douguo.com\/upload\/caiku\/0\/3\/7\/140_032a31208c6bf18eca84546b15dbe887.jpeg",
          "frame" : "-1",
          "position" : 1,
          "image_height" : 928
        },
        {
          "thumb" : "https:\/\/i1.douguo.com\/upload\/caiku\/9\/3\/a\/140_938d43837a3d4f3bf67d72f4e1113cda.jpeg",
          "frame" : "-1",
          "image_height" : 1067,
          "image_width" : 800,
          "position" : 2,
          "content" : "白菜7成熟 放虾皮",
          "image" : "https:\/\/i1.douguo.com\/upload\/caiku\/9\/3\/a\/938d43837a3d4f3bf67d72f4e1113cda.jpeg"
        },
        {
          "image_width" : 800,
          "image" : "https:\/\/i1.douguo.com\/upload\/caiku\/3\/3\/0\/339ec34d350acae3fdb97e7c262d0cf0.jpeg",
          "image_height" : 1067,
          "thumb" : "https:\/\/i1.douguo.com\/upload\/caiku\/3\/3\/0\/140_339ec34d350acae3fdb97e7c262d0cf0.jpeg",
          "content" : "放 蚝油 盐 味精 花椒面",
          "position" : 3,
          "frame" : "-1"
        },
        {
          "image_width" : 800,
          "content" : "出锅",
          "image_height" : 778,
          "image" : "https:\/\/i1.douguo.com\/upload\/caiku\/d\/2\/7\/d271efe5dd9ce9eea9821951611de3b7.jpeg",
          "frame" : "-1",
          "thumb" : "https:\/\/i1.douguo.com\/upload\/caiku\/d\/2\/7\/140_d271efe5dd9ce9eea9821951611de3b7.jpeg",
          "position" : 4
        },
        {
          "content" : "请～～～～～",
          "image" : "https:\/\/i1.douguo.com\/upload\/caiku\/a\/4\/b\/a42b3243101b5b7b9bf485b895eb284b.jpeg",
          "image_height" : 769,
          "position" : 5,
          "image_width" : 800,
          "thumb" : "https:\/\/i1.douguo.com\/upload\/caiku\/a\/4\/b\/140_a42b3243101b5b7b9bf485b895eb284b.jpeg",
          "frame" : "-1"
        }
      ],
      "top_mdsp" : [

      ],
      "ssu" : "",
      "dish_count_text" : "7",
      "rpid" : 0,
      "comments_count" : 4,
      "recommendation_tag" : "",
      "favo_counts_text" : "2813",
      "recipe_tags" : [

      ],
      "advice" : {
        "at" : "能有效控制体重～",
        "da" : {
          "t" : "查看详细分析",
          "url" : "https:\/\/m.douguo.com\/recipe\/nutrient_self\/1441984",
          "iu" : "https:\/\/i1.douguo.com\/upload\/banner\/f\/4\/d\/f48877e53c37759bc12ac494be82ec8d.png"
        },
        "has" : [
          {
            "url" : "recipes:\/\/www.douguo.com\/simplerecipelist?t=低脂&id=低脂",
            "t" : "低脂"
          },
          {
            "t" : "0胆固醇",
            "url" : "recipes:\/\/www.douguo.com\/simplerecipelist?t=0胆固醇&id=0胆固醇"
          }
        ]
      },
      "title" : "减肥食谱-清爽白菜汤",
      "recommend_label" : "7人学做",
      "author_verified" : 1,
      "clicks" : "200573",
      "related_ads" : [

      ],
      "dishes" : [

      ],
      "rate" : 4,
      "brand_day_dsp" : [

      ],
      "levelid" : 3,
      "rips" : 0,
      "author" : "怪味熙",
      "major" : [
        {
          "note" : "",
          "tu" : "https:\/\/m.douguo.com\/ingredients\/小白菜\/detailmaterial",
          "title" : "小白菜"
        },
        {
          "note" : "",
          "title" : "虾皮",
          "tu" : "https:\/\/m.douguo.com\/ingredients\/虾皮\/detailmaterial"
        },
        {
          "tu" : "https:\/\/m.douguo.com\/ingredients\/蚝油\/detailmaterial",
          "title" : "蚝油",
          "note" : ""
        },
        {
          "note" : "♪───Ｏ（≧∇≦）Ｏ────♪",
          "title" : "调料"
        }
      ],
      "sc" : 0,
      "purl" : "",
      "su" : "",
      "rpt" : "",
      "share_info" : {
        "s_u" : "http:\/\/m.douguo.com\/cookbook\/1441984.html",
        "infos" : [
          {
            "s_u" : "",
            "s_d" : "#学做饭用豆果美食# 会做饭真是好酷啊！我在@豆果美食 分享了【减肥食谱-清爽白菜汤-会做饭很酷!】，快来康康我这道菜做的怎么样～美味停不下来！查看图片了解菜谱（你喜欢的美食都在这里！https:\/\/m.weibo.cn\/p\/100404i33631）",
            "name" : "减肥食谱-清爽白菜汤-会做饭很酷!",
            "channel" : "1",
            "mini_program" : [

            ],
            "image" : "https:\/\/cp1.douguo.com\/upload\/caiku\/7\/b\/c\/7b99815755bf8665707b0440127561fc.jpeg",
            "qr_image" : "",
            "object_id" : "1441984"
          },
          {
            "object_id" : "1441984",
            "name" : "减肥食谱-清爽白菜汤-会做饭很酷!",
            "channel" : "7",
            "image" : "https:\/\/cp1.douguo.com\/upload\/caiku\/7\/b\/c\/7b99815755bf8665707b0440127561fc.jpeg",
            "mini_program" : [

            ],
            "s_d" : "减肥食谱-清爽白菜汤-会做饭很酷!",
            "qr_image" : "",
            "s_u" : "http:\/\/m.douguo.com\/cookbook\/1441984.html"
          },
          {
            "s_d" : "减肥食谱-清爽白菜汤-会做饭很酷!",
            "name" : "减肥食谱-清爽白菜汤-会做饭很酷!",
            "channel" : "8",
            "qr_image" : "",
            "image" : "https:\/\/cp1.douguo.com\/upload\/caiku\/7\/b\/c\/7b99815755bf8665707b0440127561fc.jpeg",
            "object_id" : "1441984",
            "s_u" : "http:\/\/m.douguo.com\/cookbook\/1441984.html",
            "mini_program" : [

            ]
          }
        ],
        "qr_image" : "",
        "image" : "https:\/\/cp1.douguo.com\/upload\/caiku\/7\/b\/c\/7b99815755bf8665707b0440127561fc.jpeg",
        "name" : "减肥食谱-清爽白菜汤-会做饭很酷!",
        "object_id" : "1441984",
        "mini_program" : [

        ],
        "s_d" : "减肥食谱-清爽白菜汤-会做饭很酷!"
      },
      "mid_mdsp" : [

      ],
      "cookwares" : [

      ],
      "vfurl" : "",
      "dish_count" : 7,
      "display_ingredient" : 1,
      "minor" : [

      ],
      "rate_count" : 6,
      "title_ad" : [

      ],
      "eu" : "recipes:\/\/www.douguo.com\/postdetail?id=242016",
      "packages_id" : [

      ],
      "user" : {
        "is_prime" : 0,
        "user_cover" : "",
        "coursecount" : 0,
        "birthday" : "",
        "verified_url" : "https:\/\/m.douguo.com\/user\/prodesc",
        "userid" : "16446855",
        "verified" : 1,
        "fc" : 0,
        "qzone_nick" : "",
        "introduction" : "",
        "lv" : 0,
        "lvl" : 7,
        "qq_weibo_nick" : "",
        "user_large_photo" : "http:\/\/tx1.douguo.net\/upload\/photo\/e\/8\/3\/yuan_e80300ba7eeb6d9067dddd676e996443.jpeg",
        "verified_image" : "https:\/\/i1.douguo.com\/upload\/note\/d\/a\/a\/da84247847aebe48d9dd0fcdac88862a.png",
        "nick" : "怪味熙",
        "favorites_count" : 0,
        "regist_time" : "",
        "user_photo" : "http:\/\/tx1.douguo.net\/upload\/photo\/e\/8\/3\/70_e80300ba7eeb6d9067dddd676e996443.jpeg",
        "recipes_count" : 0,
        "point" : 0,
        "followers_count" : 0,
        "setted_email" : 0,
        "email" : "",
        "user_id" : "16446855",
        "age" : "",
        "weibo_nick" : "",
        "gender" : 2,
        "subscription" : 0,
        "subscription_article_count" : 0,
        "diaries_count" : 0,
        "following_count" : 0,
        "mobile" : "",
        "location" : 0,
        "progress_image" : "",
        "avatar_medium" : "http:\/\/tx1.douguo.net\/upload\/photo\/e\/8\/3\/140_e80300ba7eeb6d9067dddd676e996443.jpeg",
        "dishes_count" : 0,
        "sign" : "",
        "pc" : 0,
        "favor_diaries_count" : 0
      },
      "cook_difficulty" : "切墩(初级)",
      "vc" : "212185",
      "pw" : 800,
      "ipit" : 0,
      "rdsps" : [

      ],
      "v_u" : "",
      "cookstorys" : [

      ],
      "photo_path" : "https:\/\/i1.douguo.com\/upload\/caiku\/7\/b\/c\/600_7b99815755bf8665707b0440127561fc.jpeg",
      "recommended" : 0,
      "old_comments" : [

      ],
      "ipt" : "",
      "cook_difficulty_image" : "https:\/\/i1.douguo.com\/upload\/banner\/1551424390.png",
      "recent_comments" : [

      ],
      "sr" : "",
      "image" : "http:\/\/i1.douguo.net\/upload\/caiku\/7\/b\/c\/300_7b99815755bf8665707b0440127561fc.jpeg",
      "rcs" : [

      ],
      "create_time" : "2016-09-06 12:58:53",
      "recipe_list_tags" : [
        {
          "right_image" : "",
          "text_color" : "#141515",
          "background_border_color" : "",
          "background_start_color" : "#F4F5F5",
          "jump_url" : "",
          "background_end_color" : "#F4F5F5",
          "text" : "关注的人"
        }
      ],
      "btm_dsp" : [

      ],
      "hqu" : "recipes:\/\/www.douguo.com\/notedetail?id=21162253",
      "notes" : [

      ],
      "act_des" : "",
      "ipurl" : "",
      "rrps" : [

      ],
      "cook_id" : "1441984",
      "ph" : 769,
      "original_photo_path" : "http:\/\/i1.douguo.net\/upload\/caiku\/7\/b\/c\/yuan_7b99815755bf8665707b0440127561fc.jpeg",
      "ipoi" : "",
      "collect_status" : 0,
      "thumb_path" : "https:\/\/i1.douguo.com\/upload\/caiku\/7\/b\/c\/300_7b99815755bf8665707b0440127561fc.jpeg",
      "rpst" : "",
      "cook_time_image" : "https:\/\/i1.douguo.com\/upload\/banner\/1551424341.png",
      "cookstory" : "",
      "story_dsp" : [

      ],
      "author_id" : 16446855,
      "tags" : [

      ],
      "ipia" : [

      ],
      "favo_counts" : 2813
    }
  },
  "status" : 0,
  "state" : "success"
}