{
  "status" : 0,
  "state" : "success",
  "result" : {
    "recipe" : {
      "rate" : 5,
      "ipit" : 0,
      "mid_mdsp" : [

      ],
      "cook_time_image" : "https:\/\/i1.douguo.com\/upload\/banner\/1551424318.png",
      "packages_id" : [

      ],
      "rate_show" : 0,
      "rrpt" : "",
      "rpid" : 0,
      "vc" : "242244",
      "thumb_path" : "https:\/\/i1.douguo.com\/upload\/caiku\/c\/e\/e\/300_ced129f86b41b43cc282fd7190a2e2ae.jpg",
      "favo_counts" : 4504,
      "user" : {
        "dishes_count" : 0,
        "recipes_count" : 0,
        "introduction" : "",
        "userid" : "2839088",
        "location" : 0,
        "point" : 0,
        "setted_email" : 0,
        "verified_image" : "https:\/\/i1.douguo.com\/upload\/note\/d\/a\/a\/da84247847aebe48d9dd0fcdac88862a.png",
        "qzone_nick" : "",
        "pc" : 0,
        "user_id" : "2839088",
        "progress_image" : "",
        "user_large_photo" : "http:\/\/tx1.douguo.net\/upload\/photo\/d\/6\/b\/yuan_u7060417732822801280909.jpg",
        "regist_time" : "",
        "followers_count" : 0,
        "favorites_count" : 0,
        "following_count" : 0,
        "lvl" : 7,
        "weibo_nick" : "",
        "qq_weibo_nick" : "",
        "coursecount" : 0,
        "mobile" : "",
        "subscription_article_count" : 0,
        "diaries_count" : 0,
        "subscription" : 0,
        "avatar_medium" : "http:\/\/tx1.douguo.net\/upload\/photo\/d\/6\/b\/140_u7060417732822801280909.jpg",
        "fc" : 0,
        "lv" : 0,
        "birthday" : "",
        "nick" : "小羽私厨",
        "user_cover" : "",
        "user_photo" : "http:\/\/tx1.douguo.net\/upload\/photo\/d\/6\/b\/70_u7060417732822801280909.jpg",
        "age" : "",
        "favor_diaries_count" : 0,
        "is_prime" : 0,
        "verified" : 1,
        "gender" : 2,
        "verified_url" : "https:\/\/m.douguo.com\/user\/prodesc",
        "sign" : "",
        "email" : ""
      },
      "v_u" : "",
      "ssu" : "",
      "author_id" : 2839088,
      "tips" : "",
      "recipe_list_tags" : [
        {
          "background_border_color" : "",
          "jump_url" : "",
          "background_start_color" : "#F4F5F5",
          "background_end_color" : "#F4F5F5",
          "text_color" : "#141515",
          "right_image" : "",
          "text" : "关注的人"
        }
      ],
      "act_des" : "",
      "guide_image" : "",
      "cookstorys" : [
        {
          "u" : "",
          "color" : "",
          "c" : "西班牙烩饭的做法也真的是够懒的，找到一口平底锅，把大米和配料铺上去，再浇上高汤，等待开盖有惊喜就行了！而主角是铮光油亮的猪排，肉香沿着酱汁渗到米饭里，是每一颗哦！再加上红、黄椒提色，茄子软耙、洋葱回甜、荤素搭配，齐活了！",
          "icon" : "",
          "type" : 0,
          "id" : 0
        }
      ],
      "su" : "",
      "dishes" : [

      ],
      "clicks" : "225423",
      "rcs" : [

      ],
      "rpt" : "",
      "sc" : 0,
      "top_mdsp" : [

      ],
      "recommend_label" : "2人学做",
      "advice" : {
        "da" : {
          "t" : "查看详细分析",
          "url" : "https:\/\/m.douguo.com\/recipe\/nutrient_self\/2313798",
          "iu" : "https:\/\/i1.douguo.com\/upload\/banner\/f\/4\/d\/f48877e53c37759bc12ac494be82ec8d.png"
        },
        "has" : [

        ]
      },
      "collect_status" : 0,
      "bs" : [

      ],
      "release_time" : "",
      "recipe_tags" : [

      ],
      "cook_difficulty_image" : "https:\/\/i1.douguo.com\/upload\/banner\/1551424430.png",
      "favo_counts_text" : "4504",
      "btm_dsp" : [

      ],
      "eu" : "recipes:\/\/www.douguo.com\/postdetail?id=242016",
      "recent_comments" : [

      ],
      "brand_day_dsp" : [

      ],
      "ipci" : "",
      "rdsps" : [

      ],
      "cook_id" : "2313798",
      "rpst" : "",
      "recommendation_tag" : "",
      "rate_count" : 1,
      "vfurl" : "https:\/\/vplay.douguo.com\/lmUyjQSAdJE_T1WNYKrveKrqy0Pq__640x356.mp4",
      "first_level_comment_count" : 16,
      "title" : "猪排西班牙烩饭",
      "ipia" : [

      ],
      "ph" : 360,
      "old_comments" : [

      ],
      "original_photo_path" : "http:\/\/i1.douguo.net\/upload\/caiku\/c\/e\/e\/yuan_ced129f86b41b43cc282fd7190a2e2ae.jpg",
      "cookstep" : [
        {
          "image_height" : 648,
          "image" : "https:\/\/i1.douguo.com\/upload\/caiku\/4\/d\/e\/4d0ca15d0b7f23ba702313af17a316ae.gif",
          "content" : "彩椒、茄子切段。",
          "position" : 1,
          "frame" : "-1",
          "image_width" : 972,
          "thumb" : "https:\/\/i1.douguo.com\/upload\/caiku\/4\/d\/e\/4d0ca15d0b7f23ba702313af17a316ae.gif"
        },
        {
          "thumb" : "https:\/\/i1.douguo.com\/upload\/caiku\/f\/6\/4\/f6591be64afe36719e1c263298293784.gif",
          "image_height" : 648,
          "frame" : "-1",
          "image_width" : 972,
          "position" : 2,
          "image" : "https:\/\/i1.douguo.com\/upload\/caiku\/f\/6\/4\/f6591be64afe36719e1c263298293784.gif",
          "content" : "排骨提前加1大勺米酒，2克黑胡椒腌制15分钟。"
        },
        {
          "content" : "平底锅倒油烧热，放入排骨煎至表面微黄。",
          "image_height" : 648,
          "thumb" : "https:\/\/i1.douguo.com\/upload\/caiku\/e\/0\/f\/e08356038a072b18fc58328853da568f.gif",
          "image" : "https:\/\/i1.douguo.com\/upload\/caiku\/e\/0\/f\/e08356038a072b18fc58328853da568f.gif",
          "position" : 3,
          "image_width" : 972,
          "frame" : "-1"
        },
        {
          "frame" : "-1",
          "thumb" : "https:\/\/i1.douguo.com\/upload\/caiku\/e\/e\/5\/ee22c285de550a7bc65884e1abba2e75.gif",
          "position" : 4,
          "image" : "https:\/\/i1.douguo.com\/upload\/caiku\/e\/e\/5\/ee22c285de550a7bc65884e1abba2e75.gif",
          "image_width" : 972,
          "content" : "放入红椒、黄椒、茄子，再调入2克盐煎软，盛出来备用。",
          "image_height" : 648
        },
        {
          "frame" : "-1",
          "image" : "https:\/\/i1.douguo.com\/upload\/caiku\/b\/a\/8\/baa9e47bb7a9b4dc44701635d3c4c5c8.gif",
          "content" : "锅里留底油，倒入1碗米，加入洋葱碎，1小勺蒜末，2大勺番茄酱，2克盐，再倒入适量的水没过米饭。",
          "image_width" : 972,
          "thumb" : "https:\/\/i1.douguo.com\/upload\/caiku\/b\/a\/8\/baa9e47bb7a9b4dc44701635d3c4c5c8.gif",
          "position" : 5,
          "image_height" : 648
        },
        {
          "content" : "再把红椒、黄椒、茄子、排骨摆到米饭上，盖上盖子小火煮15分钟，再盖盖子焖10分钟。铸铁锅很容易熟，如果用普通平底锅就看情况适当延长焖煮时间。",
          "image" : "https:\/\/i1.douguo.com\/upload\/caiku\/8\/8\/b\/8827492cf6544259195b231b8b209acb.gif",
          "position" : 6,
          "thumb" : "https:\/\/i1.douguo.com\/upload\/caiku\/8\/8\/b\/8827492cf6544259195b231b8b209acb.gif",
          "image_width" : 972,
          "image_height" : 648,
          "frame" : "-1"
        },
        {
          "thumb" : "https:\/\/i1.douguo.com\/upload\/caiku\/1\/9\/a\/1910bf3dcb27dcc032292fab247590ba.gif",
          "content" : "焖米饭的时候我们做个酱汁，1小勺豆瓣酱，1大勺勺生抽，1小勺糖，1小勺淀粉，2大勺水混合，加热至浓稠。",
          "frame" : "-1",
          "position" : 7,
          "image_width" : 972,
          "image_height" : 648,
          "image" : "https:\/\/i1.douguo.com\/upload\/caiku\/1\/9\/a\/1910bf3dcb27dcc032292fab247590ba.gif"
        },
        {
          "thumb" : "https:\/\/i1.douguo.com\/upload\/caiku\/a\/c\/c\/ac18771348fd144b385dfbc1a01f726c.gif",
          "image" : "https:\/\/i1.douguo.com\/upload\/caiku\/a\/c\/c\/ac18771348fd144b385dfbc1a01f726c.gif",
          "content" : "焖好的米饭摆上柠檬片，点缀上香菜，淋上烧好的酱汁就可以了。",
          "image_height" : 648,
          "position" : 8,
          "image_width" : 972,
          "frame" : "-1"
        },
        {
          "frame" : "-1",
          "thumb" : "https:\/\/i1.douguo.com\/upload\/caiku\/1\/5\/f\/159cead1538188ff2ad045e67ab7a76f.gif",
          "image_width" : 972,
          "image_height" : 648,
          "position" : 9,
          "image" : "https:\/\/i1.douguo.com\/upload\/caiku\/1\/5\/f\/159cead1538188ff2ad045e67ab7a76f.gif",
          "content" : "咸香美味，吃起来特别过瘾。菜饭一锅出，省事儿又简单呀。"
        }
      ],
      "minor" : [

      ],
      "author" : "小羽私厨",
      "thumb_height" : 0,
      "notes" : [

      ],
      "purl" : "",
      "story_dsp" : [

      ],
      "cookstory" : "西班牙烩饭的做法也真的是够懒的，找到一口平底锅，把大米和配料铺上去，再浇上高汤，等待开盖有惊喜就行了！而主角是铮光油亮的猪排，肉香沿着酱汁渗到米饭里，是每一颗哦！再加上红、黄椒提色，茄子软耙、洋葱回甜、荤素搭配，齐活了！",
      "display_ingredient" : 1,
      "recommended" : 0,
      "levelid" : 2,
      "rewarded_video_dsp" : [

      ],
      "cookwares" : [

      ],
      "comments_count" : 16,
      "author_photo" : "http:\/\/tx1.douguo.net\/upload\/photo\/d\/6\/b\/70_u7060417732822801280909.jpg",
      "pw" : 640,
      "photo_path" : "https:\/\/i1.douguo.com\/upload\/caiku\/c\/e\/e\/600_ced129f86b41b43cc282fd7190a2e2ae.jpg",
      "related_ads" : [

      ],
      "author_verified" : 1,
      "ss" : [

      ],
      "ecs" : 0,
      "title_ad" : [

      ],
      "ipurl" : "",
      "rrps" : [

      ],
      "sr" : "",
      "create_time" : "2019-07-02 18:47:29",
      "rsm" : "该功能暂停使用",
      "cook_time" : "30-60分钟",
      "views_count_text" : "24.2万",
      "comments" : [
        "{\n    ac = \"#999999\";\n    at = \"\";\n    ccc = 0;\n    \"child_comments\" =     (\n    );\n    city = \"\";\n    cmc = 2;\n    content =     (\n                {\n            c = \"\\U4e0d\\U7528\\U6c34\\U712f\\U6392\\U9aa8\\U5417\";\n        }\n    );\n    ia = 0;\n    id = 6917277;\n    \"ip_address_location\" = \"\";\n    like = 0;\n    \"like_count\" = 0;\n    \"reply_id\" = 0;\n    \"sticker_icon\" =     (\n    );\n    time = \"2019-08-17 19:18:23\";\n    u =     {\n        \"followers_count_text\" = \"\";\n        id = 23749430;\n        \"is_prime\" = 0;\n        lv = 0;\n        lvl = 1;\n        n = \"\\U8c46\\U7c898856028708\";\n        p = \"\";\n        \"progress_image\" = \"\";\n        \"recipes_count_text\" = \"\";\n        relationship = \"-1\";\n        title = \"\";\n        v = 0;\n        \"verified_image\" = \"\";\n    };\n}",
        "{\n    ac = \"#999999\";\n    at = \"\";\n    ccc = 0;\n    \"child_comments\" =     (\n    );\n    city = \"\";\n    cmc = 2;\n    content =     (\n                {\n            c = \"\\U5f88\\U597d\\U5403\";\n        }\n    );\n    ia = 0;\n    id = 6902982;\n    \"ip_address_location\" = \"\";\n    like = 0;\n    \"like_count\" = 0;\n    \"reply_id\" = 0;\n    \"sticker_icon\" =     (\n    );\n    time = \"2019-08-14 19:16:08\";\n    u =     {\n        \"followers_count_text\" = \"\";\n        id = 23608958;\n        \"is_prime\" = 0;\n        lv = 0;\n        lvl = 5;\n        n = leoglory;\n        p = \"http:\/\/tx1.douguo.net\/upload\/photo\/7\/b\/9\/70_u7121328322490329234259.jpg\";\n        \"progress_image\" = \"\";\n        \"recipes_count_text\" = \"\";\n        relationship = \"-1\";\n        title = \"\";\n        v = 0;\n        \"verified_image\" = \"\";\n    };\n}",
        "{\n    ac = \"#999999\";\n    at = \"\";\n    ccc = 0;\n    \"child_comments\" =     (\n    );\n    city = \"\";\n    cmc = 2;\n    content =     (\n                {\n            c = \"\\U597d\\U597d\\U5403\\U7684\\U6837\\U5b50\\U554a\\Uff0c\\U597d\\U5389\\U5bb3\\Uff0c\\U725b\";\n        }\n    );\n    ia = 0;\n    id = 6902637;\n    \"ip_address_location\" = \"\";\n    like = 0;\n    \"like_count\" = 0;\n    \"reply_id\" = 0;\n    \"sticker_icon\" =     (\n    );\n    time = \"2019-08-14 18:23:11\";\n    u =     {\n        \"followers_count_text\" = \"\";\n        id = 18463658;\n        \"is_prime\" = 0;\n        lv = 0;\n        lvl = 4;\n        n = \"piu~\";\n        p = \"http:\/\/tx1.douguo.net\/upload\/photo\/4\/d\/f\/70_u12149036881050408135752.jpg\";\n        \"progress_image\" = \"\";\n        \"recipes_count_text\" = \"\";\n        relationship = \"-1\";\n        title = \"\";\n        v = 0;\n        \"verified_image\" = \"\";\n    };\n}"
      ],
      "tags" : [

      ],
      "cook_difficulty" : "掌勺(高级)",
      "ipoi" : "",
      "share_info" : {
        "mini_program" : [

        ],
        "s_d" : "猪排西班牙烩饭-会做饭很酷!",
        "image" : "https:\/\/cp1.douguo.com\/upload\/caiku\/c\/e\/e\/ced129f86b41b43cc282fd7190a2e2ae.jpg",
        "name" : "猪排西班牙烩饭-会做饭很酷!",
        "object_id" : "2313798",
        "qr_image" : "",
        "infos" : [
          {
            "name" : "猪排西班牙烩饭-会做饭很酷!",
            "s_u" : "",
            "object_id" : "2313798",
            "mini_program" : [

            ],
            "image" : "https:\/\/cp1.douguo.com\/upload\/caiku\/c\/e\/e\/ced129f86b41b43cc282fd7190a2e2ae.jpg",
            "channel" : "1",
            "qr_image" : "",
            "s_d" : "#学做饭用豆果美食# 会做饭好酷啊！我在@豆果美食 分享了【猪排西班牙烩饭-会做饭很酷!】，今天也是厨艺满满的一天呢，快来和我一起学做美食吧！查看图片了解菜谱（更多美食秘籍点击https:\/\/m.weibo.cn\/p\/100404i33631获取）"
          },
          {
            "s_u" : "http:\/\/m.douguo.com\/cookbook\/2313798.html",
            "image" : "https:\/\/cp1.douguo.com\/upload\/caiku\/c\/e\/e\/ced129f86b41b43cc282fd7190a2e2ae.jpg",
            "qr_image" : "",
            "channel" : "7",
            "mini_program" : [

            ],
            "name" : "猪排西班牙烩饭-会做饭很酷!",
            "object_id" : "2313798",
            "s_d" : "猪排西班牙烩饭-会做饭很酷!"
          },
          {
            "object_id" : "2313798",
            "s_d" : "猪排西班牙烩饭-会做饭很酷!",
            "s_u" : "http:\/\/m.douguo.com\/cookbook\/2313798.html",
            "image" : "https:\/\/cp1.douguo.com\/upload\/caiku\/c\/e\/e\/ced129f86b41b43cc282fd7190a2e2ae.jpg",
            "channel" : "8",
            "name" : "猪排西班牙烩饭-会做饭很酷!",
            "mini_program" : [

            ],
            "qr_image" : ""
          }
        ],
        "s_u" : "http:\/\/m.douguo.com\/cookbook\/2313798.html"
      },
      "hqu" : "recipes:\/\/www.douguo.com\/notedetail?id=21162253",
      "hq" : 1,
      "ipt" : "",
      "rips" : 0,
      "image" : "http:\/\/i1.douguo.net\/upload\/caiku\/c\/e\/e\/300_ced129f86b41b43cc282fd7190a2e2ae.jpg",
      "dish_count" : 2,
      "comments_count_text" : "16",
      "major" : [
        {
          "tu" : "https:\/\/m.douguo.com\/ingredients\/排骨\/detailmaterial",
          "note" : "300克",
          "title" : "排骨"
        },
        {
          "note" : "1碗",
          "title" : "米饭",
          "tu" : "https:\/\/m.douguo.com\/ingredients\/米饭\/detailmaterial"
        },
        {
          "title" : "红椒",
          "tu" : "https:\/\/m.douguo.com\/ingredients\/红椒\/detailmaterial",
          "note" : "1个"
        },
        {
          "title" : "黄椒",
          "note" : "1个"
        },
        {
          "title" : "茄子",
          "note" : "半个",
          "tu" : "https:\/\/m.douguo.com\/ingredients\/茄子\/detailmaterial"
        },
        {
          "note" : "半个",
          "title" : "洋葱",
          "tu" : "https:\/\/m.douguo.com\/ingredients\/洋葱\/detailmaterial"
        },
        {
          "note" : "2根",
          "title" : "香菜",
          "tu" : "https:\/\/m.douguo.com\/ingredients\/香菜\/detailmaterial"
        },
        {
          "title" : "蒜末",
          "note" : "5克"
        },
        {
          "title" : "番茄酱",
          "note" : "30克",
          "tu" : "https:\/\/m.douguo.com\/ingredients\/番茄酱\/detailmaterial"
        },
        {
          "tu" : "https:\/\/m.douguo.com\/ingredients\/豆瓣酱\/detailmaterial",
          "note" : "5克",
          "title" : "豆瓣酱"
        },
        {
          "title" : "淀粉",
          "note" : "5克"
        },
        {
          "tu" : "https:\/\/m.douguo.com\/ingredients\/生抽\/detailmaterial",
          "note" : "15克",
          "title" : "生抽"
        },
        {
          "title" : "米酒",
          "note" : "15克"
        },
        {
          "note" : "5克",
          "title" : "糖",
          "tu" : "https:\/\/m.douguo.com\/ingredients\/糖\/detailmaterial"
        },
        {
          "note" : "4克",
          "tu" : "https:\/\/m.douguo.com\/ingredients\/盐\/detailmaterial",
          "title" : "盐"
        },
        {
          "title" : "黑胡椒",
          "note" : "2克",
          "tu" : "https:\/\/m.douguo.com\/ingredients\/黑胡椒\/detailmaterial"
        }
      ],
      "vu" : "https:\/\/vplay.douguo.com\/lmUyjQSAdJE_T1WNYKrveKrqy0Pq",
      "dish_count_text" : "2"
    }
  }
}