{
  "status" : 0,
  "state" : "success",
  "result" : {
    "recipe" : {
      "minor" : [

      ],
      "eu" : "recipes:\/\/www.douguo.com\/postdetail?id=242016",
      "share_info" : {
        "infos" : [
          {
            "mini_program" : [

            ],
            "s_u" : "",
            "s_d" : "#学做饭用豆果美食#  我在@豆果美食 分享了【天麻党参莲子百合枸杞猪心汤-会做饭很酷!】，制作美食的过程承载了我生活中的热情，和我一起感受这份小确幸吧！查看图片了解菜谱（你喜欢的美食都在这里！https:\/\/m.weibo.cn\/p\/100404i33631）#会做饭很酷# ",
            "object_id" : "1488573",
            "image" : "https:\/\/cp1.douguo.com\/upload\/caiku\/5\/0\/1\/5025429ee54ab1695f46ca3e1a46efd1.jpg",
            "channel" : "1",
            "qr_image" : "",
            "name" : "天麻党参莲子百合枸杞猪心汤-会做饭很酷!"
          },
          {
            "channel" : "7",
            "mini_program" : [

            ],
            "s_u" : "http:\/\/m.douguo.com\/cookbook\/1488573.html",
            "object_id" : "1488573",
            "s_d" : "天麻党参莲子百合枸杞猪心汤-会做饭很酷!",
            "image" : "https:\/\/cp1.douguo.com\/upload\/caiku\/5\/0\/1\/5025429ee54ab1695f46ca3e1a46efd1.jpg",
            "name" : "天麻党参莲子百合枸杞猪心汤-会做饭很酷!",
            "qr_image" : ""
          },
          {
            "s_d" : "天麻党参莲子百合枸杞猪心汤-会做饭很酷!",
            "image" : "https:\/\/cp1.douguo.com\/upload\/caiku\/5\/0\/1\/5025429ee54ab1695f46ca3e1a46efd1.jpg",
            "qr_image" : "",
            "mini_program" : [

            ],
            "channel" : "8",
            "name" : "天麻党参莲子百合枸杞猪心汤-会做饭很酷!",
            "object_id" : "1488573",
            "s_u" : "http:\/\/m.douguo.com\/cookbook\/1488573.html"
          }
        ],
        "s_d" : "天麻党参莲子百合枸杞猪心汤-会做饭很酷!",
        "object_id" : "1488573",
        "qr_image" : "",
        "mini_program" : [

        ],
        "s_u" : "http:\/\/m.douguo.com\/cookbook\/1488573.html",
        "name" : "天麻党参莲子百合枸杞猪心汤-会做饭很酷!",
        "image" : "https:\/\/cp1.douguo.com\/upload\/caiku\/5\/0\/1\/5025429ee54ab1695f46ca3e1a46efd1.jpg"
      },
      "author_verified" : 1,
      "cook_difficulty" : "切墩(初级)",
      "favo_counts_text" : "1372",
      "old_comments" : [

      ],
      "rate_count" : 0,
      "first_level_comment_count" : 0,
      "cook_time" : "1小时以上",
      "cook_difficulty_image" : "https:\/\/i1.douguo.com\/upload\/banner\/1551424390.png",
      "hqu" : "recipes:\/\/www.douguo.com\/notedetail?id=21162253",
      "comments_count" : 0,
      "top_mdsp" : [

      ],
      "sc" : 0,
      "bs" : [

      ],
      "ipurl" : "",
      "photo_path" : "https:\/\/i1.douguo.com\/upload\/caiku\/5\/0\/1\/600_5025429ee54ab1695f46ca3e1a46efd1.jpg",
      "ss" : [

      ],
      "recommendation_tag" : "",
      "su" : "",
      "tags" : [

      ],
      "rewarded_video_dsp" : [

      ],
      "mid_mdsp" : [

      ],
      "recommend_label" : "1372人刚刚收藏过",
      "collect_status" : 0,
      "title" : "天麻党参莲子百合枸杞猪心汤",
      "related_ads" : [

      ],
      "rate_show" : 0,
      "rpst" : "",
      "thumb_path" : "https:\/\/i1.douguo.com\/upload\/caiku\/5\/0\/1\/300_5025429ee54ab1695f46ca3e1a46efd1.jpg",
      "ipci" : "",
      "image" : "http:\/\/i1.douguo.net\/upload\/caiku\/5\/0\/1\/300_5025429ee54ab1695f46ca3e1a46efd1.jpg",
      "favo_counts" : 1372,
      "recent_comments" : [

      ],
      "author" : "凡妈小厨房",
      "hq" : 0,
      "vu" : "",
      "guide_image" : "",
      "sr" : "",
      "rpid" : 0,
      "user" : {
        "nick" : "凡妈小厨房",
        "progress_image" : "",
        "coursecount" : 0,
        "location" : 0,
        "subscription_article_count" : 0,
        "age" : "",
        "setted_email" : 0,
        "verified_url" : "https:\/\/m.douguo.com\/user\/prodesc",
        "sign" : "",
        "dishes_count" : 0,
        "qzone_nick" : "",
        "regist_time" : "",
        "user_large_photo" : "http:\/\/tx1.douguo.net\/upload\/photo\/d\/0\/6\/yuan_u65211479190670203729.jpg",
        "following_count" : 0,
        "avatar_medium" : "http:\/\/tx1.douguo.net\/upload\/photo\/d\/0\/6\/140_u65211479190670203729.jpg",
        "user_id" : "17639536",
        "birthday" : "",
        "mobile" : "",
        "userid" : "17639536",
        "favor_diaries_count" : 0,
        "point" : 0,
        "followers_count" : 0,
        "email" : "",
        "weibo_nick" : "",
        "diaries_count" : 0,
        "gender" : 2,
        "verified" : 1,
        "verified_image" : "https:\/\/i1.douguo.com\/upload\/note\/d\/a\/a\/da84247847aebe48d9dd0fcdac88862a.png",
        "favorites_count" : 0,
        "subscription" : 0,
        "fc" : 0,
        "user_photo" : "http:\/\/tx1.douguo.net\/upload\/photo\/d\/0\/6\/70_u65211479190670203729.jpg",
        "lvl" : 6,
        "recipes_count" : 0,
        "qq_weibo_nick" : "",
        "pc" : 0,
        "is_prime" : 0,
        "introduction" : "",
        "lv" : 0,
        "user_cover" : ""
      },
      "levelid" : 3,
      "clicks" : "219229",
      "cook_id" : "1488573",
      "recommended" : 0,
      "ph" : 800,
      "ssu" : "",
      "tips" : "",
      "packages_id" : [

      ],
      "vfurl" : "",
      "ipit" : 0,
      "rips" : 0,
      "ecs" : 1,
      "author_photo" : "http:\/\/tx1.douguo.net\/upload\/photo\/d\/0\/6\/70_u65211479190670203729.jpg",
      "rdsps" : [

      ],
      "brand_day_dsp" : [

      ],
      "comments_count_text" : "",
      "cookstep" : [
        {
          "frame" : "-1",
          "image_height" : 800,
          "image_width" : 800,
          "position" : 1,
          "image" : "https:\/\/i1.douguo.com\/upload\/caiku\/c\/2\/3\/c2c00f87c3ff61e7b3c2c6520fe7e143.jpg",
          "thumb" : "https:\/\/i1.douguo.com\/upload\/caiku\/c\/2\/3\/140_c2c00f87c3ff61e7b3c2c6520fe7e143.jpg",
          "content" : "莲子百合需要提前泡一晚上"
        },
        {
          "image" : "https:\/\/i1.douguo.com\/upload\/caiku\/3\/d\/c\/3dc1acc90ec047f7aaa84e649032112c.jpg",
          "thumb" : "https:\/\/i1.douguo.com\/upload\/caiku\/3\/d\/c\/140_3dc1acc90ec047f7aaa84e649032112c.jpg",
          "image_width" : 800,
          "frame" : "-1",
          "content" : "猪心切好后用水焯一下",
          "position" : 2,
          "image_height" : 799
        },
        {
          "image_width" : 800,
          "content" : "把猪心，天麻，党参，莲子，百合放入电饭煲，加入适量料酒。",
          "image_height" : 1067,
          "frame" : "-1",
          "thumb" : "https:\/\/i1.douguo.com\/upload\/caiku\/2\/6\/0\/140_26faba8c894f9c85b7e302b8a12e1580.jpg",
          "position" : 3,
          "image" : "https:\/\/i1.douguo.com\/upload\/caiku\/2\/6\/0\/26faba8c894f9c85b7e302b8a12e1580.jpg"
        },
        {
          "content" : "一个半小时后加入枸杞子",
          "thumb" : "https:\/\/i1.douguo.com\/upload\/caiku\/5\/5\/7\/140_55aac2c054f5b8675647ad29e3ae65e7.jpg",
          "frame" : "-1",
          "image_height" : 1067,
          "image_width" : 800,
          "image" : "https:\/\/i1.douguo.com\/upload\/caiku\/5\/5\/7\/55aac2c054f5b8675647ad29e3ae65e7.jpg",
          "position" : 4
        },
        {
          "image_height" : 1067,
          "thumb" : "https:\/\/i1.douguo.com\/upload\/caiku\/2\/7\/d\/140_270a0869e843ac059e6e06509cdc8c2d.jpg",
          "content" : "炖好后放盐就可以了",
          "image_width" : 800,
          "frame" : "-1",
          "image" : "https:\/\/i1.douguo.com\/upload\/caiku\/2\/7\/d\/270a0869e843ac059e6e06509cdc8c2d.jpg",
          "position" : 5
        },
        {
          "content" : "成品",
          "image_height" : 890,
          "image_width" : 800,
          "thumb" : "https:\/\/i1.douguo.com\/upload\/caiku\/0\/4\/9\/140_0443d07ad84ba2268abdb027fec52e89.jpg",
          "frame" : "-1",
          "position" : 6,
          "image" : "https:\/\/i1.douguo.com\/upload\/caiku\/0\/4\/9\/0443d07ad84ba2268abdb027fec52e89.jpg"
        }
      ],
      "dish_count" : 0,
      "recipe_tags" : [

      ],
      "act_des" : "",
      "recipe_list_tags" : [
        {
          "text_color" : "#141515",
          "text" : "关注的人",
          "background_border_color" : "",
          "right_image" : "",
          "background_start_color" : "#F4F5F5",
          "jump_url" : "",
          "background_end_color" : "#F4F5F5"
        }
      ],
      "ipoi" : "",
      "cookstorys" : [
        {
          "color" : "",
          "id" : 0,
          "u" : "",
          "c" : "猪心，自古以来有一种说法叫做“以脏补脏”，“以心补心”，意思呢就是猪心对人的心脏是非常好的。\n食用猪心可以养血安神，能帮助增强心肌的营养，增强心肌收缩，这样就能有效地预防心脏疾病。",
          "type" : 0,
          "icon" : ""
        }
      ],
      "rrpt" : "",
      "title_ad" : [

      ],
      "views_count_text" : "24.3万",
      "original_photo_path" : "http:\/\/i1.douguo.net\/upload\/caiku\/5\/0\/1\/yuan_5025429ee54ab1695f46ca3e1a46efd1.jpg",
      "comments" : [

      ],
      "notes" : [

      ],
      "v_u" : "",
      "cookwares" : [

      ],
      "thumb_height" : 0,
      "display_ingredient" : 1,
      "release_time" : "",
      "rcs" : [

      ],
      "btm_dsp" : [

      ],
      "major" : [
        {
          "title" : "猪心",
          "tu" : "https:\/\/m.douguo.com\/ingredients\/猪心\/detailmaterial",
          "note" : "一个"
        },
        {
          "tu" : "https:\/\/m.douguo.com\/ingredients\/天麻\/detailmaterial",
          "title" : "天麻",
          "note" : "半个"
        },
        {
          "tu" : "https:\/\/m.douguo.com\/ingredients\/党参\/detailmaterial",
          "title" : "党参",
          "note" : "适量"
        },
        {
          "tu" : "https:\/\/m.douguo.com\/ingredients\/莲子\/detailmaterial",
          "note" : "适量",
          "title" : "莲子"
        },
        {
          "title" : "百合",
          "note" : "适量",
          "tu" : "https:\/\/m.douguo.com\/ingredients\/百合\/detailmaterial"
        },
        {
          "tu" : "https:\/\/m.douguo.com\/ingredients\/枸杞\/detailmaterial",
          "title" : "枸杞",
          "note" : "适量"
        }
      ],
      "purl" : "",
      "rsm" : "该功能暂停使用",
      "rrps" : [

      ],
      "cookstory" : "猪心，自古以来有一种说法叫做“以脏补脏”，“以心补心”，意思呢就是猪心对人的心脏是非常好的。\n食用猪心可以养血安神，能帮助增强心肌的营养，增强心肌收缩，这样就能有效地预防心脏疾病。",
      "cook_time_image" : "https:\/\/i1.douguo.com\/upload\/banner\/1551423815.png",
      "create_time" : "2016-12-12 11:10:12",
      "author_id" : 17639536,
      "story_dsp" : [

      ],
      "ipia" : [

      ],
      "dish_count_text" : "",
      "ipt" : "",
      "rpt" : "",
      "dishes" : [

      ],
      "pw" : 800,
      "vc" : "242897",
      "rate" : 0
    }
  }
}