{
  "status" : 0,
  "result" : {
    "recipe" : {
      "vu" : "",
      "vfurl" : "",
      "views_count_text" : "454.4万",
      "image" : "http:\/\/i1.douguo.net\/upload\/caiku\/4\/4\/6\/300_441fead89aa236ec68176fd05a5e69c6.jpeg",
      "vc" : "4544343",
      "purl" : "",
      "story_dsp" : [

      ],
      "su" : "",
      "sr" : "",
      "minor" : [

      ],
      "eu" : "recipes:\/\/www.douguo.com\/postdetail?id=242016",
      "share_info" : {
        "mini_program" : [

        ],
        "object_id" : "2501602",
        "s_u" : "http:\/\/m.douguo.com\/cookbook\/2501602.html",
        "infos" : [
          {
            "s_d" : "#学做饭用豆果美食# 我在@豆果美食 分享了【营养早餐-香煎土豆饼-会做饭很酷!】，这菜真的很好吃，而且做法简单不难学，还不快来跟我学～查看图片了解菜谱（每天限量免费课程，想跟大师学厨艺就来这https:\/\/m.weibo.cn\/p\/100404i33631）#会做饭很酷# ",
            "qr_image" : "",
            "s_u" : "",
            "image" : "https:\/\/cp1.douguo.com\/upload\/caiku\/4\/4\/6\/441fead89aa236ec68176fd05a5e69c6.jpeg",
            "object_id" : "2501602",
            "name" : "营养早餐-香煎土豆饼-会做饭很酷!",
            "mini_program" : [

            ],
            "channel" : "1"
          },
          {
            "s_u" : "http:\/\/m.douguo.com\/cookbook\/2501602.html",
            "qr_image" : "",
            "image" : "https:\/\/cp1.douguo.com\/upload\/caiku\/4\/4\/6\/441fead89aa236ec68176fd05a5e69c6.jpeg",
            "name" : "营养早餐-香煎土豆饼-会做饭很酷!",
            "object_id" : "2501602",
            "mini_program" : [

            ],
            "channel" : "7",
            "s_d" : "营养早餐-香煎土豆饼-会做饭很酷!"
          },
          {
            "image" : "https:\/\/cp1.douguo.com\/upload\/caiku\/4\/4\/6\/441fead89aa236ec68176fd05a5e69c6.jpeg",
            "name" : "营养早餐-香煎土豆饼-会做饭很酷!",
            "object_id" : "2501602",
            "s_d" : "营养早餐-香煎土豆饼-会做饭很酷!",
            "mini_program" : [

            ],
            "s_u" : "http:\/\/m.douguo.com\/cookbook\/2501602.html",
            "qr_image" : "",
            "channel" : "8"
          }
        ],
        "name" : "营养早餐-香煎土豆饼-会做饭很酷!",
        "qr_image" : "",
        "s_d" : "营养早餐-香煎土豆饼-会做饭很酷!",
        "image" : "https:\/\/cp1.douguo.com\/upload\/caiku\/4\/4\/6\/441fead89aa236ec68176fd05a5e69c6.jpeg"
      },
      "original_photo_path" : "http:\/\/i1.douguo.net\/upload\/caiku\/4\/4\/6\/yuan_441fead89aa236ec68176fd05a5e69c6.jpeg",
      "cook_difficulty" : "配菜(中级)",
      "clicks" : "3556717",
      "favo_counts_text" : "3.4万",
      "comments_count" : 45,
      "user" : {
        "verified_image" : "",
        "user_cover" : "",
        "location" : 0,
        "dishes_count" : 0,
        "diaries_count" : 0,
        "user_large_photo" : "http:\/\/tx1.douguo.net\/upload\/photo\/0\/e\/1\/yuan_u57078294375116213406.jpeg",
        "introduction" : "",
        "mobile" : "",
        "qq_weibo_nick" : "",
        "setted_email" : 0,
        "recipes_count" : 0,
        "followers_count" : 0,
        "user_id" : "16753515",
        "subscription_article_count" : 0,
        "age" : "",
        "gender" : 2,
        "userid" : "16753515",
        "avatar_medium" : "http:\/\/tx1.douguo.net\/upload\/photo\/0\/e\/1\/140_u57078294375116213406.jpeg",
        "weibo_nick" : "",
        "favor_diaries_count" : 0,
        "fc" : 0,
        "point" : 0,
        "subscription" : 0,
        "nick" : "一个幸福的微笑",
        "pc" : 0,
        "verified" : 0,
        "lvl" : 6,
        "birthday" : "",
        "progress_image" : "",
        "is_prime" : 0,
        "following_count" : 0,
        "lv" : 0,
        "user_photo" : "http:\/\/tx1.douguo.net\/upload\/photo\/0\/e\/1\/70_u57078294375116213406.jpeg",
        "email" : "",
        "coursecount" : 0,
        "verified_url" : "https:\/\/m.douguo.com\/user\/prodesc",
        "sign" : "",
        "favorites_count" : 0,
        "regist_time" : "",
        "qzone_nick" : ""
      },
      "author" : "一个幸福的微笑",
      "ipt" : "",
      "advice" : {
        "da" : {
          "iu" : "https:\/\/i1.douguo.com\/upload\/banner\/f\/4\/d\/f48877e53c37759bc12ac494be82ec8d.png",
          "t" : "查看详细分析",
          "url" : "https:\/\/m.douguo.com\/recipe\/nutrient_self\/2501602"
        },
        "at" : "能有效控制体重～",
        "has" : [
          {
            "url" : "recipes:\/\/www.douguo.com\/simplerecipelist?t=低脂&id=低脂",
            "t" : "低脂"
          },
          {
            "t" : "低饱和脂肪",
            "url" : "recipes:\/\/www.douguo.com\/simplerecipelist?t=低饱和脂肪&id=低饱和脂肪"
          }
        ]
      },
      "rpst" : "",
      "cookstorys" : [
        {
          "c" : " 土豆饼简单易操作，外焦里嫩，有孜然的香味，土豆饼有营养而且味道很美。配沙拉酱或者番茄酱都可以，不沾酱也好吃，关键是节省做早餐的时间哦～ ",
          "u" : "",
          "type" : 0,
          "icon" : "",
          "id" : 0,
          "color" : ""
        }
      ],
      "recipe_list_tags" : [
        {
          "right_image" : "",
          "background_end_color" : "#F4F5F5",
          "background_start_color" : "#F4F5F5",
          "jump_url" : "",
          "text_color" : "#141515",
          "background_border_color" : "",
          "text" : "关注的人"
        },
        {
          "background_border_color" : "",
          "background_start_color" : "#F4F5F5",
          "jump_url" : "",
          "right_image" : "",
          "background_end_color" : "#F4F5F5",
          "text_color" : "#141515",
          "text" : "内容详细"
        }
      ],
      "ph" : 442,
      "brand_day_dsp" : [

      ],
      "photo_path" : "https:\/\/i1.douguo.com\/upload\/caiku\/4\/4\/6\/600_441fead89aa236ec68176fd05a5e69c6.jpeg",
      "old_comments" : [

      ],
      "v_u" : "",
      "tags" : [

      ],
      "display_ingredient" : 1,
      "cook_time_image" : "https:\/\/i1.douguo.com\/upload\/banner\/1551424341.png",
      "comments" : [
        "{\n    ac = \"#999999\";\n    at = \"\\U5a01\\U6d77\\U5e02\";\n    ccc = 4;\n    \"child_comments\" =     (\n                {\n            ac = \"#999999\";\n            at = \"\";\n            ccc = 0;\n            city = \"\";\n            cmc = 2;\n            content =             (\n                                {\n                    c = \" \\U4e0d\\U7528\\U7684\";\n                }\n            );\n            ia = 1;\n            id = 8463041;\n            \"ip_address_location\" = \"\";\n            like = 0;\n            \"like_count\" = 0;\n            \"reply_id\" = 8462895;\n            \"reply_user\" =             {\n                \"followers_count_text\" = \"\";\n                id = 26001706;\n                \"is_prime\" = 0;\n                lv = 0;\n                lvl = 1;\n                n = \"\\U82b1\\U679d\\U62db\\U5c55\\U7684\\U9a6c\\U90c1\\U5170\";\n                p = \"http:\/\/tx1.douguo.net\/upload\/photo\/1\/1\/1\/70_a5f8400664052cdd91d1ad457d121e16.png\";\n                \"progress_image\" = \"\";\n                \"recipes_count_text\" = \"\";\n                relationship = \"-1\";\n                title = \"\";\n                v = 0;\n                \"verified_image\" = \"\";\n            };\n            \"sticker_icon\" =             (\n            );\n            time = \"2021-01-18 08:53:40\";\n            u =             {\n                \"followers_count_text\" = \"\";\n                id = 16753515;\n                \"is_prime\" = 0;\n                lv = 0;\n                lvl = 6;\n                n = \"\\U4e00\\U4e2a\\U5e78\\U798f\\U7684\\U5fae\\U7b11\";\n                p = \"http:\/\/tx1.douguo.net\/upload\/photo\/0\/e\/1\/70_u57078294375116213406.jpeg\";\n                \"progress_image\" = \"\";\n                \"recipes_count_text\" = \"\";\n                relationship = \"-1\";\n                title = \"\";\n                v = 0;\n                \"verified_image\" = \"\";\n            };\n        },\n                {\n            ac = \"#999999\";\n            at = \"\\U5927\\U8fde\\U5e02\";\n            ccc = 0;\n            city = \"\\U5927\\U8fde\\U5e02\";\n            cmc = 2;\n            content =             (\n                                {\n                    c = \" \\U6211\\U653e\\U51c9\\U6c34\\U8fc7\\U4e00\\U4e0b\\Ud83d\\Ude0b\\Ud83d\\Ude0b\";\n                }\n            );\n            ia = 0;\n            id = 8684027;\n            \"ip_address_location\" = \"\";\n            like = 0;\n            \"like_count\" = 0;\n            \"reply_id\" = 8462895;\n            \"reply_user\" =             {\n                \"followers_count_text\" = \"\";\n                id = 26001706;\n                \"is_prime\" = 0;\n                lv = 0;\n                lvl = 1;\n                n = \"\\U82b1\\U679d\\U62db\\U5c55\\U7684\\U9a6c\\U90c1\\U5170\";\n                p = \"http:\/\/tx1.douguo.net\/upload\/photo\/1\/1\/1\/70_a5f8400664052cdd91d1ad457d121e16.png\";\n                \"progress_image\" = \"\";\n                \"recipes_count_text\" = \"\";\n                relationship = \"-1\";\n                title = \"\";\n                v = 0;\n                \"verified_image\" = \"\";\n            };\n            \"sticker_icon\" =             (\n            );\n            time = \"2021-05-19 23:19:16\";\n            u =             {\n                \"followers_count_text\" = \"\";\n                id = 491905;\n                \"is_prime\" = 0;\n                lv = 0;\n                lvl = 3;\n                n = \"\\U8bf7\\U5c0a\\U91cd\\U767d\\U996d\";\n                p = \"http:\/\/tx1.douguo.net\/upload\/photo\/2\/3\/c\/70_u25067859094758.jpeg\";\n                \"progress_image\" = \"\";\n                \"recipes_count_text\" = \"\";\n                relationship = \"-1\";\n                title = \"\";\n                v = 0;\n                \"verified_image\" = \"\";\n            };\n        }\n    );\n    city = \"\\U5a01\\U6d77\\U5e02\";\n    cmc = 2;\n    content =     (\n                {\n            c = \"\\U571f\\U8c46\\U635e\\U51fa\\U4e0d\\U7528\\U653e\\U51c9\\U6c34\\U4e48\";\n        }\n    );\n    ia = 0;\n    id = 8462895;\n    \"ip_address_location\" = \"\";\n    like = 0;\n    \"like_count\" = 2;\n    \"reply_id\" = 0;\n    \"sticker_icon\" =     (\n    );\n    time = \"2021-01-18 05:48:05\";\n    u =     {\n        \"followers_count_text\" = \"\";\n        id = 26001706;\n        \"is_prime\" = 0;\n        lv = 0;\n        lvl = 1;\n        n = \"\\U82b1\\U679d\\U62db\\U5c55\\U7684\\U9a6c\\U90c1\\U5170\";\n        p = \"http:\/\/tx1.douguo.net\/upload\/photo\/1\/1\/1\/70_a5f8400664052cdd91d1ad457d121e16.png\";\n        \"progress_image\" = \"\";\n        \"recipes_count_text\" = \"\";\n        relationship = \"-1\";\n        title = \"\";\n        v = 0;\n        \"verified_image\" = \"\";\n    };\n}",
        "{\n    ac = \"#999999\";\n    at = \"\";\n    ccc = 3;\n    \"child_comments\" =     (\n                {\n            ac = \"#999999\";\n            at = \"\\U6b66\\U6c49\\U5e02\";\n            ccc = 0;\n            city = \"\\U6b66\\U6c49\\U5e02\";\n            cmc = 2;\n            content =             (\n                                {\n                    c = \" \\U6211\\U4eca\\U5929\\U4e5f\\U662f\\U653e\\U4e86\\U4e24\\U4e2a\\U86cb\\Uff0c\\U6709\\U70b9\\U7a00\\Uff0c\\U53ef\\U80fd\\U86cb\\U653e\\U591a\\U4e86\\Uff0c\\U4ee5\\U81f3\\U4e8e\\U6211\\U714e\\U7684\\U65f6\\U5019\\U4e0d\\U597d\\U6210\\U578b\";\n                }\n            );\n            ia = 0;\n            id = 8823425;\n            \"ip_address_location\" = \"\";\n            like = 0;\n            \"like_count\" = 0;\n            \"reply_id\" = 8546245;\n            \"reply_user\" =             {\n                \"followers_count_text\" = \"\";\n                id = 26393642;\n                \"is_prime\" = 0;\n                lv = 0;\n                lvl = 2;\n                n = \"\\U6ecb\\U6da6\\U7684\\U897f\\U6885\\U5f88\\U6d51\\U6d4a\";\n                p = \"http:\/\/tx1.douguo.net\/upload\/photo\/1\/1\/1\/70_004976861ec13b4af62b1d8db8c5c9f7.png\";\n                \"progress_image\" = \"\";\n                \"recipes_count_text\" = \"\";\n                relationship = \"-1\";\n                title = \"\";\n                v = 0;\n                \"verified_image\" = \"\";\n            };\n            \"sticker_icon\" =             (\n            );\n            time = \"2021-10-22 21:04:30\";\n            u =             {\n                \"followers_count_text\" = \"\";\n                id = 18587441;\n                \"is_prime\" = 0;\n                lv = 0;\n                lvl = 1;\n                n = \"\\U7231\\U5983efwz\";\n                p = \"http:\/\/tx1.douguo.net\/upload\/photo\/3\/2\/e\/70_u72868069823643200827.jpg\";\n                \"progress_image\" = \"\";\n                \"recipes_count_text\" = \"\";\n                relationship = \"-1\";\n                title = \"\";\n                v = 0;\n                \"verified_image\" = \"\";\n            };\n        },\n                {\n            ac = \"#999999\";\n            at = \"\";\n            ccc = 0;\n            city = \"\";\n            cmc = 2;\n            content =             (\n                                {\n                    c = \" \\U4e0b\\U6b21\\U8c03\\U7a00\\U4e86\\U53ef\\U4ee5\\U52a0\\U70b9\\U70b9\\U9762\\U7c89\\U8fdb\\U53bb\\U54e6\";\n                }\n            );\n            ia = 1;\n            id = 8827944;\n            \"ip_address_location\" = \"\";\n            like = 0;\n            \"like_count\" = 0;\n            \"reply_id\" = 8823425;\n            \"reply_user\" =             {\n                \"followers_count_text\" = \"\";\n                id = 18587441;\n                \"is_prime\" = 0;\n                lv = 0;\n                lvl = 1;\n                n = \"\\U7231\\U5983efwz\";\n                p = \"http:\/\/tx1.douguo.net\/upload\/photo\/3\/2\/e\/70_u72868069823643200827.jpg\";\n                \"progress_image\" = \"\";\n                \"recipes_count_text\" = \"\";\n                relationship = \"-1\";\n                title = \"\";\n                v = 0;\n                \"verified_image\" = \"\";\n            };\n            \"sticker_icon\" =             (\n            );\n            time = \"2021-10-23 16:51:30\";\n            u =             {\n                \"followers_count_text\" = \"\";\n                id = 16753515;\n                \"is_prime\" = 0;\n                lv = 0;\n                lvl = 6;\n                n = \"\\U4e00\\U4e2a\\U5e78\\U798f\\U7684\\U5fae\\U7b11\";\n                p = \"http:\/\/tx1.douguo.net\/upload\/photo\/0\/e\/1\/70_u57078294375116213406.jpeg\";\n                \"progress_image\" = \"\";\n                \"recipes_count_text\" = \"\";\n                relationship = \"-1\";\n                title = \"\";\n                v = 0;\n                \"verified_image\" = \"\";\n            };\n        }\n    );\n    city = \"\";\n    cmc = 2;\n    content =     (\n                {\n            c = \"\\U4e0d\\U77e5\\U9053\\U548b\\U7684\\Uff01\\U6211\\U653e\\U4e86\\U4e24\\U4e2a\\U86cb\\Uff0c\\U7136\\U540e\\U90a3\\U4e2a\\U9762\\U7c89\\U653e\\U4e86\\U597d\\U591a\\U8fd8\\U662f\\U7a00\\U3002\\U3002\\U3002\\U6ca1\\U4f60\\U90a3\\U4e2a\\U90a3\\U4e48\\U5e72\\U554a\";\n        }\n    );\n    ia = 0;\n    id = 8546245;\n    \"ip_address_location\" = \"\";\n    like = 0;\n    \"like_count\" = 1;\n    \"reply_id\" = 0;\n    \"sticker_icon\" =     (\n    );\n    time = \"2021-02-25 19:32:29\";\n    u =     {\n        \"followers_count_text\" = \"\";\n        id = 26393642;\n        \"is_prime\" = 0;\n        lv = 0;\n        lvl = 2;\n        n = \"\\U6ecb\\U6da6\\U7684\\U897f\\U6885\\U5f88\\U6d51\\U6d4a\";\n        p = \"http:\/\/tx1.douguo.net\/upload\/photo\/1\/1\/1\/70_004976861ec13b4af62b1d8db8c5c9f7.png\";\n        \"progress_image\" = \"\";\n        \"recipes_count_text\" = \"\";\n        relationship = \"-1\";\n        title = \"\";\n        v = 0;\n        \"verified_image\" = \"\";\n    };\n}",
        "{\n    ac = \"#999999\";\n    at = \"\";\n    ccc = 1;\n    \"child_comments\" =     (\n                {\n            ac = \"#999999\";\n            at = \"\";\n            ccc = 0;\n            city = \"\";\n            cmc = 2;\n            content =             (\n                                {\n                    c = \" \\U5475\\U5475\\U3002\\U3002\\U3002\\U6709\\U65f6\\U95f4\\U505a\\U4e00\\U6b21\\U5c1d\\U5c1d\\Ud83c\\Udf39\";\n                }\n            );\n            ia = 1;\n            id = 8030017;\n            \"ip_address_location\" = \"\";\n            like = 0;\n            \"like_count\" = 0;\n            \"reply_id\" = 8030005;\n            \"reply_user\" =             {\n                \"followers_count_text\" = \"\";\n                id = 18577007;\n                \"is_prime\" = 0;\n                lv = 0;\n                lvl = 6;\n                n = \"\\U6768\\U76ca\\U7231\\U8a79\\U68a6\\U73b2\";\n                p = \"http:\/\/tx1.douguo.net\/upload\/photo\/f\/3\/8\/70_u22546342328450409003004.jpg\";\n                \"progress_image\" = \"\";\n                \"recipes_count_text\" = \"\";\n                relationship = \"-1\";\n                title = \"\";\n                v = 0;\n                \"verified_image\" = \"\";\n            };\n            \"sticker_icon\" =             (\n            );\n            time = \"2020-05-31 10:07:12\";\n            u =             {\n                \"followers_count_text\" = \"\";\n                id = 16753515;\n                \"is_prime\" = 0;\n                lv = 0;\n                lvl = 6;\n                n = \"\\U4e00\\U4e2a\\U5e78\\U798f\\U7684\\U5fae\\U7b11\";\n                p = \"http:\/\/tx1.douguo.net\/upload\/photo\/0\/e\/1\/70_u57078294375116213406.jpeg\";\n                \"progress_image\" = \"\";\n                \"recipes_count_text\" = \"\";\n                relationship = \"-1\";\n                title = \"\";\n                v = 0;\n                \"verified_image\" = \"\";\n            };\n        }\n    );\n    city = \"\";\n    cmc = 2;\n    content =     (\n                {\n            c = \"\\U53e3\\U6c34\\U6d41\\U4e86\\U4e00\\U5730 \\U6211\\U5c31\\U662f\\U770b\\U4e2a\\U83dc\\U8c31~~ \";\n        }\n    );\n    ia = 0;\n    id = 8030005;\n    \"ip_address_location\" = \"\";\n    like = 0;\n    \"like_count\" = 4;\n    \"reply_id\" = 0;\n    \"sticker_icon\" =     (\n    );\n    time = \"2020-05-31 10:01:05\";\n    u =     {\n        \"followers_count_text\" = \"\";\n        id = 18577007;\n        \"is_prime\" = 0;\n        lv = 0;\n        lvl = 6;\n        n = \"\\U6768\\U76ca\\U7231\\U8a79\\U68a6\\U73b2\";\n        p = \"http:\/\/tx1.douguo.net\/upload\/photo\/f\/3\/8\/70_u22546342328450409003004.jpg\";\n        \"progress_image\" = \"\";\n        \"recipes_count_text\" = \"\";\n        relationship = \"-1\";\n        title = \"\";\n        v = 0;\n        \"verified_image\" = \"\";\n    };\n}"
      ],
      "btm_dsp" : [

      ],
      "ssu" : "",
      "cook_difficulty_image" : "https:\/\/i1.douguo.com\/upload\/banner\/1551424413.png",
      "dish_count_text" : "64",
      "rate_count" : 59,
      "rips" : 0,
      "recommended" : 0,
      "comments_count_text" : "45",
      "rrpt" : "",
      "ipurl" : "",
      "pw" : 600,
      "notes" : [

      ],
      "rate_show" : 1,
      "guide_image" : "",
      "cook_time" : "10-30分钟",
      "levelid" : 2,
      "rate" : 5,
      "thumb_path" : "https:\/\/i1.douguo.com\/upload\/caiku\/4\/4\/6\/300_441fead89aa236ec68176fd05a5e69c6.jpeg",
      "release_time" : "",
      "ecs" : 1,
      "thumb_height" : 0,
      "hq" : 1,
      "hqu" : "recipes:\/\/www.douguo.com\/notedetail?id=21162253",
      "create_time" : "2020-05-31 08:45:48",
      "ipci" : "",
      "tips" : "1、土豆丝用水多洗两遍，去除土豆中的淀粉;\n2、面粉一边搅拌一边加，差不多都裹上就ok;\n3、土豆饼煎的时候记得要翻面;\n4、可以搭配沙拉酱和番茄酱或者粥一起吃;",
      "title" : "营养早餐-香煎土豆饼",
      "rdsps" : [

      ],
      "rewarded_video_dsp" : [

      ],
      "packages_id" : [

      ],
      "ipoi" : "",
      "bs" : [

      ],
      "recommendation_tag" : "",
      "rrps" : [

      ],
      "dishes" : [

      ],
      "recent_comments" : [

      ],
      "act_des" : "",
      "cook_id" : "2501602",
      "collect_status" : 0,
      "related_ads" : [

      ],
      "author_id" : 16753515,
      "author_photo" : "http:\/\/tx1.douguo.net\/upload\/photo\/0\/e\/1\/70_u57078294375116213406.jpeg",
      "favo_counts" : 34345,
      "major" : [
        {
          "note" : "少许",
          "title" : "面粉",
          "tu" : "https:\/\/m.douguo.com\/ingredients\/面粉\/detailmaterial"
        },
        {
          "note" : "1-2个",
          "tu" : "https:\/\/m.douguo.com\/ingredients\/土豆\/detailmaterial",
          "title" : "土豆"
        },
        {
          "note" : "半根",
          "tu" : "https:\/\/m.douguo.com\/ingredients\/胡萝卜\/detailmaterial",
          "title" : "胡萝卜"
        },
        {
          "title" : "盐",
          "note" : "适量",
          "tu" : "https:\/\/m.douguo.com\/ingredients\/盐\/detailmaterial"
        },
        {
          "note" : "1个",
          "title" : "鸡蛋",
          "tu" : "https:\/\/m.douguo.com\/ingredients\/鸡蛋\/detailmaterial"
        },
        {
          "title" : "蚝油",
          "note" : "适量",
          "tu" : "https:\/\/m.douguo.com\/ingredients\/蚝油\/detailmaterial"
        },
        {
          "title" : "葱花",
          "tu" : "https:\/\/m.douguo.com\/ingredients\/葱花\/detailmaterial",
          "note" : "适量"
        },
        {
          "title" : "胡椒粉",
          "note" : "适量",
          "tu" : "https:\/\/m.douguo.com\/ingredients\/胡椒粉\/detailmaterial"
        },
        {
          "title" : "孜然粉",
          "note" : "适量"
        },
        {
          "title" : "凉水或牛奶",
          "note" : "适量"
        }
      ],
      "cookstory" : " 土豆饼简单易操作，外焦里嫩，有孜然的香味，土豆饼有营养而且味道很美。配沙拉酱或者番茄酱都可以，不沾酱也好吃，关键是节省做早餐的时间哦～ ",
      "title_ad" : [

      ],
      "ipit" : 0,
      "cookstep" : [
        {
          "content" : "土豆，胡萝卜洗净，去皮刨成丝",
          "image" : "https:\/\/i1.douguo.com\/upload\/caiku\/1\/7\/1\/17bfd11c0557b82c27f81e0693e13251.jpeg",
          "image_width" : 1280,
          "thumb" : "https:\/\/i1.douguo.com\/upload\/caiku\/1\/7\/1\/140_17bfd11c0557b82c27f81e0693e13251.jpeg",
          "frame" : "-1",
          "position" : 1,
          "image_height" : 960
        },
        {
          "image_height" : 1010,
          "thumb" : "https:\/\/i1.douguo.com\/upload\/caiku\/0\/8\/6\/140_089262a48021768fc9c6feea26102556.jpeg",
          "frame" : "-1",
          "image_width" : 1280,
          "position" : 2,
          "content" : "为了节约时间，放入滚水中约煮两分钟",
          "image" : "https:\/\/i1.douguo.com\/upload\/caiku\/0\/8\/6\/089262a48021768fc9c6feea26102556.jpeg"
        },
        {
          "image" : "https:\/\/i1.douguo.com\/upload\/caiku\/a\/3\/7\/a322731d9b73a16918038752c290de77.jpeg",
          "image_width" : 1280,
          "image_height" : 1706,
          "thumb" : "https:\/\/i1.douguo.com\/upload\/caiku\/a\/3\/7\/140_a322731d9b73a16918038752c290de77.jpeg",
          "content" : "捞出，放入容器中。加鸡蛋、面粉、盐、蚝油、胡椒粉、孜然、香葱、凉水或牛奶搅拌均匀。",
          "position" : 3,
          "frame" : "-1"
        },
        {
          "image_width" : 1280,
          "content" : "让土豆丝和胡萝卜丝裹上面粉后的样子。",
          "image_height" : 1706,
          "image" : "https:\/\/i1.douguo.com\/upload\/caiku\/f\/e\/e\/fe8409885a06b1b49f136847467824ee.jpeg",
          "thumb" : "https:\/\/i1.douguo.com\/upload\/caiku\/f\/e\/e\/140_fe8409885a06b1b49f136847467824ee.jpeg",
          "position" : 4,
          "frame" : "-1"
        },
        {
          "image" : "https:\/\/i1.douguo.com\/upload\/caiku\/8\/a\/e\/8a0ba4cae28d18f24f6d139c1153effe.jpeg",
          "image_height" : 944,
          "content" : "拌好的土豆丝放入用不粘锅，加适量油均匀铺满锅底，用锅铲压一下是为了与锅底服帖，中小火煎至两面金黄就可以啦！",
          "position" : 5,
          "image_width" : 1280,
          "thumb" : "https:\/\/i1.douguo.com\/upload\/caiku\/8\/a\/e\/140_8a0ba4cae28d18f24f6d139c1153effe.jpeg",
          "frame" : "-1"
        },
        {
          "image_width" : 1280,
          "image_height" : 960,
          "thumb" : "https:\/\/i1.douguo.com\/upload\/caiku\/d\/4\/1\/140_d4c745008b3aae34397b301bc8b9e091.jpeg",
          "image" : "https:\/\/i1.douguo.com\/upload\/caiku\/d\/4\/1\/d4c745008b3aae34397b301bc8b9e091.jpeg",
          "frame" : "-1",
          "position" : 6,
          "content" : "煎熟了装盘，搭配粥或者牛奶都可以，自己随意哦"
        }
      ],
      "author_verified" : 0,
      "rpid" : 0,
      "cookwares" : [

      ],
      "rsm" : "该功能暂停使用",
      "recommend_label" : "64人学做",
      "top_mdsp" : [

      ],
      "ipia" : [

      ],
      "ss" : [

      ],
      "rpt" : "",
      "mid_mdsp" : [

      ],
      "rcs" : [

      ],
      "dish_count" : 64,
      "sc" : 0,
      "first_level_comment_count" : 32,
      "recipe_tags" : [

      ]
    }
  },
  "state" : "success"
}