{
  "result" : {
    "recipe" : {
      "ipt" : "",
      "eu" : "recipes:\/\/www.douguo.com\/postdetail?id=242016",
      "rewarded_video_dsp" : [

      ],
      "btm_dsp" : [

      ],
      "author" : "尝尝好味道",
      "release_time" : "",
      "create_time" : "2018-03-05 13:57:51",
      "recommend_label" : "16人学做",
      "su" : "",
      "cook_time" : "",
      "thumb_path" : "https:\/\/i1.douguo.com\/upload\/caiku\/7\/2\/d\/300_72ef972b15f2b9901254c371f31f1e4d.jpg",
      "original_photo_path" : "http:\/\/i1.douguo.net\/upload\/caiku\/7\/2\/d\/yuan_72ef972b15f2b9901254c371f31f1e4d.jpg",
      "author_photo" : "http:\/\/tx1.douguo.net\/upload\/photo\/3\/c\/f\/70_u89686533279815013437.jpg",
      "comments_count" : 14,
      "dishes" : [

      ],
      "rate" : 5,
      "title" : "玉米猪蹄汤",
      "v_u" : "",
      "favo_counts_text" : "2488",
      "pw" : 800,
      "rpid" : 0,
      "comments_count_text" : "14",
      "title_ad" : [

      ],
      "related_ads" : [

      ],
      "clicks" : "164929",
      "rsm" : "该功能暂停使用",
      "user" : {
        "verified_url" : "https:\/\/m.douguo.com\/user\/prodesc",
        "lvl" : 8,
        "pc" : 0,
        "setted_email" : 0,
        "is_prime" : 0,
        "subscription" : 0,
        "favor_diaries_count" : 0,
        "user_cover" : "",
        "lv" : 0,
        "following_count" : 0,
        "fc" : 0,
        "subscription_article_count" : 0,
        "nick" : "尝尝好味道",
        "gender" : 2,
        "dishes_count" : 0,
        "favorites_count" : 0,
        "user_large_photo" : "http:\/\/tx1.douguo.net\/upload\/photo\/3\/c\/f\/yuan_u89686533279815013437.jpg",
        "verified" : 1,
        "weibo_nick" : "",
        "qq_weibo_nick" : "",
        "progress_image" : "",
        "point" : 0,
        "sign" : "",
        "user_photo" : "http:\/\/tx1.douguo.net\/upload\/photo\/3\/c\/f\/70_u89686533279815013437.jpg",
        "avatar_medium" : "http:\/\/tx1.douguo.net\/upload\/photo\/3\/c\/f\/140_u89686533279815013437.jpg",
        "verified_image" : "https:\/\/i1.douguo.com\/upload\/note\/d\/a\/a\/da84247847aebe48d9dd0fcdac88862a.png",
        "mobile" : "",
        "qzone_nick" : "",
        "userid" : "3912629",
        "introduction" : "",
        "diaries_count" : 0,
        "followers_count" : 0,
        "age" : "",
        "recipes_count" : 0,
        "user_id" : "3912629",
        "email" : "",
        "coursecount" : 0,
        "regist_time" : "",
        "birthday" : "",
        "location" : 0
      },
      "image" : "http:\/\/i1.douguo.net\/upload\/caiku\/7\/2\/d\/300_72ef972b15f2b9901254c371f31f1e4d.jpg",
      "favo_counts" : 2488,
      "thumb_height" : 0,
      "dish_count" : 16,
      "ssu" : "",
      "sc" : 0,
      "mid_mdsp" : [

      ],
      "photo_path" : "https:\/\/i1.douguo.com\/upload\/caiku\/7\/2\/d\/600_72ef972b15f2b9901254c371f31f1e4d.jpg",
      "brand_day_dsp" : [

      ],
      "tips" : "",
      "recipe_list_tags" : [
        {
          "background_end_color" : "#F4F5F5",
          "text" : "关注的人",
          "jump_url" : "",
          "right_image" : "",
          "text_color" : "#141515",
          "background_start_color" : "#F4F5F5",
          "background_border_color" : ""
        },
        {
          "text" : "值得pick",
          "background_start_color" : "#F4F5F5",
          "right_image" : "",
          "background_end_color" : "#F4F5F5",
          "text_color" : "#141515",
          "jump_url" : "",
          "background_border_color" : ""
        }
      ],
      "major" : [
        {
          "note" : "500克",
          "title" : "猪脚"
        },
        {
          "tu" : "https:\/\/m.douguo.com\/ingredients\/玉米\/detailmaterial",
          "note" : "一根",
          "title" : "玉米"
        },
        {
          "tu" : "https:\/\/m.douguo.com\/ingredients\/胡萝卜\/detailmaterial",
          "title" : "胡萝卜",
          "note" : "一根"
        },
        {
          "note" : "2勺",
          "tu" : "https:\/\/m.douguo.com\/ingredients\/盐\/detailmaterial",
          "title" : "盐"
        },
        {
          "tu" : "https:\/\/m.douguo.com\/ingredients\/料酒\/detailmaterial",
          "title" : "料酒",
          "note" : "2勺"
        },
        {
          "note" : "少许",
          "title" : "生姜，葱"
        },
        {
          "title" : "鸡粉",
          "tu" : "https:\/\/m.douguo.com\/ingredients\/鸡粉\/detailmaterial",
          "note" : "少许"
        }
      ],
      "cookwares" : [

      ],
      "sr" : "",
      "purl" : "",
      "hqu" : "recipes:\/\/www.douguo.com\/notedetail?id=21162253",
      "cook_difficulty_image" : "",
      "author_id" : 3912629,
      "ipurl" : "",
      "tags" : [

      ],
      "vu" : "",
      "story_dsp" : [

      ],
      "dish_count_text" : "16",
      "rcs" : [

      ],
      "rrps" : [

      ],
      "ipit" : 0,
      "act_des" : "",
      "vfurl" : "",
      "notes" : [

      ],
      "cookstory" : "猪蹄汤，即以猪蹄为主要材料熬制的汤。猪蹄即猪的四蹄，又名猪手或者猪脚。具有烹饪简单，汤汁浓厚，营养丰富的特色。 猪蹄含有丰富的胶原蛋白质，脂肪含量也比肥肉低，能防治皮肤干瘪起皱、增强皮肤弹性和韧性，是老幼皆宜的健康食品，尤其还是一种美容抗衰老食品。",
      "old_comments" : [

      ],
      "minor" : [

      ],
      "ipia" : [

      ],
      "cookstorys" : [
        {
          "id" : 0,
          "icon" : "",
          "u" : "",
          "color" : "",
          "c" : "猪蹄汤，即以猪蹄为主要材料熬制的汤。猪蹄即猪的四蹄，又名猪手或者猪脚。具有烹饪简单，汤汁浓厚，营养丰富的特色。 猪蹄含有丰富的胶原蛋白质，脂肪含量也比肥肉低，能防治皮肤干瘪起皱、增强皮肤弹性和韧性，是老幼皆宜的健康食品，尤其还是一种美容抗衰老食品。",
          "type" : 0
        }
      ],
      "rpt" : "",
      "rate_show" : 0,
      "author_verified" : 1,
      "display_ingredient" : 1,
      "bs" : [

      ],
      "views_count_text" : "21.5万",
      "guide_image" : "",
      "cook_difficulty" : "",
      "recommended" : 0,
      "top_mdsp" : [

      ],
      "rpst" : "",
      "ph" : 600,
      "advice" : {
        "da" : {
          "iu" : "https:\/\/i1.douguo.com\/upload\/banner\/f\/4\/d\/f48877e53c37759bc12ac494be82ec8d.png",
          "url" : "https:\/\/m.douguo.com\/recipe\/nutrient_self\/1655783",
          "t" : "查看详细分析"
        },
        "has" : [

        ]
      },
      "ss" : [

      ],
      "recent_comments" : [

      ],
      "ipoi" : "",
      "ipci" : "",
      "share_info" : {
        "object_id" : "1655783",
        "qr_image" : "",
        "infos" : [
          {
            "qr_image" : "",
            "channel" : "1",
            "s_d" : "#学做饭用豆果美食# 我在@豆果美食 分享了【玉米猪蹄汤#中粮我买，我是大美人#-会做饭很酷!】，色香味俱全说的就是这道菜！查看图片了解菜谱（快来点击https:\/\/m.weibo.cn\/p\/100404i33631和我一起修炼厨艺吧）#会做饭很酷# ",
            "object_id" : "1655783",
            "name" : "玉米猪蹄汤#中粮我买，我是大美人#-会做饭很酷!",
            "image" : "https:\/\/cp1.douguo.com\/upload\/caiku\/7\/2\/d\/72ef972b15f2b9901254c371f31f1e4d.jpg",
            "mini_program" : [

            ],
            "s_u" : ""
          },
          {
            "object_id" : "1655783",
            "s_d" : "玉米猪蹄汤#中粮我买，我是大美人#-会做饭很酷!",
            "channel" : "7",
            "mini_program" : [

            ],
            "s_u" : "http:\/\/m.douguo.com\/cookbook\/1655783.html",
            "name" : "玉米猪蹄汤#中粮我买，我是大美人#-会做饭很酷!",
            "qr_image" : "",
            "image" : "https:\/\/cp1.douguo.com\/upload\/caiku\/7\/2\/d\/72ef972b15f2b9901254c371f31f1e4d.jpg"
          },
          {
            "name" : "玉米猪蹄汤#中粮我买，我是大美人#-会做饭很酷!",
            "image" : "https:\/\/cp1.douguo.com\/upload\/caiku\/7\/2\/d\/72ef972b15f2b9901254c371f31f1e4d.jpg",
            "mini_program" : [

            ],
            "channel" : "8",
            "s_u" : "http:\/\/m.douguo.com\/cookbook\/1655783.html",
            "s_d" : "玉米猪蹄汤#中粮我买，我是大美人#-会做饭很酷!",
            "qr_image" : "",
            "object_id" : "1655783"
          }
        ],
        "mini_program" : [

        ],
        "image" : "https:\/\/cp1.douguo.com\/upload\/caiku\/7\/2\/d\/72ef972b15f2b9901254c371f31f1e4d.jpg",
        "s_d" : "玉米猪蹄汤#中粮我买，我是大美人#-会做饭很酷!",
        "s_u" : "http:\/\/m.douguo.com\/cookbook\/1655783.html",
        "name" : "玉米猪蹄汤#中粮我买，我是大美人#-会做饭很酷!"
      },
      "levelid" : 2,
      "cook_time_image" : "",
      "packages_id" : [

      ],
      "hq" : 1,
      "rdsps" : [

      ],
      "rrpt" : "",
      "rate_count" : 11,
      "rips" : 0,
      "comments" : [
        "{\n    ac = \"#999999\";\n    at = \"\\U978d\\U5c71\\U5e02\";\n    ccc = 4;\n    \"child_comments\" =     (\n                {\n            ac = \"#999999\";\n            at = \"\\U5929\\U6d25\\U5e02\";\n            ccc = 0;\n            city = \"\\U5929\\U6d25\\U5e02\";\n            cmc = 2;\n            content =             (\n                                {\n                    c = \" \\U4e0d\\U7ed9\\U7535\\U4f60\\U5403\\U4e2ader\\U554a\\n\";\n                }\n            );\n            ia = 0;\n            id = 8115380;\n            \"ip_address_location\" = \"\";\n            like = 0;\n            \"like_count\" = 1;\n            \"reply_id\" = 7187136;\n            \"reply_user\" =             {\n                \"followers_count_text\" = \"\";\n                id = 3729532;\n                \"is_prime\" = 0;\n                lv = 0;\n                lvl = 1;\n                n = \"\\U5c0f\\U624b\\U706c\\U4e71\\U6478\";\n                p = \"\";\n                \"progress_image\" = \"\";\n                \"recipes_count_text\" = \"\";\n                relationship = \"-1\";\n                title = \"\";\n                v = 0;\n                \"verified_image\" = \"\";\n            };\n            \"sticker_icon\" =             (\n            );\n            time = \"2020-07-01 22:18:58\";\n            u =             {\n                \"followers_count_text\" = \"\";\n                id = 25661640;\n                \"is_prime\" = 0;\n                lv = 0;\n                lvl = 1;\n                n = \"\\U7cbe\\U5f69\\U7684\\U82b1\\U87f9\\U5f88\\U5947\\U602a\";\n                p = \"http:\/\/tx1.douguo.net\/upload\/photo\/5\/b\/8\/70_u93613136718780222035.jpeg\";\n                \"progress_image\" = \"\";\n                \"recipes_count_text\" = \"\";\n                relationship = \"-1\";\n                title = \"\";\n                v = 0;\n                \"verified_image\" = \"\";\n            };\n        },\n                {\n            ac = \"#999999\";\n            at = \"\\U8d35\\U9633\\U5e02\";\n            ccc = 0;\n            city = \"\\U8d35\\U9633\\U5e02\";\n            cmc = 2;\n            content =             (\n                                {\n                    c = \" \\U6709\\U65f6\\U5019\\U6211\\U4eec\\U8bf4\\U95f7\\U4e00\\U4f1a\\U662f\\U52a0\\U70ed\\U7684\\U610f\\U601d\\Uff0c\\U6bd4\\U5982\\U6c34\\U5f00\\U540e\\U95f7\\U4e00\\U4f1a\\Uff0c\\U5c31\\U662f\\U5f00\\U4e86\\U65ad\\U7535\\Uff0c\\U4f46\\U662f\\U95f7\\U4e00\\U5c0f\\U65f6\\U80af\\U5b9a\\U662f\\U901a\\U7535\\U7684\\U610f\\U601d\\U4e86\\Uff0c\\U8fd9\\U4e2a\\U4e5f\\U4e0d\\U602a\\U4eba\\U5bb6\\U95ee\\U662f\\U5426\\U7ed9\\U7535\\U3002\\U8bed\\U8a00\\U5dee\\U5f02\\Uff0c\\U4e0d\\U8fc7DER\\U7528\\U7684\\U5f88\\U597d\\Uff0c\\U4f30\\U8ba1\\U4ed6\\U770b\\U4e0d\\U61c2\\U8fd9\\U4e2a\\U65b9\\U8a00\";\n                }\n            );\n            ia = 0;\n            id = 8396529;\n            \"ip_address_location\" = \"\";\n            like = 0;\n            \"like_count\" = 1;\n            \"reply_id\" = 7187136;\n            \"reply_user\" =             {\n                \"followers_count_text\" = \"\";\n                id = 3729532;\n                \"is_prime\" = 0;\n                lv = 0;\n                lvl = 1;\n                n = \"\\U5c0f\\U624b\\U706c\\U4e71\\U6478\";\n                p = \"\";\n                \"progress_image\" = \"\";\n                \"recipes_count_text\" = \"\";\n                relationship = \"-1\";\n                title = \"\";\n                v = 0;\n                \"verified_image\" = \"\";\n            };\n            \"sticker_icon\" =             (\n            );\n            time = \"2020-12-09 09:32:28\";\n            u =             {\n                \"followers_count_text\" = \"\";\n                id = 8501608;\n                \"is_prime\" = 0;\n                lv = 0;\n                lvl = 3;\n                n = \"\\U53ef\\U7231\\U7684\\U8001\\U77f3\\U5934\";\n                p = \"http:\/\/tx1.douguo.net\/upload\/photo\/6\/d\/4\/70_u25903848629825125345.jpg\";\n                \"progress_image\" = \"\";\n                \"recipes_count_text\" = \"\";\n                relationship = \"-1\";\n                title = \"\";\n                v = 0;\n                \"verified_image\" = \"\";\n            };\n        }\n    );\n    city = \"\\U978d\\U5c71\\U5e02\";\n    cmc = 2;\n    content =     (\n                {\n            c = \"\\U8bf7\\U95ee\\U4e0b\\U7b2c\\U4e94\\U6b65\\U95f7\\U4e00\\U5c0f\\U65f6\\U662f\\U4ec0\\U4e48\\U610f\\U601d\\U5440\\Uff1f\\U7ed9\\U7535\\U561b\\Uff1f\";\n        }\n    );\n    ia = 0;\n    id = 7187136;\n    \"ip_address_location\" = \"\";\n    like = 0;\n    \"like_count\" = 5;\n    \"reply_id\" = 0;\n    \"sticker_icon\" =     (\n    );\n    time = \"2019-10-16 10:42:33\";\n    u =     {\n        \"followers_count_text\" = \"\";\n        id = 3729532;\n        \"is_prime\" = 0;\n        lv = 0;\n        lvl = 1;\n        n = \"\\U5c0f\\U624b\\U706c\\U4e71\\U6478\";\n        p = \"\";\n        \"progress_image\" = \"\";\n        \"recipes_count_text\" = \"\";\n        relationship = \"-1\";\n        title = \"\";\n        v = 0;\n        \"verified_image\" = \"\";\n    };\n}",
        "{\n    ac = \"#999999\";\n    at = \"\\U8346\\U5dde\\U5e02\";\n    ccc = 1;\n    \"child_comments\" =     (\n                {\n            ac = \"#999999\";\n            at = \"\\U9752\\U5c9b\\U5e02\";\n            ccc = 0;\n            city = \"\\U9752\\U5c9b\\U5e02\";\n            cmc = 2;\n            content =             (\n                                {\n                    c = \" pksi\\U3001o,w0er\\U2026\\U20267\\U597d\";\n                }\n            );\n            ia = 0;\n            id = 6113858;\n            \"ip_address_location\" = \"\";\n            like = 0;\n            \"like_count\" = 0;\n            \"reply_id\" = 5445723;\n            \"reply_user\" =             {\n                \"followers_count_text\" = \"\";\n                id = 8630733;\n                \"is_prime\" = 0;\n                lv = 0;\n                lvl = 7;\n                n = \"\\U5c81\\U6708\\U5982\\U6b4c168\";\n                p = \"http:\/\/tx1.douguo.net\/upload\/photo\/5\/8\/1\/70_u26842949717732221820.jpg\";\n                \"progress_image\" = \"\";\n                \"recipes_count_text\" = \"\";\n                relationship = \"-1\";\n                title = \"\";\n                v = 1;\n                \"verified_image\" = \"\";\n            };\n            \"sticker_icon\" =             (\n            );\n            time = \"2018-10-16 08:34:29\";\n            u =             {\n                \"followers_count_text\" = \"\";\n                id = 22251907;\n                \"is_prime\" = 0;\n                lv = 0;\n                lvl = 1;\n                n = \"\\U8c46\\U7c89732963\";\n                p = \"\";\n                \"progress_image\" = \"\";\n                \"recipes_count_text\" = \"\";\n                relationship = \"-1\";\n                title = \"\";\n                v = 0;\n                \"verified_image\" = \"\";\n            };\n        }\n    );\n    city = \"\\U8346\\U5dde\\U5e02\";\n    cmc = 2;\n    content =     (\n                {\n            c = \"56\\Uff0c\";\n        }\n    );\n    ia = 0;\n    id = 5445723;\n    \"ip_address_location\" = \"\";\n    like = 0;\n    \"like_count\" = 0;\n    \"reply_id\" = 0;\n    \"sticker_icon\" =     (\n    );\n    time = \"2018-03-18 10:43:47\";\n    u =     {\n        \"followers_count_text\" = \"\";\n        id = 8630733;\n        \"is_prime\" = 0;\n        lv = 0;\n        lvl = 7;\n        n = \"\\U5c81\\U6708\\U5982\\U6b4c168\";\n        p = \"http:\/\/tx1.douguo.net\/upload\/photo\/5\/8\/1\/70_u26842949717732221820.jpg\";\n        \"progress_image\" = \"\";\n        \"recipes_count_text\" = \"\";\n        relationship = \"-1\";\n        title = \"\";\n        v = 1;\n        \"verified_image\" = \"\";\n    };\n}",
        "{\n    ac = \"#999999\";\n    at = \"\";\n    ccc = 0;\n    \"child_comments\" =     (\n    );\n    city = \"\";\n    cmc = 2;\n    content =     (\n                {\n            c = \"\\U8fd9\\U4e2a\\U6211\\U5bb6\\U56e2\\U5b50\\U559c\\U6b22\\U5403\\Uff0c\\U6211\\U5fc5\\U987b\\U5b66\\U4f1a\\U4e86\";\n        }\n    );\n    ia = 0;\n    id = 5788717;\n    \"ip_address_location\" = \"\";\n    like = 0;\n    \"like_count\" = 2;\n    \"reply_id\" = 0;\n    \"sticker_icon\" =     (\n    );\n    time = \"2018-06-22 17:16:19\";\n    u =     {\n        \"followers_count_text\" = \"\";\n        id = 18462360;\n        \"is_prime\" = 0;\n        lv = 0;\n        lvl = 6;\n        n = \"\\U5988\\U5988\\U7684\\U7cd6\\U679c\\U679c\";\n        p = \"http:\/\/tx1.douguo.net\/upload\/photo\/1\/a\/2\/70_u84613584273861171819.jpg\";\n        \"progress_image\" = \"\";\n        \"recipes_count_text\" = \"\";\n        relationship = \"-1\";\n        title = \"\";\n        v = 0;\n        \"verified_image\" = \"\";\n    };\n}"
      ],
      "recipe_tags" : [

      ],
      "ecs" : 0,
      "first_level_comment_count" : 9,
      "event" : {
        "id" : 0
      },
      "recommendation_tag" : "",
      "vc" : "214838",
      "collect_status" : 0,
      "cook_id" : "1655783",
      "cookstep" : [
        {
          "content" : "猪脚一份（猪脚我选的是后脚）玉米一根",
          "image" : "https:\/\/i1.douguo.com\/upload\/caiku\/1\/1\/0\/115fa6b2fb53dd7b229ace7a403a1220.jpg",
          "position" : 1,
          "frame" : "-1",
          "image_width" : 800,
          "thumb" : "https:\/\/i1.douguo.com\/upload\/caiku\/1\/1\/0\/140_115fa6b2fb53dd7b229ace7a403a1220.jpg",
          "image_height" : 600
        },
        {
          "frame" : "-1",
          "image" : "https:\/\/i1.douguo.com\/upload\/caiku\/5\/9\/d\/59699e6c817b06663bfc9219c516f15d.jpg",
          "thumb" : "https:\/\/i1.douguo.com\/upload\/caiku\/5\/9\/d\/140_59699e6c817b06663bfc9219c516f15d.jpg",
          "image_width" : 800,
          "image_height" : 600,
          "content" : "玉米分切成小段",
          "position" : 2
        },
        {
          "image" : "https:\/\/i1.douguo.com\/upload\/caiku\/b\/d\/3\/bdbb6f2f745cfe02ccba4971eb884133.jpg",
          "image_width" : 800,
          "position" : 3,
          "frame" : "-1",
          "image_height" : 600,
          "thumb" : "https:\/\/i1.douguo.com\/upload\/caiku\/b\/d\/3\/140_bdbb6f2f745cfe02ccba4971eb884133.jpg",
          "content" : "猪脚冷水下锅焯水，加1勺料酒去腥"
        },
        {
          "frame" : "-1",
          "content" : "水开再煮2分钟，捞出用流水冲洗干净",
          "image" : "https:\/\/i1.douguo.com\/upload\/caiku\/7\/3\/5\/73c154383fa5f0f83cb1ba0d5540bcd5.jpg",
          "thumb" : "https:\/\/i1.douguo.com\/upload\/caiku\/7\/3\/5\/140_73c154383fa5f0f83cb1ba0d5540bcd5.jpg",
          "image_width" : 800,
          "position" : 4,
          "image_height" : 600
        },
        {
          "position" : 5,
          "image_height" : 600,
          "content" : "高压锅里放适量清水，加猪脚，生姜片，料酒少许，盖盖子焖一个半小时",
          "image" : "https:\/\/i1.douguo.com\/upload\/caiku\/5\/6\/9\/56786489065abf0fcef4f88888988009.jpg",
          "thumb" : "https:\/\/i1.douguo.com\/upload\/caiku\/5\/6\/9\/140_56786489065abf0fcef4f88888988009.jpg",
          "image_width" : 800,
          "frame" : "-1"
        },
        {
          "image_height" : 1000,
          "position" : 6,
          "image_width" : 1333,
          "content" : "再加玉米，胡萝卜，细盐2勺，焖煮半小时",
          "frame" : "-1",
          "image" : "https:\/\/i1.douguo.com\/upload\/caiku\/b\/e\/4\/bea36fbdf283f9d79566a2c28a48bc84.jpg",
          "thumb" : "https:\/\/i1.douguo.com\/upload\/caiku\/b\/e\/4\/140_bea36fbdf283f9d79566a2c28a48bc84.jpg"
        },
        {
          "image_width" : 1333,
          "frame" : "-1",
          "thumb" : "https:\/\/i1.douguo.com\/upload\/caiku\/2\/c\/5\/140_2cb636fc187b0aa038cda3d068cb8cb5.jpg",
          "content" : "出锅前加鸡粉少许，葱花少许",
          "image_height" : 1000,
          "position" : 7,
          "image" : "https:\/\/i1.douguo.com\/upload\/caiku\/2\/c\/5\/2cb636fc187b0aa038cda3d068cb8cb5.jpg"
        },
        {
          "thumb" : "https:\/\/i1.douguo.com\/upload\/caiku\/1\/9\/7\/140_19b23380dafe1dfd3e3f13c55c4a0a47.jpg",
          "position" : 8,
          "frame" : "-1",
          "content" : "汤汁浓郁，玉米香甜。",
          "image_width" : 800,
          "image_height" : 600,
          "image" : "https:\/\/i1.douguo.com\/upload\/caiku\/1\/9\/7\/19b23380dafe1dfd3e3f13c55c4a0a47.jpg"
        },
        {
          "thumb" : "https:\/\/i1.douguo.com\/upload\/caiku\/b\/5\/5\/140_b519a3b616bcc2c13b553d0df18f1265.jpg",
          "image_width" : 800,
          "content" : "成品图。",
          "image" : "https:\/\/i1.douguo.com\/upload\/caiku\/b\/5\/5\/b519a3b616bcc2c13b553d0df18f1265.jpg",
          "frame" : "-1",
          "position" : 9,
          "image_height" : 600
        }
      ]
    }
  },
  "state" : "success",
  "status" : 0
}