{
  "status" : 0,
  "result" : {
    "recipe" : {
      "title" : "煎花卷",
      "ipci" : "",
      "cook_id" : "3187225",
      "cookwares" : [

      ],
      "collect_status" : 0,
      "sr" : "",
      "eu" : "recipes:\/\/www.douguo.com\/postdetail?id=242016",
      "rate_count" : 0,
      "author_photo" : "http:\/\/tx1.douguo.net\/upload\/photo\/7\/6\/2\/70_7616a20355b7d965588fe724133a0c12.jpg",
      "rcs" : [

      ],
      "mid_mdsp" : [

      ],
      "ipit" : 0,
      "rpt" : "",
      "display_ingredient" : 1,
      "tags" : [

      ],
      "rate" : 0,
      "packages_id" : [

      ],
      "author_verified" : 0,
      "brand_day_dsp" : [

      ],
      "rsm" : "该功能暂停使用",
      "purl" : "",
      "tips" : "",
      "major" : [
        {
          "note" : "150克",
          "title" : "新疆面粉"
        },
        {
          "note" : "85克",
          "tu" : "https:\/\/m.douguo.com\/ingredients\/水\/detailmaterial",
          "title" : "水"
        },
        {
          "note" : "2克",
          "title" : "酵母粉",
          "tu" : "https:\/\/m.douguo.com\/ingredients\/酵母粉\/detailmaterial"
        },
        {
          "note" : "适量",
          "tu" : "https:\/\/m.douguo.com\/ingredients\/油\/detailmaterial",
          "title" : "油"
        },
        {
          "tu" : "https:\/\/m.douguo.com\/ingredients\/葱花\/detailmaterial",
          "note" : "少许",
          "title" : "葱花"
        },
        {
          "tu" : "https:\/\/m.douguo.com\/ingredients\/盐\/detailmaterial",
          "note" : "1克",
          "title" : "盐"
        }
      ],
      "ssu" : "",
      "vfurl" : "",
      "photo_path" : "https:\/\/i1.douguo.com\/upload\/caiku\/9\/c\/b\/600_9ce8bb401e4334576acec554f18c387b.jpg",
      "vu" : "",
      "rdsps" : [

      ],
      "dishes" : [

      ],
      "first_level_comment_count" : 0,
      "old_comments" : [

      ],
      "rrpt" : "",
      "hqu" : "recipes:\/\/www.douguo.com\/notedetail?id=21162253",
      "dish_count" : 0,
      "recipe_tags" : [

      ],
      "ss" : [

      ],
      "comments_count" : 0,
      "user" : {
        "lv" : 0,
        "coursecount" : 0,
        "user_photo" : "http:\/\/tx1.douguo.net\/upload\/photo\/7\/6\/2\/70_7616a20355b7d965588fe724133a0c12.jpg",
        "userid" : "21356492",
        "birthday" : "",
        "age" : "",
        "weibo_nick" : "",
        "progress_image" : "",
        "pc" : 0,
        "diaries_count" : 0,
        "mobile" : "",
        "fc" : 0,
        "following_count" : 0,
        "point" : 0,
        "favorites_count" : 0,
        "favor_diaries_count" : 0,
        "is_prime" : 0,
        "subscription" : 0,
        "avatar_medium" : "http:\/\/tx1.douguo.net\/upload\/photo\/7\/6\/2\/140_7616a20355b7d965588fe724133a0c12.jpg",
        "sign" : "",
        "verified" : 0,
        "setted_email" : 0,
        "qq_weibo_nick" : "",
        "verified_url" : "https:\/\/m.douguo.com\/user\/prodesc",
        "user_large_photo" : "http:\/\/tx1.douguo.net\/upload\/photo\/7\/6\/2\/yuan_7616a20355b7d965588fe724133a0c12.jpg",
        "location" : 0,
        "user_cover" : "",
        "followers_count" : 0,
        "introduction" : "",
        "gender" : 2,
        "lvl" : 6,
        "qzone_nick" : "",
        "nick" : "八月食记",
        "recipes_count" : 0,
        "regist_time" : "",
        "email" : "",
        "subscription_article_count" : 0,
        "dishes_count" : 0,
        "verified_image" : "",
        "user_id" : "21356492"
      },
      "cook_difficulty" : "",
      "cookstory" : "用新疆面粉做的，又软又筋道，有甜甜的麦香味，太好吃了。",
      "cook_difficulty_image" : "",
      "create_time" : "2022-05-03 00:52:27",
      "ipia" : [

      ],
      "su" : "",
      "recent_comments" : [

      ],
      "cook_time" : "",
      "minor" : [

      ],
      "guide_image" : "",
      "author_id" : 21356492,
      "views_count_text" : "13.6万",
      "ipoi" : "",
      "recipe_list_tags" : [
        {
          "text_color" : "#141515",
          "text" : "关注的人",
          "background_border_color" : "",
          "background_end_color" : "#F4F5F5",
          "jump_url" : "",
          "right_image" : "",
          "background_start_color" : "#F4F5F5"
        }
      ],
      "rips" : 0,
      "share_info" : {
        "qr_image" : "",
        "s_d" : "#15分钟周末菜#煎花卷-会做饭很酷!",
        "image" : "https:\/\/cp1.douguo.com\/upload\/caiku\/9\/c\/b\/9ce8bb401e4334576acec554f18c387b.jpg",
        "object_id" : "3187225",
        "name" : "#15分钟周末菜#煎花卷-会做饭很酷!",
        "s_u" : "http:\/\/m.douguo.com\/cookbook\/3187225.html",
        "infos" : [
          {
            "mini_program" : [

            ],
            "object_id" : "3187225",
            "image" : "https:\/\/cp1.douguo.com\/upload\/caiku\/9\/c\/b\/9ce8bb401e4334576acec554f18c387b.jpg",
            "s_u" : "",
            "channel" : "1",
            "s_d" : "#学做饭用豆果美食# 我在@豆果美食 分享了【#15分钟周末菜#煎花卷-会做饭很酷!】，这菜真的很好吃，而且做法简单不难学，还不快来跟我学～查看图片了解菜谱（每天限量免费课程，想跟大师学厨艺就来这https:\/\/m.weibo.cn\/p\/100404i33631）#会做饭很酷# ",
            "qr_image" : "",
            "name" : "#15分钟周末菜#煎花卷-会做饭很酷!"
          },
          {
            "channel" : "7",
            "mini_program" : [

            ],
            "object_id" : "3187225",
            "name" : "#15分钟周末菜#煎花卷-会做饭很酷!",
            "s_d" : "#15分钟周末菜#煎花卷-会做饭很酷!",
            "qr_image" : "",
            "s_u" : "http:\/\/m.douguo.com\/cookbook\/3187225.html",
            "image" : "https:\/\/cp1.douguo.com\/upload\/caiku\/9\/c\/b\/9ce8bb401e4334576acec554f18c387b.jpg"
          },
          {
            "s_u" : "http:\/\/m.douguo.com\/cookbook\/3187225.html",
            "channel" : "8",
            "qr_image" : "",
            "s_d" : "#15分钟周末菜#煎花卷-会做饭很酷!",
            "mini_program" : [

            ],
            "image" : "https:\/\/cp1.douguo.com\/upload\/caiku\/9\/c\/b\/9ce8bb401e4334576acec554f18c387b.jpg",
            "name" : "#15分钟周末菜#煎花卷-会做饭很酷!",
            "object_id" : "3187225"
          }
        ],
        "mini_program" : [

        ]
      },
      "ecs" : 1,
      "act_des" : "",
      "sc" : 0,
      "favo_counts_text" : "3596",
      "title_ad" : [

      ],
      "favo_counts" : 3596,
      "original_photo_path" : "http:\/\/i1.douguo.net\/upload\/caiku\/9\/c\/b\/yuan_9ce8bb401e4334576acec554f18c387b.jpg",
      "author" : "八月食记",
      "notes" : [

      ],
      "bs" : [

      ],
      "levelid" : 2,
      "comments_count_text" : "",
      "recommended" : 0,
      "advice" : {
        "has" : [
          {
            "url" : "recipes:\/\/www.douguo.com\/simplerecipelist?t=低糖&id=低糖",
            "t" : "低糖"
          }
        ],
        "da" : {
          "iu" : "https:\/\/i1.douguo.com\/upload\/banner\/f\/4\/d\/f48877e53c37759bc12ac494be82ec8d.png",
          "t" : "查看详细分析",
          "url" : "https:\/\/m.douguo.com\/recipe\/nutrient_self\/3187225"
        },
        "at" : "能帮助你减脂、控血糖～"
      },
      "thumb_height" : 0,
      "comments" : [

      ],
      "event" : {
        "name" : "天猫出游美食季，15分钟周末菜有奖活动征集",
        "url" : "https:\/\/m.douguo.com\/activity\/ncpzj\/detail\/3466?isapp=1&open=0&_vs=1000300&&dg_refreshkey=publishnote",
        "id" : 3466
      },
      "related_ads" : [

      ],
      "ipurl" : "",
      "ipt" : "",
      "hq" : 1,
      "v_u" : "",
      "image" : "http:\/\/i1.douguo.net\/upload\/caiku\/9\/c\/b\/300_9ce8bb401e4334576acec554f18c387b.jpg",
      "story_dsp" : [

      ],
      "rpid" : 0,
      "thumb_path" : "https:\/\/i1.douguo.com\/upload\/caiku\/9\/c\/b\/300_9ce8bb401e4334576acec554f18c387b.jpg",
      "rate_show" : 0,
      "btm_dsp" : [

      ],
      "cookstorys" : [
        {
          "icon" : "",
          "color" : "",
          "id" : 0,
          "type" : 0,
          "c" : "用新疆面粉做的，又软又筋道，有甜甜的麦香味，太好吃了。",
          "u" : ""
        },
        {
          "c" : "\n参与活动:",
          "id" : 0,
          "u" : "",
          "icon" : "",
          "type" : 0,
          "color" : ""
        },
        {
          "c" : "#天猫出游美食季，15分钟周末菜有奖活动征集#",
          "u" : "https:\/\/m.douguo.com\/activity\/ncpzj\/detail\/3466?isapp=1&open=0&_vs=1000300&&dg_refreshkey=publishnote",
          "id" : 0,
          "icon" : "",
          "type" : 0
        }
      ],
      "recommend_label" : "3596人刚刚收藏过",
      "vc" : "136205",
      "ph" : 960,
      "clicks" : "1",
      "rewarded_video_dsp" : [

      ],
      "rpst" : "",
      "release_time" : "",
      "top_mdsp" : [

      ],
      "cook_time_image" : "",
      "rrps" : [

      ],
      "dish_count_text" : "",
      "recommendation_tag" : "",
      "cookstep" : [
        {
          "image_height" : 960,
          "image_width" : 1280,
          "thumb" : "https:\/\/i1.douguo.com\/upload\/caiku\/b\/e\/4\/140_be9ecc8d133ba3f80448b002a431be94.jpg",
          "content" : "面和好，揉光滑细腻。",
          "image" : "https:\/\/i1.douguo.com\/upload\/caiku\/b\/e\/4\/be9ecc8d133ba3f80448b002a431be94.jpg",
          "position" : 1,
          "frame" : "-1"
        },
        {
          "content" : "擀长片，刷油，撒少许盐，撒一点点葱花。",
          "image" : "https:\/\/i1.douguo.com\/upload\/caiku\/2\/a\/7\/2a44512b7c4667395adce6cd53222757.jpg",
          "frame" : "-1",
          "thumb" : "https:\/\/i1.douguo.com\/upload\/caiku\/2\/a\/7\/140_2a44512b7c4667395adce6cd53222757.jpg",
          "position" : 2,
          "image_width" : 1280,
          "image_height" : 960
        },
        {
          "image" : "https:\/\/i1.douguo.com\/upload\/caiku\/b\/8\/5\/b81b46816d315cfeb5c43c715f60fbb5.jpg",
          "frame" : "-1",
          "position" : 3,
          "thumb" : "https:\/\/i1.douguo.com\/upload\/caiku\/b\/8\/5\/140_b81b46816d315cfeb5c43c715f60fbb5.jpg",
          "content" : "中间切开，合在一起",
          "image_width" : 1280,
          "image_height" : 960
        },
        {
          "image_height" : 960,
          "frame" : "-1",
          "thumb" : "https:\/\/i1.douguo.com\/upload\/caiku\/a\/2\/c\/140_a2f6175c0d82973ee7280240d086878c.jpg",
          "content" : "再切一刀",
          "position" : 4,
          "image" : "https:\/\/i1.douguo.com\/upload\/caiku\/a\/2\/c\/a2f6175c0d82973ee7280240d086878c.jpg",
          "image_width" : 1280
        },
        {
          "position" : 5,
          "frame" : "-1",
          "image_height" : 960,
          "image_width" : 1280,
          "content" : "八层叠起来。",
          "thumb" : "https:\/\/i1.douguo.com\/upload\/caiku\/2\/b\/3\/140_2b06d231ed5fb51a4c16d071fc3df3c3.jpg",
          "image" : "https:\/\/i1.douguo.com\/upload\/caiku\/2\/b\/3\/2b06d231ed5fb51a4c16d071fc3df3c3.jpg"
        },
        {
          "content" : "切小条",
          "image_height" : 960,
          "image_width" : 1280,
          "thumb" : "https:\/\/i1.douguo.com\/upload\/caiku\/4\/3\/a\/140_43a7e2675a6fe07c6dfb15996fa58c7a.jpg",
          "image" : "https:\/\/i1.douguo.com\/upload\/caiku\/4\/3\/a\/43a7e2675a6fe07c6dfb15996fa58c7a.jpg",
          "frame" : "-1",
          "position" : 6
        },
        {
          "content" : "取一条",
          "image_width" : 1280,
          "image" : "https:\/\/i1.douguo.com\/upload\/caiku\/d\/8\/1\/d8b84c271780e7ee30d2ff28a954d471.jpg",
          "image_height" : 960,
          "thumb" : "https:\/\/i1.douguo.com\/upload\/caiku\/d\/8\/1\/140_d8b84c271780e7ee30d2ff28a954d471.jpg",
          "position" : 7,
          "frame" : "-1"
        },
        {
          "image_width" : 1280,
          "position" : 8,
          "image_height" : 960,
          "thumb" : "https:\/\/i1.douguo.com\/upload\/caiku\/b\/a\/9\/140_ba8cc5f80d1e1fe3544da90d033dc559.jpg",
          "content" : "翻个面，用筷子压",
          "image" : "https:\/\/i1.douguo.com\/upload\/caiku\/b\/a\/9\/ba8cc5f80d1e1fe3544da90d033dc559.jpg",
          "frame" : "-1"
        },
        {
          "frame" : "-1",
          "image" : "https:\/\/i1.douguo.com\/upload\/caiku\/d\/1\/d\/d12fe5cedc1c590a5727d0d355cc9edd.jpg",
          "image_height" : 960,
          "content" : "拉长",
          "image_width" : 1280,
          "thumb" : "https:\/\/i1.douguo.com\/upload\/caiku\/d\/1\/d\/140_d12fe5cedc1c590a5727d0d355cc9edd.jpg",
          "position" : 9
        },
        {
          "content" : "卷一下",
          "image" : "https:\/\/i1.douguo.com\/upload\/caiku\/e\/0\/8\/e05d337edb0fc91f13934f063c495228.jpg",
          "image_height" : 960,
          "thumb" : "https:\/\/i1.douguo.com\/upload\/caiku\/e\/0\/8\/140_e05d337edb0fc91f13934f063c495228.jpg",
          "image_width" : 1280,
          "frame" : "-1",
          "position" : 10
        },
        {
          "content" : "锅里刷油，放胚子醒发，盖保鲜膜",
          "image_width" : 1280,
          "frame" : "-1",
          "position" : 11,
          "image_height" : 960,
          "thumb" : "https:\/\/i1.douguo.com\/upload\/caiku\/9\/c\/e\/140_9c42e359f18f12fbfb77fac7ebf0e3be.jpg",
          "image" : "https:\/\/i1.douguo.com\/upload\/caiku\/9\/c\/e\/9c42e359f18f12fbfb77fac7ebf0e3be.jpg"
        },
        {
          "image_height" : 960,
          "frame" : "-1",
          "image" : "https:\/\/i1.douguo.com\/upload\/caiku\/9\/c\/5\/9cede3289b7851b4d2db13f2c8a044a5.jpg",
          "content" : "发好了，开底火煎。上盖不用合，只开下火",
          "thumb" : "https:\/\/i1.douguo.com\/upload\/caiku\/9\/c\/5\/140_9cede3289b7851b4d2db13f2c8a044a5.jpg",
          "image_width" : 1280,
          "position" : 12
        },
        {
          "content" : "煎至底部上色",
          "thumb" : "https:\/\/i1.douguo.com\/upload\/caiku\/7\/7\/2\/140_779d9c38b9abae04fbdc1d87a13ce022.jpg",
          "image" : "https:\/\/i1.douguo.com\/upload\/caiku\/7\/7\/2\/779d9c38b9abae04fbdc1d87a13ce022.jpg",
          "frame" : "-1",
          "image_width" : 1280,
          "position" : 13,
          "image_height" : 960
        },
        {
          "image_height" : 960,
          "thumb" : "https:\/\/i1.douguo.com\/upload\/caiku\/3\/c\/a\/140_3c48c5def934356499b9884b32a1177a.jpg",
          "frame" : "-1",
          "content" : "倒入半碗水，盖上普通锅盖",
          "image_width" : 1280,
          "position" : 14,
          "image" : "https:\/\/i1.douguo.com\/upload\/caiku\/3\/c\/a\/3c48c5def934356499b9884b32a1177a.jpg"
        },
        {
          "image_width" : 1280,
          "content" : "煎至水收干。",
          "thumb" : "https:\/\/i1.douguo.com\/upload\/caiku\/0\/c\/1\/140_0c97ad16701a02fded99623112b1f9a1.jpg",
          "image" : "https:\/\/i1.douguo.com\/upload\/caiku\/0\/c\/1\/0c97ad16701a02fded99623112b1f9a1.jpg",
          "position" : 15,
          "image_height" : 960,
          "frame" : "-1"
        },
        {
          "frame" : "-1",
          "content" : "拍图",
          "image_width" : 1280,
          "image" : "https:\/\/i1.douguo.com\/upload\/caiku\/3\/c\/b\/3ccda8693365c654d400f34499cee04b.jpg",
          "image_height" : 960,
          "position" : 16,
          "thumb" : "https:\/\/i1.douguo.com\/upload\/caiku\/3\/c\/b\/140_3ccda8693365c654d400f34499cee04b.jpg"
        }
      ],
      "pw" : 1280
    }
  },
  "state" : "success"
}