{
  "result" : {
    "recipe" : {
      "rate_show" : 0,
      "rrps" : [

      ],
      "user" : {
        "verified_url" : "https:\/\/m.douguo.com\/user\/prodesc",
        "user_id" : "23888374",
        "qq_weibo_nick" : "",
        "userid" : "23888374",
        "nick" : "平安果hcda",
        "following_count" : 0,
        "verified" : 1,
        "avatar_medium" : "http:\/\/tx1.douguo.net\/upload\/photo\/3\/0\/1\/140_u593890272656193707.jpeg",
        "followers_count" : 0,
        "birthday" : "",
        "regist_time" : "",
        "point" : 0,
        "age" : "",
        "diaries_count" : 0,
        "lvl" : 6,
        "location" : 0,
        "setted_email" : 0,
        "fc" : 0,
        "weibo_nick" : "",
        "coursecount" : 0,
        "gender" : 2,
        "is_prime" : 0,
        "subscription" : 0,
        "progress_image" : "",
        "user_photo" : "http:\/\/tx1.douguo.net\/upload\/photo\/3\/0\/1\/70_u593890272656193707.jpeg",
        "subscription_article_count" : 0,
        "mobile" : "",
        "user_cover" : "",
        "sign" : "",
        "qzone_nick" : "",
        "favor_diaries_count" : 0,
        "favorites_count" : 0,
        "introduction" : "",
        "recipes_count" : 0,
        "dishes_count" : 0,
        "user_large_photo" : "http:\/\/tx1.douguo.net\/upload\/photo\/3\/0\/1\/yuan_u593890272656193707.jpeg",
        "lv" : 0,
        "email" : "",
        "pc" : 0,
        "verified_image" : "https:\/\/i1.douguo.com\/upload\/note\/d\/a\/a\/da84247847aebe48d9dd0fcdac88862a.png"
      },
      "cook_difficulty_image" : "https:\/\/i1.douguo.com\/upload\/banner\/1551424390.png",
      "su" : "",
      "author_verified" : 1,
      "dishes" : [

      ],
      "rips" : 0,
      "bs" : [

      ],
      "sc" : 0,
      "author_id" : 23888374,
      "ecs" : 1,
      "top_mdsp" : [

      ],
      "cookstorys" : [
        {
          "icon" : "",
          "u" : "",
          "color" : "",
          "type" : 0,
          "c" : "豌豆和鸡蛋一起炒，豌豆抗菌消炎，减肥瘦身，增强免疫力，鸡蛋又有丰富的蛋白质，两种食材混合，营养又低脂，不要担心身上长肉肉",
          "id" : 0
        },
        {
          "color" : "",
          "type" : 0,
          "icon" : "",
          "u" : "",
          "c" : "\n参与活动:",
          "id" : 0
        },
        {
          "u" : "https:\/\/m.douguo.com\/activity\/ncpzj\/detail\/3760?isapp=1&open=0&_vs=1000300&&dg_refreshkey=publishnote",
          "c" : "#菜谱有奖征集 | 肉食主义VS素食主义#",
          "type" : 0,
          "id" : 0,
          "icon" : ""
        }
      ],
      "clicks" : "1",
      "create_time" : "2023-04-19 10:48:42",
      "btm_dsp" : [

      ],
      "packages_id" : [

      ],
      "levelid" : 2,
      "ipci" : "",
      "related_ads" : [

      ],
      "cook_time" : "10分钟左右",
      "first_level_comment_count" : 0,
      "comments_count_text" : "",
      "brand_day_dsp" : [

      ],
      "cookwares" : [

      ],
      "tags" : [

      ],
      "minor" : [

      ],
      "hq" : 1,
      "thumb_height" : 0,
      "rsm" : "该功能暂停使用",
      "cookstep" : [
        {
          "position" : 1,
          "thumb" : "https:\/\/i1.douguo.com\/upload\/caiku\/0\/b\/5\/140_0bd55eb78838c6eb4e1de9ce64016ba5.jpeg",
          "frame" : "-1",
          "image_width" : 3840,
          "image" : "https:\/\/i1.douguo.com\/upload\/caiku\/0\/b\/5\/0bd55eb78838c6eb4e1de9ce64016ba5.jpeg",
          "content" : "碗里打入3个鸡蛋，加入少许盐和1勺料酒，搅打均匀",
          "image_height" : 5118
        },
        {
          "image_width" : 3840,
          "thumb" : "https:\/\/i1.douguo.com\/upload\/caiku\/0\/0\/0\/140_0060482acfd2b15d07b3642a095489d0.jpeg",
          "position" : 2,
          "content" : "锅中油热，打入蛋液，蛋液凝固时盛入碗里备用",
          "image" : "https:\/\/i1.douguo.com\/upload\/caiku\/0\/0\/0\/0060482acfd2b15d07b3642a095489d0.jpeg",
          "image_height" : 5118,
          "frame" : "-1"
        },
        {
          "content" : "锅中加入少许油，加入葱头炒香，倒入豌豆翻炒一下",
          "frame" : "-1",
          "position" : 3,
          "image_height" : 5118,
          "image" : "https:\/\/i1.douguo.com\/upload\/caiku\/b\/e\/2\/be425602937e31308f3957637aa4a192.jpeg",
          "image_width" : 3840,
          "thumb" : "https:\/\/i1.douguo.com\/upload\/caiku\/b\/e\/2\/140_be425602937e31308f3957637aa4a192.jpeg"
        },
        {
          "image" : "https:\/\/i1.douguo.com\/upload\/caiku\/5\/1\/b\/51b75619b06ed59a1c6f9594bb8ccfdb.jpeg",
          "content" : "加入少许食盐，继续翻炒豌豆断生",
          "frame" : "-1",
          "thumb" : "https:\/\/i1.douguo.com\/upload\/caiku\/5\/1\/b\/140_51b75619b06ed59a1c6f9594bb8ccfdb.jpeg",
          "position" : 4,
          "image_width" : 3840,
          "image_height" : 5118
        },
        {
          "image" : "https:\/\/i1.douguo.com\/upload\/caiku\/5\/0\/6\/503ad73bba548cfb316aff894cdda996.jpeg",
          "frame" : "-1",
          "image_width" : 3840,
          "position" : 5,
          "image_height" : 5118,
          "thumb" : "https:\/\/i1.douguo.com\/upload\/caiku\/5\/0\/6\/140_503ad73bba548cfb316aff894cdda996.jpeg",
          "content" : "倒入炒好的鸡蛋"
        },
        {
          "image" : "https:\/\/i1.douguo.com\/upload\/caiku\/4\/c\/7\/4c32fc2a1cc2283bff76d9cff47e1c27.jpeg",
          "frame" : "-1",
          "position" : 6,
          "image_height" : 5118,
          "image_width" : 3840,
          "content" : "用锅铲把鸡蛋切小块",
          "thumb" : "https:\/\/i1.douguo.com\/upload\/caiku\/4\/c\/7\/140_4c32fc2a1cc2283bff76d9cff47e1c27.jpeg"
        },
        {
          "content" : "临出锅加入葱花，翻拌均匀，装入盘中",
          "image" : "https:\/\/i1.douguo.com\/upload\/caiku\/b\/5\/9\/b5d1aee1975f71a3047175a390d71a39.jpeg",
          "image_width" : 3840,
          "position" : 7,
          "image_height" : 5118,
          "frame" : "-1",
          "thumb" : "https:\/\/i1.douguo.com\/upload\/caiku\/b\/5\/9\/140_b5d1aee1975f71a3047175a390d71a39.jpeg"
        }
      ],
      "story_dsp" : [

      ],
      "cookstory" : "豌豆和鸡蛋一起炒，豌豆抗菌消炎，减肥瘦身，增强免疫力，鸡蛋又有丰富的蛋白质，两种食材混合，营养又低脂，不要担心身上长肉肉",
      "cook_id" : "3247333",
      "recipe_tags" : [
        "{\n    \"background_border_color\" = \"\";\n    \"background_end_color\" = \"#F5D39F\";\n    \"background_start_color\" = \"#FAE9CD\";\n    \"jump_url\" = \"recipes:\/\/www.douguo.com\/introdietitian\";\n    \"left_image\" = \"https:\/\/i1.douguo.com\/upload\/caiku\/4\/e\/8\/4ec0a3547dfdb0e8541ff7b7b61b2578.png\";\n    \"right_image\" = \"https:\/\/i1.douguo.com\/upload\/caiku\/0\/a\/b\/0a317d98c713e7e7d0d47ed003f2d93b.png\";\n    text = \"\\U51cf\\U8102\\U83dc\\U8c31\";\n    \"text_color\" = \"#413C32\";\n}"
      ],
      "rcs" : [

      ],
      "rate" : 0,
      "sr" : "",
      "dish_count_text" : "",
      "ipia" : [

      ],
      "pw" : 1440,
      "vu" : "",
      "cook_time_image" : "https:\/\/i1.douguo.com\/upload\/banner\/1551424358.png",
      "recipe_list_tags" : [
        {
          "jump_url" : "recipes:\/\/www.douguo.com\/introdietitian",
          "background_start_color" : "#FAE9CD",
          "text" : "减脂菜谱",
          "background_end_color" : "#F5D39F",
          "text_color" : "#413C32",
          "right_image" : "https:\/\/i1.douguo.com\/upload\/caiku\/0\/a\/b\/0a317d98c713e7e7d0d47ed003f2d93b.png",
          "background_border_color" : ""
        },
        {
          "background_end_color" : "#F4F5F5",
          "right_image" : "",
          "background_start_color" : "#F4F5F5",
          "text" : "关注的人",
          "background_border_color" : "",
          "text_color" : "#141515",
          "jump_url" : ""
        }
      ],
      "eu" : "recipes:\/\/www.douguo.com\/postdetail?id=242016",
      "recommend_label" : "4625人刚刚收藏过",
      "notes" : [

      ],
      "ss" : [

      ],
      "comments_count" : 0,
      "v_u" : "",
      "display_ingredient" : 1,
      "vfurl" : "",
      "recommendation_tag" : "",
      "hqu" : "recipes:\/\/www.douguo.com\/notedetail?id=21162253",
      "release_time" : "",
      "vc" : "146336",
      "mid_mdsp" : [

      ],
      "original_photo_path" : "http:\/\/i1.douguo.net\/upload\/caiku\/d\/2\/1\/yuan_d21c5eafab8468dcae226328cde7b3e1.jpeg",
      "ipurl" : "",
      "title" : "豌豆炒蛋",
      "ssu" : "",
      "purl" : "",
      "old_comments" : [

      ],
      "thumb_path" : "https:\/\/i1.douguo.com\/upload\/caiku\/d\/2\/1\/300_d21c5eafab8468dcae226328cde7b3e1.jpeg",
      "favo_counts" : 4625,
      "favo_counts_text" : "4625",
      "rate_count" : 0,
      "title_ad" : [

      ],
      "guide_image" : "",
      "major" : [
        {
          "title" : "鸡蛋",
          "tu" : "https:\/\/m.douguo.com\/ingredients\/鸡蛋\/detailmaterial",
          "note" : "3个"
        },
        {
          "note" : "2根",
          "title" : "香葱",
          "tu" : "https:\/\/m.douguo.com\/ingredients\/香葱\/detailmaterial"
        },
        {
          "note" : "适量",
          "title" : "盐",
          "tu" : "https:\/\/m.douguo.com\/ingredients\/盐\/detailmaterial"
        },
        {
          "title" : "豌豆",
          "note" : "适量",
          "tu" : "https:\/\/m.douguo.com\/ingredients\/豌豆\/detailmaterial"
        },
        {
          "note" : "1勺",
          "title" : "料酒",
          "tu" : "https:\/\/m.douguo.com\/ingredients\/料酒\/detailmaterial"
        }
      ],
      "tips" : "",
      "rpt" : "",
      "ipt" : "",
      "ph" : 1920,
      "collect_status" : 0,
      "image" : "http:\/\/i1.douguo.net\/upload\/caiku\/d\/2\/1\/300_d21c5eafab8468dcae226328cde7b3e1.jpeg",
      "share_info" : {
        "s_d" : "#素食主义#豌豆炒蛋-会做饭很酷!",
        "s_u" : "http:\/\/m.douguo.com\/cookbook\/3247333.html",
        "mini_program" : [

        ],
        "object_id" : "3247333",
        "qr_image" : "",
        "infos" : [
          {
            "object_id" : "3247333",
            "image" : "https:\/\/cp1.douguo.com\/upload\/caiku\/d\/2\/1\/d21c5eafab8468dcae226328cde7b3e1.jpeg",
            "s_d" : "#学做饭用豆果美食# 会做饭真是太酷了！我在@豆果美食 分享了【#素食主义#豌豆炒蛋-会做饭很酷!】，这道菜真的神仙美味！喜欢的一定要试试绝对不会错的！～查看图片了解菜谱（快来点击https:\/\/m.weibo.cn\/p\/100404i33631和我一起修炼厨艺吧）",
            "channel" : "1",
            "qr_image" : "",
            "s_u" : "",
            "name" : "#素食主义#豌豆炒蛋-会做饭很酷!",
            "mini_program" : [

            ]
          },
          {
            "name" : "#素食主义#豌豆炒蛋-会做饭很酷!",
            "channel" : "7",
            "s_u" : "http:\/\/m.douguo.com\/cookbook\/3247333.html",
            "s_d" : "#素食主义#豌豆炒蛋-会做饭很酷!",
            "image" : "https:\/\/cp1.douguo.com\/upload\/caiku\/d\/2\/1\/d21c5eafab8468dcae226328cde7b3e1.jpeg",
            "mini_program" : [

            ],
            "qr_image" : "",
            "object_id" : "3247333"
          },
          {
            "mini_program" : [

            ],
            "object_id" : "3247333",
            "qr_image" : "",
            "s_d" : "#素食主义#豌豆炒蛋-会做饭很酷!",
            "image" : "https:\/\/cp1.douguo.com\/upload\/caiku\/d\/2\/1\/d21c5eafab8468dcae226328cde7b3e1.jpeg",
            "channel" : "8",
            "name" : "#素食主义#豌豆炒蛋-会做饭很酷!",
            "s_u" : "http:\/\/m.douguo.com\/cookbook\/3247333.html"
          }
        ],
        "name" : "#素食主义#豌豆炒蛋-会做饭很酷!",
        "image" : "https:\/\/cp1.douguo.com\/upload\/caiku\/d\/2\/1\/d21c5eafab8468dcae226328cde7b3e1.jpeg"
      },
      "recent_comments" : [

      ],
      "author_photo" : "http:\/\/tx1.douguo.net\/upload\/photo\/3\/0\/1\/70_u593890272656193707.jpeg",
      "photo_path" : "https:\/\/i1.douguo.com\/upload\/caiku\/d\/2\/1\/600_d21c5eafab8468dcae226328cde7b3e1.jpeg",
      "dish_count" : 0,
      "rrpt" : "",
      "advice" : {
        "da" : {
          "url" : "https:\/\/m.douguo.com\/recipe\/nutrient_self\/3247333",
          "t" : "查看详细分析",
          "iu" : "https:\/\/i1.douguo.com\/upload\/banner\/f\/4\/d\/f48877e53c37759bc12ac494be82ec8d.png"
        },
        "at" : "有助于构成或修复人体组织～",
        "has" : [
          {
            "url" : "recipes:\/\/www.douguo.com\/simplerecipelist?t=富含蛋白质&id=富含蛋白质",
            "t" : "富含蛋白质"
          }
        ]
      },
      "rewarded_video_dsp" : [

      ],
      "views_count_text" : "14.6万",
      "rpid" : 0,
      "act_des" : "",
      "recommended" : 0,
      "ipoi" : "",
      "ipit" : 0,
      "comments" : [

      ],
      "author" : "平安果hcda",
      "rpst" : "",
      "event" : {
        "url" : "https:\/\/m.douguo.com\/activity\/ncpzj\/detail\/3760?isapp=1&open=0&_vs=1000300&&dg_refreshkey=publishnote",
        "name" : "菜谱有奖征集 | 肉食主义VS素食主义",
        "id" : 3760
      },
      "cook_difficulty" : "切墩(初级)",
      "rdsps" : [

      ]
    }
  },
  "state" : "success",
  "status" : 0
}