{
  "result" : {
    "recipe" : {
      "cookstorys" : [
        {
          "type" : 0,
          "u" : "",
          "color" : "",
          "id" : 0,
          "c" : "今天和大家分享香葱银丝花卷的做法，花卷大家经常吃，但是银丝花卷的造型却不常见，偶尔把传统的食物换一个造型可以焕发新的活力，这次的配方做到了食材的极简，家常材料就可以做，新颖的造型，极简的材料，淳朴的味道，喜欢的朋友们赶紧做起来吧！",
          "icon" : ""
        }
      ],
      "rate_show" : 0,
      "btm_dsp" : [

      ],
      "author_id" : 26035758,
      "bs" : [

      ],
      "title_ad" : [

      ],
      "tips" : "",
      "original_photo_path" : "http:\/\/i1.douguo.net\/upload\/caiku\/c\/1\/d\/yuan_c15f3d43d2c7dbde4e5d3e4ef6a81efd.jpeg",
      "top_mdsp" : [

      ],
      "story_dsp" : [

      ],
      "sc" : 0,
      "cook_time" : "",
      "collect_status" : 0,
      "vfurl" : "",
      "levelid" : 2,
      "notes" : [

      ],
      "clicks" : "1",
      "pw" : 1920,
      "ss" : [

      ],
      "old_comments" : [

      ],
      "guide_image" : "",
      "recent_comments" : [

      ],
      "advice" : {
        "da" : {
          "iu" : "https:\/\/i1.douguo.com\/upload\/banner\/f\/4\/d\/f48877e53c37759bc12ac494be82ec8d.png",
          "url" : "https:\/\/m.douguo.com\/recipe\/nutrient_self\/3175652",
          "t" : "查看详细分析"
        },
        "has" : [
          {
            "t" : "低胆固醇",
            "url" : "recipes:\/\/www.douguo.com\/simplerecipelist?t=低胆固醇&id=低胆固醇"
          }
        ],
        "at" : "一道菜对心血管健康～"
      },
      "vc" : "1118795",
      "author_verified" : 0,
      "dish_count" : 10,
      "brand_day_dsp" : [

      ],
      "cook_difficulty" : "",
      "release_time" : "",
      "ssu" : "",
      "rdsps" : [

      ],
      "ipt" : "",
      "act_des" : "",
      "rpst" : "",
      "rate_count" : 10,
      "purl" : "",
      "rips" : 0,
      "hq" : 1,
      "favo_counts" : 41412,
      "rsm" : "该功能暂停使用",
      "su" : "",
      "create_time" : "2022-03-20 15:05:45",
      "recipe_list_tags" : [
        {
          "background_start_color" : "#F4F5F5",
          "text_color" : "#141515",
          "text" : "关注的人",
          "background_border_color" : "",
          "background_end_color" : "#F4F5F5",
          "jump_url" : "",
          "right_image" : ""
        }
      ],
      "cookwares" : [

      ],
      "cookstep" : [
        {
          "thumb" : "https:\/\/i1.douguo.com\/upload\/caiku\/3\/b\/3\/140_3b37a768384690a99ae300055961fbf3.jpeg",
          "image" : "https:\/\/i1.douguo.com\/upload\/caiku\/3\/b\/3\/3b37a768384690a99ae300055961fbf3.jpeg",
          "image_width" : 3840,
          "frame" : "-1",
          "image_height" : 5118,
          "position" : 1,
          "content" : "首先把面团材料中的所有材料放入揉面缸，我用的厨师机，大家用手揉也可以。"
        },
        {
          "position" : 2,
          "frame" : "-1",
          "image_height" : 5118,
          "image" : "https:\/\/i1.douguo.com\/upload\/caiku\/3\/8\/5\/38f745f1b32f607f0054fa747a639a25.jpeg",
          "image_width" : 3840,
          "thumb" : "https:\/\/i1.douguo.com\/upload\/caiku\/3\/8\/5\/140_38f745f1b32f607f0054fa747a639a25.jpeg",
          "content" : "我用厨师机中速揉面大概十分钟左右揉成一个光滑的面团就可以了，盖上保鲜膜温暖处发酵到两倍大，我用烤箱发酵功能30度发了一小时。"
        },
        {
          "image_width" : 3840,
          "content" : "发酵好的面团膨胀到两倍大，手指戳一个洞不回缩就可以了。",
          "image_height" : 5118,
          "image" : "https:\/\/i1.douguo.com\/upload\/caiku\/6\/0\/b\/608ab8f86e9c13dad361b9c5e3eb897b.jpeg",
          "frame" : "-1",
          "position" : 3,
          "thumb" : "https:\/\/i1.douguo.com\/upload\/caiku\/6\/0\/b\/140_608ab8f86e9c13dad361b9c5e3eb897b.jpeg"
        },
        {
          "image_height" : 2880,
          "image_width" : 3840,
          "thumb" : "https:\/\/i1.douguo.com\/upload\/caiku\/3\/8\/0\/140_385375dd6dc94807c9fce951f0c99a50.jpeg",
          "content" : "平均分成两份搓圆，盖上保鲜膜松弛二十分钟。",
          "image" : "https:\/\/i1.douguo.com\/upload\/caiku\/3\/8\/0\/385375dd6dc94807c9fce951f0c99a50.jpeg",
          "position" : 4,
          "frame" : "-1"
        },
        {
          "image" : "https:\/\/i1.douguo.com\/upload\/caiku\/0\/8\/b\/08ef2c752d66b9955d88b186fda83e8b.jpeg",
          "frame" : "-1",
          "position" : 5,
          "image_width" : 3840,
          "thumb" : "https:\/\/i1.douguo.com\/upload\/caiku\/0\/8\/b\/140_08ef2c752d66b9955d88b186fda83e8b.jpeg",
          "content" : "取一个小面团，光滑面朝上，擀成一个30×20公分的长方形",
          "image_height" : 2880
        },
        {
          "content" : "翻过来，光滑面朝下。",
          "frame" : "-1",
          "image" : "https:\/\/i1.douguo.com\/upload\/caiku\/1\/a\/e\/1a55bcb5140b13a21e894dbdf07d879e.jpeg",
          "thumb" : "https:\/\/i1.douguo.com\/upload\/caiku\/1\/a\/e\/140_1a55bcb5140b13a21e894dbdf07d879e.jpeg",
          "image_width" : 3840,
          "position" : 6,
          "image_height" : 2880
        },
        {
          "image_height" : 2880,
          "image" : "https:\/\/i1.douguo.com\/upload\/caiku\/f\/7\/1\/f77dd26e27d95b5ed9de8c7130cc5401.jpeg",
          "image_width" : 3840,
          "frame" : "-1",
          "thumb" : "https:\/\/i1.douguo.com\/upload\/caiku\/f\/7\/1\/140_f77dd26e27d95b5ed9de8c7130cc5401.jpeg",
          "content" : "均匀抹上一层食用油，撒上一点盐和葱花。",
          "position" : 7
        },
        {
          "position" : 8,
          "frame" : "-1",
          "image_width" : 3840,
          "image_height" : 2880,
          "content" : "上面折下来。",
          "thumb" : "https:\/\/i1.douguo.com\/upload\/caiku\/6\/3\/8\/140_63050ba283fdc895771c6e5b21778908.jpeg",
          "image" : "https:\/\/i1.douguo.com\/upload\/caiku\/6\/3\/8\/63050ba283fdc895771c6e5b21778908.jpeg"
        },
        {
          "image_height" : 2880,
          "frame" : "-1",
          "thumb" : "https:\/\/i1.douguo.com\/upload\/caiku\/e\/1\/7\/140_e1c7113a7f8937512987b620c3f68de7.jpeg",
          "position" : 9,
          "image" : "https:\/\/i1.douguo.com\/upload\/caiku\/e\/1\/7\/e1c7113a7f8937512987b620c3f68de7.jpeg",
          "content" : "再折一次，用手压一压把里面的空气排出来。",
          "image_width" : 3840
        },
        {
          "image_width" : 3840,
          "content" : "然后切成条，大概0.5到1公分一条，宽度可以自己把握，切的窄可以做得多，底下先放四条。",
          "image" : "https:\/\/i1.douguo.com\/upload\/caiku\/e\/c\/6\/ecf340f7ce77b4ee4464e9ad090803d6.jpeg",
          "thumb" : "https:\/\/i1.douguo.com\/upload\/caiku\/e\/c\/6\/140_ecf340f7ce77b4ee4464e9ad090803d6.jpeg",
          "position" : 10,
          "frame" : "-1",
          "image_height" : 5118
        },
        {
          "image_height" : 5118,
          "position" : 11,
          "image" : "https:\/\/i1.douguo.com\/upload\/caiku\/c\/b\/f\/cbba1d9b6e37797f820c11790848d2ef.jpeg",
          "content" : "然后上面在放四条，这里需要注意，把有葱花的那一面朝上。",
          "thumb" : "https:\/\/i1.douguo.com\/upload\/caiku\/c\/b\/f\/140_cbba1d9b6e37797f820c11790848d2ef.jpeg",
          "image_width" : 3840,
          "frame" : "-1"
        },
        {
          "content" : "全部操作完以后盖上保鲜膜松弛二十分钟。",
          "image_width" : 3840,
          "image" : "https:\/\/i1.douguo.com\/upload\/caiku\/e\/c\/8\/ec9994908ff14db46dee5cdc2918c198.jpeg",
          "frame" : "-1",
          "thumb" : "https:\/\/i1.douguo.com\/upload\/caiku\/e\/c\/8\/140_ec9994908ff14db46dee5cdc2918c198.jpeg",
          "image_height" : 2880,
          "position" : 12
        },
        {
          "position" : 13,
          "content" : "然后可以按照自己喜欢的造型来做，我是把面团拉长一些，两头朝反方向拧一下然后打个结，放在烘焙纸上，温暖处发酵两倍大，我用烤箱发酵功能30度发酵了50分钟。",
          "frame" : "-1",
          "image_width" : 3840,
          "image" : "https:\/\/i1.douguo.com\/upload\/caiku\/9\/2\/7\/92f4e5263b4f511ccd6a57c7aae0e567.jpeg",
          "thumb" : "https:\/\/i1.douguo.com\/upload\/caiku\/9\/2\/7\/140_92f4e5263b4f511ccd6a57c7aae0e567.jpeg",
          "image_height" : 2880
        },
        {
          "image_width" : 3840,
          "frame" : "-1",
          "position" : 14,
          "thumb" : "https:\/\/i1.douguo.com\/upload\/caiku\/7\/e\/5\/140_7ea511ac3f9f7d6294f23b119e19d015.jpeg",
          "image_height" : 2880,
          "image" : "https:\/\/i1.douguo.com\/upload\/caiku\/7\/e\/5\/7ea511ac3f9f7d6294f23b119e19d015.jpeg",
          "content" : "发酵好的花卷膨胀了两倍大，冷水上锅蒸15分钟就可以，蒸好以后再闷5分钟，就可以开吃啦。"
        },
        {
          "image_width" : 3840,
          "frame" : "-1",
          "thumb" : "https:\/\/i1.douguo.com\/upload\/caiku\/7\/0\/3\/140_702b528997a64674c94ae026b824df83.jpeg",
          "position" : 15,
          "image_height" : 2880,
          "content" : "今天和大家分享香葱银丝花卷的做法，花卷大家经常吃，但是银丝花卷的造型却不常见，偶尔把传统的食物换一个造型可以焕发新的活力，这次的配方做到了食材的极简，家常材料就可以做，新颖的造型，极简的材料，淳朴的味道，喜欢的朋友们赶紧做起来吧！",
          "image" : "https:\/\/i1.douguo.com\/upload\/caiku\/7\/0\/3\/702b528997a64674c94ae026b824df83.jpeg"
        }
      ],
      "cook_id" : "3175652",
      "recipe_tags" : [

      ],
      "related_ads" : [

      ],
      "dishes" : [

      ],
      "photo_path" : "https:\/\/i1.douguo.com\/upload\/caiku\/c\/1\/d\/600_c15f3d43d2c7dbde4e5d3e4ef6a81efd.jpeg",
      "major" : [
        {
          "note" : "----------",
          "title" : "------"
        },
        {
          "title" : "面团材料",
          "note" : ""
        },
        {
          "note" : "300克",
          "title" : "普通面粉"
        },
        {
          "note" : "3克",
          "title" : "盐",
          "tu" : "https:\/\/m.douguo.com\/ingredients\/盐\/detailmaterial"
        },
        {
          "tu" : "https:\/\/m.douguo.com\/ingredients\/糖\/detailmaterial",
          "note" : "15克",
          "title" : "糖"
        },
        {
          "tu" : "https:\/\/m.douguo.com\/ingredients\/酵母\/detailmaterial",
          "note" : "3克",
          "title" : "酵母"
        },
        {
          "note" : "160克",
          "title" : "水",
          "tu" : "https:\/\/m.douguo.com\/ingredients\/水\/detailmaterial"
        },
        {
          "title" : "------",
          "note" : "----------"
        },
        {
          "note" : "",
          "title" : "馅料"
        },
        {
          "note" : "2汤匙",
          "title" : "油",
          "tu" : "https:\/\/m.douguo.com\/ingredients\/油\/detailmaterial"
        },
        {
          "title" : "盐",
          "tu" : "https:\/\/m.douguo.com\/ingredients\/盐\/detailmaterial",
          "note" : "3克"
        },
        {
          "title" : "葱花",
          "note" : "30克",
          "tu" : "https:\/\/m.douguo.com\/ingredients\/葱花\/detailmaterial"
        },
        {
          "title" : "------",
          "note" : "----------"
        }
      ],
      "recommend_label" : "10人学做",
      "ipia" : [

      ],
      "dish_count_text" : "10",
      "minor" : [

      ],
      "recommendation_tag" : "",
      "rcs" : [

      ],
      "rate" : 4,
      "v_u" : "",
      "sr" : "",
      "views_count_text" : "111.9万",
      "author_photo" : "http:\/\/tx1.douguo.net\/upload\/photo\/2\/3\/b\/70_23770f75ea5ee0cd3166dcc63ae4065b.jpeg",
      "ipit" : 0,
      "ecs" : 1,
      "ipoi" : "",
      "ipurl" : "",
      "thumb_height" : 0,
      "packages_id" : [

      ],
      "author" : "石头Kido_Kido",
      "rpt" : "",
      "ph" : 1440,
      "cook_difficulty_image" : "",
      "thumb_path" : "https:\/\/i1.douguo.com\/upload\/caiku\/c\/1\/d\/300_c15f3d43d2c7dbde4e5d3e4ef6a81efd.jpeg",
      "image" : "http:\/\/i1.douguo.net\/upload\/caiku\/c\/1\/d\/300_c15f3d43d2c7dbde4e5d3e4ef6a81efd.jpeg",
      "rrpt" : "",
      "ipci" : "",
      "rewarded_video_dsp" : [

      ],
      "recommended" : 0,
      "display_ingredient" : 1,
      "title" : "香葱银丝花卷",
      "rrps" : [

      ],
      "tags" : [

      ],
      "share_info" : {
        "qr_image" : "",
        "object_id" : "3175652",
        "mini_program" : [

        ],
        "infos" : [
          {
            "channel" : "1",
            "mini_program" : [

            ],
            "object_id" : "3175652",
            "name" : "香葱银丝花卷-会做饭很酷!",
            "s_d" : "#学做饭用豆果美食#  我在@豆果美食 分享了【香葱银丝花卷-会做饭很酷!】，制作美食的过程承载了我生活中的热情，和我一起感受这份小确幸吧！查看图片了解菜谱（你喜欢的美食都在这里！https:\/\/m.weibo.cn\/p\/100404i33631）#会做饭很酷# ",
            "s_u" : "",
            "qr_image" : "",
            "image" : "https:\/\/cp1.douguo.com\/upload\/caiku\/c\/1\/d\/c15f3d43d2c7dbde4e5d3e4ef6a81efd.jpeg"
          },
          {
            "image" : "https:\/\/cp1.douguo.com\/upload\/caiku\/c\/1\/d\/c15f3d43d2c7dbde4e5d3e4ef6a81efd.jpeg",
            "qr_image" : "",
            "mini_program" : [

            ],
            "object_id" : "3175652",
            "name" : "香葱银丝花卷-会做饭很酷!",
            "channel" : "7",
            "s_u" : "http:\/\/m.douguo.com\/cookbook\/3175652.html",
            "s_d" : "香葱银丝花卷-会做饭很酷!"
          },
          {
            "channel" : "8",
            "mini_program" : [

            ],
            "name" : "香葱银丝花卷-会做饭很酷!",
            "qr_image" : "",
            "object_id" : "3175652",
            "image" : "https:\/\/cp1.douguo.com\/upload\/caiku\/c\/1\/d\/c15f3d43d2c7dbde4e5d3e4ef6a81efd.jpeg",
            "s_d" : "香葱银丝花卷-会做饭很酷!",
            "s_u" : "http:\/\/m.douguo.com\/cookbook\/3175652.html"
          }
        ],
        "s_d" : "香葱银丝花卷-会做饭很酷!",
        "image" : "https:\/\/cp1.douguo.com\/upload\/caiku\/c\/1\/d\/c15f3d43d2c7dbde4e5d3e4ef6a81efd.jpeg",
        "name" : "香葱银丝花卷-会做饭很酷!",
        "s_u" : "http:\/\/m.douguo.com\/cookbook\/3175652.html"
      },
      "hqu" : "recipes:\/\/www.douguo.com\/notedetail?id=21162253",
      "comments_count_text" : "6",
      "first_level_comment_count" : 3,
      "vu" : "",
      "eu" : "recipes:\/\/www.douguo.com\/postdetail?id=242016",
      "cook_time_image" : "",
      "cookstory" : "今天和大家分享香葱银丝花卷的做法，花卷大家经常吃，但是银丝花卷的造型却不常见，偶尔把传统的食物换一个造型可以焕发新的活力，这次的配方做到了食材的极简，家常材料就可以做，新颖的造型，极简的材料，淳朴的味道，喜欢的朋友们赶紧做起来吧！",
      "rpid" : 0,
      "user" : {
        "dishes_count" : 0,
        "introduction" : "",
        "favor_diaries_count" : 0,
        "regist_time" : "",
        "verified_url" : "https:\/\/m.douguo.com\/user\/prodesc",
        "user_large_photo" : "http:\/\/tx1.douguo.net\/upload\/photo\/2\/3\/b\/yuan_23770f75ea5ee0cd3166dcc63ae4065b.jpeg",
        "email" : "",
        "user_photo" : "http:\/\/tx1.douguo.net\/upload\/photo\/2\/3\/b\/70_23770f75ea5ee0cd3166dcc63ae4065b.jpeg",
        "verified_image" : "",
        "lvl" : 6,
        "fc" : 0,
        "sign" : "",
        "pc" : 0,
        "verified" : 0,
        "age" : "",
        "nick" : "石头Kido_Kido",
        "user_cover" : "",
        "qq_weibo_nick" : "",
        "userid" : "26035758",
        "followers_count" : 0,
        "weibo_nick" : "",
        "coursecount" : 0,
        "point" : 0,
        "favorites_count" : 0,
        "following_count" : 0,
        "recipes_count" : 0,
        "subscription_article_count" : 0,
        "progress_image" : "",
        "lv" : 0,
        "qzone_nick" : "",
        "avatar_medium" : "http:\/\/tx1.douguo.net\/upload\/photo\/2\/3\/b\/140_23770f75ea5ee0cd3166dcc63ae4065b.jpeg",
        "birthday" : "",
        "gender" : 1,
        "location" : 0,
        "diaries_count" : 0,
        "is_prime" : 0,
        "mobile" : "",
        "user_id" : "26035758",
        "subscription" : 0,
        "setted_email" : 0
      },
      "comments" : [
        "{\n    ac = \"#999999\";\n    at = \"\\U5317\\U6d77\\U5e02\";\n    ccc = 1;\n    \"child_comments\" =     (\n                {\n            ac = \"#999999\";\n            at = \"\\U798f\\U5dde\\U5e02\";\n            ccc = 0;\n            city = \"\\U798f\\U5dde\\U5e02\";\n            cmc = 2;\n            content =             (\n                                {\n                    c = \" \\U73b0\\U5728\\U5929\\U6c14\\U70ed\\Uff0c\\U4f60\\U8981\\U6ce8\\U610f\\U53d1\\U9762\\U7684\\U65f6\\U95f4\\Uff0c\\U53d1\\U8fc7\\U5934\\U4e86\\U9762\\U5403\\U8d77\\U6765\\U6709\\U9178\\U5473\\Uff0c\\U53e3\\U611f\\U4e5f\\U7c97\\U7cd9\\U3002\";\n                }\n            );\n            ia = 1;\n            id = 8958453;\n            \"ip_address_location\" = \"\";\n            like = 0;\n            \"like_count\" = 0;\n            \"reply_id\" = 8958449;\n            \"reply_user\" =             {\n                \"followers_count_text\" = \"\";\n                id = 16594050;\n                \"is_prime\" = 0;\n                lv = 0;\n                lvl = 1;\n                n = \"\\U6cfd\\U6cfd\\U732a\";\n                p = \"\";\n                \"progress_image\" = \"\";\n                \"recipes_count_text\" = \"\";\n                relationship = \"-1\";\n                title = \"\";\n                v = 0;\n                \"verified_image\" = \"\";\n            };\n            \"sticker_icon\" =             (\n            );\n            time = \"2022-07-27 15:29:27\";\n            u =             {\n                \"followers_count_text\" = \"\";\n                id = 26035758;\n                \"is_prime\" = 1;\n                lv = 0;\n                lvl = 6;\n                n = \"\\U77f3\\U5934Kido_Kido\";\n                p = \"http:\/\/tx1.douguo.net\/upload\/photo\/2\/3\/b\/70_23770f75ea5ee0cd3166dcc63ae4065b.jpeg\";\n                \"progress_image\" = \"\";\n                \"recipes_count_text\" = \"\";\n                relationship = \"-1\";\n                title = \"\";\n                v = 0;\n                \"verified_image\" = \"\";\n            };\n        }\n    );\n    city = \"\\U5317\\U6d77\\U5e02\";\n    cmc = 2;\n    content =     (\n                {\n            c = \"\\U4e3a\\U4ec0\\U4e48\\U505a\\U51fa\\U6765\\U5403\\U662f\\U7c97\\U7c97\\U7684\\Uff1f\\U611f\\U89c9\\U53d1\\U9762\\U8fc7\\U5934\\U7684\\U611f\\U89c9\";\n        }\n    );\n    ia = 0;\n    id = 8958449;\n    \"ip_address_location\" = \"\";\n    like = 0;\n    \"like_count\" = 0;\n    \"reply_id\" = 0;\n    \"sticker_icon\" =     (\n    );\n    time = \"2022-07-27 15:09:13\";\n    u =     {\n        \"followers_count_text\" = \"\";\n        id = 16594050;\n        \"is_prime\" = 0;\n        lv = 0;\n        lvl = 1;\n        n = \"\\U6cfd\\U6cfd\\U732a\";\n        p = \"\";\n        \"progress_image\" = \"\";\n        \"recipes_count_text\" = \"\";\n        relationship = \"-1\";\n        title = \"\";\n        v = 0;\n        \"verified_image\" = \"\";\n    };\n}",
        "{\n    ac = \"#999999\";\n    at = \"\\U4e0a\\U6d77\\U5e02\";\n    ccc = 1;\n    \"child_comments\" =     (\n                {\n            ac = \"#999999\";\n            at = \"\\U798f\\U5dde\\U5e02\";\n            ccc = 0;\n            city = \"\\U798f\\U5dde\\U5e02\";\n            cmc = 2;\n            content =             (\n                                {\n                    c = \" \\U653e\\U5728\\U6e29\\U6696\\U5904\\U80af\\U5b9a\\U53ef\\U4ee5\\U53d1\\U8d77\\U6765\\U7684\\U3002\";\n                }\n            );\n            ia = 1;\n            id = 8935629;\n            \"ip_address_location\" = \"\";\n            like = 0;\n            \"like_count\" = 0;\n            \"reply_id\" = 8935193;\n            \"reply_user\" =             {\n                \"followers_count_text\" = \"\";\n                id = 17383410;\n                \"is_prime\" = 0;\n                lv = 0;\n                lvl = 2;\n                n = \"\\U71d5\\U5c0f\\U5bfb\";\n                p = \"http:\/\/tx1.douguo.net\/upload\/photo\/8\/9\/2\/70_u62802880875777223304.jpeg\";\n                \"progress_image\" = \"\";\n                \"recipes_count_text\" = \"\";\n                relationship = \"-1\";\n                title = \"\";\n                v = 0;\n                \"verified_image\" = \"\";\n            };\n            \"sticker_icon\" =             (\n            );\n            time = \"2022-04-25 09:37:14\";\n            u =             {\n                \"followers_count_text\" = \"\";\n                id = 26035758;\n                \"is_prime\" = 1;\n                lv = 0;\n                lvl = 6;\n                n = \"\\U77f3\\U5934Kido_Kido\";\n                p = \"http:\/\/tx1.douguo.net\/upload\/photo\/2\/3\/b\/70_23770f75ea5ee0cd3166dcc63ae4065b.jpeg\";\n                \"progress_image\" = \"\";\n                \"recipes_count_text\" = \"\";\n                relationship = \"-1\";\n                title = \"\";\n                v = 0;\n                \"verified_image\" = \"\";\n            };\n        }\n    );\n    city = \"\\U4e0a\\U6d77\\U5e02\";\n    cmc = 2;\n    content =     (\n                {\n            c = \"\\U540c\\U95ee\\Uff1a\\U7b2c\\U4e8c\\U6b21\\U53d1\\U9175\\U5e76\\U6ca1\\U6709\\U53d1\\U8d77\\U6765\\Uff0c\\U4ec0\\U4e48\\U539f\\U56e0\\U5462\\Uff1f\";\n        }\n    );\n    ia = 0;\n    id = 8935193;\n    \"ip_address_location\" = \"\";\n    like = 0;\n    \"like_count\" = 0;\n    \"reply_id\" = 0;\n    \"sticker_icon\" =     (\n    );\n    time = \"2022-04-23 17:29:24\";\n    u =     {\n        \"followers_count_text\" = \"\";\n        id = 17383410;\n        \"is_prime\" = 0;\n        lv = 0;\n        lvl = 2;\n        n = \"\\U71d5\\U5c0f\\U5bfb\";\n        p = \"http:\/\/tx1.douguo.net\/upload\/photo\/8\/9\/2\/70_u62802880875777223304.jpeg\";\n        \"progress_image\" = \"\";\n        \"recipes_count_text\" = \"\";\n        relationship = \"-1\";\n        title = \"\";\n        v = 0;\n        \"verified_image\" = \"\";\n    };\n}",
        "{\n    ac = \"#999999\";\n    at = \"\";\n    ccc = 1;\n    \"child_comments\" =     (\n                {\n            ac = \"#999999\";\n            at = \"\\U798f\\U5dde\\U5e02\";\n            ccc = 0;\n            city = \"\\U798f\\U5dde\\U5e02\";\n            cmc = 2;\n            content =             (\n                                {\n                    c = \" \\U5982\\U679c\\U9762\\U56e2\\U6709\\U53d1\\U9175\\U5230\\U4e24\\U500d\\U5927\\Uff0c\\U51b7\\U6c34\\U4e0a\\U9505\\U4e00\\U822c\\U662f\\U4e0d\\U4f1a\\U53d1\\U4e0d\\U5927\\U7684\\Uff0c\\U4f60\\U5982\\U679c\\U8471\\U82b1\\U53d1\\U9ec4\\U91cc\\U9762\\U52a0\\U4e00\\U70b9\\U70b9\\U7684\\U5c0f\\U82cf\\U6253\\U53ef\\U4ee5\\U4fdd\\U6301\\U8471\\U82b1\\U7fe0\\U7eff\\Uff0c\\U5927\\U6982\\U4e24\\U4e2a\\U624b\\U6307\\U5934\\U634f\\U4e00\\U5c0f\\U64ae\\U5c0f\\U82cf\\U6253\\U5c31\\U53ef\\U4ee5\\U4e86\\Uff0c\\U4e0d\\U8981\\U653e\\U591a\\U4e86\\Uff0c\\U653e\\U591a\\U4e86\\U78b1\\U5473\\U5f88\\U91cd\\U3002\";\n                }\n            );\n            ia = 1;\n            id = 8933706;\n            \"ip_address_location\" = \"\";\n            like = 0;\n            \"like_count\" = 0;\n            \"reply_id\" = 8933621;\n            \"reply_user\" =             {\n                \"followers_count_text\" = \"\";\n                id = 22509521;\n                \"is_prime\" = 0;\n                lv = 0;\n                lvl = 2;\n                n = \"\\U6211\\U4e5f\\U900f\\U660e\\U7684\";\n                p = \"http:\/\/tx1.douguo.net\/upload\/photo\/4\/2\/f\/70_423e63a173c957cf0ca7f35ded95caef.jpg\";\n                \"progress_image\" = \"\";\n                \"recipes_count_text\" = \"\";\n                relationship = \"-1\";\n                title = \"\";\n                v = 0;\n                \"verified_image\" = \"\";\n            };\n            \"sticker_icon\" =             (\n            );\n            time = \"2022-04-18 13:33:37\";\n            u =             {\n                \"followers_count_text\" = \"\";\n                id = 26035758;\n                \"is_prime\" = 1;\n                lv = 0;\n                lvl = 6;\n                n = \"\\U77f3\\U5934Kido_Kido\";\n                p = \"http:\/\/tx1.douguo.net\/upload\/photo\/2\/3\/b\/70_23770f75ea5ee0cd3166dcc63ae4065b.jpeg\";\n                \"progress_image\" = \"\";\n                \"recipes_count_text\" = \"\";\n                relationship = \"-1\";\n                title = \"\";\n                v = 0;\n                \"verified_image\" = \"\";\n            };\n        }\n    );\n    city = \"\";\n    cmc = 2;\n    content =     (\n                {\n            c = \"\\U4e3a\\U5565\\U6211\\U84b8\\U597d\\U4e86\\U4e0d\\U53d1\\U5462\\U2026\\U2026\\U800c\\U4e14\\U8471\\U7684\\U989c\\U8272\\U4e5f\\U53d8\\U96be\\U770b\\U4e86\\Uff0c\\U5982\\U4f55\\U4fdd\\U6301\\U4f60\\U7684\\U8fd9\\U4e48\\U9ad8\\U7684\\U989c\\U503c\\U5462\";\n        }\n    );\n    ia = 0;\n    id = 8933621;\n    \"ip_address_location\" = \"\";\n    like = 0;\n    \"like_count\" = 0;\n    \"reply_id\" = 0;\n    \"sticker_icon\" =     (\n    );\n    time = \"2022-04-18 09:07:48\";\n    u =     {\n        \"followers_count_text\" = \"\";\n        id = 22509521;\n        \"is_prime\" = 0;\n        lv = 0;\n        lvl = 2;\n        n = \"\\U6211\\U4e5f\\U900f\\U660e\\U7684\";\n        p = \"http:\/\/tx1.douguo.net\/upload\/photo\/4\/2\/f\/70_423e63a173c957cf0ca7f35ded95caef.jpg\";\n        \"progress_image\" = \"\";\n        \"recipes_count_text\" = \"\";\n        relationship = \"-1\";\n        title = \"\";\n        v = 0;\n        \"verified_image\" = \"\";\n    };\n}"
      ],
      "favo_counts_text" : "4.1万",
      "comments_count" : 6,
      "mid_mdsp" : [

      ]
    }
  },
  "state" : "success",
  "status" : 0
}