{
  "status" : 0,
  "state" : "success",
  "result" : {
    "recipe" : {
      "cook_time_image" : "",
      "ipia" : [

      ],
      "tags" : [

      ],
      "rcs" : [

      ],
      "su" : "",
      "story_dsp" : [

      ],
      "ph" : 533,
      "dishes" : [

      ],
      "rpid" : 0,
      "user" : {
        "subscription" : 0,
        "location" : 0,
        "following_count" : 0,
        "age" : "",
        "recipes_count" : 0,
        "point" : 0,
        "mobile" : "",
        "weibo_nick" : "",
        "progress_image" : "",
        "introduction" : "",
        "user_id" : "17402650",
        "userid" : "17402650",
        "avatar_medium" : "http:\/\/tx1.douguo.net\/upload\/photo\/8\/6\/e\/140_86ddb64b2378402285c92a311baaa23e.png",
        "user_cover" : "",
        "fc" : 0,
        "user_photo" : "http:\/\/tx1.douguo.net\/upload\/photo\/8\/6\/e\/70_86ddb64b2378402285c92a311baaa23e.png",
        "qq_weibo_nick" : "",
        "favorites_count" : 0,
        "sign" : "",
        "followers_count" : 0,
        "nick" : "饭饭手记",
        "lvl" : 6,
        "verified_url" : "https:\/\/m.douguo.com\/user\/prodesc",
        "dishes_count" : 0,
        "coursecount" : 0,
        "favor_diaries_count" : 0,
        "is_prime" : 0,
        "setted_email" : 0,
        "user_large_photo" : "http:\/\/tx1.douguo.net\/upload\/photo\/8\/6\/e\/yuan_86ddb64b2378402285c92a311baaa23e.png",
        "gender" : 2,
        "pc" : 0,
        "email" : "",
        "subscription_article_count" : 0,
        "birthday" : "",
        "verified" : 1,
        "verified_image" : "https:\/\/i1.douguo.com\/upload\/note\/d\/a\/a\/da84247847aebe48d9dd0fcdac88862a.png",
        "diaries_count" : 0,
        "regist_time" : "",
        "qzone_nick" : "",
        "lv" : 0
      },
      "mid_mdsp" : [

      ],
      "rpst" : "",
      "rsm" : "该功能暂停使用",
      "dish_count_text" : "7",
      "cookstory" : "",
      "rpt" : "",
      "display_ingredient" : 1,
      "author" : "饭饭手记",
      "ipurl" : "",
      "rdsps" : [

      ],
      "tips" : "1、肉粽子菜谱可以制作90g标准四角粽子粽子10个，请按需增减食材用量。\n2、蜜枣粽子菜谱可以制作90g长条四角粽子12个。\n3、特别建议高压锅煮粽子，水不会怎么蒸发，而且不需要提前泡米，营养得到了保留，最重要的是口感Q弹，这点真的很重要哈。\n4、以水为例，5g=5ml=1茶匙=1小勺。",
      "rips" : 0,
      "v_u" : "",
      "packages_id" : [

      ],
      "recommendation_tag" : "",
      "cook_difficulty_image" : "",
      "hq" : 1,
      "ss" : [

      ],
      "comments_count_text" : "29",
      "favo_counts" : 8829,
      "minor" : [

      ],
      "clicks" : "2019970",
      "cook_id" : "1557428",
      "rate_count" : 6,
      "vc" : "2048709",
      "title_ad" : [

      ],
      "collect_status" : 0,
      "recipe_tags" : [

      ],
      "share_info" : {
        "s_d" : "猪排咸蛋黄粽子和蜜枣碱水粽-会做饭很酷!",
        "mini_program" : [

        ],
        "name" : "猪排咸蛋黄粽子和蜜枣碱水粽-会做饭很酷!",
        "s_u" : "http:\/\/m.douguo.com\/cookbook\/1557428.html",
        "qr_image" : "",
        "image" : "https:\/\/cp1.douguo.com\/upload\/caiku\/f\/5\/2\/f58d8e62eb674fd0cfbac4260feb0782.jpg",
        "object_id" : "1557428",
        "infos" : [
          {
            "name" : "猪排咸蛋黄粽子和蜜枣碱水粽-会做饭很酷!",
            "mini_program" : [

            ],
            "channel" : "1",
            "s_d" : "#学做饭用豆果美食# 我在@豆果美食 分享了【猪排咸蛋黄粽子和蜜枣碱水粽-会做饭很酷!】，哟，集美们～你看这是神仙美味～快跟着我做一份，做一份！查看图片了解菜谱（更多美食秘籍点击https:\/\/m.weibo.cn\/p\/100404i33631获取）#会做饭很酷# ",
            "s_u" : "",
            "image" : "https:\/\/cp1.douguo.com\/upload\/caiku\/f\/5\/2\/f58d8e62eb674fd0cfbac4260feb0782.jpg",
            "object_id" : "1557428",
            "qr_image" : ""
          },
          {
            "s_d" : "猪排咸蛋黄粽子和蜜枣碱水粽-会做饭很酷!",
            "mini_program" : [

            ],
            "qr_image" : "",
            "name" : "猪排咸蛋黄粽子和蜜枣碱水粽-会做饭很酷!",
            "object_id" : "1557428",
            "s_u" : "http:\/\/m.douguo.com\/cookbook\/1557428.html",
            "channel" : "7",
            "image" : "https:\/\/cp1.douguo.com\/upload\/caiku\/f\/5\/2\/f58d8e62eb674fd0cfbac4260feb0782.jpg"
          },
          {
            "s_u" : "http:\/\/m.douguo.com\/cookbook\/1557428.html",
            "name" : "猪排咸蛋黄粽子和蜜枣碱水粽-会做饭很酷!",
            "qr_image" : "",
            "channel" : "8",
            "image" : "https:\/\/cp1.douguo.com\/upload\/caiku\/f\/5\/2\/f58d8e62eb674fd0cfbac4260feb0782.jpg",
            "s_d" : "猪排咸蛋黄粽子和蜜枣碱水粽-会做饭很酷!",
            "mini_program" : [

            ],
            "object_id" : "1557428"
          }
        ]
      },
      "favo_counts_text" : "8829",
      "old_comments" : [

      ],
      "dish_count" : 7,
      "create_time" : "2017-05-28 18:45:29",
      "original_photo_path" : "http:\/\/i1.douguo.net\/upload\/caiku\/f\/5\/2\/yuan_f58d8e62eb674fd0cfbac4260feb0782.jpg",
      "btm_dsp" : [

      ],
      "recent_comments" : [

      ],
      "major" : [
        {
          "note" : "400g",
          "title" : "猪排\/猪软骨"
        },
        {
          "title" : "圆糯米",
          "note" : "500g"
        },
        {
          "note" : "10个",
          "title" : "咸蛋黄"
        },
        {
          "note" : "20片",
          "title" : "粽叶"
        },
        {
          "title" : "#猪排调味料：",
          "note" : ""
        },
        {
          "tu" : "https:\/\/m.douguo.com\/ingredients\/生抽\/detailmaterial",
          "note" : "10g",
          "title" : "生抽"
        },
        {
          "tu" : "https:\/\/m.douguo.com\/ingredients\/老抽\/detailmaterial",
          "title" : "老抽",
          "note" : "10g"
        },
        {
          "title" : "糖",
          "note" : "5g",
          "tu" : "https:\/\/m.douguo.com\/ingredients\/糖\/detailmaterial"
        },
        {
          "title" : "油",
          "note" : "5g",
          "tu" : "https:\/\/m.douguo.com\/ingredients\/油\/detailmaterial"
        },
        {
          "note" : "2g",
          "tu" : "https:\/\/m.douguo.com\/ingredients\/盐\/detailmaterial",
          "title" : "盐"
        },
        {
          "note" : "10g",
          "tu" : "https:\/\/m.douguo.com\/ingredients\/姜\/detailmaterial",
          "title" : "姜"
        },
        {
          "note" : "",
          "title" : "#糯米调味料："
        },
        {
          "title" : "老抽",
          "tu" : "https:\/\/m.douguo.com\/ingredients\/老抽\/detailmaterial",
          "note" : "10g"
        },
        {
          "note" : "10g",
          "tu" : "https:\/\/m.douguo.com\/ingredients\/生抽\/detailmaterial",
          "title" : "生抽"
        },
        {
          "title" : "盐",
          "note" : "1g",
          "tu" : "https:\/\/m.douguo.com\/ingredients\/盐\/detailmaterial"
        },
        {
          "note" : "5g",
          "tu" : "https:\/\/m.douguo.com\/ingredients\/油\/detailmaterial",
          "title" : "油"
        },
        {
          "note" : "",
          "title" : "#咸蛋黄调味料："
        },
        {
          "title" : "白酒",
          "note" : "5g"
        },
        {
          "title" : "【蜜枣碱水粽食材】",
          "note" : ""
        },
        {
          "note" : "500g",
          "title" : "圆糯米"
        },
        {
          "title" : "食用碱",
          "note" : "1g"
        },
        {
          "title" : "干桂花",
          "note" : "2g"
        },
        {
          "note" : "24粒",
          "tu" : "https:\/\/m.douguo.com\/ingredients\/蜜枣\/detailmaterial",
          "title" : "蜜枣"
        },
        {
          "note" : "24片",
          "title" : "粽叶"
        }
      ],
      "comments_count" : 29,
      "levelid" : 2,
      "cookstep" : [
        {
          "image_width" : 800,
          "position" : 1,
          "image" : "https:\/\/i1.douguo.com\/upload\/caiku\/6\/f\/f\/6f025017919e9e7164743290c19cd02f.jpeg",
          "thumb" : "https:\/\/i1.douguo.com\/upload\/caiku\/6\/f\/f\/140_6f025017919e9e7164743290c19cd02f.jpeg",
          "image_height" : 533,
          "frame" : "-1",
          "content" : "【猪排咸蛋黄粽子】\n准备好全部食材。"
        },
        {
          "position" : 2,
          "content" : "猪排\/猪软骨加入生抽、老抽、糖、料酒、油、盐、姜片。",
          "image_height" : 533,
          "frame" : "-1",
          "image_width" : 800,
          "thumb" : "https:\/\/i1.douguo.com\/upload\/caiku\/7\/6\/a\/140_76e40d296e1343b56cf20cef4ca1b91a.jpeg",
          "image" : "https:\/\/i1.douguo.com\/upload\/caiku\/7\/6\/a\/76e40d296e1343b56cf20cef4ca1b91a.jpeg"
        },
        {
          "image_width" : 800,
          "frame" : "-1",
          "thumb" : "https:\/\/i1.douguo.com\/upload\/caiku\/8\/d\/8\/140_8d4cf54a738f5e386b9d66b821bd44f8.jpeg",
          "image_height" : 533,
          "image" : "https:\/\/i1.douguo.com\/upload\/caiku\/8\/d\/8\/8d4cf54a738f5e386b9d66b821bd44f8.jpeg",
          "position" : 3,
          "content" : "冷藏腌制4-12小时。"
        },
        {
          "frame" : "-1",
          "image_width" : 800,
          "content" : "圆糯米淘洗一次，加入老抽、生抽、盐，拌匀。",
          "image" : "https:\/\/i1.douguo.com\/upload\/caiku\/4\/8\/4\/4892b255a518d3cd6a170e8381388564.jpeg",
          "image_height" : 533,
          "thumb" : "https:\/\/i1.douguo.com\/upload\/caiku\/4\/8\/4\/140_4892b255a518d3cd6a170e8381388564.jpeg",
          "position" : 4
        },
        {
          "frame" : "-1",
          "image_height" : 533,
          "thumb" : "https:\/\/i1.douguo.com\/upload\/caiku\/7\/9\/b\/140_79fa75f0c744ae60f3d8ab08ba67070b.jpeg",
          "image" : "https:\/\/i1.douguo.com\/upload\/caiku\/7\/9\/b\/79fa75f0c744ae60f3d8ab08ba67070b.jpeg",
          "image_width" : 800,
          "position" : 5,
          "content" : "加入食用油。（如果你使用猪五花肉可省略该步骤）。"
        },
        {
          "thumb" : "https:\/\/i1.douguo.com\/upload\/caiku\/d\/4\/e\/140_d46aaeda7eded731e09873d37e01f4fe.jpeg",
          "content" : "咸蛋黄在白酒里滚一遍去腥。",
          "position" : 6,
          "image_height" : 533,
          "image" : "https:\/\/i1.douguo.com\/upload\/caiku\/d\/4\/e\/d46aaeda7eded731e09873d37e01f4fe.jpeg",
          "image_width" : 800,
          "frame" : "-1"
        },
        {
          "content" : "粽叶去头，卷个斗状，放入一勺糯米压实，放入两块排骨和一颗咸蛋黄，封口绑好。（不会包可以参考我去年的粽子菜谱，也可以度娘）",
          "position" : 7,
          "thumb" : "https:\/\/i1.douguo.com\/upload\/caiku\/a\/f\/9\/140_afe4d77beb73ddc96e669aa156fa27c9.jpeg",
          "frame" : "-1",
          "image_width" : 800,
          "image_height" : 533,
          "image" : "https:\/\/i1.douguo.com\/upload\/caiku\/a\/f\/9\/afe4d77beb73ddc96e669aa156fa27c9.jpeg"
        },
        {
          "image_height" : 1279,
          "thumb" : "https:\/\/i1.douguo.com\/upload\/caiku\/2\/a\/1\/140_2ac200fe7f9d9f67b4e9dc3c48734ef1.jpeg",
          "frame" : "-1",
          "image_width" : 1920,
          "content" : "包好的粽子放入冷水中泡着，以免粽叶变干。\n最后全部放入高压锅，加水末过粽子，煮40分钟，焖20分钟取出。",
          "position" : 8,
          "image" : "https:\/\/i1.douguo.com\/upload\/caiku\/2\/a\/1\/2ac200fe7f9d9f67b4e9dc3c48734ef1.jpeg"
        },
        {
          "thumb" : "https:\/\/i1.douguo.com\/upload\/caiku\/2\/b\/c\/140_2b081dcb323b51f015610c922cc7550c.jpeg",
          "content" : "很诱人、很好吃、很犯罪......哈哈哈",
          "frame" : "-1",
          "image_height" : 1279,
          "image_width" : 1920,
          "position" : 9,
          "image" : "https:\/\/i1.douguo.com\/upload\/caiku\/2\/b\/c\/2b081dcb323b51f015610c922cc7550c.jpeg"
        },
        {
          "image" : "https:\/\/i1.douguo.com\/upload\/caiku\/e\/2\/0\/e20046a41e09f31b0180c7bf37d215c0.jpeg",
          "image_width" : 1920,
          "frame" : "-1",
          "position" : 10,
          "thumb" : "https:\/\/i1.douguo.com\/upload\/caiku\/e\/2\/0\/140_e20046a41e09f31b0180c7bf37d215c0.jpeg",
          "content" : "【碱水蜜枣粽】\n准备好全部食材，没有干桂花可以省去。",
          "image_height" : 1280
        },
        {
          "content" : "圆糯米加入油、食用碱、干桂花。",
          "thumb" : "https:\/\/i1.douguo.com\/upload\/caiku\/2\/2\/c\/140_22eb8dbb1511d46f649d47b57272893c.jpeg",
          "image_width" : 1920,
          "position" : 11,
          "frame" : "-1",
          "image" : "https:\/\/i1.douguo.com\/upload\/caiku\/2\/2\/c\/22eb8dbb1511d46f649d47b57272893c.jpeg",
          "image_height" : 1280
        },
        {
          "content" : "搅拌均匀，静置半小时。",
          "thumb" : "https:\/\/i1.douguo.com\/upload\/caiku\/0\/1\/2\/140_018328e35a80a5347c695ef7a944c2b2.jpeg",
          "image" : "https:\/\/i1.douguo.com\/upload\/caiku\/0\/1\/2\/018328e35a80a5347c695ef7a944c2b2.jpeg",
          "image_width" : 800,
          "position" : 12,
          "frame" : "-1",
          "image_height" : 533
        },
        {
          "image_width" : 800,
          "image_height" : 533,
          "thumb" : "https:\/\/i1.douguo.com\/upload\/caiku\/b\/1\/f\/140_b1814db4e28f242b7d9eb437a41e6f7f.jpeg",
          "frame" : "-1",
          "image" : "https:\/\/i1.douguo.com\/upload\/caiku\/b\/1\/f\/b1814db4e28f242b7d9eb437a41e6f7f.jpeg",
          "position" : 13,
          "content" : "开包！"
        },
        {
          "position" : 14,
          "image_width" : 800,
          "thumb" : "https:\/\/i1.douguo.com\/upload\/caiku\/3\/d\/a\/140_3d9db8d1ad3e01252b5a575d58f2f9aa.jpeg",
          "frame" : "-1",
          "image" : "https:\/\/i1.douguo.com\/upload\/caiku\/3\/d\/a\/3d9db8d1ad3e01252b5a575d58f2f9aa.jpeg",
          "content" : "粽叶去头，卷个斗状，放入一勺糯米压实，放入两颗蜜枣，封口绑好。（不会包可以参考我去年的粽子菜谱，也可以度娘）",
          "image_height" : 533
        },
        {
          "thumb" : "https:\/\/i1.douguo.com\/upload\/caiku\/9\/5\/5\/140_9511d1f4e4e7bbc76335a76a3a3948a5.jpeg",
          "image" : "https:\/\/i1.douguo.com\/upload\/caiku\/9\/5\/5\/9511d1f4e4e7bbc76335a76a3a3948a5.jpeg",
          "image_width" : 800,
          "frame" : "-1",
          "position" : 15,
          "image_height" : 533,
          "content" : "第二锅包了长条状的四角粽。为了跟肉粽做区别哈！"
        },
        {
          "image_height" : 534,
          "content" : "煮好的碱水粽圆滚滚！心情甚好哈！",
          "image" : "https:\/\/i1.douguo.com\/upload\/caiku\/1\/b\/5\/1b43fe6e7949e50816a84a444cc08955.jpeg",
          "thumb" : "https:\/\/i1.douguo.com\/upload\/caiku\/1\/b\/5\/140_1b43fe6e7949e50816a84a444cc08955.jpeg",
          "frame" : "-1",
          "position" : 16,
          "image_width" : 800
        }
      ],
      "pw" : 799,
      "notes" : [

      ],
      "related_ads" : [

      ],
      "bs" : [

      ],
      "rate_show" : 0,
      "title" : "猪排咸蛋黄粽子和蜜枣碱水粽",
      "views_count_text" : "204.9万",
      "release_time" : "",
      "top_mdsp" : [

      ],
      "vfurl" : "",
      "cook_time" : "",
      "rate" : 5,
      "cook_difficulty" : "",
      "author_id" : 17402650,
      "cookwares" : [

      ],
      "ipt" : "",
      "author_verified" : 1,
      "brand_day_dsp" : [

      ],
      "first_level_comment_count" : 22,
      "sc" : 0,
      "recommend_label" : "7人学做",
      "vu" : "",
      "rrps" : [

      ],
      "ipit" : 0,
      "ipci" : "",
      "cookstorys" : [

      ],
      "ipoi" : "",
      "thumb_height" : 0,
      "image" : "http:\/\/i1.douguo.net\/upload\/caiku\/f\/5\/2\/300_f58d8e62eb674fd0cfbac4260feb0782.jpg",
      "rewarded_video_dsp" : [

      ],
      "guide_image" : "",
      "rrpt" : "",
      "act_des" : "",
      "ecs" : 0,
      "purl" : "",
      "recommended" : 0,
      "ssu" : "",
      "comments" : [
        "{\n    ac = \"#999999\";\n    at = \"\";\n    ccc = 3;\n    \"child_comments\" =     (\n                {\n            ac = \"#999999\";\n            at = \"\";\n            ccc = 0;\n            city = \"\";\n            cmc = 2;\n            content =             (\n                                {\n                    c = \" \\U662f\\U554a\";\n                }\n            );\n            ia = 1;\n            id = 4789593;\n            \"ip_address_location\" = \"\";\n            like = 0;\n            \"like_count\" = 0;\n            \"reply_id\" = 4789111;\n            \"reply_user\" =             {\n                \"followers_count_text\" = \"\";\n                id = 18725626;\n                \"is_prime\" = 0;\n                lv = 0;\n                lvl = 1;\n                n = yy45828;\n                p = \"\";\n                \"progress_image\" = \"\";\n                \"recipes_count_text\" = \"\";\n                relationship = \"-1\";\n                title = \"\";\n                v = 0;\n                \"verified_image\" = \"\";\n            };\n            \"sticker_icon\" =             (\n            );\n            time = \"2017-05-31 12:49:16\";\n            u =             {\n                \"followers_count_text\" = \"\";\n                id = 17402650;\n                \"is_prime\" = 0;\n                lv = 0;\n                lvl = 6;\n                n = \"\\U996d\\U996d\\U624b\\U8bb0\";\n                p = \"http:\/\/tx1.douguo.net\/upload\/photo\/8\/6\/e\/70_86ddb64b2378402285c92a311baaa23e.png\";\n                \"progress_image\" = \"\";\n                \"recipes_count_text\" = \"\";\n                relationship = \"-1\";\n                title = \"\";\n                v = 1;\n                \"verified_image\" = \"\";\n            };\n        },\n                {\n            ac = \"#999999\";\n            at = \"\";\n            ccc = 0;\n            city = \"\";\n            cmc = 2;\n            content =             (\n                                {\n                    c = \" \\U8c22\\U8c22\\U7f8e\\U5973\";\n                }\n            );\n            ia = 0;\n            id = 4789726;\n            \"ip_address_location\" = \"\";\n            like = 0;\n            \"like_count\" = 0;\n            \"reply_id\" = 4789593;\n            \"reply_user\" =             {\n                \"followers_count_text\" = \"\";\n                id = 17402650;\n                \"is_prime\" = 0;\n                lv = 0;\n                lvl = 6;\n                n = \"\\U996d\\U996d\\U624b\\U8bb0\";\n                p = \"http:\/\/tx1.douguo.net\/upload\/photo\/8\/6\/e\/70_86ddb64b2378402285c92a311baaa23e.png\";\n                \"progress_image\" = \"\";\n                \"recipes_count_text\" = \"\";\n                relationship = \"-1\";\n                title = \"\";\n                v = 1;\n                \"verified_image\" = \"\";\n            };\n            \"sticker_icon\" =             (\n            );\n            time = \"2017-05-31 13:27:41\";\n            u =             {\n                \"followers_count_text\" = \"\";\n                id = 18725626;\n                \"is_prime\" = 0;\n                lv = 0;\n                lvl = 1;\n                n = yy45828;\n                p = \"\";\n                \"progress_image\" = \"\";\n                \"recipes_count_text\" = \"\";\n                relationship = \"-1\";\n                title = \"\";\n                v = 0;\n                \"verified_image\" = \"\";\n            };\n        }\n    );\n    city = \"\";\n    cmc = 2;\n    content =     (\n                {\n            c = \"\\U98df\\U7528\\U78b1\\U662f\\U4e0d\\U662f\\U5c0f\\U82cf\\U6253\\Uff1f\";\n        }\n    );\n    ia = 0;\n    id = 4789111;\n    \"ip_address_location\" = \"\";\n    like = 0;\n    \"like_count\" = 0;\n    \"reply_id\" = 0;\n    \"sticker_icon\" =     (\n    );\n    time = \"2017-05-31 09:37:24\";\n    u =     {\n        \"followers_count_text\" = \"\";\n        id = 18725626;\n        \"is_prime\" = 0;\n        lv = 0;\n        lvl = 1;\n        n = yy45828;\n        p = \"\";\n        \"progress_image\" = \"\";\n        \"recipes_count_text\" = \"\";\n        relationship = \"-1\";\n        title = \"\";\n        v = 0;\n        \"verified_image\" = \"\";\n    };\n}",
        "{\n    ac = \"#999999\";\n    at = \"\";\n    ccc = 2;\n    \"child_comments\" =     (\n                {\n            ac = \"#999999\";\n            at = \"\";\n            ccc = 0;\n            city = \"\";\n            cmc = 2;\n            content =             (\n                                {\n                    c = \" \\U90a3\\U52a0\\U6211WX\\U5427\\Uff0c\\U5728\\U8c46\\U679c\\U7b7e\\U540d\\U4e0a\\U6709\\Uff0c\\U6211\\U6765\\U53d1\\U4f60\\U597d\\U4e86\";\n                }\n            );\n            ia = 1;\n            id = 4789594;\n            \"ip_address_location\" = \"\";\n            like = 0;\n            \"like_count\" = 0;\n            \"reply_id\" = 4789107;\n            \"reply_user\" =             {\n                \"followers_count_text\" = \"\";\n                id = 18725626;\n                \"is_prime\" = 0;\n                lv = 0;\n                lvl = 1;\n                n = yy45828;\n                p = \"\";\n                \"progress_image\" = \"\";\n                \"recipes_count_text\" = \"\";\n                relationship = \"-1\";\n                title = \"\";\n                v = 0;\n                \"verified_image\" = \"\";\n            };\n            \"sticker_icon\" =             (\n            );\n            time = \"2017-05-31 12:49:37\";\n            u =             {\n                \"followers_count_text\" = \"\";\n                id = 17402650;\n                \"is_prime\" = 0;\n                lv = 0;\n                lvl = 6;\n                n = \"\\U996d\\U996d\\U624b\\U8bb0\";\n                p = \"http:\/\/tx1.douguo.net\/upload\/photo\/8\/6\/e\/70_86ddb64b2378402285c92a311baaa23e.png\";\n                \"progress_image\" = \"\";\n                \"recipes_count_text\" = \"\";\n                relationship = \"-1\";\n                title = \"\";\n                v = 1;\n                \"verified_image\" = \"\";\n            };\n        },\n                {\n            ac = \"#999999\";\n            at = \"\";\n            ccc = 0;\n            city = \"\";\n            cmc = 2;\n            content =             (\n                                {\n                    c = \" \\U597d\\U7684\";\n                }\n            );\n            ia = 0;\n            id = 4789727;\n            \"ip_address_location\" = \"\";\n            like = 0;\n            \"like_count\" = 0;\n            \"reply_id\" = 4789594;\n            \"reply_user\" =             {\n                \"followers_count_text\" = \"\";\n                id = 17402650;\n                \"is_prime\" = 0;\n                lv = 0;\n                lvl = 6;\n                n = \"\\U996d\\U996d\\U624b\\U8bb0\";\n                p = \"http:\/\/tx1.douguo.net\/upload\/photo\/8\/6\/e\/70_86ddb64b2378402285c92a311baaa23e.png\";\n                \"progress_image\" = \"\";\n                \"recipes_count_text\" = \"\";\n                relationship = \"-1\";\n                title = \"\";\n                v = 1;\n                \"verified_image\" = \"\";\n            };\n            \"sticker_icon\" =             (\n            );\n            time = \"2017-05-31 13:27:55\";\n            u =             {\n                \"followers_count_text\" = \"\";\n                id = 18725626;\n                \"is_prime\" = 0;\n                lv = 0;\n                lvl = 1;\n                n = yy45828;\n                p = \"\";\n                \"progress_image\" = \"\";\n                \"recipes_count_text\" = \"\";\n                relationship = \"-1\";\n                title = \"\";\n                v = 0;\n                \"verified_image\" = \"\";\n            };\n        }\n    );\n    city = \"\";\n    cmc = 2;\n    content =     (\n                {\n            c = \"\\U8001\\U5e08\\Uff0c\\U4e0a\\U8bfe\\U7684\\U6c34\\U6676\\U997c\\U83dc\\U8c31\\U6ca1\\U6709\\U554a\\Uff0c\\U4e0d\\U77e5\\U9053\\U91cf\";\n        }\n    );\n    ia = 0;\n    id = 4789107;\n    \"ip_address_location\" = \"\";\n    like = 0;\n    \"like_count\" = 1;\n    \"reply_id\" = 0;\n    \"sticker_icon\" =     (\n    );\n    time = \"2017-05-31 09:35:34\";\n    u =     {\n        \"followers_count_text\" = \"\";\n        id = 18725626;\n        \"is_prime\" = 0;\n        lv = 0;\n        lvl = 1;\n        n = yy45828;\n        p = \"\";\n        \"progress_image\" = \"\";\n        \"recipes_count_text\" = \"\";\n        relationship = \"-1\";\n        title = \"\";\n        v = 0;\n        \"verified_image\" = \"\";\n    };\n}",
        "{\n    ac = \"#999999\";\n    at = \"\";\n    ccc = 1;\n    \"child_comments\" =     (\n                {\n            ac = \"#999999\";\n            at = \"\";\n            ccc = 0;\n            city = \"\";\n            cmc = 2;\n            content =             (\n                                {\n                    c = \" \\U5f53\\U7136\\U662f\\U67d0\\U5b9d\\U5566\\Uff0c\\U54c8\\U54c8\\U54c8\\U54c8\";\n                }\n            );\n            ia = 1;\n            id = 4792104;\n            \"ip_address_location\" = \"\";\n            like = 0;\n            \"like_count\" = 0;\n            \"reply_id\" = 4791762;\n            \"reply_user\" =             {\n                \"followers_count_text\" = \"\";\n                id = 16541285;\n                \"is_prime\" = 0;\n                lv = 0;\n                lvl = 5;\n                n = ZQ668;\n                p = \"http:\/\/tx1.douguo.net\/upload\/photo\/b\/f\/3\/70_u5517895062909185531.jpeg\";\n                \"progress_image\" = \"\";\n                \"recipes_count_text\" = \"\";\n                relationship = \"-1\";\n                title = \"\";\n                v = 0;\n                \"verified_image\" = \"\";\n            };\n            \"sticker_icon\" =             (\n            );\n            time = \"2017-06-01 13:25:35\";\n            u =             {\n                \"followers_count_text\" = \"\";\n                id = 17402650;\n                \"is_prime\" = 0;\n                lv = 0;\n                lvl = 6;\n                n = \"\\U996d\\U996d\\U624b\\U8bb0\";\n                p = \"http:\/\/tx1.douguo.net\/upload\/photo\/8\/6\/e\/70_86ddb64b2378402285c92a311baaa23e.png\";\n                \"progress_image\" = \"\";\n                \"recipes_count_text\" = \"\";\n                relationship = \"-1\";\n                title = \"\";\n                v = 1;\n                \"verified_image\" = \"\";\n            };\n        }\n    );\n    city = \"\";\n    cmc = 2;\n    content =     (\n                {\n            c = \"\\U5728\\U5417\\U4eb2\\Uff1f\\U4f60\\U90a3\\U6f02\\U4eae\\U7684\\U7eff\\U8272\\U6761\\U6761\\U684c\\U5e03\\U5728\\U54ea\\U4e70\\U7684\\Uff1f\";\n        }\n    );\n    ia = 0;\n    id = 4791762;\n    \"ip_address_location\" = \"\";\n    like = 0;\n    \"like_count\" = 0;\n    \"reply_id\" = 0;\n    \"sticker_icon\" =     (\n    );\n    time = \"2017-06-01 10:59:10\";\n    u =     {\n        \"followers_count_text\" = \"\";\n        id = 16541285;\n        \"is_prime\" = 0;\n        lv = 0;\n        lvl = 5;\n        n = ZQ668;\n        p = \"http:\/\/tx1.douguo.net\/upload\/photo\/b\/f\/3\/70_u5517895062909185531.jpeg\";\n        \"progress_image\" = \"\";\n        \"recipes_count_text\" = \"\";\n        relationship = \"-1\";\n        title = \"\";\n        v = 0;\n        \"verified_image\" = \"\";\n    };\n}"
      ],
      "sr" : "",
      "thumb_path" : "https:\/\/i1.douguo.com\/upload\/caiku\/f\/5\/2\/300_f58d8e62eb674fd0cfbac4260feb0782.jpg",
      "advice" : {
        "da" : {
          "iu" : "https:\/\/i1.douguo.com\/upload\/banner\/f\/4\/d\/f48877e53c37759bc12ac494be82ec8d.png",
          "t" : "查看详细分析",
          "url" : "https:\/\/m.douguo.com\/recipe\/nutrient_self\/1557428"
        },
        "at" : "有助于维持皮肤和黏膜健康～",
        "has" : [
          {
            "url" : "recipes:\/\/www.douguo.com\/simplerecipelist?t=富含维生素A&id=富含维生素A",
            "t" : "富含维生素A"
          }
        ]
      },
      "hqu" : "recipes:\/\/www.douguo.com\/notedetail?id=21162253",
      "recipe_list_tags" : [
        {
          "text" : "关注的人",
          "background_border_color" : "",
          "text_color" : "#141515",
          "right_image" : "",
          "background_start_color" : "#F4F5F5",
          "jump_url" : "",
          "background_end_color" : "#F4F5F5"
        }
      ],
      "photo_path" : "https:\/\/i1.douguo.com\/upload\/caiku\/f\/5\/2\/600_f58d8e62eb674fd0cfbac4260feb0782.jpg",
      "author_photo" : "http:\/\/tx1.douguo.net\/upload\/photo\/8\/6\/e\/70_86ddb64b2378402285c92a311baaa23e.png",
      "eu" : "recipes:\/\/www.douguo.com\/postdetail?id=242016"
    }
  }
}