{
  "status" : 0,
  "result" : {
    "recipe" : {
      "vu" : "",
      "image" : "http:\/\/i1.douguo.net\/upload\/caiku\/4\/4\/6\/300_4426af9f42d5b16a895ea183eeb726e6.jpg",
      "vfurl" : "",
      "views_count_text" : "5.7万",
      "vc" : "57394",
      "purl" : "",
      "story_dsp" : [

      ],
      "minor" : [

      ],
      "eu" : "recipes:\/\/www.douguo.com\/postdetail?id=242016",
      "sr" : "",
      "su" : "",
      "share_info" : {
        "mini_program" : [

        ],
        "infos" : [
          {
            "s_d" : "#学做饭用豆果美食# 我在@豆果美食 分享了【鲶鱼烧茄子-会做饭很酷!】，哟，集美们～你看这是神仙美味～快跟着我做一份，做一份！查看图片了解菜谱（更多美食秘籍点击https:\/\/m.weibo.cn\/p\/100404i33631获取）#会做饭很酷# ",
            "name" : "鲶鱼烧茄子-会做饭很酷!",
            "image" : "https:\/\/cp1.douguo.com\/upload\/caiku\/4\/4\/6\/4426af9f42d5b16a895ea183eeb726e6.jpg",
            "s_u" : "",
            "object_id" : "1404935",
            "mini_program" : [

            ],
            "qr_image" : "",
            "channel" : "1"
          },
          {
            "object_id" : "1404935",
            "qr_image" : "",
            "mini_program" : [

            ],
            "s_d" : "鲶鱼烧茄子-会做饭很酷!",
            "channel" : "7",
            "s_u" : "http:\/\/m.douguo.com\/cookbook\/1404935.html",
            "name" : "鲶鱼烧茄子-会做饭很酷!",
            "image" : "https:\/\/cp1.douguo.com\/upload\/caiku\/4\/4\/6\/4426af9f42d5b16a895ea183eeb726e6.jpg"
          },
          {
            "image" : "https:\/\/cp1.douguo.com\/upload\/caiku\/4\/4\/6\/4426af9f42d5b16a895ea183eeb726e6.jpg",
            "mini_program" : [

            ],
            "qr_image" : "",
            "name" : "鲶鱼烧茄子-会做饭很酷!",
            "object_id" : "1404935",
            "s_d" : "鲶鱼烧茄子-会做饭很酷!",
            "channel" : "8",
            "s_u" : "http:\/\/m.douguo.com\/cookbook\/1404935.html"
          }
        ],
        "object_id" : "1404935",
        "name" : "鲶鱼烧茄子-会做饭很酷!",
        "qr_image" : "",
        "image" : "https:\/\/cp1.douguo.com\/upload\/caiku\/4\/4\/6\/4426af9f42d5b16a895ea183eeb726e6.jpg",
        "s_d" : "鲶鱼烧茄子-会做饭很酷!",
        "s_u" : "http:\/\/m.douguo.com\/cookbook\/1404935.html"
      },
      "cook_difficulty" : "",
      "original_photo_path" : "http:\/\/i1.douguo.net\/upload\/caiku\/4\/4\/6\/yuan_4426af9f42d5b16a895ea183eeb726e6.jpg",
      "clicks" : "49574",
      "author" : "清清苹果",
      "comments_count" : 7,
      "ipt" : "",
      "user" : {
        "dishes_count" : 0,
        "email" : "",
        "gender" : 2,
        "fc" : 0,
        "userid" : "16746378",
        "setted_email" : 0,
        "qq_weibo_nick" : "",
        "user_large_photo" : "http:\/\/tx1.douguo.net\/upload\/photo\/8\/7\/1\/yuan_u57003215872579222031.jpg",
        "age" : "",
        "is_prime" : 0,
        "user_cover" : "",
        "nick" : "清清苹果",
        "verified_image" : "",
        "diaries_count" : 0,
        "location" : 0,
        "subscription_article_count" : 0,
        "lvl" : 1,
        "weibo_nick" : "",
        "birthday" : "",
        "favorites_count" : 0,
        "qzone_nick" : "",
        "favor_diaries_count" : 0,
        "followers_count" : 0,
        "recipes_count" : 0,
        "coursecount" : 0,
        "progress_image" : "",
        "verified_url" : "https:\/\/m.douguo.com\/user\/prodesc",
        "mobile" : "",
        "point" : 0,
        "sign" : "",
        "verified" : 0,
        "introduction" : "",
        "lv" : 0,
        "subscription" : 0,
        "regist_time" : "",
        "avatar_medium" : "http:\/\/tx1.douguo.net\/upload\/photo\/8\/7\/1\/140_u57003215872579222031.jpg",
        "pc" : 0,
        "user_id" : "16746378",
        "user_photo" : "http:\/\/tx1.douguo.net\/upload\/photo\/8\/7\/1\/70_u57003215872579222031.jpg",
        "following_count" : 0
      },
      "favo_counts_text" : "127",
      "advice" : {
        "da" : {
          "url" : "https:\/\/m.douguo.com\/recipe\/nutrient_self\/1404935",
          "t" : "查看详细分析",
          "iu" : "https:\/\/i1.douguo.com\/upload\/banner\/f\/4\/d\/f48877e53c37759bc12ac494be82ec8d.png"
        },
        "at" : "能有效控制体重～",
        "has" : [
          {
            "t" : "低脂",
            "url" : "recipes:\/\/www.douguo.com\/simplerecipelist?t=低脂&id=低脂"
          },
          {
            "url" : "recipes:\/\/www.douguo.com\/simplerecipelist?t=不含饱和脂肪&id=不含饱和脂肪",
            "t" : "不含饱和脂肪"
          }
        ]
      },
      "rpst" : "",
      "cookstorys" : [

      ],
      "ph" : 1067,
      "recipe_list_tags" : [

      ],
      "photo_path" : "https:\/\/i1.douguo.com\/upload\/caiku\/4\/4\/6\/600_4426af9f42d5b16a895ea183eeb726e6.jpg",
      "brand_day_dsp" : [

      ],
      "old_comments" : [

      ],
      "cook_time_image" : "",
      "v_u" : "",
      "comments" : [
        "{\n    ac = \"#999999\";\n    at = \"\";\n    ccc = 3;\n    \"child_comments\" =     (\n                {\n            ac = \"#999999\";\n            at = \"\";\n            ccc = 0;\n            city = \"\";\n            cmc = 2;\n            content =             (\n                                {\n                    c = \" \\U6211\\U4ece8\\U5c81\\U5f00\\U59cb\\U9493\\U9c7c\\U5230\\U73b0\\U572840\\U591a\\U5c81\\U4f60\\U8bf4\\U6211\\U77e5\\U4e0d\\U77e5\\U9053\\U9cb6\\U9c7c\\U957f\\U4ec0\\U4e48\\U6837\\Uff1f\\U4f60\\U89c1\\U8fc7\\U91ce\\U751f\\U9cb6\\U9c7c\\U6ca1\\Uff1f\";\n                }\n            );\n            ia = 1;\n            id = 3915935;\n            \"ip_address_location\" = \"\";\n            like = 0;\n            \"like_count\" = 0;\n            \"reply_id\" = 3908003;\n            \"reply_user\" =             {\n                \"followers_count_text\" = \"\";\n                id = 4494118;\n                \"is_prime\" = 0;\n                lv = 0;\n                lvl = 1;\n                n = \"\\U9955\\U992e\\U7684\\U53a8\\U5e08\";\n                p = \"\";\n                \"progress_image\" = \"\";\n                \"recipes_count_text\" = \"\";\n                relationship = \"-1\";\n                title = \"\";\n                v = 0;\n                \"verified_image\" = \"\";\n            };\n            \"sticker_icon\" =             (\n            );\n            time = \"2016-08-02 12:31:46\";\n            u =             {\n                \"followers_count_text\" = \"\";\n                id = 16746378;\n                \"is_prime\" = 0;\n                lv = 0;\n                lvl = 1;\n                n = \"\\U6e05\\U6e05\\U82f9\\U679c\";\n                p = \"http:\/\/tx1.douguo.net\/upload\/photo\/8\/7\/1\/70_u57003215872579222031.jpg\";\n                \"progress_image\" = \"\";\n                \"recipes_count_text\" = \"\";\n                relationship = \"-1\";\n                title = \"\";\n                v = 0;\n                \"verified_image\" = \"\";\n            };\n        },\n                {\n            ac = \"#999999\";\n            at = \"\";\n            ccc = 0;\n            city = \"\";\n            cmc = 2;\n            content =             (\n                                {\n                    c = \" \\U6211\\U9760\\Uff01\\U90a3\\U4f60\\U628a\\U8fd9\\U9c7c\\U53eb\\U4e8632\\U5e74\\U7684\\U9cb6\\U9c7c\\U3002\\U3002\\U3002\";\n                }\n            );\n            ia = 0;\n            id = 4102969;\n            \"ip_address_location\" = \"\";\n            like = 0;\n            \"like_count\" = 0;\n            \"reply_id\" = 3915935;\n            \"reply_user\" =             {\n                \"followers_count_text\" = \"\";\n                id = 16746378;\n                \"is_prime\" = 0;\n                lv = 0;\n                lvl = 1;\n                n = \"\\U6e05\\U6e05\\U82f9\\U679c\";\n                p = \"http:\/\/tx1.douguo.net\/upload\/photo\/8\/7\/1\/70_u57003215872579222031.jpg\";\n                \"progress_image\" = \"\";\n                \"recipes_count_text\" = \"\";\n                relationship = \"-1\";\n                title = \"\";\n                v = 0;\n                \"verified_image\" = \"\";\n            };\n            \"sticker_icon\" =             (\n            );\n            time = \"2016-09-14 11:35:32\";\n            u =             {\n                \"followers_count_text\" = \"\";\n                id = 4494118;\n                \"is_prime\" = 0;\n                lv = 0;\n                lvl = 1;\n                n = \"\\U9955\\U992e\\U7684\\U53a8\\U5e08\";\n                p = \"\";\n                \"progress_image\" = \"\";\n                \"recipes_count_text\" = \"\";\n                relationship = \"-1\";\n                title = \"\";\n                v = 0;\n                \"verified_image\" = \"\";\n            };\n        }\n    );\n    city = \"\";\n    cmc = 2;\n    content =     (\n                {\n            c = \"\\U4f60\\U77e5\\U9053\\U9cb6\\U9c7c\\U957f\\U4ec0\\U4e48\\U6837\\U5417\\Uff1f\";\n        }\n    );\n    ia = 0;\n    id = 3908003;\n    \"ip_address_location\" = \"\";\n    like = 0;\n    \"like_count\" = 0;\n    \"reply_id\" = 0;\n    \"sticker_icon\" =     (\n    );\n    time = \"2016-08-01 10:28:37\";\n    u =     {\n        \"followers_count_text\" = \"\";\n        id = 4494118;\n        \"is_prime\" = 0;\n        lv = 0;\n        lvl = 1;\n        n = \"\\U9955\\U992e\\U7684\\U53a8\\U5e08\";\n        p = \"\";\n        \"progress_image\" = \"\";\n        \"recipes_count_text\" = \"\";\n        relationship = \"-1\";\n        title = \"\";\n        v = 0;\n        \"verified_image\" = \"\";\n    };\n}",
        "{\n    ac = \"#999999\";\n    at = \"\";\n    ccc = 1;\n    \"child_comments\" =     (\n                {\n            ac = \"#999999\";\n            at = \"\";\n            ccc = 0;\n            city = \"\";\n            cmc = 2;\n            content =             (\n                                {\n                    c = \" \\U8c22\\U8c22\\U4f60\\U80fd\\U559c\\U6b22\\Uff01\";\n                }\n            );\n            ia = 1;\n            id = 3801435;\n            \"ip_address_location\" = \"\";\n            like = 0;\n            \"like_count\" = 0;\n            \"reply_id\" = 3778147;\n            \"reply_user\" =             {\n                \"followers_count_text\" = \"\";\n                id = 17150353;\n                \"is_prime\" = 0;\n                lv = 0;\n                lvl = 6;\n                n = \"\\U5948\\U826f\\U5c0f\\U9e7f\";\n                p = \"http:\/\/tx1.douguo.net\/upload\/photo\/6\/a\/3\/70_u60616052496175103819.jpeg\";\n                \"progress_image\" = \"\";\n                \"recipes_count_text\" = \"\";\n                relationship = \"-1\";\n                title = \"\";\n                v = 1;\n                \"verified_image\" = \"\";\n            };\n            \"sticker_icon\" =             (\n            );\n            time = \"2016-07-11 04:45:16\";\n            u =             {\n                \"followers_count_text\" = \"\";\n                id = 16746378;\n                \"is_prime\" = 0;\n                lv = 0;\n                lvl = 1;\n                n = \"\\U6e05\\U6e05\\U82f9\\U679c\";\n                p = \"http:\/\/tx1.douguo.net\/upload\/photo\/8\/7\/1\/70_u57003215872579222031.jpg\";\n                \"progress_image\" = \"\";\n                \"recipes_count_text\" = \"\";\n                relationship = \"-1\";\n                title = \"\";\n                v = 0;\n                \"verified_image\" = \"\";\n            };\n        }\n    );\n    city = \"\";\n    cmc = 2;\n    content =     (\n                {\n            c = \"\\U8fd8\\U4e0d\\U9519~~ \";\n        }\n    );\n    ia = 0;\n    id = 3778147;\n    \"ip_address_location\" = \"\";\n    like = 0;\n    \"like_count\" = 0;\n    \"reply_id\" = 0;\n    \"sticker_icon\" =     (\n    );\n    time = \"2016-07-04 04:59:43\";\n    u =     {\n        \"followers_count_text\" = \"\";\n        id = 17150353;\n        \"is_prime\" = 0;\n        lv = 0;\n        lvl = 6;\n        n = \"\\U5948\\U826f\\U5c0f\\U9e7f\";\n        p = \"http:\/\/tx1.douguo.net\/upload\/photo\/6\/a\/3\/70_u60616052496175103819.jpeg\";\n        \"progress_image\" = \"\";\n        \"recipes_count_text\" = \"\";\n        relationship = \"-1\";\n        title = \"\";\n        v = 1;\n        \"verified_image\" = \"\";\n    };\n}",
        "{\n    ac = \"#999999\";\n    at = \"\";\n    ccc = 0;\n    \"child_comments\" =     (\n    );\n    city = \"\";\n    cmc = 2;\n    content =     (\n                {\n            c = \"\\U9c7c\\U4e0b\\U9505\\U7092\\U51e0\\U4e0b\\U80fd\\U719f\\U5417\\Uff1f\\U81f3\\U5c11\\U5f97\\U7096\\U4e00\\U4f1a\\U5427\";\n        }\n    );\n    ia = 0;\n    id = 4420549;\n    \"ip_address_location\" = \"\";\n    like = 0;\n    \"like_count\" = 0;\n    \"reply_id\" = 0;\n    \"sticker_icon\" =     (\n    );\n    time = \"2017-01-14 10:30:54\";\n    u =     {\n        \"followers_count_text\" = \"\";\n        id = 19346702;\n        \"is_prime\" = 0;\n        lv = 0;\n        lvl = 1;\n        n = \"ht\\U4e8c\\U5c0f\\U59d0\";\n        p = \"\";\n        \"progress_image\" = \"\";\n        \"recipes_count_text\" = \"\";\n        relationship = \"-1\";\n        title = \"\";\n        v = 0;\n        \"verified_image\" = \"\";\n    };\n}"
      ],
      "tags" : [

      ],
      "display_ingredient" : 1,
      "btm_dsp" : [

      ],
      "ssu" : "",
      "dish_count_text" : "",
      "cook_difficulty_image" : "",
      "rate_count" : 0,
      "rips" : 0,
      "recommended" : 0,
      "comments_count_text" : "7",
      "rrpt" : "",
      "pw" : 800,
      "ipurl" : "",
      "notes" : [

      ],
      "rate_show" : 0,
      "guide_image" : "",
      "levelid" : 3,
      "cook_time" : "",
      "thumb_path" : "https:\/\/i1.douguo.com\/upload\/caiku\/4\/4\/6\/300_4426af9f42d5b16a895ea183eeb726e6.jpg",
      "rate" : 0,
      "release_time" : "",
      "ecs" : 0,
      "hqu" : "recipes:\/\/www.douguo.com\/notedetail?id=21162253",
      "rdsps" : [

      ],
      "title" : "鲶鱼烧茄子",
      "hq" : 0,
      "create_time" : "2016-07-04 12:39:55",
      "ipci" : "",
      "thumb_height" : 0,
      "tips" : "",
      "rewarded_video_dsp" : [

      ],
      "cook_id" : "1404935",
      "ipoi" : "",
      "bs" : [

      ],
      "recommendation_tag" : "",
      "act_des" : "",
      "dishes" : [

      ],
      "rrps" : [

      ],
      "packages_id" : [

      ],
      "recent_comments" : [

      ],
      "collect_status" : 0,
      "author_photo" : "http:\/\/tx1.douguo.net\/upload\/photo\/8\/7\/1\/70_u57003215872579222031.jpg",
      "author_id" : 16746378,
      "recommend_label" : "5.7万人看过",
      "favo_counts" : 127,
      "rsm" : "该功能暂停使用",
      "related_ads" : [

      ],
      "cookstory" : "",
      "ipit" : 0,
      "cookstep" : [
        {
          "position" : 1,
          "content" : "1茄子切块稍微沾水用面粉和1汤勺淀粉裹面，锅里放适量油煎。",
          "image_height" : 1067,
          "frame" : "-1",
          "image_width" : 800,
          "thumb" : "https:\/\/i1.douguo.com\/upload\/caiku\/d\/5\/f\/140_d5b47f7442aa434b18f489ffc16ec46f.jpg",
          "image" : "https:\/\/i1.douguo.com\/upload\/caiku\/d\/5\/f\/d5b47f7442aa434b18f489ffc16ec46f.jpg"
        },
        {
          "position" : 2,
          "image_width" : 800,
          "thumb" : "https:\/\/i1.douguo.com\/upload\/caiku\/9\/0\/9\/140_901efcdbfc8d9b34d8687ea0ed581099.jpg",
          "content" : "2.茄子煎至稍微焦黄盛出备用，煎茄子的油留锅用。",
          "frame" : "-1",
          "image" : "https:\/\/i1.douguo.com\/upload\/caiku\/9\/0\/9\/901efcdbfc8d9b34d8687ea0ed581099.jpg",
          "image_height" : 1067
        },
        {
          "image" : "https:\/\/i1.douguo.com\/upload\/caiku\/0\/9\/a\/09c8b23594e0f5792ae0352a97355dea.jpg",
          "frame" : "-1",
          "content" : "3准备豆瓣酱，葱，姜，蒜切段，2勺醋，1勺白糖，1勺淀粉调成糖醋汁，鲶鱼洗净切段用料酒，胡椒粉，少量盐，淀粉腌制几分钟。",
          "image_height" : 1067,
          "position" : 3,
          "image_width" : 800,
          "thumb" : "https:\/\/i1.douguo.com\/upload\/caiku\/0\/9\/a\/140_09c8b23594e0f5792ae0352a97355dea.jpg"
        },
        {
          "image_width" : 800,
          "position" : 4,
          "image_height" : 600,
          "thumb" : "https:\/\/i1.douguo.com\/upload\/caiku\/b\/0\/7\/140_b01fc47e2d2f3acd506b87fa58445dc7.jpg",
          "image" : "https:\/\/i1.douguo.com\/upload\/caiku\/b\/0\/7\/b01fc47e2d2f3acd506b87fa58445dc7.jpg",
          "frame" : "-1",
          "content" : "4.锅里油烧热，放花椒炸香，放葱，姜，蒜，炒香，下入鲶鱼段翻炒断生，放辣椒，放豆瓣酱炒出红油，加入煎过的茄子翻炒一下，倒入调好的糖醋汁稍微翻炒两下，撒上少许葱丝，蒜粒，少许盐，出锅。"
        },
        {
          "image_width" : 800,
          "content" : "配上煎好的小鱼，好了，可以开吃了。",
          "image_height" : 1067,
          "image" : "https:\/\/i1.douguo.com\/upload\/caiku\/4\/d\/e\/4db39195d9a8b84ad21cc38c2f417cce.jpg",
          "thumb" : "https:\/\/i1.douguo.com\/upload\/caiku\/4\/d\/e\/140_4db39195d9a8b84ad21cc38c2f417cce.jpg",
          "position" : 5,
          "frame" : "-1"
        }
      ],
      "author_verified" : 0,
      "rpid" : 0,
      "cookwares" : [

      ],
      "title_ad" : [

      ],
      "major" : [
        {
          "note" : "2条",
          "title" : "野生鲶鱼"
        },
        {
          "note" : "1个",
          "title" : "青茄子"
        },
        {
          "tu" : "https:\/\/m.douguo.com\/ingredients\/姜\/detailmaterial",
          "title" : "姜",
          "note" : "3片"
        },
        {
          "note" : "3瓣",
          "tu" : "https:\/\/m.douguo.com\/ingredients\/蒜\/detailmaterial",
          "title" : "蒜"
        },
        {
          "title" : "白糖",
          "note" : "1汤勺",
          "tu" : "https:\/\/m.douguo.com\/ingredients\/白糖\/detailmaterial"
        },
        {
          "note" : "2汤勺",
          "tu" : "https:\/\/m.douguo.com\/ingredients\/香醋\/detailmaterial",
          "title" : "香醋"
        },
        {
          "title" : "淀粉",
          "note" : "2汤勺"
        },
        {
          "title" : "面粉",
          "note" : "2汤勺",
          "tu" : "https:\/\/m.douguo.com\/ingredients\/面粉\/detailmaterial"
        },
        {
          "tu" : "https:\/\/m.douguo.com\/ingredients\/料酒\/detailmaterial",
          "title" : "料酒",
          "note" : "1汤勺"
        },
        {
          "title" : "盐",
          "note" : "适量",
          "tu" : "https:\/\/m.douguo.com\/ingredients\/盐\/detailmaterial"
        },
        {
          "tu" : "https:\/\/m.douguo.com\/ingredients\/花椒\/detailmaterial",
          "note" : "10个",
          "title" : "花椒"
        },
        {
          "title" : "干辣椒",
          "tu" : "https:\/\/m.douguo.com\/ingredients\/干辣椒\/detailmaterial",
          "note" : "3个"
        },
        {
          "tu" : "https:\/\/m.douguo.com\/ingredients\/葱\/detailmaterial",
          "title" : "葱",
          "note" : "1棵"
        },
        {
          "title" : "红油郫县豆瓣",
          "note" : "1汤勺"
        },
        {
          "tu" : "https:\/\/m.douguo.com\/ingredients\/胡椒粉\/detailmaterial",
          "title" : "胡椒粉",
          "note" : "适量"
        }
      ],
      "top_mdsp" : [

      ],
      "ipia" : [

      ],
      "ss" : [

      ],
      "rpt" : "",
      "mid_mdsp" : [

      ],
      "rcs" : [

      ],
      "dish_count" : 0,
      "sc" : 0,
      "first_level_comment_count" : 3,
      "recipe_tags" : [

      ]
    }
  },
  "state" : "success"
}