{
  "state" : "success",
  "status" : 0,
  "result" : {
    "recipe" : {
      "sr" : "",
      "comments" : [
        "{\n    ac = \"#999999\";\n    at = \"\";\n    ccc = 0;\n    \"child_comments\" =     (\n    );\n    city = \"\";\n    cmc = 2;\n    content =     (\n                {\n            c = \"\\U8fd9\\U4e48\\U8d5e\\U554a\";\n        }\n    );\n    ia = 0;\n    id = 7929229;\n    \"ip_address_location\" = \"\";\n    like = 0;\n    \"like_count\" = 1;\n    \"reply_id\" = 0;\n    \"sticker_icon\" =     (\n    );\n    time = \"2020-04-28 18:12:59\";\n    u =     {\n        \"followers_count_text\" = \"\";\n        id = 20339547;\n        \"is_prime\" = 0;\n        lv = 0;\n        lvl = 6;\n        n = \"\\U4f4e\\U8c03\\U70b9\\U70b9\\U513f\";\n        p = \"http:\/\/tx1.douguo.net\/upload\/photo\/6\/9\/c\/70_u96287401929768140105.jpeg\";\n        \"progress_image\" = \"\";\n        \"recipes_count_text\" = \"\";\n        relationship = \"-1\";\n        title = \"\";\n        v = 1;\n        \"verified_image\" = \"\";\n    };\n}",
        "{\n    ac = \"#999999\";\n    at = \"\\U5317\\U4eac\\U5e02\";\n    ccc = 0;\n    \"child_comments\" =     (\n    );\n    city = \"\\U5317\\U4eac\\U5e02\";\n    cmc = 2;\n    content =     (\n                {\n            c = \"\\U4e0d\\U9519\\U4e0d\\U9519\";\n        }\n    );\n    ia = 0;\n    id = 7817692;\n    \"ip_address_location\" = \"\";\n    like = 0;\n    \"like_count\" = 0;\n    \"reply_id\" = 0;\n    \"sticker_icon\" =     (\n    );\n    time = \"2020-03-26 23:47:51\";\n    u =     {\n        \"followers_count_text\" = \"\";\n        id = 24027967;\n        \"is_prime\" = 0;\n        lv = 0;\n        lvl = 6;\n        n = \"\\U6613\\U5b890812\";\n        p = \"http:\/\/tx1.douguo.net\/upload\/photo\/e\/d\/1\/70_u62655349674267101250.jpeg\";\n        \"progress_image\" = \"\";\n        \"recipes_count_text\" = \"\";\n        relationship = \"-1\";\n        title = \"\";\n        v = 0;\n        \"verified_image\" = \"\";\n    };\n}"
      ],
      "image" : "http:\/\/i1.douguo.net\/upload\/caiku\/2\/9\/c\/300_2999948258d1499d8975ca44fbf2d2cc.jpeg",
      "story_dsp" : [

      ],
      "notes" : [

      ],
      "rate_count" : 0,
      "title_ad" : [

      ],
      "ss" : [

      ],
      "ipoi" : "",
      "author_verified" : 0,
      "brand_day_dsp" : [

      ],
      "advice" : {
        "at" : "对血管有保护作用～",
        "da" : {
          "url" : "https:\/\/m.douguo.com\/recipe\/nutrient_self\/2443486",
          "t" : "查看详细分析",
          "iu" : "https:\/\/i1.douguo.com\/upload\/banner\/f\/4\/d\/f48877e53c37759bc12ac494be82ec8d.png"
        },
        "has" : [
          {
            "t" : "低饱和脂肪",
            "url" : "recipes:\/\/www.douguo.com\/simplerecipelist?t=低饱和脂肪&id=低饱和脂肪"
          },
          {
            "t" : "高盐",
            "url" : "recipes:\/\/www.douguo.com\/simplerecipelist?t=高盐&id=高盐"
          }
        ]
      },
      "cook_difficulty_image" : "",
      "comments_count" : 2,
      "rpid" : 0,
      "ecs" : 0,
      "create_time" : "2020-03-25 21:44:00",
      "ssu" : "",
      "cookstep" : [
        {
          "position" : 1,
          "image_width" : 1280,
          "content" : "鸡翅根，改刀，方便入味。\n将上述配料通通加入，拌匀，腌制至少3个小时",
          "image" : "https:\/\/i1.douguo.com\/upload\/caiku\/d\/1\/0\/d1a05b42b13ce32db45ffdedbd8fff00.jpeg",
          "image_height" : 1706,
          "thumb" : "https:\/\/i1.douguo.com\/upload\/caiku\/d\/1\/0\/140_d1a05b42b13ce32db45ffdedbd8fff00.jpeg",
          "frame" : "-1"
        },
        {
          "frame" : "-1",
          "image_width" : 1280,
          "image_height" : 1706,
          "thumb" : "https:\/\/i1.douguo.com\/upload\/caiku\/c\/b\/a\/140_cb8b0e78ab1594aee0761989aa465e4a.jpeg",
          "position" : 2,
          "content" : "腌好后，放入烤网，不垫锡纸也行，垫了锡纸容易积水，中途需要拿出来倒倒水，翻个面。。。上下200度以上20分钟，看各家烤箱脾气。。。20分钟后倒倒水，翻翻面，翻面后撒上辣椒面，孜然粉。。。再烤10分钟",
          "image" : "https:\/\/i1.douguo.com\/upload\/caiku\/c\/b\/a\/cb8b0e78ab1594aee0761989aa465e4a.jpeg"
        },
        {
          "thumb" : "https:\/\/i1.douguo.com\/upload\/caiku\/f\/4\/f\/140_f4fdbb9713afe4f321b7c5065600bddf.jpeg",
          "image" : "https:\/\/i1.douguo.com\/upload\/caiku\/f\/4\/f\/f4fdbb9713afe4f321b7c5065600bddf.jpeg",
          "image_width" : 1280,
          "content" : "好了，时间到，出箱，摆盘",
          "frame" : "-1",
          "position" : 3,
          "image_height" : 1706
        }
      ],
      "top_mdsp" : [

      ],
      "recommendation_tag" : "",
      "purl" : "",
      "act_des" : "",
      "title" : "烤箱版烤鸡翅根",
      "author" : "普鲁卡因！",
      "dish_count_text" : "",
      "cook_difficulty" : "",
      "vc" : "332742",
      "recipe_tags" : [

      ],
      "views_count_text" : "33.3万",
      "rpt" : "",
      "recent_comments" : [

      ],
      "release_time" : "",
      "user" : {
        "following_count" : 0,
        "user_id" : "10092199",
        "birthday" : "",
        "age" : "",
        "verified" : 0,
        "fc" : 0,
        "email" : "",
        "favorites_count" : 0,
        "point" : 0,
        "favor_diaries_count" : 0,
        "user_photo" : "http:\/\/tx1.douguo.net\/upload\/photo\/e\/a\/8\/70_u35493660430380124813.jpeg",
        "avatar_medium" : "http:\/\/tx1.douguo.net\/upload\/photo\/e\/a\/8\/140_u35493660430380124813.jpeg",
        "is_prime" : 0,
        "setted_email" : 0,
        "coursecount" : 0,
        "introduction" : "",
        "dishes_count" : 0,
        "user_large_photo" : "http:\/\/tx1.douguo.net\/upload\/photo\/e\/a\/8\/yuan_u35493660430380124813.jpeg",
        "lv" : 0,
        "regist_time" : "",
        "gender" : 2,
        "qq_weibo_nick" : "",
        "userid" : "10092199",
        "verified_image" : "",
        "location" : 0,
        "lvl" : 4,
        "diaries_count" : 0,
        "subscription" : 0,
        "verified_url" : "https:\/\/m.douguo.com\/user\/prodesc",
        "user_cover" : "",
        "pc" : 0,
        "weibo_nick" : "",
        "subscription_article_count" : 0,
        "qzone_nick" : "",
        "mobile" : "",
        "followers_count" : 0,
        "progress_image" : "",
        "recipes_count" : 0,
        "sign" : "",
        "nick" : "普鲁卡因！"
      },
      "su" : "",
      "dishes" : [

      ],
      "favo_counts_text" : "1777",
      "rrps" : [

      ],
      "cook_time" : "30~60分钟",
      "hq" : 1,
      "clicks" : "311567",
      "related_ads" : [

      ],
      "recipe_list_tags" : [
        {
          "background_border_color" : "",
          "text_color" : "#141515",
          "text" : "关注的人",
          "background_start_color" : "#F4F5F5",
          "right_image" : "",
          "background_end_color" : "#F4F5F5",
          "jump_url" : ""
        }
      ],
      "comments_count_text" : "2",
      "vfurl" : "",
      "vu" : "",
      "rcs" : [

      ],
      "thumb_path" : "https:\/\/i1.douguo.com\/upload\/caiku\/2\/9\/c\/300_2999948258d1499d8975ca44fbf2d2cc.jpeg",
      "ipurl" : "",
      "packages_id" : [

      ],
      "rips" : 0,
      "rate" : 0,
      "rrpt" : "",
      "favo_counts" : 1777,
      "first_level_comment_count" : 2,
      "recommended" : 0,
      "ipt" : "",
      "hqu" : "recipes:\/\/www.douguo.com\/notedetail?id=21162253",
      "cookstorys" : [

      ],
      "cook_id" : "2443486",
      "recommend_label" : "1777人刚刚收藏过",
      "share_info" : {
        "mini_program" : [

        ],
        "name" : "烤箱版烤鸡翅根-会做饭很酷!",
        "s_u" : "http:\/\/m.douguo.com\/cookbook\/2443486.html",
        "qr_image" : "",
        "infos" : [
          {
            "s_u" : "",
            "image" : "https:\/\/cp1.douguo.com\/upload\/caiku\/2\/9\/c\/2999948258d1499d8975ca44fbf2d2cc.jpeg",
            "object_id" : "2443486",
            "name" : "烤箱版烤鸡翅根-会做饭很酷!",
            "channel" : "1",
            "qr_image" : "",
            "s_d" : "#学做饭用豆果美食# 会做饭真是太酷了！我在@豆果美食 分享了【烤箱版烤鸡翅根-会做饭很酷!】，这道菜真的神仙美味！喜欢的一定要试试绝对不会错的！～查看图片了解菜谱（快来点击https:\/\/m.weibo.cn\/p\/100404i33631和我一起修炼厨艺吧）",
            "mini_program" : [

            ]
          },
          {
            "image" : "https:\/\/cp1.douguo.com\/upload\/caiku\/2\/9\/c\/2999948258d1499d8975ca44fbf2d2cc.jpeg",
            "s_u" : "http:\/\/m.douguo.com\/cookbook\/2443486.html",
            "object_id" : "2443486",
            "name" : "烤箱版烤鸡翅根-会做饭很酷!",
            "channel" : "7",
            "s_d" : "烤箱版烤鸡翅根-会做饭很酷!",
            "mini_program" : [

            ],
            "qr_image" : ""
          },
          {
            "image" : "https:\/\/cp1.douguo.com\/upload\/caiku\/2\/9\/c\/2999948258d1499d8975ca44fbf2d2cc.jpeg",
            "qr_image" : "",
            "channel" : "8",
            "s_d" : "烤箱版烤鸡翅根-会做饭很酷!",
            "mini_program" : [

            ],
            "object_id" : "2443486",
            "name" : "烤箱版烤鸡翅根-会做饭很酷!",
            "s_u" : "http:\/\/m.douguo.com\/cookbook\/2443486.html"
          }
        ],
        "image" : "https:\/\/cp1.douguo.com\/upload\/caiku\/2\/9\/c\/2999948258d1499d8975ca44fbf2d2cc.jpeg",
        "object_id" : "2443486",
        "s_d" : "烤箱版烤鸡翅根-会做饭很酷!"
      },
      "mid_mdsp" : [

      ],
      "rdsps" : [

      ],
      "rewarded_video_dsp" : [

      ],
      "collect_status" : 0,
      "major" : [
        {
          "note" : "10",
          "title" : "鸡翅根",
          "tu" : "https:\/\/m.douguo.com\/ingredients\/鸡翅根\/detailmaterial"
        },
        {
          "title" : "料酒",
          "tu" : "https:\/\/m.douguo.com\/ingredients\/料酒\/detailmaterial",
          "note" : "适量，去腥"
        },
        {
          "tu" : "https:\/\/m.douguo.com\/ingredients\/酱油\/detailmaterial",
          "note" : "2勺",
          "title" : "酱油"
        },
        {
          "tu" : "https:\/\/m.douguo.com\/ingredients\/盐\/detailmaterial",
          "note" : "适量",
          "title" : "盐"
        },
        {
          "title" : "耗油",
          "note" : "适量",
          "tu" : "https:\/\/m.douguo.com\/ingredients\/耗油\/detailmaterial"
        },
        {
          "title" : "花椒粉",
          "note" : "适量"
        },
        {
          "note" : "爱吃辣的加",
          "title" : "辣椒粉",
          "tu" : "https:\/\/m.douguo.com\/ingredients\/辣椒粉\/detailmaterial"
        },
        {
          "note" : "适量",
          "title" : "孜然粉"
        },
        {
          "note" : "适量",
          "title" : "葱花、蒜瓣、姜片"
        },
        {
          "note" : "少许",
          "title" : "白糖",
          "tu" : "https:\/\/m.douguo.com\/ingredients\/白糖\/detailmaterial"
        },
        {
          "tu" : "https:\/\/m.douguo.com\/ingredients\/花生油\/detailmaterial",
          "note" : "少许",
          "title" : "花生油"
        }
      ],
      "author_photo" : "http:\/\/tx1.douguo.net\/upload\/photo\/e\/a\/8\/70_u35493660430380124813.jpeg",
      "ipci" : "",
      "btm_dsp" : [

      ],
      "cookwares" : [

      ],
      "bs" : [

      ],
      "sc" : 0,
      "old_comments" : [

      ],
      "guide_image" : "",
      "ipit" : 0,
      "levelid" : 2,
      "author_id" : 10092199,
      "display_ingredient" : 1,
      "pw" : 1440,
      "dish_count" : 0,
      "rsm" : "该功能暂停使用",
      "cook_time_image" : "https:\/\/i1.douguo.com\/upload\/banner\/1551424318.png",
      "tips" : "",
      "photo_path" : "https:\/\/i1.douguo.com\/upload\/caiku\/2\/9\/c\/600_2999948258d1499d8975ca44fbf2d2cc.jpeg",
      "minor" : [

      ],
      "cookstory" : "",
      "rpst" : "",
      "ph" : 1920,
      "original_photo_path" : "http:\/\/i1.douguo.net\/upload\/caiku\/2\/9\/c\/yuan_2999948258d1499d8975ca44fbf2d2cc.jpeg",
      "rate_show" : 0,
      "v_u" : "",
      "ipia" : [

      ],
      "thumb_height" : 0,
      "tags" : [

      ],
      "eu" : "recipes:\/\/www.douguo.com\/postdetail?id=242016"
    }
  }
}