{
  "status" : 0,
  "result" : {
    "recipe" : {
      "rpt" : "",
      "title_ad" : [

      ],
      "cookstory" : "",
      "dish_count" : 0,
      "notes" : [

      ],
      "mid_mdsp" : [

      ],
      "sc" : 0,
      "cook_id" : "2500689",
      "ipt" : "",
      "collect_status" : 0,
      "rewarded_video_dsp" : [

      ],
      "minor" : [

      ],
      "display_ingredient" : 1,
      "vfurl" : "",
      "packages_id" : [

      ],
      "cook_time_image" : "https:\/\/i1.douguo.com\/upload\/banner\/1551424358.png",
      "rrps" : [

      ],
      "ssu" : "",
      "tags" : [

      ],
      "image" : "http:\/\/i1.douguo.net\/upload\/caiku\/f\/b\/d\/300_fb7c2b8df3bc9196592c19d5c2372e0d.jpeg",
      "user" : {
        "dishes_count" : 0,
        "mobile" : "",
        "gender" : 2,
        "coursecount" : 0,
        "nick" : "琳哒琳哒",
        "sign" : "",
        "fc" : 0,
        "verified_url" : "https:\/\/m.douguo.com\/user\/prodesc",
        "verified" : 1,
        "lv" : 0,
        "user_cover" : "",
        "recipes_count" : 0,
        "location" : 0,
        "is_prime" : 0,
        "qzone_nick" : "",
        "lvl" : 6,
        "setted_email" : 0,
        "regist_time" : "",
        "favor_diaries_count" : 0,
        "qq_weibo_nick" : "",
        "age" : "",
        "user_large_photo" : "http:\/\/tx1.douguo.net\/upload\/photo\/b\/a\/b\/yuan_u50314352456830212454.jpeg",
        "weibo_nick" : "",
        "user_id" : "15868010",
        "user_photo" : "http:\/\/tx1.douguo.net\/upload\/photo\/b\/a\/b\/70_u50314352456830212454.jpeg",
        "point" : 0,
        "progress_image" : "",
        "followers_count" : 0,
        "userid" : "15868010",
        "verified_image" : "https:\/\/i1.douguo.com\/upload\/note\/d\/a\/a\/da84247847aebe48d9dd0fcdac88862a.png",
        "avatar_medium" : "http:\/\/tx1.douguo.net\/upload\/photo\/b\/a\/b\/140_u50314352456830212454.jpeg",
        "subscription" : 0,
        "pc" : 0,
        "favorites_count" : 0,
        "introduction" : "",
        "birthday" : "",
        "following_count" : 0,
        "subscription_article_count" : 0,
        "email" : "",
        "diaries_count" : 0
      },
      "ipci" : "",
      "top_mdsp" : [

      ],
      "vc" : "79031",
      "views_count_text" : "7.9万",
      "rate" : 0,
      "release_time" : "",
      "rsm" : "该功能暂停使用",
      "cook_difficulty" : "切墩(初级)",
      "share_info" : {
        "mini_program" : [

        ],
        "s_u" : "http:\/\/m.douguo.com\/cookbook\/2500689.html",
        "infos" : [
          {
            "qr_image" : "",
            "image" : "https:\/\/cp1.douguo.com\/upload\/caiku\/f\/b\/d\/fb7c2b8df3bc9196592c19d5c2372e0d.jpeg",
            "object_id" : "2500689",
            "mini_program" : [

            ],
            "name" : "#我们约饭吧#糖果三明治-会做饭很酷!",
            "s_u" : "",
            "s_d" : "#学做饭用豆果美食# 会做饭真是太酷了！我在@豆果美食 分享了【#我们约饭吧#糖果三明治-会做饭很酷!】OMG！这是什么神仙美味啊~真的强烈推荐你们试一试～查看图片了解菜谱（每天限量免费课程，想跟大师学厨艺就来这https:\/\/m.weibo.cn\/p\/100404i33631）",
            "channel" : "1"
          },
          {
            "image" : "https:\/\/cp1.douguo.com\/upload\/caiku\/f\/b\/d\/fb7c2b8df3bc9196592c19d5c2372e0d.jpeg",
            "mini_program" : [

            ],
            "qr_image" : "",
            "s_d" : "#我们约饭吧#糖果三明治-会做饭很酷!",
            "object_id" : "2500689",
            "s_u" : "http:\/\/m.douguo.com\/cookbook\/2500689.html",
            "channel" : "7",
            "name" : "#我们约饭吧#糖果三明治-会做饭很酷!"
          },
          {
            "channel" : "8",
            "image" : "https:\/\/cp1.douguo.com\/upload\/caiku\/f\/b\/d\/fb7c2b8df3bc9196592c19d5c2372e0d.jpeg",
            "qr_image" : "",
            "object_id" : "2500689",
            "s_u" : "http:\/\/m.douguo.com\/cookbook\/2500689.html",
            "mini_program" : [

            ],
            "s_d" : "#我们约饭吧#糖果三明治-会做饭很酷!",
            "name" : "#我们约饭吧#糖果三明治-会做饭很酷!"
          }
        ],
        "object_id" : "2500689",
        "name" : "#我们约饭吧#糖果三明治-会做饭很酷!",
        "image" : "https:\/\/cp1.douguo.com\/upload\/caiku\/f\/b\/d\/fb7c2b8df3bc9196592c19d5c2372e0d.jpeg",
        "qr_image" : "",
        "s_d" : "#我们约饭吧#糖果三明治-会做饭很酷!"
      },
      "ipurl" : "",
      "btm_dsp" : [

      ],
      "act_des" : "",
      "cook_time" : "10分钟左右",
      "recommendation_tag" : "",
      "sr" : "",
      "ecs" : 1,
      "rrpt" : "",
      "related_ads" : [

      ],
      "story_dsp" : [

      ],
      "old_comments" : [

      ],
      "event" : {
        "id" : 2579,
        "url" : "https:\/\/m.douguo.com\/activity\/cpzj\/detail\/2579?isapp=1&open=0&_vs=1000300",
        "name" : "我们约饭吧"
      },
      "dishes" : [

      ],
      "rate_count" : 0,
      "author_photo" : "http:\/\/tx1.douguo.net\/upload\/photo\/b\/a\/b\/70_u50314352456830212454.jpeg",
      "ipit" : 0,
      "hqu" : "recipes:\/\/www.douguo.com\/notedetail?id=21162253",
      "original_photo_path" : "http:\/\/i1.douguo.net\/upload\/caiku\/f\/b\/d\/yuan_fb7c2b8df3bc9196592c19d5c2372e0d.jpeg",
      "pw" : 600,
      "v_u" : "",
      "create_time" : "2020-05-29 23:52:00",
      "clicks" : "77045",
      "advice" : {
        "da" : {
          "url" : "https:\/\/m.douguo.com\/recipe\/nutrient_self\/2500689",
          "t" : "查看详细分析",
          "iu" : "https:\/\/i1.douguo.com\/upload\/banner\/f\/4\/d\/f48877e53c37759bc12ac494be82ec8d.png"
        },
        "has" : [

        ]
      },
      "recommended" : 0,
      "recommend_label" : "1801人刚刚收藏过",
      "favo_counts" : 1801,
      "comments_count_text" : "4",
      "purl" : "",
      "comments" : [
        "{\n    ac = \"#999999\";\n    at = \"\";\n    ccc = 0;\n    \"child_comments\" =     (\n    );\n    city = \"\";\n    cmc = 2;\n    content =     (\n                {\n            c = \"\\U4e00\\U4f1a\\U5c31\\U53bb\\U505a\";\n        }\n    );\n    ia = 0;\n    id = 8026908;\n    \"ip_address_location\" = \"\";\n    like = 0;\n    \"like_count\" = 0;\n    \"reply_id\" = 0;\n    \"sticker_icon\" =     (\n    );\n    time = \"2020-05-30 07:31:04\";\n    u =     {\n        \"followers_count_text\" = \"\";\n        id = 18523022;\n        \"is_prime\" = 0;\n        lv = 0;\n        lvl = 4;\n        n = \"\\U906e\\U906e\\U63a9\\U63a9\\U7684\\U9ec4\\U7c73\\U5f88\\U5fc3\\U9178\";\n        p = \"http:\/\/tx1.douguo.net\/upload\/photo\/1\/1\/1\/70_b916105c8502ab223be6fb1000443fad.png\";\n        \"progress_image\" = \"\";\n        \"recipes_count_text\" = \"\";\n        relationship = \"-1\";\n        title = \"\";\n        v = 0;\n        \"verified_image\" = \"\";\n    };\n}",
        "{\n    ac = \"#999999\";\n    at = \"\";\n    ccc = 0;\n    \"child_comments\" =     (\n    );\n    city = \"\";\n    cmc = 2;\n    content =     (\n                {\n            c = \"\\U54c7\\U585e\\Uff0c\\U7b80\\U76f4\\U8ba9\\U4eba\\U65e0\\U6cd5\\U62d2\\U7edd\";\n        }\n    );\n    ia = 0;\n    id = 8026863;\n    \"ip_address_location\" = \"\";\n    like = 0;\n    \"like_count\" = 0;\n    \"reply_id\" = 0;\n    \"sticker_icon\" =     (\n    );\n    time = \"2020-05-30 07:16:04\";\n    u =     {\n        \"followers_count_text\" = \"\";\n        id = 18578684;\n        \"is_prime\" = 0;\n        lv = 0;\n        lvl = 2;\n        n = \"\\U7b71\\U857e\\U513f\";\n        p = \"http:\/\/tx1.douguo.net\/upload\/photo\/1\/9\/0\/70_u99261666757844114752.jpg\";\n        \"progress_image\" = \"\";\n        \"recipes_count_text\" = \"\";\n        relationship = \"-1\";\n        title = \"\";\n        v = 0;\n        \"verified_image\" = \"\";\n    };\n}",
        "{\n    ac = \"#999999\";\n    at = \"\";\n    ccc = 0;\n    \"child_comments\" =     (\n    );\n    city = \"\";\n    cmc = 2;\n    content =     (\n                {\n            c = \"\\U523a\\U6fc0\\U4e86\\U6211\\U505a\\U996d\\U7684\\U6b32\\U671b\";\n        }\n    );\n    ia = 0;\n    id = 8026851;\n    \"ip_address_location\" = \"\";\n    like = 0;\n    \"like_count\" = 0;\n    \"reply_id\" = 0;\n    \"sticker_icon\" =     (\n    );\n    time = \"2020-05-30 07:13:04\";\n    u =     {\n        \"followers_count_text\" = \"\";\n        id = 18565772;\n        \"is_prime\" = 0;\n        lv = 0;\n        lvl = 6;\n        n = \"\\U8721\\U7b14\\U5c0f\\U65b0\\U7684\\U8721\\U7b14\";\n        p = \"http:\/\/tx1.douguo.net\/upload\/photo\/9\/d\/9\/70_u01546177242448230741.jpg\";\n        \"progress_image\" = \"\";\n        \"recipes_count_text\" = \"\";\n        relationship = \"-1\";\n        title = \"\";\n        v = 0;\n        \"verified_image\" = \"\";\n    };\n}"
      ],
      "vu" : "",
      "rdsps" : [

      ],
      "guide_image" : "",
      "cookstorys" : [

      ],
      "ph" : 800,
      "eu" : "recipes:\/\/www.douguo.com\/postdetail?id=242016",
      "rpid" : 0,
      "cookwares" : [

      ],
      "ss" : [

      ],
      "photo_path" : "https:\/\/i1.douguo.com\/upload\/caiku\/f\/b\/d\/600_fb7c2b8df3bc9196592c19d5c2372e0d.jpeg",
      "dish_count_text" : "",
      "favo_counts_text" : "1801",
      "su" : "",
      "major" : [
        {
          "tu" : "https:\/\/m.douguo.com\/ingredients\/吐司\/detailmaterial",
          "title" : "吐司",
          "note" : "2片"
        },
        {
          "title" : "鸡蛋",
          "note" : "1个",
          "tu" : "https:\/\/m.douguo.com\/ingredients\/鸡蛋\/detailmaterial"
        },
        {
          "tu" : "https:\/\/m.douguo.com\/ingredients\/火腿肠\/detailmaterial",
          "title" : "火腿肠",
          "note" : "2根"
        },
        {
          "title" : "青瓜",
          "note" : "1段"
        },
        {
          "tu" : "https:\/\/m.douguo.com\/ingredients\/培根\/detailmaterial",
          "note" : "2片",
          "title" : "培根"
        },
        {
          "tu" : "https:\/\/m.douguo.com\/ingredients\/千岛酱\/detailmaterial",
          "title" : "千岛酱",
          "note" : "适量"
        }
      ],
      "cook_difficulty_image" : "https:\/\/i1.douguo.com\/upload\/banner\/1551424390.png",
      "recent_comments" : [

      ],
      "tips" : "",
      "bs" : [

      ],
      "recipe_list_tags" : [
        {
          "jump_url" : "",
          "background_start_color" : "#F4F5F5",
          "background_end_color" : "#F4F5F5",
          "background_border_color" : "",
          "right_image" : "",
          "text_color" : "#141515",
          "text" : "关注的人"
        }
      ],
      "recipe_tags" : [

      ],
      "hq" : 1,
      "author_id" : 15868010,
      "rpst" : "",
      "rate_show" : 0,
      "rips" : 0,
      "cookstep" : [
        {
          "position" : 1,
          "image_width" : 1280,
          "thumb" : "https:\/\/i1.douguo.com\/upload\/caiku\/5\/f\/2\/140_5f45bd924cc58cc8904d3da3ef694702.jpeg",
          "content" : "备好材料。",
          "image_height" : 960,
          "frame" : "-1",
          "image" : "https:\/\/i1.douguo.com\/upload\/caiku\/5\/f\/2\/5f45bd924cc58cc8904d3da3ef694702.jpeg"
        },
        {
          "image_width" : 1280,
          "image_height" : 960,
          "frame" : "-1",
          "image" : "https:\/\/i1.douguo.com\/upload\/caiku\/0\/c\/4\/0c033daeb3c30ba777051423fa2c9084.jpeg",
          "position" : 2,
          "thumb" : "https:\/\/i1.douguo.com\/upload\/caiku\/0\/c\/4\/140_0c033daeb3c30ba777051423fa2c9084.jpeg",
          "content" : "火腿肠、青瓜、培根分别切好。"
        },
        {
          "content" : "将鸡蛋、培根、火腿肠小火煎熟。",
          "thumb" : "https:\/\/i1.douguo.com\/upload\/caiku\/7\/4\/7\/140_7431afb6dd57405c220e294b8fdfe677.jpeg",
          "image_width" : 1280,
          "position" : 3,
          "image_height" : 960,
          "image" : "https:\/\/i1.douguo.com\/upload\/caiku\/7\/4\/7\/7431afb6dd57405c220e294b8fdfe677.jpeg",
          "frame" : "-1"
        },
        {
          "frame" : "-1",
          "position" : 4,
          "thumb" : "https:\/\/i1.douguo.com\/upload\/caiku\/a\/8\/7\/140_a87c2f709fdb51fad23998da8f5c5667.jpeg",
          "content" : "吐司底下铺好保鲜膜。",
          "image" : "https:\/\/i1.douguo.com\/upload\/caiku\/a\/8\/7\/a87c2f709fdb51fad23998da8f5c5667.jpeg",
          "image_width" : 1280,
          "image_height" : 1706
        },
        {
          "image_height" : 1706,
          "content" : "抹上千岛酱。",
          "position" : 5,
          "image_width" : 1280,
          "frame" : "-1",
          "thumb" : "https:\/\/i1.douguo.com\/upload\/caiku\/c\/1\/2\/140_c1acf07e424f1f23d6df65f857390ab2.jpeg",
          "image" : "https:\/\/i1.douguo.com\/upload\/caiku\/c\/1\/2\/c1acf07e424f1f23d6df65f857390ab2.jpeg"
        },
        {
          "content" : "将青瓜间隔摆放好。",
          "position" : 6,
          "image_height" : 1706,
          "frame" : "-1",
          "image_width" : 1280,
          "thumb" : "https:\/\/i1.douguo.com\/upload\/caiku\/e\/4\/f\/140_e49c5592439e50a1bc4f27f82500649f.jpeg",
          "image" : "https:\/\/i1.douguo.com\/upload\/caiku\/e\/4\/f\/e49c5592439e50a1bc4f27f82500649f.jpeg"
        },
        {
          "image" : "https:\/\/i1.douguo.com\/upload\/caiku\/5\/e\/4\/5ef4bfecadb201d8ea4e013262345ee4.jpeg",
          "image_height" : 1706,
          "thumb" : "https:\/\/i1.douguo.com\/upload\/caiku\/5\/e\/4\/140_5ef4bfecadb201d8ea4e013262345ee4.jpeg",
          "position" : 7,
          "image_width" : 1280,
          "content" : "在空隙中放上火腿肠。",
          "frame" : "-1"
        },
        {
          "position" : 8,
          "image" : "https:\/\/i1.douguo.com\/upload\/caiku\/4\/d\/b\/4d92992422c8ee517525bfb092fdb35b.jpeg",
          "image_width" : 1280,
          "frame" : "-1",
          "image_height" : 1706,
          "thumb" : "https:\/\/i1.douguo.com\/upload\/caiku\/4\/d\/b\/140_4d92992422c8ee517525bfb092fdb35b.jpeg",
          "content" : "挤上适量的千瘩酱。"
        },
        {
          "position" : 9,
          "image_width" : 1280,
          "content" : "铺上煎好的培根后，在面上挤少许的千岛酱。",
          "image_height" : 1706,
          "image" : "https:\/\/i1.douguo.com\/upload\/caiku\/0\/2\/2\/02bc3079b0e1ba3540415b434dc7d502.jpeg",
          "thumb" : "https:\/\/i1.douguo.com\/upload\/caiku\/0\/2\/2\/140_02bc3079b0e1ba3540415b434dc7d502.jpeg",
          "frame" : "-1"
        },
        {
          "frame" : "-1",
          "image_width" : 1280,
          "image" : "https:\/\/i1.douguo.com\/upload\/caiku\/1\/5\/4\/15c2817fa6765d83101ffbe45bb58704.jpeg",
          "position" : 10,
          "content" : "盖上另一片吐司，用保鲜膜裹紧。",
          "thumb" : "https:\/\/i1.douguo.com\/upload\/caiku\/1\/5\/4\/140_15c2817fa6765d83101ffbe45bb58704.jpeg",
          "image_height" : 1706
        },
        {
          "position" : 11,
          "thumb" : "https:\/\/i1.douguo.com\/upload\/caiku\/3\/1\/4\/140_310c2ab617fd64d1ba03be6cc9558104.jpeg",
          "image" : "https:\/\/i1.douguo.com\/upload\/caiku\/3\/1\/4\/310c2ab617fd64d1ba03be6cc9558104.jpeg",
          "frame" : "-1",
          "image_height" : 1517,
          "image_width" : 1280,
          "content" : "然后竖着从中间切开。"
        },
        {
          "image" : "https:\/\/i1.douguo.com\/upload\/caiku\/1\/0\/f\/103ac8b1158756712e24e19b536a51df.jpeg",
          "image_width" : 1280,
          "position" : 12,
          "frame" : "-1",
          "content" : "包上油纸，两头拧一下成糖果状就完成了。",
          "thumb" : "https:\/\/i1.douguo.com\/upload\/caiku\/1\/0\/f\/140_103ac8b1158756712e24e19b536a51df.jpeg",
          "image_height" : 1513
        },
        {
          "content" : "美美哒！",
          "frame" : "-1",
          "position" : 13,
          "image" : "https:\/\/i1.douguo.com\/upload\/caiku\/a\/a\/0\/aa961fd0f0554bb9f9ecf530a8cf3740.jpeg",
          "image_height" : 1706,
          "image_width" : 1280,
          "thumb" : "https:\/\/i1.douguo.com\/upload\/caiku\/a\/a\/0\/140_aa961fd0f0554bb9f9ecf530a8cf3740.jpeg"
        }
      ],
      "thumb_path" : "https:\/\/i1.douguo.com\/upload\/caiku\/f\/b\/d\/300_fb7c2b8df3bc9196592c19d5c2372e0d.jpeg",
      "levelid" : 2,
      "ipia" : [

      ],
      "rcs" : [

      ],
      "author_verified" : 1,
      "brand_day_dsp" : [

      ],
      "author" : "琳哒琳哒",
      "thumb_height" : 0,
      "first_level_comment_count" : 4,
      "title" : "糖果三明治",
      "comments_count" : 4,
      "ipoi" : ""
    }
  },
  "state" : "success"
}