{
  "status" : 0,
  "state" : "success",
  "result" : {
    "recipe" : {
      "cook_difficulty_image" : "https:\/\/i1.douguo.com\/upload\/banner\/1551424390.png",
      "sr" : "",
      "display_ingredient" : 1,
      "collect_status" : 0,
      "cook_time_image" : "https:\/\/i1.douguo.com\/upload\/banner\/1551423815.png",
      "eu" : "recipes:\/\/www.douguo.com\/postdetail?id=242016",
      "minor" : [
        "{\n    note = \"\\U9002\\U91cf\";\n    title = \"\\U98df\\U76d0\";\n    tu = \"https:\/\/https:\/\/m.douguo.com\/ingredients\/\\U98df\\U76d0\/detailmaterial\";\n}"
      ],
      "mid_mdsp" : [

      ],
      "old_comments" : [

      ],
      "cookstory" : "秋冬季节，大家都习惯会吃一些滋补的东西增强体质，高丽参是其中一个很好的选择，推荐大家试试这道高丽参炖鹌鹑，滋阴补血，也适合老年人饮用。\n_______________________________________________\n\n如果不懂可以加我微信，我可以分享和教导。\n微信：xiaosendemama1",
      "sc" : 0,
      "related_ads" : [

      ],
      "comments" : [
        "{\n    ac = \"#999999\";\n    at = \"\";\n    ccc = 2;\n    \"child_comments\" =     (\n                {\n            ac = \"#999999\";\n            at = \"\\U5e7f\\U5dde\\U5e02\";\n            ccc = 0;\n            city = \"\\U5e7f\\U5dde\\U5e02\";\n            cmc = 2;\n            content =             (\n                                {\n                    c = \" \";\n                }\n            );\n            ia = 1;\n            id = 5435675;\n            \"ip_address_location\" = \"\";\n            like = 0;\n            \"like_count\" = 0;\n            \"reply_id\" = 5430919;\n            \"reply_user\" =             {\n                \"followers_count_text\" = \"\";\n                id = 18540918;\n                \"is_prime\" = 0;\n                lv = 0;\n                lvl = 3;\n                n = \"\\U5c0f\\U59d7\\U59d70\";\n                p = \"http:\/\/tx1.douguo.net\/upload\/photo\/8\/c\/d\/70_u86926192649593221346.jpg\";\n                \"progress_image\" = \"\";\n                \"recipes_count_text\" = \"\";\n                relationship = \"-1\";\n                title = \"\";\n                v = 0;\n                \"verified_image\" = \"\";\n            };\n            \"sticker_icon\" =             (\n            );\n            time = \"2018-03-13 12:19:53\";\n            u =             {\n                \"followers_count_text\" = \"\";\n                id = 19985876;\n                \"is_prime\" = 0;\n                lv = 0;\n                lvl = 5;\n                n = \"\\U5c0f\\U68ee\\U7684\\U5988\\U5988\";\n                p = \"http:\/\/tx1.douguo.net\/upload\/photo\/7\/2\/1\/70_u91364387615205261741.jpg\";\n                \"progress_image\" = \"\";\n                \"recipes_count_text\" = \"\";\n                relationship = \"-1\";\n                title = \"\";\n                v = 0;\n                \"verified_image\" = \"\";\n            };\n        },\n                {\n            ac = \"#999999\";\n            at = \"\\U5e7f\\U5dde\\U5e02\";\n            ccc = 0;\n            city = \"\\U5e7f\\U5dde\\U5e02\";\n            cmc = 2;\n            content =             (\n                                {\n                    c = \" \\U54c8\\U54c8\";\n                }\n            );\n            ia = 1;\n            id = 5438935;\n            \"ip_address_location\" = \"\";\n            like = 0;\n            \"like_count\" = 0;\n            \"reply_id\" = 5430919;\n            \"reply_user\" =             {\n                \"followers_count_text\" = \"\";\n                id = 18540918;\n                \"is_prime\" = 0;\n                lv = 0;\n                lvl = 3;\n                n = \"\\U5c0f\\U59d7\\U59d70\";\n                p = \"http:\/\/tx1.douguo.net\/upload\/photo\/8\/c\/d\/70_u86926192649593221346.jpg\";\n                \"progress_image\" = \"\";\n                \"recipes_count_text\" = \"\";\n                relationship = \"-1\";\n                title = \"\";\n                v = 0;\n                \"verified_image\" = \"\";\n            };\n            \"sticker_icon\" =             (\n            );\n            time = \"2018-03-15 04:19:11\";\n            u =             {\n                \"followers_count_text\" = \"\";\n                id = 19985876;\n                \"is_prime\" = 0;\n                lv = 0;\n                lvl = 5;\n                n = \"\\U5c0f\\U68ee\\U7684\\U5988\\U5988\";\n                p = \"http:\/\/tx1.douguo.net\/upload\/photo\/7\/2\/1\/70_u91364387615205261741.jpg\";\n                \"progress_image\" = \"\";\n                \"recipes_count_text\" = \"\";\n                relationship = \"-1\";\n                title = \"\";\n                v = 0;\n                \"verified_image\" = \"\";\n            };\n        }\n    );\n    city = \"\";\n    cmc = 2;\n    content =     (\n                {\n            c = \"\\U751f\\U6d3b\\U603b\\U6709\\U5f88\\U591a\\U7410\\U788e\\Uff0c\\U8ba9\\U6211\\U4eec\\U75b2\\U60eb\\U614c\\U5f20\\Uff0c\\U4f46\\U662f\\U5f53\\U771f\\U6b63\\U5403\\U8d77\\U6765\\U4f60\\U4f1a\\U53d1\\U73b0\\U98df\\U7269\\U91cc\\U6cbe\\U6ee1\\U751f\\U6d3b\\U7684\\U7cbe\\U534e\";\n        }\n    );\n    ia = 0;\n    id = 5430919;\n    \"ip_address_location\" = \"\";\n    like = 0;\n    \"like_count\" = 0;\n    \"reply_id\" = 0;\n    \"sticker_icon\" =     (\n    );\n    time = \"2018-03-11 01:17:35\";\n    u =     {\n        \"followers_count_text\" = \"\";\n        id = 18540918;\n        \"is_prime\" = 0;\n        lv = 0;\n        lvl = 3;\n        n = \"\\U5c0f\\U59d7\\U59d70\";\n        p = \"http:\/\/tx1.douguo.net\/upload\/photo\/8\/c\/d\/70_u86926192649593221346.jpg\";\n        \"progress_image\" = \"\";\n        \"recipes_count_text\" = \"\";\n        relationship = \"-1\";\n        title = \"\";\n        v = 0;\n        \"verified_image\" = \"\";\n    };\n}",
        "{\n    ac = \"#999999\";\n    at = \"\";\n    ccc = 1;\n    \"child_comments\" =     (\n                {\n            ac = \"#999999\";\n            at = \"\\U5e7f\\U5dde\\U5e02\";\n            ccc = 0;\n            city = \"\\U5e7f\\U5dde\\U5e02\";\n            cmc = 2;\n            content =             (\n                                {\n                    c = \" \\U54c8\\U54c8\\U8c22\\U8c22\";\n                }\n            );\n            ia = 1;\n            id = 5284728;\n            \"ip_address_location\" = \"\";\n            like = 0;\n            \"like_count\" = 0;\n            \"reply_id\" = 5279120;\n            \"reply_user\" =             {\n                \"followers_count_text\" = \"\";\n                id = 18535037;\n                \"is_prime\" = 0;\n                lv = 0;\n                lvl = 4;\n                n = \"\\U6211\\U4e0d\\U662f\\U5b64\\U72ec\\U4fa0\\U5ba2\";\n                p = \"http:\/\/tx1.douguo.net\/upload\/photo\/3\/1\/4\/70_u19260933994190408211438.jpg\";\n                \"progress_image\" = \"\";\n                \"recipes_count_text\" = \"\";\n                relationship = \"-1\";\n                title = \"\";\n                v = 0;\n                \"verified_image\" = \"\";\n            };\n            \"sticker_icon\" =             (\n            );\n            time = \"2018-01-12 07:27:03\";\n            u =             {\n                \"followers_count_text\" = \"\";\n                id = 19985876;\n                \"is_prime\" = 0;\n                lv = 0;\n                lvl = 5;\n                n = \"\\U5c0f\\U68ee\\U7684\\U5988\\U5988\";\n                p = \"http:\/\/tx1.douguo.net\/upload\/photo\/7\/2\/1\/70_u91364387615205261741.jpg\";\n                \"progress_image\" = \"\";\n                \"recipes_count_text\" = \"\";\n                relationship = \"-1\";\n                title = \"\";\n                v = 0;\n                \"verified_image\" = \"\";\n            };\n        }\n    );\n    city = \"\";\n    cmc = 2;\n    content =     (\n                {\n            c = \"\\U771f\\U662f\\U592a\\U68d2\\U4e86\\Uff0c\\U771f\\U5fc3\\U7684\\Uff01\";\n        }\n    );\n    ia = 0;\n    id = 5279120;\n    \"ip_address_location\" = \"\";\n    like = 0;\n    \"like_count\" = 0;\n    \"reply_id\" = 0;\n    \"sticker_icon\" =     (\n    );\n    time = \"2018-01-11 02:06:31\";\n    u =     {\n        \"followers_count_text\" = \"\";\n        id = 18535037;\n        \"is_prime\" = 0;\n        lv = 0;\n        lvl = 4;\n        n = \"\\U6211\\U4e0d\\U662f\\U5b64\\U72ec\\U4fa0\\U5ba2\";\n        p = \"http:\/\/tx1.douguo.net\/upload\/photo\/3\/1\/4\/70_u19260933994190408211438.jpg\";\n        \"progress_image\" = \"\";\n        \"recipes_count_text\" = \"\";\n        relationship = \"-1\";\n        title = \"\";\n        v = 0;\n        \"verified_image\" = \"\";\n    };\n}",
        "{\n    ac = \"#999999\";\n    at = \"\";\n    ccc = 1;\n    \"child_comments\" =     (\n                {\n            ac = \"#999999\";\n            at = \"\\U5e7f\\U5dde\\U5e02\";\n            ccc = 0;\n            city = \"\\U5e7f\\U5dde\\U5e02\";\n            cmc = 2;\n            content =             (\n                                {\n                    c = \" \\U8c22\\U8c22\";\n                }\n            );\n            ia = 1;\n            id = 5284725;\n            \"ip_address_location\" = \"\";\n            like = 0;\n            \"like_count\" = 0;\n            \"reply_id\" = 5279121;\n            \"reply_user\" =             {\n                \"followers_count_text\" = \"\";\n                id = 18527844;\n                \"is_prime\" = 0;\n                lv = 0;\n                lvl = 3;\n                n = \"\\U871c\\U7cd6\\U6de1\\U6de1\";\n                p = \"http:\/\/tx1.douguo.net\/upload\/photo\/1\/c\/1\/70_u73770467479263110413.jpg\";\n                \"progress_image\" = \"\";\n                \"recipes_count_text\" = \"\";\n                relationship = \"-1\";\n                title = \"\";\n                v = 0;\n                \"verified_image\" = \"\";\n            };\n            \"sticker_icon\" =             (\n            );\n            time = \"2018-01-12 07:26:53\";\n            u =             {\n                \"followers_count_text\" = \"\";\n                id = 19985876;\n                \"is_prime\" = 0;\n                lv = 0;\n                lvl = 5;\n                n = \"\\U5c0f\\U68ee\\U7684\\U5988\\U5988\";\n                p = \"http:\/\/tx1.douguo.net\/upload\/photo\/7\/2\/1\/70_u91364387615205261741.jpg\";\n                \"progress_image\" = \"\";\n                \"recipes_count_text\" = \"\";\n                relationship = \"-1\";\n                title = \"\";\n                v = 0;\n                \"verified_image\" = \"\";\n            };\n        }\n    );\n    city = \"\";\n    cmc = 2;\n    content =     (\n                {\n            c = \"\\U597d\\U68d2\\Uff0c\\U5411\\U4f60\\U5b66\\U4e60\\U554a\";\n        }\n    );\n    ia = 0;\n    id = 5279121;\n    \"ip_address_location\" = \"\";\n    like = 0;\n    \"like_count\" = 0;\n    \"reply_id\" = 0;\n    \"sticker_icon\" =     (\n    );\n    time = \"2018-01-11 02:06:31\";\n    u =     {\n        \"followers_count_text\" = \"\";\n        id = 18527844;\n        \"is_prime\" = 0;\n        lv = 0;\n        lvl = 3;\n        n = \"\\U871c\\U7cd6\\U6de1\\U6de1\";\n        p = \"http:\/\/tx1.douguo.net\/upload\/photo\/1\/c\/1\/70_u73770467479263110413.jpg\";\n        \"progress_image\" = \"\";\n        \"recipes_count_text\" = \"\";\n        relationship = \"-1\";\n        title = \"\";\n        v = 0;\n        \"verified_image\" = \"\";\n    };\n}"
      ],
      "hqu" : "recipes:\/\/www.douguo.com\/notedetail?id=21162253",
      "rpt" : "",
      "rpst" : "",
      "rcs" : [

      ],
      "vc" : "38145",
      "ipci" : "",
      "favo_counts" : 187,
      "notes" : [

      ],
      "title_ad" : [

      ],
      "ipit" : 0,
      "ipt" : "",
      "levelid" : 2,
      "dishes" : [

      ],
      "cookstep" : [
        {
          "content" : "准备好所需的食材。",
          "frame" : "-1",
          "image_height" : 667,
          "thumb" : "https:\/\/i1.douguo.com\/upload\/caiku\/6\/0\/3\/140_60665a018fbd5dae774b23c48c73a9a3.png",
          "image" : "https:\/\/i1.douguo.com\/upload\/caiku\/6\/0\/3\/60665a018fbd5dae774b23c48c73a9a3.png",
          "position" : 1,
          "image_width" : 954
        },
        {
          "position" : 2,
          "image_width" : 957,
          "content" : "鹌鹑、瘦肉加姜片焯水备用。",
          "image" : "https:\/\/i1.douguo.com\/upload\/caiku\/7\/c\/e\/7cf9ddfa742f4ae42c8aaaa0852e3f7e.png",
          "thumb" : "https:\/\/i1.douguo.com\/upload\/caiku\/7\/c\/e\/140_7cf9ddfa742f4ae42c8aaaa0852e3f7e.png",
          "image_height" : 663,
          "frame" : "-1"
        },
        {
          "frame" : "-1",
          "thumb" : "https:\/\/i1.douguo.com\/upload\/caiku\/b\/7\/e\/140_b75f87ab8e6ccafcbe77541d34207b5e.png",
          "content" : "处理好的肉类放入炖盅内，放入姜片辟腥，加入适量的水。",
          "position" : 3,
          "image" : "https:\/\/i1.douguo.com\/upload\/caiku\/b\/7\/e\/b75f87ab8e6ccafcbe77541d34207b5e.png",
          "image_height" : 655,
          "image_width" : 929
        },
        {
          "content" : "悉数加入其他配料。",
          "image" : "https:\/\/i1.douguo.com\/upload\/caiku\/7\/d\/0\/7d9c5c927e988517145269d9127d2bf0.png",
          "position" : 4,
          "frame" : "-1",
          "image_width" : 1002,
          "image_height" : 665,
          "thumb" : "https:\/\/i1.douguo.com\/upload\/caiku\/7\/d\/0\/140_7d9c5c927e988517145269d9127d2bf0.png"
        },
        {
          "frame" : "-1",
          "image" : "https:\/\/i1.douguo.com\/upload\/caiku\/a\/6\/7\/a654af1518e557b04f77cb37a94ed797.png",
          "image_height" : 652,
          "thumb" : "https:\/\/i1.douguo.com\/upload\/caiku\/a\/6\/7\/140_a654af1518e557b04f77cb37a94ed797.png",
          "image_width" : 865,
          "content" : "炖2个小时。",
          "position" : 5
        },
        {
          "image" : "https:\/\/i1.douguo.com\/upload\/caiku\/4\/c\/3\/4c31c84fe451b0da2bd975ca27e300b3.png",
          "image_width" : 879,
          "frame" : "-1",
          "position" : 6,
          "image_height" : 674,
          "thumb" : "https:\/\/i1.douguo.com\/upload\/caiku\/4\/c\/3\/140_4c31c84fe451b0da2bd975ca27e300b3.png",
          "content" : "加入适量的盐，即可饮用。\n参味很足，喝上一碗，顿时温暖。"
        }
      ],
      "recipe_list_tags" : [
        {
          "text_color" : "#141515",
          "background_start_color" : "#F4F5F5",
          "jump_url" : "",
          "right_image" : "",
          "background_end_color" : "#F4F5F5",
          "background_border_color" : "",
          "text" : "关注的人"
        },
        {
          "background_end_color" : "#F4F5F5",
          "text_color" : "#141515",
          "background_border_color" : "",
          "background_start_color" : "#F4F5F5",
          "jump_url" : "",
          "text" : "内容详细",
          "right_image" : ""
        }
      ],
      "image" : "http:\/\/i1.douguo.net\/upload\/caiku\/d\/8\/f\/300_d88d43a333e2a2963a5336fd569f75df.png",
      "ecs" : 1,
      "favo_counts_text" : "187",
      "tips" : "加瘦肉起到提鲜的作用。\n_______________________________________________\n\n如果不懂可以加我微信，我可以分享和教导。\n微信：xiaosendemama1",
      "author" : "小森的妈妈",
      "btm_dsp" : [

      ],
      "dish_count" : 0,
      "thumb_path" : "https:\/\/i1.douguo.com\/upload\/caiku\/d\/8\/f\/300_d88d43a333e2a2963a5336fd569f75df.png",
      "rrpt" : "",
      "create_time" : "2017-12-14 19:19:24",
      "rdsps" : [

      ],
      "user" : {
        "mobile" : "",
        "diaries_count" : 0,
        "dishes_count" : 0,
        "user_photo" : "http:\/\/tx1.douguo.net\/upload\/photo\/7\/2\/1\/70_u91364387615205261741.jpg",
        "avatar_medium" : "http:\/\/tx1.douguo.net\/upload\/photo\/7\/2\/1\/140_u91364387615205261741.jpg",
        "favor_diaries_count" : 0,
        "verified_image" : "",
        "email" : "",
        "point" : 0,
        "qzone_nick" : "",
        "is_prime" : 0,
        "user_large_photo" : "http:\/\/tx1.douguo.net\/upload\/photo\/7\/2\/1\/yuan_u91364387615205261741.jpg",
        "subscription_article_count" : 0,
        "fc" : 0,
        "birthday" : "",
        "location" : 0,
        "following_count" : 0,
        "nick" : "小森的妈妈",
        "weibo_nick" : "",
        "pc" : 0,
        "gender" : 2,
        "introduction" : "",
        "verified_url" : "https:\/\/m.douguo.com\/user\/prodesc",
        "recipes_count" : 0,
        "lv" : 0,
        "coursecount" : 0,
        "subscription" : 0,
        "regist_time" : "",
        "age" : "",
        "sign" : "",
        "qq_weibo_nick" : "",
        "lvl" : 5,
        "progress_image" : "",
        "verified" : 0,
        "userid" : "19985876",
        "favorites_count" : 0,
        "followers_count" : 0,
        "setted_email" : 0,
        "user_cover" : "",
        "user_id" : "19985876"
      },
      "cookwares" : [

      ],
      "hq" : 1,
      "recommend_label" : "3.8万人看过",
      "rips" : 0,
      "recipe_tags" : [

      ],
      "vfurl" : "",
      "ipoi" : "",
      "views_count_text" : "3.8万",
      "author_id" : 19985876,
      "ipurl" : "",
      "packages_id" : [

      ],
      "rrps" : [

      ],
      "recommendation_tag" : "",
      "ssu" : "",
      "photo_path" : "https:\/\/i1.douguo.com\/upload\/caiku\/d\/8\/f\/600_d88d43a333e2a2963a5336fd569f75df.png",
      "tags" : [

      ],
      "su" : "",
      "ph" : 669,
      "recommended" : 0,
      "vu" : "",
      "guide_image" : "",
      "rate" : 0,
      "rsm" : "该功能暂停使用",
      "original_photo_path" : "http:\/\/i1.douguo.net\/upload\/caiku\/d\/8\/f\/yuan_d88d43a333e2a2963a5336fd569f75df.png",
      "bs" : [

      ],
      "ipia" : [

      ],
      "release_time" : "",
      "act_des" : "",
      "share_info" : {
        "mini_program" : [

        ],
        "qr_image" : "",
        "s_u" : "http:\/\/m.douguo.com\/cookbook\/1635367.html",
        "s_d" : "【小森妈妈菜谱】冬季滋补-高丽参炖鹌鹑-会做饭很酷!",
        "object_id" : "1635367",
        "infos" : [
          {
            "s_u" : "",
            "object_id" : "1635367",
            "image" : "https:\/\/cp1.douguo.com\/upload\/caiku\/d\/8\/f\/d88d43a333e2a2963a5336fd569f75df.png",
            "qr_image" : "",
            "mini_program" : [

            ],
            "channel" : "1",
            "name" : "【小森妈妈菜谱】冬季滋补-高丽参炖鹌鹑-会做饭很酷!",
            "s_d" : "#学做饭用豆果美食# 会做饭好酷啊！我在@豆果美食 分享了【【小森妈妈菜谱】冬季滋补-高丽参炖鹌鹑-会做饭很酷!】，今天也是厨艺满满的一天呢，快来和我一起学做美食吧！查看图片了解菜谱（更多美食秘籍点击https:\/\/m.weibo.cn\/p\/100404i33631获取）"
          },
          {
            "name" : "【小森妈妈菜谱】冬季滋补-高丽参炖鹌鹑-会做饭很酷!",
            "channel" : "7",
            "image" : "https:\/\/cp1.douguo.com\/upload\/caiku\/d\/8\/f\/d88d43a333e2a2963a5336fd569f75df.png",
            "s_u" : "http:\/\/m.douguo.com\/cookbook\/1635367.html",
            "mini_program" : [

            ],
            "object_id" : "1635367",
            "s_d" : "【小森妈妈菜谱】冬季滋补-高丽参炖鹌鹑-会做饭很酷!",
            "qr_image" : ""
          },
          {
            "object_id" : "1635367",
            "name" : "【小森妈妈菜谱】冬季滋补-高丽参炖鹌鹑-会做饭很酷!",
            "mini_program" : [

            ],
            "channel" : "8",
            "qr_image" : "",
            "s_u" : "http:\/\/m.douguo.com\/cookbook\/1635367.html",
            "s_d" : "【小森妈妈菜谱】冬季滋补-高丽参炖鹌鹑-会做饭很酷!",
            "image" : "https:\/\/cp1.douguo.com\/upload\/caiku\/d\/8\/f\/d88d43a333e2a2963a5336fd569f75df.png"
          }
        ],
        "name" : "【小森妈妈菜谱】冬季滋补-高丽参炖鹌鹑-会做饭很酷!",
        "image" : "https:\/\/cp1.douguo.com\/upload\/caiku\/d\/8\/f\/d88d43a333e2a2963a5336fd569f75df.png"
      },
      "recent_comments" : [

      ],
      "cook_difficulty" : "切墩(初级)",
      "rpid" : 0,
      "cookstorys" : [
        {
          "c" : "秋冬季节，大家都习惯会吃一些滋补的东西增强体质，高丽参是其中一个很好的选择，推荐大家试试这道高丽参炖鹌鹑，滋阴补血，也适合老年人饮用。\n_______________________________________________\n\n如果不懂可以加我微信，我可以分享和教导。\n微信：xiaosendemama1",
          "u" : "",
          "color" : "",
          "icon" : "",
          "id" : 0,
          "type" : 0
        }
      ],
      "title" : "【小森妈妈菜谱】冬季滋补-高丽参炖鹌鹑",
      "cook_id" : "1635367",
      "rewarded_video_dsp" : [

      ],
      "story_dsp" : [

      ],
      "author_photo" : "http:\/\/tx1.douguo.net\/upload\/photo\/7\/2\/1\/70_u91364387615205261741.jpg",
      "comments_count_text" : "14",
      "clicks" : "33430",
      "purl" : "",
      "thumb_height" : 0,
      "top_mdsp" : [

      ],
      "major" : [
        {
          "title" : "高丽参",
          "note" : "适量"
        },
        {
          "title" : "鹌鹑",
          "tu" : "https:\/\/m.douguo.com\/ingredients\/鹌鹑\/detailmaterial",
          "note" : "1只"
        },
        {
          "title" : "淮山",
          "note" : "适量"
        },
        {
          "tu" : "https:\/\/m.douguo.com\/ingredients\/芡实\/detailmaterial",
          "title" : "芡实",
          "note" : "适量"
        },
        {
          "note" : "适量",
          "title" : "枸杞",
          "tu" : "https:\/\/m.douguo.com\/ingredients\/枸杞\/detailmaterial"
        },
        {
          "tu" : "https:\/\/m.douguo.com\/ingredients\/瘦肉\/detailmaterial",
          "title" : "瘦肉",
          "note" : "约200克"
        },
        {
          "tu" : "https:\/\/m.douguo.com\/ingredients\/姜片\/detailmaterial",
          "note" : "适量",
          "title" : "姜片"
        }
      ],
      "dish_count_text" : "",
      "author_verified" : 0,
      "ss" : [

      ],
      "cook_time" : "1小时以上",
      "rate_show" : 0,
      "brand_day_dsp" : [

      ],
      "comments_count" : 14,
      "first_level_comment_count" : 6,
      "rate_count" : 0,
      "v_u" : "",
      "pw" : 957
    }
  }
}