{
  "result" : {
    "recipe" : {
      "cook_difficulty" : "",
      "old_comments" : [

      ],
      "ipit" : 0,
      "author_photo" : "http:\/\/tx1.douguo.net\/upload\/photo\/6\/1\/e\/70_u10870849966387230707.jpg",
      "brand_day_dsp" : [

      ],
      "ipt" : "",
      "ph" : 1134,
      "recent_comments" : [

      ],
      "cookstep" : [
        {
          "image_width" : 800,
          "frame" : "-1",
          "content" : "准备好食材，面粉，火龙果",
          "position" : 1,
          "image" : "https:\/\/i1.douguo.com\/upload\/caiku\/4\/6\/b\/4668dc18ddf9fa9ba0cbba6ac765e76b.jpg",
          "image_height" : 623,
          "thumb" : "https:\/\/i1.douguo.com\/upload\/caiku\/4\/6\/b\/140_4668dc18ddf9fa9ba0cbba6ac765e76b.jpg"
        },
        {
          "image_height" : 1067,
          "frame" : "-1",
          "content" : "用纱布包住火龙果",
          "thumb" : "https:\/\/i1.douguo.com\/upload\/caiku\/6\/9\/b\/140_69595c9b18bc16ee0e9188039555c55b.jpg",
          "image_width" : 800,
          "image" : "https:\/\/i1.douguo.com\/upload\/caiku\/6\/9\/b\/69595c9b18bc16ee0e9188039555c55b.jpg",
          "position" : 2
        },
        {
          "thumb" : "https:\/\/i1.douguo.com\/upload\/caiku\/5\/f\/4\/140_5f060503b6370636a16689802813c944.jpg",
          "content" : "挤吃汁",
          "image_height" : 847,
          "image" : "https:\/\/i1.douguo.com\/upload\/caiku\/5\/f\/4\/5f060503b6370636a16689802813c944.jpg",
          "image_width" : 800,
          "position" : 3,
          "frame" : "-1"
        },
        {
          "thumb" : "https:\/\/i1.douguo.com\/upload\/caiku\/b\/9\/7\/140_b9f9c71c88dfeafd3deac18a489a9847.jpg",
          "position" : 4,
          "content" : "汁有蛮多的",
          "frame" : "-1",
          "image_width" : 1620,
          "image_height" : 1116,
          "image" : "https:\/\/i1.douguo.com\/upload\/caiku\/b\/9\/7\/b9f9c71c88dfeafd3deac18a489a9847.jpg"
        },
        {
          "image" : "https:\/\/i1.douguo.com\/upload\/caiku\/f\/0\/3\/f02c3c7dcb2795f455379e78a83fe1e3.jpg",
          "frame" : "-1",
          "position" : 5,
          "content" : "面粉加入45g汁用筷子搅成絮状，看面粉的吸水情况，",
          "thumb" : "https:\/\/i1.douguo.com\/upload\/caiku\/f\/0\/3\/140_f02c3c7dcb2795f455379e78a83fe1e3.jpg",
          "image_width" : 800,
          "image_height" : 1067
        },
        {
          "image_width" : 800,
          "content" : "揉成一个不沾手光滑的面团，醒20分钟",
          "position" : 6,
          "image_height" : 1067,
          "frame" : "-1",
          "image" : "https:\/\/i1.douguo.com\/upload\/caiku\/d\/f\/8\/dfa6263f4f4b29c5cdbb1ea1c27eabb8.jpg",
          "thumb" : "https:\/\/i1.douguo.com\/upload\/caiku\/d\/f\/8\/140_dfa6263f4f4b29c5cdbb1ea1c27eabb8.jpg"
        },
        {
          "image_width" : 800,
          "image" : "https:\/\/i1.douguo.com\/upload\/caiku\/1\/1\/f\/11b833aaff90f57f5a8ba79865f4688f.jpg",
          "frame" : "-1",
          "image_height" : 1067,
          "content" : "撮条",
          "position" : 7,
          "thumb" : "https:\/\/i1.douguo.com\/upload\/caiku\/1\/1\/f\/140_11b833aaff90f57f5a8ba79865f4688f.jpg"
        },
        {
          "image_height" : 1620,
          "thumb" : "https:\/\/i1.douguo.com\/upload\/caiku\/0\/4\/3\/140_047f1608335afdc325b83be271ac8883.jpg",
          "position" : 8,
          "frame" : "-1",
          "content" : "切小丁",
          "image" : "https:\/\/i1.douguo.com\/upload\/caiku\/0\/4\/3\/047f1608335afdc325b83be271ac8883.jpg",
          "image_width" : 1215
        },
        {
          "content" : "撒点粉，按一下，对半切一下，就像猫耳朵了",
          "image_height" : 1620,
          "image" : "https:\/\/i1.douguo.com\/upload\/caiku\/c\/0\/c\/c09ef6df53748473c635d9088d1cff7c.jpg",
          "image_width" : 1215,
          "thumb" : "https:\/\/i1.douguo.com\/upload\/caiku\/c\/0\/c\/140_c09ef6df53748473c635d9088d1cff7c.jpg",
          "position" : 9,
          "frame" : "-1"
        },
        {
          "thumb" : "https:\/\/i1.douguo.com\/upload\/caiku\/a\/f\/5\/140_af4dfd5bd11a37def3d6f8f536eac895.jpg",
          "image" : "https:\/\/i1.douguo.com\/upload\/caiku\/a\/f\/5\/af4dfd5bd11a37def3d6f8f536eac895.jpg",
          "frame" : "-1",
          "image_width" : 800,
          "image_height" : 1067,
          "position" : 10,
          "content" : "放到寿司帘按一下"
        },
        {
          "position" : 11,
          "frame" : "-1",
          "image_height" : 676,
          "image" : "https:\/\/i1.douguo.com\/upload\/caiku\/7\/8\/f\/7875275510cb5effbdc0bd2535b36c3f.jpg",
          "image_width" : 800,
          "thumb" : "https:\/\/i1.douguo.com\/upload\/caiku\/7\/8\/f\/140_7875275510cb5effbdc0bd2535b36c3f.jpg",
          "content" : "有点像贝壳了"
        },
        {
          "image_width" : 800,
          "frame" : "-1",
          "thumb" : "https:\/\/i1.douguo.com\/upload\/caiku\/6\/2\/3\/140_621f228399559f63d9a595a729f25743.jpg",
          "image" : "https:\/\/i1.douguo.com\/upload\/caiku\/6\/2\/3\/621f228399559f63d9a595a729f25743.jpg",
          "image_height" : 1067,
          "position" : 12,
          "content" : "做好了，晒干可以吃几次，"
        },
        {
          "image_width" : 800,
          "content" : "这是白色面团加红色面团，擀成一个大薄片",
          "image_height" : 1067,
          "image" : "https:\/\/i1.douguo.com\/upload\/caiku\/5\/7\/e\/573d681f47400180e8177bb5e33d1e4e.jpg",
          "frame" : "-1",
          "position" : 13,
          "thumb" : "https:\/\/i1.douguo.com\/upload\/caiku\/5\/7\/e\/140_573d681f47400180e8177bb5e33d1e4e.jpg"
        },
        {
          "image" : "https:\/\/i1.douguo.com\/upload\/caiku\/4\/e\/9\/4ec289758ee636b0edb2ebd8b78aca79.jpg",
          "frame" : "-1",
          "position" : 14,
          "content" : "用可乐盖子，盖一个圈",
          "thumb" : "https:\/\/i1.douguo.com\/upload\/caiku\/4\/e\/9\/140_4ec289758ee636b0edb2ebd8b78aca79.jpg",
          "image_width" : 1215,
          "image_height" : 1620
        },
        {
          "image_height" : 1067,
          "image_width" : 800,
          "thumb" : "https:\/\/i1.douguo.com\/upload\/caiku\/6\/3\/f\/140_6307935f1204357f419c4a6e5929e06f.jpg",
          "content" : "盖完啦",
          "image" : "https:\/\/i1.douguo.com\/upload\/caiku\/6\/3\/f\/6307935f1204357f419c4a6e5929e06f.jpg",
          "position" : 15,
          "frame" : "-1"
        },
        {
          "content" : "用筷子夹一下，不要太用力，不然断咯。还有就是煮的时候不好熟",
          "frame" : "-1",
          "image" : "https:\/\/i1.douguo.com\/upload\/caiku\/f\/5\/3\/f5de0cffe5f0a4cb1eda1fdce9f1c293.jpg",
          "thumb" : "https:\/\/i1.douguo.com\/upload\/caiku\/f\/5\/3\/140_f5de0cffe5f0a4cb1eda1fdce9f1c293.jpg",
          "position" : 16,
          "image_width" : 800,
          "image_height" : 1067
        },
        {
          "content" : "蝴蝶结",
          "image_height" : 1067,
          "frame" : "-1",
          "thumb" : "https:\/\/i1.douguo.com\/upload\/caiku\/f\/a\/b\/140_fa078298db920906db37ab5dcab5478b.jpg",
          "image" : "https:\/\/i1.douguo.com\/upload\/caiku\/f\/a\/b\/fa078298db920906db37ab5dcab5478b.jpg",
          "image_width" : 800,
          "position" : 17
        },
        {
          "image_height" : 1067,
          "frame" : "-1",
          "content" : "晒干 可以保存久一些",
          "position" : 18,
          "thumb" : "https:\/\/i1.douguo.com\/upload\/caiku\/a\/a\/f\/140_aa9ea462a0d13057ad3bc96a8badaa1f.jpg",
          "image" : "https:\/\/i1.douguo.com\/upload\/caiku\/a\/a\/f\/aa9ea462a0d13057ad3bc96a8badaa1f.jpg",
          "image_width" : 800
        },
        {
          "position" : 19,
          "frame" : "-1",
          "image_width" : 800,
          "image_height" : 1067,
          "content" : "冷水放入锅子煮，煮3次，3次这么多水煮干就熟了",
          "thumb" : "https:\/\/i1.douguo.com\/upload\/caiku\/2\/f\/2\/140_2fbd8c931a971bbf11fe3b5376f13f12.jpg",
          "image" : "https:\/\/i1.douguo.com\/upload\/caiku\/2\/f\/2\/2fbd8c931a971bbf11fe3b5376f13f12.jpg"
        },
        {
          "image_width" : 800,
          "content" : "放入一点点青菜，一点点盐就好啦，可以加鸡蛋呀，肉末什么的，我为了摆盘，什么也不加了",
          "image" : "https:\/\/i1.douguo.com\/upload\/caiku\/9\/9\/a\/997825ebdc34a45547c22a1055b2366a.jpg",
          "thumb" : "https:\/\/i1.douguo.com\/upload\/caiku\/9\/9\/a\/140_997825ebdc34a45547c22a1055b2366a.jpg",
          "position" : 20,
          "frame" : "-1",
          "image_height" : 1067
        },
        {
          "image_height" : 724,
          "position" : 21,
          "content" : "摆成一朵小花。。宝宝喜欢",
          "image" : "https:\/\/i1.douguo.com\/upload\/caiku\/7\/6\/d\/7625bda2ad411f3845d1a4d46c1d220d.jpg",
          "thumb" : "https:\/\/i1.douguo.com\/upload\/caiku\/7\/6\/d\/140_7625bda2ad411f3845d1a4d46c1d220d.jpg",
          "image_width" : 800,
          "frame" : "-1"
        },
        {
          "content" : "一口一口吃掉小花儿",
          "image_width" : 800,
          "image" : "https:\/\/i1.douguo.com\/upload\/caiku\/6\/c\/6\/6c59a6d6bdeb5e62b183a268714b3c76.jpg",
          "frame" : "-1",
          "thumb" : "https:\/\/i1.douguo.com\/upload\/caiku\/6\/c\/6\/140_6c59a6d6bdeb5e62b183a268714b3c76.jpg",
          "image_height" : 1067,
          "position" : 22
        },
        {
          "position" : 23,
          "content" : "猴猴食",
          "frame" : "-1",
          "image_width" : 800,
          "image" : "https:\/\/i1.douguo.com\/upload\/caiku\/b\/c\/b\/bc03ed2236a002e6f657f9e5066de68b.jpg",
          "thumb" : "https:\/\/i1.douguo.com\/upload\/caiku\/b\/c\/b\/140_bc03ed2236a002e6f657f9e5066de68b.jpg",
          "image_height" : 1067
        }
      ],
      "recipe_list_tags" : [
        {
          "background_end_color" : "#F4F5F5",
          "jump_url" : "",
          "background_start_color" : "#F4F5F5",
          "right_image" : "",
          "background_border_color" : "",
          "text" : "关注的人",
          "text_color" : "#141515"
        },
        {
          "text" : "内容详细",
          "right_image" : "",
          "text_color" : "#141515",
          "background_end_color" : "#F4F5F5",
          "background_border_color" : "",
          "background_start_color" : "#F4F5F5",
          "jump_url" : ""
        }
      ],
      "purl" : "",
      "vfurl" : "",
      "rrpt" : "",
      "ipurl" : "",
      "author" : "一笑＆而过",
      "recommendation_tag" : "",
      "ssu" : "",
      "top_mdsp" : [

      ],
      "thumb_height" : 0,
      "cookwares" : [

      ],
      "collect_status" : 0,
      "cook_id" : "1575235",
      "recommended" : 0,
      "v_u" : "",
      "hqu" : "recipes:\/\/www.douguo.com\/notedetail?id=21162253",
      "dish_count" : 0,
      "story_dsp" : [

      ],
      "ecs" : 0,
      "vc" : "25020",
      "tips" : "面片可以做薄一点，太厚很难煮熟的哟。",
      "guide_image" : "",
      "ipoi" : "",
      "minor" : [

      ],
      "rpid" : 0,
      "image" : "http:\/\/i1.douguo.net\/upload\/caiku\/a\/d\/2\/300_ad85880f4d6b9108ca533b4d451f6342.jpg",
      "rate" : 0,
      "clicks" : "22121",
      "cookstory" : "偶尔给宝宝做面食吃，要是给宝宝吃长面条 有时候不小心会卡到，心疼死我了，我就给她做面片，一口一个，吃的很欢。这次做红色火龙果汁的面片，颜色鲜艳，宝宝喜欢，健康 营养 安全",
      "rips" : 0,
      "share_info" : {
        "image" : "https:\/\/cp1.douguo.com\/upload\/caiku\/a\/d\/2\/ad85880f4d6b9108ca533b4d451f6342.jpg",
        "s_u" : "http:\/\/m.douguo.com\/cookbook\/1575235.html",
        "qr_image" : "",
        "s_d" : "猫耳朵面&amp;蝴蝶面片#嘉宝笑容厨房#-会做饭很酷!",
        "name" : "猫耳朵面&amp;蝴蝶面片#嘉宝笑容厨房#-会做饭很酷!",
        "object_id" : "1575235",
        "infos" : [
          {
            "name" : "猫耳朵面&amp;蝴蝶面片#嘉宝笑容厨房#-会做饭很酷!",
            "s_u" : "",
            "s_d" : "#学做饭用豆果美食# 我在@豆果美食 分享了【猫耳朵面&amp;蝴蝶面片#嘉宝笑容厨房#-会做饭很酷!】，帅哥美眉们～你们喜欢的美食来咯！快来跟我一起做吧～查看图片了解菜谱（想要获取更多美食就看这https:\/\/m.weibo.cn\/p\/100404i33631）#会做饭很酷#",
            "object_id" : "1575235",
            "channel" : "1",
            "mini_program" : [

            ],
            "qr_image" : "",
            "image" : "https:\/\/cp1.douguo.com\/upload\/caiku\/a\/d\/2\/ad85880f4d6b9108ca533b4d451f6342.jpg"
          },
          {
            "image" : "https:\/\/cp1.douguo.com\/upload\/caiku\/a\/d\/2\/ad85880f4d6b9108ca533b4d451f6342.jpg",
            "qr_image" : "",
            "mini_program" : [

            ],
            "object_id" : "1575235",
            "name" : "猫耳朵面&amp;蝴蝶面片#嘉宝笑容厨房#-会做饭很酷!",
            "channel" : "7",
            "s_u" : "http:\/\/m.douguo.com\/cookbook\/1575235.html",
            "s_d" : "猫耳朵面&amp;蝴蝶面片#嘉宝笑容厨房#-会做饭很酷!"
          },
          {
            "s_u" : "http:\/\/m.douguo.com\/cookbook\/1575235.html",
            "mini_program" : [

            ],
            "object_id" : "1575235",
            "s_d" : "猫耳朵面&amp;蝴蝶面片#嘉宝笑容厨房#-会做饭很酷!",
            "name" : "猫耳朵面&amp;蝴蝶面片#嘉宝笑容厨房#-会做饭很酷!",
            "channel" : "8",
            "qr_image" : "",
            "image" : "https:\/\/cp1.douguo.com\/upload\/caiku\/a\/d\/2\/ad85880f4d6b9108ca533b4d451f6342.jpg"
          }
        ],
        "mini_program" : [

        ]
      },
      "dish_count_text" : "",
      "related_ads" : [

      ],
      "major" : [
        {
          "note" : "150g",
          "title" : "普通面粉"
        },
        {
          "note" : "45g",
          "title" : "红色火龙果汁"
        },
        {
          "note" : "一个",
          "title" : "红色火龙果"
        },
        {
          "note" : "一点点",
          "title" : "盐",
          "tu" : "https:\/\/m.douguo.com\/ingredients\/盐\/detailmaterial"
        },
        {
          "note" : "3小碗",
          "tu" : "https:\/\/m.douguo.com\/ingredients\/水\/detailmaterial",
          "title" : "水"
        },
        {
          "note" : "几片",
          "title" : "木耳菜",
          "tu" : "https:\/\/m.douguo.com\/ingredients\/木耳菜\/detailmaterial"
        }
      ],
      "packages_id" : [

      ],
      "sc" : 0,
      "ipia" : [

      ],
      "recipe_tags" : [

      ],
      "cookstorys" : [
        {
          "id" : 0,
          "icon" : "",
          "type" : 0,
          "c" : "偶尔给宝宝做面食吃，要是给宝宝吃长面条 有时候不小心会卡到，心疼死我了，我就给她做面片，一口一个，吃的很欢。这次做红色火龙果汁的面片，颜色鲜艳，宝宝喜欢，健康 营养 安全",
          "u" : "",
          "color" : ""
        }
      ],
      "thumb_path" : "https:\/\/i1.douguo.com\/upload\/caiku\/a\/d\/2\/300_ad85880f4d6b9108ca533b4d451f6342.jpg",
      "rpst" : "",
      "eu" : "recipes:\/\/www.douguo.com\/postdetail?id=242016",
      "pw" : 1350,
      "views_count_text" : "2.5万",
      "recommend_label" : "2.5万人看过",
      "ipci" : "",
      "title_ad" : [

      ],
      "author_id" : 5778090,
      "notes" : [

      ],
      "rewarded_video_dsp" : [

      ],
      "comments_count_text" : "66",
      "cook_time_image" : "",
      "rate_show" : 0,
      "tags" : [

      ],
      "levelid" : 2,
      "photo_path" : "https:\/\/i1.douguo.com\/upload\/caiku\/a\/d\/2\/600_ad85880f4d6b9108ca533b4d451f6342.jpg",
      "comments" : [
        "{\n    ac = \"#999999\";\n    at = \"\";\n    ccc = 1;\n    \"child_comments\" =     (\n                {\n            ac = \"#999999\";\n            at = \"\";\n            ccc = 0;\n            city = \"\";\n            cmc = 2;\n            content =             (\n                                {\n                    c = \" \\U8c22\\U8c22\\U4eb2\\U7231\\U54d2\";\n                }\n            );\n            ia = 1;\n            id = 4893707;\n            \"ip_address_location\" = \"\";\n            like = 0;\n            \"like_count\" = 0;\n            \"reply_id\" = 4893705;\n            \"reply_user\" =             {\n                \"followers_count_text\" = \"\";\n                id = 3912629;\n                \"is_prime\" = 0;\n                lv = 0;\n                lvl = 8;\n                n = \"\\U5c1d\\U5c1d\\U597d\\U5473\\U9053\";\n                p = \"http:\/\/tx1.douguo.net\/upload\/photo\/3\/c\/f\/70_u89686533279815013437.jpg\";\n                \"progress_image\" = \"\";\n                \"recipes_count_text\" = \"\";\n                relationship = \"-1\";\n                title = \"\";\n                v = 1;\n                \"verified_image\" = \"\";\n            };\n            \"sticker_icon\" =             (\n            );\n            time = \"2017-07-07 02:10:27\";\n            u =             {\n                \"followers_count_text\" = \"\";\n                id = 5778090;\n                \"is_prime\" = 0;\n                lv = 0;\n                lvl = 8;\n                n = \"\\U4e00\\U7b11\\Uff06\\U800c\\U8fc7\";\n                p = \"http:\/\/tx1.douguo.net\/upload\/photo\/6\/1\/e\/70_u10870849966387230707.jpg\";\n                \"progress_image\" = \"\";\n                \"recipes_count_text\" = \"\";\n                relationship = \"-1\";\n                title = \"\";\n                v = 1;\n                \"verified_image\" = \"\";\n            };\n        }\n    );\n    city = \"\";\n    cmc = 2;\n    content =     (\n                {\n            c = \"\\U6f02\\U4eae\";\n        }\n    );\n    ia = 0;\n    id = 4893705;\n    \"ip_address_location\" = \"\";\n    like = 0;\n    \"like_count\" = 0;\n    \"reply_id\" = 0;\n    \"sticker_icon\" =     (\n    );\n    time = \"2017-07-07 02:10:02\";\n    u =     {\n        \"followers_count_text\" = \"\";\n        id = 3912629;\n        \"is_prime\" = 0;\n        lv = 0;\n        lvl = 8;\n        n = \"\\U5c1d\\U5c1d\\U597d\\U5473\\U9053\";\n        p = \"http:\/\/tx1.douguo.net\/upload\/photo\/3\/c\/f\/70_u89686533279815013437.jpg\";\n        \"progress_image\" = \"\";\n        \"recipes_count_text\" = \"\";\n        relationship = \"-1\";\n        title = \"\";\n        v = 1;\n        \"verified_image\" = \"\";\n    };\n}",
        "{\n    ac = \"#999999\";\n    at = \"\";\n    ccc = 1;\n    \"child_comments\" =     (\n                {\n            ac = \"#999999\";\n            at = \"\";\n            ccc = 0;\n            city = \"\";\n            cmc = 2;\n            content =             (\n                                {\n                    c = \"  \\U7b80\\U5355  \\U505a\\U8d77\\U6765 \\U5403\\U8d77\\U6765\";\n                }\n            );\n            ia = 1;\n            id = 4893706;\n            \"ip_address_location\" = \"\";\n            like = 0;\n            \"like_count\" = 0;\n            \"reply_id\" = 4893668;\n            \"reply_user\" =             {\n                \"followers_count_text\" = \"\";\n                id = 18576614;\n                \"is_prime\" = 0;\n                lv = 0;\n                lvl = 3;\n                n = \"\\U559c\\U6b22\\U732b\\U7684\\U5973\\U5b50\";\n                p = \"http:\/\/tx1.douguo.net\/upload\/photo\/3\/f\/1\/70_u22507042051410409002851.jpg\";\n                \"progress_image\" = \"\";\n                \"recipes_count_text\" = \"\";\n                relationship = \"-1\";\n                title = \"\";\n                v = 0;\n                \"verified_image\" = \"\";\n            };\n            \"sticker_icon\" =             (\n            );\n            time = \"2017-07-07 02:10:10\";\n            u =             {\n                \"followers_count_text\" = \"\";\n                id = 5778090;\n                \"is_prime\" = 0;\n                lv = 0;\n                lvl = 8;\n                n = \"\\U4e00\\U7b11\\Uff06\\U800c\\U8fc7\";\n                p = \"http:\/\/tx1.douguo.net\/upload\/photo\/6\/1\/e\/70_u10870849966387230707.jpg\";\n                \"progress_image\" = \"\";\n                \"recipes_count_text\" = \"\";\n                relationship = \"-1\";\n                title = \"\";\n                v = 1;\n                \"verified_image\" = \"\";\n            };\n        }\n    );\n    city = \"\";\n    cmc = 2;\n    content =     (\n                {\n            c = \"\\U770b\\U7684\\U6211\\U53e3\\U6c34\\U54d7\\U54d7\\U6d41\\U4e00\\U5730\\U554a\";\n        }\n    );\n    ia = 0;\n    id = 4893668;\n    \"ip_address_location\" = \"\";\n    like = 0;\n    \"like_count\" = 0;\n    \"reply_id\" = 0;\n    \"sticker_icon\" =     (\n    );\n    time = \"2017-07-07 02:07:06\";\n    u =     {\n        \"followers_count_text\" = \"\";\n        id = 18576614;\n        \"is_prime\" = 0;\n        lv = 0;\n        lvl = 3;\n        n = \"\\U559c\\U6b22\\U732b\\U7684\\U5973\\U5b50\";\n        p = \"http:\/\/tx1.douguo.net\/upload\/photo\/3\/f\/1\/70_u22507042051410409002851.jpg\";\n        \"progress_image\" = \"\";\n        \"recipes_count_text\" = \"\";\n        relationship = \"-1\";\n        title = \"\";\n        v = 0;\n        \"verified_image\" = \"\";\n    };\n}",
        "{\n    ac = \"#999999\";\n    at = \"\";\n    ccc = 0;\n    \"child_comments\" =     (\n    );\n    city = \"\";\n    cmc = 2;\n    content =     (\n                {\n            c = \"\\U795e\\U5947\\U795e\\U5947 \\U5c45\\U7136\\U53ef\\U4ee5\\U8fd9\\U4e48\\U505a\";\n        }\n    );\n    ia = 0;\n    id = 5458674;\n    \"ip_address_location\" = \"\";\n    like = 0;\n    \"like_count\" = 0;\n    \"reply_id\" = 0;\n    \"sticker_icon\" =     (\n    );\n    time = \"2018-03-23 02:27:43\";\n    u =     {\n        \"followers_count_text\" = \"\";\n        id = 18572309;\n        \"is_prime\" = 0;\n        lv = 0;\n        lvl = 3;\n        n = \"\\U5f20\\U7ea2\\U65e5\\U662f\\U5927\\U53a8\";\n        p = \"http:\/\/tx1.douguo.net\/upload\/photo\/5\/b\/8\/70_u90093466341940091022.jpg\";\n        \"progress_image\" = \"\";\n        \"recipes_count_text\" = \"\";\n        relationship = \"-1\";\n        title = \"\";\n        v = 0;\n        \"verified_image\" = \"\";\n    };\n}"
      ],
      "ss" : [

      ],
      "favo_counts_text" : "427",
      "release_time" : "",
      "rcs" : [

      ],
      "mid_mdsp" : [

      ],
      "rpt" : "",
      "favo_counts" : 427,
      "vu" : "",
      "sr" : "",
      "first_level_comment_count" : 64,
      "author_verified" : 1,
      "display_ingredient" : 1,
      "rate_count" : 0,
      "su" : "",
      "event" : {
        "id" : 0
      },
      "bs" : [

      ],
      "btm_dsp" : [

      ],
      "rdsps" : [

      ],
      "rsm" : "该功能暂停使用",
      "act_des" : "",
      "comments_count" : 66,
      "create_time" : "2017-07-07 09:44:55",
      "user" : {
        "coursecount" : 0,
        "lv" : 0,
        "userid" : "5778090",
        "birthday" : "",
        "age" : "",
        "weibo_nick" : "",
        "user_photo" : "http:\/\/tx1.douguo.net\/upload\/photo\/6\/1\/e\/70_u10870849966387230707.jpg",
        "progress_image" : "",
        "pc" : 0,
        "diaries_count" : 0,
        "mobile" : "",
        "fc" : 0,
        "following_count" : 0,
        "point" : 0,
        "favorites_count" : 0,
        "favor_diaries_count" : 0,
        "is_prime" : 0,
        "verified" : 1,
        "avatar_medium" : "http:\/\/tx1.douguo.net\/upload\/photo\/6\/1\/e\/140_u10870849966387230707.jpg",
        "sign" : "",
        "subscription" : 0,
        "qq_weibo_nick" : "",
        "setted_email" : 0,
        "user_large_photo" : "http:\/\/tx1.douguo.net\/upload\/photo\/6\/1\/e\/yuan_u10870849966387230707.jpg",
        "verified_url" : "https:\/\/m.douguo.com\/user\/prodesc",
        "location" : 0,
        "user_cover" : "",
        "followers_count" : 0,
        "introduction" : "",
        "lvl" : 8,
        "gender" : 2,
        "qzone_nick" : "",
        "nick" : "一笑＆而过",
        "recipes_count" : 0,
        "regist_time" : "",
        "email" : "",
        "subscription_article_count" : 0,
        "dishes_count" : 0,
        "verified_image" : "https:\/\/i1.douguo.com\/upload\/note\/d\/a\/a\/da84247847aebe48d9dd0fcdac88862a.png",
        "user_id" : "5778090"
      },
      "cook_difficulty_image" : "",
      "title" : "猫耳朵面&蝴蝶面片",
      "dishes" : [

      ],
      "cook_time" : "",
      "hq" : 1,
      "original_photo_path" : "http:\/\/i1.douguo.net\/upload\/caiku\/a\/d\/2\/yuan_ad85880f4d6b9108ca533b4d451f6342.jpg",
      "rrps" : [

      ]
    }
  },
  "status" : 0,
  "state" : "success"
}