{
  "result" : {
    "recipe" : {
      "image" : "http:\/\/i1.douguo.net\/upload\/caiku\/c\/2\/d\/300_c2059dc2ba34180accc3056a33bbb9cd.jpeg",
      "title_ad" : [

      ],
      "ss" : [

      ],
      "eu" : "recipes:\/\/www.douguo.com\/postdetail?id=242016",
      "act_des" : "",
      "rewarded_video_dsp" : [

      ],
      "cook_id" : "1640981",
      "purl" : "",
      "levelid" : 2,
      "photo_path" : "https:\/\/i1.douguo.com\/upload\/caiku\/c\/2\/d\/600_c2059dc2ba34180accc3056a33bbb9cd.jpeg",
      "release_time" : "",
      "thumb_path" : "https:\/\/i1.douguo.com\/upload\/caiku\/c\/2\/d\/300_c2059dc2ba34180accc3056a33bbb9cd.jpeg",
      "advice" : {
        "at" : "是组织形成和生长的主要营养素～",
        "da" : {
          "t" : "查看详细分析",
          "iu" : "https:\/\/i1.douguo.com\/upload\/banner\/f\/4\/d\/f48877e53c37759bc12ac494be82ec8d.png",
          "url" : "https:\/\/m.douguo.com\/recipe\/nutrient_self\/1640981"
        },
        "has" : [
          {
            "url" : "recipes:\/\/www.douguo.com\/simplerecipelist?t=富含蛋白质&id=富含蛋白质",
            "t" : "富含蛋白质"
          },
          {
            "url" : "recipes:\/\/www.douguo.com\/simplerecipelist?t=富含维生素B2&id=富含维生素B2",
            "t" : "富含维生素B2"
          }
        ]
      },
      "rate_count" : 0,
      "btm_dsp" : [

      ],
      "ph" : 360,
      "cook_difficulty" : "掌勺(高级)",
      "cook_time" : "10-30分钟",
      "create_time" : "2018-01-03 00:31:55",
      "ipia" : [

      ],
      "display_ingredient" : 1,
      "dish_count_text" : "",
      "tips" : "郫县豆瓣酱很咸，蚝油里面也含有盐分，烧这道干煸黄鳝的时候，不需要另外再加盐！",
      "rpst" : "",
      "share_info" : {
        "name" : "干煸黄鳝-会做饭很酷!",
        "mini_program" : [

        ],
        "s_d" : "干煸黄鳝-会做饭很酷!",
        "s_u" : "http:\/\/m.douguo.com\/cookbook\/1640981.html",
        "image" : "https:\/\/cp1.douguo.com\/upload\/caiku\/c\/2\/d\/c2059dc2ba34180accc3056a33bbb9cd.jpeg",
        "infos" : [
          {
            "channel" : "1",
            "object_id" : "1640981",
            "s_d" : "#学做饭用豆果美食# 会做饭真是太酷了！我在@豆果美食 分享了【干煸黄鳝-会做饭很酷!】，看着是不是馋到不行呢～快来跟我学学吧！查看图片了解菜谱，（想要获取更多美食就看这https:\/\/m.weibo.cn\/p\/100404i33631）",
            "qr_image" : "",
            "mini_program" : [

            ],
            "image" : "https:\/\/cp1.douguo.com\/upload\/caiku\/c\/2\/d\/c2059dc2ba34180accc3056a33bbb9cd.jpeg",
            "name" : "干煸黄鳝-会做饭很酷!",
            "s_u" : ""
          },
          {
            "image" : "https:\/\/cp1.douguo.com\/upload\/caiku\/c\/2\/d\/c2059dc2ba34180accc3056a33bbb9cd.jpeg",
            "qr_image" : "",
            "name" : "干煸黄鳝-会做饭很酷!",
            "s_u" : "http:\/\/m.douguo.com\/cookbook\/1640981.html",
            "mini_program" : [

            ],
            "s_d" : "干煸黄鳝-会做饭很酷!",
            "channel" : "7",
            "object_id" : "1640981"
          },
          {
            "qr_image" : "",
            "name" : "干煸黄鳝-会做饭很酷!",
            "channel" : "8",
            "s_d" : "干煸黄鳝-会做饭很酷!",
            "mini_program" : [

            ],
            "s_u" : "http:\/\/m.douguo.com\/cookbook\/1640981.html",
            "image" : "https:\/\/cp1.douguo.com\/upload\/caiku\/c\/2\/d\/c2059dc2ba34180accc3056a33bbb9cd.jpeg",
            "object_id" : "1640981"
          }
        ],
        "object_id" : "1640981",
        "qr_image" : ""
      },
      "sc" : 0,
      "bs" : [

      ],
      "title" : "干煸黄鳝",
      "hq" : 1,
      "ipurl" : "",
      "favo_counts_text" : "648",
      "ssu" : "",
      "ipit" : 0,
      "sr" : "",
      "guide_image" : "",
      "vfurl" : "",
      "dish_count" : 0,
      "original_photo_path" : "http:\/\/i1.douguo.net\/upload\/caiku\/c\/2\/d\/yuan_c2059dc2ba34180accc3056a33bbb9cd.jpeg",
      "user" : {
        "verified_url" : "https:\/\/m.douguo.com\/user\/prodesc",
        "user_photo" : "http:\/\/tx1.douguo.net\/upload\/photo\/c\/5\/9\/70_c595f457498284d1ffcc8defceb0a919.jpg",
        "subscription_article_count" : 0,
        "user_cover" : "",
        "fc" : 0,
        "avatar_medium" : "http:\/\/tx1.douguo.net\/upload\/photo\/c\/5\/9\/140_c595f457498284d1ffcc8defceb0a919.jpg",
        "qq_weibo_nick" : "",
        "sign" : "",
        "introduction" : "",
        "gender" : 2,
        "progress_image" : "",
        "birthday" : "",
        "email" : "",
        "is_prime" : 0,
        "user_large_photo" : "http:\/\/tx1.douguo.net\/upload\/photo\/c\/5\/9\/yuan_c595f457498284d1ffcc8defceb0a919.jpg",
        "diaries_count" : 0,
        "pc" : 0,
        "lvl" : 7,
        "coursecount" : 0,
        "verified" : 1,
        "setted_email" : 0,
        "user_id" : "11694814",
        "age" : "",
        "lv" : 0,
        "userid" : "11694814",
        "qzone_nick" : "",
        "point" : 0,
        "dishes_count" : 0,
        "favor_diaries_count" : 0,
        "subscription" : 0,
        "verified_image" : "https:\/\/i1.douguo.com\/upload\/note\/d\/a\/a\/da84247847aebe48d9dd0fcdac88862a.png",
        "nick" : "果妈私房菜",
        "favorites_count" : 0,
        "regist_time" : "",
        "recipes_count" : 0,
        "location" : 0,
        "weibo_nick" : "",
        "followers_count" : 0,
        "mobile" : "",
        "following_count" : 0
      },
      "recommendation_tag" : "",
      "su" : "",
      "major" : [
        {
          "note" : "3条",
          "tu" : "https:\/\/m.douguo.com\/ingredients\/黄鳝\/detailmaterial",
          "title" : "黄鳝"
        },
        {
          "tu" : "https:\/\/m.douguo.com\/ingredients\/料酒\/detailmaterial",
          "note" : "2勺",
          "title" : "料酒"
        },
        {
          "note" : "2勺",
          "tu" : "https:\/\/m.douguo.com\/ingredients\/生抽\/detailmaterial",
          "title" : "生抽"
        },
        {
          "tu" : "https:\/\/m.douguo.com\/ingredients\/玉米淀粉\/detailmaterial",
          "title" : "玉米淀粉",
          "note" : "1勺"
        },
        {
          "note" : "3个",
          "tu" : "https:\/\/m.douguo.com\/ingredients\/蒜瓣\/detailmaterial",
          "title" : "蒜瓣"
        },
        {
          "title" : "生姜",
          "note" : "1块",
          "tu" : "https:\/\/m.douguo.com\/ingredients\/生姜\/detailmaterial"
        },
        {
          "title" : "花椒",
          "note" : "10克",
          "tu" : "https:\/\/m.douguo.com\/ingredients\/花椒\/detailmaterial"
        },
        {
          "note" : "10克",
          "title" : "干辣椒",
          "tu" : "https:\/\/m.douguo.com\/ingredients\/干辣椒\/detailmaterial"
        },
        {
          "note" : "1勺",
          "title" : "郫县豆瓣酱"
        },
        {
          "note" : "3颗",
          "tu" : "https:\/\/m.douguo.com\/ingredients\/芹菜\/detailmaterial",
          "title" : "芹菜"
        },
        {
          "title" : "耗油",
          "tu" : "https:\/\/m.douguo.com\/ingredients\/耗油\/detailmaterial",
          "note" : "1勺"
        },
        {
          "tu" : "https:\/\/m.douguo.com\/ingredients\/水\/detailmaterial",
          "title" : "水",
          "note" : "适量"
        },
        {
          "note" : "1勺",
          "tu" : "https:\/\/m.douguo.com\/ingredients\/鸡精\/detailmaterial",
          "title" : "鸡精"
        }
      ],
      "hqu" : "recipes:\/\/www.douguo.com\/notedetail?id=21162253",
      "rpid" : 0,
      "vc" : "138630",
      "ecs" : 0,
      "rate_show" : 0,
      "recipe_tags" : [

      ],
      "tags" : [

      ],
      "recipe_list_tags" : [
        {
          "text" : "关注的人",
          "right_image" : "",
          "background_border_color" : "",
          "text_color" : "#141515",
          "jump_url" : "",
          "background_start_color" : "#F4F5F5",
          "background_end_color" : "#F4F5F5"
        },
        {
          "text" : "内容详细",
          "jump_url" : "",
          "right_image" : "",
          "background_start_color" : "#F4F5F5",
          "background_end_color" : "#F4F5F5",
          "background_border_color" : "",
          "text_color" : "#141515"
        }
      ],
      "packages_id" : [

      ],
      "cook_difficulty_image" : "https:\/\/i1.douguo.com\/upload\/banner\/1551424430.png",
      "cookstep" : [
        {
          "image_width" : 800,
          "frame" : "-1",
          "thumb" : "https:\/\/i1.douguo.com\/upload\/caiku\/5\/0\/a\/140_50d5e8ab09fc10f5a995745ef8f0b0aa.jpeg",
          "image_height" : 1067,
          "image" : "https:\/\/i1.douguo.com\/upload\/caiku\/5\/0\/a\/50d5e8ab09fc10f5a995745ef8f0b0aa.jpeg",
          "position" : 1,
          "content" : "这个就是孩子爷爷在老家捉的鲜活的野生黄鳝，个头还挺大的呢！听说野生的黄鳝最有营养，最大补了！"
        },
        {
          "position" : 2,
          "content" : "找一个木板，一根铁钉，一把锋利的小刀！用铁钉插在黄鳝的头部，钉在木板上，一只手捏住黄鳝的身子，另一只手用锋利的小刀划开黄鳝的肚子，把里面的内脏全部掏出来，最后切掉头部！（这个黄鳝滑不溜丢的特别的不好收拾，看起来有点儿像小蛇，我也很害怕不敢亲自动手，刚好楼下的老爷爷会杀黄鳝，我就请他帮我把黄鳝处理了！）",
          "image_height" : 991,
          "frame" : "-1",
          "image_width" : 800,
          "thumb" : "https:\/\/i1.douguo.com\/upload\/caiku\/6\/a\/a\/140_6a823067608d75e3ea865e34d738e58a.jpeg",
          "image" : "https:\/\/i1.douguo.com\/upload\/caiku\/6\/a\/a\/6a823067608d75e3ea865e34d738e58a.jpeg"
        },
        {
          "image_width" : 800,
          "frame" : "-1",
          "content" : "依次处理好所有的黄鳝，再清洗干净！",
          "image" : "https:\/\/i1.douguo.com\/upload\/caiku\/9\/0\/e\/9025140ba4758e3b32ebc7a7963450ee.jpeg",
          "image_height" : 1067,
          "thumb" : "https:\/\/i1.douguo.com\/upload\/caiku\/9\/0\/e\/140_9025140ba4758e3b32ebc7a7963450ee.jpeg",
          "position" : 3
        },
        {
          "frame" : "-1",
          "image_height" : 1920,
          "thumb" : "https:\/\/i1.douguo.com\/upload\/caiku\/8\/4\/0\/140_84e0198a99b9ede8c5f77651ea5df830.jpeg",
          "image" : "https:\/\/i1.douguo.com\/upload\/caiku\/8\/4\/0\/84e0198a99b9ede8c5f77651ea5df830.jpeg",
          "image_width" : 1440,
          "position" : 4,
          "content" : "处理好的黄鳝切成段儿备用！（我把所有的黄鳝都处理好了切段，分成若干小份儿放在冰箱冷冻保存！吃的时候提前拿出来解冻即可！今天做的这道干煸黄鳝我用了3条黄鳝！）"
        },
        {
          "image_height" : 1067,
          "position" : 5,
          "image" : "https:\/\/i1.douguo.com\/upload\/caiku\/9\/2\/f\/9212dcde936b4789c37c144f5a33306f.jpeg",
          "frame" : "-1",
          "content" : "黄鳝段加入料酒，生抽和玉米淀粉抓匀，腌制20分钟！",
          "image_width" : 800,
          "thumb" : "https:\/\/i1.douguo.com\/upload\/caiku\/9\/2\/f\/140_9212dcde936b4789c37c144f5a33306f.jpeg"
        },
        {
          "thumb" : "https:\/\/i1.douguo.com\/upload\/caiku\/c\/8\/6\/140_c8a326eed94a85e01550dfac2d5a6f96.jpeg",
          "image_height" : 1067,
          "frame" : "-1",
          "image_width" : 800,
          "position" : 6,
          "content" : "蒜瓣3个去皮稍微拍一下即可，生姜一块洗净切片，芹菜3颗去掉芹菜叶洗净切成段儿，干辣椒10克，花椒10克，郫县豆瓣酱1勺备用！",
          "image" : "https:\/\/i1.douguo.com\/upload\/caiku\/c\/8\/6\/c8a326eed94a85e01550dfac2d5a6f96.jpeg"
        },
        {
          "thumb" : "https:\/\/i1.douguo.com\/upload\/caiku\/9\/b\/d\/140_9ba0973da6357dfbc4c4c0ecc17e1dcd.jpeg",
          "image_width" : 800,
          "frame" : "-1",
          "content" : "锅烧热倒入适量的油烧至七成热，放入腌制好的黄鳝段中火慢慢的炸！",
          "image" : "https:\/\/i1.douguo.com\/upload\/caiku\/9\/b\/d\/9ba0973da6357dfbc4c4c0ecc17e1dcd.jpeg",
          "position" : 7,
          "image_height" : 1067
        },
        {
          "position" : 8,
          "content" : "炸至黄鳝段呈金黄色即可捞出沥干油分备用！",
          "thumb" : "https:\/\/i1.douguo.com\/upload\/caiku\/c\/4\/6\/140_c4ea4f94b10f8f9fbafd9fd12641fd26.jpeg",
          "frame" : "-1",
          "image_height" : 1067,
          "image" : "https:\/\/i1.douguo.com\/upload\/caiku\/c\/4\/6\/c4ea4f94b10f8f9fbafd9fd12641fd26.jpeg",
          "image_width" : 800
        },
        {
          "frame" : "-1",
          "image_width" : 800,
          "thumb" : "https:\/\/i1.douguo.com\/upload\/caiku\/9\/f\/0\/140_9fa21c3563fdce1d10e3871c13a72b10.jpeg",
          "image" : "https:\/\/i1.douguo.com\/upload\/caiku\/9\/f\/0\/9fa21c3563fdce1d10e3871c13a72b10.jpeg",
          "position" : 9,
          "image_height" : 1067,
          "content" : "锅烧热倒入适量的油，放入生姜，蒜瓣，花椒，干辣椒炒出香味儿！"
        },
        {
          "image" : "https:\/\/i1.douguo.com\/upload\/caiku\/7\/c\/4\/7c043af5b0e4e902f4672bec780c1444.jpeg",
          "content" : "放入郫县豆瓣酱炒出红油来！",
          "image_height" : 1920,
          "thumb" : "https:\/\/i1.douguo.com\/upload\/caiku\/7\/c\/4\/140_7c043af5b0e4e902f4672bec780c1444.jpeg",
          "position" : 10,
          "image_width" : 1440,
          "frame" : "-1"
        },
        {
          "image_height" : 1067,
          "thumb" : "https:\/\/i1.douguo.com\/upload\/caiku\/8\/9\/0\/140_8985bdf5cae8fc5fee5858a7605fc6a0.jpeg",
          "position" : 11,
          "image_width" : 800,
          "content" : "放入黄鳝翻炒均匀！",
          "image" : "https:\/\/i1.douguo.com\/upload\/caiku\/8\/9\/0\/8985bdf5cae8fc5fee5858a7605fc6a0.jpeg",
          "frame" : "-1"
        },
        {
          "image_width" : 800,
          "image" : "https:\/\/i1.douguo.com\/upload\/caiku\/9\/3\/8\/93aff52fdcf13f69c99b25348a430db8.jpeg",
          "image_height" : 1067,
          "content" : "加入一勺耗油，放入适量的水大火煮开后转小火慢慢的炖煮！（水不要放太多，刚好淹没住黄鳝即可！）",
          "thumb" : "https:\/\/i1.douguo.com\/upload\/caiku\/9\/3\/8\/140_93aff52fdcf13f69c99b25348a430db8.jpeg",
          "frame" : "-1",
          "position" : 12
        },
        {
          "image_width" : 800,
          "image" : "https:\/\/i1.douguo.com\/upload\/caiku\/8\/c\/8\/8c77f3d2948d78f3a6b0a3198aa7c588.jpeg",
          "content" : "黄鳝炖熟后大火收汁儿！",
          "position" : 13,
          "thumb" : "https:\/\/i1.douguo.com\/upload\/caiku\/8\/c\/8\/140_8c77f3d2948d78f3a6b0a3198aa7c588.jpeg",
          "frame" : "-1",
          "image_height" : 1067
        },
        {
          "image" : "https:\/\/i1.douguo.com\/upload\/caiku\/b\/2\/5\/b2685b24a98761fa4744d2205bc08955.jpeg",
          "frame" : "-1",
          "image_width" : 800,
          "content" : "放入芹菜段翻炒片刻！",
          "position" : 14,
          "thumb" : "https:\/\/i1.douguo.com\/upload\/caiku\/b\/2\/5\/140_b2685b24a98761fa4744d2205bc08955.jpeg",
          "image_height" : 1067
        },
        {
          "image" : "https:\/\/i1.douguo.com\/upload\/caiku\/3\/f\/8\/3f6fea49e0590a9c02349e0d06547048.jpeg",
          "content" : "起锅前加入适量的鸡精炒匀即可！",
          "thumb" : "https:\/\/i1.douguo.com\/upload\/caiku\/3\/f\/8\/140_3f6fea49e0590a9c02349e0d06547048.jpeg",
          "image_width" : 800,
          "image_height" : 1067,
          "frame" : "-1",
          "position" : 15
        },
        {
          "thumb" : "https:\/\/i1.douguo.com\/upload\/caiku\/b\/8\/5\/140_b828d13a71748ee939ec7427de02c7f5.jpeg",
          "content" : "成品图",
          "image_width" : 800,
          "position" : 16,
          "image" : "https:\/\/i1.douguo.com\/upload\/caiku\/b\/8\/5\/b828d13a71748ee939ec7427de02c7f5.jpeg",
          "image_height" : 1067,
          "frame" : "-1"
        },
        {
          "content" : "成品图",
          "position" : 17,
          "image_width" : 800,
          "thumb" : "https:\/\/i1.douguo.com\/upload\/caiku\/e\/f\/6\/140_efb364ca21d96fce3bb4c49e7046fd36.jpeg",
          "frame" : "-1",
          "image_height" : 1067,
          "image" : "https:\/\/i1.douguo.com\/upload\/caiku\/e\/f\/6\/efb364ca21d96fce3bb4c49e7046fd36.jpeg"
        },
        {
          "image_height" : 1067,
          "thumb" : "https:\/\/i1.douguo.com\/upload\/caiku\/0\/8\/7\/140_08b3cdd6526cc0d1e54e9ab2d605ef67.jpeg",
          "image_width" : 800,
          "frame" : "-1",
          "content" : "成品图",
          "position" : 18,
          "image" : "https:\/\/i1.douguo.com\/upload\/caiku\/0\/8\/7\/08b3cdd6526cc0d1e54e9ab2d605ef67.jpeg"
        },
        {
          "thumb" : "https:\/\/i1.douguo.com\/upload\/caiku\/3\/3\/b\/140_339f6d5893cc4447c047901c3a999a8b.jpeg",
          "content" : "成品图",
          "frame" : "-1",
          "image_height" : 600,
          "image_width" : 800,
          "position" : 19,
          "image" : "https:\/\/i1.douguo.com\/upload\/caiku\/3\/3\/b\/339f6d5893cc4447c047901c3a999a8b.jpeg"
        },
        {
          "image" : "https:\/\/i1.douguo.com\/upload\/caiku\/7\/4\/a\/74333837b683682a0a08dd936b854d9a.jpeg",
          "image_width" : 800,
          "content" : "成品图",
          "image_height" : 635,
          "position" : 20,
          "thumb" : "https:\/\/i1.douguo.com\/upload\/caiku\/7\/4\/a\/140_74333837b683682a0a08dd936b854d9a.jpeg",
          "frame" : "-1"
        },
        {
          "content" : "成品图",
          "thumb" : "https:\/\/i1.douguo.com\/upload\/caiku\/0\/1\/9\/140_0137e3dd49457016bbc6c917352de089.jpeg",
          "image_width" : 1440,
          "position" : 21,
          "frame" : "-1",
          "image" : "https:\/\/i1.douguo.com\/upload\/caiku\/0\/1\/9\/0137e3dd49457016bbc6c917352de089.jpeg",
          "image_height" : 1920
        },
        {
          "content" : "成品图",
          "thumb" : "https:\/\/i1.douguo.com\/upload\/caiku\/5\/3\/0\/140_5317104f0f236a052533de56a61beea0.jpeg",
          "image" : "https:\/\/i1.douguo.com\/upload\/caiku\/5\/3\/0\/5317104f0f236a052533de56a61beea0.jpeg",
          "image_width" : 1920,
          "position" : 22,
          "image_height" : 1440,
          "frame" : "-1"
        },
        {
          "image_width" : 800,
          "image_height" : 800,
          "thumb" : "https:\/\/i1.douguo.com\/upload\/caiku\/e\/d\/a\/140_edf18109704388080936bcb60bc67e1a.jpeg",
          "frame" : "-1",
          "image" : "https:\/\/i1.douguo.com\/upload\/caiku\/e\/d\/a\/edf18109704388080936bcb60bc67e1a.jpeg",
          "position" : 23,
          "content" : "成品图"
        }
      ],
      "story_dsp" : [

      ],
      "vu" : "",
      "favo_counts" : 648,
      "comments_count" : 14,
      "ipoi" : "",
      "cookwares" : [

      ],
      "pw" : 480,
      "ipt" : "",
      "recommended" : 0,
      "rrps" : [

      ],
      "cookstory" : "元旦放假回老家玩儿了几天，孩子爷爷特意去捉了好多的野生的黄鳝，临走时拿了十几条回家，做了家人最爱吃的干煸黄鳝，麻辣鲜香味道不错哦，特别的下饭呢！\n黄鳝无鳞，色泽黄褐色，体侧有不规则的暗黑斑点，鱼鳍不发达，基本消失，全身只有一根三棱刺，肉嫩味味美。黄鳝营养价值丰富，富含蛋白质、脂肪、钙、磷、铁、维生素及多种植物化学物质，是补益佳品。主要用于治疗气血不足，久泻久痢之体弱。黄鳝还具有通络利关节的作用，因此风湿病患者可选择食用或用黄鳝泡酒饮用。",
      "first_level_comment_count" : 9,
      "cook_time_image" : "https:\/\/i1.douguo.com\/upload\/banner\/1551424341.png",
      "collect_status" : 0,
      "views_count_text" : "13.9万",
      "minor" : [

      ],
      "recent_comments" : [

      ],
      "recommend_label" : "13.9万人看过",
      "comments_count_text" : "14",
      "brand_day_dsp" : [

      ],
      "author" : "果妈私房菜",
      "related_ads" : [

      ],
      "ipci" : "",
      "rate" : 0,
      "notes" : [

      ],
      "rsm" : "该功能暂停使用",
      "clicks" : "127348",
      "rcs" : [

      ],
      "mid_mdsp" : [

      ],
      "old_comments" : [

      ],
      "dishes" : [

      ],
      "author_id" : 11694814,
      "thumb_height" : 0,
      "v_u" : "",
      "author_verified" : 1,
      "rips" : 0,
      "author_photo" : "http:\/\/tx1.douguo.net\/upload\/photo\/c\/5\/9\/70_c595f457498284d1ffcc8defceb0a919.jpg",
      "rrpt" : "",
      "rpt" : "",
      "top_mdsp" : [

      ],
      "comments" : [
        "{\n    ac = \"#999999\";\n    at = \"\";\n    ccc = 1;\n    \"child_comments\" =     (\n                {\n            ac = \"#999999\";\n            at = \"\\U5341\\U5830\\U5e02\";\n            ccc = 0;\n            city = \"\\U5341\\U5830\\U5e02\";\n            cmc = 2;\n            content =             (\n                                {\n                    c = \" \\U6211\\U5bb6\\U4e5f\\U559c\\U6b22\\U5403\";\n                }\n            );\n            ia = 1;\n            id = 5348169;\n            \"ip_address_location\" = \"\";\n            like = 0;\n            \"like_count\" = 0;\n            \"reply_id\" = 5347889;\n            \"reply_user\" =             {\n                \"followers_count_text\" = \"\";\n                id = 18527360;\n                \"is_prime\" = 0;\n                lv = 0;\n                lvl = 4;\n                n = \"\\U963f+\";\n                p = \"http:\/\/tx1.douguo.net\/upload\/photo\/7\/6\/e\/70_u73095120565551153525.jpg\";\n                \"progress_image\" = \"\";\n                \"recipes_count_text\" = \"\";\n                relationship = \"-1\";\n                title = \"\";\n                v = 0;\n                \"verified_image\" = \"\";\n            };\n            \"sticker_icon\" =             (\n            );\n            time = \"2018-01-30 07:58:44\";\n            u =             {\n                \"followers_count_text\" = \"\";\n                id = 11694814;\n                \"is_prime\" = 0;\n                lv = 0;\n                lvl = 7;\n                n = \"\\U679c\\U5988\\U79c1\\U623f\\U83dc\";\n                p = \"http:\/\/tx1.douguo.net\/upload\/photo\/c\/5\/9\/70_c595f457498284d1ffcc8defceb0a919.jpg\";\n                \"progress_image\" = \"\";\n                \"recipes_count_text\" = \"\";\n                relationship = \"-1\";\n                title = \"\";\n                v = 1;\n                \"verified_image\" = \"\";\n            };\n        }\n    );\n    city = \"\";\n    cmc = 2;\n    content =     (\n                {\n            c = \"\\U6211\\U8001\\U516c\\U8d85\\U7231\\U5403\";\n        }\n    );\n    ia = 0;\n    id = 5347889;\n    \"ip_address_location\" = \"\";\n    like = 0;\n    \"like_count\" = 1;\n    \"reply_id\" = 0;\n    \"sticker_icon\" =     (\n    );\n    time = \"2018-01-30 06:20:47\";\n    u =     {\n        \"followers_count_text\" = \"\";\n        id = 18527360;\n        \"is_prime\" = 0;\n        lv = 0;\n        lvl = 4;\n        n = \"\\U963f+\";\n        p = \"http:\/\/tx1.douguo.net\/upload\/photo\/7\/6\/e\/70_u73095120565551153525.jpg\";\n        \"progress_image\" = \"\";\n        \"recipes_count_text\" = \"\";\n        relationship = \"-1\";\n        title = \"\";\n        v = 0;\n        \"verified_image\" = \"\";\n    };\n}",
        "{\n    ac = \"#999999\";\n    at = \"\";\n    ccc = 1;\n    \"child_comments\" =     (\n                {\n            ac = \"#999999\";\n            at = \"\\U5341\\U5830\\U5e02\";\n            ccc = 0;\n            city = \"\\U5341\\U5830\\U5e02\";\n            cmc = 2;\n            content =             (\n                                {\n                    c = \" \\U6211\\U89c9\\U5f97\\U5f88\\U597d\\U5403\\U7684\\Uff0c\\U4f60\\U53ef\\U4ee5\\U8bd5\\U8bd5\\U54e6\";\n                }\n            );\n            ia = 1;\n            id = 5254259;\n            \"ip_address_location\" = \"\";\n            like = 0;\n            \"like_count\" = 0;\n            \"reply_id\" = 5250842;\n            \"reply_user\" =             {\n                \"followers_count_text\" = \"\";\n                id = 18504178;\n                \"is_prime\" = 0;\n                lv = 0;\n                lvl = 6;\n                n = \"\\U3001\\U65e0\\U804aing=\\Uffe3\\U03c9\\Uffe3=\";\n                p = \"http:\/\/tx1.douguo.net\/upload\/photo\/c\/c\/e\/70_u16187975635280408180235.jpg\";\n                \"progress_image\" = \"\";\n                \"recipes_count_text\" = \"\";\n                relationship = \"-1\";\n                title = \"\";\n                v = 0;\n                \"verified_image\" = \"\";\n            };\n            \"sticker_icon\" =             (\n            );\n            time = \"2018-01-05 08:24:33\";\n            u =             {\n                \"followers_count_text\" = \"\";\n                id = 11694814;\n                \"is_prime\" = 0;\n                lv = 0;\n                lvl = 7;\n                n = \"\\U679c\\U5988\\U79c1\\U623f\\U83dc\";\n                p = \"http:\/\/tx1.douguo.net\/upload\/photo\/c\/5\/9\/70_c595f457498284d1ffcc8defceb0a919.jpg\";\n                \"progress_image\" = \"\";\n                \"recipes_count_text\" = \"\";\n                relationship = \"-1\";\n                title = \"\";\n                v = 1;\n                \"verified_image\" = \"\";\n            };\n        }\n    );\n    city = \"\";\n    cmc = 2;\n    content =     (\n                {\n            c = \"\\U5176\\U5b9e\\U6211\\U5f88\\U60f3\\U77e5\\U9053\\U505a\\U6cd5\\U7684\\Uff0c\\U8fd9\\U4e0b\\U5982\\U613f\\U4e86\";\n        }\n    );\n    ia = 0;\n    id = 5250842;\n    \"ip_address_location\" = \"\";\n    like = 0;\n    \"like_count\" = 0;\n    \"reply_id\" = 0;\n    \"sticker_icon\" =     (\n    );\n    time = \"2018-01-03 01:07:05\";\n    u =     {\n        \"followers_count_text\" = \"\";\n        id = 18504178;\n        \"is_prime\" = 0;\n        lv = 0;\n        lvl = 6;\n        n = \"\\U3001\\U65e0\\U804aing=\\Uffe3\\U03c9\\Uffe3=\";\n        p = \"http:\/\/tx1.douguo.net\/upload\/photo\/c\/c\/e\/70_u16187975635280408180235.jpg\";\n        \"progress_image\" = \"\";\n        \"recipes_count_text\" = \"\";\n        relationship = \"-1\";\n        title = \"\";\n        v = 0;\n        \"verified_image\" = \"\";\n    };\n}",
        "{\n    ac = \"#999999\";\n    at = \"\";\n    ccc = 1;\n    \"child_comments\" =     (\n                {\n            ac = \"#999999\";\n            at = \"\\U5341\\U5830\\U5e02\";\n            ccc = 0;\n            city = \"\\U5341\\U5830\\U5e02\";\n            cmc = 2;\n            content =             (\n                                {\n                    c = \" \\U4e0d\\U5ba2\\U6c14\";\n                }\n            );\n            ia = 1;\n            id = 5254258;\n            \"ip_address_location\" = \"\";\n            like = 0;\n            \"like_count\" = 0;\n            \"reply_id\" = 5250723;\n            \"reply_user\" =             {\n                \"followers_count_text\" = \"\";\n                id = 18492730;\n                \"is_prime\" = 0;\n                lv = 0;\n                lvl = 4;\n                n = \"\\U7b71\\U513f0130\";\n                p = \"http:\/\/tx1.douguo.net\/upload\/photo\/5\/f\/6\/70_u15044757180320408163444.jpg\";\n                \"progress_image\" = \"\";\n                \"recipes_count_text\" = \"\";\n                relationship = \"-1\";\n                title = \"\";\n                v = 0;\n                \"verified_image\" = \"\";\n            };\n            \"sticker_icon\" =             (\n            );\n            time = \"2018-01-05 08:24:16\";\n            u =             {\n                \"followers_count_text\" = \"\";\n                id = 11694814;\n                \"is_prime\" = 0;\n                lv = 0;\n                lvl = 7;\n                n = \"\\U679c\\U5988\\U79c1\\U623f\\U83dc\";\n                p = \"http:\/\/tx1.douguo.net\/upload\/photo\/c\/5\/9\/70_c595f457498284d1ffcc8defceb0a919.jpg\";\n                \"progress_image\" = \"\";\n                \"recipes_count_text\" = \"\";\n                relationship = \"-1\";\n                title = \"\";\n                v = 1;\n                \"verified_image\" = \"\";\n            };\n        }\n    );\n    city = \"\";\n    cmc = 2;\n    content =     (\n                {\n            c = \"\\U8c22\\U8c22\\Uff01\";\n        }\n    );\n    ia = 0;\n    id = 5250723;\n    \"ip_address_location\" = \"\";\n    like = 0;\n    \"like_count\" = 0;\n    \"reply_id\" = 0;\n    \"sticker_icon\" =     (\n    );\n    time = \"2018-01-03 00:07:05\";\n    u =     {\n        \"followers_count_text\" = \"\";\n        id = 18492730;\n        \"is_prime\" = 0;\n        lv = 0;\n        lvl = 4;\n        n = \"\\U7b71\\U513f0130\";\n        p = \"http:\/\/tx1.douguo.net\/upload\/photo\/5\/f\/6\/70_u15044757180320408163444.jpg\";\n        \"progress_image\" = \"\";\n        \"recipes_count_text\" = \"\";\n        relationship = \"-1\";\n        title = \"\";\n        v = 0;\n        \"verified_image\" = \"\";\n    };\n}"
      ],
      "rdsps" : [

      ],
      "cookstorys" : [
        {
          "c" : "元旦放假回老家玩儿了几天，孩子爷爷特意去捉了好多的野生的黄鳝，临走时拿了十几条回家，做了家人最爱吃的干煸黄鳝，麻辣鲜香味道不错哦，特别的下饭呢！\n黄鳝无鳞，色泽黄褐色，体侧有不规则的暗黑斑点，鱼鳍不发达，基本消失，全身只有一根三棱刺，肉嫩味味美。黄鳝营养价值丰富，富含蛋白质、脂肪、钙、磷、铁、维生素及多种植物化学物质，是补益佳品。主要用于治疗气血不足，久泻久痢之体弱。黄鳝还具有通络利关节的作用，因此风湿病患者可选择食用或用黄鳝泡酒饮用。",
          "color" : "",
          "type" : 0,
          "u" : "",
          "icon" : "",
          "id" : 0
        }
      ]
    }
  },
  "status" : 0,
  "state" : "success"
}