{
  "status" : 0,
  "result" : {
    "recipe" : {
      "ipoi" : "",
      "user" : {
        "dishes_count" : 0,
        "user_photo" : "http:\/\/tx1.douguo.net\/upload\/photo\/d\/2\/f\/70_u73113665436377151732.jpg",
        "user_cover" : "",
        "introduction" : "",
        "is_prime" : 0,
        "user_id" : "2939327",
        "following_count" : 0,
        "gender" : 2,
        "coursecount" : 0,
        "birthday" : "",
        "weibo_nick" : "",
        "pc" : 0,
        "mobile" : "",
        "location" : 0,
        "qq_weibo_nick" : "",
        "lv" : 0,
        "favor_diaries_count" : 0,
        "progress_image" : "",
        "subscription_article_count" : 0,
        "fc" : 0,
        "point" : 0,
        "verified_image" : "https:\/\/i1.douguo.com\/upload\/note\/d\/a\/a\/da84247847aebe48d9dd0fcdac88862a.png",
        "email" : "",
        "sign" : "",
        "lvl" : 6,
        "favorites_count" : 0,
        "avatar_medium" : "http:\/\/tx1.douguo.net\/upload\/photo\/d\/2\/f\/140_u73113665436377151732.jpg",
        "subscription" : 0,
        "recipes_count" : 0,
        "regist_time" : "",
        "userid" : "2939327",
        "verified" : 1,
        "qzone_nick" : "",
        "nick" : "谢小姐的厨房",
        "setted_email" : 0,
        "verified_url" : "https:\/\/m.douguo.com\/user\/prodesc",
        "age" : "",
        "followers_count" : 0,
        "user_large_photo" : "http:\/\/tx1.douguo.net\/upload\/photo\/d\/2\/f\/yuan_u73113665436377151732.jpg",
        "diaries_count" : 0
      },
      "rate_count" : 28,
      "top_mdsp" : [

      ],
      "ipt" : "",
      "clicks" : "1134227",
      "guide_image" : "",
      "favo_counts_text" : "2.9万",
      "sr" : "",
      "rate_show" : 1,
      "thumb_path" : "https:\/\/i1.douguo.com\/upload\/caiku\/f\/b\/8\/300_fbd2b735a9adf6af40c501a39af8b568.jpg",
      "create_time" : "2016-06-09 12:02:21",
      "vfurl" : "",
      "cook_difficulty" : "",
      "rewarded_video_dsp" : [

      ],
      "recommended" : 0,
      "cookstory" : "难得的周末，我最乐意呆在厨房，玩自己喜欢的美食，尝试新的花样。想了很久的炸鸡块，终于动手了。外脆内嫩，鲜香入味，尝一块，食指大动，满满的一盘炸鸡块瞬间光盘。这鲜香滑嫩的炸鸡块，按儿子的说法水平相当的高。从此之后，他再也不吃外面的炸鸡了。",
      "vu" : "",
      "cook_time" : "",
      "ssu" : "",
      "author_verified" : 1,
      "author_id" : 2939327,
      "ss" : [

      ],
      "author" : "谢小姐的厨房",
      "cookstep" : [
        {
          "content" : "新鲜的鸡腿，剔除骨头。",
          "frame" : "-1",
          "thumb" : "https:\/\/i1.douguo.com\/upload\/caiku\/5\/3\/4\/140_53225f289e5ffc910c53e87c8cab2ac4.jpg",
          "image_width" : 718,
          "image" : "https:\/\/i1.douguo.com\/upload\/caiku\/5\/3\/4\/53225f289e5ffc910c53e87c8cab2ac4.jpg",
          "position" : 1,
          "image_height" : 543
        },
        {
          "frame" : "-1",
          "image_height" : 543,
          "position" : 2,
          "thumb" : "https:\/\/i1.douguo.com\/upload\/caiku\/3\/6\/5\/140_3650406b7cafa8a8de322a8f8636e365.jpg",
          "content" : "切成鸡块，加入盐与黑胡椒粉。",
          "image" : "https:\/\/i1.douguo.com\/upload\/caiku\/3\/6\/5\/3650406b7cafa8a8de322a8f8636e365.jpg",
          "image_width" : 718
        },
        {
          "image_height" : 543,
          "position" : 3,
          "frame" : "-1",
          "image_width" : 718,
          "image" : "https:\/\/i1.douguo.com\/upload\/caiku\/5\/d\/a\/5dc38e8f2c4a510cc882743ddb92ec4a.jpg",
          "content" : "加入面粉与淀粉。",
          "thumb" : "https:\/\/i1.douguo.com\/upload\/caiku\/5\/d\/a\/140_5dc38e8f2c4a510cc882743ddb92ec4a.jpg"
        },
        {
          "image_height" : 543,
          "image" : "https:\/\/i1.douguo.com\/upload\/caiku\/f\/c\/8\/fc890325caf50352d165abdcaafff718.jpg",
          "content" : "加入鸡蛋。",
          "image_width" : 718,
          "thumb" : "https:\/\/i1.douguo.com\/upload\/caiku\/f\/c\/8\/140_fc890325caf50352d165abdcaafff718.jpg",
          "frame" : "-1",
          "position" : 4
        },
        {
          "image" : "https:\/\/i1.douguo.com\/upload\/caiku\/2\/a\/6\/2a660e3d3114654b400f14e9bf87fe56.jpg",
          "image_width" : 718,
          "thumb" : "https:\/\/i1.douguo.com\/upload\/caiku\/2\/a\/6\/140_2a660e3d3114654b400f14e9bf87fe56.jpg",
          "frame" : "-1",
          "position" : 5,
          "image_height" : 543,
          "content" : "抓匀，腌制15分钟。"
        },
        {
          "image_width" : 718,
          "image" : "https:\/\/i1.douguo.com\/upload\/caiku\/7\/0\/7\/704b8311a6102672710706d77d003d67.jpg",
          "thumb" : "https:\/\/i1.douguo.com\/upload\/caiku\/7\/0\/7\/140_704b8311a6102672710706d77d003d67.jpg",
          "frame" : "-1",
          "content" : "热油，下鸡块。",
          "image_height" : 543,
          "position" : 6
        },
        {
          "image_width" : 718,
          "thumb" : "https:\/\/i1.douguo.com\/upload\/caiku\/a\/2\/f\/140_a26666d7203166b99af5bfaa6dcb42af.jpg",
          "frame" : "-1",
          "content" : "第一遍炸至鸡块上色，即捞起。",
          "image_height" : 543,
          "position" : 7,
          "image" : "https:\/\/i1.douguo.com\/upload\/caiku\/a\/2\/f\/a26666d7203166b99af5bfaa6dcb42af.jpg"
        },
        {
          "position" : 8,
          "thumb" : "https:\/\/i1.douguo.com\/upload\/caiku\/3\/a\/b\/140_3a778a999f935e98df4c149ab7615f5b.jpg",
          "image_width" : 718,
          "content" : "全部鸡块炸一遍后，凉却后再重新炸一遍。",
          "image" : "https:\/\/i1.douguo.com\/upload\/caiku\/3\/a\/b\/3a778a999f935e98df4c149ab7615f5b.jpg",
          "image_height" : 543,
          "frame" : "-1"
        },
        {
          "image_width" : 718,
          "image" : "https:\/\/i1.douguo.com\/upload\/caiku\/9\/8\/f\/98fd65cdd69200a4efa440f30bdc632f.jpg",
          "thumb" : "https:\/\/i1.douguo.com\/upload\/caiku\/9\/8\/f\/140_98fd65cdd69200a4efa440f30bdc632f.jpg",
          "content" : "炸至金黄色即捞起，稍微凉却即可食用。",
          "position" : 9,
          "frame" : "-1",
          "image_height" : 543
        }
      ],
      "title" : "黑椒炸鸡块：一扫而光的美味",
      "rate" : 4,
      "recommendation_tag" : "",
      "comments_count_text" : "54",
      "advice" : {
        "da" : {
          "t" : "查看详细分析",
          "iu" : "https:\/\/i1.douguo.com\/upload\/banner\/f\/4\/d\/f48877e53c37759bc12ac494be82ec8d.png",
          "url" : "https:\/\/m.douguo.com\/recipe\/nutrient_self\/1392045"
        },
        "has" : [
          {
            "t" : "富含蛋白质",
            "url" : "recipes:\/\/www.douguo.com\/simplerecipelist?t=富含蛋白质&id=富含蛋白质"
          }
        ],
        "at" : "可以提供多种氨基酸～"
      },
      "cookwares" : [

      ],
      "purl" : "",
      "rrps" : [

      ],
      "su" : "",
      "packages_id" : [

      ],
      "story_dsp" : [

      ],
      "rcs" : [

      ],
      "major" : [
        {
          "note" : "2个",
          "title" : "鸡腿",
          "tu" : "https:\/\/m.douguo.com\/ingredients\/鸡腿\/detailmaterial"
        },
        {
          "tu" : "https:\/\/m.douguo.com\/ingredients\/鸡蛋\/detailmaterial",
          "title" : "鸡蛋",
          "note" : "1个"
        }
      ],
      "rsm" : "该功能暂停使用",
      "mid_mdsp" : [

      ],
      "rpst" : "",
      "ipit" : 0,
      "related_ads" : [

      ],
      "ipia" : [

      ],
      "sc" : 0,
      "bs" : [

      ],
      "brand_day_dsp" : [

      ],
      "eu" : "recipes:\/\/www.douguo.com\/postdetail?id=242016",
      "dish_count" : 76,
      "btm_dsp" : [

      ],
      "rpt" : "",
      "pw" : 718,
      "recipe_list_tags" : [
        {
          "text" : "关注的人",
          "background_border_color" : "",
          "right_image" : "",
          "jump_url" : "",
          "text_color" : "#141515",
          "background_end_color" : "#F4F5F5",
          "background_start_color" : "#F4F5F5"
        },
        {
          "right_image" : "",
          "text" : "内容详细",
          "jump_url" : "",
          "background_start_color" : "#F4F5F5",
          "text_color" : "#141515",
          "background_end_color" : "#F4F5F5",
          "background_border_color" : ""
        }
      ],
      "cook_id" : "1392045",
      "hq" : 1,
      "ipurl" : "",
      "rpid" : 0,
      "vc" : "1184881",
      "ph" : 543,
      "rrpt" : "",
      "cook_difficulty_image" : "",
      "dishes" : [

      ],
      "notes" : [

      ],
      "comments_count" : 54,
      "original_photo_path" : "http:\/\/i1.douguo.net\/upload\/caiku\/f\/b\/8\/yuan_fbd2b735a9adf6af40c501a39af8b568.jpg",
      "favo_counts" : 29375,
      "recommend_label" : "76人学做",
      "old_comments" : [

      ],
      "hqu" : "recipes:\/\/www.douguo.com\/notedetail?id=21162253",
      "dish_count_text" : "76",
      "recent_comments" : [

      ],
      "tags" : [
        "{\n    text = \"\\U5bb6\\U5e38\\U83dc\";\n}",
        "{\n    text = \"\\U4e0b\\U996d\\U83dc\";\n}",
        "{\n    text = \"\\U8089\\U7c7b\";\n}",
        "{\n    text = \"\\U5feb\\U624b\\U83dc\";\n}",
        "{\n    text = \"\\U79bd\\U7c7b\";\n}",
        "{\n    text = \"\\U70b8\";\n}",
        "{\n    text = \"\\U54b8\";\n}",
        "{\n    text = \"\\U9999\";\n}",
        "{\n    text = \"\\U5348\\U9910\";\n}",
        "{\n    text = \"\\U665a\\U9910\";\n}",
        "{\n    text = \"\\U4e00\\U5bb6\\U4e09\\U53e3\";\n}"
      ],
      "photo_path" : "https:\/\/i1.douguo.com\/upload\/caiku\/f\/b\/8\/600_fbd2b735a9adf6af40c501a39af8b568.jpg",
      "act_des" : "",
      "v_u" : "",
      "cook_time_image" : "",
      "views_count_text" : "118.5万",
      "display_ingredient" : 1,
      "image" : "http:\/\/i1.douguo.net\/upload\/caiku\/f\/b\/8\/300_fbd2b735a9adf6af40c501a39af8b568.jpg",
      "title_ad" : [

      ],
      "author_photo" : "http:\/\/tx1.douguo.net\/upload\/photo\/d\/2\/f\/70_u73113665436377151732.jpg",
      "ecs" : 0,
      "rips" : 0,
      "recipe_tags" : [

      ],
      "first_level_comment_count" : 45,
      "ipci" : "",
      "collect_status" : 0,
      "rdsps" : [

      ],
      "minor" : [
        "{\n    note = 5g;\n    title = \"\\U76d0\";\n    tu = \"https:\/\/https:\/\/m.douguo.com\/ingredients\/\\U76d0\/detailmaterial\";\n}",
        "{\n    note = 3g;\n    title = \"\\U9ed1\\U80e1\\U6912\";\n    tu = \"https:\/\/https:\/\/m.douguo.com\/ingredients\/\\U9ed1\\U80e1\\U6912\/detailmaterial\";\n}",
        "{\n    note = 10g;\n    title = \"\\U9762\\U7c89\";\n    tu = \"https:\/\/https:\/\/m.douguo.com\/ingredients\/\\U9762\\U7c89\/detailmaterial\";\n}",
        "{\n    note = 10g;\n    title = \"\\U6dc0\\U7c89\";\n}",
        "{\n    note = \"\\U9002\\U91cf\";\n    title = \"\\U98df\\U7528\\U6cb9\";\n    tu = \"https:\/\/https:\/\/m.douguo.com\/ingredients\/\\U98df\\U7528\\U6cb9\/detailmaterial\";\n}"
      ],
      "thumb_height" : 0,
      "cookstorys" : [
        {
          "u" : "",
          "color" : "",
          "id" : 0,
          "type" : 0,
          "icon" : "",
          "c" : "难得的周末，我最乐意呆在厨房，玩自己喜欢的美食，尝试新的花样。想了很久的炸鸡块，终于动手了。外脆内嫩，鲜香入味，尝一块，食指大动，满满的一盘炸鸡块瞬间光盘。这鲜香滑嫩的炸鸡块，按儿子的说法水平相当的高。从此之后，他再也不吃外面的炸鸡了。"
        }
      ],
      "tips" : "　　鸡块炸两遍是为了让鸡块更酥脆。",
      "levelid" : 2,
      "comments" : [
        "{\n    ac = \"#999999\";\n    at = \"\";\n    ccc = 4;\n    \"child_comments\" =     (\n                {\n            ac = \"#999999\";\n            at = \"\";\n            ccc = 0;\n            city = \"\";\n            cmc = 2;\n            content =             (\n                                {\n                    c = \" \\U600e\\U4e48\\U5254\\U53bb\\U9aa8\\U5934\\Uff1f\\U6c42\\U5927\\U795e\\U6307\\U70b9\";\n                }\n            );\n            ia = 0;\n            id = 3818422;\n            \"ip_address_location\" = \"\";\n            like = 0;\n            \"like_count\" = 0;\n            \"reply_id\" = 3772485;\n            \"reply_user\" =             {\n                \"followers_count_text\" = \"\";\n                id = 17825411;\n                \"is_prime\" = 0;\n                lv = 0;\n                lvl = 1;\n                n = \"\\U674e\\U5145\";\n                p = \"\";\n                \"progress_image\" = \"\";\n                \"recipes_count_text\" = \"\";\n                relationship = \"-1\";\n                title = \"\";\n                v = 0;\n                \"verified_image\" = \"\";\n            };\n            \"sticker_icon\" =             (\n            );\n            time = \"2016-07-15 05:34:40\";\n            u =             {\n                \"followers_count_text\" = \"\";\n                id = 8718045;\n                \"is_prime\" = 0;\n                lv = 0;\n                lvl = 1;\n                n = \"\\U61d2\\U61d2\\U7684\\U7259\\U5237\";\n                p = \"http:\/\/tx1.douguo.net\/upload\/photo\/9\/0\/4\/70_u27510781226288192502.jpg\";\n                \"progress_image\" = \"\";\n                \"recipes_count_text\" = \"\";\n                relationship = \"-1\";\n                title = \"\";\n                v = 0;\n                \"verified_image\" = \"\";\n            };\n        },\n                {\n            ac = \"#999999\";\n            at = \"\";\n            ccc = 0;\n            city = \"\";\n            cmc = 2;\n            content =             (\n                                {\n                    c = \" \\U8fd9\\U4e2a\\U6211\\U77e5\\U9053\\U3002\\U70b8\\U4e24\\U904d\\U4f1a\\U66f4\\U9165\\U8106\\Uff0c\\U548c\\U70b8\\U571f\\U8c46\\U6761\\U4e00\\U4e2a\\U9053\\U7406\\U3002\";\n                }\n            );\n            ia = 0;\n            id = 3925669;\n            \"ip_address_location\" = \"\";\n            like = 0;\n            \"like_count\" = 0;\n            \"reply_id\" = 3772485;\n            \"reply_user\" =             {\n                \"followers_count_text\" = \"\";\n                id = 17825411;\n                \"is_prime\" = 0;\n                lv = 0;\n                lvl = 1;\n                n = \"\\U674e\\U5145\";\n                p = \"\";\n                \"progress_image\" = \"\";\n                \"recipes_count_text\" = \"\";\n                relationship = \"-1\";\n                title = \"\";\n                v = 0;\n                \"verified_image\" = \"\";\n            };\n            \"sticker_icon\" =             (\n            );\n            time = \"2016-08-04 03:03:57\";\n            u =             {\n                \"followers_count_text\" = \"\";\n                id = 16257310;\n                \"is_prime\" = 0;\n                lv = 0;\n                lvl = 2;\n                n = \"\\U5f61\\U5f61sxat\";\n                p = \"http:\/\/tx1.douguo.net\/upload\/photo\/4\/2\/6\/70_u52924425299840184701.jpeg\";\n                \"progress_image\" = \"\";\n                \"recipes_count_text\" = \"\";\n                relationship = \"-1\";\n                title = \"\";\n                v = 0;\n                \"verified_image\" = \"\";\n            };\n        }\n    );\n    city = \"\";\n    cmc = 2;\n    content =     (\n                {\n            c = \"\\U70b8\\U4e24\\U6b21\\U7684\\U65f6\\U95f4\\U5206\\U522b\\U662f\\U591a\\U5c11\\Uff0c\\U8fd8\\U6709\\U4e3a\\U4ec0\\U4e48\\U8981\\U70b8\\U4e24\\U904d\\Uff1f\";\n        }\n    );\n    ia = 0;\n    id = 3772485;\n    \"ip_address_location\" = \"\";\n    like = 0;\n    \"like_count\" = 0;\n    \"reply_id\" = 0;\n    \"sticker_icon\" =     (\n    );\n    time = \"2016-07-02 07:02:34\";\n    u =     {\n        \"followers_count_text\" = \"\";\n        id = 17825411;\n        \"is_prime\" = 0;\n        lv = 0;\n        lvl = 1;\n        n = \"\\U674e\\U5145\";\n        p = \"\";\n        \"progress_image\" = \"\";\n        \"recipes_count_text\" = \"\";\n        relationship = \"-1\";\n        title = \"\";\n        v = 0;\n        \"verified_image\" = \"\";\n    };\n}",
        "{\n    ac = \"#999999\";\n    at = \"\";\n    ccc = 2;\n    \"child_comments\" =     (\n                {\n            ac = \"#999999\";\n            at = \"\";\n            ccc = 0;\n            city = \"\";\n            cmc = 2;\n            content =             (\n                                {\n                    c = \" \\U9e21\\U817f\\U8089\\U8f83\\U5ae9\\Uff0c\\U9e21\\U80f8\\U8089\\U7565\\U67f4\\U3002\\U5f53\\U7136\\U5566\\Uff0c\\U9e21\\U80f8\\U8089\\U5982\\U679c\\U7a0d\\U4f5c\\U5904\\U7406\\Uff0c\\U4e5f\\U4f1a\\U6bd4\\U8f83\\U5ae9\\Uff0c\\U6bd4\\U5982\\U7528\\U725b\\U5976\\U814c\\U5236\\U4e00\\U4f1a\\U513f\\U3002\\U8fd9\\U9053\\U83dc\\U7528\\U5904\\U7406\\U8fc7\\U7684\\U9e21\\U80f8\\U505a\\Uff0c\\U5e94\\U8be5\\U4e5f\\U4f1a\\U5f88\\U597d\\U5403\\U3002 \";\n                }\n            );\n            ia = 0;\n            id = 3712054;\n            \"ip_address_location\" = \"\";\n            like = 0;\n            \"like_count\" = 0;\n            \"reply_id\" = 3706430;\n            \"reply_user\" =             {\n                \"followers_count_text\" = \"\";\n                id = 17572644;\n                \"is_prime\" = 0;\n                lv = 0;\n                lvl = 1;\n                n = \"25\\U4e36\";\n                p = \"http:\/\/tx1.douguo.net\/upload\/photo\/d\/e\/4\/70_u64586035996413223738.jpg\";\n                \"progress_image\" = \"\";\n                \"recipes_count_text\" = \"\";\n                relationship = \"-1\";\n                title = \"\";\n                v = 0;\n                \"verified_image\" = \"\";\n            };\n            \"sticker_icon\" =             (\n            );\n            time = \"2016-06-13 00:26:54\";\n            u =             {\n                \"followers_count_text\" = \"\";\n                id = 466693;\n                \"is_prime\" = 0;\n                lv = 0;\n                lvl = 3;\n                n = Solly;\n                p = \"http:\/\/tx1.douguo.net\/upload\/photo\/b\/e\/4\/70_u23676992.jpg\";\n                \"progress_image\" = \"\";\n                \"recipes_count_text\" = \"\";\n                relationship = \"-1\";\n                title = \"\";\n                v = 0;\n                \"verified_image\" = \"\";\n            };\n        },\n                {\n            ac = \"#999999\";\n            at = \"\";\n            ccc = 0;\n            city = \"\";\n            cmc = 2;\n            content =             (\n                                {\n                    c = \"  \\U539f\\U6765\\U5982\\U6b64\\Uff0c\\U660e\\U767d\\U4e86\\Uff0c\\U8c22\\U8c22~\";\n                }\n            );\n            ia = 0;\n            id = 3716723;\n            \"ip_address_location\" = \"\";\n            like = 0;\n            \"like_count\" = 0;\n            \"reply_id\" = 3712054;\n            \"reply_user\" =             {\n                \"followers_count_text\" = \"\";\n                id = 466693;\n                \"is_prime\" = 0;\n                lv = 0;\n                lvl = 3;\n                n = Solly;\n                p = \"http:\/\/tx1.douguo.net\/upload\/photo\/b\/e\/4\/70_u23676992.jpg\";\n                \"progress_image\" = \"\";\n                \"recipes_count_text\" = \"\";\n                relationship = \"-1\";\n                title = \"\";\n                v = 0;\n                \"verified_image\" = \"\";\n            };\n            \"sticker_icon\" =             (\n            );\n            time = \"2016-06-14 09:45:21\";\n            u =             {\n                \"followers_count_text\" = \"\";\n                id = 17572644;\n                \"is_prime\" = 0;\n                lv = 0;\n                lvl = 1;\n                n = \"25\\U4e36\";\n                p = \"http:\/\/tx1.douguo.net\/upload\/photo\/d\/e\/4\/70_u64586035996413223738.jpg\";\n                \"progress_image\" = \"\";\n                \"recipes_count_text\" = \"\";\n                relationship = \"-1\";\n                title = \"\";\n                v = 0;\n                \"verified_image\" = \"\";\n            };\n        }\n    );\n    city = \"\";\n    cmc = 2;\n    content =     (\n                {\n            c = \"\\U4e3a\\U4ec0\\U4e48\\U4e0d\\U7528\\U9e21\\U80f8\\U812f\\U8089\\U6765\\U505a\\Uff0c\\U8981\\U7528\\U9e21\\U817f\\U5462\\Uff1f\\U8089\\U8d28\\U4e0d\\U4e00\\U6837\\U5417\\Uff1f\";\n        }\n    );\n    ia = 0;\n    id = 3706430;\n    \"ip_address_location\" = \"\";\n    like = 0;\n    \"like_count\" = 1;\n    \"reply_id\" = 0;\n    \"sticker_icon\" =     (\n    );\n    time = \"2016-06-11 02:15:44\";\n    u =     {\n        \"followers_count_text\" = \"\";\n        id = 17572644;\n        \"is_prime\" = 0;\n        lv = 0;\n        lvl = 1;\n        n = \"25\\U4e36\";\n        p = \"http:\/\/tx1.douguo.net\/upload\/photo\/d\/e\/4\/70_u64586035996413223738.jpg\";\n        \"progress_image\" = \"\";\n        \"recipes_count_text\" = \"\";\n        relationship = \"-1\";\n        title = \"\";\n        v = 0;\n        \"verified_image\" = \"\";\n    };\n}",
        "{\n    ac = \"#999999\";\n    at = \"\";\n    ccc = 1;\n    \"child_comments\" =     (\n                {\n            ac = \"#999999\";\n            at = \"\";\n            ccc = 0;\n            city = \"\";\n            cmc = 2;\n            content =             (\n                                {\n                    c = \" \\U53ef\\U4ee5\\U554a\\Uff0c\\U8c03\\U5473\\U54c1\\U53ef\\U4ee5\\U6839\\U636e\\U81ea\\U5df1\\U7684\\U559c\\U6b22\\U8fdb\\U884c\\U8c03\\U6574\";\n                }\n            );\n            ia = 1;\n            id = 3721411;\n            \"ip_address_location\" = \"\";\n            like = 0;\n            \"like_count\" = 0;\n            \"reply_id\" = 3718779;\n            \"reply_user\" =             {\n                \"followers_count_text\" = \"\";\n                id = 17644887;\n                \"is_prime\" = 0;\n                lv = 0;\n                lvl = 1;\n                n = \"\\U79ef\\U9759\";\n                p = \"\";\n                \"progress_image\" = \"\";\n                \"recipes_count_text\" = \"\";\n                relationship = \"-1\";\n                title = \"\";\n                v = 0;\n                \"verified_image\" = \"\";\n            };\n            \"sticker_icon\" =             (\n            );\n            time = \"2016-06-16 01:48:45\";\n            u =             {\n                \"followers_count_text\" = \"\";\n                id = 2939327;\n                \"is_prime\" = 1;\n                lv = 0;\n                lvl = 6;\n                n = \"\\U8c22\\U5c0f\\U59d0\\U7684\\U53a8\\U623f\";\n                p = \"http:\/\/tx1.douguo.net\/upload\/photo\/d\/2\/f\/70_u73113665436377151732.jpg\";\n                \"progress_image\" = \"\";\n                \"recipes_count_text\" = \"\";\n                relationship = \"-1\";\n                title = \"\";\n                v = 1;\n                \"verified_image\" = \"\";\n            };\n        }\n    );\n    city = \"\";\n    cmc = 2;\n    content =     (\n                {\n            c = \"\\U767d\\U80e1\\U6912\\U7c89\\U53ef\\U4ee5\\U505a\\U5417\";\n        }\n    );\n    ia = 0;\n    id = 3718779;\n    \"ip_address_location\" = \"\";\n    like = 0;\n    \"like_count\" = 2;\n    \"reply_id\" = 0;\n    \"sticker_icon\" =     (\n    );\n    time = \"2016-06-15 04:45:24\";\n    u =     {\n        \"followers_count_text\" = \"\";\n        id = 17644887;\n        \"is_prime\" = 0;\n        lv = 0;\n        lvl = 1;\n        n = \"\\U79ef\\U9759\";\n        p = \"\";\n        \"progress_image\" = \"\";\n        \"recipes_count_text\" = \"\";\n        relationship = \"-1\";\n        title = \"\";\n        v = 0;\n        \"verified_image\" = \"\";\n    };\n}"
      ],
      "share_info" : {
        "qr_image" : "",
        "image" : "https:\/\/cp1.douguo.com\/upload\/caiku\/f\/b\/8\/fbd2b735a9adf6af40c501a39af8b568.jpg",
        "infos" : [
          {
            "name" : "黑椒炸鸡块：一扫而光的美味-会做饭很酷!",
            "mini_program" : [

            ],
            "qr_image" : "",
            "image" : "https:\/\/cp1.douguo.com\/upload\/caiku\/f\/b\/8\/fbd2b735a9adf6af40c501a39af8b568.jpg",
            "channel" : "1",
            "s_d" : "#学做饭用豆果美食# 我在@豆果美食 分享了【黑椒炸鸡块：一扫而光的美味-会做饭很酷!】，哟，集美们～你看这是神仙美味～快跟着我做一份，做一份！查看图片了解菜谱（更多美食秘籍点击https:\/\/m.weibo.cn\/p\/100404i33631获取）#会做饭很酷# ",
            "object_id" : "1392045",
            "s_u" : ""
          },
          {
            "qr_image" : "",
            "s_u" : "http:\/\/m.douguo.com\/cookbook\/1392045.html",
            "channel" : "7",
            "object_id" : "1392045",
            "s_d" : "黑椒炸鸡块：一扫而光的美味-会做饭很酷!",
            "name" : "黑椒炸鸡块：一扫而光的美味-会做饭很酷!",
            "image" : "https:\/\/cp1.douguo.com\/upload\/caiku\/f\/b\/8\/fbd2b735a9adf6af40c501a39af8b568.jpg",
            "mini_program" : [

            ]
          },
          {
            "image" : "https:\/\/cp1.douguo.com\/upload\/caiku\/f\/b\/8\/fbd2b735a9adf6af40c501a39af8b568.jpg",
            "mini_program" : [

            ],
            "qr_image" : "",
            "s_u" : "http:\/\/m.douguo.com\/cookbook\/1392045.html",
            "object_id" : "1392045",
            "channel" : "8",
            "s_d" : "黑椒炸鸡块：一扫而光的美味-会做饭很酷!",
            "name" : "黑椒炸鸡块：一扫而光的美味-会做饭很酷!"
          }
        ],
        "s_u" : "http:\/\/m.douguo.com\/cookbook\/1392045.html",
        "mini_program" : [

        ],
        "name" : "黑椒炸鸡块：一扫而光的美味-会做饭很酷!",
        "s_d" : "黑椒炸鸡块：一扫而光的美味-会做饭很酷!",
        "object_id" : "1392045"
      },
      "release_time" : ""
    }
  },
  "state" : "success"
}