{
  "status" : 0,
  "state" : "success",
  "result" : {
    "recipe" : {
      "cookstorys" : [
        {
          "icon" : "",
          "color" : "",
          "id" : 0,
          "type" : 0,
          "c" : "田园百合，把家里菜园的蔬菜，好吃的，想吃的、营养的、喜欢吃的、统统能在一道菜里品尝到，不需要每种单独做，不会浪费，还很好吃营养，口感丰富，味道独特，多层次。这样的一道蔬菜，你值得拥有。\n新鲜的百合肥美鲜嫩，含有丰富的维生素、蛋白质、膳食纤维。玉米含有丰富的维生素、胡萝卜素、蛋白质等。花生常吃可以增长记忆力。秋葵营养价值非常高，可以增强免疫力。胡萝卜丰富的维生素胡萝卜素、大葱、洋葱提香，自然的香味，增强免疫力。",
          "u" : ""
        }
      ],
      "rate_show" : 0,
      "author_id" : 2828115,
      "bs" : [

      ],
      "title_ad" : [

      ],
      "original_photo_path" : "http:\/\/i1.douguo.net\/upload\/caiku\/c\/2\/6\/yuan_c22a323a7edbde21aedf8253f571b026.jpg",
      "story_dsp" : [

      ],
      "cook_time" : "",
      "vfurl" : "",
      "clicks" : "972140",
      "pw" : 800,
      "ss" : [

      ],
      "recent_comments" : [

      ],
      "advice" : {
        "da" : {
          "iu" : "https:\/\/i1.douguo.com\/upload\/banner\/f\/4\/d\/f48877e53c37759bc12ac494be82ec8d.png",
          "t" : "查看详细分析",
          "url" : "https:\/\/m.douguo.com\/recipe\/nutrient_self\/1582964"
        },
        "at" : "对血管有保护作用～",
        "has" : [
          {
            "t" : "低饱和脂肪",
            "url" : "recipes:\/\/www.douguo.com\/simplerecipelist?t=低饱和脂肪&id=低饱和脂肪"
          },
          {
            "t" : "0胆固醇",
            "url" : "recipes:\/\/www.douguo.com\/simplerecipelist?t=0胆固醇&id=0胆固醇"
          }
        ]
      },
      "dish_count" : 7,
      "author_verified" : 1,
      "release_time" : "",
      "purl" : "",
      "rate_count" : 6,
      "rips" : 0,
      "su" : "",
      "cookwares" : [

      ],
      "cookstep" : [
        {
          "content" : "准备食材：百合、玉米、花生、胡萝卜、秋葵、洋葱、大葱等；",
          "frame" : "-1",
          "thumb" : "https:\/\/i1.douguo.com\/upload\/caiku\/d\/2\/d\/140_d2798012be272ba0bb61fba1994a647d.jpg",
          "image" : "https:\/\/i1.douguo.com\/upload\/caiku\/d\/2\/d\/d2798012be272ba0bb61fba1994a647d.jpg",
          "image_height" : 533,
          "image_width" : 800,
          "position" : 1
        },
        {
          "image_width" : 800,
          "content" : "百合掰开洗净、玉米曲粒粒洗净、花生去壳洗净、胡萝卜去皮切喜欢的形状、秋葵洗净切好、洋葱洗净切块、大葱洗净切段；",
          "image_height" : 533,
          "image" : "https:\/\/i1.douguo.com\/upload\/caiku\/c\/b\/7\/cb13c9fdfdd0cc3487f460892f00e1d7.jpg",
          "frame" : "-1",
          "position" : 2,
          "thumb" : "https:\/\/i1.douguo.com\/upload\/caiku\/c\/b\/7\/140_cb13c9fdfdd0cc3487f460892f00e1d7.jpg"
        },
        {
          "content" : "热锅，倒油，放洋葱、大葱中火煸香；",
          "image" : "https:\/\/i1.douguo.com\/upload\/caiku\/4\/7\/8\/4759061172fcfc0c46598a4a948f0be8.jpg",
          "frame" : "-1",
          "thumb" : "https:\/\/i1.douguo.com\/upload\/caiku\/4\/7\/8\/140_4759061172fcfc0c46598a4a948f0be8.jpg",
          "image_width" : 800,
          "position" : 3,
          "image_height" : 533
        },
        {
          "image_height" : 533,
          "image_width" : 800,
          "thumb" : "https:\/\/i1.douguo.com\/upload\/caiku\/c\/b\/d\/140_cb338f2cd7b8690e1791855d28d6ca5d.jpg",
          "content" : "接着放秋葵、胡萝卜、玉米、花生大火翻炒八成熟； ",
          "image" : "https:\/\/i1.douguo.com\/upload\/caiku\/c\/b\/d\/cb338f2cd7b8690e1791855d28d6ca5d.jpg",
          "position" : 4,
          "frame" : "-1"
        },
        {
          "image" : "https:\/\/i1.douguo.com\/upload\/caiku\/b\/b\/b\/bb52800cca71a34748c6f579f640ee4b.jpg",
          "frame" : "-1",
          "position" : 5,
          "image_width" : 800,
          "content" : "最后放百合，翻炒；",
          "thumb" : "https:\/\/i1.douguo.com\/upload\/caiku\/b\/b\/b\/140_bb52800cca71a34748c6f579f640ee4b.jpg",
          "image_height" : 533
        },
        {
          "image_height" : 533,
          "frame" : "-1",
          "thumb" : "https:\/\/i1.douguo.com\/upload\/caiku\/3\/3\/d\/140_33d0acb14153d3f2cd4b463a45b9ae1d.jpg",
          "position" : 6,
          "image" : "https:\/\/i1.douguo.com\/upload\/caiku\/3\/3\/d\/33d0acb14153d3f2cd4b463a45b9ae1d.jpg",
          "content" : "放盐炒均即可；",
          "image_width" : 800
        }
      ],
      "minor" : [
        "{\n    note = 5ml;\n    title = \"\\U6a44\\U6984\\U6cb9\";\n    tu = \"https:\/\/https:\/\/m.douguo.com\/ingredients\/\\U6a44\\U6984\\U6cb9\/detailmaterial\";\n}",
        "{\n    note = \"3\\U514b\";\n    title = \"\\U76d0\";\n    tu = \"https:\/\/https:\/\/m.douguo.com\/ingredients\/\\U76d0\/detailmaterial\";\n}"
      ],
      "recommendation_tag" : "",
      "share_info" : {
        "s_u" : "http:\/\/m.douguo.com\/cookbook\/1582964.html",
        "mini_program" : [

        ],
        "name" : "田园百合#嘉宝笑容厨房#-会做饭很酷!",
        "s_d" : "田园百合#嘉宝笑容厨房#-会做饭很酷!",
        "object_id" : "1582964",
        "qr_image" : "",
        "image" : "https:\/\/cp1.douguo.com\/upload\/caiku\/c\/2\/6\/c22a323a7edbde21aedf8253f571b026.jpg",
        "infos" : [
          {
            "mini_program" : [

            ],
            "channel" : "1",
            "image" : "https:\/\/cp1.douguo.com\/upload\/caiku\/c\/2\/6\/c22a323a7edbde21aedf8253f571b026.jpg",
            "object_id" : "1582964",
            "s_u" : "",
            "s_d" : "#学做饭用豆果美食# 会做饭真是太酷了！我在@豆果美食 分享了【田园百合#嘉宝笑容厨房#-会做饭很酷!】OMG！这是什么神仙美味啊~真的强烈推荐你们试一试～查看图片了解菜谱（每天限量免费课程，想跟大师学厨艺就来这https:\/\/m.weibo.cn\/p\/100404i33631）",
            "qr_image" : "",
            "name" : "田园百合#嘉宝笑容厨房#-会做饭很酷!"
          },
          {
            "name" : "田园百合#嘉宝笑容厨房#-会做饭很酷!",
            "qr_image" : "",
            "s_d" : "田园百合#嘉宝笑容厨房#-会做饭很酷!",
            "object_id" : "1582964",
            "channel" : "7",
            "mini_program" : [

            ],
            "image" : "https:\/\/cp1.douguo.com\/upload\/caiku\/c\/2\/6\/c22a323a7edbde21aedf8253f571b026.jpg",
            "s_u" : "http:\/\/m.douguo.com\/cookbook\/1582964.html"
          },
          {
            "image" : "https:\/\/cp1.douguo.com\/upload\/caiku\/c\/2\/6\/c22a323a7edbde21aedf8253f571b026.jpg",
            "channel" : "8",
            "object_id" : "1582964",
            "mini_program" : [

            ],
            "s_u" : "http:\/\/m.douguo.com\/cookbook\/1582964.html",
            "qr_image" : "",
            "name" : "田园百合#嘉宝笑容厨房#-会做饭很酷!",
            "s_d" : "田园百合#嘉宝笑容厨房#-会做饭很酷!"
          }
        ]
      },
      "ipoi" : "",
      "first_level_comment_count" : 6,
      "views_count_text" : "101.3万",
      "ecs" : 0,
      "ipurl" : "",
      "thumb_height" : 0,
      "rpt" : "",
      "cook_difficulty_image" : "",
      "thumb_path" : "https:\/\/i1.douguo.com\/upload\/caiku\/c\/2\/6\/300_c22a323a7edbde21aedf8253f571b026.jpg",
      "rrpt" : "",
      "image" : "http:\/\/i1.douguo.net\/upload\/caiku\/c\/2\/6\/300_c22a323a7edbde21aedf8253f571b026.jpg",
      "display_ingredient" : 1,
      "rewarded_video_dsp" : [

      ],
      "event" : {
        "id" : 0
      },
      "comments_count_text" : "10",
      "rpid" : 0,
      "eu" : "recipes:\/\/www.douguo.com\/postdetail?id=242016",
      "cookstory" : "田园百合，把家里菜园的蔬菜，好吃的，想吃的、营养的、喜欢吃的、统统能在一道菜里品尝到，不需要每种单独做，不会浪费，还很好吃营养，口感丰富，味道独特，多层次。这样的一道蔬菜，你值得拥有。\n新鲜的百合肥美鲜嫩，含有丰富的维生素、蛋白质、膳食纤维。玉米含有丰富的维生素、胡萝卜素、蛋白质等。花生常吃可以增长记忆力。秋葵营养价值非常高，可以增强免疫力。胡萝卜丰富的维生素胡萝卜素、大葱、洋葱提香，自然的香味，增强免疫力。",
      "favo_counts_text" : "4396",
      "user" : {
        "coursecount" : 0,
        "lv" : 0,
        "user_photo" : "http:\/\/tx1.douguo.net\/upload\/photo\/0\/b\/e\/70_u70335056827639003117.jpg",
        "birthday" : "",
        "weibo_nick" : "",
        "age" : "",
        "userid" : "2828115",
        "progress_image" : "",
        "pc" : 0,
        "diaries_count" : 0,
        "mobile" : "",
        "fc" : 0,
        "following_count" : 0,
        "point" : 0,
        "favorites_count" : 0,
        "favor_diaries_count" : 0,
        "is_prime" : 0,
        "subscription" : 0,
        "avatar_medium" : "http:\/\/tx1.douguo.net\/upload\/photo\/0\/b\/e\/140_u70335056827639003117.jpg",
        "sign" : "",
        "verified" : 1,
        "setted_email" : 0,
        "user_large_photo" : "http:\/\/tx1.douguo.net\/upload\/photo\/0\/b\/e\/yuan_u70335056827639003117.jpg",
        "verified_url" : "https:\/\/m.douguo.com\/user\/prodesc",
        "qq_weibo_nick" : "",
        "location" : 0,
        "user_cover" : "",
        "introduction" : "",
        "gender" : 2,
        "followers_count" : 0,
        "lvl" : 7,
        "qzone_nick" : "",
        "nick" : "sourcehe",
        "recipes_count" : 0,
        "regist_time" : "",
        "email" : "",
        "subscription_article_count" : 0,
        "verified_image" : "https:\/\/i1.douguo.com\/upload\/note\/d\/a\/a\/da84247847aebe48d9dd0fcdac88862a.png",
        "dishes_count" : 0,
        "user_id" : "2828115"
      },
      "comments_count" : 10,
      "mid_mdsp" : [

      ],
      "btm_dsp" : [

      ],
      "tips" : "1.新鲜百合要挑选肥大，肉多汁多的才好吃；\n2.百合易熟，炒1分钟即可；\n3.洋葱、大葱具有提香，最早煸出香味，这样整道菜不需要加调料就很香了。",
      "top_mdsp" : [

      ],
      "sc" : 0,
      "collect_status" : 0,
      "notes" : [

      ],
      "levelid" : 2,
      "old_comments" : [

      ],
      "guide_image" : "",
      "vc" : "1012841",
      "brand_day_dsp" : [

      ],
      "cook_difficulty" : "",
      "ssu" : "",
      "ipt" : "",
      "rdsps" : [

      ],
      "act_des" : "",
      "rpst" : "",
      "hq" : 1,
      "favo_counts" : 4396,
      "rsm" : "该功能暂停使用",
      "create_time" : "2017-07-24 17:12:19",
      "recipe_list_tags" : [
        {
          "background_start_color" : "#F4F5F5",
          "text_color" : "#141515",
          "text" : "关注的人",
          "jump_url" : "",
          "background_end_color" : "#F4F5F5",
          "right_image" : "",
          "background_border_color" : ""
        },
        {
          "background_start_color" : "#F4F5F5",
          "text_color" : "#141515",
          "text" : "内容详细",
          "background_border_color" : "",
          "background_end_color" : "#F4F5F5",
          "jump_url" : "",
          "right_image" : ""
        }
      ],
      "cook_id" : "1582964",
      "recipe_tags" : [

      ],
      "related_ads" : [

      ],
      "dishes" : [

      ],
      "photo_path" : "https:\/\/i1.douguo.com\/upload\/caiku\/c\/2\/6\/600_c22a323a7edbde21aedf8253f571b026.jpg",
      "major" : [
        {
          "note" : "100克",
          "title" : "百合",
          "tu" : "https:\/\/m.douguo.com\/ingredients\/百合\/detailmaterial"
        },
        {
          "note" : "100克",
          "tu" : "https:\/\/m.douguo.com\/ingredients\/胡萝卜\/detailmaterial",
          "title" : "胡萝卜"
        },
        {
          "note" : "100克",
          "title" : "玉米",
          "tu" : "https:\/\/m.douguo.com\/ingredients\/玉米\/detailmaterial"
        },
        {
          "note" : "100克",
          "title" : "花生"
        },
        {
          "note" : "100克",
          "tu" : "https:\/\/m.douguo.com\/ingredients\/秋葵\/detailmaterial",
          "title" : "秋葵"
        },
        {
          "tu" : "https:\/\/m.douguo.com\/ingredients\/大葱\/detailmaterial",
          "note" : "50克",
          "title" : "大葱"
        },
        {
          "note" : "50克",
          "tu" : "https:\/\/m.douguo.com\/ingredients\/洋葱\/detailmaterial",
          "title" : "洋葱"
        }
      ],
      "recommend_label" : "7人学做",
      "ipia" : [

      ],
      "dish_count_text" : "7",
      "ipit" : 0,
      "rate" : 5,
      "rcs" : [

      ],
      "author_photo" : "http:\/\/tx1.douguo.net\/upload\/photo\/0\/b\/e\/70_u70335056827639003117.jpg",
      "v_u" : "",
      "sr" : "",
      "rrps" : [

      ],
      "ph" : 533,
      "hqu" : "recipes:\/\/www.douguo.com\/notedetail?id=21162253",
      "packages_id" : [

      ],
      "author" : "sourcehe",
      "ipci" : "",
      "recommended" : 0,
      "title" : "田园百合",
      "tags" : [

      ],
      "vu" : "",
      "cook_time_image" : "",
      "comments" : [
        "{\n    ac = \"#999999\";\n    at = \"\\U4e3d\\U6c34\\U5e02\";\n    ccc = 2;\n    \"child_comments\" =     (\n                {\n            ac = \"#999999\";\n            at = \"\\U6b66\\U6c49\\U5e02\";\n            ccc = 0;\n            city = \"\\U6b66\\U6c49\\U5e02\";\n            cmc = 2;\n            content =             (\n                                {\n                    c = \" \\U5e72\\U767e\\U5408\\Uff1f\\U65b0\\U9c9c\\U7684\\U6495\\U6389\\U8584\\U819c\\U5c31\\U597d\";\n                }\n            );\n            ia = 0;\n            id = 8589574;\n            \"ip_address_location\" = \"\";\n            like = 0;\n            \"like_count\" = 0;\n            \"reply_id\" = 8160644;\n            \"reply_user\" =             {\n                \"followers_count_text\" = \"\";\n                id = 22308868;\n                \"is_prime\" = 0;\n                lv = 0;\n                lvl = 1;\n                n = \"\\U98ce\\U95f4\\U5343\\U666f\\U6211\\U7684\\U7231\";\n                p = \"http:\/\/tx1.douguo.net\/upload\/photo\/9\/1\/3\/70_u30967258600303225038.jpg\";\n                \"progress_image\" = \"\";\n                \"recipes_count_text\" = \"\";\n                relationship = \"-1\";\n                title = \"\";\n                v = 0;\n                \"verified_image\" = \"\";\n            };\n            \"sticker_icon\" =             (\n            );\n            time = \"2021-03-28 18:45:00\";\n            u =             {\n                \"followers_count_text\" = \"\";\n                id = 5303957;\n                \"is_prime\" = 0;\n                lv = 0;\n                lvl = 3;\n                n = \"\\U56da\\U5c3d\";\n                p = \"http:\/\/tx1.douguo.net\/upload\/photo\/5\/2\/4\/70_u08367880958699151045.jpg\";\n                \"progress_image\" = \"\";\n                \"recipes_count_text\" = \"\";\n                relationship = \"-1\";\n                title = \"\";\n                v = 0;\n                \"verified_image\" = \"\";\n            };\n        },\n                {\n            ac = \"#999999\";\n            at = \"\";\n            ccc = 0;\n            city = \"\";\n            cmc = 2;\n            content =             (\n                                {\n                    c = \" \\U90a3\\U4f60\\U7528\\U751c\\U767e\\U5408\\U8bd5\\U8bd5\";\n                }\n            );\n            ia = 0;\n            id = 9025318;\n            \"ip_address_location\" = \"\\U6d59\\U6c5f\";\n            like = 0;\n            \"like_count\" = 0;\n            \"reply_id\" = 8160644;\n            \"reply_user\" =             {\n                \"followers_count_text\" = \"\";\n                id = 22308868;\n                \"is_prime\" = 0;\n                lv = 0;\n                lvl = 1;\n                n = \"\\U98ce\\U95f4\\U5343\\U666f\\U6211\\U7684\\U7231\";\n                p = \"http:\/\/tx1.douguo.net\/upload\/photo\/9\/1\/3\/70_u30967258600303225038.jpg\";\n                \"progress_image\" = \"\";\n                \"recipes_count_text\" = \"\";\n                relationship = \"-1\";\n                title = \"\";\n                v = 0;\n                \"verified_image\" = \"\";\n            };\n            \"sticker_icon\" =             (\n            );\n            time = \"2023-05-04 17:23:55\";\n            u =             {\n                \"followers_count_text\" = \"\";\n                id = 27511993;\n                \"is_prime\" = 0;\n                lv = 0;\n                lvl = 1;\n                n = \"\\U7409\\U7483udhb\";\n                p = \"http:\/\/tx1.douguo.net\/upload\/photo\/1\/1\/1\/70_b916105c8502ab223be6fb1000443fad.png\";\n                \"progress_image\" = \"\";\n                \"recipes_count_text\" = \"\";\n                relationship = \"-1\";\n                title = \"\";\n                v = 0;\n                \"verified_image\" = \"\";\n            };\n        }\n    );\n    city = \"\\U4e3d\\U6c34\\U5e02\";\n    cmc = 2;\n    content =     (\n                {\n            c = \"\\U767e\\U5408\\U600e\\U4e48\\U662f\\U82e6\\U7684\\U3002\\U7b2c\\U4e00\\U6b21\\U5403\\U767e\\U5408\\U3002\\U5403\\U4e0d\\U6765\\U82e6\\U82e6\\U7684\";\n        }\n    );\n    ia = 0;\n    id = 8160644;\n    \"ip_address_location\" = \"\";\n    like = 0;\n    \"like_count\" = 0;\n    \"reply_id\" = 0;\n    \"sticker_icon\" =     (\n    );\n    time = \"2020-07-23 14:58:30\";\n    u =     {\n        \"followers_count_text\" = \"\";\n        id = 22308868;\n        \"is_prime\" = 0;\n        lv = 0;\n        lvl = 1;\n        n = \"\\U98ce\\U95f4\\U5343\\U666f\\U6211\\U7684\\U7231\";\n        p = \"http:\/\/tx1.douguo.net\/upload\/photo\/9\/1\/3\/70_u30967258600303225038.jpg\";\n        \"progress_image\" = \"\";\n        \"recipes_count_text\" = \"\";\n        relationship = \"-1\";\n        title = \"\";\n        v = 0;\n        \"verified_image\" = \"\";\n    };\n}",
        "{\n    ac = \"#999999\";\n    at = \"\";\n    ccc = 1;\n    \"child_comments\" =     (\n                {\n            ac = \"#999999\";\n            at = \"\";\n            ccc = 0;\n            city = \"\";\n            cmc = 2;\n            content =             (\n                                {\n                    c = \" \\U8c22\\U8c22\";\n                }\n            );\n            ia = 1;\n            id = 4939360;\n            \"ip_address_location\" = \"\";\n            like = 0;\n            \"like_count\" = 0;\n            \"reply_id\" = 4937425;\n            \"reply_user\" =             {\n                \"followers_count_text\" = \"\";\n                id = 18507177;\n                \"is_prime\" = 0;\n                lv = 0;\n                lvl = 3;\n                n = \"\\U7f57\\U8389\\U8389\";\n                p = \"http:\/\/tx1.douguo.net\/upload\/photo\/3\/d\/9\/70_u16483879189290408182248.jpg\";\n                \"progress_image\" = \"\";\n                \"recipes_count_text\" = \"\";\n                relationship = \"-1\";\n                title = \"\";\n                v = 0;\n                \"verified_image\" = \"\";\n            };\n            \"sticker_icon\" =             (\n            );\n            time = \"2017-07-25 00:24:54\";\n            u =             {\n                \"followers_count_text\" = \"\";\n                id = 2828115;\n                \"is_prime\" = 0;\n                lv = 0;\n                lvl = 7;\n                n = sourcehe;\n                p = \"http:\/\/tx1.douguo.net\/upload\/photo\/0\/b\/e\/70_u70335056827639003117.jpg\";\n                \"progress_image\" = \"\";\n                \"recipes_count_text\" = \"\";\n                relationship = \"-1\";\n                title = \"\";\n                v = 1;\n                \"verified_image\" = \"\";\n            };\n        }\n    );\n    city = \"\";\n    cmc = 2;\n    content =     (\n                {\n            c = \"\\U4e00\\U70b9\\U90fd\\U4e0d\\U5938\\U5f20\\U7684\\U8bf4\\U22ef\\U22ef\\U4f53\\U4f1a\\U5230\\U4e86\\U80c3\\U8212\\U670d\\U5230\\U6781\\U81f4\\U7684\\U611f\\U89c9\\U22ef\\U22ef\";\n        }\n    );\n    ia = 0;\n    id = 4937425;\n    \"ip_address_location\" = \"\";\n    like = 0;\n    \"like_count\" = 1;\n    \"reply_id\" = 0;\n    \"sticker_icon\" =     (\n    );\n    time = \"2017-07-24 10:07:04\";\n    u =     {\n        \"followers_count_text\" = \"\";\n        id = 18507177;\n        \"is_prime\" = 0;\n        lv = 0;\n        lvl = 3;\n        n = \"\\U7f57\\U8389\\U8389\";\n        p = \"http:\/\/tx1.douguo.net\/upload\/photo\/3\/d\/9\/70_u16483879189290408182248.jpg\";\n        \"progress_image\" = \"\";\n        \"recipes_count_text\" = \"\";\n        relationship = \"-1\";\n        title = \"\";\n        v = 0;\n        \"verified_image\" = \"\";\n    };\n}",
        "{\n    ac = \"#999999\";\n    at = \"\";\n    ccc = 1;\n    \"child_comments\" =     (\n                {\n            ac = \"#999999\";\n            at = \"\";\n            ccc = 0;\n            city = \"\";\n            cmc = 2;\n            content =             (\n                                {\n                    c = \" \\U8c22\\U8c22\";\n                }\n            );\n            ia = 1;\n            id = 4939351;\n            \"ip_address_location\" = \"\";\n            like = 0;\n            \"like_count\" = 0;\n            \"reply_id\" = 4937688;\n            \"reply_user\" =             {\n                \"followers_count_text\" = \"\";\n                id = 18482102;\n                \"is_prime\" = 0;\n                lv = 0;\n                lvl = 3;\n                n = 1866430;\n                p = \"http:\/\/tx1.douguo.net\/upload\/photo\/0\/0\/7\/70_u06300172626023161956.jpg\";\n                \"progress_image\" = \"\";\n                \"recipes_count_text\" = \"\";\n                relationship = \"-1\";\n                title = \"\";\n                v = 0;\n                \"verified_image\" = \"\";\n            };\n            \"sticker_icon\" =             (\n            );\n            time = \"2017-07-25 00:22:11\";\n            u =             {\n                \"followers_count_text\" = \"\";\n                id = 2828115;\n                \"is_prime\" = 0;\n                lv = 0;\n                lvl = 7;\n                n = sourcehe;\n                p = \"http:\/\/tx1.douguo.net\/upload\/photo\/0\/b\/e\/70_u70335056827639003117.jpg\";\n                \"progress_image\" = \"\";\n                \"recipes_count_text\" = \"\";\n                relationship = \"-1\";\n                title = \"\";\n                v = 1;\n                \"verified_image\" = \"\";\n            };\n        }\n    );\n    city = \"\";\n    cmc = 2;\n    content =     (\n                {\n            c = \"\\U770b\\U5f97\\U6211\\U6d41\\U53e3\\U6c34\";\n        }\n    );\n    ia = 0;\n    id = 4937688;\n    \"ip_address_location\" = \"\";\n    like = 0;\n    \"like_count\" = 0;\n    \"reply_id\" = 0;\n    \"sticker_icon\" =     (\n    );\n    time = \"2017-07-24 11:07:04\";\n    u =     {\n        \"followers_count_text\" = \"\";\n        id = 18482102;\n        \"is_prime\" = 0;\n        lv = 0;\n        lvl = 3;\n        n = 1866430;\n        p = \"http:\/\/tx1.douguo.net\/upload\/photo\/0\/0\/7\/70_u06300172626023161956.jpg\";\n        \"progress_image\" = \"\";\n        \"recipes_count_text\" = \"\";\n        relationship = \"-1\";\n        title = \"\";\n        v = 0;\n        \"verified_image\" = \"\";\n    };\n}"
      ]
    }
  }
}