{
  "status" : 0,
  "result" : {
    "recipe" : {
      "guide_image" : "",
      "tips" : "",
      "mid_mdsp" : [

      ],
      "rewarded_video_dsp" : [

      ],
      "ss" : [

      ],
      "rcs" : [

      ],
      "dish_count_text" : "",
      "views_count_text" : "2.3万",
      "ssu" : "",
      "cook_id" : "1397994",
      "brand_day_dsp" : [

      ],
      "ipt" : "",
      "original_photo_path" : "http:\/\/i1.douguo.net\/upload\/caiku\/c\/4\/1\/yuan_c44b925fcb16d4856bfda866fd6c1bc1.jpeg",
      "major" : [
        {
          "note" : "大家随意",
          "title" : "萝卜丝、包菜、鸡蛋，葱"
        },
        {
          "note" : "",
          "title" : "小虾皮"
        },
        {
          "title" : "酱油、盐",
          "note" : "少许，虾皮是咸的"
        }
      ],
      "author_id" : 16564685,
      "vc" : "22998",
      "clicks" : "19860",
      "rate_count" : 0,
      "share_info" : {
        "mini_program" : [

        ],
        "object_id" : "1397994",
        "qr_image" : "",
        "s_d" : "平民美食-会做饭很酷!",
        "image" : "https:\/\/cp1.douguo.com\/upload\/caiku\/c\/4\/1\/c44b925fcb16d4856bfda866fd6c1bc1.jpeg",
        "name" : "平民美食-会做饭很酷!",
        "s_u" : "http:\/\/m.douguo.com\/cookbook\/1397994.html",
        "infos" : [
          {
            "name" : "平民美食-会做饭很酷!",
            "object_id" : "1397994",
            "s_u" : "",
            "s_d" : "#学做饭用豆果美食# 会做饭真是好酷啊！我在@豆果美食 分享了【平民美食-会做饭很酷!】，快来康康我这道菜做的怎么样～美味停不下来！查看图片了解菜谱（你喜欢的美食都在这里！https:\/\/m.weibo.cn\/p\/100404i33631）",
            "mini_program" : [

            ],
            "channel" : "1",
            "image" : "https:\/\/cp1.douguo.com\/upload\/caiku\/c\/4\/1\/c44b925fcb16d4856bfda866fd6c1bc1.jpeg",
            "qr_image" : ""
          },
          {
            "qr_image" : "",
            "mini_program" : [

            ],
            "name" : "平民美食-会做饭很酷!",
            "s_u" : "http:\/\/m.douguo.com\/cookbook\/1397994.html",
            "s_d" : "平民美食-会做饭很酷!",
            "image" : "https:\/\/cp1.douguo.com\/upload\/caiku\/c\/4\/1\/c44b925fcb16d4856bfda866fd6c1bc1.jpeg",
            "object_id" : "1397994",
            "channel" : "7"
          },
          {
            "image" : "https:\/\/cp1.douguo.com\/upload\/caiku\/c\/4\/1\/c44b925fcb16d4856bfda866fd6c1bc1.jpeg",
            "name" : "平民美食-会做饭很酷!",
            "s_u" : "http:\/\/m.douguo.com\/cookbook\/1397994.html",
            "channel" : "8",
            "qr_image" : "",
            "object_id" : "1397994",
            "mini_program" : [

            ],
            "s_d" : "平民美食-会做饭很酷!"
          }
        ]
      },
      "su" : "",
      "act_des" : "",
      "author_photo" : "",
      "first_level_comment_count" : 2,
      "pw" : 800,
      "vu" : "",
      "eu" : "recipes:\/\/www.douguo.com\/postdetail?id=242016",
      "story_dsp" : [

      ],
      "rpst" : "",
      "hqu" : "recipes:\/\/www.douguo.com\/notedetail?id=21162253",
      "display_ingredient" : 1,
      "ipoi" : "",
      "bs" : [

      ],
      "image" : "http:\/\/i1.douguo.net\/upload\/caiku\/c\/4\/1\/300_c44b925fcb16d4856bfda866fd6c1bc1.jpeg",
      "notes" : [

      ],
      "release_time" : "",
      "rsm" : "该功能暂停使用",
      "recent_comments" : [

      ],
      "rrps" : [

      ],
      "cook_difficulty_image" : "https:\/\/i1.douguo.com\/upload\/banner\/1551424390.png",
      "rrpt" : "",
      "rips" : 0,
      "cookwares" : [

      ],
      "packages_id" : [

      ],
      "cookstorys" : [

      ],
      "ipit" : 0,
      "recipe_list_tags" : [

      ],
      "ipia" : [

      ],
      "comments_count_text" : "2",
      "hq" : 0,
      "purl" : "",
      "title" : "平民美食",
      "photo_path" : "https:\/\/i1.douguo.com\/upload\/caiku\/c\/4\/1\/600_c44b925fcb16d4856bfda866fd6c1bc1.jpeg",
      "collect_status" : 0,
      "recommend_label" : "2.3万人看过",
      "ipci" : "",
      "top_mdsp" : [

      ],
      "rpid" : 0,
      "v_u" : "",
      "dish_count" : 0,
      "old_comments" : [

      ],
      "user" : {
        "verified_image" : "",
        "user_photo" : "",
        "recipes_count" : 0,
        "coursecount" : 0,
        "subscription_article_count" : 0,
        "nick" : "^-^。郭若娜",
        "qzone_nick" : "",
        "favor_diaries_count" : 0,
        "avatar_medium" : "",
        "gender" : 2,
        "qq_weibo_nick" : "",
        "birthday" : "",
        "introduction" : "",
        "regist_time" : "",
        "diaries_count" : 0,
        "favorites_count" : 0,
        "email" : "",
        "age" : "",
        "verified_url" : "https:\/\/m.douguo.com\/user\/prodesc",
        "userid" : "16564685",
        "mobile" : "",
        "is_prime" : 0,
        "point" : 0,
        "location" : 0,
        "subscription" : 0,
        "user_cover" : "",
        "fc" : 0,
        "progress_image" : "",
        "sign" : "",
        "user_large_photo" : "",
        "lvl" : 1,
        "user_id" : "16564685",
        "verified" : 0,
        "following_count" : 0,
        "setted_email" : 0,
        "lv" : 0,
        "dishes_count" : 0,
        "weibo_nick" : "",
        "pc" : 0,
        "followers_count" : 0
      },
      "recommendation_tag" : "",
      "related_ads" : [

      ],
      "minor" : [

      ],
      "favo_counts_text" : "164",
      "cook_time" : "10分钟左右",
      "ecs" : 0,
      "cookstory" : "",
      "btm_dsp" : [

      ],
      "sc" : 0,
      "recipe_tags" : [

      ],
      "title_ad" : [

      ],
      "create_time" : "2016-06-21 13:12:57",
      "comments_count" : 2,
      "author" : "^-^。郭若娜",
      "thumb_path" : "https:\/\/i1.douguo.com\/upload\/caiku\/c\/4\/1\/300_c44b925fcb16d4856bfda866fd6c1bc1.jpeg",
      "dishes" : [

      ],
      "author_verified" : 0,
      "rate_show" : 0,
      "rpt" : "",
      "rate" : 0,
      "favo_counts" : 164,
      "ipurl" : "",
      "vfurl" : "",
      "cook_difficulty" : "切墩(初级)",
      "thumb_height" : 0,
      "levelid" : 3,
      "tags" : [

      ],
      "cook_time_image" : "https:\/\/i1.douguo.com\/upload\/banner\/1551424358.png",
      "comments" : [
        "{\n    ac = \"#999999\";\n    at = \"\";\n    ccc = 0;\n    \"child_comments\" =     (\n    );\n    city = \"\";\n    cmc = 2;\n    content =     (\n                {\n            c = \"\\U4f60\\U60f3\\U77e5\\U9053\\U54ea\\U4e00\\U6b65\\U5462\\Uff1f\";\n        }\n    );\n    ia = 1;\n    id = 3754191;\n    \"ip_address_location\" = \"\";\n    like = 0;\n    \"like_count\" = 0;\n    \"reply_id\" = 0;\n    \"sticker_icon\" =     (\n    );\n    time = \"2016-06-26 03:42:27\";\n    u =     {\n        \"followers_count_text\" = \"\";\n        id = 16564685;\n        \"is_prime\" = 0;\n        lv = 0;\n        lvl = 1;\n        n = \"^-^\\U3002\\U90ed\\U82e5\\U5a1c\";\n        p = \"\";\n        \"progress_image\" = \"\";\n        \"recipes_count_text\" = \"\";\n        relationship = \"-1\";\n        title = \"\";\n        v = 0;\n        \"verified_image\" = \"\";\n    };\n}",
        "{\n    ac = \"#999999\";\n    at = \"\";\n    ccc = 0;\n    \"child_comments\" =     (\n    );\n    city = \"\";\n    cmc = 2;\n    content =     (\n                {\n            c = \"\\U6b65\\U9aa4\\U53ef\\U4ee5\\U8be6\\U7ec6\\U4e00\\U70b9\\U54e6 \";\n        }\n    );\n    ia = 0;\n    id = 3737729;\n    \"ip_address_location\" = \"\";\n    like = 0;\n    \"like_count\" = 0;\n    \"reply_id\" = 0;\n    \"sticker_icon\" =     (\n    );\n    time = \"2016-06-21 05:16:19\";\n    u =     {\n        \"followers_count_text\" = \"\";\n        id = 17573072;\n        \"is_prime\" = 0;\n        lv = 0;\n        lvl = 6;\n        n = \"\\U6a58\\U5b50\\U6743\\U840c\\U840c\";\n        p = \"http:\/\/tx1.douguo.net\/upload\/photo\/a\/1\/e\/70_u6459037550772106021513.jpg\";\n        \"progress_image\" = \"\";\n        \"recipes_count_text\" = \"\";\n        relationship = \"-1\";\n        title = \"\";\n        v = 0;\n        \"verified_image\" = \"\";\n    };\n}"
      ],
      "ph" : 600,
      "sr" : "",
      "recommended" : 0,
      "rdsps" : [

      ],
      "cookstep" : [
        {
          "image_height" : 600,
          "image_width" : 800,
          "image" : "https:\/\/i1.douguo.com\/upload\/caiku\/b\/a\/2\/ba47c184448609d745e775d0cf2c6c12.jpeg",
          "thumb" : "https:\/\/i1.douguo.com\/upload\/caiku\/b\/a\/2\/140_ba47c184448609d745e775d0cf2c6c12.jpeg",
          "frame" : "-1",
          "position" : 1,
          "content" : "材料准备就绪之后呢，少许油先把材料炒熟捞出，再发面条和虾皮同时炒，最好是下一点沙茶粉，3-4分钟下材料翻炒3左右就OK了哦！"
        }
      ]
    }
  },
  "state" : "success"
}