{
  "status" : 0,
  "result" : {
    "recipe" : {
      "sr" : "",
      "guide_image" : "",
      "favo_counts_text" : "7.9万",
      "sc" : 0,
      "recipe_list_tags" : [
        {
          "background_border_color" : "",
          "text_color" : "#141515",
          "text" : "关注的人",
          "jump_url" : "",
          "right_image" : "",
          "background_end_color" : "#F4F5F5",
          "background_start_color" : "#F4F5F5"
        }
      ],
      "rpst" : "",
      "cookstorys" : [
        {
          "type" : 0,
          "id" : 0,
          "c" : "麻辣香锅是一道发源于巴蜀地区的美味，麻、辣、鲜、香味俱全，而且任何自己喜欢的食材都可以往里加噢！乐教授今天分享一个自制麻辣香锅，简直就是米饭杀手！快来一起get吧！！\n\n",
          "u" : "",
          "icon" : "",
          "color" : ""
        }
      ],
      "ipt" : "",
      "ssu" : "",
      "favo_counts" : 79213,
      "rcs" : [

      ],
      "views_count_text" : "118.5万",
      "dish_count" : 68,
      "cook_id" : "3126567",
      "old_comments" : [

      ],
      "cookstep" : [
        {
          "image_height" : 649,
          "thumb" : "https:\/\/i1.douguo.com\/upload\/caiku\/b\/0\/3\/140_b02ed01b8e95422790b5daec1775b823.jpg",
          "content" : "准备土豆、金针菇、虾等食材（可根据自己喜好调整）约500克，清理后焯水至8成熟捞出备用。",
          "image_width" : 1336,
          "frame" : "-1",
          "image" : "https:\/\/i1.douguo.com\/upload\/caiku\/b\/0\/3\/b02ed01b8e95422790b5daec1775b823.jpg",
          "position" : 1
        },
        {
          "image" : "https:\/\/i1.douguo.com\/upload\/caiku\/b\/2\/d\/b2ea8bf0a77bd4d2d7e2c27e1ca2aa3d.jpg",
          "content" : "锅中加入20克油，加入一袋（50克）“太太乐”麻辣香锅调味料爆香～",
          "image_height" : 643,
          "frame" : "-1",
          "image_width" : 1280,
          "thumb" : "https:\/\/i1.douguo.com\/upload\/caiku\/b\/2\/d\/140_b2ea8bf0a77bd4d2d7e2c27e1ca2aa3d.jpg",
          "position" : 2
        },
        {
          "content" : "将所有食材加入锅中翻炒均匀。",
          "image_width" : 1276,
          "position" : 3,
          "frame" : "-1",
          "thumb" : "https:\/\/i1.douguo.com\/upload\/caiku\/6\/6\/9\/140_66d952b059c9e56fb204721b19afbcd9.jpg",
          "image_height" : 670,
          "image" : "https:\/\/i1.douguo.com\/upload\/caiku\/6\/6\/9\/66d952b059c9e56fb204721b19afbcd9.jpg"
        },
        {
          "frame" : "-1",
          "image_height" : 679,
          "position" : 4,
          "thumb" : "https:\/\/i1.douguo.com\/upload\/caiku\/b\/3\/0\/140_b39fdce2e80e9b78d2dc2b795499a060.jpg",
          "content" : "翻炒均匀就可以装盘盛出啦！",
          "image" : "https:\/\/i1.douguo.com\/upload\/caiku\/b\/3\/0\/b39fdce2e80e9b78d2dc2b795499a060.jpg",
          "image_width" : 1461
        }
      ],
      "vc" : "1185036",
      "cook_difficulty_image" : "",
      "author_photo" : "http:\/\/tx1.douguo.net\/upload\/photo\/9\/c\/c\/70_u47777171331827145111.jpg",
      "hq" : 1,
      "title_ad" : [

      ],
      "ipurl" : "",
      "purl" : "",
      "recent_comments" : [

      ],
      "title" : "麻辣香锅",
      "tags" : [

      ],
      "rips" : 0,
      "act_des" : "",
      "recommendation_tag" : "",
      "recommend_label" : "68人学做",
      "rewarded_video_dsp" : [

      ],
      "recommended" : 0,
      "packages_id" : [

      ],
      "eu" : "recipes:\/\/www.douguo.com\/postdetail?id=242016",
      "top_mdsp" : [

      ],
      "dish_count_text" : "68",
      "first_level_comment_count" : 537,
      "cookwares" : [

      ],
      "ipia" : [

      ],
      "thumb_path" : "https:\/\/i1.douguo.com\/upload\/caiku\/f\/e\/0\/300_fe0b688f0252c873156d5de7ac084c30.png",
      "recipe_tags" : [

      ],
      "bs" : [

      ],
      "author_id" : 23162809,
      "advice" : {
        "has" : [
          {
            "url" : "recipes:\/\/www.douguo.com\/simplerecipelist?t=低脂&id=低脂",
            "t" : "低脂"
          },
          {
            "url" : "recipes:\/\/www.douguo.com\/simplerecipelist?t=低饱和脂肪&id=低饱和脂肪",
            "t" : "低饱和脂肪"
          }
        ],
        "at" : "健身人群可以吃～",
        "da" : {
          "iu" : "https:\/\/i1.douguo.com\/upload\/banner\/f\/4\/d\/f48877e53c37759bc12ac494be82ec8d.png",
          "url" : "https:\/\/m.douguo.com\/recipe\/nutrient_self\/3126567",
          "t" : "查看详细分析"
        }
      },
      "story_dsp" : [

      ],
      "major" : [
        {
          "note" : "50克",
          "title" : "“太太乐”麻辣香锅调味料"
        },
        {
          "note" : "500克",
          "title" : "土豆、金针菇、虾等"
        },
        {
          "note" : "20克",
          "tu" : "https:\/\/m.douguo.com\/ingredients\/油\/detailmaterial",
          "title" : "油"
        }
      ],
      "tips" : "",
      "vfurl" : "",
      "ipoi" : "",
      "rrps" : [

      ],
      "cook_difficulty" : "",
      "ipit" : 0,
      "create_time" : "2021-09-01 21:25:33",
      "rate" : 5,
      "related_ads" : [

      ],
      "rpid" : 0,
      "rdsps" : [

      ],
      "photo_path" : "https:\/\/i1.douguo.com\/upload\/caiku\/f\/e\/0\/600_fe0b688f0252c873156d5de7ac084c30.png",
      "minor" : [

      ],
      "pw" : 946,
      "cook_time_image" : "",
      "user" : {
        "is_prime" : 0,
        "verified_url" : "https:\/\/m.douguo.com\/user\/prodesc",
        "favor_diaries_count" : 0,
        "age" : "",
        "qq_weibo_nick" : "",
        "following_count" : 0,
        "subscription" : 0,
        "diaries_count" : 0,
        "weibo_nick" : "",
        "gender" : 1,
        "email" : "",
        "verified_image" : "https:\/\/i1.douguo.com\/upload\/note\/2\/b\/1\/2ba3cf1657cbf92e474d7e0534ce8da1.png",
        "lvl" : 7,
        "setted_email" : 0,
        "progress_image" : "",
        "recipes_count" : 0,
        "verified" : 2,
        "userid" : "23162809",
        "birthday" : "",
        "point" : 0,
        "fc" : 0,
        "user_id" : "23162809",
        "dishes_count" : 0,
        "nick" : "太太乐鲜味厨房",
        "followers_count" : 0,
        "regist_time" : "",
        "user_large_photo" : "http:\/\/tx1.douguo.net\/upload\/photo\/9\/c\/c\/yuan_u47777171331827145111.jpg",
        "lv" : 0,
        "pc" : 0,
        "subscription_article_count" : 0,
        "avatar_medium" : "http:\/\/tx1.douguo.net\/upload\/photo\/9\/c\/c\/140_u47777171331827145111.jpg",
        "location" : 0,
        "sign" : "",
        "qzone_nick" : "",
        "favorites_count" : 0,
        "mobile" : "",
        "user_photo" : "http:\/\/tx1.douguo.net\/upload\/photo\/9\/c\/c\/70_u47777171331827145111.jpg",
        "user_cover" : "",
        "introduction" : "",
        "coursecount" : 0
      },
      "ph" : 631,
      "clicks" : "491485",
      "rrpt" : "",
      "cook_time" : "",
      "comments" : [
        "{\n    ac = \"#999999\";\n    at = \"\\U6df1\\U5733\\U5e02\";\n    ccc = 0;\n    \"child_comments\" =     (\n    );\n    city = \"\\U6df1\\U5733\\U5e02\";\n    cmc = 2;\n    content =     (\n                {\n            c = \"\\U8fd9\\U4e2a\\U5c0f\\U9999\\U9505\\Uff0c\\U5c31\\U662f\\U4e0b\\U996d\\U795e\\U5668\\U5440\\U2026\\U2026\";\n        }\n    );\n    ia = 0;\n    id = 8864105;\n    \"ip_address_location\" = \"\";\n    like = 0;\n    \"like_count\" = 1;\n    \"reply_id\" = 0;\n    \"sticker_icon\" =     (\n    );\n    time = \"2021-11-16 10:35:00\";\n    u =     {\n        \"followers_count_text\" = \"\";\n        id = 22620894;\n        \"is_prime\" = 0;\n        lv = 0;\n        lvl = 4;\n        n = \"\\U5e78\\U8fd0\\U5929\\U5b50\";\n        p = \"http:\/\/tx1.douguo.net\/upload\/photo\/9\/2\/1\/70_u36028359931810103240.jpeg\";\n        \"progress_image\" = \"\";\n        \"recipes_count_text\" = \"\";\n        relationship = \"-1\";\n        title = \"\";\n        v = 0;\n        \"verified_image\" = \"\";\n    };\n}",
        "{\n    ac = \"#999999\";\n    at = \"\\U6df1\\U5733\\U5e02\";\n    ccc = 0;\n    \"child_comments\" =     (\n    );\n    city = \"\\U6df1\\U5733\\U5e02\";\n    cmc = 2;\n    content =     (\n                {\n            c = \"\\U5929\\U51c9\\U4e86\\Uff0c\\U8fd9\\U4e2a\\U9999\\U9505\\U53ef\\U4ee5\\U5b89\\U6392\\U4e86\\U2026\\U2026\";\n        }\n    );\n    ia = 0;\n    id = 8826842;\n    \"ip_address_location\" = \"\";\n    like = 0;\n    \"like_count\" = 1;\n    \"reply_id\" = 0;\n    \"sticker_icon\" =     (\n    );\n    time = \"2021-10-23 11:32:07\";\n    u =     {\n        \"followers_count_text\" = \"\";\n        id = 22620894;\n        \"is_prime\" = 0;\n        lv = 0;\n        lvl = 4;\n        n = \"\\U5e78\\U8fd0\\U5929\\U5b50\";\n        p = \"http:\/\/tx1.douguo.net\/upload\/photo\/9\/2\/1\/70_u36028359931810103240.jpeg\";\n        \"progress_image\" = \"\";\n        \"recipes_count_text\" = \"\";\n        relationship = \"-1\";\n        title = \"\";\n        v = 0;\n        \"verified_image\" = \"\";\n    };\n}",
        "{\n    ac = \"#999999\";\n    at = \"\\U6df1\\U5733\\U5e02\";\n    ccc = 0;\n    \"child_comments\" =     (\n    );\n    city = \"\\U6df1\\U5733\\U5e02\";\n    cmc = 2;\n    content =     (\n                {\n            c = \"\\U9999\\U9505\\U91cc\\U7684\\U867e\\U3001\\U91d1\\U9488\\U83c7\\U597d\\U5403\\Ud83d\\Ude0b\";\n        }\n    );\n    ia = 0;\n    id = 8826834;\n    \"ip_address_location\" = \"\";\n    like = 0;\n    \"like_count\" = 1;\n    \"reply_id\" = 0;\n    \"sticker_icon\" =     (\n    );\n    time = \"2021-10-23 11:29:31\";\n    u =     {\n        \"followers_count_text\" = \"\";\n        id = 22620894;\n        \"is_prime\" = 0;\n        lv = 0;\n        lvl = 4;\n        n = \"\\U5e78\\U8fd0\\U5929\\U5b50\";\n        p = \"http:\/\/tx1.douguo.net\/upload\/photo\/9\/2\/1\/70_u36028359931810103240.jpeg\";\n        \"progress_image\" = \"\";\n        \"recipes_count_text\" = \"\";\n        relationship = \"-1\";\n        title = \"\";\n        v = 0;\n        \"verified_image\" = \"\";\n    };\n}"
      ],
      "btm_dsp" : [

      ],
      "ipci" : "",
      "rate_show" : 1,
      "collect_status" : 0,
      "levelid" : 2,
      "comments_count_text" : "537",
      "original_photo_path" : "http:\/\/i1.douguo.net\/upload\/caiku\/f\/e\/0\/yuan_fe0b688f0252c873156d5de7ac084c30.png",
      "dishes" : [

      ],
      "ecs" : 1,
      "share_info" : {
        "name" : "麻辣香锅-会做饭很酷!",
        "qr_image" : "",
        "mini_program" : [

        ],
        "image" : "https:\/\/cp1.douguo.com\/upload\/caiku\/f\/e\/0\/fe0b688f0252c873156d5de7ac084c30.png",
        "s_u" : "http:\/\/m.douguo.com\/cookbook\/3126567.html",
        "s_d" : "麻辣香锅-会做饭很酷!",
        "object_id" : "3126567",
        "infos" : [
          {
            "image" : "https:\/\/cp1.douguo.com\/upload\/caiku\/f\/e\/0\/fe0b688f0252c873156d5de7ac084c30.png",
            "qr_image" : "",
            "channel" : "1",
            "s_u" : "",
            "mini_program" : [

            ],
            "name" : "麻辣香锅-会做饭很酷!",
            "object_id" : "3126567",
            "s_d" : "#学做饭用豆果美食# 我在@豆果美食 分享了【麻辣香锅-会做饭很酷!】，色香味俱全说的就是这道菜！查看图片了解菜谱（快来点击https:\/\/m.weibo.cn\/p\/100404i33631和我一起修炼厨艺吧）#会做饭很酷# "
          },
          {
            "object_id" : "3126567",
            "channel" : "7",
            "mini_program" : [

            ],
            "image" : "https:\/\/cp1.douguo.com\/upload\/caiku\/f\/e\/0\/fe0b688f0252c873156d5de7ac084c30.png",
            "s_u" : "http:\/\/m.douguo.com\/cookbook\/3126567.html",
            "name" : "麻辣香锅-会做饭很酷!",
            "s_d" : "麻辣香锅-会做饭很酷!",
            "qr_image" : ""
          },
          {
            "s_u" : "http:\/\/m.douguo.com\/cookbook\/3126567.html",
            "mini_program" : [

            ],
            "qr_image" : "",
            "image" : "https:\/\/cp1.douguo.com\/upload\/caiku\/f\/e\/0\/fe0b688f0252c873156d5de7ac084c30.png",
            "s_d" : "麻辣香锅-会做饭很酷!",
            "channel" : "8",
            "object_id" : "3126567",
            "name" : "麻辣香锅-会做饭很酷!"
          }
        ]
      },
      "release_time" : "",
      "rate_count" : 52,
      "display_ingredient" : 1,
      "su" : "",
      "v_u" : "",
      "thumb_height" : 0,
      "rpt" : "",
      "mid_mdsp" : [

      ],
      "ss" : [

      ],
      "comments_count" : 537,
      "vu" : "",
      "rsm" : "该功能暂停使用",
      "cookstory" : "麻辣香锅是一道发源于巴蜀地区的美味，麻、辣、鲜、香味俱全，而且任何自己喜欢的食材都可以往里加噢！乐教授今天分享一个自制麻辣香锅，简直就是米饭杀手！快来一起get吧！！\n\n",
      "brand_day_dsp" : [

      ],
      "image" : "http:\/\/i1.douguo.net\/upload\/caiku\/f\/e\/0\/300_fe0b688f0252c873156d5de7ac084c30.png",
      "hqu" : "recipes:\/\/www.douguo.com\/notedetail?id=21162253",
      "author_verified" : 2,
      "author" : "太太乐鲜味厨房",
      "notes" : [

      ]
    }
  },
  "state" : "success"
}