{
  "status" : 0,
  "state" : "success",
  "result" : {
    "recipe" : {
      "story_dsp" : [

      ],
      "guide_image" : "",
      "image" : "http:\/\/i1.douguo.net\/upload\/caiku\/a\/0\/6\/300_a031b83467e04b52676b4968ee9abef6.jpeg",
      "release_time" : "",
      "ipurl" : "",
      "hqu" : "recipes:\/\/www.douguo.com\/notedetail?id=21162253",
      "views_count_text" : "51.7万",
      "ipia" : [

      ],
      "collect_status" : 0,
      "advice" : {
        "has" : [
          {
            "url" : "recipes:\/\/www.douguo.com\/simplerecipelist?t=低饱和脂肪&id=低饱和脂肪",
            "t" : "低饱和脂肪"
          }
        ],
        "at" : "对血管有保护作用～",
        "da" : {
          "t" : "查看详细分析",
          "url" : "https:\/\/m.douguo.com\/recipe\/nutrient_self\/2298102",
          "iu" : "https:\/\/i1.douguo.com\/upload\/banner\/f\/4\/d\/f48877e53c37759bc12ac494be82ec8d.png"
        }
      },
      "recommendation_tag" : "",
      "rate_count" : 3,
      "photo_path" : "https:\/\/i1.douguo.com\/upload\/caiku\/a\/0\/6\/600_a031b83467e04b52676b4968ee9abef6.jpeg",
      "recommended" : 0,
      "ss" : [

      ],
      "author_photo" : "http:\/\/tx1.douguo.net\/upload\/photo\/d\/b\/c\/70_db70d8b669d433361dc265411ff134ac.jpeg",
      "tips" : "因为香菇已经很鲜了，所以我没加鸡精，可根据个人喜好选择是否添加鸡精。\n新思特简爱三合一的浅锅不粘效果超赞的，导热快，受热均匀，还很省油！",
      "cook_difficulty_image" : "https:\/\/i1.douguo.com\/upload\/banner\/1551424390.png",
      "title" : "素炒西芹香菇",
      "recipe_tags" : [

      ],
      "hq" : 1,
      "clicks" : "508563",
      "old_comments" : [

      ],
      "cookwares" : [

      ],
      "thumb_height" : 0,
      "comments_count" : 6,
      "rpid" : 0,
      "rpt" : "",
      "top_mdsp" : [

      ],
      "thumb_path" : "https:\/\/i1.douguo.com\/upload\/caiku\/a\/0\/6\/300_a031b83467e04b52676b4968ee9abef6.jpeg",
      "minor" : [

      ],
      "share_info" : {
        "mini_program" : [

        ],
        "infos" : [
          {
            "mini_program" : [

            ],
            "channel" : "1",
            "object_id" : "2298102",
            "name" : "素炒西芹香菇-会做饭很酷!",
            "s_d" : "#学做饭用豆果美食# 会做饭好酷啊！我在@豆果美食 分享了【素炒西芹香菇-会做饭很酷!】，今天也是厨艺满满的一天呢，快来和我一起学做美食吧！查看图片了解菜谱（更多美食秘籍点击https:\/\/m.weibo.cn\/p\/100404i33631获取）",
            "image" : "https:\/\/cp1.douguo.com\/upload\/caiku\/a\/0\/6\/a031b83467e04b52676b4968ee9abef6.jpeg",
            "s_u" : "",
            "qr_image" : ""
          },
          {
            "image" : "https:\/\/cp1.douguo.com\/upload\/caiku\/a\/0\/6\/a031b83467e04b52676b4968ee9abef6.jpeg",
            "object_id" : "2298102",
            "qr_image" : "",
            "name" : "素炒西芹香菇-会做饭很酷!",
            "s_d" : "素炒西芹香菇-会做饭很酷!",
            "channel" : "7",
            "mini_program" : [

            ],
            "s_u" : "http:\/\/m.douguo.com\/cookbook\/2298102.html"
          },
          {
            "image" : "https:\/\/cp1.douguo.com\/upload\/caiku\/a\/0\/6\/a031b83467e04b52676b4968ee9abef6.jpeg",
            "channel" : "8",
            "s_d" : "素炒西芹香菇-会做饭很酷!",
            "qr_image" : "",
            "object_id" : "2298102",
            "name" : "素炒西芹香菇-会做饭很酷!",
            "mini_program" : [

            ],
            "s_u" : "http:\/\/m.douguo.com\/cookbook\/2298102.html"
          }
        ],
        "image" : "https:\/\/cp1.douguo.com\/upload\/caiku\/a\/0\/6\/a031b83467e04b52676b4968ee9abef6.jpeg",
        "name" : "素炒西芹香菇-会做饭很酷!",
        "qr_image" : "",
        "object_id" : "2298102",
        "s_d" : "素炒西芹香菇-会做饭很酷!",
        "s_u" : "http:\/\/m.douguo.com\/cookbook\/2298102.html"
      },
      "rate" : 5,
      "sc" : 0,
      "comments" : [
        "{\n    ac = \"#999999\";\n    at = \"\";\n    ccc = 0;\n    \"child_comments\" =     (\n    );\n    city = \"\";\n    cmc = 2;\n    content =     (\n                {\n            c = \"\\Ud83d\\Udc4d\\Ud83d\\Udc4d\\Ud83d\\Udc4d\\Ud83d\\Udc4d\";\n        }\n    );\n    ia = 0;\n    id = 6594147;\n    \"ip_address_location\" = \"\";\n    like = 0;\n    \"like_count\" = 1;\n    \"reply_id\" = 0;\n    \"sticker_icon\" =     (\n    );\n    time = \"2019-05-14 22:52:33\";\n    u =     {\n        \"followers_count_text\" = \"\";\n        id = 9368973;\n        \"is_prime\" = 0;\n        lv = 0;\n        lvl = 3;\n        n = \"\\U5b9c\\U7b80\";\n        p = \"http:\/\/tx1.douguo.net\/upload\/photo\/4\/f\/5\/70_u31250126403759165446.jpg\";\n        \"progress_image\" = \"\";\n        \"recipes_count_text\" = \"\";\n        relationship = \"-1\";\n        title = \"\";\n        v = 0;\n        \"verified_image\" = \"\";\n    };\n}",
        "{\n    ac = \"#999999\";\n    at = \"\\U5e7f\\U5dde\\U5e02\";\n    ccc = 0;\n    \"child_comments\" =     (\n    );\n    city = \"\\U5e7f\\U5dde\\U5e02\";\n    cmc = 2;\n    content =     (\n                {\n            c = \"\\U56de\\U5934\\U8bd5\\U8bd5\";\n        }\n    );\n    ia = 0;\n    id = 6613689;\n    \"ip_address_location\" = \"\";\n    like = 0;\n    \"like_count\" = 0;\n    \"reply_id\" = 0;\n    \"sticker_icon\" =     (\n    );\n    time = \"2019-05-24 18:09:16\";\n    u =     {\n        \"followers_count_text\" = \"\";\n        id = 22251999;\n        \"is_prime\" = 0;\n        lv = 0;\n        lvl = 5;\n        n = \"\\U7a0b\\U6709\\U60c5\";\n        p = \"http:\/\/tx1.douguo.net\/upload\/photo\/e\/8\/6\/70_u29905379711216132227.jpeg\";\n        \"progress_image\" = \"\";\n        \"recipes_count_text\" = \"\";\n        relationship = \"-1\";\n        title = \"\";\n        v = 0;\n        \"verified_image\" = \"\";\n    };\n}",
        "{\n    ac = \"#999999\";\n    at = \"\";\n    ccc = 0;\n    \"child_comments\" =     (\n    );\n    city = \"\";\n    cmc = 2;\n    content =     (\n                {\n            c = \"\\U8d5e~ \";\n        }\n    );\n    ia = 0;\n    id = 6587824;\n    \"ip_address_location\" = \"\";\n    like = 0;\n    \"like_count\" = 0;\n    \"reply_id\" = 0;\n    \"sticker_icon\" =     (\n    );\n    time = \"2019-05-12 03:57:46\";\n    u =     {\n        \"followers_count_text\" = \"\";\n        id = 18496707;\n        \"is_prime\" = 0;\n        lv = 0;\n        lvl = 6;\n        n = \"\\U5927\\U54c8\\U94b30\";\n        p = \"http:\/\/tx1.douguo.net\/upload\/photo\/f\/7\/6\/70_f796f473d08d22f4522494ab2251c676.jpg\";\n        \"progress_image\" = \"\";\n        \"recipes_count_text\" = \"\";\n        relationship = \"-1\";\n        title = \"\";\n        v = 0;\n        \"verified_image\" = \"\";\n    };\n}"
      ],
      "first_level_comment_count" : 6,
      "favo_counts" : 7477,
      "cookstep" : [
        {
          "image" : "https:\/\/i1.douguo.com\/upload\/caiku\/4\/9\/0\/49035f4ad96e7d56fa82f04cc23737e0.jpeg",
          "image_height" : 853,
          "thumb" : "https:\/\/i1.douguo.com\/upload\/caiku\/4\/9\/0\/140_49035f4ad96e7d56fa82f04cc23737e0.jpeg",
          "frame" : "-1",
          "content" : "准备好需要的食材。",
          "position" : 1,
          "image_width" : 1280
        },
        {
          "image_width" : 1280,
          "thumb" : "https:\/\/i1.douguo.com\/upload\/caiku\/2\/6\/1\/140_265c3a008546e0241e5ab8f52d0accf1.jpeg",
          "image_height" : 853,
          "position" : 2,
          "image" : "https:\/\/i1.douguo.com\/upload\/caiku\/2\/6\/1\/265c3a008546e0241e5ab8f52d0accf1.jpeg",
          "frame" : "-1",
          "content" : "把芹菜、蘑菇和胡萝卜冲洗干净，依次用刀切好，蒜也切碎。"
        },
        {
          "content" : "开火，锅烧热，往锅中倒入食用油，下蒜蓉，小火炒香。",
          "image" : "https:\/\/i1.douguo.com\/upload\/caiku\/e\/b\/3\/ebaba2d9d7d740e1bdc03d5cee4fa683.jpeg",
          "frame" : "-1",
          "image_height" : 853,
          "position" : 3,
          "thumb" : "https:\/\/i1.douguo.com\/upload\/caiku\/e\/b\/3\/140_ebaba2d9d7d740e1bdc03d5cee4fa683.jpeg",
          "image_width" : 1280
        },
        {
          "image_height" : 853,
          "frame" : "-1",
          "thumb" : "https:\/\/i1.douguo.com\/upload\/caiku\/d\/1\/0\/140_d10e932112cf56ba8814778b39f120d0.jpeg",
          "content" : "加入胡萝卜约炒1分钟变色，接着倒入蘑菇片炒软。",
          "position" : 4,
          "image_width" : 1280,
          "image" : "https:\/\/i1.douguo.com\/upload\/caiku\/d\/1\/0\/d10e932112cf56ba8814778b39f120d0.jpeg"
        },
        {
          "position" : 5,
          "thumb" : "https:\/\/i1.douguo.com\/upload\/caiku\/3\/0\/f\/140_30a53d7404d459061de35cef2f15f67f.jpeg",
          "image" : "https:\/\/i1.douguo.com\/upload\/caiku\/3\/0\/f\/30a53d7404d459061de35cef2f15f67f.jpeg",
          "content" : "最后加入西芹翻炒约1分钟。",
          "image_height" : 853,
          "image_width" : 1280,
          "frame" : "-1"
        },
        {
          "image_height" : 853,
          "position" : 6,
          "thumb" : "https:\/\/i1.douguo.com\/upload\/caiku\/8\/0\/c\/140_801f854e26ff0c9e4e71eefe2ce084fc.jpeg",
          "image" : "https:\/\/i1.douguo.com\/upload\/caiku\/8\/0\/c\/801f854e26ff0c9e4e71eefe2ce084fc.jpeg",
          "image_width" : 1280,
          "frame" : "-1",
          "content" : "加入盐调味，翻炒均匀即可出锅。"
        },
        {
          "content" : "成品图。",
          "position" : 7,
          "thumb" : "https:\/\/i1.douguo.com\/upload\/caiku\/9\/1\/1\/140_91cbdd9c25f644332966c10f81d42311.jpeg",
          "image" : "https:\/\/i1.douguo.com\/upload\/caiku\/9\/1\/1\/91cbdd9c25f644332966c10f81d42311.jpeg",
          "image_width" : 1280,
          "image_height" : 853,
          "frame" : "-1"
        },
        {
          "frame" : "-1",
          "position" : 8,
          "image" : "https:\/\/i1.douguo.com\/upload\/caiku\/a\/3\/b\/a39d7eacc2ea51a0be29bf5b13c82e2b.jpeg",
          "content" : "成品图。",
          "image_width" : 1280,
          "image_height" : 853,
          "thumb" : "https:\/\/i1.douguo.com\/upload\/caiku\/a\/3\/b\/140_a39d7eacc2ea51a0be29bf5b13c82e2b.jpeg"
        }
      ],
      "rrpt" : "",
      "ipci" : "",
      "dish_count" : 3,
      "vc" : "516971",
      "author_id" : 17612751,
      "ipit" : 0,
      "vfurl" : "",
      "cook_time_image" : "https:\/\/i1.douguo.com\/upload\/banner\/1551424358.png",
      "pw" : 1920,
      "btm_dsp" : [

      ],
      "major" : [
        {
          "tu" : "https:\/\/m.douguo.com\/ingredients\/西芹\/detailmaterial",
          "title" : "西芹",
          "note" : "200克"
        },
        {
          "tu" : "https:\/\/m.douguo.com\/ingredients\/香菇\/detailmaterial",
          "title" : "香菇",
          "note" : "5朵"
        },
        {
          "tu" : "https:\/\/m.douguo.com\/ingredients\/胡萝卜\/detailmaterial",
          "title" : "胡萝卜",
          "note" : "30克"
        },
        {
          "note" : "1\/2个",
          "title" : "独头蒜"
        },
        {
          "tu" : "https:\/\/m.douguo.com\/ingredients\/盐\/detailmaterial",
          "title" : "盐",
          "note" : "2克"
        },
        {
          "tu" : "https:\/\/m.douguo.com\/ingredients\/食用油\/detailmaterial",
          "title" : "食用油",
          "note" : "20ml"
        }
      ],
      "dish_count_text" : "3",
      "rewarded_video_dsp" : [

      ],
      "author_verified" : 1,
      "rips" : 0,
      "dishes" : [

      ],
      "related_ads" : [

      ],
      "packages_id" : [

      ],
      "ipoi" : "",
      "su" : "",
      "comments_count_text" : "6",
      "cookstorys" : [
        {
          "type" : 0,
          "u" : "",
          "color" : "",
          "id" : 0,
          "icon" : "",
          "c" : "营养丰富，简单易做，分分钟就可以上桌的素炒西芹香菇，西芹可降血压、镇静、健胃，蘑菇营养丰富、增进食欲，可提鲜，所以连鸡精都没加，非常健康快手的一道家常菜。"
        }
      ],
      "brand_day_dsp" : [

      ],
      "display_ingredient" : 1,
      "ssu" : "",
      "create_time" : "2019-05-11 20:45:46",
      "user" : {
        "is_prime" : 0,
        "point" : 0,
        "introduction" : "",
        "location" : 0,
        "diaries_count" : 0,
        "weibo_nick" : "",
        "age" : "",
        "user_large_photo" : "http:\/\/tx1.douguo.net\/upload\/photo\/d\/b\/c\/yuan_db70d8b669d433361dc265411ff134ac.jpeg",
        "birthday" : "",
        "recipes_count" : 0,
        "qzone_nick" : "",
        "qq_weibo_nick" : "",
        "followers_count" : 0,
        "avatar_medium" : "http:\/\/tx1.douguo.net\/upload\/photo\/d\/b\/c\/140_db70d8b669d433361dc265411ff134ac.jpeg",
        "user_photo" : "http:\/\/tx1.douguo.net\/upload\/photo\/d\/b\/c\/70_db70d8b669d433361dc265411ff134ac.jpeg",
        "progress_image" : "",
        "sign" : "",
        "favor_diaries_count" : 0,
        "verified" : 1,
        "verified_url" : "https:\/\/m.douguo.com\/user\/prodesc",
        "fc" : 0,
        "mobile" : "",
        "coursecount" : 0,
        "pc" : 0,
        "following_count" : 0,
        "verified_image" : "https:\/\/i1.douguo.com\/upload\/note\/d\/a\/a\/da84247847aebe48d9dd0fcdac88862a.png",
        "user_cover" : "",
        "user_id" : "17612751",
        "setted_email" : 0,
        "dishes_count" : 0,
        "favorites_count" : 0,
        "lvl" : 6,
        "regist_time" : "",
        "subscription_article_count" : 0,
        "userid" : "17612751",
        "subscription" : 0,
        "nick" : "风意画",
        "lv" : 0,
        "email" : "",
        "gender" : 2
      },
      "original_photo_path" : "http:\/\/i1.douguo.net\/upload\/caiku\/a\/0\/6\/yuan_a031b83467e04b52676b4968ee9abef6.jpeg",
      "tags" : [

      ],
      "author" : "风意画",
      "ipt" : "",
      "ph" : 1280,
      "notes" : [

      ],
      "cook_difficulty" : "切墩(初级)",
      "rrps" : [

      ],
      "favo_counts_text" : "7477",
      "eu" : "recipes:\/\/www.douguo.com\/postdetail?id=242016",
      "recipe_list_tags" : [
        {
          "text_color" : "#141515",
          "background_end_color" : "#F4F5F5",
          "jump_url" : "",
          "right_image" : "",
          "text" : "关注的人",
          "background_border_color" : "",
          "background_start_color" : "#F4F5F5"
        },
        {
          "background_border_color" : "",
          "right_image" : "",
          "text_color" : "#141515",
          "text" : "内容详细",
          "background_end_color" : "#F4F5F5",
          "background_start_color" : "#F4F5F5",
          "jump_url" : ""
        }
      ],
      "ecs" : 0,
      "rate_show" : 0,
      "rpst" : "",
      "purl" : "",
      "act_des" : "",
      "rsm" : "该功能暂停使用",
      "rdsps" : [

      ],
      "sr" : "",
      "v_u" : "",
      "recommend_label" : "3人学做",
      "levelid" : 2,
      "cookstory" : "营养丰富，简单易做，分分钟就可以上桌的素炒西芹香菇，西芹可降血压、镇静、健胃，蘑菇营养丰富、增进食欲，可提鲜，所以连鸡精都没加，非常健康快手的一道家常菜。",
      "recent_comments" : [

      ],
      "mid_mdsp" : [

      ],
      "cook_id" : "2298102",
      "cook_time" : "10分钟左右",
      "vu" : "",
      "title_ad" : [

      ],
      "rcs" : [

      ],
      "bs" : [

      ]
    }
  }
}