{
  "status" : 0,
  "state" : "success",
  "result" : {
    "recipe" : {
      "recommended" : 0,
      "user" : {
        "progress_image" : "",
        "email" : "",
        "followers_count" : 0,
        "user_cover" : "",
        "verified_image" : "",
        "introduction" : "",
        "lvl" : 6,
        "lv" : 0,
        "gender" : 2,
        "userid" : "11001492",
        "user_photo" : "http:\/\/tx1.douguo.net\/upload\/photo\/3\/0\/a\/70_u40227727711405034842.jpg",
        "avatar_medium" : "http:\/\/tx1.douguo.net\/upload\/photo\/3\/0\/a\/140_u40227727711405034842.jpg",
        "nick" : "hpbreeze",
        "favor_diaries_count" : 0,
        "dishes_count" : 0,
        "sign" : "",
        "setted_email" : 0,
        "diaries_count" : 0,
        "subscription_article_count" : 0,
        "birthday" : "",
        "qq_weibo_nick" : "",
        "verified" : 0,
        "regist_time" : "",
        "fc" : 0,
        "following_count" : 0,
        "mobile" : "",
        "pc" : 0,
        "age" : "",
        "weibo_nick" : "",
        "user_id" : "11001492",
        "favorites_count" : 0,
        "user_large_photo" : "http:\/\/tx1.douguo.net\/upload\/photo\/3\/0\/a\/yuan_u40227727711405034842.jpg",
        "qzone_nick" : "",
        "subscription" : 0,
        "coursecount" : 0,
        "point" : 0,
        "location" : 0,
        "is_prime" : 0,
        "recipes_count" : 0,
        "verified_url" : "https:\/\/m.douguo.com\/user\/prodesc"
      },
      "pw" : 800,
      "ph" : 600,
      "ss" : [

      ],
      "clicks" : "17339",
      "ipci" : "",
      "vc" : "20402",
      "advice" : {
        "da" : {
          "url" : "https:\/\/m.douguo.com\/recipe\/nutrient_self\/1273773",
          "t" : "查看详细分析",
          "iu" : "https:\/\/i1.douguo.com\/upload\/banner\/f\/4\/d\/f48877e53c37759bc12ac494be82ec8d.png"
        },
        "has" : [
          {
            "t" : "富含维生素A",
            "url" : "recipes:\/\/www.douguo.com\/simplerecipelist?t=富含维生素A&id=富含维生素A"
          },
          {
            "url" : "recipes:\/\/www.douguo.com\/simplerecipelist?t=低盐&id=低盐",
            "t" : "低盐"
          }
        ],
        "at" : "对眼睛非常好～ "
      },
      "original_photo_path" : "http:\/\/i1.douguo.net\/upload\/caiku\/9\/8\/a\/yuan_9802a277305ef3e45c9c55e2a155a5fa.jpg",
      "comments_count" : 3,
      "old_comments" : [

      ],
      "cookstep" : [
        {
          "position" : 1,
          "image_width" : 800,
          "frame" : "-1",
          "image" : "https:\/\/i1.douguo.com\/upload\/caiku\/d\/4\/c\/d46e2125684d28d5eca8f94d4a6f488c.jpg",
          "thumb" : "https:\/\/i1.douguo.com\/upload\/caiku\/d\/4\/c\/140_d46e2125684d28d5eca8f94d4a6f488c.jpg",
          "content" : "清洗食材备用",
          "image_height" : 600
        },
        {
          "position" : 2,
          "frame" : "-1",
          "thumb" : "https:\/\/i1.douguo.com\/upload\/caiku\/5\/2\/a\/140_52b4da0f899f0748b08b2d7c4bdc44fa.jpg",
          "image" : "https:\/\/i1.douguo.com\/upload\/caiku\/5\/2\/a\/52b4da0f899f0748b08b2d7c4bdc44fa.jpg",
          "image_height" : 600,
          "image_width" : 800,
          "content" : "待水开，放些许油，然后放入姜蒜，之后放入枸杞菜，稍微烫一下，放入鸡蛋汤，放入盐，三分钟即可出锅～"
        }
      ],
      "ipia" : [

      ],
      "title_ad" : [

      ],
      "recommendation_tag" : "",
      "sc" : 0,
      "su" : "",
      "display_ingredient" : 1,
      "rrpt" : "",
      "favo_counts" : 87,
      "photo_path" : "https:\/\/i1.douguo.com\/upload\/caiku\/9\/8\/a\/600_9802a277305ef3e45c9c55e2a155a5fa.jpg",
      "minor" : [

      ],
      "recipe_list_tags" : [
        {
          "background_start_color" : "#F4F5F5",
          "text_color" : "#141515",
          "text" : "关注的人",
          "background_border_color" : "",
          "background_end_color" : "#F4F5F5",
          "jump_url" : "",
          "right_image" : ""
        }
      ],
      "ipoi" : "",
      "cookwares" : [

      ],
      "top_mdsp" : [

      ],
      "dishes" : [

      ],
      "dish_count_text" : "",
      "thumb_path" : "https:\/\/i1.douguo.com\/upload\/caiku\/9\/8\/a\/300_9802a277305ef3e45c9c55e2a155a5fa.jpg",
      "create_time" : "2015-10-19 19:18:07",
      "story_dsp" : [

      ],
      "views_count_text" : "2.0万",
      "author" : "hpbreeze",
      "eu" : "recipes:\/\/www.douguo.com\/postdetail?id=242016",
      "tips" : "",
      "levelid" : 3,
      "cook_difficulty" : "切墩(初级)",
      "cook_id" : "1273773",
      "rips" : 0,
      "ecs" : 0,
      "act_des" : "",
      "packages_id" : [

      ],
      "cook_time_image" : "https:\/\/i1.douguo.com\/upload\/banner\/1551424341.png",
      "ipit" : 0,
      "first_level_comment_count" : 2,
      "guide_image" : "",
      "tags" : [
        "{\n    text = \"\\U7172\\U6c64\";\n}",
        "{\n    text = \"\\U716e\";\n}",
        "{\n    text = \"\\U54b8\";\n}",
        "{\n    text = \"\\U9999\";\n}"
      ],
      "recipe_tags" : [

      ],
      "rpid" : 0,
      "notes" : [

      ],
      "recommend_label" : "2.0万人看过",
      "rdsps" : [

      ],
      "author_verified" : 0,
      "mid_mdsp" : [

      ],
      "favo_counts_text" : "87",
      "btm_dsp" : [

      ],
      "rpt" : "",
      "cookstory" : "枸杞菜是一种野菜，清肝明目，清肺止咳的，加上葱姜，对治咳嗽和感冒效果很好",
      "purl" : "",
      "sr" : "",
      "ipurl" : "",
      "hq" : 0,
      "comments" : [
        "{\n    ac = \"#999999\";\n    at = \"\";\n    ccc = 1;\n    \"child_comments\" =     (\n                {\n            ac = \"#999999\";\n            at = \"\";\n            ccc = 0;\n            city = \"\";\n            cmc = 2;\n            content =             (\n                                {\n                    c = \" \";\n                }\n            );\n            ia = 1;\n            id = 2746273;\n            \"ip_address_location\" = \"\";\n            like = 0;\n            \"like_count\" = 0;\n            \"reply_id\" = 2746050;\n            \"reply_user\" =             {\n                \"followers_count_text\" = \"\";\n                id = 10617836;\n                \"is_prime\" = 0;\n                lv = 0;\n                lvl = 6;\n                n = laska;\n                p = \"http:\/\/tx1.douguo.net\/upload\/photo\/3\/4\/c\/70_u38096666768626003006.jpg\";\n                \"progress_image\" = \"\";\n                \"recipes_count_text\" = \"\";\n                relationship = \"-1\";\n                title = \"\";\n                v = 0;\n                \"verified_image\" = \"\";\n            };\n            \"sticker_icon\" =             (\n            );\n            time = \"2015-10-19 12:17:48\";\n            u =             {\n                \"followers_count_text\" = \"\";\n                id = 11001492;\n                \"is_prime\" = 0;\n                lv = 0;\n                lvl = 6;\n                n = hpbreeze;\n                p = \"http:\/\/tx1.douguo.net\/upload\/photo\/3\/0\/a\/70_u40227727711405034842.jpg\";\n                \"progress_image\" = \"\";\n                \"recipes_count_text\" = \"\";\n                relationship = \"-1\";\n                title = \"\";\n                v = 0;\n                \"verified_image\" = \"\";\n            };\n        }\n    );\n    city = \"\";\n    cmc = 2;\n    content =     (\n                {\n            c = \"\\U60f3\\U559d \";\n        }\n    );\n    ia = 0;\n    id = 2746050;\n    \"ip_address_location\" = \"\";\n    like = 0;\n    \"like_count\" = 0;\n    \"reply_id\" = 0;\n    \"sticker_icon\" =     (\n    );\n    time = \"2015-10-19 11:31:03\";\n    u =     {\n        \"followers_count_text\" = \"\";\n        id = 10617836;\n        \"is_prime\" = 0;\n        lv = 0;\n        lvl = 6;\n        n = laska;\n        p = \"http:\/\/tx1.douguo.net\/upload\/photo\/3\/4\/c\/70_u38096666768626003006.jpg\";\n        \"progress_image\" = \"\";\n        \"recipes_count_text\" = \"\";\n        relationship = \"-1\";\n        title = \"\";\n        v = 0;\n        \"verified_image\" = \"\";\n    };\n}",
        "{\n    ac = \"#999999\";\n    at = \"\";\n    ccc = 0;\n    \"child_comments\" =     (\n    );\n    city = \"\";\n    cmc = 2;\n    content =     (\n                {\n            c = \"\\U8fd9\\U4e48\\U9ad8\\U989c\\U503c\\Uff01\\U5473\\U9053\\U80af\\U5b9a\\U5dee\\U4e0d\\U4e86\";\n        }\n    );\n    ia = 0;\n    id = 6175643;\n    \"ip_address_location\" = \"\";\n    like = 0;\n    \"like_count\" = 0;\n    \"reply_id\" = 0;\n    \"sticker_icon\" =     (\n    );\n    time = \"2018-11-02 07:27:39\";\n    u =     {\n        \"followers_count_text\" = \"\";\n        id = 18541080;\n        \"is_prime\" = 0;\n        lv = 0;\n        lvl = 4;\n        n = \"**ao9me1\";\n        p = \"http:\/\/tx1.douguo.net\/upload\/photo\/b\/6\/9\/70_u19858437454430408220229.jpg\";\n        \"progress_image\" = \"\";\n        \"recipes_count_text\" = \"\";\n        relationship = \"-1\";\n        title = \"\";\n        v = 0;\n        \"verified_image\" = \"\";\n    };\n}"
      ],
      "author_id" : 11001492,
      "comments_count_text" : "3",
      "vfurl" : "",
      "ssu" : "",
      "cookstorys" : [
        {
          "id" : 0,
          "type" : 0,
          "icon" : "",
          "c" : "枸杞菜是一种野菜，清肝明目，清肺止咳的，加上葱姜，对治咳嗽和感冒效果很好",
          "u" : "",
          "color" : ""
        }
      ],
      "title" : "枸杞菜蛋花汤",
      "rewarded_video_dsp" : [

      ],
      "hqu" : "recipes:\/\/www.douguo.com\/notedetail?id=21162253",
      "brand_day_dsp" : [

      ],
      "cook_difficulty_image" : "https:\/\/i1.douguo.com\/upload\/banner\/1551424390.png",
      "image" : "http:\/\/i1.douguo.net\/upload\/caiku\/9\/8\/a\/300_9802a277305ef3e45c9c55e2a155a5fa.jpg",
      "dish_count" : 0,
      "rate" : 0,
      "rpst" : "",
      "author_photo" : "http:\/\/tx1.douguo.net\/upload\/photo\/3\/0\/a\/70_u40227727711405034842.jpg",
      "release_time" : "",
      "major" : [
        {
          "note" : "200g",
          "tu" : "https:\/\/m.douguo.com\/ingredients\/枸杞菜\/detailmaterial",
          "title" : "枸杞菜"
        },
        {
          "tu" : "https:\/\/m.douguo.com\/ingredients\/鸡蛋\/detailmaterial",
          "note" : "1个",
          "title" : "鸡蛋"
        },
        {
          "title" : "葱姜蒜",
          "note" : "若干",
          "tu" : "https:\/\/m.douguo.com\/ingredients\/葱姜蒜\/detailmaterial"
        }
      ],
      "rate_count" : 0,
      "ipt" : "",
      "related_ads" : [

      ],
      "share_info" : {
        "qr_image" : "",
        "name" : "枸杞菜蛋花汤-会做饭很酷!",
        "image" : "https:\/\/cp1.douguo.com\/upload\/caiku\/9\/8\/a\/9802a277305ef3e45c9c55e2a155a5fa.jpg",
        "s_u" : "http:\/\/m.douguo.com\/cookbook\/1273773.html",
        "object_id" : "1273773",
        "mini_program" : [

        ],
        "infos" : [
          {
            "mini_program" : [

            ],
            "channel" : "1",
            "object_id" : "1273773",
            "s_u" : "",
            "image" : "https:\/\/cp1.douguo.com\/upload\/caiku\/9\/8\/a\/9802a277305ef3e45c9c55e2a155a5fa.jpg",
            "s_d" : "#学做饭用豆果美食# 我在@豆果美食 分享了【枸杞菜蛋花汤-会做饭很酷!】，色香味俱全说的就是这道菜！查看图片了解菜谱（快来点击https:\/\/m.weibo.cn\/p\/100404i33631和我一起修炼厨艺吧）#会做饭很酷# ",
            "qr_image" : "",
            "name" : "枸杞菜蛋花汤-会做饭很酷!"
          },
          {
            "s_u" : "http:\/\/m.douguo.com\/cookbook\/1273773.html",
            "channel" : "7",
            "qr_image" : "",
            "s_d" : "枸杞菜蛋花汤-会做饭很酷!",
            "image" : "https:\/\/cp1.douguo.com\/upload\/caiku\/9\/8\/a\/9802a277305ef3e45c9c55e2a155a5fa.jpg",
            "mini_program" : [

            ],
            "object_id" : "1273773",
            "name" : "枸杞菜蛋花汤-会做饭很酷!"
          },
          {
            "object_id" : "1273773",
            "mini_program" : [

            ],
            "name" : "枸杞菜蛋花汤-会做饭很酷!",
            "qr_image" : "",
            "s_u" : "http:\/\/m.douguo.com\/cookbook\/1273773.html",
            "image" : "https:\/\/cp1.douguo.com\/upload\/caiku\/9\/8\/a\/9802a277305ef3e45c9c55e2a155a5fa.jpg",
            "s_d" : "枸杞菜蛋花汤-会做饭很酷!",
            "channel" : "8"
          }
        ],
        "s_d" : "枸杞菜蛋花汤-会做饭很酷!"
      },
      "collect_status" : 0,
      "rsm" : "该功能暂停使用",
      "v_u" : "",
      "recent_comments" : [

      ],
      "rcs" : [

      ],
      "thumb_height" : 0,
      "rate_show" : 0,
      "cook_time" : "10-30分钟",
      "vu" : "",
      "bs" : [

      ],
      "rrps" : [

      ]
    }
  }
}