{
  "result" : {
    "recipe" : {
      "recent_comments" : [

      ],
      "cook_time" : "10-30分钟",
      "user" : {
        "nick" : "meggy跳舞的苹果",
        "subscription" : 0,
        "birthday" : "",
        "email" : "",
        "qq_weibo_nick" : "",
        "introduction" : "",
        "lv" : 0,
        "qzone_nick" : "",
        "favorites_count" : 0,
        "coursecount" : 0,
        "user_large_photo" : "http:\/\/tx1.douguo.net\/upload\/photo\/a\/6\/6\/yuan_u27727127410622225643.jpeg",
        "verified" : 1,
        "avatar_medium" : "http:\/\/tx1.douguo.net\/upload\/photo\/a\/6\/6\/140_u27727127410622225643.jpeg",
        "regist_time" : "",
        "fc" : 0,
        "user_cover" : "",
        "progress_image" : "",
        "lvl" : 8,
        "user_photo" : "http:\/\/tx1.douguo.net\/upload\/photo\/a\/6\/6\/70_u27727127410622225643.jpeg",
        "verified_image" : "https:\/\/i1.douguo.com\/upload\/note\/d\/a\/a\/da84247847aebe48d9dd0fcdac88862a.png",
        "age" : "",
        "subscription_article_count" : 0,
        "weibo_nick" : "",
        "recipes_count" : 0,
        "verified_url" : "https:\/\/m.douguo.com\/user\/prodesc",
        "followers_count" : 0,
        "sign" : "",
        "userid" : "8753046",
        "dishes_count" : 0,
        "following_count" : 0,
        "setted_email" : 0,
        "favor_diaries_count" : 0,
        "location" : 0,
        "pc" : 0,
        "is_prime" : 0,
        "point" : 0,
        "mobile" : "",
        "diaries_count" : 0,
        "gender" : 2,
        "user_id" : "8753046"
      },
      "favo_counts_text" : "4712",
      "ipia" : [

      ],
      "sc" : 0,
      "sr" : "",
      "thumb_path" : "https:\/\/i1.douguo.com\/upload\/caiku\/6\/5\/0\/300_65879065b152e67b3fb1688f8dfe3340.jpg",
      "rdsps" : [

      ],
      "ipurl" : "",
      "ipit" : 0,
      "act_des" : "",
      "rrps" : [

      ],
      "views_count_text" : "14.7万",
      "title_ad" : [

      ],
      "rips" : 0,
      "levelid" : 2,
      "vu" : "https:\/\/vplay.douguo.com\/lnOCx9y5S9mRb5ZDWyLDl85tNgx5",
      "vc" : "146891",
      "comments_count" : 0,
      "rate" : 0,
      "ss" : [

      ],
      "packages_id" : [

      ],
      "old_comments" : [

      ],
      "cook_difficulty_image" : "https:\/\/i1.douguo.com\/upload\/banner\/1551424390.png",
      "recommendation_tag" : "",
      "btm_dsp" : [

      ],
      "favo_counts" : 4712,
      "cookwares" : [

      ],
      "cookstory" : "炎热的夏天不想开火做饭，但又不得不吃，将家中的微波炉利用起来，不但省去了油烟和噪音的困扰，还能缩短烹饪时间，最大限度地保留食物的营养。\r\n\r\n今儿跟大家分享这道“豉香鸡腿”，用不了10分钟出锅，又香又嫩，入味多汁；鸡肉中丰富的蛋白质更能被人体吸收利用，及时补充体力，活力满满。",
      "author_photo" : "http:\/\/tx1.douguo.net\/upload\/photo\/a\/6\/6\/70_u27727127410622225643.jpeg",
      "ssu" : "",
      "hq" : 1,
      "rrpt" : "",
      "notes" : [

      ],
      "eu" : "recipes:\/\/www.douguo.com\/postdetail?id=242016",
      "top_mdsp" : [

      ],
      "ph" : 4000,
      "thumb_height" : 0,
      "vfurl" : "https:\/\/vplay.douguo.com\/lnOCx9y5S9mRb5ZDWyLDl85tNgx5__640x356.mp4",
      "create_time" : "2023-07-28 10:57:58",
      "guide_image" : "",
      "author" : "meggy跳舞的苹果",
      "rate_show" : 0,
      "dishes" : [

      ],
      "comments_count_text" : "",
      "share_info" : {
        "s_d" : "#名厨汁味正当夏# 微波炉豉香鸡腿-会做饭很酷!",
        "object_id" : "3264555",
        "mini_program" : [

        ],
        "qr_image" : "",
        "s_u" : "http:\/\/m.douguo.com\/cookbook\/3264555.html",
        "name" : "#名厨汁味正当夏# 微波炉豉香鸡腿-会做饭很酷!",
        "image" : "https:\/\/cp1.douguo.com\/upload\/caiku\/6\/5\/0\/65879065b152e67b3fb1688f8dfe3340.jpg",
        "infos" : [
          {
            "channel" : "1",
            "image" : "https:\/\/cp1.douguo.com\/upload\/caiku\/6\/5\/0\/65879065b152e67b3fb1688f8dfe3340.jpg",
            "mini_program" : [

            ],
            "s_u" : "",
            "qr_image" : "",
            "object_id" : "3264555",
            "name" : "#名厨汁味正当夏# 微波炉豉香鸡腿-会做饭很酷!",
            "s_d" : "#学做饭用豆果美食# 会做饭好酷啊！我在@豆果美食 分享了【#名厨汁味正当夏# 微波炉豉香鸡腿-会做饭很酷!】，今天也是厨艺满满的一天呢，快来和我一起学做美食吧！查看图片了解菜谱（更多美食秘籍点击https:\/\/m.weibo.cn\/p\/100404i33631获取）"
          },
          {
            "mini_program" : [

            ],
            "s_u" : "http:\/\/m.douguo.com\/cookbook\/3264555.html",
            "image" : "https:\/\/cp1.douguo.com\/upload\/caiku\/6\/5\/0\/65879065b152e67b3fb1688f8dfe3340.jpg",
            "object_id" : "3264555",
            "channel" : "7",
            "name" : "#名厨汁味正当夏# 微波炉豉香鸡腿-会做饭很酷!",
            "s_d" : "#名厨汁味正当夏# 微波炉豉香鸡腿-会做饭很酷!",
            "qr_image" : ""
          },
          {
            "s_d" : "#名厨汁味正当夏# 微波炉豉香鸡腿-会做饭很酷!",
            "object_id" : "3264555",
            "s_u" : "http:\/\/m.douguo.com\/cookbook\/3264555.html",
            "name" : "#名厨汁味正当夏# 微波炉豉香鸡腿-会做饭很酷!",
            "image" : "https:\/\/cp1.douguo.com\/upload\/caiku\/6\/5\/0\/65879065b152e67b3fb1688f8dfe3340.jpg",
            "channel" : "8",
            "qr_image" : "",
            "mini_program" : [

            ]
          }
        ]
      },
      "v_u" : "",
      "comments" : [

      ],
      "ecs" : 0,
      "recipe_tags" : [

      ],
      "author_id" : 8753046,
      "bs" : [

      ],
      "rsm" : "该功能暂停使用",
      "recommended" : 0,
      "dish_count_text" : "",
      "display_ingredient" : 1,
      "recommend_label" : "4712人刚刚收藏过",
      "tags" : [

      ],
      "clicks" : "1",
      "cook_difficulty" : "切墩(初级)",
      "major" : [
        {
          "note" : "2只",
          "title" : "鸡大腿"
        },
        {
          "note" : "1段",
          "tu" : "https:\/\/m.douguo.com\/ingredients\/大葱\/detailmaterial",
          "title" : "大葱"
        },
        {
          "title" : "大蒜",
          "tu" : "https:\/\/m.douguo.com\/ingredients\/大蒜\/detailmaterial",
          "note" : "2瓣"
        },
        {
          "title" : "姜",
          "note" : "1块",
          "tu" : "https:\/\/m.douguo.com\/ingredients\/姜\/detailmaterial"
        },
        {
          "title" : "辣豆豉",
          "note" : "20克"
        },
        {
          "note" : "20克",
          "tu" : "https:\/\/m.douguo.com\/ingredients\/酱油\/detailmaterial",
          "title" : "酱油"
        },
        {
          "title" : "料酒",
          "note" : "20克",
          "tu" : "https:\/\/m.douguo.com\/ingredients\/料酒\/detailmaterial"
        },
        {
          "title" : "生抽\/蚝油",
          "note" : "10克"
        }
      ],
      "mid_mdsp" : [

      ],
      "rate_count" : 0,
      "pw" : 6000,
      "hqu" : "recipes:\/\/www.douguo.com\/notedetail?id=21162253",
      "minor" : [

      ],
      "collect_status" : 0,
      "original_photo_path" : "http:\/\/i1.douguo.net\/upload\/caiku\/6\/5\/0\/yuan_65879065b152e67b3fb1688f8dfe3340.jpg",
      "ipci" : "",
      "title" : " 微波炉豉香鸡腿",
      "rpt" : "",
      "cook_id" : "3264555",
      "release_time" : "",
      "ipt" : "",
      "rcs" : [

      ],
      "su" : "",
      "first_level_comment_count" : 0,
      "rpid" : 0,
      "cookstep" : [
        {
          "content" : "备料：鸡大腿洗净",
          "image" : "https:\/\/i1.douguo.com\/upload\/caiku\/b\/4\/f\/b4536670a945dc679187b21d94d3df1f.jpg",
          "image_width" : 6000,
          "thumb" : "https:\/\/i1.douguo.com\/upload\/caiku\/b\/4\/f\/140_b4536670a945dc679187b21d94d3df1f.jpg",
          "frame" : "-1",
          "position" : 1,
          "image_height" : 4000
        },
        {
          "image_height" : 4000,
          "thumb" : "https:\/\/i1.douguo.com\/upload\/caiku\/c\/3\/5\/140_c3d5ff6e9fd99dcfaeb67eeb6934fc45.jpg",
          "frame" : "-1",
          "position" : 2,
          "image_width" : 6000,
          "content" : "鸡腿剁小块，洗去骨渣儿，大葱、姜切丝，大蒜切片",
          "image" : "https:\/\/i1.douguo.com\/upload\/caiku\/c\/3\/5\/c3d5ff6e9fd99dcfaeb67eeb6934fc45.jpg"
        },
        {
          "image" : "https:\/\/i1.douguo.com\/upload\/caiku\/1\/4\/b\/14fd332395ecf808d58f277a0b0bb7bb.jpg",
          "image_width" : 6000,
          "image_height" : 4000,
          "thumb" : "https:\/\/i1.douguo.com\/upload\/caiku\/1\/4\/b\/140_14fd332395ecf808d58f277a0b0bb7bb.jpg",
          "content" : "所有调料倒入鸡腿碗中，用量可随口味调整",
          "position" : 3,
          "frame" : "-1"
        },
        {
          "image_height" : 4000,
          "content" : "拌匀，腌至少1小时；天热可放冰箱冷藏腌制，中途翻拌一次",
          "image_width" : 6000,
          "position" : 4,
          "frame" : "-1",
          "image" : "https:\/\/i1.douguo.com\/upload\/caiku\/8\/6\/1\/8667c5cf07827dea29c2e1361d3753b1.jpg",
          "thumb" : "https:\/\/i1.douguo.com\/upload\/caiku\/8\/6\/1\/140_8667c5cf07827dea29c2e1361d3753b1.jpg"
        },
        {
          "image_width" : 6000,
          "frame" : "-1",
          "content" : "腌好的鸡腿连同调料一起倒入微波炉专用碗中",
          "image" : "https:\/\/i1.douguo.com\/upload\/caiku\/c\/3\/8\/c3360dbae1ef2d03d1ef7351488039b8.jpg",
          "position" : 5,
          "thumb" : "https:\/\/i1.douguo.com\/upload\/caiku\/c\/3\/8\/140_c3360dbae1ef2d03d1ef7351488039b8.jpg",
          "image_height" : 4000
        },
        {
          "content" : "用微波100P（最大火）先加热4-5分钟",
          "image" : "https:\/\/i1.douguo.com\/upload\/caiku\/a\/c\/2\/acd908ce56fdfb2c9e5b76806c579c02.jpg",
          "position" : 6,
          "thumb" : "https:\/\/i1.douguo.com\/upload\/caiku\/a\/c\/2\/140_acd908ce56fdfb2c9e5b76806c579c02.jpg",
          "image_height" : 3908,
          "image_width" : 5862,
          "frame" : "-1"
        },
        {
          "frame" : "-1",
          "image" : "https:\/\/i1.douguo.com\/upload\/caiku\/c\/3\/1\/c33daf6348af30db1dcdab7a69918231.jpg",
          "image_height" : 4000,
          "image_width" : 6000,
          "content" : "时间到，取出翻拌几下，再100P加热3分钟，出锅装盘，撒香葱末点缀",
          "position" : 7,
          "thumb" : "https:\/\/i1.douguo.com\/upload\/caiku\/c\/3\/1\/140_c33daf6348af30db1dcdab7a69918231.jpg"
        },
        {
          "position" : 8,
          "frame" : "-1",
          "thumb" : "https:\/\/i1.douguo.com\/upload\/caiku\/5\/f\/d\/140_5fa19509ff81edc9cc94b6d7254b65dd.jpg",
          "image_height" : 4000,
          "image_width" : 6000,
          "image" : "https:\/\/i1.douguo.com\/upload\/caiku\/5\/f\/d\/5fa19509ff81edc9cc94b6d7254b65dd.jpg",
          "content" : "香嫩多汁，省时省事"
        }
      ],
      "cookstorys" : [
        {
          "c" : "炎热的夏天不想开火做饭，但又不得不吃，将家中的微波炉利用起来，不但省去了油烟和噪音的困扰，还能缩短烹饪时间，最大限度地保留食物的营养。\r\n\r\n今儿跟大家分享这道“豉香鸡腿”，用不了10分钟出锅，又香又嫩，入味多汁；鸡肉中丰富的蛋白质更能被人体吸收利用，及时补充体力，活力满满。",
          "u" : "",
          "type" : 0,
          "icon" : "",
          "id" : 0,
          "color" : ""
        },
        {
          "id" : 0,
          "c" : "\n参与活动:",
          "type" : 0,
          "icon" : "",
          "u" : "",
          "color" : ""
        },
        {
          "id" : 0,
          "type" : 0,
          "c" : "#【有奖征集+免费申领】味达美·名厨汁味正当夏#",
          "icon" : "",
          "u" : "https:\/\/m.douguo.com\/activity\/ncpzj\/detail\/3819?isapp=1&open=0&_vs=1000300&&dg_refreshkey=publishnote"
        }
      ],
      "recipe_list_tags" : [
        {
          "background_border_color" : "",
          "text" : "关注的人",
          "background_end_color" : "#F4F5F5",
          "right_image" : "",
          "background_start_color" : "#F4F5F5",
          "jump_url" : "",
          "text_color" : "#141515"
        },
        {
          "background_border_color" : "",
          "jump_url" : "",
          "text_color" : "#141515",
          "background_end_color" : "#F4F5F5",
          "text" : "内容详细",
          "right_image" : "",
          "background_start_color" : "#F4F5F5"
        }
      ],
      "related_ads" : [

      ],
      "purl" : "",
      "image" : "http:\/\/i1.douguo.net\/upload\/caiku\/6\/5\/0\/300_65879065b152e67b3fb1688f8dfe3340.jpg",
      "event" : {
        "url" : "https:\/\/m.douguo.com\/activity\/ncpzj\/detail\/3819?isapp=1&open=0&_vs=1000300&&dg_refreshkey=publishnote",
        "name" : "【有奖征集+免费申领】味达美·名厨汁味正当夏",
        "id" : 3819
      },
      "tips" : "1.\t酱油、生抽、辣豆豉有咸味，所以盐根据口味酌情添加；生抽可用蚝油代替，味道更鲜美；\r\n2.\t如果用蒸锅，需凉水上锅，水开后蒸20分钟出锅。",
      "author_verified" : 1,
      "story_dsp" : [

      ],
      "dish_count" : 0,
      "rpst" : "",
      "photo_path" : "https:\/\/i1.douguo.com\/upload\/caiku\/6\/5\/0\/600_65879065b152e67b3fb1688f8dfe3340.jpg",
      "brand_day_dsp" : [

      ],
      "ipoi" : "",
      "rewarded_video_dsp" : [

      ],
      "cook_time_image" : "https:\/\/i1.douguo.com\/upload\/banner\/1551424341.png"
    }
  },
  "status" : 0,
  "state" : "success"
}