{
  "status" : 0,
  "state" : "success",
  "result" : {
    "recipe" : {
      "cook_difficulty" : "",
      "old_comments" : [

      ],
      "ipit" : 0,
      "rrps" : [

      ],
      "ipt" : "",
      "ph" : 533,
      "recent_comments" : [

      ],
      "cookstep" : [
        {
          "content" : "中粮我买网的大洋世家鲜虾仁，真真正正的单冻，解冻后，重量几乎没减少，真是业界良心。",
          "image_height" : 4000,
          "image_width" : 6000,
          "image" : "https:\/\/i1.douguo.com\/upload\/caiku\/0\/c\/e\/0ced22cec3528b34dfe52d720721bcbe.jpg",
          "thumb" : "https:\/\/i1.douguo.com\/upload\/caiku\/0\/c\/e\/140_0ced22cec3528b34dfe52d720721bcbe.jpg",
          "position" : 1,
          "frame" : "-1"
        },
        {
          "thumb" : "https:\/\/i1.douguo.com\/upload\/caiku\/9\/9\/f\/140_991af3b8357c7ad6d4c25ea60abccd2f.jpg",
          "image" : "https:\/\/i1.douguo.com\/upload\/caiku\/9\/9\/f\/991af3b8357c7ad6d4c25ea60abccd2f.jpg",
          "image_width" : 6000,
          "frame" : "-1",
          "image_height" : 4000,
          "position" : 2,
          "content" : "虾仁室温解冻。"
        },
        {
          "position" : 3,
          "frame" : "-1",
          "image_height" : 4000,
          "image" : "https:\/\/i1.douguo.com\/upload\/caiku\/0\/1\/8\/01f765f971291899f32fe02b1ca098d8.jpg",
          "image_width" : 6000,
          "thumb" : "https:\/\/i1.douguo.com\/upload\/caiku\/0\/1\/8\/140_01f765f971291899f32fe02b1ca098d8.jpg",
          "content" : "背部剖开，去除虾线。"
        },
        {
          "position" : 4,
          "frame" : "-1",
          "thumb" : "https:\/\/i1.douguo.com\/upload\/caiku\/0\/f\/a\/140_0f4b1ced86a91abd3387c273a57d50da.jpg",
          "image" : "https:\/\/i1.douguo.com\/upload\/caiku\/0\/f\/a\/0f4b1ced86a91abd3387c273a57d50da.jpg",
          "image_height" : 4000,
          "image_width" : 6000,
          "content" : "加生姜丝，盐，少许色拉油和淀粉腌制10分钟入味。"
        },
        {
          "image_width" : 6000,
          "content" : "姜蒜切末。",
          "image_height" : 4000,
          "image" : "https:\/\/i1.douguo.com\/upload\/caiku\/9\/c\/6\/9cff62d381b7502ac1ba419c94df16b6.jpg",
          "frame" : "-1",
          "position" : 5,
          "thumb" : "https:\/\/i1.douguo.com\/upload\/caiku\/9\/c\/6\/140_9cff62d381b7502ac1ba419c94df16b6.jpg"
        },
        {
          "image_height" : 4000,
          "image_width" : 6000,
          "thumb" : "https:\/\/i1.douguo.com\/upload\/caiku\/c\/1\/d\/140_c133e69a36657e5daffa1332a7351f6d.jpg",
          "content" : "锅里放油，下入虾仁，煎至变色。盛出待用。",
          "image" : "https:\/\/i1.douguo.com\/upload\/caiku\/c\/1\/d\/c133e69a36657e5daffa1332a7351f6d.jpg",
          "position" : 6,
          "frame" : "-1"
        },
        {
          "image" : "https:\/\/i1.douguo.com\/upload\/caiku\/3\/c\/2\/3c0ff5d63d1fe5ec41d87748e27db762.jpg",
          "frame" : "-1",
          "position" : 7,
          "content" : "茼蒿洗净，取杆部。刚才煎虾的锅，爆香蒜末，下入茼蒿翻炒。",
          "image_width" : 6000,
          "thumb" : "https:\/\/i1.douguo.com\/upload\/caiku\/3\/c\/2\/140_3c0ff5d63d1fe5ec41d87748e27db762.jpg",
          "image_height" : 4000
        },
        {
          "content" : "下入生抽炒匀。",
          "image" : "https:\/\/i1.douguo.com\/upload\/caiku\/8\/d\/3\/8d478678b11fc1061d896a8cc75d3703.jpg",
          "frame" : "-1",
          "thumb" : "https:\/\/i1.douguo.com\/upload\/caiku\/8\/d\/3\/140_8d478678b11fc1061d896a8cc75d3703.jpg",
          "image_width" : 6000,
          "position" : 8,
          "image_height" : 4000
        },
        {
          "image_height" : 4000,
          "frame" : "-1",
          "content" : "下入刚才剪好的虾仁，炒匀即可。",
          "position" : 9,
          "thumb" : "https:\/\/i1.douguo.com\/upload\/caiku\/3\/8\/a\/140_384731641bb900319ec6e448d608791a.jpg",
          "image" : "https:\/\/i1.douguo.com\/upload\/caiku\/3\/8\/a\/384731641bb900319ec6e448d608791a.jpg",
          "image_width" : 6000
        },
        {
          "content" : "装盘",
          "image" : "https:\/\/i1.douguo.com\/upload\/caiku\/a\/5\/9\/a5380423cf40fa12abad60310cc84c19.jpg",
          "image_width" : 6000,
          "thumb" : "https:\/\/i1.douguo.com\/upload\/caiku\/a\/5\/9\/140_a5380423cf40fa12abad60310cc84c19.jpg",
          "image_height" : 4000,
          "frame" : "-1",
          "position" : 10
        },
        {
          "position" : 11,
          "frame" : "-1",
          "image_width" : 6000,
          "image_height" : 4000,
          "content" : "脆嫩弹牙，茼蒿也很好吃。",
          "thumb" : "https:\/\/i1.douguo.com\/upload\/caiku\/6\/9\/9\/140_6956c4e2a359ca7272b757b794f77699.jpg",
          "image" : "https:\/\/i1.douguo.com\/upload\/caiku\/6\/9\/9\/6956c4e2a359ca7272b757b794f77699.jpg"
        }
      ],
      "purl" : "",
      "recipe_list_tags" : [
        {
          "text" : "关注的人",
          "jump_url" : "",
          "background_start_color" : "#F4F5F5",
          "right_image" : "",
          "background_end_color" : "#F4F5F5",
          "background_border_color" : "",
          "text_color" : "#141515"
        },
        {
          "text" : "内容详细",
          "background_start_color" : "#F4F5F5",
          "background_end_color" : "#F4F5F5",
          "jump_url" : "",
          "text_color" : "#141515",
          "right_image" : "",
          "background_border_color" : ""
        }
      ],
      "vfurl" : "",
      "rrpt" : "",
      "author" : "禾小荷",
      "ipurl" : "",
      "top_mdsp" : [

      ],
      "ssu" : "",
      "recommendation_tag" : "",
      "thumb_height" : 0,
      "cookwares" : [

      ],
      "collect_status" : 0,
      "v_u" : "",
      "recommended" : 0,
      "dish_count" : 0,
      "cook_id" : "1625403",
      "hqu" : "recipes:\/\/www.douguo.com\/notedetail?id=21162253",
      "ecs" : 0,
      "story_dsp" : [

      ],
      "vc" : "255376",
      "tips" : "1、虾仁不要炒太久，变色后再炒几秒就好，这时候是脆嫩弹牙的感觉，超好吃。",
      "advice" : {
        "da" : {
          "t" : "查看详细分析",
          "url" : "https:\/\/m.douguo.com\/recipe\/nutrient_self\/1625403",
          "iu" : "https:\/\/i1.douguo.com\/upload\/banner\/f\/4\/d\/f48877e53c37759bc12ac494be82ec8d.png"
        },
        "at" : "可以预防血栓形成～",
        "has" : [
          {
            "url" : "recipes:\/\/www.douguo.com\/simplerecipelist?t=低饱和脂肪&id=低饱和脂肪",
            "t" : "低饱和脂肪"
          }
        ]
      },
      "guide_image" : "",
      "minor" : [
        "{\n    note = \"10\\U6beb\\U5347\";\n    title = \"\\U751f\\U62bd\";\n    tu = \"https:\/\/https:\/\/m.douguo.com\/ingredients\/\\U751f\\U62bd\/detailmaterial\";\n}",
        "{\n    note = \"15\\U6beb\\U5347\";\n    title = \"\\U82b1\\U751f\\U6cb9\";\n    tu = \"https:\/\/https:\/\/m.douguo.com\/ingredients\/\\U82b1\\U751f\\U6cb9\/detailmaterial\";\n}",
        "{\n    note = \"\\U9002\\U91cf\";\n    title = \"\\U6c34\\U6dc0\\U7c89\";\n}",
        "{\n    note = \"\\U9002\\U91cf\";\n    title = \"\\U76d0\";\n    tu = \"https:\/\/https:\/\/m.douguo.com\/ingredients\/\\U76d0\/detailmaterial\";\n}"
      ],
      "ipoi" : "",
      "rpid" : 0,
      "image" : "http:\/\/i1.douguo.net\/upload\/caiku\/b\/2\/0\/300_b26460ac8776cb043e813212096b0890.jpg",
      "rate" : 0,
      "clicks" : "245289",
      "cookstory" : "虾含有丰富的营养，而且容易吸收，无论是老人还是孩子都特备适合食用。\n在中粮我买网买了品质超赞的大洋世家虾仁，做了这道茼蒿炒虾仁，虾仁脆嫩弹牙，混合着茼蒿迷人的香气。",
      "rips" : 0,
      "dish_count_text" : "",
      "share_info" : {
        "object_id" : "1625403",
        "infos" : [
          {
            "s_u" : "",
            "name" : "茼蒿炒虾仁#中粮我买，真实惠才是食力派#-会做饭很酷!",
            "image" : "https:\/\/cp1.douguo.com\/upload\/caiku\/b\/2\/0\/b26460ac8776cb043e813212096b0890.jpg",
            "qr_image" : "",
            "object_id" : "1625403",
            "channel" : "1",
            "mini_program" : [

            ],
            "s_d" : "#学做饭用豆果美食# 会做饭好酷啊！我在@豆果美食 分享了【茼蒿炒虾仁#中粮我买，真实惠才是食力派#-会做饭很酷!】，今天也是厨艺满满的一天呢，快来和我一起学做美食吧！查看图片了解菜谱（更多美食秘籍点击https:\/\/m.weibo.cn\/p\/100404i33631获取）"
          },
          {
            "qr_image" : "",
            "s_d" : "茼蒿炒虾仁#中粮我买，真实惠才是食力派#-会做饭很酷!",
            "image" : "https:\/\/cp1.douguo.com\/upload\/caiku\/b\/2\/0\/b26460ac8776cb043e813212096b0890.jpg",
            "mini_program" : [

            ],
            "name" : "茼蒿炒虾仁#中粮我买，真实惠才是食力派#-会做饭很酷!",
            "channel" : "7",
            "object_id" : "1625403",
            "s_u" : "http:\/\/m.douguo.com\/cookbook\/1625403.html"
          },
          {
            "object_id" : "1625403",
            "channel" : "8",
            "mini_program" : [

            ],
            "qr_image" : "",
            "s_d" : "茼蒿炒虾仁#中粮我买，真实惠才是食力派#-会做饭很酷!",
            "s_u" : "http:\/\/m.douguo.com\/cookbook\/1625403.html",
            "name" : "茼蒿炒虾仁#中粮我买，真实惠才是食力派#-会做饭很酷!",
            "image" : "https:\/\/cp1.douguo.com\/upload\/caiku\/b\/2\/0\/b26460ac8776cb043e813212096b0890.jpg"
          }
        ],
        "s_u" : "http:\/\/m.douguo.com\/cookbook\/1625403.html",
        "image" : "https:\/\/cp1.douguo.com\/upload\/caiku\/b\/2\/0\/b26460ac8776cb043e813212096b0890.jpg",
        "mini_program" : [

        ],
        "qr_image" : "",
        "name" : "茼蒿炒虾仁#中粮我买，真实惠才是食力派#-会做饭很酷!",
        "s_d" : "茼蒿炒虾仁#中粮我买，真实惠才是食力派#-会做饭很酷!"
      },
      "related_ads" : [

      ],
      "major" : [
        {
          "tu" : "https:\/\/m.douguo.com\/ingredients\/虾仁\/detailmaterial",
          "title" : "虾仁",
          "note" : "175克"
        },
        {
          "tu" : "https:\/\/m.douguo.com\/ingredients\/茼蒿\/detailmaterial",
          "note" : "150克",
          "title" : "茼蒿"
        }
      ],
      "ipia" : [

      ],
      "sc" : 0,
      "recipe_tags" : [

      ],
      "cookstorys" : [
        {
          "type" : 0,
          "c" : "虾含有丰富的营养，而且容易吸收，无论是老人还是孩子都特备适合食用。\n在中粮我买网买了品质超赞的大洋世家虾仁，做了这道茼蒿炒虾仁，虾仁脆嫩弹牙，混合着茼蒿迷人的香气。",
          "id" : 0,
          "icon" : "",
          "color" : "",
          "u" : ""
        }
      ],
      "packages_id" : [

      ],
      "thumb_path" : "https:\/\/i1.douguo.com\/upload\/caiku\/b\/2\/0\/300_b26460ac8776cb043e813212096b0890.jpg",
      "eu" : "recipes:\/\/www.douguo.com\/postdetail?id=242016",
      "rpst" : "",
      "pw" : 800,
      "views_count_text" : "25.5万",
      "recommend_label" : "25.5万人看过",
      "ipci" : "",
      "title_ad" : [

      ],
      "brand_day_dsp" : [

      ],
      "notes" : [

      ],
      "rewarded_video_dsp" : [

      ],
      "levelid" : 2,
      "author_id" : 2576092,
      "cook_time_image" : "",
      "rate_show" : 0,
      "comments" : [
        "{\n    ac = \"#999999\";\n    at = \"\";\n    ccc = 0;\n    \"child_comments\" =     (\n    );\n    city = \"\";\n    cmc = 2;\n    content =     (\n                {\n            c = \"\\U771f\\U662f\\U5f88\\U68d2\\Uff0c\\U5df2\\U7ecf\\U6536\\U5165\\U8179\\U4e2d\";\n        }\n    );\n    ia = 0;\n    id = 5545179;\n    \"ip_address_location\" = \"\";\n    like = 0;\n    \"like_count\" = 1;\n    \"reply_id\" = 0;\n    \"sticker_icon\" =     (\n    );\n    time = \"2018-04-07 12:39:54\";\n    u =     {\n        \"followers_count_text\" = \"\";\n        id = 18528035;\n        \"is_prime\" = 0;\n        lv = 0;\n        lvl = 4;\n        n = \"\\U543c\\U543c8425\";\n        p = \"http:\/\/tx1.douguo.net\/upload\/photo\/5\/1\/d\/70_u18561729817670408202137.jpg\";\n        \"progress_image\" = \"\";\n        \"recipes_count_text\" = \"\";\n        relationship = \"-1\";\n        title = \"\";\n        v = 0;\n        \"verified_image\" = \"\";\n    };\n}",
        "{\n    ac = \"#999999\";\n    at = \"\";\n    ccc = 0;\n    \"child_comments\" =     (\n    );\n    city = \"\";\n    cmc = 2;\n    content =     (\n                {\n            c = \"\\U6709\\U53e3\\U798f\\U55bd\\Uff0c\\U770b\\U8d77\\U6765\\U8d85\\U597d\\U5403\";\n        }\n    );\n    ia = 0;\n    id = 6782890;\n    \"ip_address_location\" = \"\";\n    like = 0;\n    \"like_count\" = 0;\n    \"reply_id\" = 0;\n    \"sticker_icon\" =     (\n    );\n    time = \"2019-07-17 01:38:37\";\n    u =     {\n        \"followers_count_text\" = \"\";\n        id = 18552592;\n        \"is_prime\" = 0;\n        lv = 0;\n        lvl = 6;\n        n = \"\\U840d135\";\n        p = \"http:\/\/tx1.douguo.net\/upload\/photo\/c\/5\/5\/70_u20138035971100408222344.jpg\";\n        \"progress_image\" = \"\";\n        \"recipes_count_text\" = \"\";\n        relationship = \"-1\";\n        title = \"\";\n        v = 0;\n        \"verified_image\" = \"\";\n    };\n}",
        "{\n    ac = \"#999999\";\n    at = \"\";\n    ccc = 0;\n    \"child_comments\" =     (\n    );\n    city = \"\";\n    cmc = 2;\n    content =     (\n                {\n            c = \"\\U771f\\U662f\\U5f88\\U68d2\\Uff0c\\U8d76\\U7d27\\U6536\\U85cf\\U5b66\\U8d77\\U6765\\Uff01\";\n        }\n    );\n    ia = 0;\n    id = 5545180;\n    \"ip_address_location\" = \"\";\n    like = 0;\n    \"like_count\" = 0;\n    \"reply_id\" = 0;\n    \"sticker_icon\" =     (\n    );\n    time = \"2018-04-07 12:40:56\";\n    u =     {\n        \"followers_count_text\" = \"\";\n        id = 18517941;\n        \"is_prime\" = 0;\n        lv = 0;\n        lvl = 6;\n        n = \"\\U2570\\U628a\\U66fe\\U7d93\\U8b5c\\U5beb\\U6210\\U7ae5\\U8a71\";\n        p = \"http:\/\/tx1.douguo.net\/upload\/photo\/7\/f\/0\/70_u17558895378920408192857.jpg\";\n        \"progress_image\" = \"\";\n        \"recipes_count_text\" = \"\";\n        relationship = \"-1\";\n        title = \"\";\n        v = 0;\n        \"verified_image\" = \"\";\n    };\n}"
      ],
      "tags" : [

      ],
      "favo_counts_text" : "465",
      "ss" : [

      ],
      "photo_path" : "https:\/\/i1.douguo.com\/upload\/caiku\/b\/2\/0\/600_b26460ac8776cb043e813212096b0890.jpg",
      "release_time" : "",
      "rpt" : "",
      "mid_mdsp" : [

      ],
      "sr" : "",
      "vu" : "",
      "favo_counts" : 465,
      "rcs" : [

      ],
      "author_verified" : 1,
      "display_ingredient" : 1,
      "rate_count" : 0,
      "first_level_comment_count" : 5,
      "su" : "",
      "comments_count_text" : "5",
      "cook_difficulty_image" : "",
      "rdsps" : [

      ],
      "rsm" : "该功能暂停使用",
      "btm_dsp" : [

      ],
      "act_des" : "",
      "user" : {
        "lv" : 0,
        "coursecount" : 0,
        "user_photo" : "http:\/\/tx1.douguo.net\/upload\/photo\/8\/d\/3\/70_u63423383727512141031.jpg",
        "birthday" : "",
        "age" : "",
        "userid" : "2576092",
        "weibo_nick" : "",
        "progress_image" : "",
        "diaries_count" : 0,
        "pc" : 0,
        "mobile" : "",
        "fc" : 0,
        "following_count" : 0,
        "point" : 0,
        "favorites_count" : 0,
        "favor_diaries_count" : 0,
        "is_prime" : 0,
        "verified" : 1,
        "avatar_medium" : "http:\/\/tx1.douguo.net\/upload\/photo\/8\/d\/3\/140_u63423383727512141031.jpg",
        "sign" : "",
        "subscription" : 0,
        "setted_email" : 0,
        "user_large_photo" : "http:\/\/tx1.douguo.net\/upload\/photo\/8\/d\/3\/yuan_u63423383727512141031.jpg",
        "verified_url" : "https:\/\/m.douguo.com\/user\/prodesc",
        "qq_weibo_nick" : "",
        "location" : 0,
        "user_cover" : "",
        "gender" : 1,
        "followers_count" : 0,
        "lvl" : 6,
        "introduction" : "",
        "qzone_nick" : "",
        "recipes_count" : 0,
        "nick" : "禾小荷",
        "regist_time" : "",
        "email" : "",
        "subscription_article_count" : 0,
        "verified_image" : "https:\/\/i1.douguo.com\/upload\/note\/d\/a\/a\/da84247847aebe48d9dd0fcdac88862a.png",
        "dishes_count" : 0,
        "user_id" : "2576092"
      },
      "create_time" : "2017-11-13 22:50:06",
      "comments_count" : 5,
      "bs" : [

      ],
      "title" : "茼蒿炒虾仁",
      "dishes" : [

      ],
      "hq" : 1,
      "author_photo" : "http:\/\/tx1.douguo.net\/upload\/photo\/8\/d\/3\/70_u63423383727512141031.jpg",
      "original_photo_path" : "http:\/\/i1.douguo.net\/upload\/caiku\/b\/2\/0\/yuan_b26460ac8776cb043e813212096b0890.jpg",
      "cook_time" : ""
    }
  }
}