{
  "result" : {
    "recipe" : {
      "cookstorys" : [
        {
          "type" : 0,
          "id" : 0,
          "u" : "",
          "icon" : "",
          "c" : "鲤鱼的营养价值很高，可以滋补健胃，利水消肿，清热解毒，对各种水肿，浮肿，少尿，乳汁不通的病症都有好处，而且，孕妇在妊娠期间也可以吃鲤鱼，鲤鱼可以帮助孕妇安抚胎动，也可以帮助孕妇妊娠性消肿，但一定要注意，有慢性病的患者不能食用鲤鱼这种发物。",
          "color" : ""
        },
        {
          "type" : 0,
          "u" : "",
          "color" : "",
          "id" : 0,
          "c" : "\n参与活动:",
          "icon" : ""
        },
        {
          "c" : "#菜谱有奖征集|刘畊宏女孩的一日三餐#",
          "type" : 0,
          "u" : "https:\/\/m.douguo.com\/activity\/ncpzj\/detail\/3517?isapp=1&open=0&_vs=1000300&&dg_refreshkey=publishnote",
          "icon" : "",
          "id" : 0
        }
      ],
      "rate_show" : 0,
      "author_id" : 5070050,
      "bs" : [

      ],
      "title_ad" : [

      ],
      "original_photo_path" : "http:\/\/i1.douguo.net\/upload\/caiku\/2\/0\/5\/yuan_2039a98b070340d56c6de2b8ca3c15b5.jpeg",
      "story_dsp" : [

      ],
      "cook_time" : "30~60分钟",
      "vfurl" : "",
      "clicks" : "1",
      "pw" : 1750,
      "ss" : [

      ],
      "recent_comments" : [

      ],
      "advice" : {
        "da" : {
          "iu" : "https:\/\/i1.douguo.com\/upload\/banner\/f\/4\/d\/f48877e53c37759bc12ac494be82ec8d.png",
          "t" : "查看详细分析",
          "url" : "https:\/\/m.douguo.com\/recipe\/nutrient_self\/3203721"
        },
        "at" : "有助于组织的形成和生长～",
        "has" : [
          {
            "url" : "recipes:\/\/www.douguo.com\/simplerecipelist?t=富含蛋白质&id=富含蛋白质",
            "t" : "富含蛋白质"
          },
          {
            "url" : "recipes:\/\/www.douguo.com\/simplerecipelist?t=低糖&id=低糖",
            "t" : "低糖"
          }
        ]
      },
      "dish_count" : 0,
      "author_verified" : 1,
      "release_time" : "",
      "purl" : "",
      "rate_count" : 0,
      "rips" : 0,
      "su" : "",
      "cookwares" : [

      ],
      "cookstep" : [
        {
          "content" : "鲜活的鲤鱼商家处理掉鱼鳃和内脏冲洗干净",
          "image_height" : 746,
          "image" : "https:\/\/i1.douguo.com\/upload\/caiku\/3\/e\/8\/3e585ebf50c36f3c763d8db97de6e188.jpeg",
          "image_width" : 1280,
          "thumb" : "https:\/\/i1.douguo.com\/upload\/caiku\/3\/e\/8\/140_3e585ebf50c36f3c763d8db97de6e188.jpeg",
          "position" : 1,
          "frame" : "-1"
        },
        {
          "image_width" : 1242,
          "content" : "鲤鱼控干水份刮去鳞片",
          "image_height" : 892,
          "image" : "https:\/\/i1.douguo.com\/upload\/caiku\/0\/a\/1\/0a446be9972fb737209c59b44d655ac1.jpeg",
          "frame" : "-1",
          "thumb" : "https:\/\/i1.douguo.com\/upload\/caiku\/0\/a\/1\/140_0a446be9972fb737209c59b44d655ac1.jpeg",
          "position" : 2
        },
        {
          "image_height" : 714,
          "image_width" : 871,
          "thumb" : "https:\/\/i1.douguo.com\/upload\/caiku\/4\/3\/5\/140_430087cdfcadfa0a7f2851f024be1335.jpeg",
          "content" : "鲤鱼头部下面划开轻轻的取出鱼线",
          "image" : "https:\/\/i1.douguo.com\/upload\/caiku\/4\/3\/5\/430087cdfcadfa0a7f2851f024be1335.jpeg",
          "position" : 3,
          "frame" : "-1"
        },
        {
          "image" : "https:\/\/i1.douguo.com\/upload\/caiku\/7\/f\/1\/7f19589dbae004bca6eb293afae8e391.jpeg",
          "frame" : "-1",
          "position" : 4,
          "thumb" : "https:\/\/i1.douguo.com\/upload\/caiku\/7\/f\/1\/140_7f19589dbae004bca6eb293afae8e391.jpeg",
          "content" : "鲤鱼两侧用刀片几刀这样更易入味",
          "image_width" : 1280,
          "image_height" : 775
        },
        {
          "content" : "锅中倒入底油加热放入花椒和八角炸香再放入葱姜蒜爆香",
          "image" : "https:\/\/i1.douguo.com\/upload\/caiku\/2\/2\/9\/224bde079da67dc2249be9f292886999.jpeg",
          "frame" : "-1",
          "thumb" : "https:\/\/i1.douguo.com\/upload\/caiku\/2\/2\/9\/140_224bde079da67dc2249be9f292886999.jpeg",
          "position" : 5,
          "image_width" : 1193,
          "image_height" : 1080
        },
        {
          "image_height" : 1080,
          "frame" : "-1",
          "thumb" : "https:\/\/i1.douguo.com\/upload\/caiku\/6\/b\/5\/140_6bcc27d7422594400af2bb0440eaf595.jpeg",
          "content" : "放入调味料料酒、一品鲜酱油、糖、郫县豆瓣酱",
          "position" : 6,
          "image" : "https:\/\/i1.douguo.com\/upload\/caiku\/6\/b\/5\/6bcc27d7422594400af2bb0440eaf595.jpeg",
          "image_width" : 1233
        },
        {
          "position" : 7,
          "frame" : "-1",
          "image_height" : 1079,
          "image_width" : 1187,
          "content" : "所有的调味料炒匀炒出红油炒出香味",
          "thumb" : "https:\/\/i1.douguo.com\/upload\/caiku\/0\/d\/8\/140_0d7b3b8e0eca5aa0a61e317471f8e898.jpeg",
          "image" : "https:\/\/i1.douguo.com\/upload\/caiku\/0\/d\/8\/0d7b3b8e0eca5aa0a61e317471f8e898.jpeg"
        },
        {
          "content" : "添加适量清水大火烧起来",
          "image_height" : 1079,
          "image" : "https:\/\/i1.douguo.com\/upload\/caiku\/f\/f\/d\/ff3353edefde12cb824758db6e16a6bd.jpeg",
          "thumb" : "https:\/\/i1.douguo.com\/upload\/caiku\/f\/f\/d\/140_ff3353edefde12cb824758db6e16a6bd.jpeg",
          "frame" : "-1",
          "image_width" : 1278,
          "position" : 8
        },
        {
          "image_width" : 1260,
          "content" : "先立放鲤鱼入锅让鲤鱼腹部先入味",
          "image" : "https:\/\/i1.douguo.com\/upload\/caiku\/1\/2\/a\/12cf1649e773eb8a394f65e48a3092aa.jpeg",
          "thumb" : "https:\/\/i1.douguo.com\/upload\/caiku\/1\/2\/a\/140_12cf1649e773eb8a394f65e48a3092aa.jpeg",
          "position" : 9,
          "frame" : "-1",
          "image_height" : 1080
        },
        {
          "image_height" : 794,
          "position" : 10,
          "content" : "鲤鱼反正两面炖至变色盖上锅盖大火炖起来",
          "image" : "https:\/\/i1.douguo.com\/upload\/caiku\/a\/c\/1\/ac04e8c25749d3b138dd01ac6d8b24d1.jpeg",
          "thumb" : "https:\/\/i1.douguo.com\/upload\/caiku\/a\/c\/1\/140_ac04e8c25749d3b138dd01ac6d8b24d1.jpeg",
          "image_width" : 1280,
          "frame" : "-1"
        },
        {
          "content" : "炖至鲤鱼完全熟透改成小火放入盐和味精改小火慢炖至入味即可出锅享用",
          "image_width" : 1236,
          "image" : "https:\/\/i1.douguo.com\/upload\/caiku\/6\/9\/f\/6962b27fe6bf8eb41847a125ed3123df.jpeg",
          "frame" : "-1",
          "thumb" : "https:\/\/i1.douguo.com\/upload\/caiku\/6\/9\/f\/140_6962b27fe6bf8eb41847a125ed3123df.jpeg",
          "image_height" : 1080,
          "position" : 11
        },
        {
          "position" : 12,
          "content" : "美味香浓的酱香鲤鱼装入盘中撒上香菜就大功告成了",
          "frame" : "-1",
          "image_width" : 1280,
          "image" : "https:\/\/i1.douguo.com\/upload\/caiku\/1\/2\/4\/12caf5856b56d46f77c80a74c2b38a84.jpeg",
          "thumb" : "https:\/\/i1.douguo.com\/upload\/caiku\/1\/2\/4\/140_12caf5856b56d46f77c80a74c2b38a84.jpeg",
          "image_height" : 949
        },
        {
          "position" : 13,
          "frame" : "-1",
          "thumb" : "https:\/\/i1.douguo.com\/upload\/caiku\/1\/6\/f\/140_1684d84c316e3c1b1d938a8d3a656c4f.jpeg",
          "image_height" : 960,
          "image_width" : 1280,
          "image" : "https:\/\/i1.douguo.com\/upload\/caiku\/1\/6\/f\/1684d84c316e3c1b1d938a8d3a656c4f.jpeg",
          "content" : "看着诱人的酱香鲤鱼口水忍不住的流噢"
        },
        {
          "frame" : "-1",
          "image_width" : 1280,
          "thumb" : "https:\/\/i1.douguo.com\/upload\/caiku\/d\/3\/c\/140_d3c319f3f281db844dc7fabad059747c.jpeg",
          "content" : "鲤鱼肉肉入口鲜嫩细腻混搭着郫县豆瓣酱独有的香味让人唇齿留香回味无穷",
          "image_height" : 960,
          "position" : 14,
          "image" : "https:\/\/i1.douguo.com\/upload\/caiku\/d\/3\/c\/d3c319f3f281db844dc7fabad059747c.jpeg"
        },
        {
          "image" : "https:\/\/i1.douguo.com\/upload\/caiku\/6\/7\/1\/67200e088a58e4db7fcb148c0864ce31.jpeg",
          "content" : "鲤鱼的营养价值非常丰富经常食用对身体有益，也是宴客必备的拿手好菜哦",
          "image_width" : 1280,
          "image_height" : 1017,
          "position" : 15,
          "thumb" : "https:\/\/i1.douguo.com\/upload\/caiku\/6\/7\/1\/140_67200e088a58e4db7fcb148c0864ce31.jpeg",
          "frame" : "-1"
        }
      ],
      "minor" : [

      ],
      "recommendation_tag" : "",
      "share_info" : {
        "qr_image" : "",
        "object_id" : "3203721",
        "mini_program" : [

        ],
        "infos" : [
          {
            "mini_program" : [

            ],
            "channel" : "1",
            "object_id" : "3203721",
            "image" : "https:\/\/cp1.douguo.com\/upload\/caiku\/2\/0\/5\/2039a98b070340d56c6de2b8ca3c15b5.jpeg",
            "s_u" : "",
            "s_d" : "#学做饭用豆果美食# 我在@豆果美食 分享了【#刘畊宏女孩减脂饮食#酱焖鲤鱼-会做饭很酷!】，色香味俱全说的就是这道菜！查看图片了解菜谱（快来点击https:\/\/m.weibo.cn\/p\/100404i33631和我一起修炼厨艺吧）#会做饭很酷# ",
            "qr_image" : "",
            "name" : "#刘畊宏女孩减脂饮食#酱焖鲤鱼-会做饭很酷!"
          },
          {
            "channel" : "7",
            "image" : "https:\/\/cp1.douguo.com\/upload\/caiku\/2\/0\/5\/2039a98b070340d56c6de2b8ca3c15b5.jpeg",
            "object_id" : "3203721",
            "qr_image" : "",
            "name" : "#刘畊宏女孩减脂饮食#酱焖鲤鱼-会做饭很酷!",
            "mini_program" : [

            ],
            "s_d" : "#刘畊宏女孩减脂饮食#酱焖鲤鱼-会做饭很酷!",
            "s_u" : "http:\/\/m.douguo.com\/cookbook\/3203721.html"
          },
          {
            "channel" : "8",
            "mini_program" : [

            ],
            "qr_image" : "",
            "name" : "#刘畊宏女孩减脂饮食#酱焖鲤鱼-会做饭很酷!",
            "object_id" : "3203721",
            "s_d" : "#刘畊宏女孩减脂饮食#酱焖鲤鱼-会做饭很酷!",
            "image" : "https:\/\/cp1.douguo.com\/upload\/caiku\/2\/0\/5\/2039a98b070340d56c6de2b8ca3c15b5.jpeg",
            "s_u" : "http:\/\/m.douguo.com\/cookbook\/3203721.html"
          }
        ],
        "s_d" : "#刘畊宏女孩减脂饮食#酱焖鲤鱼-会做饭很酷!",
        "image" : "https:\/\/cp1.douguo.com\/upload\/caiku\/2\/0\/5\/2039a98b070340d56c6de2b8ca3c15b5.jpeg",
        "name" : "#刘畊宏女孩减脂饮食#酱焖鲤鱼-会做饭很酷!",
        "s_u" : "http:\/\/m.douguo.com\/cookbook\/3203721.html"
      },
      "ipoi" : "",
      "first_level_comment_count" : 0,
      "views_count_text" : "14.8万",
      "ecs" : 0,
      "ipurl" : "",
      "thumb_height" : 0,
      "rpt" : "",
      "cook_difficulty_image" : "https:\/\/i1.douguo.com\/upload\/banner\/1551424413.png",
      "thumb_path" : "https:\/\/i1.douguo.com\/upload\/caiku\/2\/0\/5\/300_2039a98b070340d56c6de2b8ca3c15b5.jpeg",
      "rrpt" : "",
      "image" : "http:\/\/i1.douguo.net\/upload\/caiku\/2\/0\/5\/300_2039a98b070340d56c6de2b8ca3c15b5.jpeg",
      "display_ingredient" : 1,
      "rewarded_video_dsp" : [

      ],
      "event" : {
        "name" : "菜谱有奖征集|刘畊宏女孩的一日三餐",
        "url" : "https:\/\/m.douguo.com\/activity\/ncpzj\/detail\/3517?isapp=1&open=0&_vs=1000300&&dg_refreshkey=publishnote",
        "id" : 3517
      },
      "comments_count_text" : "",
      "rpid" : 0,
      "eu" : "recipes:\/\/www.douguo.com\/postdetail?id=242016",
      "cookstory" : "鲤鱼的营养价值很高，可以滋补健胃，利水消肿，清热解毒，对各种水肿，浮肿，少尿，乳汁不通的病症都有好处，而且，孕妇在妊娠期间也可以吃鲤鱼，鲤鱼可以帮助孕妇安抚胎动，也可以帮助孕妇妊娠性消肿，但一定要注意，有慢性病的患者不能食用鲤鱼这种发物。",
      "favo_counts_text" : "3716",
      "user" : {
        "following_count" : 0,
        "mobile" : "",
        "avatar_medium" : "http:\/\/tx1.douguo.net\/upload\/photo\/7\/3\/6\/140_73674ac5d8bcd9b491c39070caf03636.jpg",
        "lvl" : 8,
        "is_prime" : 0,
        "user_cover" : "",
        "verified_image" : "https:\/\/i1.douguo.com\/upload\/note\/d\/a\/a\/da84247847aebe48d9dd0fcdac88862a.png",
        "nick" : "家和万事兴顺顺顺",
        "lv" : 0,
        "favor_diaries_count" : 0,
        "user_photo" : "http:\/\/tx1.douguo.net\/upload\/photo\/7\/3\/6\/70_73674ac5d8bcd9b491c39070caf03636.jpg",
        "qzone_nick" : "",
        "introduction" : "",
        "birthday" : "",
        "favorites_count" : 0,
        "sign" : "",
        "dishes_count" : 0,
        "coursecount" : 0,
        "user_id" : "5070050",
        "verified_url" : "https:\/\/m.douguo.com\/user\/prodesc",
        "point" : 0,
        "user_large_photo" : "http:\/\/tx1.douguo.net\/upload\/photo\/7\/3\/6\/yuan_73674ac5d8bcd9b491c39070caf03636.jpg",
        "fc" : 0,
        "weibo_nick" : "",
        "progress_image" : "",
        "age" : "",
        "verified" : 1,
        "qq_weibo_nick" : "",
        "pc" : 0,
        "location" : 0,
        "gender" : 2,
        "email" : "",
        "recipes_count" : 0,
        "regist_time" : "",
        "userid" : "5070050",
        "setted_email" : 0,
        "followers_count" : 0,
        "diaries_count" : 0,
        "subscription_article_count" : 0,
        "subscription" : 0
      },
      "comments_count" : 0,
      "mid_mdsp" : [

      ],
      "btm_dsp" : [

      ],
      "tips" : "鲤鱼的营养价值很高，可以滋补健胃，利水消肿，清热解毒，对各种水肿，浮肿，少尿，乳汁不通的病症都有好处，而且，孕妇在妊娠期间也可以吃鲤鱼，鲤鱼可以帮助孕妇安抚胎动，也可以帮助孕妇妊娠性消肿，但一定要注意，有慢性病的患者不能食用鲤鱼这种发物。",
      "top_mdsp" : [

      ],
      "sc" : 0,
      "collect_status" : 0,
      "notes" : [

      ],
      "levelid" : 2,
      "old_comments" : [

      ],
      "guide_image" : "",
      "vc" : "148163",
      "brand_day_dsp" : [

      ],
      "cook_difficulty" : "配菜(中级)",
      "ssu" : "",
      "ipt" : "",
      "rdsps" : [

      ],
      "act_des" : "",
      "rpst" : "",
      "hq" : 1,
      "favo_counts" : 3716,
      "rsm" : "该功能暂停使用",
      "create_time" : "2022-07-22 09:43:50",
      "recipe_list_tags" : [
        {
          "background_start_color" : "#F4F5F5",
          "jump_url" : "",
          "text_color" : "#141515",
          "text" : "关注的人",
          "background_end_color" : "#F4F5F5",
          "right_image" : "",
          "background_border_color" : ""
        },
        {
          "text" : "内容详细",
          "background_border_color" : "",
          "background_start_color" : "#F4F5F5",
          "text_color" : "#141515",
          "right_image" : "",
          "background_end_color" : "#F4F5F5",
          "jump_url" : ""
        }
      ],
      "cook_id" : "3203721",
      "recipe_tags" : [

      ],
      "related_ads" : [

      ],
      "dishes" : [

      ],
      "photo_path" : "https:\/\/i1.douguo.com\/upload\/caiku\/2\/0\/5\/600_2039a98b070340d56c6de2b8ca3c15b5.jpeg",
      "major" : [
        {
          "note" : "一条",
          "title" : "鲤鱼",
          "tu" : "https:\/\/m.douguo.com\/ingredients\/鲤鱼\/detailmaterial"
        },
        {
          "note" : "5克",
          "title" : "葱",
          "tu" : "https:\/\/m.douguo.com\/ingredients\/葱\/detailmaterial"
        },
        {
          "note" : "5克",
          "tu" : "https:\/\/m.douguo.com\/ingredients\/姜\/detailmaterial",
          "title" : "姜"
        },
        {
          "note" : "1个",
          "tu" : "https:\/\/m.douguo.com\/ingredients\/八角\/detailmaterial",
          "title" : "八角"
        },
        {
          "tu" : "https:\/\/m.douguo.com\/ingredients\/蒜\/detailmaterial",
          "note" : "5克",
          "title" : "蒜"
        },
        {
          "note" : "3克",
          "title" : "花椒",
          "tu" : "https:\/\/m.douguo.com\/ingredients\/花椒\/detailmaterial"
        },
        {
          "note" : "1勺",
          "title" : "一品鲜酱油"
        },
        {
          "note" : "2勺",
          "title" : "郫县豆瓣酱"
        },
        {
          "note" : "1勺",
          "title" : "料酒",
          "tu" : "https:\/\/m.douguo.com\/ingredients\/料酒\/detailmaterial"
        },
        {
          "note" : "1勺",
          "title" : "糖",
          "tu" : "https:\/\/m.douguo.com\/ingredients\/糖\/detailmaterial"
        },
        {
          "note" : "1匙",
          "title" : "盐",
          "tu" : "https:\/\/m.douguo.com\/ingredients\/盐\/detailmaterial"
        },
        {
          "title" : "味精",
          "tu" : "https:\/\/m.douguo.com\/ingredients\/味精\/detailmaterial",
          "note" : "0.2匙"
        }
      ],
      "recommend_label" : "3716人刚刚收藏过",
      "ipia" : [

      ],
      "dish_count_text" : "",
      "ipit" : 0,
      "rate" : 0,
      "rcs" : [

      ],
      "author_photo" : "http:\/\/tx1.douguo.net\/upload\/photo\/7\/3\/6\/70_73674ac5d8bcd9b491c39070caf03636.jpg",
      "v_u" : "",
      "sr" : "",
      "rrps" : [

      ],
      "ph" : 1080,
      "hqu" : "recipes:\/\/www.douguo.com\/notedetail?id=21162253",
      "packages_id" : [

      ],
      "author" : "家和万事兴顺顺顺",
      "ipci" : "",
      "recommended" : 0,
      "title" : "酱焖鲤鱼",
      "tags" : [

      ],
      "vu" : "",
      "cook_time_image" : "https:\/\/i1.douguo.com\/upload\/banner\/1551424318.png",
      "comments" : [

      ]
    }
  },
  "state" : "success",
  "status" : 0
}