{
  "result" : {
    "recipe" : {
      "cook_difficulty" : "切墩(初级)",
      "old_comments" : [

      ],
      "ipit" : 0,
      "rrps" : [

      ],
      "ipt" : "",
      "ph" : 1000,
      "recent_comments" : [

      ],
      "recipe_list_tags" : [
        {
          "background_start_color" : "#F4F5F5",
          "text_color" : "#141515",
          "text" : "关注的人",
          "background_border_color" : "",
          "background_end_color" : "#F4F5F5",
          "jump_url" : "",
          "right_image" : ""
        }
      ],
      "cookstep" : [
        {
          "image" : "https:\/\/i1.douguo.com\/upload\/caiku\/c\/3\/9\/c38c5c0a86c6f7b7d753e875d74cfd59.jpg",
          "image_height" : 766,
          "content" : "鸡翅根洗净，用厨房专用剪刀从根部剪开",
          "position" : 1,
          "thumb" : "https:\/\/i1.douguo.com\/upload\/caiku\/c\/3\/9\/140_c38c5c0a86c6f7b7d753e875d74cfd59.jpg",
          "image_width" : 800,
          "frame" : "-1"
        },
        {
          "image" : "https:\/\/i1.douguo.com\/upload\/caiku\/d\/0\/7\/d0359b2d8f262e27880534e31d627827.jpg",
          "content" : "如图所示，分三边剃骨，将肉卷至翅根前端",
          "frame" : "-1",
          "position" : 2,
          "thumb" : "https:\/\/i1.douguo.com\/upload\/caiku\/d\/0\/7\/140_d0359b2d8f262e27880534e31d627827.jpg",
          "image_height" : 888,
          "image_width" : 800
        },
        {
          "image_width" : 800,
          "frame" : "-1",
          "image" : "https:\/\/i1.douguo.com\/upload\/caiku\/1\/3\/f\/13d157077f9643afc4d8307b1f890c2f.jpg",
          "image_height" : 853,
          "thumb" : "https:\/\/i1.douguo.com\/upload\/caiku\/1\/3\/f\/140_13d157077f9643afc4d8307b1f890c2f.jpg",
          "position" : 3,
          "content" : "生抽，老抽，椒盐粉，孜然粉搅拌均匀，将翅根浸泡腌十分钟。之后尾端用锡纸包裹"
        },
        {
          "image_width" : 800,
          "content" : "入炸锅~我家使用的是韩优空气炸锅型号k500~设置温度200度时间10分",
          "image" : "https:\/\/i1.douguo.com\/upload\/caiku\/3\/7\/d\/375a0a4297cf361f27aaab9c377e666d.jpg",
          "frame" : "-1",
          "position" : 4,
          "image_height" : 718,
          "thumb" : "https:\/\/i1.douguo.com\/upload\/caiku\/3\/7\/d\/140_375a0a4297cf361f27aaab9c377e666d.jpg"
        },
        {
          "content" : "时间到~出锅~我喜欢用这款炸锅~是因为受热很均匀~不用油没油烟~很健康",
          "position" : 5,
          "image_width" : 800,
          "image" : "https:\/\/i1.douguo.com\/upload\/caiku\/5\/2\/9\/526adb5add1b3ae4d3fae72708996729.jpg",
          "frame" : "-1",
          "thumb" : "https:\/\/i1.douguo.com\/upload\/caiku\/5\/2\/9\/140_526adb5add1b3ae4d3fae72708996729.jpg",
          "image_height" : 1067
        },
        {
          "image_width" : 800,
          "image_height" : 1012,
          "content" : "新鲜出炉~搭配绿色生菜~流口水有木有",
          "thumb" : "https:\/\/i1.douguo.com\/upload\/caiku\/0\/0\/2\/140_001be4a91e3d5293448af653e83a7552.jpg",
          "frame" : "-1",
          "position" : 6,
          "image" : "https:\/\/i1.douguo.com\/upload\/caiku\/0\/0\/2\/001be4a91e3d5293448af653e83a7552.jpg"
        },
        {
          "frame" : "-1",
          "image" : "https:\/\/i1.douguo.com\/upload\/caiku\/f\/0\/e\/f059f6fb0c42222ec55d1e0147768cae.jpg",
          "thumb" : "https:\/\/i1.douguo.com\/upload\/caiku\/f\/0\/e\/140_f059f6fb0c42222ec55d1e0147768cae.jpg",
          "position" : 7,
          "content" : "包裹了锡纸~啃起来既方便又优雅~宝贝的小手也再油乎乎~喜欢的就做起来~试试吧~so easy",
          "image_height" : 1000,
          "image_width" : 800
        }
      ],
      "purl" : "",
      "vfurl" : "",
      "rrpt" : "",
      "author" : "樱桃妈妈cherrylove",
      "ipurl" : "",
      "top_mdsp" : [

      ],
      "ssu" : "",
      "recommendation_tag" : "",
      "thumb_height" : 0,
      "cookwares" : [

      ],
      "collect_status" : 0,
      "cook_id" : "1463703",
      "recommended" : 0,
      "dish_count" : 0,
      "hqu" : "recipes:\/\/www.douguo.com\/notedetail?id=21162253",
      "v_u" : "",
      "story_dsp" : [

      ],
      "ecs" : 1,
      "tips" : "",
      "vc" : "10624",
      "advice" : {
        "at" : "可以提供多种氨基酸～",
        "has" : [
          {
            "url" : "recipes:\/\/www.douguo.com\/simplerecipelist?t=富含蛋白质&id=富含蛋白质",
            "t" : "富含蛋白质"
          }
        ],
        "da" : {
          "url" : "https:\/\/m.douguo.com\/recipe\/nutrient_self\/1463703",
          "iu" : "https:\/\/i1.douguo.com\/upload\/banner\/f\/4\/d\/f48877e53c37759bc12ac494be82ec8d.png",
          "t" : "查看详细分析"
        }
      },
      "guide_image" : "",
      "ipoi" : "",
      "minor" : [

      ],
      "rpid" : 0,
      "image" : "http:\/\/i1.douguo.net\/upload\/caiku\/c\/2\/5\/300_c24c518616fdfe3042a8fafed57d5b25.jpg",
      "rate" : 0,
      "clicks" : "9535",
      "cookstory" : "我所做的美食灵感源自于公主，她的一举一动都可能给到我美食上的创作，鸡腿棒槌源自于啃鸡腿时狼狈的样子~接下来看图示意",
      "rips" : 0,
      "dish_count_text" : "",
      "share_info" : {
        "object_id" : "1463703",
        "mini_program" : [

        ],
        "name" : "鸡腿小棒槌-会做饭很酷!",
        "qr_image" : "",
        "s_u" : "http:\/\/m.douguo.com\/cookbook\/1463703.html",
        "image" : "https:\/\/cp1.douguo.com\/upload\/caiku\/c\/2\/5\/c24c518616fdfe3042a8fafed57d5b25.jpg",
        "s_d" : "鸡腿小棒槌-会做饭很酷!",
        "infos" : [
          {
            "channel" : "1",
            "mini_program" : [

            ],
            "object_id" : "1463703",
            "name" : "鸡腿小棒槌-会做饭很酷!",
            "s_d" : "#学做饭用豆果美食# 会做饭真是好酷啊！我在@豆果美食 分享了【鸡腿小棒槌-会做饭很酷!】，快来康康我这道菜做的怎么样～美味停不下来！查看图片了解菜谱（你喜欢的美食都在这里！https:\/\/m.weibo.cn\/p\/100404i33631）",
            "image" : "https:\/\/cp1.douguo.com\/upload\/caiku\/c\/2\/5\/c24c518616fdfe3042a8fafed57d5b25.jpg",
            "qr_image" : "",
            "s_u" : ""
          },
          {
            "channel" : "7",
            "s_u" : "http:\/\/m.douguo.com\/cookbook\/1463703.html",
            "qr_image" : "",
            "s_d" : "鸡腿小棒槌-会做饭很酷!",
            "image" : "https:\/\/cp1.douguo.com\/upload\/caiku\/c\/2\/5\/c24c518616fdfe3042a8fafed57d5b25.jpg",
            "mini_program" : [

            ],
            "object_id" : "1463703",
            "name" : "鸡腿小棒槌-会做饭很酷!"
          },
          {
            "mini_program" : [

            ],
            "channel" : "8",
            "object_id" : "1463703",
            "image" : "https:\/\/cp1.douguo.com\/upload\/caiku\/c\/2\/5\/c24c518616fdfe3042a8fafed57d5b25.jpg",
            "s_u" : "http:\/\/m.douguo.com\/cookbook\/1463703.html",
            "s_d" : "鸡腿小棒槌-会做饭很酷!",
            "qr_image" : "",
            "name" : "鸡腿小棒槌-会做饭很酷!"
          }
        ]
      },
      "related_ads" : [

      ],
      "ipia" : [

      ],
      "packages_id" : [

      ],
      "sc" : 0,
      "recipe_tags" : [

      ],
      "cookstorys" : [
        {
          "icon" : "",
          "id" : 0,
          "u" : "",
          "color" : "",
          "type" : 0,
          "c" : "我所做的美食灵感源自于公主，她的一举一动都可能给到我美食上的创作，鸡腿棒槌源自于啃鸡腿时狼狈的样子~接下来看图示意"
        }
      ],
      "major" : [
        {
          "tu" : "https:\/\/m.douguo.com\/ingredients\/鸡翅根\/detailmaterial",
          "note" : "4根",
          "title" : "鸡翅根"
        },
        {
          "tu" : "https:\/\/m.douguo.com\/ingredients\/生抽\/detailmaterial",
          "note" : "适量",
          "title" : "生抽"
        },
        {
          "note" : "适量",
          "title" : "老抽",
          "tu" : "https:\/\/m.douguo.com\/ingredients\/老抽\/detailmaterial"
        },
        {
          "title" : "椒盐粉",
          "note" : "适量"
        },
        {
          "title" : "孜然粉",
          "note" : "适量"
        }
      ],
      "thumb_path" : "https:\/\/i1.douguo.com\/upload\/caiku\/c\/2\/5\/300_c24c518616fdfe3042a8fafed57d5b25.jpg",
      "rpst" : "",
      "eu" : "recipes:\/\/www.douguo.com\/postdetail?id=242016",
      "pw" : 800,
      "views_count_text" : "1.1万",
      "recommend_label" : "1.1万人看过",
      "bs" : [

      ],
      "title_ad" : [

      ],
      "favo_counts_text" : "36",
      "notes" : [

      ],
      "ipci" : "",
      "rate_show" : 0,
      "cook_time_image" : "https:\/\/i1.douguo.com\/upload\/banner\/1551424341.png",
      "brand_day_dsp" : [

      ],
      "tags" : [

      ],
      "comments" : [
        "{\n    ac = \"#999999\";\n    at = \"\";\n    ccc = 0;\n    \"child_comments\" =     (\n    );\n    city = \"\";\n    cmc = 2;\n    content =     (\n                {\n            c = \"\\U8c22\\U8c22\\Uff0c\\U5b69\\U5b50\\U5f00\\U5fc3\\U98df\\U6b32\\U597d\\U5c31\\U662f\\U5bf9\\U5988\\U5988\\U53a8\\U827a\\U6700\\U5927\\U7684\\U80af\\U5b9a\";\n        }\n    );\n    ia = 1;\n    id = 4201916;\n    \"ip_address_location\" = \"\";\n    like = 0;\n    \"like_count\" = 0;\n    \"reply_id\" = 0;\n    \"sticker_icon\" =     (\n    );\n    time = \"2016-10-22 04:27:09\";\n    u =     {\n        \"followers_count_text\" = \"\";\n        id = 18047800;\n        \"is_prime\" = 0;\n        lv = 0;\n        lvl = 5;\n        n = \"\\U6a31\\U6843\\U5988\\U5988cherrylove\";\n        p = \"http:\/\/tx1.douguo.net\/upload\/photo\/4\/6\/e\/70_u68893073506671095700.jpg\";\n        \"progress_image\" = \"\";\n        \"recipes_count_text\" = \"\";\n        relationship = \"-1\";\n        title = \"\";\n        v = 0;\n        \"verified_image\" = \"\";\n    };\n}",
        "{\n    ac = \"#999999\";\n    at = \"\";\n    ccc = 0;\n    \"child_comments\" =     (\n    );\n    city = \"\";\n    cmc = 2;\n    content =     (\n                {\n            c = \"\\U770b\\U7740\\U771f\\U5c0f\\U5c0f\\U7684\\U597d\\U53ef\\U7231\\Uff0c\\U54c8\\U54c8\\Uff0c\\U5988\\U5988\\U4e3a\\U4e86\\U5b69\\U5b50\\U771f\\U662f\\U8d39\\U5c3d\\U5fc3\\U601d\\U5440~ \";\n        }\n    );\n    ia = 0;\n    id = 4201361;\n    \"ip_address_location\" = \"\";\n    like = 0;\n    \"like_count\" = 0;\n    \"reply_id\" = 0;\n    \"sticker_icon\" =     (\n    );\n    time = \"2016-10-22 01:18:06\";\n    u =     {\n        \"followers_count_text\" = \"\";\n        id = 18329805;\n        \"is_prime\" = 0;\n        lv = 0;\n        lvl = 6;\n        n = \"\\U7231\\U5403\\U5c0f\\U59d0\\U5c0f\\U963f\\U5dcd\";\n        p = \"http:\/\/tx1.douguo.net\/upload\/photo\/1\/c\/3\/70_u71486235782366135543.jpeg\";\n        \"progress_image\" = \"\";\n        \"recipes_count_text\" = \"\";\n        relationship = \"-1\";\n        title = \"\";\n        v = 0;\n        \"verified_image\" = \"\";\n    };\n}"
      ],
      "photo_path" : "https:\/\/i1.douguo.com\/upload\/caiku\/c\/2\/5\/600_c24c518616fdfe3042a8fafed57d5b25.jpg",
      "levelid" : 2,
      "ss" : [

      ],
      "rewarded_video_dsp" : [

      ],
      "release_time" : "",
      "sr" : "",
      "mid_mdsp" : [

      ],
      "rcs" : [

      ],
      "vu" : "",
      "rpt" : "",
      "favo_counts" : 36,
      "display_ingredient" : 1,
      "first_level_comment_count" : 2,
      "rate_count" : 0,
      "comments_count_text" : "2",
      "su" : "",
      "author_verified" : 0,
      "cook_difficulty_image" : "https:\/\/i1.douguo.com\/upload\/banner\/1551424390.png",
      "rdsps" : [

      ],
      "rsm" : "该功能暂停使用",
      "btm_dsp" : [

      ],
      "act_des" : "",
      "comments_count" : 2,
      "create_time" : "2016-10-21 21:23:34",
      "user" : {
        "following_count" : 0,
        "mobile" : "",
        "avatar_medium" : "http:\/\/tx1.douguo.net\/upload\/photo\/4\/6\/e\/140_u68893073506671095700.jpg",
        "lvl" : 5,
        "favorites_count" : 0,
        "verified_image" : "",
        "is_prime" : 0,
        "nick" : "樱桃妈妈cherrylove",
        "lv" : 0,
        "user_cover" : "",
        "user_photo" : "http:\/\/tx1.douguo.net\/upload\/photo\/4\/6\/e\/70_u68893073506671095700.jpg",
        "qzone_nick" : "",
        "introduction" : "",
        "weibo_nick" : "",
        "favor_diaries_count" : 0,
        "sign" : "",
        "point" : 0,
        "verified_url" : "https:\/\/m.douguo.com\/user\/prodesc",
        "user_large_photo" : "http:\/\/tx1.douguo.net\/upload\/photo\/4\/6\/e\/yuan_u68893073506671095700.jpg",
        "dishes_count" : 0,
        "qq_weibo_nick" : "",
        "verified" : 0,
        "user_id" : "18047800",
        "coursecount" : 0,
        "fc" : 0,
        "age" : "",
        "progress_image" : "",
        "birthday" : "",
        "location" : 0,
        "pc" : 0,
        "gender" : 2,
        "email" : "",
        "recipes_count" : 0,
        "regist_time" : "",
        "userid" : "18047800",
        "setted_email" : 0,
        "diaries_count" : 0,
        "followers_count" : 0,
        "subscription_article_count" : 0,
        "subscription" : 0
      },
      "author_id" : 18047800,
      "title" : "鸡腿小棒槌",
      "dishes" : [

      ],
      "hq" : 1,
      "cook_time" : "10-30分钟",
      "original_photo_path" : "http:\/\/i1.douguo.net\/upload\/caiku\/c\/2\/5\/yuan_c24c518616fdfe3042a8fafed57d5b25.jpg",
      "author_photo" : "http:\/\/tx1.douguo.net\/upload\/photo\/4\/6\/e\/70_u68893073506671095700.jpg"
    }
  },
  "state" : "success",
  "status" : 0
}