{
  "result" : {
    "recipe" : {
      "vfurl" : "",
      "release_time" : "",
      "ph" : 1440,
      "display_ingredient" : 1,
      "clicks" : "10967429",
      "ipoi" : "",
      "dishes" : [

      ],
      "ipia" : [

      ],
      "ss" : [

      ],
      "sr" : "",
      "act_des" : "",
      "recommend_label" : "61人学做",
      "su" : "",
      "cookwares" : [

      ],
      "title_ad" : [

      ],
      "photo_path" : "https:\/\/i1.douguo.com\/upload\/caiku\/a\/b\/9\/600_ab95fc112609426689098fb7d3fd3f69.jpeg",
      "notes" : [

      ],
      "rrps" : [

      ],
      "cook_time" : "10~30分钟",
      "rate_show" : 1,
      "cook_id" : "3059328",
      "cookstep" : [
        {
          "thumb" : "https:\/\/i1.douguo.com\/upload\/caiku\/9\/8\/8\/140_989564093c40001b77bb8d6b719bd3a8.jpeg",
          "image_width" : 1280,
          "frame" : "-1",
          "content" : "准备好食材并分别清洗干净；",
          "image" : "https:\/\/i1.douguo.com\/upload\/caiku\/9\/8\/8\/989564093c40001b77bb8d6b719bd3a8.jpeg",
          "image_height" : 960,
          "position" : 1
        },
        {
          "thumb" : "https:\/\/i1.douguo.com\/upload\/caiku\/f\/6\/e\/140_f6fe2d4e4c3f2cf53ae310215ad0626e.jpeg",
          "image_height" : 829,
          "image_width" : 1280,
          "position" : 2,
          "image" : "https:\/\/i1.douguo.com\/upload\/caiku\/f\/6\/e\/f6fe2d4e4c3f2cf53ae310215ad0626e.jpeg",
          "frame" : "-1",
          "content" : "豆腐先切片再切成丝；"
        },
        {
          "thumb" : "https:\/\/i1.douguo.com\/upload\/caiku\/5\/4\/7\/140_54cc9f3aa7675395e224d07db377a027.jpeg",
          "image" : "https:\/\/i1.douguo.com\/upload\/caiku\/5\/4\/7\/54cc9f3aa7675395e224d07db377a027.jpeg",
          "position" : 3,
          "content" : "黑木耳泡发后淖水捞出，",
          "image_height" : 812,
          "frame" : "-1",
          "image_width" : 1280
        },
        {
          "image_width" : 1280,
          "image" : "https:\/\/i1.douguo.com\/upload\/caiku\/d\/6\/7\/d65d9762f12d8c557482e10fa4d4c1f7.jpeg",
          "frame" : "-1",
          "position" : 4,
          "content" : "切成丝备用；",
          "thumb" : "https:\/\/i1.douguo.com\/upload\/caiku\/d\/6\/7\/140_d65d9762f12d8c557482e10fa4d4c1f7.jpeg",
          "image_height" : 960
        },
        {
          "thumb" : "https:\/\/i1.douguo.com\/upload\/caiku\/8\/1\/0\/140_813d57fb04dba0d45580bb501e042df0.jpeg",
          "image_height" : 797,
          "frame" : "-1",
          "image_width" : 1280,
          "position" : 5,
          "content" : "金针菇焯水捞出备用；",
          "image" : "https:\/\/i1.douguo.com\/upload\/caiku\/8\/1\/0\/813d57fb04dba0d45580bb501e042df0.jpeg"
        },
        {
          "position" : 6,
          "image_height" : 960,
          "image" : "https:\/\/i1.douguo.com\/upload\/caiku\/2\/c\/9\/2cca5fce32fc0e6abeb7540c358cfd49.jpeg",
          "thumb" : "https:\/\/i1.douguo.com\/upload\/caiku\/2\/c\/9\/140_2cca5fce32fc0e6abeb7540c358cfd49.jpeg",
          "content" : "西红柿切丁备用；",
          "image_width" : 1280,
          "frame" : "-1"
        },
        {
          "image_width" : 1280,
          "image" : "https:\/\/i1.douguo.com\/upload\/caiku\/9\/d\/a\/9d4edbbb6c28476953eed115f1075c0a.jpeg",
          "content" : "鸡蛋打散备用；",
          "image_height" : 918,
          "frame" : "-1",
          "thumb" : "https:\/\/i1.douguo.com\/upload\/caiku\/9\/d\/a\/140_9d4edbbb6c28476953eed115f1075c0a.jpeg",
          "position" : 7
        },
        {
          "image_width" : 1280,
          "thumb" : "https:\/\/i1.douguo.com\/upload\/caiku\/b\/4\/a\/140_b4df59734afae0de5569cb03ee70f1ba.jpeg",
          "position" : 8,
          "frame" : "-1",
          "image" : "https:\/\/i1.douguo.com\/upload\/caiku\/b\/4\/a\/b4df59734afae0de5569cb03ee70f1ba.jpeg",
          "content" : "锅中下油烧热，放入蒜末爆香，",
          "image_height" : 600
        },
        {
          "image" : "https:\/\/i1.douguo.com\/upload\/caiku\/4\/7\/b\/47857594e88c89f82e3e3babe6b4988b.jpeg",
          "image_height" : 862,
          "frame" : "-1",
          "position" : 9,
          "image_width" : 1280,
          "thumb" : "https:\/\/i1.douguo.com\/upload\/caiku\/4\/7\/b\/140_47857594e88c89f82e3e3babe6b4988b.jpeg",
          "content" : "下入西红柿炒软，"
        },
        {
          "position" : 10,
          "content" : "下入胡萝卜丝及黑木耳丝翻炒片刻，",
          "image_width" : 1280,
          "image_height" : 913,
          "frame" : "-1",
          "image" : "https:\/\/i1.douguo.com\/upload\/caiku\/7\/6\/9\/769fd6f0f9ec6170c3325ed608414109.jpeg",
          "thumb" : "https:\/\/i1.douguo.com\/upload\/caiku\/7\/6\/9\/140_769fd6f0f9ec6170c3325ed608414109.jpeg"
        },
        {
          "position" : 11,
          "thumb" : "https:\/\/i1.douguo.com\/upload\/caiku\/7\/5\/4\/140_75f97a4e956733b04e22f4c14504d7a4.jpeg",
          "image_width" : 1280,
          "image" : "https:\/\/i1.douguo.com\/upload\/caiku\/7\/5\/4\/75f97a4e956733b04e22f4c14504d7a4.jpeg",
          "content" : "倒入适量鲜汤或清水煮沸，",
          "image_height" : 785,
          "frame" : "-1"
        },
        {
          "thumb" : "https:\/\/i1.douguo.com\/upload\/caiku\/5\/1\/8\/140_5176319a4260a5006639a8fc227d7508.jpeg",
          "content" : "加入肉丝用筷子搅散、待肉丝变色后，马上下入豆腐丝、盐继续煮片刻；",
          "image_width" : 1280,
          "image_height" : 792,
          "position" : 12,
          "image" : "https:\/\/i1.douguo.com\/upload\/caiku\/5\/1\/8\/5176319a4260a5006639a8fc227d7508.jpeg",
          "frame" : "-1"
        },
        {
          "content" : "汤再沸腾时，淋入冰淀粉勾芡，边加边用勺子搅拌，观察一下浓稠度，不够可以再添加些；",
          "position" : 13,
          "thumb" : "https:\/\/i1.douguo.com\/upload\/caiku\/3\/9\/0\/140_39529af47308acfc35dddffd6893bdc0.jpeg",
          "frame" : "-1",
          "image_width" : 1280,
          "image_height" : 850,
          "image" : "https:\/\/i1.douguo.com\/upload\/caiku\/3\/9\/0\/39529af47308acfc35dddffd6893bdc0.jpeg"
        },
        {
          "image_height" : 697,
          "thumb" : "https:\/\/i1.douguo.com\/upload\/caiku\/6\/a\/3\/140_6a94df6d93101464488cb15823272a93.jpeg",
          "image_width" : 1280,
          "frame" : "-1",
          "content" : "接着沿锅边转圈倒入蛋液，不要搅拌，让蛋花浮在表面；",
          "position" : 14,
          "image" : "https:\/\/i1.douguo.com\/upload\/caiku\/6\/a\/3\/6a94df6d93101464488cb15823272a93.jpeg"
        },
        {
          "thumb" : "https:\/\/i1.douguo.com\/upload\/caiku\/f\/e\/7\/140_fe30915b7a0c8a7f83fefe030ea28677.jpeg",
          "content" : "再依次淋入适量鲜辣汁、",
          "frame" : "-1",
          "image_height" : 829,
          "image_width" : 1280,
          "position" : 15,
          "image" : "https:\/\/i1.douguo.com\/upload\/caiku\/f\/e\/7\/fe30915b7a0c8a7f83fefe030ea28677.jpeg"
        },
        {
          "image_width" : 1280,
          "image" : "https:\/\/i1.douguo.com\/upload\/caiku\/7\/2\/c\/72d3860a4e65016997433295cb13746c.jpeg",
          "frame" : "-1",
          "thumb" : "https:\/\/i1.douguo.com\/upload\/caiku\/7\/2\/c\/140_72d3860a4e65016997433295cb13746c.jpeg",
          "image_height" : 809,
          "position" : 16,
          "content" : "米醋、白胡椒粉、香油、生抽、香菜碎即可出锅。"
        },
        {
          "image_width" : 1280,
          "thumb" : "https:\/\/i1.douguo.com\/upload\/caiku\/0\/a\/4\/140_0a03efe19e796d3522077cf45f5e7814.jpeg",
          "content" : "冬天来一碗，",
          "position" : 17,
          "frame" : "-1",
          "image" : "https:\/\/i1.douguo.com\/upload\/caiku\/0\/a\/4\/0a03efe19e796d3522077cf45f5e7814.jpeg",
          "image_height" : 960
        },
        {
          "content" : "暖心又暖胃。",
          "thumb" : "https:\/\/i1.douguo.com\/upload\/caiku\/f\/1\/8\/140_f1817723380fc4a3e2b3e851fcfff5c8.jpeg",
          "image_width" : 1280,
          "image" : "https:\/\/i1.douguo.com\/upload\/caiku\/f\/1\/8\/f1817723380fc4a3e2b3e851fcfff5c8.jpeg",
          "position" : 18,
          "image_height" : 960,
          "frame" : "-1"
        },
        {
          "image_width" : 1280,
          "thumb" : "https:\/\/i1.douguo.com\/upload\/caiku\/3\/2\/9\/140_320ec752f12405df5349e3c5cba191e9.jpeg",
          "image_height" : 960,
          "frame" : "-1",
          "image" : "https:\/\/i1.douguo.com\/upload\/caiku\/3\/2\/9\/320ec752f12405df5349e3c5cba191e9.jpeg",
          "position" : 19,
          "content" : "过年吃腻了大鱼大肉，也可以来一碗，减脂消食，好喝不胖！"
        }
      ],
      "brand_day_dsp" : [

      ],
      "first_level_comment_count" : 212,
      "ipt" : "",
      "rpid" : 0,
      "rsm" : "该功能暂停使用",
      "vc" : "15472090",
      "thumb_height" : 0,
      "rpst" : "",
      "ecs" : 1,
      "packages_id" : [

      ],
      "recommendation_tag" : "",
      "story_dsp" : [

      ],
      "user" : {
        "weibo_nick" : "",
        "user_photo" : "http:\/\/tx1.douguo.net\/upload\/photo\/1\/9\/8\/70_u74420362351028124115.jpeg",
        "followers_count" : 0,
        "gender" : 2,
        "avatar_medium" : "http:\/\/tx1.douguo.net\/upload\/photo\/1\/9\/8\/140_u74420362351028124115.jpeg",
        "subscription_article_count" : 0,
        "favorites_count" : 0,
        "qzone_nick" : "",
        "verified_url" : "https:\/\/m.douguo.com\/user\/prodesc",
        "user_large_photo" : "http:\/\/tx1.douguo.net\/upload\/photo\/1\/9\/8\/yuan_u74420362351028124115.jpeg",
        "nick" : "清欢ssk",
        "fc" : 0,
        "userid" : "18700917",
        "dishes_count" : 0,
        "sign" : "",
        "mobile" : "",
        "age" : "",
        "user_cover" : "",
        "is_prime" : 0,
        "pc" : 0,
        "regist_time" : "",
        "qq_weibo_nick" : "",
        "lv" : 0,
        "recipes_count" : 0,
        "point" : 0,
        "introduction" : "",
        "subscription" : 0,
        "verified" : 1,
        "lvl" : 7,
        "location" : 0,
        "favor_diaries_count" : 0,
        "birthday" : "",
        "progress_image" : "",
        "following_count" : 0,
        "user_id" : "18700917",
        "coursecount" : 0,
        "email" : "",
        "verified_image" : "https:\/\/i1.douguo.com\/upload\/note\/d\/a\/a\/da84247847aebe48d9dd0fcdac88862a.png",
        "setted_email" : 0,
        "diaries_count" : 0
      },
      "rdsps" : [

      ],
      "rewarded_video_dsp" : [

      ],
      "btm_dsp" : [

      ],
      "v_u" : "",
      "author_verified" : 1,
      "rips" : 0,
      "eu" : "recipes:\/\/www.douguo.com\/postdetail?id=242016",
      "old_comments" : [

      ],
      "hqu" : "recipes:\/\/www.douguo.com\/notedetail?id=21162253",
      "author_id" : 18700917,
      "tags" : [

      ],
      "cookstory" : "过年吃多了大鱼大肉，那就来一碗暖心暖胃，减脂消食的酸辣汤吧！此汤制作原料有豆腐、黑木耳、胡萝卜、金针菇、肉丝等，营养丰富，好喝不怕胖！",
      "dish_count_text" : "61",
      "tips" : "1、选用浓浆豆腐质地细嫩、有光泽，适口性好，清洁卫生；\n2、要先勾芡再淋入蛋液，这样蛋花会浮在汤面上；\n3、醋和胡椒粉也不要太早放，要跟勾芡和蛋花同一时间放入。\n4、不喜香菜的可以不放咯！\n",
      "cook_difficulty_image" : "https:\/\/i1.douguo.com\/upload\/banner\/1551424390.png",
      "levelid" : 2,
      "bs" : [

      ],
      "event" : {
        "url" : "https:\/\/m.douguo.com\/activity\/ncpzj\/detail\/2927?isapp=1&open=0&_vs=1000300&&dg_refreshkey=publishnote",
        "name" : "食来运转 八方进福",
        "id" : 2927
      },
      "cookstorys" : [
        {
          "id" : 0,
          "color" : "",
          "type" : 0,
          "u" : "",
          "icon" : "",
          "c" : "过年吃多了大鱼大肉，那就来一碗暖心暖胃，减脂消食的酸辣汤吧！此汤制作原料有豆腐、黑木耳、胡萝卜、金针菇、肉丝等，营养丰富，好喝不怕胖！"
        },
        {
          "type" : 0,
          "color" : "",
          "id" : 0,
          "u" : "",
          "icon" : "",
          "c" : "\n参与活动:"
        },
        {
          "c" : "#食来运转 八方进福#",
          "icon" : "",
          "type" : 0,
          "u" : "https:\/\/m.douguo.com\/activity\/ncpzj\/detail\/2927?isapp=1&open=0&_vs=1000300&&dg_refreshkey=publishnote",
          "id" : 0
        }
      ],
      "top_mdsp" : [

      ],
      "collect_status" : 0,
      "ipit" : 0,
      "rpt" : "",
      "purl" : "",
      "mid_mdsp" : [

      ],
      "advice" : {
        "da" : {
          "url" : "https:\/\/m.douguo.com\/recipe\/nutrient_self\/3059328",
          "iu" : "https:\/\/i1.douguo.com\/upload\/banner\/f\/4\/d\/f48877e53c37759bc12ac494be82ec8d.png",
          "t" : "查看详细分析"
        },
        "has" : [

        ]
      },
      "original_photo_path" : "http:\/\/i1.douguo.net\/upload\/caiku\/a\/b\/9\/yuan_ab95fc112609426689098fb7d3fd3f69.jpeg",
      "author_photo" : "http:\/\/tx1.douguo.net\/upload\/photo\/1\/9\/8\/70_u74420362351028124115.jpeg",
      "ssu" : "",
      "cook_difficulty" : "切墩(初级)",
      "favo_counts" : 165582,
      "create_time" : "2021-02-01 21:26:48",
      "recipe_list_tags" : [
        {
          "text_color" : "#141515",
          "jump_url" : "",
          "text" : "关注的人",
          "background_start_color" : "#F4F5F5",
          "right_image" : "",
          "background_end_color" : "#F4F5F5",
          "background_border_color" : ""
        },
        {
          "text_color" : "#141515",
          "jump_url" : "",
          "text" : "值得pick",
          "background_end_color" : "#F4F5F5",
          "background_border_color" : "",
          "background_start_color" : "#F4F5F5",
          "right_image" : ""
        },
        {
          "background_start_color" : "#F4F5F5",
          "text_color" : "#141515",
          "background_border_color" : "",
          "background_end_color" : "#F4F5F5",
          "right_image" : "",
          "jump_url" : "",
          "text" : "内容详细"
        }
      ],
      "hq" : 1,
      "major" : [
        {
          "title" : "豆腐",
          "note" : "1块",
          "tu" : "https:\/\/m.douguo.com\/ingredients\/豆腐\/detailmaterial"
        },
        {
          "note" : "适量",
          "tu" : "https:\/\/m.douguo.com\/ingredients\/黑木耳\/detailmaterial",
          "title" : "黑木耳"
        },
        {
          "tu" : "https:\/\/m.douguo.com\/ingredients\/鸡蛋\/detailmaterial",
          "title" : "鸡蛋",
          "note" : "2个"
        },
        {
          "title" : "瘦肉丝",
          "note" : "适量"
        },
        {
          "note" : "适量",
          "tu" : "https:\/\/m.douguo.com\/ingredients\/金针菇\/detailmaterial",
          "title" : "金针菇"
        },
        {
          "tu" : "https:\/\/m.douguo.com\/ingredients\/西红柿\/detailmaterial",
          "note" : "1个",
          "title" : "西红柿"
        },
        {
          "tu" : "https:\/\/m.douguo.com\/ingredients\/胡萝卜\/detailmaterial",
          "title" : "胡萝卜",
          "note" : "半根"
        },
        {
          "title" : "香菜",
          "tu" : "https:\/\/m.douguo.com\/ingredients\/香菜\/detailmaterial",
          "note" : "1根"
        },
        {
          "note" : "适量",
          "title" : "白胡椒粉"
        },
        {
          "note" : "1勺",
          "title" : "米醋"
        },
        {
          "title" : "美极鲜辣汁",
          "note" : "适量"
        },
        {
          "note" : "1勺",
          "tu" : "https:\/\/m.douguo.com\/ingredients\/生抽\/detailmaterial",
          "title" : "生抽"
        },
        {
          "note" : "适量",
          "tu" : "https:\/\/m.douguo.com\/ingredients\/盐\/detailmaterial",
          "title" : "盐"
        },
        {
          "note" : "适量",
          "tu" : "https:\/\/m.douguo.com\/ingredients\/香油\/detailmaterial",
          "title" : "香油"
        },
        {
          "note" : "勺",
          "title" : "水淀粉"
        },
        {
          "note" : "适量",
          "title" : "蒜末"
        },
        {
          "note" : "适量",
          "title" : "鲜汤或清水"
        }
      ],
      "image" : "http:\/\/i1.douguo.net\/upload\/caiku\/a\/b\/9\/300_ab95fc112609426689098fb7d3fd3f69.jpeg",
      "comments_count" : 362,
      "views_count_text" : "1547.2万",
      "favo_counts_text" : "16.6万",
      "rrpt" : "",
      "rate" : 5,
      "ipurl" : "",
      "vu" : "",
      "guide_image" : "",
      "pw" : 1920,
      "rcs" : [

      ],
      "recipe_tags" : [

      ],
      "dish_count" : 61,
      "comments_count_text" : "362",
      "title" : "暖心暖胃，减脂消食-家常酸辣汤",
      "sc" : 0,
      "share_info" : {
        "mini_program" : [

        ],
        "object_id" : "3059328",
        "s_u" : "http:\/\/m.douguo.com\/cookbook\/3059328.html",
        "image" : "https:\/\/cp1.douguo.com\/upload\/caiku\/a\/b\/9\/ab95fc112609426689098fb7d3fd3f69.jpeg",
        "name" : "#福气年夜菜#暖心暖胃，减脂消食-家常酸辣汤-会做饭很酷!",
        "s_d" : "#福气年夜菜#暖心暖胃，减脂消食-家常酸辣汤-会做饭很酷!",
        "infos" : [
          {
            "mini_program" : [

            ],
            "image" : "https:\/\/cp1.douguo.com\/upload\/caiku\/a\/b\/9\/ab95fc112609426689098fb7d3fd3f69.jpeg",
            "s_d" : "#学做饭用豆果美食# 我在@豆果美食 分享了【#福气年夜菜#暖心暖胃，减脂消食-家常酸辣汤-会做饭很酷!】，帅哥美眉们～你们喜欢的美食来咯！快来跟我一起做吧～查看图片了解菜谱（想要获取更多美食就看这https:\/\/m.weibo.cn\/p\/100404i33631）#会做饭很酷#",
            "name" : "#福气年夜菜#暖心暖胃，减脂消食-家常酸辣汤-会做饭很酷!",
            "channel" : "1",
            "s_u" : "",
            "qr_image" : "",
            "object_id" : "3059328"
          },
          {
            "object_id" : "3059328",
            "channel" : "7",
            "s_d" : "#福气年夜菜#暖心暖胃，减脂消食-家常酸辣汤-会做饭很酷!",
            "qr_image" : "",
            "image" : "https:\/\/cp1.douguo.com\/upload\/caiku\/a\/b\/9\/ab95fc112609426689098fb7d3fd3f69.jpeg",
            "mini_program" : [

            ],
            "name" : "#福气年夜菜#暖心暖胃，减脂消食-家常酸辣汤-会做饭很酷!",
            "s_u" : "http:\/\/m.douguo.com\/cookbook\/3059328.html"
          },
          {
            "name" : "#福气年夜菜#暖心暖胃，减脂消食-家常酸辣汤-会做饭很酷!",
            "qr_image" : "",
            "mini_program" : [

            ],
            "s_u" : "http:\/\/m.douguo.com\/cookbook\/3059328.html",
            "channel" : "8",
            "s_d" : "#福气年夜菜#暖心暖胃，减脂消食-家常酸辣汤-会做饭很酷!",
            "object_id" : "3059328",
            "image" : "https:\/\/cp1.douguo.com\/upload\/caiku\/a\/b\/9\/ab95fc112609426689098fb7d3fd3f69.jpeg"
          }
        ],
        "qr_image" : ""
      },
      "recommended" : 0,
      "author" : "清欢ssk",
      "ipci" : "",
      "minor" : [

      ],
      "related_ads" : [

      ],
      "recent_comments" : [

      ],
      "rate_count" : 58,
      "cook_time_image" : "https:\/\/i1.douguo.com\/upload\/banner\/1551424341.png",
      "comments" : [
        "{\n    ac = \"#999999\";\n    at = \"\\U5317\\U4eac\\U5e02\";\n    ccc = 11;\n    \"child_comments\" =     (\n                {\n            ac = \"#999999\";\n            at = \"\\U5357\\U660c\\U5e02\";\n            ccc = 0;\n            city = \"\\U5357\\U660c\\U5e02\";\n            cmc = 2;\n            content =             (\n                                {\n                    c = \" \\Ud83d\\Ude0b\";\n                }\n            );\n            ia = 1;\n            id = 8489462;\n            \"ip_address_location\" = \"\";\n            like = 0;\n            \"like_count\" = 0;\n            \"reply_id\" = 8489438;\n            \"reply_user\" =             {\n                \"followers_count_text\" = \"\";\n                id = 8513432;\n                \"is_prime\" = 0;\n                lv = 0;\n                lvl = 2;\n                n = \"\\U9633\\U5149\\U66fc\\U821e\";\n                p = \"http:\/\/tx1.douguo.net\/upload\/photo\/8\/e\/4\/70_u25987823460756180328.jpg\";\n                \"progress_image\" = \"\";\n                \"recipes_count_text\" = \"\";\n                relationship = \"-1\";\n                title = \"\";\n                v = 0;\n                \"verified_image\" = \"\";\n            };\n            \"sticker_icon\" =             (\n            );\n            time = \"2021-02-02 23:46:22\";\n            u =             {\n                \"followers_count_text\" = \"\";\n                id = 18700917;\n                \"is_prime\" = 0;\n                lv = 0;\n                lvl = 7;\n                n = \"\\U6e05\\U6b22ssk\";\n                p = \"http:\/\/tx1.douguo.net\/upload\/photo\/1\/9\/8\/70_u74420362351028124115.jpeg\";\n                \"progress_image\" = \"\";\n                \"recipes_count_text\" = \"\";\n                relationship = \"-1\";\n                title = \"\";\n                v = 1;\n                \"verified_image\" = \"\";\n            };\n        },\n                {\n            ac = \"#999999\";\n            at = \"\\U54c8\\U5c14\\U6ee8\\U5e02\";\n            ccc = 0;\n            city = \"\\U54c8\\U5c14\\U6ee8\\U5e02\";\n            cmc = 2;\n            content =             (\n                                {\n                    c = \" \\U7528\\U5c0f\\U716e\\U6c41\\U8bd5\\U505a\\U4e0b\\Uff0c\\U5473\\U7f8e\\U9999\\U9999\\U6ef4\\Uff01\";\n                }\n            );\n            ia = 0;\n            id = 8490788;\n            \"ip_address_location\" = \"\";\n            like = 0;\n            \"like_count\" = 0;\n            \"reply_id\" = 8489438;\n            \"reply_user\" =             {\n                \"followers_count_text\" = \"\";\n                id = 8513432;\n                \"is_prime\" = 0;\n                lv = 0;\n                lvl = 2;\n                n = \"\\U9633\\U5149\\U66fc\\U821e\";\n                p = \"http:\/\/tx1.douguo.net\/upload\/photo\/8\/e\/4\/70_u25987823460756180328.jpg\";\n                \"progress_image\" = \"\";\n                \"recipes_count_text\" = \"\";\n                relationship = \"-1\";\n                title = \"\";\n                v = 0;\n                \"verified_image\" = \"\";\n            };\n            \"sticker_icon\" =             (\n            );\n            time = \"2021-02-03 21:23:00\";\n            u =             {\n                \"followers_count_text\" = \"\";\n                id = 17387456;\n                \"is_prime\" = 0;\n                lv = 0;\n                lvl = 2;\n                n = \"\\U6674100\";\n                p = \"http:\/\/tx1.douguo.net\/upload\/photo\/0\/5\/b\/70_05de852d9d27d764db2ebffded22f23b.jpg\";\n                \"progress_image\" = \"\";\n                \"recipes_count_text\" = \"\";\n                relationship = \"-1\";\n                title = \"\";\n                v = 0;\n                \"verified_image\" = \"\";\n            };\n        }\n    );\n    city = \"\\U5317\\U4eac\\U5e02\";\n    cmc = 2;\n    content =     (\n                {\n            c = \"\\U8fd8\\U6709\\U9c9c\\U8fa3\\U6c41\\U8fd9\\U79cd\\U4e1c\\U897f\\Uff0c\\U6da8\\U829d\\U58eb\\U4e86\\Ud83d\\Udc4d\";\n        }\n    );\n    ia = 0;\n    id = 8489438;\n    \"ip_address_location\" = \"\";\n    like = 0;\n    \"like_count\" = 27;\n    \"reply_id\" = 0;\n    \"sticker_icon\" =     (\n    );\n    time = \"2021-02-02 23:12:02\";\n    u =     {\n        \"followers_count_text\" = \"\";\n        id = 8513432;\n        \"is_prime\" = 0;\n        lv = 0;\n        lvl = 2;\n        n = \"\\U9633\\U5149\\U66fc\\U821e\";\n        p = \"http:\/\/tx1.douguo.net\/upload\/photo\/8\/e\/4\/70_u25987823460756180328.jpg\";\n        \"progress_image\" = \"\";\n        \"recipes_count_text\" = \"\";\n        relationship = \"-1\";\n        title = \"\";\n        v = 0;\n        \"verified_image\" = \"\";\n    };\n}",
        "{\n    ac = \"#999999\";\n    at = \"\\U76d0\\U57ce\\U5e02\";\n    ccc = 9;\n    \"child_comments\" =     (\n                {\n            ac = \"#999999\";\n            at = \"\\U5357\\U660c\\U5e02\";\n            ccc = 0;\n            city = \"\\U5357\\U660c\\U5e02\";\n            cmc = 2;\n            content =             (\n                                {\n                    c = \" \\U9999\\U918b\\U4e5f\\U53ef\\U4ee5\\U5462\\Ud83d\\Ude0b\";\n                }\n            );\n            ia = 1;\n            id = 8491285;\n            \"ip_address_location\" = \"\";\n            like = 0;\n            \"like_count\" = 0;\n            \"reply_id\" = 8491044;\n            \"reply_user\" =             {\n                \"followers_count_text\" = \"\";\n                id = 26322016;\n                \"is_prime\" = 0;\n                lv = 0;\n                lvl = 2;\n                n = \"\\U7231\\U559d\\U67e0\\U6aac\\U6c34\\U7684\\U80a5\\U5b85\";\n                p = \"http:\/\/tx1.douguo.net\/upload\/photo\/4\/c\/a\/70_u1113206426332164139.jpg\";\n                \"progress_image\" = \"\";\n                \"recipes_count_text\" = \"\";\n                relationship = \"-1\";\n                title = \"\";\n                v = 0;\n                \"verified_image\" = \"\";\n            };\n            \"sticker_icon\" =             (\n            );\n            time = \"2021-02-04 09:32:51\";\n            u =             {\n                \"followers_count_text\" = \"\";\n                id = 18700917;\n                \"is_prime\" = 0;\n                lv = 0;\n                lvl = 7;\n                n = \"\\U6e05\\U6b22ssk\";\n                p = \"http:\/\/tx1.douguo.net\/upload\/photo\/1\/9\/8\/70_u74420362351028124115.jpeg\";\n                \"progress_image\" = \"\";\n                \"recipes_count_text\" = \"\";\n                relationship = \"-1\";\n                title = \"\";\n                v = 1;\n                \"verified_image\" = \"\";\n            };\n        },\n                {\n            ac = \"#999999\";\n            at = \"\\U5357\\U660c\\U5e02\";\n            ccc = 0;\n            city = \"\\U5357\\U660c\\U5e02\";\n            cmc = 2;\n            content =             (\n                                {\n                    c = \" \\U7c73\\U918b\\U5c31\\U662f\\U4ee5\\U8c37\\U5b50\\U3001\\U9ad8\\U7cb1\\U3001\\U7cef\\U7c73\\U3001\\U5927\\U9ea6\\U3001\\U7389\\U7c73\\U3001\\U7ea2\\U85af\\U3001\\U9152\\U7cdf\\U3001\\U7ea2\\U67a3\\U3001\\U82f9\\U679c\\U3001\\U8461\\U8404\\U3001\\U67ff\\U5b50\\U7b49\\U7cae\\U98df\\U548c\\U679c\\U54c1\\U4e3a\\U539f\\U6599\\Uff0c\\U7ecf\\U8fc7\\U53d1\\U9175\\U917f\\U9020\\U800c\\U6210\\U7684\\U3002\";\n                }\n            );\n            ia = 1;\n            id = 8491289;\n            \"ip_address_location\" = \"\";\n            like = 0;\n            \"like_count\" = 0;\n            \"reply_id\" = 8491044;\n            \"reply_user\" =             {\n                \"followers_count_text\" = \"\";\n                id = 26322016;\n                \"is_prime\" = 0;\n                lv = 0;\n                lvl = 2;\n                n = \"\\U7231\\U559d\\U67e0\\U6aac\\U6c34\\U7684\\U80a5\\U5b85\";\n                p = \"http:\/\/tx1.douguo.net\/upload\/photo\/4\/c\/a\/70_u1113206426332164139.jpg\";\n                \"progress_image\" = \"\";\n                \"recipes_count_text\" = \"\";\n                relationship = \"-1\";\n                title = \"\";\n                v = 0;\n                \"verified_image\" = \"\";\n            };\n            \"sticker_icon\" =             (\n            );\n            time = \"2021-02-04 09:35:54\";\n            u =             {\n                \"followers_count_text\" = \"\";\n                id = 18700917;\n                \"is_prime\" = 0;\n                lv = 0;\n                lvl = 7;\n                n = \"\\U6e05\\U6b22ssk\";\n                p = \"http:\/\/tx1.douguo.net\/upload\/photo\/1\/9\/8\/70_u74420362351028124115.jpeg\";\n                \"progress_image\" = \"\";\n                \"recipes_count_text\" = \"\";\n                relationship = \"-1\";\n                title = \"\";\n                v = 1;\n                \"verified_image\" = \"\";\n            };\n        }\n    );\n    city = \"\\U76d0\\U57ce\\U5e02\";\n    cmc = 2;\n    content =     (\n                {\n            c = \"\\U7c73\\U918b\\U662f\\U4ec0\\U4e48\\Uff0c\\U6211\\U4eec\\U8fd9\\U57fa\\U672c\\U4e0a\\U7528\\U7684\\U662f\\U9547\\U6c5f\\U9999\\U918b\\Ud83d\\Ude2b\";\n        }\n    );\n    ia = 0;\n    id = 8491044;\n    \"ip_address_location\" = \"\";\n    like = 0;\n    \"like_count\" = 7;\n    \"reply_id\" = 0;\n    \"sticker_icon\" =     (\n    );\n    time = \"2021-02-04 00:34:04\";\n    u =     {\n        \"followers_count_text\" = \"\";\n        id = 26322016;\n        \"is_prime\" = 0;\n        lv = 0;\n        lvl = 2;\n        n = \"\\U7231\\U559d\\U67e0\\U6aac\\U6c34\\U7684\\U80a5\\U5b85\";\n        p = \"http:\/\/tx1.douguo.net\/upload\/photo\/4\/c\/a\/70_u1113206426332164139.jpg\";\n        \"progress_image\" = \"\";\n        \"recipes_count_text\" = \"\";\n        relationship = \"-1\";\n        title = \"\";\n        v = 0;\n        \"verified_image\" = \"\";\n    };\n}",
        "{\n    ac = \"#999999\";\n    at = \"\";\n    ccc = 5;\n    \"child_comments\" =     (\n                {\n            ac = \"#999999\";\n            at = \"\\U5357\\U660c\\U5e02\";\n            ccc = 0;\n            city = \"\\U5357\\U660c\\U5e02\";\n            cmc = 2;\n            content =             (\n                                {\n                    c = \" \\Ud83d\\Ude0d\";\n                }\n            );\n            ia = 1;\n            id = 8599524;\n            \"ip_address_location\" = \"\";\n            like = 0;\n            \"like_count\" = 0;\n            \"reply_id\" = 8599263;\n            \"reply_user\" =             {\n                \"followers_count_text\" = \"\";\n                id = 26449700;\n                \"is_prime\" = 0;\n                lv = 0;\n                lvl = 6;\n                n = \"\\U82b1\\U82b1\/\\U516b\\U65a4\\U5988\\U54aa\";\n                p = \"http:\/\/tx1.douguo.net\/upload\/photo\/0\/6\/6\/70_060c769653d76c8191a3f61e5a8fad06.jpg\";\n                \"progress_image\" = \"\";\n                \"recipes_count_text\" = \"\";\n                relationship = \"-1\";\n                title = \"\";\n                v = 0;\n                \"verified_image\" = \"\";\n            };\n            \"sticker_icon\" =             (\n            );\n            time = \"2021-04-03 09:27:11\";\n            u =             {\n                \"followers_count_text\" = \"\";\n                id = 18700917;\n                \"is_prime\" = 0;\n                lv = 0;\n                lvl = 7;\n                n = \"\\U6e05\\U6b22ssk\";\n                p = \"http:\/\/tx1.douguo.net\/upload\/photo\/1\/9\/8\/70_u74420362351028124115.jpeg\";\n                \"progress_image\" = \"\";\n                \"recipes_count_text\" = \"\";\n                relationship = \"-1\";\n                title = \"\";\n                v = 1;\n                \"verified_image\" = \"\";\n            };\n        },\n                {\n            ac = \"#999999\";\n            at = \"\";\n            ccc = 0;\n            city = \"\";\n            cmc = 2;\n            content =             (\n                                {\n                    c = \" \\U8c22\\U8c22\";\n                }\n            );\n            ia = 0;\n            id = 8599992;\n            \"ip_address_location\" = \"\";\n            like = 0;\n            \"like_count\" = 0;\n            \"reply_id\" = 8599524;\n            \"reply_user\" =             {\n                \"followers_count_text\" = \"\";\n                id = 18700917;\n                \"is_prime\" = 0;\n                lv = 0;\n                lvl = 7;\n                n = \"\\U6e05\\U6b22ssk\";\n                p = \"http:\/\/tx1.douguo.net\/upload\/photo\/1\/9\/8\/70_u74420362351028124115.jpeg\";\n                \"progress_image\" = \"\";\n                \"recipes_count_text\" = \"\";\n                relationship = \"-1\";\n                title = \"\";\n                v = 1;\n                \"verified_image\" = \"\";\n            };\n            \"sticker_icon\" =             (\n            );\n            time = \"2021-04-03 12:43:24\";\n            u =             {\n                \"followers_count_text\" = \"\";\n                id = 26449700;\n                \"is_prime\" = 0;\n                lv = 0;\n                lvl = 6;\n                n = \"\\U82b1\\U82b1\/\\U516b\\U65a4\\U5988\\U54aa\";\n                p = \"http:\/\/tx1.douguo.net\/upload\/photo\/0\/6\/6\/70_060c769653d76c8191a3f61e5a8fad06.jpg\";\n                \"progress_image\" = \"\";\n                \"recipes_count_text\" = \"\";\n                relationship = \"-1\";\n                title = \"\";\n                v = 0;\n                \"verified_image\" = \"\";\n            };\n        }\n    );\n    city = \"\";\n    cmc = 2;\n    content =     (\n                {\n            c = \"\\U5389\\U5bb3\\Ud83d\\Udc4d\";\n        }\n    );\n    ia = 0;\n    id = 8599263;\n    \"ip_address_location\" = \"\";\n    like = 0;\n    \"like_count\" = 2;\n    \"reply_id\" = 0;\n    \"sticker_icon\" =     (\n    );\n    time = \"2021-04-03 07:51:17\";\n    u =     {\n        \"followers_count_text\" = \"\";\n        id = 26449700;\n        \"is_prime\" = 0;\n        lv = 0;\n        lvl = 6;\n        n = \"\\U82b1\\U82b1\/\\U516b\\U65a4\\U5988\\U54aa\";\n        p = \"http:\/\/tx1.douguo.net\/upload\/photo\/0\/6\/6\/70_060c769653d76c8191a3f61e5a8fad06.jpg\";\n        \"progress_image\" = \"\";\n        \"recipes_count_text\" = \"\";\n        relationship = \"-1\";\n        title = \"\";\n        v = 0;\n        \"verified_image\" = \"\";\n    };\n}"
      ],
      "thumb_path" : "https:\/\/i1.douguo.com\/upload\/caiku\/a\/b\/9\/300_ab95fc112609426689098fb7d3fd3f69.jpeg"
    }
  },
  "state" : "success",
  "status" : 0
}