{
  "status" : 0,
  "state" : "success",
  "result" : {
    "recipe" : {
      "ecs" : 0,
      "rrpt" : "",
      "share_info" : {
        "object_id" : "1726158",
        "image" : "https:\/\/cp1.douguo.com\/upload\/caiku\/5\/7\/b\/57fc2b87bbc0b355de1d00e30fdf558b.jpg",
        "qr_image" : "",
        "mini_program" : [

        ],
        "s_u" : "http:\/\/m.douguo.com\/cookbook\/1726158.html",
        "infos" : [
          {
            "channel" : "1",
            "s_u" : "",
            "qr_image" : "",
            "s_d" : "#学做饭用豆果美食# 我在@豆果美食 分享了【红曲蔓越莓马芬蛋糕-会做饭很酷!】，色香味俱全说的就是这道菜！查看图片了解菜谱（快来点击https:\/\/m.weibo.cn\/p\/100404i33631和我一起修炼厨艺吧）#会做饭很酷# ",
            "image" : "https:\/\/cp1.douguo.com\/upload\/caiku\/5\/7\/b\/57fc2b87bbc0b355de1d00e30fdf558b.jpg",
            "mini_program" : [

            ],
            "object_id" : "1726158",
            "name" : "红曲蔓越莓马芬蛋糕-会做饭很酷!"
          },
          {
            "object_id" : "1726158",
            "mini_program" : [

            ],
            "name" : "红曲蔓越莓马芬蛋糕-会做饭很酷!",
            "qr_image" : "",
            "s_u" : "http:\/\/m.douguo.com\/cookbook\/1726158.html",
            "image" : "https:\/\/cp1.douguo.com\/upload\/caiku\/5\/7\/b\/57fc2b87bbc0b355de1d00e30fdf558b.jpg",
            "s_d" : "红曲蔓越莓马芬蛋糕-会做饭很酷!",
            "channel" : "7"
          },
          {
            "s_d" : "红曲蔓越莓马芬蛋糕-会做饭很酷!",
            "image" : "https:\/\/cp1.douguo.com\/upload\/caiku\/5\/7\/b\/57fc2b87bbc0b355de1d00e30fdf558b.jpg",
            "channel" : "8",
            "object_id" : "1726158",
            "name" : "红曲蔓越莓马芬蛋糕-会做饭很酷!",
            "s_u" : "http:\/\/m.douguo.com\/cookbook\/1726158.html",
            "qr_image" : "",
            "mini_program" : [

            ]
          }
        ],
        "name" : "红曲蔓越莓马芬蛋糕-会做饭很酷!",
        "s_d" : "红曲蔓越莓马芬蛋糕-会做饭很酷!"
      },
      "ss" : [

      ],
      "levelid" : 2,
      "old_comments" : [

      ],
      "mid_mdsp" : [

      ],
      "tips" : "1.黄油如果不打发就融化成液体\n2.根据常用烤箱灵活调整温度和时间",
      "release_time" : "",
      "vu" : "",
      "advice" : {
        "has" : [

        ],
        "da" : {
          "iu" : "https:\/\/i1.douguo.com\/upload\/banner\/f\/4\/d\/f48877e53c37759bc12ac494be82ec8d.png",
          "t" : "查看详细分析",
          "url" : "https:\/\/m.douguo.com\/recipe\/nutrient_self\/1726158"
        }
      },
      "story_dsp" : [

      ],
      "cook_time_image" : "https:\/\/i1.douguo.com\/upload\/banner\/1551424341.png",
      "dish_count" : 0,
      "photo_path" : "https:\/\/i1.douguo.com\/upload\/caiku\/5\/7\/b\/600_57fc2b87bbc0b355de1d00e30fdf558b.jpg",
      "author_verified" : 1,
      "title_ad" : [

      ],
      "ph" : 2000,
      "rips" : 0,
      "minor" : [
        "{\n    note = \"40\\U514b\";\n    title = \"\\U8513\\U8d8a\\U8393\";\n    tu = \"https:\/\/https:\/\/m.douguo.com\/ingredients\/\\U8513\\U8d8a\\U8393\/detailmaterial\";\n}"
      ],
      "vc" : "343993",
      "rewarded_video_dsp" : [

      ],
      "pw" : 2664,
      "clicks" : "337424",
      "ipurl" : "",
      "dish_count_text" : "",
      "author" : "龙宝美食小厨房",
      "cookstorys" : [
        {
          "u" : "",
          "icon" : "",
          "c" : "还有不到十天就是元旦了，做一款红彤彤的小蛋糕，明年红红火火",
          "color" : "",
          "id" : 0,
          "type" : 0
        }
      ],
      "ipia" : [

      ],
      "recommended" : 0,
      "cookstory" : "还有不到十天就是元旦了，做一款红彤彤的小蛋糕，明年红红火火",
      "thumb_height" : 0,
      "top_mdsp" : [

      ],
      "comments_count" : 1,
      "recipe_list_tags" : [
        {
          "background_start_color" : "#F4F5F5",
          "text_color" : "#141515",
          "text" : "关注的人",
          "background_border_color" : "",
          "background_end_color" : "#F4F5F5",
          "jump_url" : "",
          "right_image" : ""
        },
        {
          "text" : "内容详细",
          "background_border_color" : "",
          "background_start_color" : "#F4F5F5",
          "text_color" : "#141515",
          "right_image" : "",
          "background_end_color" : "#F4F5F5",
          "jump_url" : ""
        }
      ],
      "cook_id" : "1726158",
      "recent_comments" : [

      ],
      "purl" : "",
      "thumb_path" : "https:\/\/i1.douguo.com\/upload\/caiku\/5\/7\/b\/300_57fc2b87bbc0b355de1d00e30fdf558b.jpg",
      "rcs" : [

      ],
      "ssu" : "",
      "recipe_tags" : [

      ],
      "related_ads" : [

      ],
      "cookwares" : [

      ],
      "hqu" : "recipes:\/\/www.douguo.com\/notedetail?id=21162253",
      "cookstep" : [
        {
          "image_width" : 2667,
          "thumb" : "https:\/\/i1.douguo.com\/upload\/caiku\/d\/f\/2\/140_df70c8c4a4987c70397431a5158b1e82.jpg",
          "image_height" : 2000,
          "image" : "https:\/\/i1.douguo.com\/upload\/caiku\/d\/f\/2\/df70c8c4a4987c70397431a5158b1e82.jpg",
          "frame" : "-1",
          "content" : "准备好材料和份量",
          "position" : 1
        },
        {
          "image" : "https:\/\/i1.douguo.com\/upload\/caiku\/3\/b\/a\/3bc0615611f3adb5212790d985e192aa.jpg",
          "content" : "鸡蛋去壳打散，蔓越莓切成小颗粒",
          "image_height" : 2000,
          "image_width" : 2667,
          "position" : 2,
          "frame" : "-1",
          "thumb" : "https:\/\/i1.douguo.com\/upload\/caiku\/3\/b\/a\/140_3bc0615611f3adb5212790d985e192aa.jpg"
        },
        {
          "position" : 3,
          "image" : "https:\/\/i1.douguo.com\/upload\/caiku\/f\/5\/b\/f5918659c0656b6107f9d1e109622a5b.jpg",
          "content" : "低筋面粉、红曲粉、泡打粉、盐混合过筛2次",
          "frame" : "-1",
          "image_width" : 2667,
          "image_height" : 2000,
          "thumb" : "https:\/\/i1.douguo.com\/upload\/caiku\/f\/5\/b\/140_f5918659c0656b6107f9d1e109622a5b.jpg"
        },
        {
          "thumb" : "https:\/\/i1.douguo.com\/upload\/caiku\/4\/0\/b\/140_407974959bd3d6afb77954cc05c81e4b.jpg",
          "image_height" : 2000,
          "image_width" : 2667,
          "position" : 4,
          "frame" : "-1",
          "content" : "黄油切小块软化好，分2次加入白砂糖打发",
          "image" : "https:\/\/i1.douguo.com\/upload\/caiku\/4\/0\/b\/407974959bd3d6afb77954cc05c81e4b.jpg"
        },
        {
          "image" : "https:\/\/i1.douguo.com\/upload\/caiku\/2\/9\/5\/2990f27967cce6a036d39bc6a4aaa1d5.jpg",
          "image_width" : 2667,
          "thumb" : "https:\/\/i1.douguo.com\/upload\/caiku\/2\/9\/5\/140_2990f27967cce6a036d39bc6a4aaa1d5.jpg",
          "position" : 5,
          "image_height" : 2000,
          "content" : "黄油糊里分4-5次加入蛋液打发",
          "frame" : "-1"
        },
        {
          "image" : "https:\/\/i1.douguo.com\/upload\/caiku\/5\/a\/0\/5ab35559d952a6fef6d671b5aa923370.jpg",
          "image_height" : 2000,
          "image_width" : 2667,
          "content" : "加入一半低筋面粉，翻拌到没有干粉状态",
          "thumb" : "https:\/\/i1.douguo.com\/upload\/caiku\/5\/a\/0\/140_5ab35559d952a6fef6d671b5aa923370.jpg",
          "position" : 6,
          "frame" : "-1"
        },
        {
          "thumb" : "https:\/\/i1.douguo.com\/upload\/caiku\/0\/b\/6\/140_0b402b96d7eec95a140404b2d0c2ed46.jpg",
          "image_height" : 2000,
          "image" : "https:\/\/i1.douguo.com\/upload\/caiku\/0\/b\/6\/0b402b96d7eec95a140404b2d0c2ed46.jpg",
          "position" : 7,
          "image_width" : 2667,
          "content" : "加入一半的牛奶搅拌均匀，重复一次步骤6-7，低筋面粉和牛奶都是分2次加入",
          "frame" : "-1"
        },
        {
          "content" : "加入蔓越莓混合均匀",
          "position" : 8,
          "image" : "https:\/\/i1.douguo.com\/upload\/caiku\/0\/d\/8\/0debabdecf01993cedee8ded3ff3d6b8.jpg",
          "image_height" : 2000,
          "image_width" : 2667,
          "frame" : "-1",
          "thumb" : "https:\/\/i1.douguo.com\/upload\/caiku\/0\/d\/8\/140_0debabdecf01993cedee8ded3ff3d6b8.jpg"
        },
        {
          "frame" : "-1",
          "image_width" : 2667,
          "thumb" : "https:\/\/i1.douguo.com\/upload\/caiku\/4\/8\/6\/140_48908df15edcd2c35af6779073511216.jpg",
          "position" : 9,
          "image" : "https:\/\/i1.douguo.com\/upload\/caiku\/4\/8\/6\/48908df15edcd2c35af6779073511216.jpg",
          "image_height" : 2000,
          "content" : "蛋糕糊挤到模具里，大概挤到7分满"
        },
        {
          "image_height" : 2000,
          "content" : "蛋糕放入预热好的烤箱下层，温度上火170度下火175度烤25分钟",
          "thumb" : "https:\/\/i1.douguo.com\/upload\/caiku\/a\/3\/d\/140_a3a5b668e691b3277a46cf028c009bcd.jpg",
          "image_width" : 2667,
          "frame" : "-1",
          "position" : 10,
          "image" : "https:\/\/i1.douguo.com\/upload\/caiku\/a\/3\/d\/a3a5b668e691b3277a46cf028c009bcd.jpg"
        },
        {
          "image_height" : 2000,
          "image_width" : 2664,
          "thumb" : "https:\/\/i1.douguo.com\/upload\/caiku\/c\/6\/2\/140_c6e19aac2bfc89a46e8d38438f84d302.jpg",
          "frame" : "-1",
          "content" : "烤熟后脱模放凉",
          "position" : 11,
          "image" : "https:\/\/i1.douguo.com\/upload\/caiku\/c\/6\/2\/c6e19aac2bfc89a46e8d38438f84d302.jpg"
        },
        {
          "thumb" : "https:\/\/i1.douguo.com\/upload\/caiku\/c\/0\/5\/140_c06afba99117ba392cd94e4539359ca5.jpg",
          "image" : "https:\/\/i1.douguo.com\/upload\/caiku\/c\/0\/5\/c06afba99117ba392cd94e4539359ca5.jpg",
          "image_width" : 2664,
          "frame" : "-1",
          "image_height" : 2000,
          "position" : 12,
          "content" : "红彤彤的，看起来就喜气洋洋"
        }
      ],
      "cook_time" : "10-30分钟",
      "rate_show" : 0,
      "bs" : [

      ],
      "v_u" : "",
      "display_ingredient" : 1,
      "rsm" : "该功能暂停使用",
      "author_photo" : "http:\/\/tx1.douguo.net\/upload\/photo\/2\/d\/d\/70_u32904408408259231921.jpg",
      "vfurl" : "",
      "rate" : 0,
      "eu" : "recipes:\/\/www.douguo.com\/postdetail?id=242016",
      "major" : [
        {
          "note" : "210克",
          "tu" : "https:\/\/m.douguo.com\/ingredients\/低筋面粉\/detailmaterial",
          "title" : "低筋面粉"
        },
        {
          "title" : "红曲粉",
          "note" : "10克"
        },
        {
          "title" : "鸡蛋",
          "note" : "2个",
          "tu" : "https:\/\/m.douguo.com\/ingredients\/鸡蛋\/detailmaterial"
        },
        {
          "note" : "100克",
          "tu" : "https:\/\/m.douguo.com\/ingredients\/牛奶\/detailmaterial",
          "title" : "牛奶"
        },
        {
          "note" : "80克",
          "tu" : "https:\/\/m.douguo.com\/ingredients\/黄油\/detailmaterial",
          "title" : "黄油"
        },
        {
          "note" : "70克",
          "tu" : "https:\/\/m.douguo.com\/ingredients\/细砂糖\/detailmaterial",
          "title" : "细砂糖"
        },
        {
          "note" : "8克",
          "tu" : "https:\/\/m.douguo.com\/ingredients\/泡打粉\/detailmaterial",
          "title" : "泡打粉"
        },
        {
          "note" : "2克",
          "title" : "盐",
          "tu" : "https:\/\/m.douguo.com\/ingredients\/盐\/detailmaterial"
        }
      ],
      "packages_id" : [

      ],
      "dishes" : [

      ],
      "ipt" : "",
      "hq" : 1,
      "collect_status" : 0,
      "comments_count_text" : "1",
      "cook_difficulty" : "切墩(初级)",
      "ipit" : 0,
      "su" : "",
      "rate_count" : 0,
      "user" : {
        "qq_weibo_nick" : "",
        "is_prime" : 0,
        "user_photo" : "http:\/\/tx1.douguo.net\/upload\/photo\/2\/d\/d\/70_u32904408408259231921.jpg",
        "location" : 0,
        "age" : "",
        "verified_image" : "https:\/\/i1.douguo.com\/upload\/note\/d\/a\/a\/da84247847aebe48d9dd0fcdac88862a.png",
        "point" : 0,
        "lvl" : 6,
        "recipes_count" : 0,
        "pc" : 0,
        "regist_time" : "",
        "introduction" : "",
        "coursecount" : 0,
        "sign" : "",
        "subscription_article_count" : 0,
        "email" : "",
        "gender" : 2,
        "birthday" : "",
        "verified_url" : "https:\/\/m.douguo.com\/user\/prodesc",
        "mobile" : "",
        "following_count" : 0,
        "setted_email" : 0,
        "qzone_nick" : "",
        "dishes_count" : 0,
        "weibo_nick" : "",
        "diaries_count" : 0,
        "followers_count" : 0,
        "verified" : 1,
        "fc" : 0,
        "userid" : "9627385",
        "progress_image" : "",
        "subscription" : 0,
        "user_id" : "9627385",
        "avatar_medium" : "http:\/\/tx1.douguo.net\/upload\/photo\/2\/d\/d\/140_u32904408408259231921.jpg",
        "favorites_count" : 0,
        "nick" : "龙宝美食小厨房",
        "favor_diaries_count" : 0,
        "user_cover" : "",
        "user_large_photo" : "http:\/\/tx1.douguo.net\/upload\/photo\/2\/d\/d\/yuan_u32904408408259231921.jpg",
        "lv" : 0
      },
      "rdsps" : [

      ],
      "sr" : "",
      "image" : "http:\/\/i1.douguo.net\/upload\/caiku\/5\/7\/b\/300_57fc2b87bbc0b355de1d00e30fdf558b.jpg",
      "act_des" : "",
      "notes" : [

      ],
      "guide_image" : "",
      "rpt" : "",
      "ipoi" : "",
      "recommend_label" : "6181人刚刚收藏过",
      "comments" : [
        "{\n    ac = \"#999999\";\n    at = \"\";\n    ccc = 0;\n    \"child_comments\" =     (\n    );\n    city = \"\";\n    cmc = 2;\n    content =     (\n                {\n            c = \"\\U5f53\\U6ce1\\U6253\\U7c89\\U5c31\\U80fd\\U81ea\\U5df1\\U53d1\\U8d77\\U6765\\U4e86\\U5417\";\n        }\n    );\n    ia = 0;\n    id = 6297734;\n    \"ip_address_location\" = \"\";\n    like = 0;\n    \"like_count\" = 0;\n    \"reply_id\" = 0;\n    \"sticker_icon\" =     (\n    );\n    time = \"2018-12-22 10:08:32\";\n    u =     {\n        \"followers_count_text\" = \"\";\n        id = 18580629;\n        \"is_prime\" = 0;\n        lv = 0;\n        lvl = 4;\n        n = \"\\U6da7\\U6c34\\U76c8\\U76c8\";\n        p = \"http:\/\/tx1.douguo.net\/upload\/photo\/e\/4\/d\/70_u01524781523027193906.jpg\";\n        \"progress_image\" = \"\";\n        \"recipes_count_text\" = \"\";\n        relationship = \"-1\";\n        title = \"\";\n        v = 0;\n        \"verified_image\" = \"\";\n    };\n}"
      ],
      "first_level_comment_count" : 1,
      "rrps" : [

      ],
      "author_id" : 9627385,
      "btm_dsp" : [

      ],
      "title" : "红曲蔓越莓马芬蛋糕",
      "rpst" : "",
      "rpid" : 0,
      "create_time" : "2018-12-20 12:07:58",
      "original_photo_path" : "http:\/\/i1.douguo.net\/upload\/caiku\/5\/7\/b\/yuan_57fc2b87bbc0b355de1d00e30fdf558b.jpg",
      "favo_counts" : 6181,
      "sc" : 0,
      "recommendation_tag" : "",
      "brand_day_dsp" : [

      ],
      "cook_difficulty_image" : "https:\/\/i1.douguo.com\/upload\/banner\/1551424390.png",
      "ipci" : "",
      "views_count_text" : "34.4万",
      "favo_counts_text" : "6181",
      "tags" : [

      ]
    }
  }
}