{
  "result" : {
    "recipe" : {
      "major" : [
        {
          "title" : "兔子肉",
          "note" : "2斤"
        },
        {
          "note" : "一袋",
          "title" : "臻鲜麻辣水煮鱼调料"
        },
        {
          "note" : "300克",
          "title" : "鲜姜"
        },
        {
          "title" : "大蒜",
          "note" : "2个",
          "tu" : "https:\/\/m.douguo.com\/ingredients\/大蒜\/detailmaterial"
        },
        {
          "title" : "大葱",
          "tu" : "https:\/\/m.douguo.com\/ingredients\/大葱\/detailmaterial",
          "note" : "一根"
        },
        {
          "title" : "干辣椒段",
          "note" : "适量"
        },
        {
          "note" : "一根",
          "title" : "莴笋",
          "tu" : "https:\/\/m.douguo.com\/ingredients\/莴笋\/detailmaterial"
        },
        {
          "title" : "干花椒粒",
          "note" : "适量"
        },
        {
          "note" : "两勺",
          "title" : "料酒",
          "tu" : "https:\/\/m.douguo.com\/ingredients\/料酒\/detailmaterial"
        },
        {
          "title" : "淀粉",
          "note" : "适量"
        },
        {
          "note" : "适量",
          "title" : "胡椒"
        }
      ],
      "ipia" : [

      ],
      "favo_counts_text" : "431",
      "recent_comments" : [

      ],
      "dish_count_text" : "",
      "top_mdsp" : [

      ],
      "cookstorys" : [
        {
          "id" : 0,
          "color" : "",
          "u" : "",
          "type" : 0,
          "c" : "都说没有一只兔兔可以活着走出四川 如果来不了四川 那就在家复刻一下这道经典川菜吧",
          "icon" : ""
        }
      ],
      "rips" : 0,
      "su" : "",
      "comments" : [

      ],
      "author" : "臻鲜",
      "guide_image" : "",
      "recommend_label" : "1.3万人看过",
      "create_time" : "2023-08-08 09:38:26",
      "original_photo_path" : "http:\/\/i1.douguo.net\/upload\/caiku\/b\/e\/4\/yuan_1691458070694.jpg",
      "hqu" : "recipes:\/\/www.douguo.com\/notedetail?id=21162253",
      "ipurl" : "",
      "old_comments" : [

      ],
      "btm_dsp" : [

      ],
      "hq" : 1,
      "author_verified" : 0,
      "rcs" : [

      ],
      "image" : "http:\/\/i1.douguo.net\/upload\/caiku\/b\/e\/4\/300_1691458070694.jpg",
      "ipt" : "",
      "purl" : "",
      "related_ads" : [

      ],
      "ssu" : "",
      "title" : "香辣水煮兔",
      "display_ingredient" : 1,
      "levelid" : 2,
      "rpst" : "",
      "cook_time" : "10~30分钟",
      "vu" : "https:\/\/vplay.douguo.com\/liqbn6N2TCWKvV5rB7juMe61hn-D",
      "rate_count" : 0,
      "user" : {
        "introduction" : "",
        "pc" : 0,
        "birthday" : "",
        "recipes_count" : 0,
        "favorites_count" : 0,
        "mobile" : "",
        "dishes_count" : 0,
        "user_cover" : "",
        "favor_diaries_count" : 0,
        "subscription" : 0,
        "sign" : "",
        "gender" : 2,
        "diaries_count" : 0,
        "following_count" : 0,
        "user_photo" : "http:\/\/tx1.douguo.net\/upload\/photo\/1\/7\/d\/70_u66024105400345092009.jpg",
        "followers_count" : 0,
        "nick" : "臻鲜",
        "verified" : 0,
        "location" : 0,
        "qq_weibo_nick" : "",
        "regist_time" : "",
        "lv" : 0,
        "qzone_nick" : "",
        "age" : "",
        "email" : "",
        "progress_image" : "",
        "coursecount" : 0,
        "lvl" : 6,
        "subscription_article_count" : 0,
        "verified_image" : "",
        "point" : 0,
        "user_large_photo" : "http:\/\/tx1.douguo.net\/upload\/photo\/1\/7\/d\/yuan_u66024105400345092009.jpg",
        "userid" : "24173598",
        "avatar_medium" : "http:\/\/tx1.douguo.net\/upload\/photo\/1\/7\/d\/140_u66024105400345092009.jpg",
        "is_prime" : 0,
        "setted_email" : 0,
        "verified_url" : "https:\/\/m.douguo.com\/user\/prodesc",
        "fc" : 0,
        "weibo_nick" : "",
        "user_id" : "24173598"
      },
      "recommendation_tag" : "",
      "dish_count" : 0,
      "rpt" : "",
      "notes" : [

      ],
      "thumb_height" : 0,
      "packages_id" : [

      ],
      "collect_status" : 0,
      "vfurl" : "https:\/\/vplay.douguo.com\/liqbn6N2TCWKvV5rB7juMe61hn-D__362x640.mp4",
      "ipoi" : "",
      "rdsps" : [

      ],
      "rsm" : "该功能暂停使用",
      "v_u" : "",
      "rewarded_video_dsp" : [

      ],
      "rate_show" : 0,
      "author_photo" : "http:\/\/tx1.douguo.net\/upload\/photo\/1\/7\/d\/70_u66024105400345092009.jpg",
      "cookwares" : [

      ],
      "tips" : "",
      "cook_time_image" : "https:\/\/i1.douguo.com\/upload\/banner\/1551424341.png",
      "cook_difficulty" : "配菜(中级)",
      "ph" : 960,
      "bs" : [

      ],
      "vc" : "13186",
      "ss" : [

      ],
      "views_count_text" : "1.3万",
      "rate" : 0,
      "title_ad" : [

      ],
      "rrps" : [

      ],
      "brand_day_dsp" : [

      ],
      "recipe_tags" : [

      ],
      "sr" : "",
      "recipe_list_tags" : [
        {
          "background_border_color" : "",
          "right_image" : "",
          "jump_url" : "",
          "text_color" : "#141515",
          "background_end_color" : "#F4F5F5",
          "background_start_color" : "#F4F5F5",
          "text" : "关注的人"
        }
      ],
      "tags" : [

      ],
      "release_time" : "",
      "rrpt" : "",
      "minor" : [

      ],
      "cookstory" : "都说没有一只兔兔可以活着走出四川 如果来不了四川 那就在家复刻一下这道经典川菜吧",
      "mid_mdsp" : [

      ],
      "sc" : 0,
      "author_id" : 24173598,
      "share_info" : {
        "s_d" : "香辣水煮兔-会做饭很酷!",
        "image" : "https:\/\/cp1.douguo.com\/upload\/caiku\/b\/e\/4\/1691458070694.jpg",
        "qr_image" : "",
        "name" : "香辣水煮兔-会做饭很酷!",
        "infos" : [
          {
            "image" : "https:\/\/cp1.douguo.com\/upload\/caiku\/b\/e\/4\/1691458070694.jpg",
            "qr_image" : "",
            "name" : "香辣水煮兔-会做饭很酷!",
            "mini_program" : [

            ],
            "s_d" : "#学做饭用豆果美食# 我在@豆果美食 分享了【香辣水煮兔-会做饭很酷!】，这菜真的很好吃，而且做法简单不难学，还不快来跟我学～查看图片了解菜谱（每天限量免费课程，想跟大师学厨艺就来这https:\/\/m.weibo.cn\/p\/100404i33631）#会做饭很酷# ",
            "channel" : "1",
            "s_u" : "",
            "object_id" : "3266240"
          },
          {
            "channel" : "7",
            "name" : "香辣水煮兔-会做饭很酷!",
            "qr_image" : "",
            "s_u" : "http:\/\/m.douguo.com\/cookbook\/3266240.html",
            "image" : "https:\/\/cp1.douguo.com\/upload\/caiku\/b\/e\/4\/1691458070694.jpg",
            "mini_program" : [

            ],
            "object_id" : "3266240",
            "s_d" : "香辣水煮兔-会做饭很酷!"
          },
          {
            "s_d" : "香辣水煮兔-会做饭很酷!",
            "qr_image" : "",
            "image" : "https:\/\/cp1.douguo.com\/upload\/caiku\/b\/e\/4\/1691458070694.jpg",
            "s_u" : "http:\/\/m.douguo.com\/cookbook\/3266240.html",
            "object_id" : "3266240",
            "channel" : "8",
            "mini_program" : [

            ],
            "name" : "香辣水煮兔-会做饭很酷!"
          }
        ],
        "s_u" : "http:\/\/m.douguo.com\/cookbook\/3266240.html",
        "mini_program" : [

        ],
        "object_id" : "3266240"
      },
      "cookstep" : [
        {
          "position" : 1,
          "image_height" : 1920,
          "frame" : "-1",
          "thumb" : "https:\/\/i1.douguo.com\/upload\/caiku\/8\/f\/8\/140_8ffd84756c6e9c04eea246bc94957c58.jpeg",
          "image" : "https:\/\/i1.douguo.com\/upload\/caiku\/8\/f\/8\/8ffd84756c6e9c04eea246bc94957c58.jpeg",
          "content" : "剁成小块的兔肉洗净，加食盐、胡椒粉、料酒、淀粉，抓匀，腌制15分钟",
          "image_width" : 1080
        },
        {
          "frame" : "-1",
          "content" : "锅中倒底油，下入姜蒜粒，一袋臻鲜麻辣香水鱼调料，大火炒香;",
          "image_height" : 1920,
          "image" : "https:\/\/i1.douguo.com\/upload\/caiku\/3\/8\/9\/38f4a2434e02ed473587f4ba9baacf99.jpeg",
          "image_width" : 1080,
          "thumb" : "https:\/\/i1.douguo.com\/upload\/caiku\/3\/8\/9\/140_38f4a2434e02ed473587f4ba9baacf99.jpeg",
          "position" : 2
        },
        {
          "image_height" : 1920,
          "image_width" : 1080,
          "image" : "https:\/\/i1.douguo.com\/upload\/caiku\/4\/7\/5\/4756428d794722bb4e617cc3fcee7265.jpeg",
          "content" : "倒入清水烧开后，下入腌制好的兔肉，水开大火煮10分钟;",
          "frame" : "-1",
          "thumb" : "https:\/\/i1.douguo.com\/upload\/caiku\/4\/7\/5\/140_4756428d794722bb4e617cc3fcee7265.jpeg",
          "position" : 3
        },
        {
          "content" : "接着下入配菜莴笋片和大葱段，煮断生，即可出锅;",
          "frame" : "-1",
          "thumb" : "https:\/\/i1.douguo.com\/upload\/caiku\/e\/9\/6\/140_e95975eeba462a2907f6dc4498bee0a6.jpeg",
          "image" : "https:\/\/i1.douguo.com\/upload\/caiku\/e\/9\/6\/e95975eeba462a2907f6dc4498bee0a6.jpeg",
          "image_height" : 1920,
          "image_width" : 1080,
          "position" : 4
        },
        {
          "thumb" : "https:\/\/i1.douguo.com\/upload\/caiku\/3\/8\/9\/140_384b39d5a8c97f3da9c76f26c9c83319.jpeg",
          "image" : "https:\/\/i1.douguo.com\/upload\/caiku\/3\/8\/9\/384b39d5a8c97f3da9c76f26c9c83319.jpeg",
          "frame" : "-1",
          "image_width" : 1080,
          "image_height" : 1920,
          "position" : 5,
          "content" : "铺上干辣椒段、干花椒，浇上一勺热油，激发香味;"
        },
        {
          "position" : 6,
          "frame" : "-1",
          "image_height" : 1920,
          "image" : "https:\/\/i1.douguo.com\/upload\/caiku\/9\/9\/f\/99a350bca499599b7b19cdeac0796d2f.jpeg",
          "image_width" : 1080,
          "thumb" : "https:\/\/i1.douguo.com\/upload\/caiku\/9\/9\/f\/140_99a350bca499599b7b19cdeac0796d2f.jpeg",
          "content" : "撒上一把葱花，点缀几片香菜，开始享受美味吧!"
        }
      ],
      "ipci" : "",
      "clicks" : "1",
      "act_des" : "",
      "thumb_path" : "https:\/\/i1.douguo.com\/upload\/caiku\/b\/e\/4\/300_1691458070694.jpg",
      "rpid" : 0,
      "favo_counts" : 431,
      "ecs" : 1,
      "pw" : 540,
      "first_level_comment_count" : 0,
      "cook_difficulty_image" : "https:\/\/i1.douguo.com\/upload\/banner\/1551424413.png",
      "comments_count_text" : "",
      "comments_count" : 0,
      "cook_id" : "3266240",
      "recommended" : 0,
      "story_dsp" : [

      ],
      "dishes" : [

      ],
      "ipit" : 0,
      "photo_path" : "https:\/\/i1.douguo.com\/upload\/caiku\/b\/e\/4\/600_1691458070694.jpg",
      "eu" : "recipes:\/\/www.douguo.com\/postdetail?id=242016"
    }
  },
  "state" : "success",
  "status" : 0
}