{
  "result" : {
    "recipe" : {
      "cook_difficulty" : "切墩(初级)",
      "old_comments" : [

      ],
      "ipit" : 0,
      "cook_time" : "10~30分钟",
      "ipt" : "",
      "ph" : 1440,
      "recent_comments" : [

      ],
      "cookstep" : [
        {
          "image_width" : 1280,
          "frame" : "-1",
          "thumb" : "https:\/\/i1.douguo.com\/upload\/caiku\/f\/3\/9\/140_f31297136381b41178d7fe7774e12bb9.jpeg",
          "image" : "https:\/\/i1.douguo.com\/upload\/caiku\/f\/3\/9\/f31297136381b41178d7fe7774e12bb9.jpeg",
          "image_height" : 958,
          "position" : 1,
          "content" : "准备食材，将粉丝放在凉水里泡软。"
        },
        {
          "content" : "用剪刀剪去虾脚虾须。",
          "image_height" : 1706,
          "image" : "https:\/\/i1.douguo.com\/upload\/caiku\/b\/c\/f\/bc86c442ee05dde3e6f2a265e0e0baaf.jpeg",
          "image_width" : 1280,
          "thumb" : "https:\/\/i1.douguo.com\/upload\/caiku\/b\/c\/f\/140_bc86c442ee05dde3e6f2a265e0e0baaf.jpeg",
          "position" : 2,
          "frame" : "-1"
        },
        {
          "thumb" : "https:\/\/i1.douguo.com\/upload\/caiku\/c\/9\/4\/140_c9cf91c0b363f43b1e253e100670e964.jpeg",
          "image" : "https:\/\/i1.douguo.com\/upload\/caiku\/c\/9\/4\/c9cf91c0b363f43b1e253e100670e964.jpeg",
          "frame" : "-1",
          "image_width" : 1280,
          "image_height" : 960,
          "position" : 3,
          "content" : "开背去虾线。"
        },
        {
          "position" : 4,
          "frame" : "-1",
          "image_height" : 1706,
          "image" : "https:\/\/i1.douguo.com\/upload\/caiku\/b\/6\/4\/b6d8bdef4ad3bc3e60a7794f89d90384.jpeg",
          "image_width" : 1280,
          "thumb" : "https:\/\/i1.douguo.com\/upload\/caiku\/b\/6\/4\/140_b6d8bdef4ad3bc3e60a7794f89d90384.jpeg",
          "content" : "用刀将虾背切两半（注意不是完全切分离），用刀背轻拍几下将虾肉纤维打碎。"
        },
        {
          "image_width" : 1280,
          "content" : "处理后虾的状态。",
          "image_height" : 960,
          "image" : "https:\/\/i1.douguo.com\/upload\/caiku\/9\/5\/5\/95175c86649ced3627aa035e6c464695.jpeg",
          "frame" : "-1",
          "thumb" : "https:\/\/i1.douguo.com\/upload\/caiku\/9\/5\/5\/140_95175c86649ced3627aa035e6c464695.jpeg",
          "position" : 5
        },
        {
          "content" : "将处理过的虾放入料酒和几片姜腌制半小时去除腥味。",
          "image" : "https:\/\/i1.douguo.com\/upload\/caiku\/d\/a\/3\/da0ad29ab29283e0bf57063c343f79a3.jpeg",
          "frame" : "-1",
          "thumb" : "https:\/\/i1.douguo.com\/upload\/caiku\/d\/a\/3\/140_da0ad29ab29283e0bf57063c343f79a3.jpeg",
          "position" : 6,
          "image_width" : 1280,
          "image_height" : 960
        },
        {
          "image_height" : 960,
          "image_width" : 1280,
          "thumb" : "https:\/\/i1.douguo.com\/upload\/caiku\/4\/5\/0\/140_457d890d33dcb69d5353c3c8db193630.jpeg",
          "content" : "这期间处理蒜蓉，将大蒜剁碎。",
          "image" : "https:\/\/i1.douguo.com\/upload\/caiku\/4\/5\/0\/457d890d33dcb69d5353c3c8db193630.jpeg",
          "position" : 7,
          "frame" : "-1"
        },
        {
          "image" : "https:\/\/i1.douguo.com\/upload\/caiku\/5\/0\/d\/50c075defa94f6772465e83e36c206ad.jpeg",
          "frame" : "-1",
          "position" : 8,
          "content" : "锅内倒油将剁好的分二分之一大蒜下锅炒至金黄色盛出。",
          "thumb" : "https:\/\/i1.douguo.com\/upload\/caiku\/5\/0\/d\/140_50c075defa94f6772465e83e36c206ad.jpeg",
          "image_width" : 1280,
          "image_height" : 960
        },
        {
          "image_height" : 960,
          "frame" : "-1",
          "content" : "将剩下一半生蒜末和熟蒜末放在一起，加入半勺生抽、半勺蚝油、少许盐和白糖，搅拌均匀。",
          "thumb" : "https:\/\/i1.douguo.com\/upload\/caiku\/0\/b\/1\/140_0b2fdfc7152a49297f5ce7769e140fc1.jpeg",
          "position" : 9,
          "image" : "https:\/\/i1.douguo.com\/upload\/caiku\/0\/b\/1\/0b2fdfc7152a49297f5ce7769e140fc1.jpeg",
          "image_width" : 1280
        },
        {
          "position" : 10,
          "frame" : "-1",
          "image_height" : 960,
          "image_width" : 1280,
          "content" : "锅里放水开中火，将粉丝摆盘放几片姜。",
          "thumb" : "https:\/\/i1.douguo.com\/upload\/caiku\/5\/7\/3\/140_5788fa6e8aee822d0455eaf6d5f305a3.jpeg",
          "image" : "https:\/\/i1.douguo.com\/upload\/caiku\/5\/7\/3\/5788fa6e8aee822d0455eaf6d5f305a3.jpeg"
        },
        {
          "image_height" : 960,
          "image" : "https:\/\/i1.douguo.com\/upload\/caiku\/f\/4\/d\/f4b219c2e3410b88ed025e992847e2ed.jpeg",
          "content" : "将腌制好的虾摆在粉丝上，将调好的蒜蓉盛在虾肉上，水开上气盖锅盖蒸5分钟。",
          "thumb" : "https:\/\/i1.douguo.com\/upload\/caiku\/f\/4\/d\/140_f4b219c2e3410b88ed025e992847e2ed.jpeg",
          "frame" : "-1",
          "image_width" : 1280,
          "position" : 11
        },
        {
          "image_width" : 1280,
          "position" : 12,
          "image_height" : 960,
          "thumb" : "https:\/\/i1.douguo.com\/upload\/caiku\/b\/6\/5\/140_b67b02a78e46e256322d18fa7eb802e5.jpeg",
          "image" : "https:\/\/i1.douguo.com\/upload\/caiku\/b\/6\/5\/b67b02a78e46e256322d18fa7eb802e5.jpeg",
          "content" : "蒸好连盘端出，撒上葱花，烧一勺热油泼在葱上。",
          "frame" : "-1"
        },
        {
          "frame" : "-1",
          "image" : "https:\/\/i1.douguo.com\/upload\/caiku\/e\/d\/9\/ed7188cb70e60c40a1db96c2a357fd99.jpeg",
          "image_height" : 960,
          "content" : "颜值爆棚的蒜蓉粉丝虾搞定，家中宴请聚会必备，一定是餐桌上最亮的星～",
          "image_width" : 1280,
          "thumb" : "https:\/\/i1.douguo.com\/upload\/caiku\/e\/d\/9\/140_ed7188cb70e60c40a1db96c2a357fd99.jpeg",
          "position" : 13
        }
      ],
      "purl" : "",
      "vfurl" : "",
      "recipe_list_tags" : [
        {
          "text_color" : "#141515",
          "background_border_color" : "",
          "background_start_color" : "#F4F5F5",
          "background_end_color" : "#F4F5F5",
          "jump_url" : "",
          "text" : "关注的人",
          "right_image" : ""
        }
      ],
      "rrpt" : "",
      "author" : "小辉辉的美食日记",
      "ipurl" : "",
      "recommendation_tag" : "",
      "ssu" : "",
      "top_mdsp" : [

      ],
      "cookwares" : [

      ],
      "thumb_height" : 0,
      "collect_status" : 0,
      "cook_id" : "2075152",
      "recommended" : 0,
      "dish_count" : 65,
      "v_u" : "",
      "hqu" : "recipes:\/\/www.douguo.com\/notedetail?id=21162253",
      "ecs" : 1,
      "story_dsp" : [

      ],
      "tips" : "这道菜主要费事在虾的处理上，虾背先用剪刀剪开后再用牙签剔出虾线后再用刀从剪开的地方将虾背片两半，再用刀背将虾肉纤维打碎，不然蒸过后虾会收缩卷曲影响美观。",
      "vc" : "2385600",
      "advice" : {
        "at" : "能有效控制体重～",
        "da" : {
          "t" : "查看详细分析",
          "iu" : "https:\/\/i1.douguo.com\/upload\/banner\/f\/4\/d\/f48877e53c37759bc12ac494be82ec8d.png",
          "url" : "https:\/\/m.douguo.com\/recipe\/nutrient_self\/2075152"
        },
        "has" : [
          {
            "url" : "recipes:\/\/www.douguo.com\/simplerecipelist?t=低脂&id=低脂",
            "t" : "低脂"
          },
          {
            "url" : "recipes:\/\/www.douguo.com\/simplerecipelist?t=不含饱和脂肪&id=不含饱和脂肪",
            "t" : "不含饱和脂肪"
          }
        ]
      },
      "rpid" : 0,
      "ipoi" : "",
      "minor" : [

      ],
      "guide_image" : "",
      "image" : "http:\/\/i1.douguo.net\/upload\/caiku\/e\/1\/0\/300_e10321e4eeee3155db7a3d19afdf88e0.jpeg",
      "rate" : 5,
      "clicks" : "2227856",
      "cookstory" : "",
      "rips" : 0,
      "dish_count_text" : "65",
      "share_info" : {
        "qr_image" : "",
        "object_id" : "2075152",
        "mini_program" : [

        ],
        "infos" : [
          {
            "channel" : "1",
            "qr_image" : "",
            "image" : "https:\/\/cp1.douguo.com\/upload\/caiku\/e\/1\/0\/e10321e4eeee3155db7a3d19afdf88e0.jpeg",
            "object_id" : "2075152",
            "mini_program" : [

            ],
            "name" : "蒜蓉粉丝虾-会做饭很酷!",
            "s_d" : "#学做饭用豆果美食# 我在@豆果美食 分享了【蒜蓉粉丝虾-会做饭很酷!】，帅哥美眉们～你们喜欢的美食来咯！快来跟我一起做吧～查看图片了解菜谱（想要获取更多美食就看这https:\/\/m.weibo.cn\/p\/100404i33631）#会做饭很酷#",
            "s_u" : ""
          },
          {
            "qr_image" : "",
            "channel" : "7",
            "name" : "蒜蓉粉丝虾-会做饭很酷!",
            "s_u" : "http:\/\/m.douguo.com\/cookbook\/2075152.html",
            "mini_program" : [

            ],
            "object_id" : "2075152",
            "s_d" : "蒜蓉粉丝虾-会做饭很酷!",
            "image" : "https:\/\/cp1.douguo.com\/upload\/caiku\/e\/1\/0\/e10321e4eeee3155db7a3d19afdf88e0.jpeg"
          },
          {
            "channel" : "8",
            "mini_program" : [

            ],
            "qr_image" : "",
            "name" : "蒜蓉粉丝虾-会做饭很酷!",
            "object_id" : "2075152",
            "image" : "https:\/\/cp1.douguo.com\/upload\/caiku\/e\/1\/0\/e10321e4eeee3155db7a3d19afdf88e0.jpeg",
            "s_d" : "蒜蓉粉丝虾-会做饭很酷!",
            "s_u" : "http:\/\/m.douguo.com\/cookbook\/2075152.html"
          }
        ],
        "s_d" : "蒜蓉粉丝虾-会做饭很酷!",
        "image" : "https:\/\/cp1.douguo.com\/upload\/caiku\/e\/1\/0\/e10321e4eeee3155db7a3d19afdf88e0.jpeg",
        "name" : "蒜蓉粉丝虾-会做饭很酷!",
        "s_u" : "http:\/\/m.douguo.com\/cookbook\/2075152.html"
      },
      "ipia" : [

      ],
      "major" : [
        {
          "tu" : "https:\/\/m.douguo.com\/ingredients\/海虾\/detailmaterial",
          "title" : "海虾",
          "note" : "大约12个"
        },
        {
          "title" : "粉丝",
          "tu" : "https:\/\/m.douguo.com\/ingredients\/粉丝\/detailmaterial",
          "note" : "一捆"
        },
        {
          "note" : "一头",
          "tu" : "https:\/\/m.douguo.com\/ingredients\/大蒜\/detailmaterial",
          "title" : "大蒜"
        },
        {
          "note" : "一根",
          "title" : "小葱",
          "tu" : "https:\/\/m.douguo.com\/ingredients\/小葱\/detailmaterial"
        },
        {
          "title" : "姜",
          "tu" : "https:\/\/m.douguo.com\/ingredients\/姜\/detailmaterial",
          "note" : "少许"
        },
        {
          "title" : "料酒",
          "note" : "少许",
          "tu" : "https:\/\/m.douguo.com\/ingredients\/料酒\/detailmaterial"
        },
        {
          "note" : "少许",
          "title" : "生抽",
          "tu" : "https:\/\/m.douguo.com\/ingredients\/生抽\/detailmaterial"
        },
        {
          "title" : "蚝油",
          "note" : "少许",
          "tu" : "https:\/\/m.douguo.com\/ingredients\/蚝油\/detailmaterial"
        },
        {
          "title" : "盐",
          "note" : "少许",
          "tu" : "https:\/\/m.douguo.com\/ingredients\/盐\/detailmaterial"
        },
        {
          "note" : "少许",
          "title" : "白糖",
          "tu" : "https:\/\/m.douguo.com\/ingredients\/白糖\/detailmaterial"
        }
      ],
      "sc" : 0,
      "packages_id" : [

      ],
      "recipe_tags" : [

      ],
      "cookstorys" : [

      ],
      "related_ads" : [

      ],
      "thumb_path" : "https:\/\/i1.douguo.com\/upload\/caiku\/e\/1\/0\/300_e10321e4eeee3155db7a3d19afdf88e0.jpeg",
      "eu" : "recipes:\/\/www.douguo.com\/postdetail?id=242016",
      "rpst" : "",
      "pw" : 1920,
      "views_count_text" : "238.6万",
      "recommend_label" : "65人学做",
      "author_id" : 20630109,
      "bs" : [

      ],
      "brand_day_dsp" : [

      ],
      "notes" : [

      ],
      "title_ad" : [

      ],
      "levelid" : 2,
      "rate_show" : 1,
      "ipci" : "",
      "tags" : [

      ],
      "rewarded_video_dsp" : [

      ],
      "photo_path" : "https:\/\/i1.douguo.com\/upload\/caiku\/e\/1\/0\/600_e10321e4eeee3155db7a3d19afdf88e0.jpeg",
      "comments_count_text" : "18",
      "ss" : [

      ],
      "comments" : [
        "{\n    ac = \"#999999\";\n    at = \"\\U91cd\\U5e86\\U5e02\";\n    ccc = 5;\n    \"child_comments\" =     (\n                {\n            ac = \"#999999\";\n            at = \"\\U5317\\U4eac\\U5e02\";\n            ccc = 0;\n            city = \"\\U5317\\U4eac\\U5e02\";\n            cmc = 2;\n            content =             (\n                                {\n                    c = \" \\U653e\\U51b0\\U7bb1\\U51bb\\U6655\";\n                }\n            );\n            ia = 1;\n            id = 7755939;\n            \"ip_address_location\" = \"\";\n            like = 0;\n            \"like_count\" = 0;\n            \"reply_id\" = 7665321;\n            \"reply_user\" =             {\n                \"followers_count_text\" = \"\";\n                id = 25055430;\n                \"is_prime\" = 0;\n                lv = 0;\n                lvl = 1;\n                n = \"\\U7c7c\\U7c73\\U7c89\";\n                p = \"http:\/\/tx1.douguo.net\/upload\/photo\/0\/1\/f\/70_u82444138295662190711.jpg\";\n                \"progress_image\" = \"\";\n                \"recipes_count_text\" = \"\";\n                relationship = \"-1\";\n                title = \"\";\n                v = 0;\n                \"verified_image\" = \"\";\n            };\n            \"sticker_icon\" =             (\n            );\n            time = \"2020-03-07 23:39:30\";\n            u =             {\n                \"followers_count_text\" = \"\";\n                id = 20630109;\n                \"is_prime\" = 0;\n                lv = 0;\n                lvl = 3;\n                n = \"\\U5c0f\\U8f89\\U8f89\\U7684\\U7f8e\\U98df\\U65e5\\U8bb0\";\n                p = \"http:\/\/tx1.douguo.net\/upload\/photo\/8\/9\/4\/70_u00040225138587230432.jpeg\";\n                \"progress_image\" = \"\";\n                \"recipes_count_text\" = \"\";\n                relationship = \"-1\";\n                title = \"\";\n                v = 0;\n                \"verified_image\" = \"\";\n            };\n        },\n                {\n            ac = \"#999999\";\n            at = \"\";\n            ccc = 0;\n            city = \"\";\n            cmc = 2;\n            content =             (\n                                {\n                    c = \" \\U662f\\U51b7\\U51bb\\U53d8\\U6655\\U8fd8\\U662f\\U51b7\\U85cf\";\n                }\n            );\n            ia = 0;\n            id = 8480348;\n            \"ip_address_location\" = \"\";\n            like = 0;\n            \"like_count\" = 0;\n            \"reply_id\" = 7755939;\n            \"reply_user\" =             {\n                \"followers_count_text\" = \"\";\n                id = 20630109;\n                \"is_prime\" = 0;\n                lv = 0;\n                lvl = 3;\n                n = \"\\U5c0f\\U8f89\\U8f89\\U7684\\U7f8e\\U98df\\U65e5\\U8bb0\";\n                p = \"http:\/\/tx1.douguo.net\/upload\/photo\/8\/9\/4\/70_u00040225138587230432.jpeg\";\n                \"progress_image\" = \"\";\n                \"recipes_count_text\" = \"\";\n                relationship = \"-1\";\n                title = \"\";\n                v = 0;\n                \"verified_image\" = \"\";\n            };\n            \"sticker_icon\" =             (\n            );\n            time = \"2021-01-27 20:20:15\";\n            u =             {\n                \"followers_count_text\" = \"\";\n                id = 26146770;\n                \"is_prime\" = 0;\n                lv = 0;\n                lvl = 2;\n                n = \"\\U549a\\U6b21\\U54d2\\U6b21orjt\";\n                p = \"http:\/\/tx1.douguo.net\/upload\/photo\/6\/1\/2\/70_u06127626340527113538.jpg\";\n                \"progress_image\" = \"\";\n                \"recipes_count_text\" = \"\";\n                relationship = \"-1\";\n                title = \"\";\n                v = 0;\n                \"verified_image\" = \"\";\n            };\n        }\n    );\n    city = \"\\U91cd\\U5e86\\U5e02\";\n    cmc = 2;\n    content =     (\n                {\n            c = \"\\U6d3b\\U7684\\U867e\\U600e\\U4e48\\U6740\\Uff1f\";\n        }\n    );\n    ia = 0;\n    id = 7665321;\n    \"ip_address_location\" = \"\";\n    like = 0;\n    \"like_count\" = 0;\n    \"reply_id\" = 0;\n    \"sticker_icon\" =     (\n    );\n    time = \"2020-02-23 15:53:18\";\n    u =     {\n        \"followers_count_text\" = \"\";\n        id = 25055430;\n        \"is_prime\" = 0;\n        lv = 0;\n        lvl = 1;\n        n = \"\\U7c7c\\U7c73\\U7c89\";\n        p = \"http:\/\/tx1.douguo.net\/upload\/photo\/0\/1\/f\/70_u82444138295662190711.jpg\";\n        \"progress_image\" = \"\";\n        \"recipes_count_text\" = \"\";\n        relationship = \"-1\";\n        title = \"\";\n        v = 0;\n        \"verified_image\" = \"\";\n    };\n}",
        "{\n    ac = \"#999999\";\n    at = \"\";\n    ccc = 2;\n    \"child_comments\" =     (\n                {\n            ac = \"#999999\";\n            at = \"\\U5317\\U4eac\\U5e02\";\n            ccc = 0;\n            city = \"\\U5317\\U4eac\\U5e02\";\n            cmc = 2;\n            content =             (\n                                {\n                    c = \" \\U7528\\U76f4\\U6d41\\U6c34\\U51b2\\U6d17\\Uff0c\\U6c34\\U538b\\U529b\\U5927\\U5c31\\U4f1a\\U51b2\\U6d17\\U5e72\\U51c0\";\n                }\n            );\n            ia = 1;\n            id = 6482781;\n            \"ip_address_location\" = \"\";\n            like = 0;\n            \"like_count\" = 0;\n            \"reply_id\" = 6482538;\n            \"reply_user\" =             {\n                \"followers_count_text\" = \"\";\n                id = 18524635;\n                \"is_prime\" = 0;\n                lv = 0;\n                lvl = 3;\n                n = \"\\U8774\\U8776\\U516c\\U4e3b\\U7684\\U7231\";\n                p = \"http:\/\/tx1.douguo.net\/upload\/photo\/6\/e\/2\/70_u67384993540011130956.jpg\";\n                \"progress_image\" = \"\";\n                \"recipes_count_text\" = \"\";\n                relationship = \"-1\";\n                title = \"\";\n                v = 0;\n                \"verified_image\" = \"\";\n            };\n            \"sticker_icon\" =             (\n            );\n            time = \"2019-04-03 14:09:42\";\n            u =             {\n                \"followers_count_text\" = \"\";\n                id = 20630109;\n                \"is_prime\" = 0;\n                lv = 0;\n                lvl = 3;\n                n = \"\\U5c0f\\U8f89\\U8f89\\U7684\\U7f8e\\U98df\\U65e5\\U8bb0\";\n                p = \"http:\/\/tx1.douguo.net\/upload\/photo\/8\/9\/4\/70_u00040225138587230432.jpeg\";\n                \"progress_image\" = \"\";\n                \"recipes_count_text\" = \"\";\n                relationship = \"-1\";\n                title = \"\";\n                v = 0;\n                \"verified_image\" = \"\";\n            };\n        },\n                {\n            ac = \"#999999\";\n            at = \"\";\n            ccc = 0;\n            city = \"\";\n            cmc = 2;\n            content =             (\n                                {\n                    c = \" \\Ud83d\\Udc4d\";\n                }\n            );\n            ia = 0;\n            id = 8908749;\n            \"ip_address_location\" = \"\";\n            like = 0;\n            \"like_count\" = 0;\n            \"reply_id\" = 6482781;\n            \"reply_user\" =             {\n                \"followers_count_text\" = \"\";\n                id = 20630109;\n                \"is_prime\" = 0;\n                lv = 0;\n                lvl = 3;\n                n = \"\\U5c0f\\U8f89\\U8f89\\U7684\\U7f8e\\U98df\\U65e5\\U8bb0\";\n                p = \"http:\/\/tx1.douguo.net\/upload\/photo\/8\/9\/4\/70_u00040225138587230432.jpeg\";\n                \"progress_image\" = \"\";\n                \"recipes_count_text\" = \"\";\n                relationship = \"-1\";\n                title = \"\";\n                v = 0;\n                \"verified_image\" = \"\";\n            };\n            \"sticker_icon\" =             (\n            );\n            time = \"2022-01-19 12:14:09\";\n            u =             {\n                \"followers_count_text\" = \"\";\n                id = 25235746;\n                \"is_prime\" = 0;\n                lv = 0;\n                lvl = 2;\n                n = \"\\U5f61\\U718a\\U5f61\";\n                p = \"http:\/\/tx1.douguo.net\/upload\/photo\/6\/a\/f\/70_6a4147b9e62709904a20692c843e3eff.jpg\";\n                \"progress_image\" = \"\";\n                \"recipes_count_text\" = \"\";\n                relationship = \"-1\";\n                title = \"\";\n                v = 0;\n                \"verified_image\" = \"\";\n            };\n        }\n    );\n    city = \"\";\n    cmc = 2;\n    content =     (\n                {\n            c = \"\\U867e\\U7ebf\\U53bb\\U4e0d\\U51c0\\U548b\\U6574\\Uff1f\";\n        }\n    );\n    ia = 0;\n    id = 6482538;\n    \"ip_address_location\" = \"\";\n    like = 0;\n    \"like_count\" = 0;\n    \"reply_id\" = 0;\n    \"sticker_icon\" =     (\n    );\n    time = \"2019-04-03 12:11:09\";\n    u =     {\n        \"followers_count_text\" = \"\";\n        id = 18524635;\n        \"is_prime\" = 0;\n        lv = 0;\n        lvl = 3;\n        n = \"\\U8774\\U8776\\U516c\\U4e3b\\U7684\\U7231\";\n        p = \"http:\/\/tx1.douguo.net\/upload\/photo\/6\/e\/2\/70_u67384993540011130956.jpg\";\n        \"progress_image\" = \"\";\n        \"recipes_count_text\" = \"\";\n        relationship = \"-1\";\n        title = \"\";\n        v = 0;\n        \"verified_image\" = \"\";\n    };\n}",
        "{\n    ac = \"#999999\";\n    at = \"\\U5b5d\\U611f\\U5e02\";\n    ccc = 1;\n    \"child_comments\" =     (\n                {\n            ac = \"#999999\";\n            at = \"\\U5317\\U4eac\\U5e02\";\n            ccc = 0;\n            city = \"\\U5317\\U4eac\\U5e02\";\n            cmc = 2;\n            content =             (\n                                {\n                    c = \" \\U867e\\U5904\\U7406\\U7684\\U65f6\\U5019\\U662f\\U633a\\U9ebb\\U70e6\\U7684\\Uff0c\\U8fd8\\U5bb9\\U6613\\U624e\\U5230\\U624b\\Uff0c\\U53ef\\U4ee5\\U6234\\U624b\\U5957\\U5904\\U7406\";\n                }\n            );\n            ia = 1;\n            id = 7885214;\n            \"ip_address_location\" = \"\";\n            like = 0;\n            \"like_count\" = 0;\n            \"reply_id\" = 7785274;\n            \"reply_user\" =             {\n                \"followers_count_text\" = \"\";\n                id = 17919730;\n                \"is_prime\" = 0;\n                lv = 0;\n                lvl = 3;\n                n = Aichoo;\n                p = \"http:\/\/tx1.douguo.net\/upload\/photo\/d\/c\/8\/70_u67778529515195020909.jpeg\";\n                \"progress_image\" = \"\";\n                \"recipes_count_text\" = \"\";\n                relationship = \"-1\";\n                title = \"\";\n                v = 0;\n                \"verified_image\" = \"\";\n            };\n            \"sticker_icon\" =             (\n            );\n            time = \"2020-04-15 15:31:27\";\n            u =             {\n                \"followers_count_text\" = \"\";\n                id = 20630109;\n                \"is_prime\" = 0;\n                lv = 0;\n                lvl = 3;\n                n = \"\\U5c0f\\U8f89\\U8f89\\U7684\\U7f8e\\U98df\\U65e5\\U8bb0\";\n                p = \"http:\/\/tx1.douguo.net\/upload\/photo\/8\/9\/4\/70_u00040225138587230432.jpeg\";\n                \"progress_image\" = \"\";\n                \"recipes_count_text\" = \"\";\n                relationship = \"-1\";\n                title = \"\";\n                v = 0;\n                \"verified_image\" = \"\";\n            };\n        }\n    );\n    city = \"\\U5b5d\\U611f\\U5e02\";\n    cmc = 2;\n    content =     (\n                {\n            c = \"\\U867e\\U7684\\U5904\\U7406\\U771f\\U7684\\U6709\\U70b9\\U4e0d\\U8212\\U9002 \\U4f46\\U5473\\U9053\\U8fd8\\U4e0d\\U9519\\Ud83d\\Udc4d\";\n        }\n    );\n    ia = 0;\n    id = 7785274;\n    \"ip_address_location\" = \"\";\n    like = 0;\n    \"like_count\" = 1;\n    \"reply_id\" = 0;\n    \"sticker_icon\" =     (\n    );\n    time = \"2020-03-16 14:28:13\";\n    u =     {\n        \"followers_count_text\" = \"\";\n        id = 17919730;\n        \"is_prime\" = 0;\n        lv = 0;\n        lvl = 3;\n        n = Aichoo;\n        p = \"http:\/\/tx1.douguo.net\/upload\/photo\/d\/c\/8\/70_u67778529515195020909.jpeg\";\n        \"progress_image\" = \"\";\n        \"recipes_count_text\" = \"\";\n        relationship = \"-1\";\n        title = \"\";\n        v = 0;\n        \"verified_image\" = \"\";\n    };\n}"
      ],
      "release_time" : "",
      "rcs" : [

      ],
      "sr" : "",
      "rpt" : "",
      "favo_counts" : 15615,
      "vu" : "",
      "mid_mdsp" : [

      ],
      "author_verified" : 0,
      "display_ingredient" : 1,
      "rate_count" : 61,
      "first_level_comment_count" : 8,
      "su" : "",
      "cook_time_image" : "https:\/\/i1.douguo.com\/upload\/banner\/1551424341.png",
      "cook_difficulty_image" : "https:\/\/i1.douguo.com\/upload\/banner\/1551424390.png",
      "btm_dsp" : [

      ],
      "rdsps" : [

      ],
      "rsm" : "该功能暂停使用",
      "act_des" : "",
      "user" : {
        "coursecount" : 0,
        "lv" : 0,
        "userid" : "20630109",
        "birthday" : "",
        "age" : "",
        "weibo_nick" : "",
        "user_photo" : "http:\/\/tx1.douguo.net\/upload\/photo\/8\/9\/4\/70_u00040225138587230432.jpeg",
        "progress_image" : "",
        "diaries_count" : 0,
        "pc" : 0,
        "mobile" : "",
        "fc" : 0,
        "following_count" : 0,
        "point" : 0,
        "favorites_count" : 0,
        "favor_diaries_count" : 0,
        "is_prime" : 0,
        "subscription" : 0,
        "avatar_medium" : "http:\/\/tx1.douguo.net\/upload\/photo\/8\/9\/4\/140_u00040225138587230432.jpeg",
        "sign" : "",
        "verified" : 0,
        "setted_email" : 0,
        "user_large_photo" : "http:\/\/tx1.douguo.net\/upload\/photo\/8\/9\/4\/yuan_u00040225138587230432.jpeg",
        "qq_weibo_nick" : "",
        "verified_url" : "https:\/\/m.douguo.com\/user\/prodesc",
        "location" : 0,
        "user_cover" : "",
        "gender" : 2,
        "followers_count" : 0,
        "introduction" : "",
        "lvl" : 3,
        "qzone_nick" : "",
        "nick" : "小辉辉的美食日记",
        "recipes_count" : 0,
        "regist_time" : "",
        "email" : "",
        "subscription_article_count" : 0,
        "verified_image" : "",
        "dishes_count" : 0,
        "user_id" : "20630109"
      },
      "create_time" : "2019-04-01 17:10:12",
      "comments_count" : 18,
      "favo_counts_text" : "1.6万",
      "dishes" : [

      ],
      "title" : "蒜蓉粉丝虾",
      "hq" : 1,
      "author_photo" : "http:\/\/tx1.douguo.net\/upload\/photo\/8\/9\/4\/70_u00040225138587230432.jpeg",
      "original_photo_path" : "http:\/\/i1.douguo.net\/upload\/caiku\/e\/1\/0\/yuan_e10321e4eeee3155db7a3d19afdf88e0.jpeg",
      "rrps" : [

      ]
    }
  },
  "state" : "success",
  "status" : 0
}