{
  "state" : "success",
  "result" : {
    "recipe" : {
      "cookstory" : "牛油果在墨西哥这边是大众配菜，价格也比较亲民，相比国内当水果吃，我还是比较喜欢它原本的吃法，配菜",
      "recommend_label" : "9843人看过",
      "cook_difficulty" : "切墩(初级)",
      "photo_path" : "https:\/\/i1.douguo.com\/upload\/caiku\/c\/5\/9\/600_c5003f1b5f189328b77154761ea67569.jpg",
      "recipe_list_tags" : [
        {
          "right_image" : "",
          "background_border_color" : "",
          "text" : "关注的人",
          "background_end_color" : "#F4F5F5",
          "jump_url" : "",
          "text_color" : "#141515",
          "background_start_color" : "#F4F5F5"
        }
      ],
      "recent_comments" : [

      ],
      "rdsps" : [

      ],
      "favo_counts_text" : "54",
      "comments_count_text" : "5",
      "ss" : [

      ],
      "recipe_tags" : [

      ],
      "vc" : "9843",
      "sr" : "",
      "ipit" : 0,
      "comments_count" : 5,
      "views_count_text" : "9843",
      "rewarded_video_dsp" : [

      ],
      "hqu" : "recipes:\/\/www.douguo.com\/notedetail?id=21162253",
      "su" : "",
      "favo_counts" : 54,
      "mid_mdsp" : [

      ],
      "cookstorys" : [
        {
          "id" : 0,
          "type" : 0,
          "icon" : "",
          "c" : "牛油果在墨西哥这边是大众配菜，价格也比较亲民，相比国内当水果吃，我还是比较喜欢它原本的吃法，配菜",
          "u" : "",
          "color" : ""
        }
      ],
      "vfurl" : "",
      "levelid" : 3,
      "create_time" : "2020-02-25 23:26:54",
      "brand_day_dsp" : [

      ],
      "share_info" : {
        "image" : "https:\/\/cp1.douguo.com\/upload\/caiku\/c\/5\/9\/c5003f1b5f189328b77154761ea67569.jpg",
        "s_u" : "http:\/\/m.douguo.com\/cookbook\/2412771.html",
        "s_d" : "墨式牛油果酱-会做饭很酷!",
        "object_id" : "2412771",
        "name" : "墨式牛油果酱-会做饭很酷!",
        "infos" : [
          {
            "object_id" : "2412771",
            "s_d" : "#学做饭用豆果美食# 会做饭真是好酷啊！我在@豆果美食 分享了【墨式牛油果酱-会做饭很酷!】，快来康康我这道菜做的怎么样～美味停不下来！查看图片了解菜谱（你喜欢的美食都在这里！https:\/\/m.weibo.cn\/p\/100404i33631）",
            "qr_image" : "",
            "mini_program" : [

            ],
            "name" : "墨式牛油果酱-会做饭很酷!",
            "s_u" : "",
            "channel" : "1",
            "image" : "https:\/\/cp1.douguo.com\/upload\/caiku\/c\/5\/9\/c5003f1b5f189328b77154761ea67569.jpg"
          },
          {
            "channel" : "7",
            "s_u" : "http:\/\/m.douguo.com\/cookbook\/2412771.html",
            "name" : "墨式牛油果酱-会做饭很酷!",
            "image" : "https:\/\/cp1.douguo.com\/upload\/caiku\/c\/5\/9\/c5003f1b5f189328b77154761ea67569.jpg",
            "s_d" : "墨式牛油果酱-会做饭很酷!",
            "object_id" : "2412771",
            "mini_program" : [

            ],
            "qr_image" : ""
          },
          {
            "s_d" : "墨式牛油果酱-会做饭很酷!",
            "image" : "https:\/\/cp1.douguo.com\/upload\/caiku\/c\/5\/9\/c5003f1b5f189328b77154761ea67569.jpg",
            "name" : "墨式牛油果酱-会做饭很酷!",
            "qr_image" : "",
            "s_u" : "http:\/\/m.douguo.com\/cookbook\/2412771.html",
            "object_id" : "2412771",
            "channel" : "8",
            "mini_program" : [

            ]
          }
        ],
        "qr_image" : "",
        "mini_program" : [

        ]
      },
      "major" : [
        {
          "tu" : "https:\/\/m.douguo.com\/ingredients\/牛油果\/detailmaterial",
          "title" : "牛油果",
          "note" : "1个"
        },
        {
          "note" : "15g",
          "title" : "盐",
          "tu" : "https:\/\/m.douguo.com\/ingredients\/盐\/detailmaterial"
        },
        {
          "title" : "香菜末",
          "note" : "一丢丢"
        },
        {
          "title" : "辣根",
          "note" : "根据口味适量"
        }
      ],
      "recommended" : 0,
      "tips" : "",
      "cookwares" : [

      ],
      "minor" : [

      ],
      "ipurl" : "",
      "rate_count" : 0,
      "ipci" : "",
      "rrps" : [

      ],
      "release_time" : "",
      "title_ad" : [

      ],
      "sc" : 0,
      "cook_time" : "10分钟左右",
      "cook_id" : "2412771",
      "cookstep" : [
        {
          "thumb" : "https:\/\/i1.douguo.com\/upload\/caiku\/c\/1\/e\/140_c1c903b79105bc62d4d80bbca74597be.jpg",
          "position" : 1,
          "content" : "一个牛油果脱掉脱掉脱掉",
          "image" : "https:\/\/i1.douguo.com\/upload\/caiku\/c\/1\/e\/c1c903b79105bc62d4d80bbca74597be.jpg",
          "image_height" : 1067,
          "image_width" : 800,
          "frame" : "-1"
        },
        {
          "image_height" : 1536,
          "thumb" : "https:\/\/i1.douguo.com\/upload\/caiku\/3\/7\/9\/140_37650d24f70ee8910aaebc7ec31e6d99.jpg",
          "image_width" : 1152,
          "image" : "https:\/\/i1.douguo.com\/upload\/caiku\/3\/7\/9\/37650d24f70ee8910aaebc7ec31e6d99.jpg",
          "content" : "用勺子无情的碾压成泥",
          "frame" : "-1",
          "position" : 2
        },
        {
          "image_width" : 1152,
          "position" : 3,
          "image_height" : 1536,
          "thumb" : "https:\/\/i1.douguo.com\/upload\/caiku\/d\/d\/a\/140_ddf201b0e2b1db6f8f5c8323eb5559ea.jpg",
          "content" : "放盐",
          "frame" : "-1",
          "image" : "https:\/\/i1.douguo.com\/upload\/caiku\/d\/d\/a\/ddf201b0e2b1db6f8f5c8323eb5559ea.jpg"
        },
        {
          "image" : "https:\/\/i1.douguo.com\/upload\/caiku\/f\/6\/2\/f6485a85a93dd568f457f0bee5e8f332.jpg",
          "content" : "辣根，可选项",
          "image_width" : 1280,
          "thumb" : "https:\/\/i1.douguo.com\/upload\/caiku\/f\/6\/2\/140_f6485a85a93dd568f457f0bee5e8f332.jpg",
          "frame" : "-1",
          "position" : 4,
          "image_height" : 960
        },
        {
          "thumb" : "https:\/\/i1.douguo.com\/upload\/caiku\/3\/1\/b\/140_3135df09b4a1b3f2303509fa26ef2f0b.jpg",
          "image" : "https:\/\/i1.douguo.com\/upload\/caiku\/3\/1\/b\/3135df09b4a1b3f2303509fa26ef2f0b.jpg",
          "image_width" : 960,
          "content" : "香菜末，青椒末，西红柿末(偶家此时木有西红柿了，其实我本人还是中意放点西红柿丁的)",
          "image_height" : 1920,
          "frame" : "-1",
          "position" : 5
        },
        {
          "frame" : "-1",
          "image_width" : 960,
          "content" : "披萨草，国内我看淘宝就有卖，放不放都行，我喜欢这股香气所以我都是放一点的",
          "image" : "https:\/\/i1.douguo.com\/upload\/caiku\/2\/f\/5\/2f2532af036cf941a4672f71e37bc3e5.jpg",
          "image_height" : 1920,
          "thumb" : "https:\/\/i1.douguo.com\/upload\/caiku\/2\/f\/5\/140_2f2532af036cf941a4672f71e37bc3e5.jpg",
          "position" : 6
        },
        {
          "image" : "https:\/\/i1.douguo.com\/upload\/caiku\/7\/9\/a\/798cea0da8868a41667055b3dd1f99ea.jpg",
          "position" : 7,
          "image_width" : 800,
          "thumb" : "https:\/\/i1.douguo.com\/upload\/caiku\/7\/9\/a\/140_798cea0da8868a41667055b3dd1f99ea.jpg",
          "image_height" : 1067,
          "frame" : "-1",
          "content" : "好了，沾苏打饼干，抹面包，沾玉米片，空嘴吃都好吃。封上盖子放冰箱可以放三两天，冰冰的更好吃"
        }
      ],
      "rate" : 0,
      "user" : {
        "fc" : 0,
        "avatar_medium" : "http:\/\/tx1.douguo.net\/upload\/photo\/8\/a\/f\/140_u18608386515996021311.jpg",
        "coursecount" : 0,
        "userid" : "7456935",
        "pc" : 0,
        "recipes_count" : 0,
        "user_cover" : "",
        "lv" : 0,
        "qzone_nick" : "",
        "age" : "",
        "dishes_count" : 0,
        "followers_count" : 0,
        "user_photo" : "http:\/\/tx1.douguo.net\/upload\/photo\/8\/a\/f\/70_u18608386515996021311.jpg",
        "email" : "",
        "progress_image" : "",
        "user_large_photo" : "http:\/\/tx1.douguo.net\/upload\/photo\/8\/a\/f\/yuan_u18608386515996021311.jpg",
        "verified_image" : "",
        "qq_weibo_nick" : "",
        "verified_url" : "https:\/\/m.douguo.com\/user\/prodesc",
        "subscription_article_count" : 0,
        "subscription" : 0,
        "mobile" : "",
        "regist_time" : "",
        "birthday" : "",
        "setted_email" : 0,
        "introduction" : "",
        "nick" : "米勒嘟巴嘟",
        "lvl" : 4,
        "sign" : "",
        "diaries_count" : 0,
        "favorites_count" : 0,
        "point" : 0,
        "weibo_nick" : "",
        "following_count" : 0,
        "gender" : 1,
        "location" : 0,
        "user_id" : "7456935",
        "verified" : 0,
        "favor_diaries_count" : 0,
        "is_prime" : 0
      },
      "guide_image" : "",
      "act_des" : "",
      "dish_count_text" : "",
      "rate_show" : 0,
      "rpt" : "",
      "btm_dsp" : [

      ],
      "comments" : [
        "{\n    ac = \"#999999\";\n    at = \"\";\n    ccc = 1;\n    \"child_comments\" =     (\n                {\n            ac = \"#999999\";\n            at = \"\\U5929\\U6d25\\U5e02\";\n            ccc = 0;\n            city = \"\\U5929\\U6d25\\U5e02\";\n            cmc = 2;\n            content =             (\n                                {\n                    c = \" \\Ud83d\\Ude04\";\n                }\n            );\n            ia = 1;\n            id = 7864042;\n            \"ip_address_location\" = \"\";\n            like = 0;\n            \"like_count\" = 0;\n            \"reply_id\" = 7678178;\n            \"reply_user\" =             {\n                \"followers_count_text\" = \"\";\n                id = 23543073;\n                \"is_prime\" = 0;\n                lv = 0;\n                lvl = 1;\n                n = \"\\U6a31\\U6843\\U718a\";\n                p = \"http:\/\/tx1.douguo.net\/upload\/photo\/8\/4\/9\/70_u56485995340329132707.jpg\";\n                \"progress_image\" = \"\";\n                \"recipes_count_text\" = \"\";\n                relationship = \"-1\";\n                title = \"\";\n                v = 0;\n                \"verified_image\" = \"\";\n            };\n            \"sticker_icon\" =             (\n            );\n            time = \"2020-04-09 12:14:22\";\n            u =             {\n                \"followers_count_text\" = \"\";\n                id = 7456935;\n                \"is_prime\" = 0;\n                lv = 0;\n                lvl = 4;\n                n = \"\\U7c73\\U52d2\\U561f\\U5df4\\U561f\";\n                p = \"http:\/\/tx1.douguo.net\/upload\/photo\/8\/a\/f\/70_u18608386515996021311.jpg\";\n                \"progress_image\" = \"\";\n                \"recipes_count_text\" = \"\";\n                relationship = \"-1\";\n                title = \"\";\n                v = 0;\n                \"verified_image\" = \"\";\n            };\n        }\n    );\n    city = \"\";\n    cmc = 2;\n    content =     (\n                {\n            c = \"\\U633a\\U4e0d\\U9519\\U7684\";\n        }\n    );\n    ia = 0;\n    id = 7678178;\n    \"ip_address_location\" = \"\";\n    like = 0;\n    \"like_count\" = 0;\n    \"reply_id\" = 0;\n    \"sticker_icon\" =     (\n    );\n    time = \"2020-02-26 00:03:19\";\n    u =     {\n        \"followers_count_text\" = \"\";\n        id = 23543073;\n        \"is_prime\" = 0;\n        lv = 0;\n        lvl = 1;\n        n = \"\\U6a31\\U6843\\U718a\";\n        p = \"http:\/\/tx1.douguo.net\/upload\/photo\/8\/4\/9\/70_u56485995340329132707.jpg\";\n        \"progress_image\" = \"\";\n        \"recipes_count_text\" = \"\";\n        relationship = \"-1\";\n        title = \"\";\n        v = 0;\n        \"verified_image\" = \"\";\n    };\n}",
        "{\n    ac = \"#999999\";\n    at = \"\";\n    ccc = 0;\n    \"child_comments\" =     (\n    );\n    city = \"\";\n    cmc = 2;\n    content =     (\n                {\n            c = \"\\U8fd9\\U624d\\U662f\\U751f\\U6d3b\";\n        }\n    );\n    ia = 0;\n    id = 7678228;\n    \"ip_address_location\" = \"\";\n    like = 0;\n    \"like_count\" = 0;\n    \"reply_id\" = 0;\n    \"sticker_icon\" =     (\n    );\n    time = \"2020-02-26 00:23:09\";\n    u =     {\n        \"followers_count_text\" = \"\";\n        id = 18540581;\n        \"is_prime\" = 0;\n        lv = 0;\n        lvl = 4;\n        n = \"\\U5a9b\\U5a9b122\";\n        p = \"http:\/\/tx1.douguo.net\/upload\/photo\/f\/0\/6\/70_u86493701329052171855.jpg\";\n        \"progress_image\" = \"\";\n        \"recipes_count_text\" = \"\";\n        relationship = \"-1\";\n        title = \"\";\n        v = 0;\n        \"verified_image\" = \"\";\n    };\n}",
        "{\n    ac = \"#999999\";\n    at = \"\";\n    ccc = 0;\n    \"child_comments\" =     (\n    );\n    city = \"\";\n    cmc = 2;\n    content =     (\n                {\n            c = \"\\U8ba9\\U6211\\U5c1d\\U4e00\\U53e3\\U6211\\U4f4e\\U843d\\U7684\\U5fc3\\U60c5\\U4e00\\U5b9a\\U4f1a\\U9a6c\\U4e0a\\U597d\\U8f6c\\U54d2\";\n        }\n    );\n    ia = 0;\n    id = 7678057;\n    \"ip_address_location\" = \"\";\n    like = 0;\n    \"like_count\" = 0;\n    \"reply_id\" = 0;\n    \"sticker_icon\" =     (\n    );\n    time = \"2020-02-25 23:49:10\";\n    u =     {\n        \"followers_count_text\" = \"\";\n        id = 23584902;\n        \"is_prime\" = 0;\n        lv = 0;\n        lvl = 4;\n        n = \"\\U756a\\U8304\\U5b50\\U5148\\U68ee\";\n        p = \"http:\/\/tx1.douguo.net\/upload\/photo\/d\/1\/9\/70_u4727424377040329200959.jpg\";\n        \"progress_image\" = \"\";\n        \"recipes_count_text\" = \"\";\n        relationship = \"-1\";\n        title = \"\";\n        v = 0;\n        \"verified_image\" = \"\";\n    };\n}"
      ],
      "rips" : 0,
      "purl" : "",
      "vu" : "",
      "rsm" : "该功能暂停使用",
      "cook_difficulty_image" : "https:\/\/i1.douguo.com\/upload\/banner\/1551424390.png",
      "clicks" : "7443",
      "dish_count" : 0,
      "display_ingredient" : 1,
      "related_ads" : [

      ],
      "rcs" : [

      ],
      "first_level_comment_count" : 4,
      "title" : "墨式牛油果酱",
      "original_photo_path" : "http:\/\/i1.douguo.net\/upload\/caiku\/c\/5\/9\/yuan_c5003f1b5f189328b77154761ea67569.jpg",
      "rpid" : 0,
      "story_dsp" : [

      ],
      "author_verified" : 0,
      "cook_time_image" : "https:\/\/i1.douguo.com\/upload\/banner\/1551424358.png",
      "old_comments" : [

      ],
      "thumb_height" : 0,
      "author_id" : 7456935,
      "ssu" : "",
      "collect_status" : 0,
      "top_mdsp" : [

      ],
      "image" : "http:\/\/i1.douguo.net\/upload\/caiku\/c\/5\/9\/300_c5003f1b5f189328b77154761ea67569.jpg",
      "hq" : 0,
      "bs" : [

      ],
      "rpst" : "",
      "author_photo" : "http:\/\/tx1.douguo.net\/upload\/photo\/8\/a\/f\/70_u18608386515996021311.jpg",
      "eu" : "recipes:\/\/www.douguo.com\/postdetail?id=242016",
      "ipt" : "",
      "notes" : [

      ],
      "dishes" : [

      ],
      "ph" : 800,
      "rrpt" : "",
      "author" : "米勒嘟巴嘟",
      "ipoi" : "",
      "packages_id" : [

      ],
      "tags" : [

      ],
      "v_u" : "",
      "ipia" : [

      ],
      "recommendation_tag" : "",
      "thumb_path" : "https:\/\/i1.douguo.com\/upload\/caiku\/c\/5\/9\/300_c5003f1b5f189328b77154761ea67569.jpg",
      "ecs" : 1,
      "pw" : 600
    }
  },
  "status" : 0
}