{
  "result" : {
    "recipe" : {
      "cookstorys" : [
        {
          "type" : 0,
          "icon" : "",
          "c" : "甜甜辣辣的酱汁，劲道Q弹的八爪鱼，软嫩厚实的杏鲍菇，减肥的宝可以吃",
          "color" : "",
          "u" : "",
          "id" : 0
        },
        {
          "u" : "",
          "icon" : "",
          "color" : "",
          "type" : 0,
          "id" : 0,
          "c" : "\n参与活动:"
        },
        {
          "type" : 0,
          "id" : 0,
          "u" : "https:\/\/m.douguo.com\/activity\/ncpzj\/detail\/3306?isapp=1&open=0&_vs=1000300&&dg_refreshkey=publishnote",
          "c" : "#免费申领｜暖冬酱在手，嗨吃部队锅#",
          "icon" : ""
        }
      ],
      "rate_show" : 0,
      "author_id" : 24982995,
      "bs" : [

      ],
      "title_ad" : [

      ],
      "original_photo_path" : "http:\/\/i1.douguo.net\/upload\/caiku\/4\/3\/0\/yuan_43fe907b0a1284f8a417d8b1cea5eeb0.jpg",
      "story_dsp" : [

      ],
      "cook_time" : "10~30分钟",
      "vfurl" : "",
      "clicks" : "1",
      "pw" : 1050,
      "ss" : [

      ],
      "recent_comments" : [

      ],
      "advice" : {
        "has" : [
          {
            "url" : "recipes:\/\/www.douguo.com\/simplerecipelist?t=低脂&id=低脂",
            "t" : "低脂"
          },
          {
            "url" : "recipes:\/\/www.douguo.com\/simplerecipelist?t=高盐&id=高盐",
            "t" : "高盐"
          }
        ],
        "da" : {
          "t" : "查看详细分析",
          "url" : "https:\/\/m.douguo.com\/recipe\/nutrient_self\/3158115",
          "iu" : "https:\/\/i1.douguo.com\/upload\/banner\/f\/4\/d\/f48877e53c37759bc12ac494be82ec8d.png"
        },
        "at" : "能有效控制体重～"
      },
      "dish_count" : 0,
      "author_verified" : 0,
      "release_time" : "",
      "purl" : "",
      "rate_count" : 0,
      "rips" : 0,
      "su" : "",
      "cookwares" : [

      ],
      "cookstep" : [
        {
          "image" : "https:\/\/i1.douguo.com\/upload\/caiku\/7\/8\/7\/786e4f366d87213555fe007bc04d44f7.jpg",
          "frame" : "-1",
          "position" : 1,
          "image_width" : 1280,
          "thumb" : "https:\/\/i1.douguo.com\/upload\/caiku\/7\/8\/7\/140_786e4f366d87213555fe007bc04d44f7.jpg",
          "content" : "准备食材",
          "image_height" : 1280
        },
        {
          "content" : "杏鲍菇切块\n八爪鱼洗净，加适量面粉抓洗干净，剥掉表层的薄皮，把鱼头里面清理干净",
          "image" : "https:\/\/i1.douguo.com\/upload\/caiku\/4\/4\/2\/44a3144c76dc741a4bb1b2789b80fa12.jpg",
          "frame" : "-1",
          "thumb" : "https:\/\/i1.douguo.com\/upload\/caiku\/4\/4\/2\/140_44a3144c76dc741a4bb1b2789b80fa12.jpg",
          "image_width" : 1280,
          "position" : 2,
          "image_height" : 1280
        },
        {
          "image_height" : 1280,
          "image_width" : 1280,
          "thumb" : "https:\/\/i1.douguo.com\/upload\/caiku\/f\/f\/b\/140_ff81bfa9ac95be9a29a14de6e67b839b.jpg",
          "content" : "锅中加冷水，放葱段姜片一勺料酒",
          "image" : "https:\/\/i1.douguo.com\/upload\/caiku\/f\/f\/b\/ff81bfa9ac95be9a29a14de6e67b839b.jpg",
          "position" : 3,
          "frame" : "-1"
        },
        {
          "image" : "https:\/\/i1.douguo.com\/upload\/caiku\/9\/1\/3\/91cd74c37398c86d5eff8510c2232133.jpg",
          "image_height" : 1280,
          "image_width" : 1280,
          "thumb" : "https:\/\/i1.douguo.com\/upload\/caiku\/9\/1\/3\/140_91cd74c37398c86d5eff8510c2232133.jpg",
          "content" : "煮出浮沫，捞出洗净",
          "frame" : "-1",
          "position" : 4
        },
        {
          "position" : 5,
          "frame" : "-1",
          "image_width" : 1280,
          "image_height" : 1280,
          "content" : "加入韩式辣酱及其他调料，抓拌均匀，腌制1小时或者冷藏腌制一晚",
          "thumb" : "https:\/\/i1.douguo.com\/upload\/caiku\/b\/6\/6\/140_b67f59af87fd49f76ec4e3d31771e976.jpg",
          "image" : "https:\/\/i1.douguo.com\/upload\/caiku\/b\/6\/6\/b67f59af87fd49f76ec4e3d31771e976.jpg"
        },
        {
          "image_height" : 1280,
          "frame" : "-1",
          "image" : "https:\/\/i1.douguo.com\/upload\/caiku\/1\/3\/0\/135bdbeee16e4af38533a6b3d186a750.jpg",
          "content" : "锅中加少许油",
          "thumb" : "https:\/\/i1.douguo.com\/upload\/caiku\/1\/3\/0\/140_135bdbeee16e4af38533a6b3d186a750.jpg",
          "position" : 6,
          "image_width" : 1280
        },
        {
          "image_width" : 1280,
          "position" : 7,
          "image_height" : 1280,
          "thumb" : "https:\/\/i1.douguo.com\/upload\/caiku\/d\/c\/d\/140_dc8a1d17dff1f68cf43b15c9fe960a7d.jpg",
          "image" : "https:\/\/i1.douguo.com\/upload\/caiku\/d\/c\/d\/dc8a1d17dff1f68cf43b15c9fe960a7d.jpg",
          "content" : "放入八爪鱼，煎煮模式翻炒",
          "frame" : "-1"
        },
        {
          "frame" : "-1",
          "image" : "https:\/\/i1.douguo.com\/upload\/caiku\/4\/7\/b\/477322f840af4edbec64c383b84c5a4b.jpg",
          "image_height" : 1280,
          "content" : "炒香加杏鲍菇炒1-2分钟",
          "image_width" : 1280,
          "thumb" : "https:\/\/i1.douguo.com\/upload\/caiku\/4\/7\/b\/140_477322f840af4edbec64c383b84c5a4b.jpg",
          "position" : 8
        },
        {
          "content" : "倒入碗中剩余酱料，加适量水，盖上盖子，炖煮10分钟左右",
          "image" : "https:\/\/i1.douguo.com\/upload\/caiku\/8\/f\/2\/8f93f3438ce25b7d21272d7519958142.jpg",
          "image_height" : 1280,
          "thumb" : "https:\/\/i1.douguo.com\/upload\/caiku\/8\/f\/2\/140_8f93f3438ce25b7d21272d7519958142.jpg",
          "image_width" : 1280,
          "frame" : "-1",
          "position" : 9
        },
        {
          "image_width" : 1050,
          "content" : "出锅前淋适量香油提香，撒白芝麻",
          "frame" : "-1",
          "position" : 10,
          "image_height" : 1400,
          "thumb" : "https:\/\/i1.douguo.com\/upload\/caiku\/f\/a\/7\/140_fae0c5f019b7da99b5e2b2f6526d6bd7.jpg",
          "image" : "https:\/\/i1.douguo.com\/upload\/caiku\/f\/a\/7\/fae0c5f019b7da99b5e2b2f6526d6bd7.jpg"
        }
      ],
      "minor" : [

      ],
      "recommendation_tag" : "",
      "share_info" : {
        "mini_program" : [

        ],
        "object_id" : "3158115",
        "name" : "#暖冬酱在手，嗨吃部队锅#韩式料理｜辣炖八爪鱼米饭杀手-会做饭很酷!",
        "s_d" : "#暖冬酱在手，嗨吃部队锅#韩式料理｜辣炖八爪鱼米饭杀手-会做饭很酷!",
        "qr_image" : "",
        "s_u" : "http:\/\/m.douguo.com\/cookbook\/3158115.html",
        "image" : "https:\/\/cp1.douguo.com\/upload\/caiku\/4\/3\/0\/43fe907b0a1284f8a417d8b1cea5eeb0.jpg",
        "infos" : [
          {
            "s_u" : "",
            "channel" : "1",
            "qr_image" : "",
            "s_d" : "#学做饭用豆果美食# 我在@豆果美食 分享了【#暖冬酱在手，嗨吃部队锅#韩式料理｜辣炖八爪鱼米饭杀手-会做饭很酷!】，色香味俱全说的就是这道菜！查看图片了解菜谱（快来点击https:\/\/m.weibo.cn\/p\/100404i33631和我一起修炼厨艺吧）#会做饭很酷# ",
            "mini_program" : [

            ],
            "image" : "https:\/\/cp1.douguo.com\/upload\/caiku\/4\/3\/0\/43fe907b0a1284f8a417d8b1cea5eeb0.jpg",
            "object_id" : "3158115",
            "name" : "#暖冬酱在手，嗨吃部队锅#韩式料理｜辣炖八爪鱼米饭杀手-会做饭很酷!"
          },
          {
            "mini_program" : [

            ],
            "object_id" : "3158115",
            "image" : "https:\/\/cp1.douguo.com\/upload\/caiku\/4\/3\/0\/43fe907b0a1284f8a417d8b1cea5eeb0.jpg",
            "s_u" : "http:\/\/m.douguo.com\/cookbook\/3158115.html",
            "channel" : "7",
            "s_d" : "#暖冬酱在手，嗨吃部队锅#韩式料理｜辣炖八爪鱼米饭杀手-会做饭很酷!",
            "qr_image" : "",
            "name" : "#暖冬酱在手，嗨吃部队锅#韩式料理｜辣炖八爪鱼米饭杀手-会做饭很酷!"
          },
          {
            "qr_image" : "",
            "s_d" : "#暖冬酱在手，嗨吃部队锅#韩式料理｜辣炖八爪鱼米饭杀手-会做饭很酷!",
            "name" : "#暖冬酱在手，嗨吃部队锅#韩式料理｜辣炖八爪鱼米饭杀手-会做饭很酷!",
            "object_id" : "3158115",
            "image" : "https:\/\/cp1.douguo.com\/upload\/caiku\/4\/3\/0\/43fe907b0a1284f8a417d8b1cea5eeb0.jpg",
            "mini_program" : [

            ],
            "s_u" : "http:\/\/m.douguo.com\/cookbook\/3158115.html",
            "channel" : "8"
          }
        ]
      },
      "ipoi" : "",
      "first_level_comment_count" : 1,
      "views_count_text" : "11.2万",
      "ecs" : 1,
      "ipurl" : "",
      "thumb_height" : 0,
      "rpt" : "",
      "cook_difficulty_image" : "https:\/\/i1.douguo.com\/upload\/banner\/1551424390.png",
      "thumb_path" : "https:\/\/i1.douguo.com\/upload\/caiku\/4\/3\/0\/300_43fe907b0a1284f8a417d8b1cea5eeb0.jpg",
      "rrpt" : "",
      "image" : "http:\/\/i1.douguo.net\/upload\/caiku\/4\/3\/0\/300_43fe907b0a1284f8a417d8b1cea5eeb0.jpg",
      "display_ingredient" : 1,
      "rewarded_video_dsp" : [

      ],
      "event" : {
        "id" : 3306,
        "name" : "免费申领｜暖冬酱在手，嗨吃部队锅",
        "url" : "https:\/\/m.douguo.com\/activity\/ncpzj\/detail\/3306?isapp=1&open=0&_vs=1000300&&dg_refreshkey=publishnote"
      },
      "comments_count_text" : "2",
      "rpid" : 0,
      "eu" : "recipes:\/\/www.douguo.com\/postdetail?id=242016",
      "cookstory" : "甜甜辣辣的酱汁，劲道Q弹的八爪鱼，软嫩厚实的杏鲍菇，减肥的宝可以吃",
      "favo_counts_text" : "3411",
      "user" : {
        "following_count" : 0,
        "mobile" : "",
        "avatar_medium" : "http:\/\/tx1.douguo.net\/upload\/photo\/f\/a\/d\/140_fae15f0e805227275edfaca72407b47d.jpg",
        "lvl" : 6,
        "favorites_count" : 0,
        "verified_image" : "",
        "user_cover" : "",
        "nick" : "坤坤的女孩儿",
        "lv" : 0,
        "favor_diaries_count" : 0,
        "birthday" : "",
        "user_photo" : "http:\/\/tx1.douguo.net\/upload\/photo\/f\/a\/d\/70_fae15f0e805227275edfaca72407b47d.jpg",
        "qzone_nick" : "",
        "introduction" : "",
        "is_prime" : 0,
        "sign" : "",
        "dishes_count" : 0,
        "verified_url" : "https:\/\/m.douguo.com\/user\/prodesc",
        "coursecount" : 0,
        "verified" : 0,
        "user_large_photo" : "http:\/\/tx1.douguo.net\/upload\/photo\/f\/a\/d\/yuan_fae15f0e805227275edfaca72407b47d.jpg",
        "user_id" : "24982995",
        "qq_weibo_nick" : "",
        "progress_image" : "",
        "fc" : 0,
        "age" : "",
        "point" : 0,
        "weibo_nick" : "",
        "location" : 0,
        "pc" : 0,
        "gender" : 2,
        "email" : "",
        "recipes_count" : 0,
        "regist_time" : "",
        "userid" : "24982995",
        "setted_email" : 0,
        "followers_count" : 0,
        "diaries_count" : 0,
        "subscription_article_count" : 0,
        "subscription" : 0
      },
      "comments_count" : 2,
      "mid_mdsp" : [

      ],
      "btm_dsp" : [

      ],
      "tips" : "",
      "top_mdsp" : [

      ],
      "sc" : 0,
      "collect_status" : 0,
      "notes" : [

      ],
      "levelid" : 2,
      "old_comments" : [

      ],
      "guide_image" : "",
      "vc" : "112325",
      "brand_day_dsp" : [

      ],
      "cook_difficulty" : "切墩(初级)",
      "ssu" : "",
      "ipt" : "",
      "rdsps" : [

      ],
      "act_des" : "",
      "rpst" : "",
      "hq" : 1,
      "favo_counts" : 3411,
      "rsm" : "该功能暂停使用",
      "create_time" : "2021-12-21 13:57:18",
      "recipe_list_tags" : [
        {
          "text_color" : "#141515",
          "text" : "关注的人",
          "background_border_color" : "",
          "background_end_color" : "#F4F5F5",
          "jump_url" : "",
          "background_start_color" : "#F4F5F5",
          "right_image" : ""
        }
      ],
      "cook_id" : "3158115",
      "recipe_tags" : [

      ],
      "related_ads" : [

      ],
      "dishes" : [

      ],
      "photo_path" : "https:\/\/i1.douguo.com\/upload\/caiku\/4\/3\/0\/600_43fe907b0a1284f8a417d8b1cea5eeb0.jpg",
      "major" : [
        {
          "note" : "1个",
          "title" : "杏鲍菇",
          "tu" : "https:\/\/m.douguo.com\/ingredients\/杏鲍菇\/detailmaterial"
        },
        {
          "note" : "适量",
          "title" : "八爪鱼"
        },
        {
          "note" : "3段",
          "title" : "葱段"
        },
        {
          "note" : "2片",
          "title" : "姜片",
          "tu" : "https:\/\/m.douguo.com\/ingredients\/姜片\/detailmaterial"
        },
        {
          "note" : "1.5勺",
          "title" : "韩式辣酱"
        },
        {
          "tu" : "https:\/\/m.douguo.com\/ingredients\/料酒\/detailmaterial",
          "note" : "2勺",
          "title" : "料酒"
        },
        {
          "note" : "1勺",
          "title" : "生抽",
          "tu" : "https:\/\/m.douguo.com\/ingredients\/生抽\/detailmaterial"
        },
        {
          "title" : "辣椒粉",
          "tu" : "https:\/\/m.douguo.com\/ingredients\/辣椒粉\/detailmaterial",
          "note" : "1勺"
        },
        {
          "note" : "1勺",
          "title" : "白醋",
          "tu" : "https:\/\/m.douguo.com\/ingredients\/白醋\/detailmaterial"
        },
        {
          "note" : "½勺",
          "title" : "糖",
          "tu" : "https:\/\/m.douguo.com\/ingredients\/糖\/detailmaterial"
        },
        {
          "title" : "盐",
          "tu" : "https:\/\/m.douguo.com\/ingredients\/盐\/detailmaterial",
          "note" : "适量"
        },
        {
          "note" : "适量",
          "title" : "黑椒碎"
        },
        {
          "tu" : "https:\/\/m.douguo.com\/ingredients\/香油\/detailmaterial",
          "title" : "香油",
          "note" : "适量"
        },
        {
          "tu" : "https:\/\/m.douguo.com\/ingredients\/白芝麻\/detailmaterial",
          "note" : "适量",
          "title" : "白芝麻"
        }
      ],
      "recommend_label" : "3411人刚刚收藏过",
      "ipia" : [

      ],
      "dish_count_text" : "",
      "ipit" : 0,
      "rate" : 0,
      "rcs" : [

      ],
      "author_photo" : "http:\/\/tx1.douguo.net\/upload\/photo\/f\/a\/d\/70_fae15f0e805227275edfaca72407b47d.jpg",
      "v_u" : "",
      "sr" : "",
      "rrps" : [

      ],
      "ph" : 1400,
      "hqu" : "recipes:\/\/www.douguo.com\/notedetail?id=21162253",
      "packages_id" : [

      ],
      "author" : "坤坤的女孩儿",
      "ipci" : "",
      "recommended" : 0,
      "title" : "韩式料理｜辣炖八爪鱼米饭杀手",
      "tags" : [

      ],
      "vu" : "",
      "cook_time_image" : "https:\/\/i1.douguo.com\/upload\/banner\/1551424341.png",
      "comments" : [
        "{\n    ac = \"#999999\";\n    at = \"\";\n    ccc = 1;\n    \"child_comments\" =     (\n                {\n            ac = \"#999999\";\n            at = \"\\U7261\\U4e39\\U6c5f\\U5e02\";\n            ccc = 0;\n            city = \"\\U7261\\U4e39\\U6c5f\\U5e02\";\n            cmc = 2;\n            content =             (\n                                {\n                    c = \" \\Ud83d\\Ude01\\Ud83d\\Ude01\\U5f00\\U5fc3\";\n                }\n            );\n            ia = 1;\n            id = 8896543;\n            \"ip_address_location\" = \"\";\n            like = 0;\n            \"like_count\" = 0;\n            \"reply_id\" = 8895150;\n            \"reply_user\" =             {\n                \"followers_count_text\" = \"\";\n                id = 24642624;\n                \"is_prime\" = 0;\n                lv = 0;\n                lvl = 2;\n                n = \"\\U5e78\\U8fd0\\U513f9800tV\";\n                p = \"http:\/\/tx1.douguo.net\/upload\/photo\/9\/5\/f\/70_u94000207576915214115.jpeg\";\n                \"progress_image\" = \"\";\n                \"recipes_count_text\" = \"\";\n                relationship = \"-1\";\n                title = \"\";\n                v = 0;\n                \"verified_image\" = \"\";\n            };\n            \"sticker_icon\" =             (\n            );\n            time = \"2021-12-22 17:01:14\";\n            u =             {\n                \"followers_count_text\" = \"\";\n                id = 24982995;\n                \"is_prime\" = 0;\n                lv = 0;\n                lvl = 6;\n                n = \"\\U5764\\U5764\\U7684\\U5973\\U5b69\\U513f\";\n                p = \"http:\/\/tx1.douguo.net\/upload\/photo\/f\/a\/d\/70_fae15f0e805227275edfaca72407b47d.jpg\";\n                \"progress_image\" = \"\";\n                \"recipes_count_text\" = \"\";\n                relationship = \"-1\";\n                title = \"\";\n                v = 0;\n                \"verified_image\" = \"\";\n            };\n        }\n    );\n    city = \"\";\n    cmc = 2;\n    content =     (\n                {\n            c = \"\\U770b\\U8d77\\U6765\\U5c31\\U5f88\\U4e0d\\U9519\\Uff0c\\U5f88\\U6709\\U98df\\U6b32\\U7684\\U3002\";\n        }\n    );\n    ia = 0;\n    id = 8895150;\n    \"ip_address_location\" = \"\";\n    like = 0;\n    \"like_count\" = 0;\n    \"reply_id\" = 0;\n    \"sticker_icon\" =     (\n    );\n    time = \"2021-12-21 14:41:06\";\n    u =     {\n        \"followers_count_text\" = \"\";\n        id = 24642624;\n        \"is_prime\" = 0;\n        lv = 0;\n        lvl = 2;\n        n = \"\\U5e78\\U8fd0\\U513f9800tV\";\n        p = \"http:\/\/tx1.douguo.net\/upload\/photo\/9\/5\/f\/70_u94000207576915214115.jpeg\";\n        \"progress_image\" = \"\";\n        \"recipes_count_text\" = \"\";\n        relationship = \"-1\";\n        title = \"\";\n        v = 0;\n        \"verified_image\" = \"\";\n    };\n}"
      ]
    }
  },
  "state" : "success",
  "status" : 0
}