{
  "result" : {
    "recipe" : {
      "cook_difficulty" : "切墩(初级)",
      "old_comments" : [

      ],
      "ipit" : 0,
      "original_photo_path" : "http:\/\/i1.douguo.net\/upload\/caiku\/5\/f\/6\/yuan_5fb2ca3b8ae04cdd28a0cb83645e1d56.jpeg",
      "ipt" : "",
      "ph" : 1252,
      "purl" : "",
      "recipe_list_tags" : [
        {
          "right_image" : "",
          "text" : "关注的人",
          "background_border_color" : "",
          "background_start_color" : "#F4F5F5",
          "text_color" : "#141515",
          "jump_url" : "",
          "background_end_color" : "#F4F5F5"
        }
      ],
      "cookstep" : [
        {
          "content" : "金针菇去根部洗净撕开。",
          "image_height" : 1920,
          "image" : "https:\/\/i1.douguo.com\/upload\/caiku\/4\/d\/7\/4d0071b219caca846a77eda8cd7aaac7.jpeg",
          "image_width" : 1440,
          "thumb" : "https:\/\/i1.douguo.com\/upload\/caiku\/4\/d\/7\/140_4d0071b219caca846a77eda8cd7aaac7.jpeg",
          "position" : 1,
          "frame" : "-1"
        },
        {
          "position" : 2,
          "frame" : "-1",
          "image_height" : 1920,
          "image" : "https:\/\/i1.douguo.com\/upload\/caiku\/9\/2\/a\/9270164b4a90fac2c6a86c91c2515b3a.jpeg",
          "image_width" : 1440,
          "thumb" : "https:\/\/i1.douguo.com\/upload\/caiku\/9\/2\/a\/140_9270164b4a90fac2c6a86c91c2515b3a.jpeg",
          "content" : "肥牛卷提前拿出化冻。"
        },
        {
          "image_width" : 1440,
          "frame" : "-1",
          "thumb" : "https:\/\/i1.douguo.com\/upload\/caiku\/1\/f\/5\/140_1f4fc5f4eca1e7c3d651f79a3f521bc5.jpeg",
          "image" : "https:\/\/i1.douguo.com\/upload\/caiku\/1\/f\/5\/1f4fc5f4eca1e7c3d651f79a3f521bc5.jpeg",
          "image_height" : 1920,
          "position" : 3,
          "content" : "锅中水烧开后关火下肥牛片去血沫捞出。开锅煮肥牛就老了发硬。"
        },
        {
          "image_width" : 1440,
          "content" : "洋葱切丁，葱蒜切碎和片。",
          "image_height" : 1920,
          "image" : "https:\/\/i1.douguo.com\/upload\/caiku\/d\/1\/d\/d15685a8ef4d88a341cf10c1307dfd1d.jpeg",
          "frame" : "-1",
          "position" : 4,
          "thumb" : "https:\/\/i1.douguo.com\/upload\/caiku\/d\/1\/d\/140_d15685a8ef4d88a341cf10c1307dfd1d.jpeg"
        },
        {
          "image_height" : 1920,
          "image_width" : 1440,
          "thumb" : "https:\/\/i1.douguo.com\/upload\/caiku\/a\/5\/3\/140_a58ed8052eff2e5de582604019adbbb3.jpeg",
          "content" : "青红米椒切圈。",
          "image" : "https:\/\/i1.douguo.com\/upload\/caiku\/a\/5\/3\/a58ed8052eff2e5de582604019adbbb3.jpeg",
          "position" : 5,
          "frame" : "-1"
        },
        {
          "image" : "https:\/\/i1.douguo.com\/upload\/caiku\/c\/f\/a\/cf593019abdc444c2ec08f9500a7438a.jpeg",
          "frame" : "-1",
          "position" : 6,
          "thumb" : "https:\/\/i1.douguo.com\/upload\/caiku\/c\/f\/a\/140_cf593019abdc444c2ec08f9500a7438a.jpeg",
          "content" : "锅中油热下洋葱煸炒。",
          "image_width" : 1440,
          "image_height" : 1920
        },
        {
          "content" : "下葱蒜。",
          "image" : "https:\/\/i1.douguo.com\/upload\/caiku\/a\/f\/2\/af63c56f6f49fcc164d3bc037e546f22.jpeg",
          "frame" : "-1",
          "thumb" : "https:\/\/i1.douguo.com\/upload\/caiku\/a\/f\/2\/140_af63c56f6f49fcc164d3bc037e546f22.jpeg",
          "position" : 7,
          "image_width" : 1440,
          "image_height" : 1920
        },
        {
          "image" : "https:\/\/i1.douguo.com\/upload\/caiku\/3\/0\/6\/30bbcf63c4d2a63ba8e8612380f83396.jpeg",
          "image_height" : 1920,
          "content" : "下黄辣椒酱翻炒均匀。",
          "thumb" : "https:\/\/i1.douguo.com\/upload\/caiku\/3\/0\/6\/140_30bbcf63c4d2a63ba8e8612380f83396.jpeg",
          "frame" : "-1",
          "image_width" : 1440,
          "position" : 8
        },
        {
          "position" : 9,
          "frame" : "-1",
          "image_height" : 1920,
          "image_width" : 1440,
          "content" : "加水。",
          "thumb" : "https:\/\/i1.douguo.com\/upload\/caiku\/b\/c\/5\/140_bc25a5fe1b4d9fbbc8d11d075527d9b5.jpeg",
          "image" : "https:\/\/i1.douguo.com\/upload\/caiku\/b\/c\/5\/bc25a5fe1b4d9fbbc8d11d075527d9b5.jpeg"
        },
        {
          "image_height" : 1920,
          "frame" : "-1",
          "thumb" : "https:\/\/i1.douguo.com\/upload\/caiku\/a\/0\/f\/140_a07ed654cc3fb01ba11a6f8240ac533f.jpeg",
          "content" : "加料酒、盐、白醋调味烧开。",
          "position" : 10,
          "image" : "https:\/\/i1.douguo.com\/upload\/caiku\/a\/0\/f\/a07ed654cc3fb01ba11a6f8240ac533f.jpeg",
          "image_width" : 1440
        },
        {
          "image_width" : 1440,
          "content" : "水开后捞出葱姜蒜。",
          "image" : "https:\/\/i1.douguo.com\/upload\/caiku\/3\/c\/d\/3c869328d4700b09af07866d8c3e313d.jpeg",
          "thumb" : "https:\/\/i1.douguo.com\/upload\/caiku\/3\/c\/d\/140_3c869328d4700b09af07866d8c3e313d.jpeg",
          "position" : 11,
          "frame" : "-1",
          "image_height" : 1920
        },
        {
          "image_height" : 1920,
          "position" : 12,
          "content" : "下金针菇煮开1分钟捞出，金针菇易熟不爱吃煮太烂的。",
          "image" : "https:\/\/i1.douguo.com\/upload\/caiku\/f\/b\/4\/fb5d505503d50ee2ac8076d62e10aa14.jpeg",
          "thumb" : "https:\/\/i1.douguo.com\/upload\/caiku\/f\/b\/4\/140_fb5d505503d50ee2ac8076d62e10aa14.jpeg",
          "image_width" : 1440,
          "frame" : "-1"
        },
        {
          "content" : "金针菇铺在碗底。",
          "image_width" : 1440,
          "image" : "https:\/\/i1.douguo.com\/upload\/caiku\/b\/e\/6\/bef65c1866abce7f13b77aaa57ad1766.jpeg",
          "frame" : "-1",
          "thumb" : "https:\/\/i1.douguo.com\/upload\/caiku\/b\/e\/6\/140_bef65c1866abce7f13b77aaa57ad1766.jpeg",
          "image_height" : 1920,
          "position" : 13
        },
        {
          "position" : 14,
          "content" : "下肥牛片煮三分钟即可，肥牛片很薄，又提前焯过水，时间长肉就老了。",
          "frame" : "-1",
          "image_width" : 1440,
          "image" : "https:\/\/i1.douguo.com\/upload\/caiku\/9\/e\/2\/9ea34e1461901c903dd509c41dc6ca62.jpeg",
          "thumb" : "https:\/\/i1.douguo.com\/upload\/caiku\/9\/e\/2\/140_9ea34e1461901c903dd509c41dc6ca62.jpeg",
          "image_height" : 1920
        },
        {
          "position" : 15,
          "frame" : "-1",
          "thumb" : "https:\/\/i1.douguo.com\/upload\/caiku\/4\/3\/6\/140_437fce38974c0837d203e55bab4cd8c6.jpeg",
          "image_height" : 1252,
          "image_width" : 1920,
          "image" : "https:\/\/i1.douguo.com\/upload\/caiku\/4\/3\/6\/437fce38974c0837d203e55bab4cd8c6.jpeg",
          "content" : "将肥牛片和汤一起倒入碗中，上面撒上青红米椒。酸辣开胃。"
        },
        {
          "frame" : "-1",
          "image_width" : 1920,
          "thumb" : "https:\/\/i1.douguo.com\/upload\/caiku\/b\/5\/b\/140_b549b921b2d531e10d5e8e42b3fc6b3b.jpeg",
          "content" : "成品图",
          "position" : 16,
          "image_height" : 1280,
          "image" : "https:\/\/i1.douguo.com\/upload\/caiku\/b\/5\/b\/b549b921b2d531e10d5e8e42b3fc6b3b.jpeg"
        }
      ],
      "recent_comments" : [

      ],
      "vfurl" : "",
      "rrpt" : "",
      "author" : "wiwiwi",
      "ipurl" : "",
      "top_mdsp" : [

      ],
      "ssu" : "",
      "recommendation_tag" : "",
      "thumb_height" : 0,
      "cookwares" : [

      ],
      "collect_status" : 0,
      "v_u" : "",
      "recommended" : 0,
      "cook_id" : "1713998",
      "hqu" : "recipes:\/\/www.douguo.com\/notedetail?id=21162253",
      "dish_count" : 0,
      "ecs" : 0,
      "story_dsp" : [

      ],
      "vc" : "274324",
      "tips" : "",
      "advice" : {
        "da" : {
          "iu" : "https:\/\/i1.douguo.com\/upload\/banner\/f\/4\/d\/f48877e53c37759bc12ac494be82ec8d.png",
          "t" : "查看详细分析",
          "url" : "https:\/\/m.douguo.com\/recipe\/nutrient_self\/1713998"
        },
        "at" : "可以提供多种氨基酸～",
        "has" : [
          {
            "t" : "富含蛋白质",
            "url" : "recipes:\/\/www.douguo.com\/simplerecipelist?t=富含蛋白质&id=富含蛋白质"
          },
          {
            "url" : "recipes:\/\/www.douguo.com\/simplerecipelist?t=低糖&id=低糖",
            "t" : "低糖"
          }
        ]
      },
      "rpid" : 0,
      "ipoi" : "",
      "minor" : [

      ],
      "guide_image" : "",
      "image" : "http:\/\/i1.douguo.net\/upload\/caiku\/5\/f\/6\/300_5fb2ca3b8ae04cdd28a0cb83645e1d56.jpeg",
      "rate" : 0,
      "clicks" : "266118",
      "cookstory" : "",
      "rips" : 0,
      "ipia" : [

      ],
      "dish_count_text" : "",
      "related_ads" : [

      ],
      "major" : [
        {
          "title" : "肥牛片",
          "note" : "300g"
        },
        {
          "note" : "2大勺",
          "title" : "海南黄灯笼辣椒酱"
        },
        {
          "note" : "1把",
          "title" : "金针菇",
          "tu" : "https:\/\/m.douguo.com\/ingredients\/金针菇\/detailmaterial"
        },
        {
          "note" : "适量",
          "title" : "葱姜",
          "tu" : "https:\/\/m.douguo.com\/ingredients\/葱姜\/detailmaterial"
        },
        {
          "note" : "适量",
          "title" : "白醋",
          "tu" : "https:\/\/m.douguo.com\/ingredients\/白醋\/detailmaterial"
        },
        {
          "note" : "适量",
          "title" : "姜蒜、洋葱"
        },
        {
          "note" : "适量",
          "title" : "青红米椒"
        },
        {
          "note" : "适量",
          "title" : "料酒",
          "tu" : "https:\/\/m.douguo.com\/ingredients\/料酒\/detailmaterial"
        },
        {
          "tu" : "https:\/\/m.douguo.com\/ingredients\/盐\/detailmaterial",
          "note" : "适量",
          "title" : "盐"
        }
      ],
      "sc" : 0,
      "share_info" : {
        "qr_image" : "",
        "image" : "https:\/\/cp1.douguo.com\/upload\/caiku\/5\/f\/6\/5fb2ca3b8ae04cdd28a0cb83645e1d56.jpeg",
        "object_id" : "1713998",
        "infos" : [
          {
            "image" : "https:\/\/cp1.douguo.com\/upload\/caiku\/5\/f\/6\/5fb2ca3b8ae04cdd28a0cb83645e1d56.jpeg",
            "qr_image" : "",
            "mini_program" : [

            ],
            "object_id" : "1713998",
            "channel" : "1",
            "name" : "酸汤肥牛-会做饭很酷!",
            "s_u" : "",
            "s_d" : "#学做饭用豆果美食# 我在@豆果美食 分享了【酸汤肥牛-会做饭很酷!】，帅哥美眉们～你们喜欢的美食来咯！快来跟我一起做吧～查看图片了解菜谱（想要获取更多美食就看这https:\/\/m.weibo.cn\/p\/100404i33631）#会做饭很酷#"
          },
          {
            "s_u" : "http:\/\/m.douguo.com\/cookbook\/1713998.html",
            "mini_program" : [

            ],
            "object_id" : "1713998",
            "s_d" : "酸汤肥牛-会做饭很酷!",
            "name" : "酸汤肥牛-会做饭很酷!",
            "channel" : "7",
            "qr_image" : "",
            "image" : "https:\/\/cp1.douguo.com\/upload\/caiku\/5\/f\/6\/5fb2ca3b8ae04cdd28a0cb83645e1d56.jpeg"
          },
          {
            "image" : "https:\/\/cp1.douguo.com\/upload\/caiku\/5\/f\/6\/5fb2ca3b8ae04cdd28a0cb83645e1d56.jpeg",
            "s_d" : "酸汤肥牛-会做饭很酷!",
            "s_u" : "http:\/\/m.douguo.com\/cookbook\/1713998.html",
            "qr_image" : "",
            "name" : "酸汤肥牛-会做饭很酷!",
            "object_id" : "1713998",
            "channel" : "8",
            "mini_program" : [

            ]
          }
        ],
        "mini_program" : [

        ],
        "name" : "酸汤肥牛-会做饭很酷!",
        "s_d" : "酸汤肥牛-会做饭很酷!",
        "s_u" : "http:\/\/m.douguo.com\/cookbook\/1713998.html"
      },
      "recipe_tags" : [

      ],
      "packages_id" : [

      ],
      "cookstorys" : [

      ],
      "thumb_path" : "https:\/\/i1.douguo.com\/upload\/caiku\/5\/f\/6\/300_5fb2ca3b8ae04cdd28a0cb83645e1d56.jpeg",
      "eu" : "recipes:\/\/www.douguo.com\/postdetail?id=242016",
      "rpst" : "",
      "pw" : 1920,
      "views_count_text" : "27.4万",
      "recommend_label" : "5296人刚刚收藏过",
      "bs" : [

      ],
      "author_id" : 18327196,
      "favo_counts_text" : "5296",
      "notes" : [

      ],
      "ipci" : "",
      "rate_show" : 0,
      "brand_day_dsp" : [

      ],
      "levelid" : 2,
      "cook_time_image" : "https:\/\/i1.douguo.com\/upload\/banner\/1551424341.png",
      "tags" : [

      ],
      "comments" : [
        "{\n    ac = \"#999999\";\n    at = \"\\U4e0a\\U6d77\\U5e02\";\n    ccc = 0;\n    \"child_comments\" =     (\n    );\n    city = \"\\U4e0a\\U6d77\\U5e02\";\n    cmc = 2;\n    content =     (\n                {\n            c = \"\\U597d\\U5de7\\U5440\\Uff0c\\U6211\\U6628\\U5929\\U4e5f\\U505a\\U4e86\\U9178\\U6c64\\U80a5\\U725b\\U5efa\\U8bae\\U52a0\\U70b9\\U571f\\U8c46\\U7c89\\Uff0c\\U975e\\U5e38\\U5438\\U6c41\\U6c34\\Uff0c\\U771f\\U7684\\U592a\\U597d\\U5403\\U4e86\\Uff01\";\n        }\n    );\n    ia = 0;\n    id = 8439039;\n    \"ip_address_location\" = \"\";\n    like = 0;\n    \"like_count\" = 0;\n    \"reply_id\" = 0;\n    \"sticker_icon\" =     (\n    );\n    time = \"2021-01-01 18:39:33\";\n    u =     {\n        \"followers_count_text\" = \"\";\n        id = 25960424;\n        \"is_prime\" = 0;\n        lv = 0;\n        lvl = 6;\n        n = \"\\U8339\\U5c0f\\U8339666\";\n        p = \"http:\/\/tx1.douguo.net\/upload\/photo\/d\/d\/7\/70_u00676810515090194632.jpg\";\n        \"progress_image\" = \"\";\n        \"recipes_count_text\" = \"\";\n        relationship = \"-1\";\n        title = \"\";\n        v = 0;\n        \"verified_image\" = \"\";\n    };\n}"
      ],
      "comments_count_text" : "1",
      "rewarded_video_dsp" : [

      ],
      "ss" : [

      ],
      "release_time" : "",
      "sr" : "",
      "rcs" : [

      ],
      "rpt" : "",
      "favo_counts" : 5296,
      "vu" : "",
      "title_ad" : [

      ],
      "first_level_comment_count" : 1,
      "display_ingredient" : 1,
      "rate_count" : 0,
      "author_verified" : 1,
      "su" : "",
      "mid_mdsp" : [

      ],
      "cook_difficulty_image" : "https:\/\/i1.douguo.com\/upload\/banner\/1551424390.png",
      "btm_dsp" : [

      ],
      "rsm" : "该功能暂停使用",
      "rdsps" : [

      ],
      "act_des" : "",
      "user" : {
        "following_count" : 0,
        "mobile" : "",
        "avatar_medium" : "http:\/\/tx1.douguo.net\/upload\/photo\/7\/b\/3\/140_u71440885933735221427.jpeg",
        "favorites_count" : 0,
        "is_prime" : 0,
        "verified_image" : "https:\/\/i1.douguo.com\/upload\/note\/d\/a\/a\/da84247847aebe48d9dd0fcdac88862a.png",
        "lvl" : 6,
        "nick" : "wiwiwi",
        "lv" : 0,
        "user_cover" : "",
        "user_photo" : "http:\/\/tx1.douguo.net\/upload\/photo\/7\/b\/3\/70_u71440885933735221427.jpeg",
        "qzone_nick" : "",
        "introduction" : "",
        "weibo_nick" : "",
        "favor_diaries_count" : 0,
        "sign" : "",
        "dishes_count" : 0,
        "verified_url" : "https:\/\/m.douguo.com\/user\/prodesc",
        "qq_weibo_nick" : "",
        "point" : 0,
        "user_large_photo" : "http:\/\/tx1.douguo.net\/upload\/photo\/7\/b\/3\/yuan_u71440885933735221427.jpeg",
        "verified" : 1,
        "user_id" : "18327196",
        "coursecount" : 0,
        "fc" : 0,
        "age" : "",
        "progress_image" : "",
        "birthday" : "",
        "location" : 0,
        "pc" : 0,
        "gender" : 2,
        "email" : "",
        "recipes_count" : 0,
        "regist_time" : "",
        "userid" : "18327196",
        "setted_email" : 0,
        "diaries_count" : 0,
        "followers_count" : 0,
        "subscription_article_count" : 0,
        "subscription" : 0
      },
      "create_time" : "2018-11-03 09:26:10",
      "comments_count" : 1,
      "photo_path" : "https:\/\/i1.douguo.com\/upload\/caiku\/5\/f\/6\/600_5fb2ca3b8ae04cdd28a0cb83645e1d56.jpeg",
      "title" : "酸汤肥牛",
      "dishes" : [

      ],
      "cook_time" : "10~30分钟",
      "hq" : 1,
      "author_photo" : "http:\/\/tx1.douguo.net\/upload\/photo\/7\/b\/3\/70_u71440885933735221427.jpeg",
      "rrps" : [

      ]
    }
  },
  "status" : 0,
  "state" : "success"
}