{
  "status" : 0,
  "state" : "success",
  "result" : {
    "recipe" : {
      "recommended" : 0,
      "clicks" : "106949",
      "vc" : "126231",
      "packages_id" : [

      ],
      "rcs" : [

      ],
      "story_dsp" : [

      ],
      "rpid" : 0,
      "cookstory" : "此次的无锡灵山拈花一行让我初识了“禅”意。对禅食有了初步的了解。禅食讲究的是崇尚自然，归于自然。用简单的方法来还原食材的原味。这道菜我只用了少许盐来调味，也是鲜美可口的。并且4月也是各种野菜大放异彩的时候，所以大家尽可来做一做这些美味。我想这种简单的方式也是在让大家“用心吃饭，好好生活”。",
      "original_photo_path" : "http:\/\/i1.douguo.net\/upload\/caiku\/8\/8\/3\/yuan_882c8f5955af1ef1b63df8d7eb1f7593.jpeg",
      "hqu" : "recipes:\/\/www.douguo.com\/notedetail?id=21162253",
      "tags" : [

      ],
      "title" : "枸杞叶百叶丝",
      "cookstep" : [
        {
          "image_width" : 800,
          "image_height" : 533,
          "position" : 1,
          "frame" : "-1",
          "image" : "https:\/\/i1.douguo.com\/upload\/caiku\/1\/1\/9\/11873f14cf49154a9494846607277449.jpeg",
          "content" : "这鲜嫩的枸杞叶真是让人垂涎欲滴啊。",
          "thumb" : "https:\/\/i1.douguo.com\/upload\/caiku\/1\/1\/9\/140_11873f14cf49154a9494846607277449.jpeg"
        },
        {
          "content" : "将百叶切细丝，用开水烫一下，这样能让百叶更加的软嫩。",
          "image_width" : 800,
          "image_height" : 533,
          "image" : "https:\/\/i1.douguo.com\/upload\/caiku\/f\/7\/0\/f7b94b0f3d342c99088cb963bfe050d0.jpeg",
          "position" : 2,
          "thumb" : "https:\/\/i1.douguo.com\/upload\/caiku\/f\/7\/0\/140_f7b94b0f3d342c99088cb963bfe050d0.jpeg",
          "frame" : "-1"
        },
        {
          "image_width" : 800,
          "content" : "热锅凉油，待锅热后下入百叶翻炒并盛出备用。",
          "image" : "https:\/\/i1.douguo.com\/upload\/caiku\/a\/9\/2\/a93991df6c36138d0fb9cb30ba2a0122.jpeg",
          "thumb" : "https:\/\/i1.douguo.com\/upload\/caiku\/a\/9\/2\/140_a93991df6c36138d0fb9cb30ba2a0122.jpeg",
          "frame" : "-1",
          "position" : 3,
          "image_height" : 600
        },
        {
          "thumb" : "https:\/\/i1.douguo.com\/upload\/caiku\/e\/1\/9\/140_e1eae30ad06fe5c0c1dc401f9fc577d9.jpeg",
          "image" : "https:\/\/i1.douguo.com\/upload\/caiku\/e\/1\/9\/e1eae30ad06fe5c0c1dc401f9fc577d9.jpeg",
          "image_width" : 800,
          "position" : 4,
          "content" : "锅中尚有余油，烧热后下入枸杞叶翻炒。",
          "image_height" : 600,
          "frame" : "-1"
        },
        {
          "thumb" : "https:\/\/i1.douguo.com\/upload\/caiku\/9\/d\/a\/140_9df830158af6ad734dcd49d9806f7eaa.jpeg",
          "content" : "待略出水时下入百叶丝并翻炒均匀。",
          "position" : 5,
          "image_width" : 800,
          "frame" : "-1",
          "image_height" : 600,
          "image" : "https:\/\/i1.douguo.com\/upload\/caiku\/9\/d\/a\/9df830158af6ad734dcd49d9806f7eaa.jpeg"
        },
        {
          "frame" : "-1",
          "image" : "https:\/\/i1.douguo.com\/upload\/caiku\/7\/1\/c\/71716d38b2d91276824cf5be10141acc.jpeg",
          "image_width" : 800,
          "content" : "也就两分钟，下入食盐调味即可关火装盘了。",
          "image_height" : 1067,
          "thumb" : "https:\/\/i1.douguo.com\/upload\/caiku\/7\/1\/c\/140_71716d38b2d91276824cf5be10141acc.jpeg",
          "position" : 6
        },
        {
          "position" : 7,
          "frame" : "-1",
          "image_width" : 800,
          "image" : "https:\/\/i1.douguo.com\/upload\/caiku\/0\/f\/c\/0f701cff89c673172896de882ab799ec.jpeg",
          "thumb" : "https:\/\/i1.douguo.com\/upload\/caiku\/0\/f\/c\/140_0f701cff89c673172896de882ab799ec.jpeg",
          "content" : "崇尚自然，不烦杂，不纷争。",
          "image_height" : 1067
        },
        {
          "image_height" : 1067,
          "frame" : "-1",
          "thumb" : "https:\/\/i1.douguo.com\/upload\/caiku\/a\/5\/d\/140_a573172beee1c5997f0c020beebfb98d.jpeg",
          "content" : "让我们“用心吃饭，好好生活”",
          "image_width" : 800,
          "image" : "https:\/\/i1.douguo.com\/upload\/caiku\/a\/5\/d\/a573172beee1c5997f0c020beebfb98d.jpeg",
          "position" : 8
        }
      ],
      "ipoi" : "",
      "rpt" : "",
      "recipe_tags" : [

      ],
      "purl" : "",
      "user" : {
        "favor_diaries_count" : 0,
        "userid" : "2534197",
        "birthday" : "",
        "verified" : 1,
        "lvl" : 6,
        "user_photo" : "http:\/\/tx1.douguo.net\/upload\/photo\/c\/9\/0\/70_u62324463727781223815.jpeg",
        "following_count" : 0,
        "age" : "",
        "pc" : 0,
        "user_cover" : "",
        "introduction" : "",
        "qq_weibo_nick" : "",
        "user_id" : "2534197",
        "is_prime" : 0,
        "nick" : "炫色鸾树z",
        "setted_email" : 0,
        "dishes_count" : 0,
        "sign" : "",
        "followers_count" : 0,
        "regist_time" : "",
        "lv" : 0,
        "point" : 0,
        "favorites_count" : 0,
        "diaries_count" : 0,
        "location" : 0,
        "coursecount" : 0,
        "recipes_count" : 0,
        "verified_image" : "https:\/\/i1.douguo.com\/upload\/note\/d\/a\/a\/da84247847aebe48d9dd0fcdac88862a.png",
        "subscription_article_count" : 0,
        "user_large_photo" : "http:\/\/tx1.douguo.net\/upload\/photo\/c\/9\/0\/yuan_u62324463727781223815.jpeg",
        "qzone_nick" : "",
        "mobile" : "",
        "fc" : 0,
        "avatar_medium" : "http:\/\/tx1.douguo.net\/upload\/photo\/c\/9\/0\/140_u62324463727781223815.jpeg",
        "weibo_nick" : "",
        "email" : "",
        "progress_image" : "",
        "verified_url" : "https:\/\/m.douguo.com\/user\/prodesc",
        "gender" : 2,
        "subscription" : 0
      },
      "rate_count" : 0,
      "vu" : "",
      "mid_mdsp" : [

      ],
      "dish_count" : 0,
      "thumb_path" : "https:\/\/i1.douguo.com\/upload\/caiku\/8\/8\/3\/300_882c8f5955af1ef1b63df8d7eb1f7593.jpeg",
      "ecs" : 0,
      "eu" : "recipes:\/\/www.douguo.com\/postdetail?id=242016",
      "dishes" : [

      ],
      "sc" : 0,
      "pw" : 800,
      "display_ingredient" : 1,
      "notes" : [

      ],
      "sr" : "",
      "ipurl" : "",
      "collect_status" : 0,
      "ph" : 533,
      "ssu" : "",
      "ipci" : "",
      "ipt" : "",
      "related_ads" : [

      ],
      "recipe_list_tags" : [
        {
          "background_start_color" : "#F4F5F5",
          "text_color" : "#141515",
          "right_image" : "",
          "jump_url" : "",
          "background_border_color" : "",
          "background_end_color" : "#F4F5F5",
          "text" : "关注的人"
        }
      ],
      "author_verified" : 1,
      "cook_difficulty" : "",
      "levelid" : 2,
      "rrps" : [

      ],
      "comments_count_text" : "5",
      "bs" : [

      ],
      "rrpt" : "",
      "favo_counts" : 706,
      "cookstorys" : [
        {
          "icon" : "",
          "type" : 0,
          "c" : "此次的无锡灵山拈花一行让我初识了“禅”意。对禅食有了初步的了解。禅食讲究的是崇尚自然，归于自然。用简单的方法来还原食材的原味。这道菜我只用了少许盐来调味，也是鲜美可口的。并且4月也是各种野菜大放异彩的时候，所以大家尽可来做一做这些美味。我想这种简单的方式也是在让大家“用心吃饭，好好生活”。",
          "u" : "",
          "id" : 0,
          "color" : ""
        }
      ],
      "cook_time" : "",
      "brand_day_dsp" : [

      ],
      "rewarded_video_dsp" : [

      ],
      "first_level_comment_count" : 4,
      "title_ad" : [

      ],
      "author" : "炫色鸾树z",
      "rpst" : "",
      "create_time" : "2017-04-07 19:31:10",
      "dish_count_text" : "",
      "rate" : 0,
      "major" : [
        {
          "note" : "400g",
          "title" : "枸杞叶"
        },
        {
          "tu" : "https:\/\/m.douguo.com\/ingredients\/百叶\/detailmaterial",
          "note" : "2张",
          "title" : "百叶"
        },
        {
          "note" : "少许",
          "tu" : "https:\/\/m.douguo.com\/ingredients\/盐\/detailmaterial",
          "title" : "盐"
        }
      ],
      "su" : "",
      "ss" : [

      ],
      "advice" : {
        "da" : {
          "t" : "查看详细分析",
          "url" : "https:\/\/m.douguo.com\/recipe\/nutrient_self\/1534633",
          "iu" : "https:\/\/i1.douguo.com\/upload\/banner\/f\/4\/d\/f48877e53c37759bc12ac494be82ec8d.png"
        },
        "at" : "能有效控制体重～",
        "has" : [
          {
            "t" : "低热量",
            "url" : "recipes:\/\/www.douguo.com\/simplerecipelist?t=低热量&id=低热量"
          },
          {
            "t" : "低脂",
            "url" : "recipes:\/\/www.douguo.com\/simplerecipelist?t=低脂&id=低脂"
          }
        ]
      },
      "thumb_height" : 0,
      "ipit" : 0,
      "rdsps" : [

      ],
      "ipia" : [

      ],
      "rips" : 0,
      "photo_path" : "https:\/\/i1.douguo.com\/upload\/caiku\/8\/8\/3\/600_882c8f5955af1ef1b63df8d7eb1f7593.jpeg",
      "image" : "http:\/\/i1.douguo.net\/upload\/caiku\/8\/8\/3\/300_882c8f5955af1ef1b63df8d7eb1f7593.jpeg",
      "btm_dsp" : [

      ],
      "rsm" : "该功能暂停使用",
      "act_des" : "",
      "author_id" : 2534197,
      "guide_image" : "",
      "recommend_label" : "12.6万人看过",
      "cookwares" : [

      ],
      "v_u" : "",
      "views_count_text" : "12.6万",
      "tips" : "",
      "vfurl" : "",
      "comments" : [
        "{\n    ac = \"#999999\";\n    at = \"\";\n    ccc = 1;\n    \"child_comments\" =     (\n                {\n            ac = \"#999999\";\n            at = \"\";\n            ccc = 0;\n            city = \"\";\n            cmc = 2;\n            content =             (\n                                {\n                    c = \" \\U662f\\U7684\";\n                }\n            );\n            ia = 1;\n            id = 4617517;\n            \"ip_address_location\" = \"\";\n            like = 0;\n            \"like_count\" = 0;\n            \"reply_id\" = 4617144;\n            \"reply_user\" =             {\n                \"followers_count_text\" = \"\";\n                id = 3964325;\n                \"is_prime\" = 0;\n                lv = 0;\n                lvl = 6;\n                n = Misslapisleung;\n                p = \"http:\/\/tx1.douguo.net\/upload\/photo\/8\/7\/f\/70_u90823367325347070819.jpg\";\n                \"progress_image\" = \"\";\n                \"recipes_count_text\" = \"\";\n                relationship = \"-1\";\n                title = \"\";\n                v = 1;\n                \"verified_image\" = \"\";\n            };\n            \"sticker_icon\" =             (\n            );\n            time = \"2017-04-08 09:06:51\";\n            u =             {\n                \"followers_count_text\" = \"\";\n                id = 2534197;\n                \"is_prime\" = 0;\n                lv = 0;\n                lvl = 6;\n                n = \"\\U70ab\\U8272\\U9e3e\\U6811z\";\n                p = \"http:\/\/tx1.douguo.net\/upload\/photo\/c\/9\/0\/70_u62324463727781223815.jpeg\";\n                \"progress_image\" = \"\";\n                \"recipes_count_text\" = \"\";\n                relationship = \"-1\";\n                title = \"\";\n                v = 1;\n                \"verified_image\" = \"\";\n            };\n        }\n    );\n    city = \"\";\n    cmc = 2;\n    content =     (\n                {\n            c = \"\\U6211\\U662f\\U770b\\U5230\\U4e86\\U82b1\\U751f\\U7b77\\U67b6\\U4e48\\Uff5e\\Uff5e\";\n        }\n    );\n    ia = 0;\n    id = 4617144;\n    \"ip_address_location\" = \"\";\n    like = 0;\n    \"like_count\" = 0;\n    \"reply_id\" = 0;\n    \"sticker_icon\" =     (\n    );\n    time = \"2017-04-08 06:35:11\";\n    u =     {\n        \"followers_count_text\" = \"\";\n        id = 3964325;\n        \"is_prime\" = 0;\n        lv = 0;\n        lvl = 6;\n        n = Misslapisleung;\n        p = \"http:\/\/tx1.douguo.net\/upload\/photo\/8\/7\/f\/70_u90823367325347070819.jpg\";\n        \"progress_image\" = \"\";\n        \"recipes_count_text\" = \"\";\n        relationship = \"-1\";\n        title = \"\";\n        v = 1;\n        \"verified_image\" = \"\";\n    };\n}",
        "{\n    ac = \"#999999\";\n    at = \"\\U6cb3\\U6e90\\U5e02\";\n    ccc = 0;\n    \"child_comments\" =     (\n    );\n    city = \"\\U6cb3\\U6e90\\U5e02\";\n    cmc = 2;\n    content =     (\n                {\n            c = \"\\U8fd9\\U4e2a\\U4e0d\\U662f\\U53eb\\U5343\\U53f6\\U4e48\";\n        }\n    );\n    ia = 0;\n    id = 5432987;\n    \"ip_address_location\" = \"\";\n    like = 0;\n    \"like_count\" = 0;\n    \"reply_id\" = 0;\n    \"sticker_icon\" =     (\n    );\n    time = \"2018-03-12 03:05:00\";\n    u =     {\n        \"followers_count_text\" = \"\";\n        id = 11635259;\n        \"is_prime\" = 0;\n        lv = 0;\n        lvl = 3;\n        n = LINJINGRU;\n        p = \"http:\/\/tx1.douguo.net\/upload\/photo\/b\/d\/2\/70_u44294395281620111111.jpeg\";\n        \"progress_image\" = \"\";\n        \"recipes_count_text\" = \"\";\n        relationship = \"-1\";\n        title = \"\";\n        v = 0;\n        \"verified_image\" = \"\";\n    };\n}",
        "{\n    ac = \"#999999\";\n    at = \"\";\n    ccc = 0;\n    \"child_comments\" =     (\n    );\n    city = \"\";\n    cmc = 2;\n    content =     (\n                {\n            c = \"\\U5f88\\U6709\\U98df\\U6b32\";\n        }\n    );\n    ia = 0;\n    id = 4615345;\n    \"ip_address_location\" = \"\";\n    like = 0;\n    \"like_count\" = 0;\n    \"reply_id\" = 0;\n    \"sticker_icon\" =     (\n    );\n    time = \"2017-04-07 14:07:05\";\n    u =     {\n        \"followers_count_text\" = \"\";\n        id = 18572054;\n        \"is_prime\" = 0;\n        lv = 0;\n        lvl = 4;\n        n = \"\\U5c0f\\U7fe0321\";\n        p = \"http:\/\/tx1.douguo.net\/upload\/photo\/1\/d\/b\/70_u22052339146140409001156.jpg\";\n        \"progress_image\" = \"\";\n        \"recipes_count_text\" = \"\";\n        relationship = \"-1\";\n        title = \"\";\n        v = 0;\n        \"verified_image\" = \"\";\n    };\n}"
      ],
      "recommendation_tag" : "",
      "share_info" : {
        "s_d" : "枸杞叶百叶丝#“宴”遇灵山，拈花品素#-会做饭很酷!",
        "object_id" : "1534633",
        "s_u" : "http:\/\/m.douguo.com\/cookbook\/1534633.html",
        "mini_program" : [

        ],
        "qr_image" : "",
        "infos" : [
          {
            "channel" : "1",
            "qr_image" : "",
            "mini_program" : [

            ],
            "s_u" : "",
            "image" : "https:\/\/cp1.douguo.com\/upload\/caiku\/8\/8\/3\/882c8f5955af1ef1b63df8d7eb1f7593.jpeg",
            "object_id" : "1534633",
            "name" : "枸杞叶百叶丝#“宴”遇灵山，拈花品素#-会做饭很酷!",
            "s_d" : "#学做饭用豆果美食#  我在@豆果美食 分享了【枸杞叶百叶丝#“宴”遇灵山，拈花品素#-会做饭很酷!】，制作美食的过程承载了我生活中的热情，和我一起感受这份小确幸吧！查看图片了解菜谱（你喜欢的美食都在这里！https:\/\/m.weibo.cn\/p\/100404i33631）#会做饭很酷# "
          },
          {
            "qr_image" : "",
            "s_d" : "枸杞叶百叶丝#“宴”遇灵山，拈花品素#-会做饭很酷!",
            "name" : "枸杞叶百叶丝#“宴”遇灵山，拈花品素#-会做饭很酷!",
            "mini_program" : [

            ],
            "s_u" : "http:\/\/m.douguo.com\/cookbook\/1534633.html",
            "channel" : "7",
            "image" : "https:\/\/cp1.douguo.com\/upload\/caiku\/8\/8\/3\/882c8f5955af1ef1b63df8d7eb1f7593.jpeg",
            "object_id" : "1534633"
          },
          {
            "object_id" : "1534633",
            "s_d" : "枸杞叶百叶丝#“宴”遇灵山，拈花品素#-会做饭很酷!",
            "qr_image" : "",
            "channel" : "8",
            "mini_program" : [

            ],
            "s_u" : "http:\/\/m.douguo.com\/cookbook\/1534633.html",
            "image" : "https:\/\/cp1.douguo.com\/upload\/caiku\/8\/8\/3\/882c8f5955af1ef1b63df8d7eb1f7593.jpeg",
            "name" : "枸杞叶百叶丝#“宴”遇灵山，拈花品素#-会做饭很酷!"
          }
        ],
        "name" : "枸杞叶百叶丝#“宴”遇灵山，拈花品素#-会做饭很酷!",
        "image" : "https:\/\/cp1.douguo.com\/upload\/caiku\/8\/8\/3\/882c8f5955af1ef1b63df8d7eb1f7593.jpeg"
      },
      "cook_id" : "1534633",
      "old_comments" : [

      ],
      "hq" : 1,
      "recent_comments" : [

      ],
      "rate_show" : 0,
      "cook_time_image" : "",
      "author_photo" : "http:\/\/tx1.douguo.net\/upload\/photo\/c\/9\/0\/70_u62324463727781223815.jpeg",
      "comments_count" : 5,
      "favo_counts_text" : "706",
      "release_time" : "",
      "cook_difficulty_image" : "",
      "minor" : [

      ],
      "top_mdsp" : [

      ]
    }
  }
}