{
  "state" : "success",
  "status" : 0,
  "result" : {
    "recipe" : {
      "cook_difficulty" : "配菜(中级)",
      "old_comments" : [

      ],
      "ipit" : 0,
      "hq" : 1,
      "ipt" : "",
      "ph" : 1156,
      "purl" : "",
      "cookstep" : [
        {
          "image_width" : 1156,
          "image" : "https:\/\/i1.douguo.com\/upload\/caiku\/2\/5\/b\/253ca37377002bf113d6772f2e78c7cb.jpg",
          "image_height" : 1156,
          "content" : "将面粉，酵母，盐，糖放入盆里搅拌均匀。",
          "thumb" : "https:\/\/i1.douguo.com\/upload\/caiku\/2\/5\/b\/140_253ca37377002bf113d6772f2e78c7cb.jpg",
          "position" : 1,
          "frame" : "-1"
        },
        {
          "content" : "打入两颗鸡蛋，搅拌花絮状。",
          "position" : 2,
          "frame" : "-1",
          "image" : "https:\/\/i1.douguo.com\/upload\/caiku\/3\/4\/5\/34a64dca8f34a7d1c3d9a9a096a366b5.jpg",
          "image_width" : 1156,
          "image_height" : 1156,
          "thumb" : "https:\/\/i1.douguo.com\/upload\/caiku\/3\/4\/5\/140_34a64dca8f34a7d1c3d9a9a096a366b5.jpg"
        },
        {
          "image" : "https:\/\/i1.douguo.com\/upload\/caiku\/3\/7\/3\/37f8297799827dbf546abb3b41055bd3.jpg",
          "content" : "加入牛奶继续搅拌，然后加入温水，继续搅拌。",
          "position" : 3,
          "frame" : "-1",
          "thumb" : "https:\/\/i1.douguo.com\/upload\/caiku\/3\/7\/3\/140_37f8297799827dbf546abb3b41055bd3.jpg",
          "image_width" : 1156,
          "image_height" : 1156
        },
        {
          "image_width" : 1156,
          "image" : "https:\/\/i1.douguo.com\/upload\/caiku\/e\/6\/b\/e6697fc352c7fdb28390c60adf7b68bb.jpg",
          "image_height" : 1156,
          "frame" : "-1",
          "content" : "搅拌成面团，加入食用油，继续搅拌",
          "position" : 4,
          "thumb" : "https:\/\/i1.douguo.com\/upload\/caiku\/e\/6\/b\/140_e6697fc352c7fdb28390c60adf7b68bb.jpg"
        },
        {
          "image_height" : 1156,
          "image" : "https:\/\/i1.douguo.com\/upload\/caiku\/d\/f\/9\/dfe5fc0075bdce146b556bc7d495e399.jpg",
          "position" : 5,
          "frame" : "-1",
          "content" : "搅拌后盖上盖子，醒发15分钟，再继续搅拌，再醒发15分钟，然后放到面板上整理形状，这一步忘拍照了",
          "image_width" : 1156,
          "thumb" : "https:\/\/i1.douguo.com\/upload\/caiku\/d\/f\/9\/140_dfe5fc0075bdce146b556bc7d495e399.jpg"
        },
        {
          "content" : "切成小条，两条用筷子按压一下，这一步也是忘记拍照了",
          "position" : 6,
          "image_width" : 1156,
          "thumb" : "https:\/\/i1.douguo.com\/upload\/caiku\/5\/f\/e\/140_5fc68d7942bce885d462f0ebe569d60e.jpg",
          "image" : "https:\/\/i1.douguo.com\/upload\/caiku\/5\/f\/e\/5fc68d7942bce885d462f0ebe569d60e.jpg",
          "image_height" : 1156,
          "frame" : "-1"
        },
        {
          "thumb" : "https:\/\/i1.douguo.com\/upload\/caiku\/f\/1\/8\/140_f1059e6b74c476a668f95112c6f90b18.jpg",
          "image_width" : 1156,
          "frame" : "-1",
          "content" : "油温七层热下油条，炸至金黄蓬松拿出",
          "position" : 7,
          "image" : "https:\/\/i1.douguo.com\/upload\/caiku\/f\/1\/8\/f1059e6b74c476a668f95112c6f90b18.jpg",
          "image_height" : 1156
        },
        {
          "image_width" : 1156,
          "position" : 8,
          "frame" : "-1",
          "image_height" : 1156,
          "content" : "这个颜色可以拿出来",
          "image" : "https:\/\/i1.douguo.com\/upload\/caiku\/4\/5\/4\/459662ba586bb69a67de7705a170ac44.jpg",
          "thumb" : "https:\/\/i1.douguo.com\/upload\/caiku\/4\/5\/4\/140_459662ba586bb69a67de7705a170ac44.jpg"
        },
        {
          "thumb" : "https:\/\/i1.douguo.com\/upload\/caiku\/5\/3\/3\/140_53a4317a9dcb6706414f8684850b6903.jpg",
          "image" : "https:\/\/i1.douguo.com\/upload\/caiku\/5\/3\/3\/53a4317a9dcb6706414f8684850b6903.jpg",
          "image_width" : 1156,
          "frame" : "-1",
          "image_height" : 1156,
          "position" : 9,
          "content" : "成品完成"
        }
      ],
      "recipe_list_tags" : [
        {
          "text" : "关注的人",
          "background_border_color" : "",
          "background_start_color" : "#F4F5F5",
          "text_color" : "#141515",
          "right_image" : "",
          "background_end_color" : "#F4F5F5",
          "jump_url" : ""
        }
      ],
      "vfurl" : "",
      "recent_comments" : [

      ],
      "author" : "大嘉嘉嘉吖",
      "rrpt" : "",
      "ipurl" : "",
      "top_mdsp" : [

      ],
      "ssu" : "",
      "recommendation_tag" : "",
      "thumb_height" : 0,
      "cookwares" : [

      ],
      "collect_status" : 0,
      "v_u" : "",
      "recommended" : 0,
      "dish_count" : 7,
      "hqu" : "recipes:\/\/www.douguo.com\/notedetail?id=21162253",
      "cook_id" : "3218861",
      "story_dsp" : [

      ],
      "ecs" : 1,
      "tips" : "",
      "vc" : "337256",
      "advice" : {
        "has" : [

        ],
        "da" : {
          "t" : "查看详细分析",
          "url" : "https:\/\/m.douguo.com\/recipe\/nutrient_self\/3218861",
          "iu" : "https:\/\/i1.douguo.com\/upload\/banner\/f\/4\/d\/f48877e53c37759bc12ac494be82ec8d.png"
        }
      },
      "rpid" : 0,
      "minor" : [

      ],
      "guide_image" : "",
      "ipoi" : "",
      "image" : "http:\/\/i1.douguo.net\/upload\/caiku\/6\/9\/3\/300_697c5694684dc154f3a72bc1a3f1eba3.jpg",
      "rate" : 5,
      "clicks" : "1",
      "cookstory" : "又被静态居家了，又开始在厨房研究，我今天做的这个油条，不用泡打粉，不用小苏打，最最最重要的！不用隔夜和面！",
      "rips" : 0,
      "ipia" : [

      ],
      "share_info" : {
        "object_id" : "3218861",
        "image" : "https:\/\/cp1.douguo.com\/upload\/caiku\/6\/9\/3\/697c5694684dc154f3a72bc1a3f1eba3.jpg",
        "qr_image" : "",
        "s_u" : "http:\/\/m.douguo.com\/cookbook\/3218861.html",
        "infos" : [
          {
            "qr_image" : "",
            "s_d" : "#学做饭用豆果美食# 会做饭真是太酷了！我在@豆果美食 分享了【超简单自制炸油条-会做饭很酷!】，这道菜真的神仙美味！喜欢的一定要试试绝对不会错的！～查看图片了解菜谱（快来点击https:\/\/m.weibo.cn\/p\/100404i33631和我一起修炼厨艺吧）",
            "name" : "超简单自制炸油条-会做饭很酷!",
            "object_id" : "3218861",
            "image" : "https:\/\/cp1.douguo.com\/upload\/caiku\/6\/9\/3\/697c5694684dc154f3a72bc1a3f1eba3.jpg",
            "s_u" : "",
            "mini_program" : [

            ],
            "channel" : "1"
          },
          {
            "channel" : "7",
            "s_u" : "http:\/\/m.douguo.com\/cookbook\/3218861.html",
            "qr_image" : "",
            "s_d" : "超简单自制炸油条-会做饭很酷!",
            "image" : "https:\/\/cp1.douguo.com\/upload\/caiku\/6\/9\/3\/697c5694684dc154f3a72bc1a3f1eba3.jpg",
            "mini_program" : [

            ],
            "object_id" : "3218861",
            "name" : "超简单自制炸油条-会做饭很酷!"
          },
          {
            "object_id" : "3218861",
            "name" : "超简单自制炸油条-会做饭很酷!",
            "mini_program" : [

            ],
            "qr_image" : "",
            "s_u" : "http:\/\/m.douguo.com\/cookbook\/3218861.html",
            "image" : "https:\/\/cp1.douguo.com\/upload\/caiku\/6\/9\/3\/697c5694684dc154f3a72bc1a3f1eba3.jpg",
            "s_d" : "超简单自制炸油条-会做饭很酷!",
            "channel" : "8"
          }
        ],
        "mini_program" : [

        ],
        "name" : "超简单自制炸油条-会做饭很酷!",
        "s_d" : "超简单自制炸油条-会做饭很酷!"
      },
      "related_ads" : [

      ],
      "major" : [
        {
          "tu" : "https:\/\/m.douguo.com\/ingredients\/面粉\/detailmaterial",
          "note" : "500克",
          "title" : "面粉"
        },
        {
          "title" : "酵母粉",
          "tu" : "https:\/\/m.douguo.com\/ingredients\/酵母粉\/detailmaterial",
          "note" : "5克"
        },
        {
          "title" : "盐",
          "note" : "5克",
          "tu" : "https:\/\/m.douguo.com\/ingredients\/盐\/detailmaterial"
        },
        {
          "title" : "纯牛奶",
          "tu" : "https:\/\/m.douguo.com\/ingredients\/纯牛奶\/detailmaterial",
          "note" : "240ml"
        },
        {
          "tu" : "https:\/\/m.douguo.com\/ingredients\/鸡蛋\/detailmaterial",
          "note" : "2个",
          "title" : "鸡蛋"
        },
        {
          "note" : "30克",
          "tu" : "https:\/\/m.douguo.com\/ingredients\/温水\/detailmaterial",
          "title" : "温水"
        },
        {
          "note" : "10克",
          "tu" : "https:\/\/m.douguo.com\/ingredients\/白糖\/detailmaterial",
          "title" : "白糖"
        },
        {
          "note" : "30克",
          "tu" : "https:\/\/m.douguo.com\/ingredients\/食用油\/detailmaterial",
          "title" : "食用油"
        }
      ],
      "packages_id" : [

      ],
      "sc" : 0,
      "recipe_tags" : [

      ],
      "cookstorys" : [
        {
          "type" : 0,
          "id" : 0,
          "u" : "",
          "icon" : "",
          "c" : "又被静态居家了，又开始在厨房研究，我今天做的这个油条，不用泡打粉，不用小苏打，最最最重要的！不用隔夜和面！",
          "color" : ""
        }
      ],
      "dish_count_text" : "7",
      "thumb_path" : "https:\/\/i1.douguo.com\/upload\/caiku\/6\/9\/3\/300_697c5694684dc154f3a72bc1a3f1eba3.jpg",
      "rpst" : "",
      "eu" : "recipes:\/\/www.douguo.com\/postdetail?id=242016",
      "pw" : 1156,
      "views_count_text" : "33.7万",
      "recommend_label" : "7人学做",
      "ipci" : "",
      "bs" : [

      ],
      "favo_counts_text" : "2099",
      "notes" : [

      ],
      "rewarded_video_dsp" : [

      ],
      "rate_show" : 0,
      "cook_time_image" : "https:\/\/i1.douguo.com\/upload\/banner\/1551424318.png",
      "comments_count_text" : "8",
      "tags" : [

      ],
      "comments" : [
        "{\n    ac = \"#999999\";\n    at = \"\";\n    ccc = 1;\n    \"child_comments\" =     (\n                {\n            ac = \"#999999\";\n            at = \"\";\n            ccc = 0;\n            city = \"\";\n            cmc = 2;\n            content =             (\n                                {\n                    c = \" \\U505a\\U8fc7\\U4e86\\U8fd8\\U4e0d\\U9519 \\U5c31\\U662f\\U6ca1\\U6709\\U7279\\U522b\\U84ec\\U677e\\U90a3\\U79cd\\U53e3\\U5473\";\n                }\n            );\n            ia = 0;\n            id = 8983940;\n            \"ip_address_location\" = \"\\U9655\\U897f\\U7701\";\n            like = 0;\n            \"like_count\" = 0;\n            \"reply_id\" = 8976529;\n            \"reply_user\" =             {\n                \"followers_count_text\" = \"\";\n                id = 8122465;\n                \"is_prime\" = 0;\n                lv = 0;\n                lvl = 4;\n                n = \"_\\Uff57\\Uff4f\\U535c\\U4e56\\Uff0f.\";\n                p = \"http:\/\/tx1.douguo.net\/upload\/photo\/b\/a\/5\/70_u23205874438597205035.jpg\";\n                \"progress_image\" = \"\";\n                \"recipes_count_text\" = \"\";\n                relationship = \"-1\";\n                title = \"\";\n                v = 0;\n                \"verified_image\" = \"\";\n            };\n            \"sticker_icon\" =             (\n            );\n            time = \"2022-11-21 21:01:29\";\n            u =             {\n                \"followers_count_text\" = \"\";\n                id = 8122465;\n                \"is_prime\" = 0;\n                lv = 0;\n                lvl = 4;\n                n = \"_\\Uff57\\Uff4f\\U535c\\U4e56\\Uff0f.\";\n                p = \"http:\/\/tx1.douguo.net\/upload\/photo\/b\/a\/5\/70_u23205874438597205035.jpg\";\n                \"progress_image\" = \"\";\n                \"recipes_count_text\" = \"\";\n                relationship = \"-1\";\n                title = \"\";\n                v = 0;\n                \"verified_image\" = \"\";\n            };\n        }\n    );\n    city = \"\";\n    cmc = 2;\n    content =     (\n                {\n            c = \"\\U771f\\U7684\\U5047\\U7684 \\U6211\\U8bd5\\U8bd5\\Ud83d\\Ude0b\";\n        }\n    );\n    ia = 0;\n    id = 8976529;\n    \"ip_address_location\" = \"\\U9655\\U897f\\U7701\";\n    like = 0;\n    \"like_count\" = 1;\n    \"reply_id\" = 0;\n    \"sticker_icon\" =     (\n    );\n    time = \"2022-10-21 00:24:59\";\n    u =     {\n        \"followers_count_text\" = \"\";\n        id = 8122465;\n        \"is_prime\" = 0;\n        lv = 0;\n        lvl = 4;\n        n = \"_\\Uff57\\Uff4f\\U535c\\U4e56\\Uff0f.\";\n        p = \"http:\/\/tx1.douguo.net\/upload\/photo\/b\/a\/5\/70_u23205874438597205035.jpg\";\n        \"progress_image\" = \"\";\n        \"recipes_count_text\" = \"\";\n        relationship = \"-1\";\n        title = \"\";\n        v = 0;\n        \"verified_image\" = \"\";\n    };\n}",
        "{\n    ac = \"#999999\";\n    at = \"\\U4e34\\U6c82\\U5e02\";\n    ccc = 1;\n    \"child_comments\" =     (\n                {\n            ac = \"#999999\";\n            at = \"\\U4e34\\U6c82\\U5e02\";\n            ccc = 0;\n            city = \"\\U4e34\\U6c82\\U5e02\";\n            cmc = 2;\n            content =             (\n                                {\n                    c = \" \\U554a\\U554a\\U554a\\U554a\\U554a\\U554a\\U554a\\U554a\\U554a\\U554a\\U554a\\U554a\";\n                }\n            );\n            ia = 0;\n            id = 8997168;\n            \"ip_address_location\" = \"\\U5c71\\U4e1c\\U7701\";\n            like = 0;\n            \"like_count\" = 0;\n            \"reply_id\" = 8995889;\n            \"reply_user\" =             {\n                \"followers_count_text\" = \"\";\n                id = 17172919;\n                \"is_prime\" = 0;\n                lv = 0;\n                lvl = 2;\n                n = \"@.@fcsi\";\n                p = \"http:\/\/tx1.douguo.net\/upload\/photo\/0\/8\/f\/70_u60809954574251123112.jpg\";\n                \"progress_image\" = \"\";\n                \"recipes_count_text\" = \"\";\n                relationship = \"-1\";\n                title = \"\";\n                v = 0;\n                \"verified_image\" = \"\";\n            };\n            \"sticker_icon\" =             (\n            );\n            time = \"2023-01-15 21:29:38\";\n            u =             {\n                \"followers_count_text\" = \"\";\n                id = 17172919;\n                \"is_prime\" = 0;\n                lv = 0;\n                lvl = 2;\n                n = \"@.@fcsi\";\n                p = \"http:\/\/tx1.douguo.net\/upload\/photo\/0\/8\/f\/70_u60809954574251123112.jpg\";\n                \"progress_image\" = \"\";\n                \"recipes_count_text\" = \"\";\n                relationship = \"-1\";\n                title = \"\";\n                v = 0;\n                \"verified_image\" = \"\";\n            };\n        }\n    );\n    city = \"\\U4e34\\U6c82\\U5e02\";\n    cmc = 2;\n    content =     (\n                {\n            c = \"\\U5f88\\U4e0d\\U9519\";\n        }\n    );\n    ia = 0;\n    id = 8995889;\n    \"ip_address_location\" = \"\\U5c71\\U4e1c\\U7701\";\n    like = 0;\n    \"like_count\" = 0;\n    \"reply_id\" = 0;\n    \"sticker_icon\" =     (\n    );\n    time = \"2023-01-10 21:30:49\";\n    u =     {\n        \"followers_count_text\" = \"\";\n        id = 17172919;\n        \"is_prime\" = 0;\n        lv = 0;\n        lvl = 2;\n        n = \"@.@fcsi\";\n        p = \"http:\/\/tx1.douguo.net\/upload\/photo\/0\/8\/f\/70_u60809954574251123112.jpg\";\n        \"progress_image\" = \"\";\n        \"recipes_count_text\" = \"\";\n        relationship = \"-1\";\n        title = \"\";\n        v = 0;\n        \"verified_image\" = \"\";\n    };\n}",
        "{\n    ac = \"#999999\";\n    at = \"\\U6210\\U90fd\\U5e02\";\n    ccc = 0;\n    \"child_comments\" =     (\n    );\n    city = \"\\U6210\\U90fd\\U5e02\";\n    cmc = 2;\n    content =     (\n                {\n            c = \"\\U53d1\\U9762\\U534a\\U5c0f\\U65f6\";\n        }\n    );\n    ia = 0;\n    id = 9041933;\n    \"ip_address_location\" = \"\\U56db\\U5ddd\\U7701\";\n    like = 0;\n    \"like_count\" = 0;\n    \"reply_id\" = 0;\n    \"sticker_icon\" =     (\n    );\n    time = \"2023-08-16 00:50:15\";\n    u =     {\n        \"followers_count_text\" = \"\";\n        id = 22022306;\n        \"is_prime\" = 0;\n        lv = 0;\n        lvl = 1;\n        n = \"\\U90b1\\U5b9d\\U5b9diuwq\";\n        p = \"http:\/\/tx1.douguo.net\/upload\/photo\/9\/7\/0\/70_9732400448f165d67b68d093ac6909d0.jpeg\";\n        \"progress_image\" = \"\";\n        \"recipes_count_text\" = \"\";\n        relationship = \"-1\";\n        title = \"\";\n        v = 0;\n        \"verified_image\" = \"\";\n    };\n}"
      ],
      "photo_path" : "https:\/\/i1.douguo.com\/upload\/caiku\/6\/9\/3\/600_697c5694684dc154f3a72bc1a3f1eba3.jpg",
      "brand_day_dsp" : [

      ],
      "ss" : [

      ],
      "author_id" : 2531823,
      "release_time" : "",
      "rpt" : "",
      "rcs" : [

      ],
      "mid_mdsp" : [

      ],
      "favo_counts" : 2099,
      "vu" : "",
      "sr" : "",
      "rate_count" : 6,
      "first_level_comment_count" : 6,
      "author_verified" : 0,
      "display_ingredient" : 1,
      "su" : "",
      "levelid" : 2,
      "cook_difficulty_image" : "https:\/\/i1.douguo.com\/upload\/banner\/1551424413.png",
      "rdsps" : [

      ],
      "rsm" : "该功能暂停使用",
      "btm_dsp" : [

      ],
      "act_des" : "",
      "comments_count" : 8,
      "user" : {
        "lvl" : 4,
        "diaries_count" : 0,
        "user_id" : "2531823",
        "is_prime" : 0,
        "email" : "",
        "birthday" : "",
        "qzone_nick" : "",
        "followers_count" : 0,
        "mobile" : "",
        "recipes_count" : 0,
        "nick" : "大嘉嘉嘉吖",
        "lv" : 0,
        "gender" : 2,
        "point" : 0,
        "qq_weibo_nick" : "",
        "subscription_article_count" : 0,
        "location" : 0,
        "introduction" : "",
        "regist_time" : "",
        "avatar_medium" : "http:\/\/tx1.douguo.net\/upload\/photo\/f\/e\/b\/140_u62270189116483110351.jpg",
        "dishes_count" : 0,
        "age" : "",
        "favorites_count" : 0,
        "following_count" : 0,
        "fc" : 0,
        "sign" : "",
        "progress_image" : "",
        "favor_diaries_count" : 0,
        "user_cover" : "",
        "coursecount" : 0,
        "userid" : "2531823",
        "user_photo" : "http:\/\/tx1.douguo.net\/upload\/photo\/f\/e\/b\/70_u62270189116483110351.jpg",
        "weibo_nick" : "",
        "subscription" : 0,
        "verified_url" : "https:\/\/m.douguo.com\/user\/prodesc",
        "user_large_photo" : "http:\/\/tx1.douguo.net\/upload\/photo\/f\/e\/b\/yuan_u62270189116483110351.jpg",
        "verified_image" : "",
        "setted_email" : 0,
        "verified" : 0,
        "pc" : 0
      },
      "create_time" : "2022-10-13 09:11:40",
      "title_ad" : [

      ],
      "title" : "超简单自制炸油条",
      "dishes" : [

      ],
      "cook_time" : "30~60分钟",
      "author_photo" : "http:\/\/tx1.douguo.net\/upload\/photo\/f\/e\/b\/70_u62270189116483110351.jpg",
      "original_photo_path" : "http:\/\/i1.douguo.net\/upload\/caiku\/6\/9\/3\/yuan_697c5694684dc154f3a72bc1a3f1eba3.jpg",
      "rrps" : [

      ]
    }
  }
}