{
  "status" : 0,
  "result" : {
    "recipe" : {
      "cook_difficulty" : "",
      "old_comments" : [

      ],
      "ipit" : 0,
      "hq" : 1,
      "ipt" : "",
      "ph" : 1707,
      "purl" : "",
      "cookstep" : [
        {
          "content" : "0分钟锅中放油爆香葱蒜倒入鸡腿肉炒熟，加入娃娃菜炒软，加勺生抽，一勺蚝油，适量盐翻炒均匀就可以啦",
          "image_height" : 1707,
          "image" : "https:\/\/i1.douguo.com\/upload\/caiku\/d\/e\/a\/de9276f6d18b81c9ec7c9f3cf9b287fa.jpg",
          "image_width" : 1280,
          "thumb" : "https:\/\/i1.douguo.com\/upload\/caiku\/d\/e\/a\/140_de9276f6d18b81c9ec7c9f3cf9b287fa.jpg",
          "position" : 1,
          "frame" : "-1"
        },
        {
          "thumb" : "https:\/\/i1.douguo.com\/upload\/caiku\/3\/8\/8\/140_382012a0216bdac8dbf4f2daea716a28.jpg",
          "image" : "https:\/\/i1.douguo.com\/upload\/caiku\/3\/8\/8\/382012a0216bdac8dbf4f2daea716a28.jpg",
          "frame" : "-1",
          "image_width" : 1280,
          "image_height" : 1707,
          "position" : 2,
          "content" : "鸡腿炖白菜真的不要泰好吃啦!鸡腿肉鲜嫩多汁，白菜鲜甜可口!一下子可以炫3碗大米饭!!\n食材:鸡腿，娃娃菜，葱蒜做法:\n娃娃菜切小块，鸡腿去骨切小块，加勺料酒，适量盐和黑胡椒腌制10分钟\n锅中放油爆香葱蒜倒入鸡腿肉炒熟，加入娃娃菜炒软，加勺生抽，一勺蚝油，适量盐\n翻炒均匀就可以啦"
        },
        {
          "image_width" : 1280,
          "content" : "鸡腿炖白菜真的不要泰好吃啦!鸡腿肉鲜嫩多汁，白菜鲜甜可口!一下子可以炫3碗大米饭!!\n食材:鸡腿，娃娃菜，葱蒜做法:\n娃娃菜切小块，鸡腿去骨切小块，加勺料酒，适量盐和黑胡椒腌制10分钟\n锅中放油爆香葱蒜倒入鸡腿肉炒熟，加入娃娃菜炒软，加勺生抽，一勺蚝油，适量盐\n翻炒均匀就可以啦",
          "image_height" : 1707,
          "image" : "https:\/\/i1.douguo.com\/upload\/caiku\/5\/b\/d\/5babdf58cae98403df99005e4ed4132d.jpg",
          "frame" : "-1",
          "position" : 3,
          "thumb" : "https:\/\/i1.douguo.com\/upload\/caiku\/5\/b\/d\/140_5babdf58cae98403df99005e4ed4132d.jpg"
        },
        {
          "image_height" : 1707,
          "image_width" : 1280,
          "thumb" : "https:\/\/i1.douguo.com\/upload\/caiku\/e\/3\/9\/140_e3249296cab6cf886a5d45e015919449.jpg",
          "content" : "鸡腿炖白菜真的不要泰好吃啦!鸡腿肉鲜嫩多汁，白菜鲜甜可口!一下子可以炫3碗大米饭!!\n食材:鸡腿，娃娃菜，葱蒜做法:\n娃娃菜切小块，鸡腿去骨切小块，加勺料酒，适量盐和黑胡椒腌制10分钟\n锅中放油爆香葱蒜倒入鸡腿肉炒熟，加入娃娃菜炒软，加勺生抽，一勺蚝油，适量盐\n翻炒均匀就可以啦",
          "image" : "https:\/\/i1.douguo.com\/upload\/caiku\/e\/3\/9\/e3249296cab6cf886a5d45e015919449.jpg",
          "position" : 4,
          "frame" : "-1"
        }
      ],
      "recipe_list_tags" : [
        {
          "text" : "关注的人",
          "background_border_color" : "",
          "background_start_color" : "#F4F5F5",
          "text_color" : "#141515",
          "right_image" : "",
          "background_end_color" : "#F4F5F5",
          "jump_url" : ""
        }
      ],
      "recent_comments" : [

      ],
      "vfurl" : "",
      "author" : "美食零食店铺",
      "rrpt" : "",
      "ipurl" : "",
      "recommendation_tag" : "",
      "ssu" : "",
      "top_mdsp" : [

      ],
      "thumb_height" : 0,
      "cookwares" : [

      ],
      "collect_status" : 0,
      "v_u" : "",
      "recommended" : 0,
      "cook_id" : "3255708",
      "dish_count" : 0,
      "hqu" : "recipes:\/\/www.douguo.com\/notedetail?id=21162253",
      "story_dsp" : [

      ],
      "ecs" : 1,
      "tips" : "鸡腿炖白菜真的不要泰好吃啦!鸡腿肉鲜嫩多汁，白菜鲜甜可口!一下子可以炫3碗大米饭!!\n食材:鸡腿，娃娃菜，葱蒜做法:\n娃娃菜切小块，鸡腿去骨切小块，加勺料酒，适量盐和黑胡椒腌制10分钟\n锅中放油爆香葱蒜倒入鸡腿肉炒熟，加入娃娃菜炒软，加勺生抽，一勺蚝油，适量盐\n翻炒均匀就可以啦",
      "vc" : "197052",
      "advice" : {
        "da" : {
          "url" : "https:\/\/m.douguo.com\/recipe\/nutrient_self\/3255708",
          "t" : "查看详细分析",
          "iu" : "https:\/\/i1.douguo.com\/upload\/banner\/f\/4\/d\/f48877e53c37759bc12ac494be82ec8d.png"
        },
        "has" : [
          {
            "url" : "recipes:\/\/www.douguo.com\/simplerecipelist?t=低脂&id=低脂",
            "t" : "低脂"
          },
          {
            "url" : "recipes:\/\/www.douguo.com\/simplerecipelist?t=低饱和脂肪&id=低饱和脂肪",
            "t" : "低饱和脂肪"
          }
        ],
        "at" : "健身人群可以吃～"
      },
      "guide_image" : "",
      "minor" : [

      ],
      "rpid" : 0,
      "ipoi" : "",
      "image" : "http:\/\/i1.douguo.net\/upload\/caiku\/0\/3\/6\/300_03b6eba86886a1a21963bba325fd35d6.jpg",
      "rate" : 0,
      "clicks" : "1",
      "cookstory" : " 鸡腿炖白菜真的不要泰好吃啦!鸡腿肉鲜嫩多汁，白菜鲜甜可口!一下子可以炫3碗大米饭!!\n食材:鸡腿，娃娃菜，葱蒜做法:\n娃娃菜切小块，鸡腿去骨切小块，加勺料酒，适量盐和黑胡椒腌制10分钟\n锅中放油爆香葱蒜倒入鸡腿肉炒熟，加入娃娃菜炒软，加勺生抽，一勺蚝油，适量盐\n翻炒均匀就可以啦 ",
      "rips" : 0,
      "dish_count_text" : "",
      "ipia" : [

      ],
      "share_info" : {
        "name" : "鸡腿炖白菜真的不要泰好吃啦!鸡腿肉鲜嫩多汁，白菜鲜甜可口!-会做饭很酷!",
        "qr_image" : "",
        "s_d" : "鸡腿炖白菜真的不要泰好吃啦!鸡腿肉鲜嫩多汁，白菜鲜甜可口!-会做饭很酷!",
        "infos" : [
          {
            "s_u" : "",
            "channel" : "1",
            "qr_image" : "",
            "s_d" : "#学做饭用豆果美食# 我在@豆果美食 分享了【鸡腿炖白菜真的不要泰好吃啦!鸡腿肉鲜嫩多汁，白菜鲜甜可口!-会做饭很酷!】，色香味俱全说的就是这道菜！查看图片了解菜谱（快来点击https:\/\/m.weibo.cn\/p\/100404i33631和我一起修炼厨艺吧）#会做饭很酷# ",
            "image" : "https:\/\/cp1.douguo.com\/upload\/caiku\/0\/3\/6\/03b6eba86886a1a21963bba325fd35d6.jpg",
            "mini_program" : [

            ],
            "object_id" : "3255708",
            "name" : "鸡腿炖白菜真的不要泰好吃啦!鸡腿肉鲜嫩多汁，白菜鲜甜可口!-会做饭很酷!"
          },
          {
            "s_d" : "鸡腿炖白菜真的不要泰好吃啦!鸡腿肉鲜嫩多汁，白菜鲜甜可口!-会做饭很酷!",
            "image" : "https:\/\/cp1.douguo.com\/upload\/caiku\/0\/3\/6\/03b6eba86886a1a21963bba325fd35d6.jpg",
            "channel" : "7",
            "object_id" : "3255708",
            "name" : "鸡腿炖白菜真的不要泰好吃啦!鸡腿肉鲜嫩多汁，白菜鲜甜可口!-会做饭很酷!",
            "s_u" : "http:\/\/m.douguo.com\/cookbook\/3255708.html",
            "qr_image" : "",
            "mini_program" : [

            ]
          },
          {
            "channel" : "8",
            "qr_image" : "",
            "s_u" : "http:\/\/m.douguo.com\/cookbook\/3255708.html",
            "image" : "https:\/\/cp1.douguo.com\/upload\/caiku\/0\/3\/6\/03b6eba86886a1a21963bba325fd35d6.jpg",
            "name" : "鸡腿炖白菜真的不要泰好吃啦!鸡腿肉鲜嫩多汁，白菜鲜甜可口!-会做饭很酷!",
            "object_id" : "3255708",
            "mini_program" : [

            ],
            "s_d" : "鸡腿炖白菜真的不要泰好吃啦!鸡腿肉鲜嫩多汁，白菜鲜甜可口!-会做饭很酷!"
          }
        ],
        "object_id" : "3255708",
        "mini_program" : [

        ],
        "s_u" : "http:\/\/m.douguo.com\/cookbook\/3255708.html",
        "image" : "https:\/\/cp1.douguo.com\/upload\/caiku\/0\/3\/6\/03b6eba86886a1a21963bba325fd35d6.jpg"
      },
      "major" : [
        {
          "note" : "",
          "title" : "鸡腿",
          "tu" : "https:\/\/m.douguo.com\/ingredients\/鸡腿\/detailmaterial"
        },
        {
          "note" : "",
          "tu" : "https:\/\/m.douguo.com\/ingredients\/娃娃菜\/detailmaterial",
          "title" : "娃娃菜"
        },
        {
          "note" : "",
          "title" : "葱蒜"
        }
      ],
      "packages_id" : [

      ],
      "sc" : 0,
      "recipe_tags" : [

      ],
      "cookstorys" : [
        {
          "u" : "",
          "type" : 0,
          "color" : "",
          "id" : 0,
          "c" : " 鸡腿炖白菜真的不要泰好吃啦!鸡腿肉鲜嫩多汁，白菜鲜甜可口!一下子可以炫3碗大米饭!!\n食材:鸡腿，娃娃菜，葱蒜做法:\n娃娃菜切小块，鸡腿去骨切小块，加勺料酒，适量盐和黑胡椒腌制10分钟\n锅中放油爆香葱蒜倒入鸡腿肉炒熟，加入娃娃菜炒软，加勺生抽，一勺蚝油，适量盐\n翻炒均匀就可以啦 ",
          "icon" : ""
        }
      ],
      "related_ads" : [

      ],
      "thumb_path" : "https:\/\/i1.douguo.com\/upload\/caiku\/0\/3\/6\/300_03b6eba86886a1a21963bba325fd35d6.jpg",
      "eu" : "recipes:\/\/www.douguo.com\/postdetail?id=242016",
      "rpst" : "",
      "pw" : 1280,
      "views_count_text" : "19.7万",
      "recommend_label" : "2774人刚刚收藏过",
      "ipci" : "",
      "title_ad" : [

      ],
      "brand_day_dsp" : [

      ],
      "notes" : [

      ],
      "rewarded_video_dsp" : [

      ],
      "rate_show" : 0,
      "levelid" : 2,
      "cook_time_image" : "",
      "tags" : [

      ],
      "comments_count_text" : "2",
      "photo_path" : "https:\/\/i1.douguo.com\/upload\/caiku\/0\/3\/6\/600_03b6eba86886a1a21963bba325fd35d6.jpg",
      "author_id" : 27417868,
      "ss" : [

      ],
      "comments" : [
        "{\n    ac = \"#999999\";\n    at = \"\\U9752\\U5c9b\\U5e02\";\n    ccc = 0;\n    \"child_comments\" =     (\n    );\n    city = \"\\U9752\\U5c9b\\U5e02\";\n    cmc = 2;\n    content =     (\n                {\n            c = \"\\U814c\\U5236\\U7684\\U5c31\\U4e0d\\U7528\\U712f\\U6c34\\U4e86\";\n        }\n    );\n    ia = 0;\n    id = 9037984;\n    \"ip_address_location\" = \"\\U5c71\\U4e1c\\U7701\";\n    like = 0;\n    \"like_count\" = 0;\n    \"reply_id\" = 0;\n    \"sticker_icon\" =     (\n    );\n    time = \"2023-07-10 18:00:47\";\n    u =     {\n        \"followers_count_text\" = \"\";\n        id = 26671381;\n        \"is_prime\" = 0;\n        lv = 0;\n        lvl = 1;\n        n = \"\\U5783\\U573e\\U6876\\U91cc\\U7684\\U9c7c\\U997c\\U5f88\\U751c\\U6ecb\\U6ecb\";\n        p = \"http:\/\/tx1.douguo.net\/upload\/photo\/1\/1\/1\/70_2c2077e9729ff0fef755be3b3a4d4222.png\";\n        \"progress_image\" = \"\";\n        \"recipes_count_text\" = \"\";\n        relationship = \"-1\";\n        title = \"\";\n        v = 0;\n        \"verified_image\" = \"\";\n    };\n}",
        "{\n    ac = \"#999999\";\n    at = \"\\U4ed9\\U6843\\U5e02\";\n    ccc = 0;\n    \"child_comments\" =     (\n    );\n    city = \"\\U4ed9\\U6843\\U5e02\";\n    cmc = 2;\n    content =     (\n                {\n            c = \"\\U8089\\U8981\\U4e0d\\U8981\\U712f\\U6c34\";\n        }\n    );\n    ia = 0;\n    id = 9037910;\n    \"ip_address_location\" = \"\\U6e56\\U5317\";\n    like = 0;\n    \"like_count\" = 0;\n    \"reply_id\" = 0;\n    \"sticker_icon\" =     (\n    );\n    time = \"2023-07-09 22:26:09\";\n    u =     {\n        \"followers_count_text\" = \"\";\n        id = 8205633;\n        \"is_prime\" = 0;\n        lv = 0;\n        lvl = 2;\n        n = \"\\U7f8e\\U597d\\U65f6\\U514992\";\n        p = \"http:\/\/tx1.douguo.net\/upload\/photo\/1\/d\/7\/70_u23731234726132162817.jpg\";\n        \"progress_image\" = \"\";\n        \"recipes_count_text\" = \"\";\n        relationship = \"-1\";\n        title = \"\";\n        v = 0;\n        \"verified_image\" = \"\";\n    };\n}"
      ],
      "bs" : [

      ],
      "sr" : "",
      "mid_mdsp" : [

      ],
      "rcs" : [

      ],
      "favo_counts" : 2774,
      "vu" : "",
      "rpt" : "",
      "author_verified" : 1,
      "rate_count" : 0,
      "display_ingredient" : 1,
      "first_level_comment_count" : 2,
      "su" : "",
      "favo_counts_text" : "2774",
      "cook_difficulty_image" : "",
      "btm_dsp" : [

      ],
      "rsm" : "该功能暂停使用",
      "rdsps" : [

      ],
      "act_des" : "",
      "comments_count" : 2,
      "create_time" : "2023-06-03 18:09:23",
      "user" : {
        "qzone_nick" : "",
        "diaries_count" : 0,
        "following_count" : 0,
        "verified_url" : "https:\/\/m.douguo.com\/user\/prodesc",
        "birthday" : "",
        "email" : "",
        "subscription_article_count" : 0,
        "mobile" : "",
        "regist_time" : "",
        "lvl" : 6,
        "followers_count" : 0,
        "lv" : 0,
        "sign" : "",
        "recipes_count" : 0,
        "user_large_photo" : "http:\/\/tx1.douguo.net\/upload\/photo\/a\/9\/d\/yuan_a9dfe2e36c59f2f6c4e2fd10c7db626d.jpg",
        "user_id" : "27417868",
        "gender" : 2,
        "verified_image" : "https:\/\/i1.douguo.com\/upload\/note\/d\/a\/a\/da84247847aebe48d9dd0fcdac88862a.png",
        "favor_diaries_count" : 0,
        "age" : "",
        "verified" : 1,
        "coursecount" : 0,
        "setted_email" : 0,
        "user_photo" : "http:\/\/tx1.douguo.net\/upload\/photo\/a\/9\/d\/70_a9dfe2e36c59f2f6c4e2fd10c7db626d.jpg",
        "qq_weibo_nick" : "",
        "introduction" : "",
        "userid" : "27417868",
        "dishes_count" : 0,
        "avatar_medium" : "http:\/\/tx1.douguo.net\/upload\/photo\/a\/9\/d\/140_a9dfe2e36c59f2f6c4e2fd10c7db626d.jpg",
        "fc" : 0,
        "favorites_count" : 0,
        "subscription" : 0,
        "user_cover" : "",
        "point" : 0,
        "progress_image" : "",
        "nick" : "美食零食店铺",
        "location" : 0,
        "is_prime" : 0,
        "weibo_nick" : "",
        "pc" : 0
      },
      "release_time" : "",
      "title" : "鸡腿炖白菜真的不要泰好吃啦!鸡腿肉鲜嫩多汁，白菜鲜甜可口!",
      "dishes" : [

      ],
      "cook_time" : "",
      "author_photo" : "http:\/\/tx1.douguo.net\/upload\/photo\/a\/9\/d\/70_a9dfe2e36c59f2f6c4e2fd10c7db626d.jpg",
      "original_photo_path" : "http:\/\/i1.douguo.net\/upload\/caiku\/0\/3\/6\/yuan_03b6eba86886a1a21963bba325fd35d6.jpg",
      "rrps" : [

      ]
    }
  },
  "state" : "success"
}