{
  "state" : "success",
  "status" : 0,
  "result" : {
    "recipe" : {
      "tips" : "1、反复的揣面是油条好吃的关键点，反反复复的揣面叠面可以将所有的材料充分的混合在一起，这样炸出来的油条才会根根空心又酥脆好吃。\r\n2、油温也是很油条成败的重要因素，油温太低油条也是不容易空心蓬松的。\r\n3、刚开始揣面的时候会觉得特别的粘手，这是因为油条面就是会比包子馒头面软和一些，这样炸出来的油条才会更好吃，而不是放凉了就硬邦邦的。",
      "user" : {
        "nick" : "蓉小厨",
        "avatar_medium" : "http:\/\/tx1.douguo.net\/upload\/photo\/4\/0\/3\/140_u46260142582474162539.jpeg",
        "subscription_article_count" : 0,
        "verified" : 1,
        "coursecount" : 0,
        "favor_diaries_count" : 0,
        "user_photo" : "http:\/\/tx1.douguo.net\/upload\/photo\/4\/0\/3\/70_u46260142582474162539.jpeg",
        "qq_weibo_nick" : "",
        "sign" : "",
        "user_large_photo" : "http:\/\/tx1.douguo.net\/upload\/photo\/4\/0\/3\/yuan_u46260142582474162539.jpeg",
        "point" : 0,
        "age" : "",
        "weibo_nick" : "",
        "subscription" : 0,
        "lv" : 0,
        "followers_count" : 0,
        "userid" : "23093729",
        "regist_time" : "",
        "verified_url" : "https:\/\/m.douguo.com\/user\/prodesc",
        "favorites_count" : 0,
        "birthday" : "",
        "dishes_count" : 0,
        "recipes_count" : 0,
        "fc" : 0,
        "gender" : 2,
        "lvl" : 6,
        "mobile" : "",
        "user_cover" : "",
        "qzone_nick" : "",
        "progress_image" : "",
        "is_prime" : 0,
        "user_id" : "23093729",
        "following_count" : 0,
        "pc" : 0,
        "location" : 0,
        "diaries_count" : 0,
        "email" : "",
        "setted_email" : 0,
        "introduction" : "",
        "verified_image" : "https:\/\/i1.douguo.com\/upload\/note\/d\/a\/a\/da84247847aebe48d9dd0fcdac88862a.png"
      },
      "title" : "油条",
      "purl" : "",
      "ipurl" : "",
      "related_ads" : [

      ],
      "recommended" : 0,
      "ipt" : "",
      "old_comments" : [

      ],
      "pw" : 1919,
      "cook_time" : "",
      "recommendation_tag" : "",
      "recipe_tags" : [

      ],
      "guide_image" : "",
      "author_verified" : 1,
      "thumb_path" : "https:\/\/i1.douguo.com\/upload\/caiku\/8\/0\/5\/300_80c425bcaea9c84b3876ecc1f32608e5.jpg",
      "share_info" : {
        "object_id" : "3114807",
        "qr_image" : "",
        "s_u" : "http:\/\/m.douguo.com\/cookbook\/3114807.html",
        "name" : "油条-会做饭很酷!",
        "infos" : [
          {
            "mini_program" : [

            ],
            "image" : "https:\/\/cp1.douguo.com\/upload\/caiku\/8\/0\/5\/80c425bcaea9c84b3876ecc1f32608e5.jpg",
            "qr_image" : "",
            "s_u" : "",
            "name" : "油条-会做饭很酷!",
            "s_d" : "#学做饭用豆果美食# 会做饭好酷啊！我在@豆果美食 分享了【油条-会做饭很酷!】，今天也是厨艺满满的一天呢，快来和我一起学做美食吧！查看图片了解菜谱（更多美食秘籍点击https:\/\/m.weibo.cn\/p\/100404i33631获取）",
            "channel" : "1",
            "object_id" : "3114807"
          },
          {
            "s_d" : "油条-会做饭很酷!",
            "qr_image" : "",
            "image" : "https:\/\/cp1.douguo.com\/upload\/caiku\/8\/0\/5\/80c425bcaea9c84b3876ecc1f32608e5.jpg",
            "s_u" : "http:\/\/m.douguo.com\/cookbook\/3114807.html",
            "object_id" : "3114807",
            "mini_program" : [

            ],
            "name" : "油条-会做饭很酷!",
            "channel" : "7"
          },
          {
            "image" : "https:\/\/cp1.douguo.com\/upload\/caiku\/8\/0\/5\/80c425bcaea9c84b3876ecc1f32608e5.jpg",
            "s_d" : "油条-会做饭很酷!",
            "object_id" : "3114807",
            "s_u" : "http:\/\/m.douguo.com\/cookbook\/3114807.html",
            "channel" : "8",
            "qr_image" : "",
            "mini_program" : [

            ],
            "name" : "油条-会做饭很酷!"
          }
        ],
        "image" : "https:\/\/cp1.douguo.com\/upload\/caiku\/8\/0\/5\/80c425bcaea9c84b3876ecc1f32608e5.jpg",
        "s_d" : "油条-会做饭很酷!",
        "mini_program" : [

        ]
      },
      "cook_difficulty_image" : "",
      "dishes" : [

      ],
      "mid_mdsp" : [

      ],
      "rate_show" : 0,
      "major" : [
        {
          "note" : "500克",
          "tu" : "https:\/\/m.douguo.com\/ingredients\/面粉\/detailmaterial",
          "title" : "面粉"
        },
        {
          "tu" : "https:\/\/m.douguo.com\/ingredients\/鸡蛋\/detailmaterial",
          "title" : "鸡蛋",
          "note" : "1个"
        },
        {
          "title" : "水",
          "tu" : "https:\/\/m.douguo.com\/ingredients\/水\/detailmaterial",
          "note" : "250克"
        },
        {
          "title" : "小苏打",
          "note" : "3克"
        },
        {
          "tu" : "https:\/\/m.douguo.com\/ingredients\/泡打粉\/detailmaterial",
          "title" : "泡打粉",
          "note" : "8克"
        },
        {
          "note" : "20克",
          "title" : "食用油",
          "tu" : "https:\/\/m.douguo.com\/ingredients\/食用油\/detailmaterial"
        },
        {
          "note" : "5克",
          "tu" : "https:\/\/m.douguo.com\/ingredients\/盐\/detailmaterial",
          "title" : "盐"
        },
        {
          "title" : "糖",
          "tu" : "https:\/\/m.douguo.com\/ingredients\/糖\/detailmaterial",
          "note" : "4克"
        }
      ],
      "ipia" : [

      ],
      "rate_count" : 6,
      "ipit" : 0,
      "btm_dsp" : [

      ],
      "top_mdsp" : [

      ],
      "create_time" : "2021-07-25 22:41:00",
      "minor" : [

      ],
      "tags" : [

      ],
      "clicks" : "75168",
      "cookstep" : [
        {
          "image_width" : 1919,
          "frame" : "-1",
          "image_height" : 1080,
          "thumb" : "https:\/\/i1.douguo.com\/upload\/caiku\/8\/4\/0\/140_841a9f837da696df7c37768869c96530.jpg",
          "position" : 1,
          "image" : "https:\/\/i1.douguo.com\/upload\/caiku\/8\/4\/0\/841a9f837da696df7c37768869c96530.jpg",
          "content" : "来和面。500克面粉、5克盐 、4克糖 、3克小苏打 、8克泡打粉、 搅拌均匀后打入1个鸡蛋， 250克温水 ，用筷子搅拌成面絮状后再加20克食用油。"
        },
        {
          "content" : "接着下手揣面，油条面不能揉，要采用揣面和叠面的手法，刚开始揣面的时候会有点粘手，多揣一会儿就好了。\r\n面团儿基本成型后盖上保鲜膜醒面10分钟，醒面主要是为了下一次揣面更轻松，10分钟后继续揣面，从边上往中间提，然后继续揣面。\r\n慢慢的这个面团儿就会越来越光滑了，然后盖上保鲜膜再次醒面10分钟。10分钟后继续揣面，同样的步骤和手法重复三次。",
          "thumb" : "https:\/\/i1.douguo.com\/upload\/caiku\/0\/3\/2\/140_03fc4be8eec9f425fbed9393697ebf92.jpg",
          "position" : 2,
          "frame" : "-1",
          "image_height" : 1080,
          "image" : "https:\/\/i1.douguo.com\/upload\/caiku\/0\/3\/2\/03fc4be8eec9f425fbed9393697ebf92.jpg",
          "image_width" : 1919
        },
        {
          "image_height" : 1080,
          "image_width" : 1919,
          "image" : "https:\/\/i1.douguo.com\/upload\/caiku\/6\/0\/0\/60529bfeb927c83e6cad5de58db45340.jpg",
          "thumb" : "https:\/\/i1.douguo.com\/upload\/caiku\/6\/0\/0\/140_60529bfeb927c83e6cad5de58db45340.jpg",
          "frame" : "-1",
          "position" : 3,
          "content" : "接着砧板抹油，把面团儿移到砧板上来，分成两份后再搓开搓长，搓好后用保鲜膜包起来，然后放冰箱冷藏一夜。\r\n第二天先把面团儿拿出来回温1个小时，接着砧板撒干面粉防粘，面团儿取出来后不用揉 。\r\n表面再撒一些干面粉，稍微的抻长后擀一擀，擀成0.5厘米厚的长方形后开始切面。\r\n切成宽2厘米左右的长条，然后用筷子沾水后打水线。"
        },
        {
          "content" : "接着两张一重叠，全部做好后用刀背压一下，避免炸的时候散开，最后去掉两端整理一下形状，我们的油条生胚就做好了。",
          "thumb" : "https:\/\/i1.douguo.com\/upload\/caiku\/b\/1\/8\/140_b1928f8b2635338f0e7fd310ea653138.jpg",
          "frame" : "-1",
          "image" : "https:\/\/i1.douguo.com\/upload\/caiku\/b\/1\/8\/b1928f8b2635338f0e7fd310ea653138.jpg",
          "image_width" : 1919,
          "position" : 4,
          "image_height" : 1080
        },
        {
          "thumb" : "https:\/\/i1.douguo.com\/upload\/caiku\/0\/9\/1\/140_09d7146931663ddf85f84b0c3fc78b81.jpg",
          "position" : 5,
          "content" : "锅倒油，油温180度下锅炸，可以用筷子去试一下油温，筷子的周边能迅速的鼓起小泡泡就可以了。",
          "image_height" : 1080,
          "image_width" : 1919,
          "image" : "https:\/\/i1.douguo.com\/upload\/caiku\/0\/9\/1\/09d7146931663ddf85f84b0c3fc78b81.jpg",
          "frame" : "-1"
        },
        {
          "thumb" : "https:\/\/i1.douguo.com\/upload\/caiku\/c\/9\/e\/140_c9f577ab43f9122e43e705129e5abefe.jpg",
          "image_height" : 1080,
          "content" : "接着下油条炸，下锅前稍微的抻长一点，油条飘起来后用筷子不停的翻动油条，这时候油条会迅速的膨胀变大，直到炸至油条金黄熟透就可以出锅了。\r\n我们的油条就炸好了，个个蓬松喧软、外酥里嫩，我们切开看一下，里面都是空心的，趁热吃非常的酥脆，放凉了也不会变硬，吃起来还是柔软的，口感非常的棒。",
          "frame" : "-1",
          "position" : 6,
          "image_width" : 1919,
          "image" : "https:\/\/i1.douguo.com\/upload\/caiku\/c\/9\/e\/c9f577ab43f9122e43e705129e5abefe.jpg"
        }
      ],
      "recent_comments" : [

      ],
      "rpst" : "",
      "vu" : "https:\/\/vplay.douguo.com\/lkLELI9BJH7ZwXxaqQgyOwE3sDS5",
      "release_time" : "",
      "ecs" : 1,
      "rcs" : [

      ],
      "hqu" : "recipes:\/\/www.douguo.com\/notedetail?id=21162253",
      "rdsps" : [

      ],
      "dish_count_text" : "6",
      "collect_status" : 0,
      "favo_counts_text" : "1285",
      "dish_count" : 6,
      "comments" : [
        "{\n    ac = \"#999999\";\n    at = \"\";\n    ccc = 0;\n    \"child_comments\" =     (\n    );\n    city = \"\";\n    cmc = 2;\n    content =     (\n                {\n            c = \"\\U6c34\\U53ef\\U4ee5\\U6362\\U6210\\U7eaf\\U725b\\U5976\\U5417\\Uff0c\\U4f1a\\U5f71\\U54cd\\U53e3\\U611f\\U548c\\U84ec\\U677e\\U5ea6\\U5417\\Uff1f\";\n        }\n    );\n    ia = 0;\n    id = 8979782;\n    \"ip_address_location\" = \"\\U6d59\\U6c5f\\U7701\";\n    like = 0;\n    \"like_count\" = 0;\n    \"reply_id\" = 0;\n    \"sticker_icon\" =     (\n    );\n    time = \"2022-11-03 12:25:00\";\n    u =     {\n        \"followers_count_text\" = \"\";\n        id = 21400582;\n        \"is_prime\" = 0;\n        lv = 0;\n        lvl = 2;\n        n = \"\\U8c46\\U7c899710097544\";\n        p = \"http:\/\/tx1.douguo.net\/upload\/photo\/5\/9\/7\/70_u13066628516609163526.jpeg\";\n        \"progress_image\" = \"\";\n        \"recipes_count_text\" = \"\";\n        relationship = \"-1\";\n        title = \"\";\n        v = 0;\n        \"verified_image\" = \"\";\n    };\n}",
        "{\n    ac = \"#999999\";\n    at = \"\";\n    ccc = 0;\n    \"child_comments\" =     (\n    );\n    city = \"\";\n    cmc = 2;\n    content =     (\n                {\n            c = \"\\U9762\\U6d3b\\U8f6f\\U4e86\\U548b\\U529e\";\n        }\n    );\n    ia = 0;\n    id = 8936777;\n    \"ip_address_location\" = \"\";\n    like = 0;\n    \"like_count\" = 0;\n    \"reply_id\" = 0;\n    \"sticker_icon\" =     (\n    );\n    time = \"2022-04-28 21:42:33\";\n    u =     {\n        \"followers_count_text\" = \"\";\n        id = 26363288;\n        \"is_prime\" = 0;\n        lv = 0;\n        lvl = 1;\n        n = \"\\U5c0f\\U5fc3\\U7ffc\\U7ffc\\U7684\\U7cd6\\U5f88\\U6709\\U5386\\U53f2\";\n        p = \"http:\/\/tx1.douguo.net\/upload\/photo\/1\/1\/1\/70_da99586a01ee8f149594edfc88fa013b.png\";\n        \"progress_image\" = \"\";\n        \"recipes_count_text\" = \"\";\n        relationship = \"-1\";\n        title = \"\";\n        v = 0;\n        \"verified_image\" = \"\";\n    };\n}",
        "{\n    ac = \"#999999\";\n    at = \"\\U5b9c\\U660c\\U5e02\";\n    ccc = 0;\n    \"child_comments\" =     (\n    );\n    city = \"\\U5b9c\\U660c\\U5e02\";\n    cmc = 2;\n    content =     (\n                {\n            c = \"\\U771f\\U7684\\U5f88\\U68d2\\Uff0c\\U6211\\U628a\\U6e29\\U6c34\\U6362\\U6210\\U725b\\U5976\\U7684\\Uff0c\\U5f88\\U9999\\U5f88\\U597d\\U5403\";\n        }\n    );\n    ia = 0;\n    id = 8869440;\n    \"ip_address_location\" = \"\";\n    like = 0;\n    \"like_count\" = 0;\n    \"reply_id\" = 0;\n    \"sticker_icon\" =     (\n    );\n    time = \"2021-11-21 20:40:22\";\n    u =     {\n        \"followers_count_text\" = \"\";\n        id = 2810412;\n        \"is_prime\" = 0;\n        lv = 0;\n        lvl = 1;\n        n = Taizifei;\n        p = \"http:\/\/tx1.douguo.net\/upload\/photo\/6\/9\/1\/70_u69816803352606223922.jpg\";\n        \"progress_image\" = \"\";\n        \"recipes_count_text\" = \"\";\n        relationship = \"-1\";\n        title = \"\";\n        v = 0;\n        \"verified_image\" = \"\";\n    };\n}"
      ],
      "rrpt" : "",
      "cook_difficulty" : "",
      "rpt" : "",
      "rrps" : [

      ],
      "vfurl" : "https:\/\/vplay.douguo.com\/lkLELI9BJH7ZwXxaqQgyOwE3sDS5__640x360.mp4",
      "favo_counts" : 1285,
      "cookwares" : [

      ],
      "levelid" : 2,
      "rips" : 0,
      "story_dsp" : [

      ],
      "author" : "蓉小厨",
      "su" : "",
      "comments_count" : 11,
      "first_level_comment_count" : 11,
      "cook_time_image" : "",
      "title_ad" : [

      ],
      "eu" : "recipes:\/\/www.douguo.com\/postdetail?id=242016",
      "advice" : {
        "at" : "对血管有保护作用～",
        "has" : [
          {
            "t" : "低饱和脂肪",
            "url" : "recipes:\/\/www.douguo.com\/simplerecipelist?t=低饱和脂肪&id=低饱和脂肪"
          }
        ],
        "da" : {
          "t" : "查看详细分析",
          "iu" : "https:\/\/i1.douguo.com\/upload\/banner\/f\/4\/d\/f48877e53c37759bc12ac494be82ec8d.png",
          "url" : "https:\/\/m.douguo.com\/recipe\/nutrient_self\/3114807"
        }
      },
      "image" : "http:\/\/i1.douguo.net\/upload\/caiku\/8\/0\/5\/300_80c425bcaea9c84b3876ecc1f32608e5.jpg",
      "sr" : "",
      "hq" : 1,
      "author_id" : 23093729,
      "cook_id" : "3114807",
      "recommend_label" : "6人学做",
      "rate" : 5,
      "original_photo_path" : "http:\/\/i1.douguo.net\/upload\/caiku\/8\/0\/5\/yuan_80c425bcaea9c84b3876ecc1f32608e5.jpg",
      "bs" : [

      ],
      "cookstorys" : [
        {
          "u" : "",
          "id" : 0,
          "icon" : "",
          "c" : "想吃油条不用买，教你在家做更蓬松酥脆，个个空心，放凉了也好吃",
          "type" : 0,
          "color" : ""
        }
      ],
      "rewarded_video_dsp" : [

      ],
      "author_photo" : "http:\/\/tx1.douguo.net\/upload\/photo\/4\/0\/3\/70_u46260142582474162539.jpeg",
      "packages_id" : [

      ],
      "thumb_height" : 0,
      "rsm" : "该功能暂停使用",
      "ph" : 1080,
      "vc" : "136530",
      "ipoi" : "",
      "v_u" : "",
      "photo_path" : "https:\/\/i1.douguo.com\/upload\/caiku\/8\/0\/5\/600_80c425bcaea9c84b3876ecc1f32608e5.jpg",
      "sc" : 0,
      "recipe_list_tags" : [
        {
          "text_color" : "#141515",
          "background_start_color" : "#F4F5F5",
          "background_border_color" : "",
          "right_image" : "",
          "text" : "关注的人",
          "jump_url" : "",
          "background_end_color" : "#F4F5F5"
        },
        {
          "background_start_color" : "#F4F5F5",
          "background_end_color" : "#F4F5F5",
          "background_border_color" : "",
          "text_color" : "#141515",
          "right_image" : "",
          "text" : "内容详细",
          "jump_url" : ""
        }
      ],
      "cookstory" : "想吃油条不用买，教你在家做更蓬松酥脆，个个空心，放凉了也好吃",
      "ipci" : "",
      "ss" : [

      ],
      "rpid" : 0,
      "brand_day_dsp" : [

      ],
      "views_count_text" : "13.7万",
      "ssu" : "",
      "notes" : [

      ],
      "comments_count_text" : "11",
      "display_ingredient" : 1,
      "act_des" : ""
    }
  }
}