{
  "state" : "success",
  "result" : {
    "recipe" : {
      "author" : "何谓夏凉",
      "rate_count" : 0,
      "purl" : "",
      "create_time" : "2015-03-24 18:54:20",
      "brand_day_dsp" : [

      ],
      "dish_count_text" : "3",
      "photo_path" : "https:\/\/i1.douguo.com\/upload\/caiku\/d\/8\/e\/600_d8a6605c8e52e99221c533d6e6b6137e.jpg",
      "rips" : 0,
      "author_verified" : 0,
      "sr" : "",
      "title_ad" : [

      ],
      "rewarded_video_dsp" : [

      ],
      "favo_counts" : 192,
      "ipci" : "",
      "v_u" : "",
      "su" : "",
      "ssu" : "",
      "advice" : {
        "has" : [

        ],
        "da" : {
          "url" : "https:\/\/m.douguo.com\/recipe\/nutrient_self\/1141029",
          "t" : "查看详细分析",
          "iu" : "https:\/\/i1.douguo.com\/upload\/banner\/f\/4\/d\/f48877e53c37759bc12ac494be82ec8d.png"
        }
      },
      "comments_count" : 1,
      "cook_id" : "1141029",
      "event" : {
        "id" : 0
      },
      "first_level_comment_count" : 1,
      "image" : "http:\/\/i1.douguo.net\/upload\/caiku\/d\/8\/e\/300_d8a6605c8e52e99221c533d6e6b6137e.jpg",
      "vfurl" : "",
      "cook_difficulty_image" : "",
      "cook_difficulty" : "",
      "rsm" : "该功能暂停使用",
      "notes" : [

      ],
      "cookstorys" : [

      ],
      "major" : [
        {
          "title" : "五花肉沫",
          "note" : ""
        },
        {
          "tu" : "https:\/\/m.douguo.com\/ingredients\/葱\/detailmaterial",
          "note" : "",
          "title" : "葱"
        },
        {
          "tu" : "https:\/\/m.douguo.com\/ingredients\/生姜\/detailmaterial",
          "note" : "",
          "title" : "生姜"
        },
        {
          "tu" : "https:\/\/m.douguo.com\/ingredients\/鸡蛋\/detailmaterial",
          "note" : "",
          "title" : "鸡蛋"
        },
        {
          "title" : "马蹄沫",
          "note" : ""
        },
        {
          "title" : "酱油",
          "tu" : "https:\/\/m.douguo.com\/ingredients\/酱油\/detailmaterial",
          "note" : ""
        },
        {
          "tu" : "https:\/\/m.douguo.com\/ingredients\/生抽\/detailmaterial",
          "note" : "",
          "title" : "生抽"
        },
        {
          "note" : "",
          "title" : "冰糖",
          "tu" : "https:\/\/m.douguo.com\/ingredients\/冰糖\/detailmaterial"
        },
        {
          "note" : "",
          "title" : "八角",
          "tu" : "https:\/\/m.douguo.com\/ingredients\/八角\/detailmaterial"
        },
        {
          "title" : "大蒜",
          "note" : "",
          "tu" : "https:\/\/m.douguo.com\/ingredients\/大蒜\/detailmaterial"
        }
      ],
      "cookstory" : "",
      "original_photo_path" : "http:\/\/i1.douguo.net\/upload\/caiku\/d\/8\/e\/yuan_d8a6605c8e52e99221c533d6e6b6137e.jpg",
      "hqu" : "recipes:\/\/www.douguo.com\/notedetail?id=21162253",
      "favo_counts_text" : "192",
      "recommend_label" : "3人学做",
      "ipit" : 0,
      "ipoi" : "",
      "rcs" : [

      ],
      "related_ads" : [

      ],
      "mid_mdsp" : [

      ],
      "user" : {
        "avatar_medium" : "http:\/\/tx1.douguo.net\/upload\/photo\/4\/0\/e\/140_u83139712547054124324.jpg",
        "introduction" : "",
        "pc" : 0,
        "subscription" : 0,
        "userid" : "3530006",
        "verified" : 0,
        "sign" : "",
        "user_photo" : "http:\/\/tx1.douguo.net\/upload\/photo\/4\/0\/e\/70_u83139712547054124324.jpg",
        "coursecount" : 0,
        "subscription_article_count" : 0,
        "location" : 0,
        "qzone_nick" : "",
        "recipes_count" : 0,
        "favor_diaries_count" : 0,
        "progress_image" : "",
        "gender" : 2,
        "qq_weibo_nick" : "",
        "weibo_nick" : "",
        "nick" : "何谓夏凉",
        "user_id" : "3530006",
        "mobile" : "",
        "user_cover" : "",
        "birthday" : "",
        "lvl" : 2,
        "following_count" : 0,
        "verified_image" : "",
        "is_prime" : 0,
        "diaries_count" : 0,
        "verified_url" : "https:\/\/m.douguo.com\/user\/prodesc",
        "age" : "",
        "user_large_photo" : "http:\/\/tx1.douguo.net\/upload\/photo\/4\/0\/e\/yuan_u83139712547054124324.jpg",
        "fc" : 0,
        "lv" : 0,
        "dishes_count" : 0,
        "regist_time" : "",
        "point" : 0,
        "favorites_count" : 0,
        "followers_count" : 0,
        "setted_email" : 0,
        "email" : ""
      },
      "ph" : 600,
      "dishes" : [

      ],
      "cookwares" : [

      ],
      "ipurl" : "",
      "hq" : 1,
      "display_ingredient" : 1,
      "cook_time" : "",
      "guide_image" : "",
      "tags" : [

      ],
      "collect_status" : 0,
      "rrps" : [

      ],
      "thumb_path" : "https:\/\/i1.douguo.com\/upload\/caiku\/d\/8\/e\/300_d8a6605c8e52e99221c533d6e6b6137e.jpg",
      "recipe_list_tags" : [

      ],
      "packages_id" : [

      ],
      "btm_dsp" : [

      ],
      "ipt" : "",
      "release_time" : "",
      "rdsps" : [

      ],
      "rate" : 0,
      "comments_count_text" : "1",
      "rpst" : "",
      "vu" : "",
      "rrpt" : "",
      "old_comments" : [

      ],
      "story_dsp" : [

      ],
      "levelid" : 2,
      "views_count_text" : "1.4万",
      "cookstep" : [
        {
          "image_height" : 600,
          "thumb" : "https:\/\/i1.douguo.com\/upload\/caiku\/f\/2\/0\/140_f230b4c7bf22f8611a993fc7adeab500.jpg",
          "content" : "将生姜沫，葱沫，马蹄沫，两个鸡蛋放入肉沫搅拌均匀，加生抽，老抽生粉，如果太干可加一点水，搅拌",
          "image" : "https:\/\/i1.douguo.com\/upload\/caiku\/f\/2\/0\/f230b4c7bf22f8611a993fc7adeab500.jpg",
          "image_width" : 800,
          "frame" : "-1",
          "position" : 1
        },
        {
          "content" : "锅内加油，将肉沫做成鸡蛋大一点的肉圆炸成金黄色后捞出，将油倒出碗里，等下炒别的菜可用",
          "image" : "https:\/\/i1.douguo.com\/upload\/caiku\/e\/3\/3\/e31918e00c900d9bbcf5b30bb247b4f3.jpg",
          "position" : 2,
          "frame" : "-1",
          "image_width" : 800,
          "image_height" : 600,
          "thumb" : "https:\/\/i1.douguo.com\/upload\/caiku\/e\/3\/3\/140_e31918e00c900d9bbcf5b30bb247b4f3.jpg"
        },
        {
          "frame" : "-1",
          "image" : "https:\/\/i1.douguo.com\/upload\/caiku\/d\/8\/b\/d89c67f8e8714f481395401666d51b7b.jpg",
          "image_height" : 600,
          "image_width" : 800,
          "thumb" : "https:\/\/i1.douguo.com\/upload\/caiku\/d\/8\/b\/140_d89c67f8e8714f481395401666d51b7b.jpg",
          "content" : "锅洗净，内加刚倒出来的油少量，生姜大蒜冰糖八角爆香",
          "position" : 3
        },
        {
          "image" : "https:\/\/i1.douguo.com\/upload\/caiku\/4\/4\/3\/44429b555c7dcf3be677eb23eb0035f3.jpg",
          "image_width" : 800,
          "position" : 4,
          "frame" : "-1",
          "image_height" : 600,
          "thumb" : "https:\/\/i1.douguo.com\/upload\/caiku\/4\/4\/3\/140_44429b555c7dcf3be677eb23eb0035f3.jpg",
          "content" : "肉圆放入锅内，加老抽，盐，开水，大火煮，不要煮太长时间，等汤少了加一点生粉勾芡。"
        },
        {
          "content" : "出锅",
          "frame" : "-1",
          "image" : "https:\/\/i1.douguo.com\/upload\/caiku\/5\/f\/a\/5fcbf2924b06363330e22f22dae28f4a.jpg",
          "thumb" : "https:\/\/i1.douguo.com\/upload\/caiku\/5\/f\/a\/140_5fcbf2924b06363330e22f22dae28f4a.jpg",
          "image_width" : 800,
          "position" : 5,
          "image_height" : 600
        },
        {
          "position" : 6,
          "image_height" : 600,
          "content" : "撒一点黑芝麻，葱就可上桌",
          "image" : "https:\/\/i1.douguo.com\/upload\/caiku\/4\/1\/f\/412261298d6a046a08c28cd3e6a6a3bf.jpg",
          "thumb" : "https:\/\/i1.douguo.com\/upload\/caiku\/4\/1\/f\/140_412261298d6a046a08c28cd3e6a6a3bf.jpg",
          "image_width" : 800,
          "frame" : "-1"
        }
      ],
      "rate_show" : 0,
      "ipia" : [

      ],
      "bs" : [

      ],
      "top_mdsp" : [

      ],
      "recommendation_tag" : "",
      "recent_comments" : [

      ],
      "eu" : "recipes:\/\/www.douguo.com\/postdetail?id=242016",
      "author_photo" : "http:\/\/tx1.douguo.net\/upload\/photo\/4\/0\/e\/70_u83139712547054124324.jpg",
      "ss" : [

      ],
      "title" : "红烧狮子头",
      "sc" : 0,
      "rpt" : "",
      "clicks" : "12557",
      "act_des" : "",
      "share_info" : {
        "image" : "https:\/\/cp1.douguo.com\/upload\/caiku\/d\/8\/e\/d8a6605c8e52e99221c533d6e6b6137e.jpg",
        "object_id" : "1141029",
        "qr_image" : "",
        "s_d" : "红烧狮子头-会做饭很酷!",
        "s_u" : "http:\/\/m.douguo.com\/cookbook\/1141029.html",
        "mini_program" : [

        ],
        "name" : "红烧狮子头-会做饭很酷!",
        "infos" : [
          {
            "s_d" : "#学做饭用豆果美食# 会做饭真是太酷了！我在@豆果美食 分享了【红烧狮子头-会做饭很酷!】，看着是不是馋到不行呢～快来跟我学学吧！查看图片了解菜谱，（想要获取更多美食就看这https:\/\/m.weibo.cn\/p\/100404i33631）",
            "image" : "https:\/\/cp1.douguo.com\/upload\/caiku\/d\/8\/e\/d8a6605c8e52e99221c533d6e6b6137e.jpg",
            "mini_program" : [

            ],
            "name" : "红烧狮子头-会做饭很酷!",
            "channel" : "1",
            "s_u" : "",
            "qr_image" : "",
            "object_id" : "1141029"
          },
          {
            "channel" : "7",
            "mini_program" : [

            ],
            "s_u" : "http:\/\/m.douguo.com\/cookbook\/1141029.html",
            "qr_image" : "",
            "s_d" : "红烧狮子头-会做饭很酷!",
            "name" : "红烧狮子头-会做饭很酷!",
            "object_id" : "1141029",
            "image" : "https:\/\/cp1.douguo.com\/upload\/caiku\/d\/8\/e\/d8a6605c8e52e99221c533d6e6b6137e.jpg"
          },
          {
            "image" : "https:\/\/cp1.douguo.com\/upload\/caiku\/d\/8\/e\/d8a6605c8e52e99221c533d6e6b6137e.jpg",
            "qr_image" : "",
            "object_id" : "1141029",
            "s_u" : "http:\/\/m.douguo.com\/cookbook\/1141029.html",
            "mini_program" : [

            ],
            "s_d" : "红烧狮子头-会做饭很酷!",
            "channel" : "8",
            "name" : "红烧狮子头-会做饭很酷!"
          }
        ]
      },
      "comments" : [
        "{\n    ac = \"#999999\";\n    at = \"\";\n    ccc = 0;\n    \"child_comments\" =     (\n    );\n    city = \"\";\n    cmc = 2;\n    content =     (\n                {\n            c = \"\\U5982\\U679c\\U80fd\\U5403\\U8fd9\\U9053\\U83dc\\Uff0c\\U6211\\U5b81\\U613f\\U5929\\U5929\\U6d17\\U5b8c\\U62d6\\U5730\";\n        }\n    );\n    ia = 0;\n    id = 6099088;\n    \"ip_address_location\" = \"\";\n    like = 0;\n    \"like_count\" = 0;\n    \"reply_id\" = 0;\n    \"sticker_icon\" =     (\n    );\n    time = \"2018-10-08 10:34:28\";\n    u =     {\n        \"followers_count_text\" = \"\";\n        id = 18536942;\n        \"is_prime\" = 0;\n        lv = 0;\n        lvl = 4;\n        n = \"\\U98df\\U5473\\U77e5\\U9ad3\";\n        p = \"http:\/\/tx1.douguo.net\/upload\/photo\/8\/6\/8\/70_u82738659287409180307.jpg\";\n        \"progress_image\" = \"\";\n        \"recipes_count_text\" = \"\";\n        relationship = \"-1\";\n        title = \"\";\n        v = 0;\n        \"verified_image\" = \"\";\n    };\n}"
      ],
      "vc" : "13614",
      "minor" : [

      ],
      "cook_time_image" : "",
      "rpid" : 0,
      "ecs" : 0,
      "pw" : 800,
      "dish_count" : 3,
      "thumb_height" : 0,
      "recommended" : 0,
      "recipe_tags" : [

      ],
      "author_id" : 3530006,
      "tips" : ""
    }
  },
  "status" : 0
}