{
  "status" : 0,
  "result" : {
    "recipe" : {
      "favo_counts" : 3885,
      "rate_show" : 0,
      "rsm" : "该功能暂停使用",
      "ssu" : "",
      "rcs" : [

      ],
      "cookstorys" : [
        {
          "icon" : "",
          "c" : "今天收到熊猫玛德琳模具，好可爱呀，来给它开光，食材可做16个熊猫头",
          "u" : "",
          "color" : "",
          "type" : 0,
          "id" : 0
        },
        {
          "type" : 0,
          "icon" : "",
          "c" : "\n参与活动:",
          "id" : 0,
          "u" : "",
          "color" : ""
        },
        {
          "u" : "https:\/\/m.douguo.com\/activity\/ncpzj\/detail\/3772?isapp=1&open=0&_vs=1000300&&dg_refreshkey=publishnote",
          "id" : 0,
          "icon" : "",
          "type" : 0,
          "c" : "#美国开心果免费申请开启啦！快来享受开心果快乐食光吧~#"
        }
      ],
      "su" : "",
      "comments_count" : 0,
      "collect_status" : 0,
      "ipit" : 0,
      "photo_path" : "https:\/\/i1.douguo.com\/upload\/caiku\/0\/e\/7\/600_0eaa979b0ff380f00c7a52b19b9f38f7.jpg",
      "bs" : [

      ],
      "tags" : [

      ],
      "recommend_label" : "3885人刚刚收藏过",
      "sr" : "",
      "title" : "熊猫玛德琳",
      "major" : [
        {
          "note" : "150克",
          "tu" : "https:\/\/m.douguo.com\/ingredients\/低粉\/detailmaterial",
          "title" : "低粉"
        },
        {
          "tu" : "https:\/\/m.douguo.com\/ingredients\/黄油\/detailmaterial",
          "note" : "100克",
          "title" : "黄油"
        },
        {
          "note" : "4个",
          "title" : "鸡蛋",
          "tu" : "https:\/\/m.douguo.com\/ingredients\/鸡蛋\/detailmaterial"
        },
        {
          "note" : "20克",
          "title" : "糖",
          "tu" : "https:\/\/m.douguo.com\/ingredients\/糖\/detailmaterial"
        },
        {
          "note" : "5克",
          "title" : "泡打粉",
          "tu" : "https:\/\/m.douguo.com\/ingredients\/泡打粉\/detailmaterial"
        },
        {
          "title" : "可可粉",
          "tu" : "https:\/\/m.douguo.com\/ingredients\/可可粉\/detailmaterial",
          "note" : "6克"
        },
        {
          "note" : "60克",
          "tu" : "https:\/\/m.douguo.com\/ingredients\/蜂蜜\/detailmaterial",
          "title" : "蜂蜜"
        }
      ],
      "original_photo_path" : "http:\/\/i1.douguo.net\/upload\/caiku\/0\/e\/7\/yuan_0eaa979b0ff380f00c7a52b19b9f38f7.jpg",
      "comments" : [

      ],
      "packages_id" : [

      ],
      "levelid" : 2,
      "image" : "http:\/\/i1.douguo.net\/upload\/caiku\/0\/e\/7\/300_0eaa979b0ff380f00c7a52b19b9f38f7.jpg",
      "top_mdsp" : [

      ],
      "rate_count" : 0,
      "vu" : "",
      "vc" : "113269",
      "rewarded_video_dsp" : [

      ],
      "favo_counts_text" : "3885",
      "recipe_tags" : [

      ],
      "hq" : 1,
      "rips" : 0,
      "ipci" : "",
      "author" : "爱美食的拉拉",
      "rate" : 0,
      "purl" : "",
      "ph" : 853,
      "thumb_height" : 0,
      "event" : {
        "name" : "美国开心果免费申请开启啦！快来享受开心果快乐食光吧~",
        "url" : "https:\/\/m.douguo.com\/activity\/ncpzj\/detail\/3772?isapp=1&open=0&_vs=1000300&&dg_refreshkey=publishnote",
        "id" : 3772
      },
      "recipe_list_tags" : [
        {
          "text" : "关注的人",
          "right_image" : "",
          "text_color" : "#141515",
          "background_end_color" : "#F4F5F5",
          "background_border_color" : "",
          "background_start_color" : "#F4F5F5",
          "jump_url" : ""
        },
        {
          "background_border_color" : "",
          "background_start_color" : "#F4F5F5",
          "text" : "值得pick",
          "text_color" : "#141515",
          "background_end_color" : "#F4F5F5",
          "jump_url" : "",
          "right_image" : ""
        },
        {
          "background_start_color" : "#F4F5F5",
          "text" : "内容详细",
          "background_border_color" : "",
          "right_image" : "",
          "jump_url" : "",
          "background_end_color" : "#F4F5F5",
          "text_color" : "#141515"
        }
      ],
      "rpid" : 0,
      "v_u" : "",
      "ecs" : 0,
      "author_id" : 21078489,
      "create_time" : "2023-06-12 10:04:16",
      "act_des" : "",
      "first_level_comment_count" : 0,
      "dishes" : [

      ],
      "rrps" : [

      ],
      "old_comments" : [

      ],
      "ss" : [

      ],
      "rrpt" : "",
      "recommended" : 0,
      "mid_mdsp" : [

      ],
      "rdsps" : [

      ],
      "story_dsp" : [

      ],
      "sc" : 0,
      "user" : {
        "following_count" : 0,
        "mobile" : "",
        "avatar_medium" : "http:\/\/tx1.douguo.net\/upload\/photo\/2\/9\/b\/140_29f8e3d78ae6bcc2edff91e6de160fab.jpg",
        "lvl" : 7,
        "is_prime" : 0,
        "verified_image" : "https:\/\/i1.douguo.com\/upload\/note\/d\/a\/a\/da84247847aebe48d9dd0fcdac88862a.png",
        "user_cover" : "",
        "favorites_count" : 0,
        "lv" : 0,
        "favor_diaries_count" : 0,
        "birthday" : "",
        "qzone_nick" : "",
        "weibo_nick" : "",
        "introduction" : "",
        "user_photo" : "http:\/\/tx1.douguo.net\/upload\/photo\/2\/9\/b\/70_29f8e3d78ae6bcc2edff91e6de160fab.jpg",
        "dishes_count" : 0,
        "point" : 0,
        "coursecount" : 0,
        "verified_url" : "https:\/\/m.douguo.com\/user\/prodesc",
        "user_large_photo" : "http:\/\/tx1.douguo.net\/upload\/photo\/2\/9\/b\/yuan_29f8e3d78ae6bcc2edff91e6de160fab.jpg",
        "sign" : "",
        "progress_image" : "",
        "fc" : 0,
        "verified" : 1,
        "qq_weibo_nick" : "",
        "age" : "",
        "user_id" : "21078489",
        "nick" : "爱美食的拉拉",
        "pc" : 0,
        "location" : 0,
        "gender" : 2,
        "email" : "",
        "recipes_count" : 0,
        "regist_time" : "",
        "userid" : "21078489",
        "setted_email" : 0,
        "followers_count" : 0,
        "diaries_count" : 0,
        "subscription_article_count" : 0,
        "subscription" : 0
      },
      "minor" : [

      ],
      "author_photo" : "http:\/\/tx1.douguo.net\/upload\/photo\/2\/9\/b\/70_29f8e3d78ae6bcc2edff91e6de160fab.jpg",
      "btm_dsp" : [

      ],
      "views_count_text" : "11.3万",
      "cook_time" : "10~30分钟",
      "author_verified" : 1,
      "display_ingredient" : 1,
      "dish_count_text" : "",
      "ipia" : [

      ],
      "rpst" : "",
      "dish_count" : 0,
      "release_time" : "",
      "cook_difficulty" : "切墩(初级)",
      "cookstory" : "今天收到熊猫玛德琳模具，好可爱呀，来给它开光，食材可做16个熊猫头",
      "recent_comments" : [

      ],
      "notes" : [

      ],
      "vfurl" : "",
      "cook_difficulty_image" : "https:\/\/i1.douguo.com\/upload\/banner\/1551424390.png",
      "title_ad" : [

      ],
      "guide_image" : "",
      "recommendation_tag" : "",
      "pw" : 1280,
      "advice" : {
        "da" : {
          "t" : "查看详细分析",
          "url" : "https:\/\/m.douguo.com\/recipe\/nutrient_self\/3257551",
          "iu" : "https:\/\/i1.douguo.com\/upload\/banner\/f\/4\/d\/f48877e53c37759bc12ac494be82ec8d.png"
        },
        "has" : [
          {
            "t" : "高脂肪",
            "url" : "recipes:\/\/www.douguo.com\/simplerecipelist?t=高脂肪&id=高脂肪"
          }
        ],
        "at" : "减肥的美女注意喽～"
      },
      "related_ads" : [

      ],
      "cook_time_image" : "https:\/\/i1.douguo.com\/upload\/banner\/1551424341.png",
      "cookstep" : [
        {
          "image_width" : 1280,
          "content" : "黄油微波炉叮一下成液体",
          "image_height" : 960,
          "image" : "https:\/\/i1.douguo.com\/upload\/caiku\/7\/6\/e\/76d19d9874fe69942263e4c4c2b5bade.jpg",
          "frame" : "-1",
          "thumb" : "https:\/\/i1.douguo.com\/upload\/caiku\/7\/6\/e\/140_76d19d9874fe69942263e4c4c2b5bade.jpg",
          "position" : 1
        },
        {
          "image_height" : 1707,
          "image_width" : 1280,
          "thumb" : "https:\/\/i1.douguo.com\/upload\/caiku\/4\/b\/c\/140_4b81c72c3a3ba047ef1de6ecf8ec310c.jpg",
          "content" : "倒出蜂蜜",
          "image" : "https:\/\/i1.douguo.com\/upload\/caiku\/4\/b\/c\/4b81c72c3a3ba047ef1de6ecf8ec310c.jpg",
          "position" : 2,
          "frame" : "-1"
        },
        {
          "content" : "鸡蛋中放入白糖",
          "image" : "https:\/\/i1.douguo.com\/upload\/caiku\/7\/1\/d\/716e9e2d2dfab325567347690c06e94d.jpg",
          "frame" : "-1",
          "thumb" : "https:\/\/i1.douguo.com\/upload\/caiku\/7\/1\/d\/140_716e9e2d2dfab325567347690c06e94d.jpg",
          "position" : 3,
          "image_width" : 1280,
          "image_height" : 1707
        },
        {
          "image" : "https:\/\/i1.douguo.com\/upload\/caiku\/b\/c\/9\/bcc99a2b5b0be4102311f5e245ef3169.jpg",
          "frame" : "-1",
          "position" : 4,
          "thumb" : "https:\/\/i1.douguo.com\/upload\/caiku\/b\/c\/9\/140_bcc99a2b5b0be4102311f5e245ef3169.jpg",
          "content" : "打散",
          "image_width" : 1280,
          "image_height" : 1707
        },
        {
          "image" : "https:\/\/i1.douguo.com\/upload\/caiku\/9\/9\/4\/99aaafff345220ff6bc7669e1d544cd4.jpg",
          "image_height" : 1707,
          "frame" : "-1",
          "thumb" : "https:\/\/i1.douguo.com\/upload\/caiku\/9\/9\/4\/140_99aaafff345220ff6bc7669e1d544cd4.jpg",
          "content" : "筛入低粉、泡打粉、可可粉",
          "image_width" : 1280,
          "position" : 5
        },
        {
          "image_height" : 1707,
          "frame" : "-1",
          "thumb" : "https:\/\/i1.douguo.com\/upload\/caiku\/1\/c\/f\/140_1cece00447b8fdf1949960bc33260c4f.jpg",
          "position" : 6,
          "content" : "搅拌均匀",
          "image" : "https:\/\/i1.douguo.com\/upload\/caiku\/1\/c\/f\/1cece00447b8fdf1949960bc33260c4f.jpg",
          "image_width" : 1280
        },
        {
          "position" : 7,
          "frame" : "-1",
          "image_height" : 960,
          "image_width" : 1280,
          "content" : "倒入黄油、蜂蜜",
          "thumb" : "https:\/\/i1.douguo.com\/upload\/caiku\/5\/7\/b\/140_57c4e7b76615b4d9481fb20bc1360deb.jpg",
          "image" : "https:\/\/i1.douguo.com\/upload\/caiku\/5\/7\/b\/57c4e7b76615b4d9481fb20bc1360deb.jpg"
        },
        {
          "image_width" : 1280,
          "content" : "搅拌均匀",
          "image" : "https:\/\/i1.douguo.com\/upload\/caiku\/8\/8\/6\/88e74909e1b0286b3630130a42aeed26.jpg",
          "thumb" : "https:\/\/i1.douguo.com\/upload\/caiku\/8\/8\/6\/140_88e74909e1b0286b3630130a42aeed26.jpg",
          "position" : 8,
          "frame" : "-1",
          "image_height" : 960
        },
        {
          "image_height" : 960,
          "position" : 9,
          "content" : "装入裱花袋",
          "image" : "https:\/\/i1.douguo.com\/upload\/caiku\/0\/6\/2\/06f3b484343945d0989ed92d0e6a8f02.jpg",
          "thumb" : "https:\/\/i1.douguo.com\/upload\/caiku\/0\/6\/2\/140_06f3b484343945d0989ed92d0e6a8f02.jpg",
          "image_width" : 1280,
          "frame" : "-1"
        },
        {
          "content" : "挤入模具",
          "image_width" : 1280,
          "image" : "https:\/\/i1.douguo.com\/upload\/caiku\/5\/d\/4\/5d639feacc40670f81aa8f143d0313d4.jpg",
          "frame" : "-1",
          "thumb" : "https:\/\/i1.douguo.com\/upload\/caiku\/5\/d\/4\/140_5d639feacc40670f81aa8f143d0313d4.jpg",
          "image_height" : 960,
          "position" : 10
        },
        {
          "position" : 11,
          "content" : "烤箱180烤制15分钟",
          "frame" : "-1",
          "image_width" : 1280,
          "image" : "https:\/\/i1.douguo.com\/upload\/caiku\/4\/5\/2\/45912a3acbef9e9660a43b0e32c201f2.jpg",
          "thumb" : "https:\/\/i1.douguo.com\/upload\/caiku\/4\/5\/2\/140_45912a3acbef9e9660a43b0e32c201f2.jpg",
          "image_height" : 960
        },
        {
          "position" : 12,
          "frame" : "-1",
          "thumb" : "https:\/\/i1.douguo.com\/upload\/caiku\/3\/6\/3\/140_36a5b9c3bc8ddc3dad3520872ae6e9c3.jpg",
          "image_height" : 960,
          "image_width" : 1280,
          "image" : "https:\/\/i1.douguo.com\/upload\/caiku\/3\/6\/3\/36a5b9c3bc8ddc3dad3520872ae6e9c3.jpg",
          "content" : "很容易就脱模了"
        },
        {
          "frame" : "-1",
          "image_width" : 1280,
          "thumb" : "https:\/\/i1.douguo.com\/upload\/caiku\/4\/9\/8\/140_49e2f1ba3663d64502364f2bf3e51bb8.jpg",
          "position" : 13,
          "content" : "成品图",
          "image_height" : 853,
          "image" : "https:\/\/i1.douguo.com\/upload\/caiku\/4\/9\/8\/49e2f1ba3663d64502364f2bf3e51bb8.jpg"
        },
        {
          "image" : "https:\/\/i1.douguo.com\/upload\/caiku\/e\/c\/3\/ec4fa007e5493ee57cda993ae1ece423.jpg",
          "content" : "成品图",
          "image_width" : 1280,
          "image_height" : 853,
          "position" : 14,
          "thumb" : "https:\/\/i1.douguo.com\/upload\/caiku\/e\/c\/3\/140_ec4fa007e5493ee57cda993ae1ece423.jpg",
          "frame" : "-1"
        },
        {
          "image_width" : 1280,
          "position" : 15,
          "image_height" : 853,
          "thumb" : "https:\/\/i1.douguo.com\/upload\/caiku\/4\/f\/d\/140_4f4a6e9897a1cba653502150dd8c7f6d.jpg",
          "image" : "https:\/\/i1.douguo.com\/upload\/caiku\/4\/f\/d\/4f4a6e9897a1cba653502150dd8c7f6d.jpg",
          "frame" : "-1",
          "content" : "成品图"
        },
        {
          "frame" : "-1",
          "image" : "https:\/\/i1.douguo.com\/upload\/caiku\/6\/c\/7\/6c31929e805e9771b57798d2b1f61ab7.jpg",
          "image_height" : 853,
          "content" : "成品图",
          "image_width" : 1280,
          "thumb" : "https:\/\/i1.douguo.com\/upload\/caiku\/6\/c\/7\/140_6c31929e805e9771b57798d2b1f61ab7.jpg",
          "position" : 16
        }
      ],
      "share_info" : {
        "qr_image" : "",
        "s_d" : "#美国开心果快乐食光#熊猫玛德琳-会做饭很酷!",
        "image" : "https:\/\/cp1.douguo.com\/upload\/caiku\/0\/e\/7\/0eaa979b0ff380f00c7a52b19b9f38f7.jpg",
        "object_id" : "3257551",
        "name" : "#美国开心果快乐食光#熊猫玛德琳-会做饭很酷!",
        "infos" : [
          {
            "mini_program" : [

            ],
            "object_id" : "3257551",
            "image" : "https:\/\/cp1.douguo.com\/upload\/caiku\/0\/e\/7\/0eaa979b0ff380f00c7a52b19b9f38f7.jpg",
            "s_u" : "",
            "channel" : "1",
            "s_d" : "#学做饭用豆果美食# 会做饭真是太酷了！我在@豆果美食 分享了【#美国开心果快乐食光#熊猫玛德琳-会做饭很酷!】，这道菜真的神仙美味！喜欢的一定要试试绝对不会错的！～查看图片了解菜谱（快来点击https:\/\/m.weibo.cn\/p\/100404i33631和我一起修炼厨艺吧）",
            "qr_image" : "",
            "name" : "#美国开心果快乐食光#熊猫玛德琳-会做饭很酷!"
          },
          {
            "s_u" : "http:\/\/m.douguo.com\/cookbook\/3257551.html",
            "channel" : "7",
            "qr_image" : "",
            "s_d" : "#美国开心果快乐食光#熊猫玛德琳-会做饭很酷!",
            "mini_program" : [

            ],
            "image" : "https:\/\/cp1.douguo.com\/upload\/caiku\/0\/e\/7\/0eaa979b0ff380f00c7a52b19b9f38f7.jpg",
            "object_id" : "3257551",
            "name" : "#美国开心果快乐食光#熊猫玛德琳-会做饭很酷!"
          },
          {
            "channel" : "8",
            "mini_program" : [

            ],
            "object_id" : "3257551",
            "name" : "#美国开心果快乐食光#熊猫玛德琳-会做饭很酷!",
            "s_d" : "#美国开心果快乐食光#熊猫玛德琳-会做饭很酷!",
            "qr_image" : "",
            "s_u" : "http:\/\/m.douguo.com\/cookbook\/3257551.html",
            "image" : "https:\/\/cp1.douguo.com\/upload\/caiku\/0\/e\/7\/0eaa979b0ff380f00c7a52b19b9f38f7.jpg"
          }
        ],
        "s_u" : "http:\/\/m.douguo.com\/cookbook\/3257551.html",
        "mini_program" : [

        ]
      },
      "cookwares" : [

      ],
      "cook_id" : "3257551",
      "ipt" : "",
      "thumb_path" : "https:\/\/i1.douguo.com\/upload\/caiku\/0\/e\/7\/300_0eaa979b0ff380f00c7a52b19b9f38f7.jpg",
      "clicks" : "1",
      "hqu" : "recipes:\/\/www.douguo.com\/notedetail?id=21162253",
      "eu" : "recipes:\/\/www.douguo.com\/postdetail?id=242016",
      "comments_count_text" : "",
      "brand_day_dsp" : [

      ],
      "ipurl" : "",
      "ipoi" : "",
      "rpt" : "",
      "tips" : "中间加盖铝箔纸防止烤焦"
    }
  },
  "state" : "success"
}