{
  "status" : 0,
  "result" : {
    "recipe" : {
      "original_photo_path" : "http:\/\/i1.douguo.net\/upload\/caiku\/6\/f\/f\/yuan_6fac3d174678cf9b9cc1df827d2eb5df.jpeg",
      "cook_difficulty" : "",
      "ipit" : 0,
      "old_comments" : [

      ],
      "ipt" : "",
      "ph" : 578,
      "recent_comments" : [

      ],
      "recipe_list_tags" : [
        {
          "text" : "值得pick",
          "background_border_color" : "",
          "background_start_color" : "#F4F5F5",
          "text_color" : "#141515",
          "right_image" : "",
          "background_end_color" : "#F4F5F5",
          "jump_url" : ""
        }
      ],
      "purl" : "",
      "vfurl" : "",
      "cookstep" : [
        {
          "image" : "https:\/\/i1.douguo.com\/upload\/caiku\/4\/0\/7\/40d736bb4e062646b87dc0f301517777.jpeg",
          "frame" : "-1",
          "position" : 1,
          "image_width" : 720,
          "content" : "1. 番茄、土豆、胡萝卜切丁；洋葱、青椒红椒切丝备用。",
          "thumb" : "https:\/\/i1.douguo.com\/upload\/caiku\/4\/0\/7\/140_40d736bb4e062646b87dc0f301517777.jpeg",
          "image_height" : 960
        },
        {
          "image_height" : 0,
          "image_width" : 0,
          "thumb" : "",
          "content" : "2. 鸡肉切块，加一勺淀粉、适量黑胡椒粉拌匀，腌制15分钟以上。",
          "image" : "",
          "position" : 2,
          "frame" : "-1"
        },
        {
          "content" : "3. 锅中放适量黄油或者任何食用油都可以。",
          "image" : "",
          "frame" : "-1",
          "thumb" : "",
          "image_width" : 0,
          "position" : 3,
          "image_height" : 0
        },
        {
          "image_height" : 0,
          "image" : "",
          "image_width" : 0,
          "content" : "4. 待油烧热后放入洋葱翻炒。",
          "frame" : "-1",
          "thumb" : "",
          "position" : 4
        },
        {
          "position" : 5,
          "frame" : "-1",
          "image_height" : 0,
          "image_width" : 0,
          "content" : "5. 等洋葱香味出来以后，放入腌制好的鸡肉迅速划散。",
          "thumb" : "",
          "image" : ""
        },
        {
          "image_height" : 960,
          "frame" : "-1",
          "image" : "https:\/\/i1.douguo.com\/upload\/caiku\/a\/8\/7\/a8001db6418512329cf7740e20939d47.jpeg",
          "position" : 6,
          "content" : "6. 鸡肉颜色泛白以后加入土豆胡萝卜丁翻炒，等胡萝卜和土豆断生以后放入番茄丁。",
          "thumb" : "https:\/\/i1.douguo.com\/upload\/caiku\/a\/8\/7\/140_a8001db6418512329cf7740e20939d47.jpeg",
          "image_width" : 720
        },
        {
          "frame" : "-1",
          "image_height" : 960,
          "image" : "https:\/\/i1.douguo.com\/upload\/caiku\/f\/6\/b\/f6fc680c6e4365cdf8678e257bad801b.jpeg",
          "image_width" : 720,
          "position" : 7,
          "content" : "7. 待番茄变软，加入适量水、番茄酱、一勺酱油，盖上锅盖焖煮，直到土豆胡萝卜软烂、汤汁浓稠，加盐、鸡精调味关火。",
          "thumb" : "https:\/\/i1.douguo.com\/upload\/caiku\/f\/6\/b\/140_f6fc680c6e4365cdf8678e257bad801b.jpeg"
        },
        {
          "content" : "8. 在烤碗中加入两小碗米饭，稍微铺平，不要压太实。",
          "thumb" : "",
          "image" : "",
          "frame" : "-1",
          "image_width" : 0,
          "position" : 8,
          "image_height" : 0
        },
        {
          "image_height" : 960,
          "thumb" : "https:\/\/i1.douguo.com\/upload\/caiku\/e\/f\/0\/140_efe53d5dc728faac8505aa79cc4d61d0.jpeg",
          "frame" : "-1",
          "content" : "9. 在米饭上铺上刚才煮好的番茄鸡肉，把汤汁也一起浇上。",
          "position" : 9,
          "image_width" : 720,
          "image" : "https:\/\/i1.douguo.com\/upload\/caiku\/e\/f\/0\/efe53d5dc728faac8505aa79cc4d61d0.jpeg"
        },
        {
          "image_width" : 0,
          "position" : 10,
          "image" : "",
          "content" : "10. 先铺一层芝士，再铺上切好丝的青椒红椒，再铺上一层芝士。",
          "thumb" : "",
          "image_height" : 0,
          "frame" : "-1"
        },
        {
          "frame" : "-1",
          "content" : "11. 烤箱预热200度，烤制15分钟左右，到芝士软化即可取出。趁热尝尝，超美味哦！",
          "image_width" : 420,
          "image" : "https:\/\/i1.douguo.com\/upload\/caiku\/9\/9\/d\/9968ce18498c1018faa15976f4e7e24d.jpeg",
          "image_height" : 578,
          "position" : 11,
          "thumb" : "https:\/\/i1.douguo.com\/upload\/caiku\/9\/9\/d\/140_9968ce18498c1018faa15976f4e7e24d.jpeg"
        }
      ],
      "rrpt" : "",
      "author" : "人间烟火rbzn",
      "ipurl" : "",
      "recommendation_tag" : "",
      "top_mdsp" : [

      ],
      "ssu" : "",
      "thumb_height" : 0,
      "cookwares" : [

      ],
      "collect_status" : 0,
      "cook_id" : "1314174",
      "v_u" : "",
      "hqu" : "recipes:\/\/www.douguo.com\/notedetail?id=21162253",
      "dish_count" : 4,
      "recommended" : 0,
      "ecs" : 0,
      "story_dsp" : [

      ],
      "vc" : "91884",
      "tips" : "",
      "advice" : {
        "at" : "能有效控制体重～",
        "da" : {
          "t" : "查看详细分析",
          "iu" : "https:\/\/i1.douguo.com\/upload\/banner\/f\/4\/d\/f48877e53c37759bc12ac494be82ec8d.png",
          "url" : "https:\/\/m.douguo.com\/recipe\/nutrient_self\/1314174"
        },
        "has" : [
          {
            "t" : "低脂",
            "url" : "recipes:\/\/www.douguo.com\/simplerecipelist?t=低脂&id=低脂"
          },
          {
            "url" : "recipes:\/\/www.douguo.com\/simplerecipelist?t=低饱和脂肪&id=低饱和脂肪",
            "t" : "低饱和脂肪"
          }
        ]
      },
      "rpid" : 0,
      "minor" : [

      ],
      "ipoi" : "",
      "guide_image" : "",
      "image" : "http:\/\/i1.douguo.net\/upload\/caiku\/6\/f\/f\/300_6fac3d174678cf9b9cc1df827d2eb5df.jpeg",
      "rate" : 0,
      "clicks" : "88774",
      "cookstory" : "焗，是一种制作工艺。 相等于蒸、焖、烤、炸等，焗是用专用的焗炉烤制而成，相较于其他的制作手法，焗更能保留食物的原汁原味，更能挖掘食物的营养价值。这是一种西餐技艺。 焗饭，顾名思义是一种被浓香芝士覆盖着的一种食物 ，是芝士与米饭的完美结合。较适合年轻群体。 与披萨、意面并列为西餐三大经典系列。",
      "rips" : 0,
      "ipia" : [

      ],
      "dish_count_text" : "4",
      "share_info" : {
        "mini_program" : [

        ],
        "name" : "番茄鸡肉浓情焗饭-会做饭很酷!",
        "object_id" : "1314174",
        "qr_image" : "",
        "s_u" : "http:\/\/m.douguo.com\/cookbook\/1314174.html",
        "image" : "https:\/\/cp1.douguo.com\/upload\/caiku\/6\/f\/f\/6fac3d174678cf9b9cc1df827d2eb5df.jpeg",
        "s_d" : "番茄鸡肉浓情焗饭-会做饭很酷!",
        "infos" : [
          {
            "qr_image" : "",
            "s_d" : "#学做饭用豆果美食# 我在@豆果美食 分享了【番茄鸡肉浓情焗饭-会做饭很酷!】，哟，集美们～你看这是神仙美味～快跟着我做一份，做一份！查看图片了解菜谱（更多美食秘籍点击https:\/\/m.weibo.cn\/p\/100404i33631获取）#会做饭很酷# ",
            "image" : "https:\/\/cp1.douguo.com\/upload\/caiku\/6\/f\/f\/6fac3d174678cf9b9cc1df827d2eb5df.jpeg",
            "object_id" : "1314174",
            "name" : "番茄鸡肉浓情焗饭-会做饭很酷!",
            "s_u" : "",
            "mini_program" : [

            ],
            "channel" : "1"
          },
          {
            "s_u" : "http:\/\/m.douguo.com\/cookbook\/1314174.html",
            "channel" : "7",
            "qr_image" : "",
            "s_d" : "番茄鸡肉浓情焗饭-会做饭很酷!",
            "image" : "https:\/\/cp1.douguo.com\/upload\/caiku\/6\/f\/f\/6fac3d174678cf9b9cc1df827d2eb5df.jpeg",
            "mini_program" : [

            ],
            "object_id" : "1314174",
            "name" : "番茄鸡肉浓情焗饭-会做饭很酷!"
          },
          {
            "mini_program" : [

            ],
            "image" : "https:\/\/cp1.douguo.com\/upload\/caiku\/6\/f\/f\/6fac3d174678cf9b9cc1df827d2eb5df.jpeg",
            "object_id" : "1314174",
            "s_u" : "http:\/\/m.douguo.com\/cookbook\/1314174.html",
            "channel" : "8",
            "s_d" : "番茄鸡肉浓情焗饭-会做饭很酷!",
            "qr_image" : "",
            "name" : "番茄鸡肉浓情焗饭-会做饭很酷!"
          }
        ]
      },
      "related_ads" : [

      ],
      "sc" : 0,
      "packages_id" : [

      ],
      "major" : [
        {
          "tu" : "https:\/\/m.douguo.com\/ingredients\/鸡胸肉\/detailmaterial",
          "title" : "鸡胸肉",
          "note" : "150克"
        },
        {
          "title" : "胡萝卜",
          "tu" : "https:\/\/m.douguo.com\/ingredients\/胡萝卜\/detailmaterial",
          "note" : "半根"
        },
        {
          "tu" : "https:\/\/m.douguo.com\/ingredients\/土豆\/detailmaterial",
          "note" : "1个",
          "title" : "土豆"
        },
        {
          "title" : "西红柿",
          "note" : "1个",
          "tu" : "https:\/\/m.douguo.com\/ingredients\/西红柿\/detailmaterial"
        },
        {
          "note" : "半个",
          "tu" : "https:\/\/m.douguo.com\/ingredients\/青椒\/detailmaterial",
          "title" : "青椒"
        },
        {
          "tu" : "https:\/\/m.douguo.com\/ingredients\/红椒\/detailmaterial",
          "title" : "红椒",
          "note" : "半个"
        },
        {
          "title" : "黑胡椒粉",
          "note" : "适量",
          "tu" : "https:\/\/m.douguo.com\/ingredients\/黑胡椒粉\/detailmaterial"
        },
        {
          "tu" : "https:\/\/m.douguo.com\/ingredients\/生粉\/detailmaterial",
          "title" : "生粉",
          "note" : "适量"
        },
        {
          "title" : "盐、糖",
          "note" : "适量"
        },
        {
          "tu" : "https:\/\/m.douguo.com\/ingredients\/酱油\/detailmaterial",
          "title" : "酱油",
          "note" : "1勺"
        },
        {
          "title" : "洋葱",
          "note" : "半个",
          "tu" : "https:\/\/m.douguo.com\/ingredients\/洋葱\/detailmaterial"
        },
        {
          "title" : "马苏里拉芝士碎",
          "note" : "适量"
        }
      ],
      "cookstorys" : [
        {
          "icon" : "",
          "c" : "焗，是一种制作工艺。 相等于蒸、焖、烤、炸等，焗是用专用的焗炉烤制而成，相较于其他的制作手法，焗更能保留食物的原汁原味，更能挖掘食物的营养价值。这是一种西餐技艺。 焗饭，顾名思义是一种被浓香芝士覆盖着的一种食物 ，是芝士与米饭的完美结合。较适合年轻群体。 与披萨、意面并列为西餐三大经典系列。",
          "u" : "",
          "color" : "",
          "type" : 0,
          "id" : 0
        }
      ],
      "recipe_tags" : [

      ],
      "thumb_path" : "https:\/\/i1.douguo.com\/upload\/caiku\/6\/f\/f\/300_6fac3d174678cf9b9cc1df827d2eb5df.jpeg",
      "rpst" : "",
      "eu" : "recipes:\/\/www.douguo.com\/postdetail?id=242016",
      "pw" : 420,
      "views_count_text" : "9.2万",
      "recommend_label" : "4人学做",
      "author_id" : 15926351,
      "bs" : [

      ],
      "brand_day_dsp" : [

      ],
      "notes" : [

      ],
      "rewarded_video_dsp" : [

      ],
      "levelid" : 2,
      "rate_show" : 0,
      "title_ad" : [

      ],
      "tags" : [
        "{\n    text = \"\\U4e3b\\U98df\";\n}",
        "{\n    text = \"\\U7117\\U996d\";\n}",
        "{\n    text = \"\\U70e4\\U7bb1\\U98df\\U8c31\";\n}",
        "{\n    text = \"\\U7117\";\n}",
        "{\n    text = \"\\U5348\\U9910\";\n}"
      ],
      "comments_count_text" : "",
      "photo_path" : "https:\/\/i1.douguo.com\/upload\/caiku\/6\/f\/f\/600_6fac3d174678cf9b9cc1df827d2eb5df.jpeg",
      "favo_counts_text" : "2128",
      "ss" : [

      ],
      "comments" : [

      ],
      "ipci" : "",
      "rcs" : [

      ],
      "mid_mdsp" : [

      ],
      "sr" : "",
      "vu" : "",
      "favo_counts" : 2128,
      "rpt" : "",
      "display_ingredient" : 1,
      "author_verified" : 0,
      "rate_count" : 0,
      "release_time" : "",
      "su" : "",
      "cook_time_image" : "",
      "cook_difficulty_image" : "",
      "rdsps" : [

      ],
      "rsm" : "该功能暂停使用",
      "btm_dsp" : [

      ],
      "act_des" : "",
      "comments_count" : 0,
      "user" : {
        "nick" : "人间烟火rbzn",
        "lv" : 0,
        "recipes_count" : 0,
        "followers_count" : 0,
        "email" : "",
        "favorites_count" : 0,
        "birthday" : "",
        "point" : 0,
        "subscription_article_count" : 0,
        "verified" : 0,
        "following_count" : 0,
        "pc" : 0,
        "diaries_count" : 0,
        "verified_url" : "https:\/\/m.douguo.com\/user\/prodesc",
        "qzone_nick" : "",
        "qq_weibo_nick" : "",
        "user_photo" : "http:\/\/tx1.douguo.net\/upload\/photo\/3\/8\/4\/70_u50541804466544231757.jpeg",
        "age" : "",
        "favor_diaries_count" : 0,
        "dishes_count" : 0,
        "userid" : "15926351",
        "user_cover" : "",
        "is_prime" : 0,
        "subscription" : 0,
        "setted_email" : 0,
        "mobile" : "",
        "weibo_nick" : "",
        "introduction" : "",
        "verified_image" : "",
        "avatar_medium" : "http:\/\/tx1.douguo.net\/upload\/photo\/3\/8\/4\/140_u50541804466544231757.jpeg",
        "lvl" : 2,
        "regist_time" : "",
        "fc" : 0,
        "location" : 0,
        "sign" : "",
        "progress_image" : "",
        "user_id" : "15926351",
        "user_large_photo" : "http:\/\/tx1.douguo.net\/upload\/photo\/3\/8\/4\/yuan_u50541804466544231757.jpeg",
        "coursecount" : 0,
        "gender" : 2
      },
      "create_time" : "2016-01-03 23:17:14",
      "first_level_comment_count" : 0,
      "title" : "番茄鸡肉浓情焗饭",
      "dishes" : [

      ],
      "hq" : 1,
      "author_photo" : "http:\/\/tx1.douguo.net\/upload\/photo\/3\/8\/4\/70_u50541804466544231757.jpeg",
      "cook_time" : "",
      "rrps" : [

      ]
    }
  },
  "state" : "success"
}