{
  "state" : "success",
  "result" : {
    "recipe" : {
      "recommendation_tag" : "",
      "hq" : 1,
      "author_photo" : "http:\/\/tx1.douguo.net\/upload\/photo\/2\/1\/4\/70_u55968356313010234901.jpg",
      "collect_status" : 0,
      "rrps" : [

      ],
      "recent_comments" : [

      ],
      "favo_counts_text" : "5798",
      "title_ad" : [

      ],
      "v_u" : "",
      "cookwares" : [

      ],
      "rate_show" : 0,
      "rrpt" : "",
      "levelid" : 2,
      "eu" : "recipes:\/\/www.douguo.com\/postdetail?id=242016",
      "recommend_label" : "2人学做",
      "ssu" : "",
      "views_count_text" : "28.4万",
      "cookstory" : "这道小鱼干中加入烤箱烘烤过的花生米，特别特别好吃，无论是零食，还是下酒菜，都特别好。",
      "dishes" : [

      ],
      "rpid" : 0,
      "cook_difficulty_image" : "https:\/\/i1.douguo.com\/upload\/banner\/1551424390.png",
      "hqu" : "recipes:\/\/www.douguo.com\/notedetail?id=21162253",
      "ipurl" : "",
      "brand_day_dsp" : [

      ],
      "rpt" : "",
      "pw" : 1080,
      "ecs" : 0,
      "ipoi" : "",
      "comments_count_text" : "7",
      "vfurl" : "",
      "act_des" : "",
      "rate" : 5,
      "notes" : [

      ],
      "btm_dsp" : [

      ],
      "comments" : [
        "{\n    ac = \"#999999\";\n    at = \"\\U5f90\\U5dde\\U5e02\";\n    ccc = 1;\n    \"child_comments\" =     (\n                {\n            ac = \"#999999\";\n            at = \"\\U4e0a\\U6d77\\U5e02\";\n            ccc = 0;\n            city = \"\\U4e0a\\U6d77\\U5e02\";\n            cmc = 2;\n            content =             (\n                                {\n                    c = \" \\U5c0f\\U9c7c\\U5e72\\U662f\\U54b8\\U7684\\Uff0c\\U4e5f\\U53ef\\U4ee5\\U6309\\U4f60\\U81ea\\U5df1\\U559c\\U6b22\\U8c03\\U5473\\Ud83d\\Ude04\";\n                }\n            );\n            ia = 1;\n            id = 6505328;\n            \"ip_address_location\" = \"\";\n            like = 0;\n            \"like_count\" = 0;\n            \"reply_id\" = 6505204;\n            \"reply_user\" =             {\n                \"followers_count_text\" = \"\";\n                id = 19792781;\n                \"is_prime\" = 0;\n                lv = 0;\n                lvl = 6;\n                n = \"\\U86cb\\U86cb\\U548c\\U8bfa\\U8bfa\";\n                p = \"http:\/\/tx1.douguo.net\/upload\/photo\/e\/e\/7\/70_u88861990874573181403.jpg\";\n                \"progress_image\" = \"\";\n                \"recipes_count_text\" = \"\";\n                relationship = \"-1\";\n                title = \"\";\n                v = 0;\n                \"verified_image\" = \"\";\n            };\n            \"sticker_icon\" =             (\n            );\n            time = \"2019-04-13 10:37:15\";\n            u =             {\n                \"followers_count_text\" = \"\";\n                id = 16627624;\n                \"is_prime\" = 0;\n                lv = 0;\n                lvl = 8;\n                n = \"\\U67ad\\U7b11\";\n                p = \"http:\/\/tx1.douguo.net\/upload\/photo\/2\/1\/4\/70_u55968356313010234901.jpg\";\n                \"progress_image\" = \"\";\n                \"recipes_count_text\" = \"\";\n                relationship = \"-1\";\n                title = \"\";\n                v = 1;\n                \"verified_image\" = \"\";\n            };\n        }\n    );\n    city = \"\\U5f90\\U5dde\\U5e02\";\n    cmc = 2;\n    content =     (\n                {\n            c = \"\\U5176\\U4ed6\\U8c03\\U5473\\U6599\\U90fd\\U4e0d\\U7528\\U653e\\U5417\\Uff1f\";\n        }\n    );\n    ia = 0;\n    id = 6505204;\n    \"ip_address_location\" = \"\";\n    like = 0;\n    \"like_count\" = 0;\n    \"reply_id\" = 0;\n    \"sticker_icon\" =     (\n    );\n    time = \"2019-04-13 09:52:16\";\n    u =     {\n        \"followers_count_text\" = \"\";\n        id = 19792781;\n        \"is_prime\" = 0;\n        lv = 0;\n        lvl = 6;\n        n = \"\\U86cb\\U86cb\\U548c\\U8bfa\\U8bfa\";\n        p = \"http:\/\/tx1.douguo.net\/upload\/photo\/e\/e\/7\/70_u88861990874573181403.jpg\";\n        \"progress_image\" = \"\";\n        \"recipes_count_text\" = \"\";\n        relationship = \"-1\";\n        title = \"\";\n        v = 0;\n        \"verified_image\" = \"\";\n    };\n}",
        "{\n    ac = \"#999999\";\n    at = \"\";\n    ccc = 1;\n    \"child_comments\" =     (\n                {\n            ac = \"#999999\";\n            at = \"\\U4e0a\\U6d77\\U5e02\";\n            ccc = 0;\n            city = \"\\U4e0a\\U6d77\\U5e02\";\n            cmc = 2;\n            content =             (\n                                {\n                    c = \" \\U505a\\U4e86\\U5c31\\U5403\\U5440\\Uff01\\U4e3a\\U4ec0\\U4e48\\U653e\\Uff1f\";\n                }\n            );\n            ia = 1;\n            id = 6500712;\n            \"ip_address_location\" = \"\";\n            like = 0;\n            \"like_count\" = 0;\n            \"reply_id\" = 6500432;\n            \"reply_user\" =             {\n                \"followers_count_text\" = \"\";\n                id = 23631454;\n                \"is_prime\" = 0;\n                lv = 0;\n                lvl = 6;\n                n = \"\\U6b65\\U6cb1\";\n                p = \"http:\/\/tx1.douguo.net\/upload\/photo\/0\/a\/e\/70_u9361931659520330020252.jpg\";\n                \"progress_image\" = \"\";\n                \"recipes_count_text\" = \"\";\n                relationship = \"-1\";\n                title = \"\";\n                v = 0;\n                \"verified_image\" = \"\";\n            };\n            \"sticker_icon\" =             (\n            );\n            time = \"2019-04-11 16:43:07\";\n            u =             {\n                \"followers_count_text\" = \"\";\n                id = 16627624;\n                \"is_prime\" = 0;\n                lv = 0;\n                lvl = 8;\n                n = \"\\U67ad\\U7b11\";\n                p = \"http:\/\/tx1.douguo.net\/upload\/photo\/2\/1\/4\/70_u55968356313010234901.jpg\";\n                \"progress_image\" = \"\";\n                \"recipes_count_text\" = \"\";\n                relationship = \"-1\";\n                title = \"\";\n                v = 1;\n                \"verified_image\" = \"\";\n            };\n        }\n    );\n    city = \"\";\n    cmc = 2;\n    content =     (\n                {\n            c = \"\\U4eb2\\Uff0c\\U4e00\\U822c\\U505a\\U5b8c\\U80fd\\U653e\\U591a\\U4e45\\U5462\\Uff1f\";\n        }\n    );\n    ia = 0;\n    id = 6500432;\n    \"ip_address_location\" = \"\";\n    like = 0;\n    \"like_count\" = 0;\n    \"reply_id\" = 0;\n    \"sticker_icon\" =     (\n    );\n    time = \"2019-04-11 14:16:31\";\n    u =     {\n        \"followers_count_text\" = \"\";\n        id = 23631454;\n        \"is_prime\" = 0;\n        lv = 0;\n        lvl = 6;\n        n = \"\\U6b65\\U6cb1\";\n        p = \"http:\/\/tx1.douguo.net\/upload\/photo\/0\/a\/e\/70_u9361931659520330020252.jpg\";\n        \"progress_image\" = \"\";\n        \"recipes_count_text\" = \"\";\n        relationship = \"-1\";\n        title = \"\";\n        v = 0;\n        \"verified_image\" = \"\";\n    };\n}",
        "{\n    ac = \"#999999\";\n    at = \"\\U5317\\U4eac\\U5e02\";\n    ccc = 0;\n    \"child_comments\" =     (\n    );\n    city = \"\\U5317\\U4eac\\U5e02\";\n    cmc = 2;\n    content =     (\n                {\n            c = \"\\U5bb5\\U591c\\U8d70\\U8d77\";\n        }\n    );\n    ia = 0;\n    id = 6491124;\n    \"ip_address_location\" = \"\";\n    like = 0;\n    \"like_count\" = 0;\n    \"reply_id\" = 0;\n    \"sticker_icon\" =     (\n    );\n    time = \"2019-04-07 17:21:58\";\n    u =     {\n        \"followers_count_text\" = \"\";\n        id = 23081499;\n        \"is_prime\" = 0;\n        lv = 0;\n        lvl = 4;\n        n = yoyoxxx;\n        p = \"http:\/\/tx1.douguo.net\/upload\/photo\/e\/5\/9\/70_u45963417198591133527.jpeg\";\n        \"progress_image\" = \"\";\n        \"recipes_count_text\" = \"\";\n        relationship = \"-1\";\n        title = \"\";\n        v = 0;\n        \"verified_image\" = \"\";\n    };\n}"
      ],
      "author" : "枭笑",
      "recommended" : 0,
      "rdsps" : [

      ],
      "cookstorys" : [
        {
          "c" : "这道小鱼干中加入烤箱烘烤过的花生米，特别特别好吃，无论是零食，还是下酒菜，都特别好。",
          "color" : "",
          "type" : 0,
          "u" : "",
          "icon" : "",
          "id" : 0
        }
      ],
      "purl" : "",
      "photo_path" : "https:\/\/i1.douguo.com\/upload\/caiku\/f\/e\/7\/600_fe877a97bc2c6a2b5a4adc3674338077.jpg",
      "favo_counts" : 5798,
      "ss" : [

      ],
      "user" : {
        "is_prime" : 0,
        "user_id" : "16627624",
        "weibo_nick" : "",
        "user_large_photo" : "http:\/\/tx1.douguo.net\/upload\/photo\/2\/1\/4\/yuan_u55968356313010234901.jpg",
        "progress_image" : "",
        "recipes_count" : 0,
        "fc" : 0,
        "gender" : 2,
        "favorites_count" : 0,
        "sign" : "",
        "coursecount" : 0,
        "point" : 0,
        "verified_url" : "https:\/\/m.douguo.com\/user\/prodesc",
        "verified_image" : "https:\/\/i1.douguo.com\/upload\/note\/d\/a\/a\/da84247847aebe48d9dd0fcdac88862a.png",
        "qq_weibo_nick" : "",
        "user_cover" : "",
        "userid" : "16627624",
        "lvl" : 8,
        "birthday" : "",
        "pc" : 0,
        "mobile" : "",
        "subscription_article_count" : 0,
        "introduction" : "",
        "diaries_count" : 0,
        "verified" : 1,
        "user_photo" : "http:\/\/tx1.douguo.net\/upload\/photo\/2\/1\/4\/70_u55968356313010234901.jpg",
        "email" : "",
        "favor_diaries_count" : 0,
        "lv" : 0,
        "dishes_count" : 0,
        "followers_count" : 0,
        "following_count" : 0,
        "setted_email" : 0,
        "qzone_nick" : "",
        "regist_time" : "",
        "nick" : "枭笑",
        "age" : "",
        "avatar_medium" : "http:\/\/tx1.douguo.net\/upload\/photo\/2\/1\/4\/140_u55968356313010234901.jpg",
        "location" : 0,
        "subscription" : 0
      },
      "event" : {
        "id" : 0
      },
      "old_comments" : [

      ],
      "comments_count" : 7,
      "related_ads" : [

      ],
      "major" : [
        {
          "title" : "小鱼干",
          "note" : "250g"
        },
        {
          "note" : "80g",
          "title" : "花生米"
        },
        {
          "note" : "2g",
          "title" : "熟白芝麻"
        },
        {
          "title" : "红辣椒",
          "note" : "2个"
        }
      ],
      "ipt" : "",
      "author_id" : 16627624,
      "author_verified" : 1,
      "title" : "香辣花生小鱼干",
      "release_time" : "",
      "ph" : 810,
      "dish_count_text" : "2",
      "recipe_tags" : [

      ],
      "packages_id" : [

      ],
      "cook_id" : "2167486",
      "cookstep" : [
        {
          "image_height" : 960,
          "position" : 1,
          "image" : "https:\/\/i1.douguo.com\/upload\/caiku\/6\/f\/6\/6f3142d11e69e07f55537beb2da66786.jpg",
          "frame" : "-1",
          "content" : "准备好鱼干。",
          "image_width" : 1280,
          "thumb" : "https:\/\/i1.douguo.com\/upload\/caiku\/6\/f\/6\/140_6f3142d11e69e07f55537beb2da66786.jpg"
        },
        {
          "position" : 2,
          "image_height" : 600,
          "image" : "https:\/\/i1.douguo.com\/upload\/caiku\/9\/a\/5\/9ad362d037493009e1ed3000a1d16495.jpg",
          "thumb" : "https:\/\/i1.douguo.com\/upload\/caiku\/9\/a\/5\/140_9ad362d037493009e1ed3000a1d16495.jpg",
          "content" : "将小鱼干鱼头去掉，轻轻一拉即可，依次做完。",
          "image_width" : 800,
          "frame" : "-1"
        },
        {
          "image_width" : 1280,
          "content" : "准备好花生，小鱼干洗干净，冷水泡30分钟。",
          "image" : "https:\/\/i1.douguo.com\/upload\/caiku\/d\/4\/3\/d4ef7a593ac1c647b740d523b491c693.jpg",
          "image_height" : 960,
          "position" : 3,
          "thumb" : "https:\/\/i1.douguo.com\/upload\/caiku\/d\/4\/3\/140_d4ef7a593ac1c647b740d523b491c693.jpg",
          "frame" : "-1"
        },
        {
          "thumb" : "https:\/\/i1.douguo.com\/upload\/caiku\/a\/0\/c\/140_a09d27b1936fd3fb51402fa6b1e90cfc.jpg",
          "position" : 4,
          "image_width" : 800,
          "image_height" : 600,
          "image" : "https:\/\/i1.douguo.com\/upload\/caiku\/a\/0\/c\/a09d27b1936fd3fb51402fa6b1e90cfc.jpg",
          "frame" : "-1",
          "content" : "将花生放入烤盘中，入东菱烤箱中层。"
        },
        {
          "thumb" : "https:\/\/i1.douguo.com\/upload\/caiku\/b\/a\/b\/140_ba9ae776b004e99af149c8e60cdb93eb.jpg",
          "image" : "https:\/\/i1.douguo.com\/upload\/caiku\/b\/a\/b\/ba9ae776b004e99af149c8e60cdb93eb.jpg",
          "content" : "上下管200度烤8分钟。",
          "position" : 5,
          "image_height" : 960,
          "frame" : "-1",
          "image_width" : 1280
        },
        {
          "image_width" : 800,
          "image" : "https:\/\/i1.douguo.com\/upload\/caiku\/5\/1\/9\/51037f01809f9244e3148ea844030fe9.jpg",
          "frame" : "-1",
          "position" : 6,
          "content" : "起油锅，加入淋干水分的小鱼干煸炒。",
          "thumb" : "https:\/\/i1.douguo.com\/upload\/caiku\/5\/1\/9\/140_51037f01809f9244e3148ea844030fe9.jpg",
          "image_height" : 600
        },
        {
          "thumb" : "https:\/\/i1.douguo.com\/upload\/caiku\/e\/a\/b\/140_ea5709b96d86fc28d7f7b01a2b3e895b.jpg",
          "image_height" : 600,
          "frame" : "-1",
          "image_width" : 800,
          "position" : 7,
          "content" : "炒至变色后，加入切好的红辣椒。",
          "image" : "https:\/\/i1.douguo.com\/upload\/caiku\/e\/a\/b\/ea5709b96d86fc28d7f7b01a2b3e895b.jpg"
        },
        {
          "thumb" : "https:\/\/i1.douguo.com\/upload\/caiku\/1\/0\/f\/140_107837303a32030a1deacca64b89005f.jpg",
          "image_width" : 800,
          "frame" : "-1",
          "content" : "最后加入烤好的花生米迅速翻炒，均匀即可关火出锅。",
          "image" : "https:\/\/i1.douguo.com\/upload\/caiku\/1\/0\/f\/107837303a32030a1deacca64b89005f.jpg",
          "position" : 8,
          "image_height" : 600
        },
        {
          "content" : "盛出装盘，热上熟白芝麻。",
          "image" : "https:\/\/i1.douguo.com\/upload\/caiku\/9\/e\/e\/9e069fce1b49f0a12295e9ade635348e.jpg",
          "position" : 9,
          "image_height" : 600,
          "thumb" : "https:\/\/i1.douguo.com\/upload\/caiku\/9\/e\/e\/140_9e069fce1b49f0a12295e9ade635348e.jpg",
          "image_width" : 800,
          "frame" : "-1"
        },
        {
          "image_width" : 1080,
          "thumb" : "https:\/\/i1.douguo.com\/upload\/caiku\/c\/a\/a\/140_ca8c09581ffeec543cfa9be6e8e57d0a.jpg",
          "position" : 10,
          "image" : "https:\/\/i1.douguo.com\/upload\/caiku\/c\/a\/a\/ca8c09581ffeec543cfa9be6e8e57d0a.jpg",
          "frame" : "-1",
          "content" : "健康的零食，也是下酒菜。",
          "image_height" : 810
        },
        {
          "image" : "https:\/\/i1.douguo.com\/upload\/caiku\/f\/c\/e\/fc335c02cf503ac0ad834bfa41c4099e.jpg",
          "image_height" : 600,
          "frame" : "-1",
          "position" : 11,
          "image_width" : 800,
          "thumb" : "https:\/\/i1.douguo.com\/upload\/caiku\/f\/c\/e\/140_fc335c02cf503ac0ad834bfa41c4099e.jpg",
          "content" : "特别好吃。"
        },
        {
          "position" : 12,
          "content" : "花生米香脆。",
          "image_width" : 800,
          "image_height" : 600,
          "image" : "https:\/\/i1.douguo.com\/upload\/caiku\/7\/4\/a\/74d9c926ecd3717b02b881aced1bf21a.jpg",
          "frame" : "-1",
          "thumb" : "https:\/\/i1.douguo.com\/upload\/caiku\/7\/4\/a\/140_74d9c926ecd3717b02b881aced1bf21a.jpg"
        },
        {
          "position" : 13,
          "image_width" : 800,
          "thumb" : "https:\/\/i1.douguo.com\/upload\/caiku\/4\/4\/0\/140_44980651cb0033dcd374aa4706bbc6f0.jpg",
          "content" : "小鱼干咸香，一口一条小鱼，一杯啤酒几条小鱼干～感觉特别好呦～",
          "image" : "https:\/\/i1.douguo.com\/upload\/caiku\/4\/4\/0\/44980651cb0033dcd374aa4706bbc6f0.jpg",
          "image_height" : 600,
          "frame" : "-1"
        }
      ],
      "su" : "",
      "vu" : "",
      "bs" : [

      ],
      "original_photo_path" : "http:\/\/i1.douguo.net\/upload\/caiku\/f\/e\/7\/yuan_fe877a97bc2c6a2b5a4adc3674338077.jpg",
      "mid_mdsp" : [

      ],
      "ipci" : "",
      "minor" : [

      ],
      "cook_difficulty" : "切墩(初级)",
      "vc" : "284172",
      "cook_time_image" : "https:\/\/i1.douguo.com\/upload\/banner\/1551424318.png",
      "cook_time" : "30–60分钟",
      "sc" : 0,
      "display_ingredient" : 1,
      "story_dsp" : [

      ],
      "rips" : 0,
      "first_level_comment_count" : 5,
      "thumb_height" : 0,
      "ipia" : [

      ],
      "share_info" : {
        "object_id" : "2167486",
        "s_d" : "#带着美食去踏青#香辣花生小鱼干-会做饭很酷!",
        "qr_image" : "",
        "infos" : [
          {
            "mini_program" : [

            ],
            "object_id" : "2167486",
            "s_u" : "",
            "image" : "https:\/\/cp1.douguo.com\/upload\/caiku\/f\/e\/7\/fe877a97bc2c6a2b5a4adc3674338077.jpg",
            "channel" : "1",
            "name" : "#带着美食去踏青#香辣花生小鱼干-会做饭很酷!",
            "s_d" : "#学做饭用豆果美食# 我在@豆果美食 分享了【#带着美食去踏青#香辣花生小鱼干-会做饭很酷!】，色香味俱全说的就是这道菜！查看图片了解菜谱（快来点击https:\/\/m.weibo.cn\/p\/100404i33631和我一起修炼厨艺吧）#会做饭很酷# ",
            "qr_image" : ""
          },
          {
            "mini_program" : [

            ],
            "image" : "https:\/\/cp1.douguo.com\/upload\/caiku\/f\/e\/7\/fe877a97bc2c6a2b5a4adc3674338077.jpg",
            "s_d" : "#带着美食去踏青#香辣花生小鱼干-会做饭很酷!",
            "channel" : "7",
            "name" : "#带着美食去踏青#香辣花生小鱼干-会做饭很酷!",
            "s_u" : "http:\/\/m.douguo.com\/cookbook\/2167486.html",
            "object_id" : "2167486",
            "qr_image" : ""
          },
          {
            "name" : "#带着美食去踏青#香辣花生小鱼干-会做饭很酷!",
            "qr_image" : "",
            "mini_program" : [

            ],
            "s_u" : "http:\/\/m.douguo.com\/cookbook\/2167486.html",
            "channel" : "8",
            "object_id" : "2167486",
            "s_d" : "#带着美食去踏青#香辣花生小鱼干-会做饭很酷!",
            "image" : "https:\/\/cp1.douguo.com\/upload\/caiku\/f\/e\/7\/fe877a97bc2c6a2b5a4adc3674338077.jpg"
          }
        ],
        "name" : "#带着美食去踏青#香辣花生小鱼干-会做饭很酷!",
        "image" : "https:\/\/cp1.douguo.com\/upload\/caiku\/f\/e\/7\/fe877a97bc2c6a2b5a4adc3674338077.jpg",
        "mini_program" : [

        ],
        "s_u" : "http:\/\/m.douguo.com\/cookbook\/2167486.html"
      },
      "tags" : [

      ],
      "rewarded_video_dsp" : [

      ],
      "rsm" : "该功能暂停使用",
      "rcs" : [

      ],
      "recipe_list_tags" : [
        {
          "text_color" : "#141515",
          "jump_url" : "",
          "text" : "关注的人",
          "background_start_color" : "#F4F5F5",
          "right_image" : "",
          "background_border_color" : "",
          "background_end_color" : "#F4F5F5"
        },
        {
          "text_color" : "#141515",
          "jump_url" : "",
          "text" : "内容详细",
          "background_border_color" : "",
          "background_end_color" : "#F4F5F5",
          "background_start_color" : "#F4F5F5",
          "right_image" : ""
        }
      ],
      "clicks" : "264747",
      "rpst" : "",
      "ipit" : 0,
      "create_time" : "2019-04-06 08:27:18",
      "sr" : "",
      "advice" : {
        "da" : {
          "url" : "https:\/\/m.douguo.com\/recipe\/nutrient_self\/2167486",
          "iu" : "https:\/\/i1.douguo.com\/upload\/banner\/f\/4\/d\/f48877e53c37759bc12ac494be82ec8d.png",
          "t" : "查看详细分析"
        },
        "at" : "有助于构成或修复人体组织～",
        "has" : [
          {
            "t" : "富含蛋白质",
            "url" : "recipes:\/\/www.douguo.com\/simplerecipelist?t=富含蛋白质&id=富含蛋白质"
          },
          {
            "url" : "recipes:\/\/www.douguo.com\/simplerecipelist?t=富含烟酸&id=富含烟酸",
            "t" : "富含烟酸"
          }
        ]
      },
      "thumb_path" : "https:\/\/i1.douguo.com\/upload\/caiku\/f\/e\/7\/300_fe877a97bc2c6a2b5a4adc3674338077.jpg",
      "rate_count" : 2,
      "tips" : "这道菜无需放盐。",
      "guide_image" : "",
      "dish_count" : 2,
      "top_mdsp" : [

      ],
      "image" : "http:\/\/i1.douguo.net\/upload\/caiku\/f\/e\/7\/300_fe877a97bc2c6a2b5a4adc3674338077.jpg"
    }
  },
  "status" : 0
}