{
  "state" : "success",
  "status" : 0,
  "result" : {
    "recipe" : {
      "dishes" : [

      ],
      "cook_time_image" : "",
      "author_verified" : 1,
      "clicks" : "23370",
      "brand_day_dsp" : [

      ],
      "ssu" : "",
      "rate_show" : 0,
      "story_dsp" : [

      ],
      "display_ingredient" : 1,
      "recipe_list_tags" : [
        {
          "text_color" : "#141515",
          "background_border_color" : "",
          "jump_url" : "",
          "right_image" : "",
          "text" : "关注的人",
          "background_end_color" : "#F4F5F5",
          "background_start_color" : "#F4F5F5"
        },
        {
          "background_start_color" : "#F4F5F5",
          "jump_url" : "",
          "background_end_color" : "#F4F5F5",
          "background_border_color" : "",
          "right_image" : "",
          "text_color" : "#141515",
          "text" : "内容详细"
        }
      ],
      "recommended" : 0,
      "title" : "【孕妇食谱】【孕妇食谱】青椒酱炒豆皮，咸鲜入味，超级下饭～",
      "ipt" : "",
      "related_ads" : [

      ],
      "minor" : [

      ],
      "recipe_tags" : [

      ],
      "author_id" : 25558952,
      "bs" : [

      ],
      "recent_comments" : [

      ],
      "act_des" : "",
      "notes" : [

      ],
      "cookwares" : [

      ],
      "rate_count" : 0,
      "rsm" : "该功能暂停使用",
      "ipoi" : "",
      "v_u" : "",
      "first_level_comment_count" : 2,
      "rrpt" : "",
      "tags" : [

      ],
      "cookstep" : [
        {
          "image_height" : 733,
          "image_width" : 1280,
          "thumb" : "https:\/\/i1.douguo.com\/upload\/caiku\/4\/d\/6\/140_4da94ec2110b0e484f06928e71590c36.jpeg",
          "frame" : "-1",
          "content" : "食材准备：豆皮150克、青椒1个、胡萝卜半根、腊肉50克、葱1段、姜1块、葱伴侣豆瓣酱1罐；",
          "image" : "https:\/\/i1.douguo.com\/upload\/caiku\/4\/d\/6\/4da94ec2110b0e484f06928e71590c36.jpeg",
          "position" : 1
        },
        {
          "thumb" : "https:\/\/i1.douguo.com\/upload\/caiku\/8\/1\/5\/140_81f3ef65c89a6b0efd648e4421483165.jpeg",
          "content" : "青椒洗净并去芯，用手掰称小块，豆皮均匀切丝，胡萝卜均匀切薄片；",
          "position" : 2,
          "image_width" : 1280,
          "frame" : "-1",
          "image_height" : 949,
          "image" : "https:\/\/i1.douguo.com\/upload\/caiku\/8\/1\/5\/81f3ef65c89a6b0efd648e4421483165.jpeg"
        },
        {
          "thumb" : "https:\/\/i1.douguo.com\/upload\/caiku\/c\/3\/1\/140_c331ddc12081eb01018038751ff84601.jpeg",
          "frame" : "-1",
          "image" : "https:\/\/i1.douguo.com\/upload\/caiku\/c\/3\/1\/c331ddc12081eb01018038751ff84601.jpeg",
          "content" : "葱切丝、姜切片，五花腊肉均匀切片；",
          "position" : 3,
          "image_height" : 959,
          "image_width" : 1280
        },
        {
          "position" : 4,
          "image_height" : 937,
          "frame" : "-1",
          "image_width" : 1280,
          "content" : "全部食材准备好了！",
          "thumb" : "https:\/\/i1.douguo.com\/upload\/caiku\/8\/8\/8\/140_8850f54ac1231a3fa245863b03a3f348.jpeg",
          "image" : "https:\/\/i1.douguo.com\/upload\/caiku\/8\/8\/8\/8850f54ac1231a3fa245863b03a3f348.jpeg"
        },
        {
          "thumb" : "https:\/\/i1.douguo.com\/upload\/caiku\/0\/6\/2\/140_067d7f1dc8ef52139efd147086cc2282.jpeg",
          "frame" : "-1",
          "content" : "冷锅倒入腊肉，小火煸炒至出油，腊肉微黄即可；油多就倒出来些，油少就再加一些）",
          "position" : 5,
          "image_height" : 977,
          "image" : "https:\/\/i1.douguo.com\/upload\/caiku\/0\/6\/2\/067d7f1dc8ef52139efd147086cc2282.jpeg",
          "image_width" : 1280
        },
        {
          "frame" : "-1",
          "content" : "倒入葱姜，大火爆炒；",
          "thumb" : "https:\/\/i1.douguo.com\/upload\/caiku\/0\/3\/2\/140_03b68534f3653873de7909b2290452f2.jpeg",
          "image_width" : 1280,
          "image_height" : 983,
          "image" : "https:\/\/i1.douguo.com\/upload\/caiku\/0\/3\/2\/03b68534f3653873de7909b2290452f2.jpeg",
          "position" : 6
        },
        {
          "position" : 7,
          "thumb" : "https:\/\/i1.douguo.com\/upload\/caiku\/d\/5\/9\/140_d58b462396ff185867fb4a59065e5b49.jpeg",
          "image" : "https:\/\/i1.douguo.com\/upload\/caiku\/d\/5\/9\/d58b462396ff185867fb4a59065e5b49.jpeg",
          "image_height" : 820,
          "image_width" : 1280,
          "content" : "倒入1勺豆瓣酱，翻炒出香味；",
          "frame" : "-1"
        },
        {
          "content" : "倒入青椒和胡萝卜继续翻炒，并顺锅边淋上少量清水；",
          "frame" : "-1",
          "image_height" : 990,
          "image_width" : 1280,
          "thumb" : "https:\/\/i1.douguo.com\/upload\/caiku\/f\/8\/8\/140_f85208885c116cb8c690a453acb47258.jpeg",
          "position" : 8,
          "image" : "https:\/\/i1.douguo.com\/upload\/caiku\/f\/8\/8\/f85208885c116cb8c690a453acb47258.jpeg"
        },
        {
          "thumb" : "https:\/\/i1.douguo.com\/upload\/caiku\/0\/7\/0\/140_077a6562f1a917480a5da39b5d24b250.jpeg",
          "image_height" : 849,
          "position" : 9,
          "frame" : "-1",
          "image" : "https:\/\/i1.douguo.com\/upload\/caiku\/0\/7\/0\/077a6562f1a917480a5da39b5d24b250.jpeg",
          "content" : "最后，倒入豆皮，翻炒1分钟即可出锅；",
          "image_width" : 1280
        },
        {
          "content" : "红绿相间，看上去色泽是不是还蛮漂亮的？",
          "thumb" : "https:\/\/i1.douguo.com\/upload\/caiku\/7\/3\/f\/140_73e9d32df07f565da74dae74ff2afe7f.jpeg",
          "position" : 10,
          "image" : "https:\/\/i1.douguo.com\/upload\/caiku\/7\/3\/f\/73e9d32df07f565da74dae74ff2afe7f.jpeg",
          "image_width" : 1280,
          "image_height" : 910,
          "frame" : "-1"
        },
        {
          "image_width" : 1280,
          "thumb" : "https:\/\/i1.douguo.com\/upload\/caiku\/0\/1\/7\/140_017e5207c2ab516e0eb20dec0d363b97.jpeg",
          "position" : 11,
          "image_height" : 926,
          "image" : "https:\/\/i1.douguo.com\/upload\/caiku\/0\/1\/7\/017e5207c2ab516e0eb20dec0d363b97.jpeg",
          "content" : "快来试试这道补钙神器吧！",
          "frame" : "-1"
        },
        {
          "thumb" : "https:\/\/i1.douguo.com\/upload\/caiku\/4\/5\/f\/140_45e7e872f24c4e9306c05cdb3188d8af.jpeg",
          "position" : 12,
          "image" : "https:\/\/i1.douguo.com\/upload\/caiku\/4\/5\/f\/45e7e872f24c4e9306c05cdb3188d8af.jpeg",
          "content" : "美图欣赏～",
          "frame" : "-1",
          "image_height" : 1733,
          "image_width" : 1280
        }
      ],
      "packages_id" : [

      ],
      "cookstory" : "前几天，看到三甲医院的主任医师说豆皮最是补钙，能有效预防骨质疏松哦～\n\n所以最近几天就采购了豆腐、豆皮等豆制品，隔三差五来上一顿～\n\n以前不是很喜欢青椒的青草味，偶尔用一点青椒也只只是为了好看，做做配菜，最后基本上都丢掉了。\n\n最近常做这道青椒酱炒豆皮，搭配了葱伴侣的豆瓣酱和豆皮后，发现青椒才是点睛之笔！\n\n这道青椒酱炒豆皮，整个菜品看上去翠绿又清爽，口感上脆脆爽爽，仔细品味后发现青椒居然是淡淡的甜，所以一下子又爱上了青椒，连吃了三顿都意犹未尽～\n\n如果您也在为吃什么能补钙发愁，那么不妨试试这道青椒酱炒豆皮，鲜香入味、超级下饭，一定不会让您失望哦！",
      "comments" : [
        "{\n    ac = \"#999999\";\n    at = \"\";\n    ccc = 1;\n    \"child_comments\" =     (\n                {\n            ac = \"#999999\";\n            at = \"\\U5eca\\U574a\\U5e02\";\n            ccc = 0;\n            city = \"\\U5eca\\U574a\\U5e02\";\n            cmc = 2;\n            content =             (\n                                {\n                    c = \" \\U5e0c\\U671b\\U4ed6\\U4eec\\U4e5f\\U89c9\\U5f97\\U81ea\\U5df1\\U5f88\\U5e78\\U798f\\U54c8\\U54c8\";\n                }\n            );\n            ia = 1;\n            id = 8800534;\n            \"ip_address_location\" = \"\";\n            like = 0;\n            \"like_count\" = 0;\n            \"reply_id\" = 8800322;\n            \"reply_user\" =             {\n                \"followers_count_text\" = \"\";\n                id = 23548196;\n                \"is_prime\" = 0;\n                lv = 0;\n                lvl = 3;\n                n = \"\\U5c0f\\U7f8a\\U7f8axldb\";\n                p = \"http:\/\/tx1.douguo.net\/upload\/photo\/f\/2\/e\/70_u1074610208590329140533.jpg\";\n                \"progress_image\" = \"\";\n                \"recipes_count_text\" = \"\";\n                relationship = \"-1\";\n                title = \"\";\n                v = 0;\n                \"verified_image\" = \"\";\n            };\n            \"sticker_icon\" =             (\n            );\n            time = \"2021-09-30 23:18:55\";\n            u =             {\n                \"followers_count_text\" = \"\";\n                id = 25558952;\n                \"is_prime\" = 0;\n                lv = 0;\n                lvl = 6;\n                n = \"\\U6735\\U62c9\\U5988\\U54aa\\U5440\";\n                p = \"http:\/\/tx1.douguo.net\/upload\/photo\/3\/e\/a\/70_3e0e0aeb0815133c573b4fc5f659280a.jpeg\";\n                \"progress_image\" = \"\";\n                \"recipes_count_text\" = \"\";\n                relationship = \"-1\";\n                title = \"\";\n                v = 1;\n                \"verified_image\" = \"\";\n            };\n        }\n    );\n    city = \"\";\n    cmc = 2;\n    content =     (\n                {\n            c = \"\\U5728\\U4f60\\U8eab\\U8fb9\\U7684\\U4eba\\U4e5f\\U592a\\U5e78\\U798f\\U4e86\\U5427\";\n        }\n    );\n    ia = 0;\n    id = 8800322;\n    \"ip_address_location\" = \"\";\n    like = 0;\n    \"like_count\" = 0;\n    \"reply_id\" = 0;\n    \"sticker_icon\" =     (\n    );\n    time = \"2021-09-30 18:38:08\";\n    u =     {\n        \"followers_count_text\" = \"\";\n        id = 23548196;\n        \"is_prime\" = 0;\n        lv = 0;\n        lvl = 3;\n        n = \"\\U5c0f\\U7f8a\\U7f8axldb\";\n        p = \"http:\/\/tx1.douguo.net\/upload\/photo\/f\/2\/e\/70_u1074610208590329140533.jpg\";\n        \"progress_image\" = \"\";\n        \"recipes_count_text\" = \"\";\n        relationship = \"-1\";\n        title = \"\";\n        v = 0;\n        \"verified_image\" = \"\";\n    };\n}",
        "{\n    ac = \"#999999\";\n    at = \"\";\n    ccc = 1;\n    \"child_comments\" =     (\n                {\n            ac = \"#999999\";\n            at = \"\\U5eca\\U574a\\U5e02\";\n            ccc = 0;\n            city = \"\\U5eca\\U574a\\U5e02\";\n            cmc = 2;\n            content =             (\n                                {\n                    c = \" \\U54c8\\U54c8\\U54c8\\Uff0c\\U8fd9\\U4e2a\\U53ef\\U4ee5\\U6709\";\n                }\n            );\n            ia = 1;\n            id = 8800304;\n            \"ip_address_location\" = \"\";\n            like = 0;\n            \"like_count\" = 0;\n            \"reply_id\" = 8800288;\n            \"reply_user\" =             {\n                \"followers_count_text\" = \"\";\n                id = 18557894;\n                \"is_prime\" = 0;\n                lv = 0;\n                lvl = 6;\n                n = \"\\U5a49\\U7075\\U6b23\\U5fc3\";\n                p = \"http:\/\/tx1.douguo.net\/upload\/photo\/d\/2\/a\/70_u20667639632700408230133.jpg\";\n                \"progress_image\" = \"\";\n                \"recipes_count_text\" = \"\";\n                relationship = \"-1\";\n                title = \"\";\n                v = 0;\n                \"verified_image\" = \"\";\n            };\n            \"sticker_icon\" =             (\n            );\n            time = \"2021-09-30 18:16:36\";\n            u =             {\n                \"followers_count_text\" = \"\";\n                id = 25558952;\n                \"is_prime\" = 0;\n                lv = 0;\n                lvl = 6;\n                n = \"\\U6735\\U62c9\\U5988\\U54aa\\U5440\";\n                p = \"http:\/\/tx1.douguo.net\/upload\/photo\/3\/e\/a\/70_3e0e0aeb0815133c573b4fc5f659280a.jpeg\";\n                \"progress_image\" = \"\";\n                \"recipes_count_text\" = \"\";\n                relationship = \"-1\";\n                title = \"\";\n                v = 1;\n                \"verified_image\" = \"\";\n            };\n        }\n    );\n    city = \"\";\n    cmc = 2;\n    content =     (\n                {\n            c = \"\\U6211\\U628a\\U8001\\U516c\\U53eb\\U6765\\Uff0c\\U8ba9\\U4ed6\\U597d\\U597d\\U5b66\\U5b66\\Uff0c\\U55ef\\U55ef\";\n        }\n    );\n    ia = 0;\n    id = 8800288;\n    \"ip_address_location\" = \"\";\n    like = 0;\n    \"like_count\" = 0;\n    \"reply_id\" = 0;\n    \"sticker_icon\" =     (\n    );\n    time = \"2021-09-30 17:52:06\";\n    u =     {\n        \"followers_count_text\" = \"\";\n        id = 18557894;\n        \"is_prime\" = 0;\n        lv = 0;\n        lvl = 6;\n        n = \"\\U5a49\\U7075\\U6b23\\U5fc3\";\n        p = \"http:\/\/tx1.douguo.net\/upload\/photo\/d\/2\/a\/70_u20667639632700408230133.jpg\";\n        \"progress_image\" = \"\";\n        \"recipes_count_text\" = \"\";\n        relationship = \"-1\";\n        title = \"\";\n        v = 0;\n        \"verified_image\" = \"\";\n    };\n}"
      ],
      "hq" : 1,
      "recommendation_tag" : "",
      "create_time" : "2021-09-30 17:09:36",
      "ss" : [

      ],
      "eu" : "recipes:\/\/www.douguo.com\/postdetail?id=242016",
      "vfurl" : "",
      "author" : "朵拉妈咪呀",
      "major" : [
        {
          "note" : "2张",
          "tu" : "https:\/\/m.douguo.com\/ingredients\/豆皮\/detailmaterial",
          "title" : "豆皮"
        },
        {
          "tu" : "https:\/\/m.douguo.com\/ingredients\/青椒\/detailmaterial",
          "note" : "1个",
          "title" : "青椒"
        },
        {
          "note" : "50克",
          "tu" : "https:\/\/m.douguo.com\/ingredients\/腊肉\/detailmaterial",
          "title" : "腊肉"
        },
        {
          "title" : "葱伴侣豆瓣酱",
          "note" : "1勺"
        },
        {
          "title" : "葱",
          "tu" : "https:\/\/m.douguo.com\/ingredients\/葱\/detailmaterial",
          "note" : "1段"
        },
        {
          "tu" : "https:\/\/m.douguo.com\/ingredients\/姜\/detailmaterial",
          "title" : "姜",
          "note" : "3片"
        }
      ],
      "thumb_path" : "https:\/\/i1.douguo.com\/upload\/caiku\/f\/2\/0\/300_f287da9a47826d991a71967216bae3a0.jpeg",
      "recommend_label" : "3.0万人看过",
      "vu" : "",
      "user" : {
        "verified_image" : "https:\/\/i1.douguo.com\/upload\/note\/d\/a\/a\/da84247847aebe48d9dd0fcdac88862a.png",
        "user_large_photo" : "http:\/\/tx1.douguo.net\/upload\/photo\/3\/e\/a\/yuan_3e0e0aeb0815133c573b4fc5f659280a.jpeg",
        "dishes_count" : 0,
        "favorites_count" : 0,
        "point" : 0,
        "user_cover" : "",
        "pc" : 0,
        "followers_count" : 0,
        "introduction" : "",
        "setted_email" : 0,
        "is_prime" : 0,
        "birthday" : "",
        "lvl" : 6,
        "lv" : 0,
        "sign" : "",
        "nick" : "朵拉妈咪呀",
        "fc" : 0,
        "age" : "",
        "diaries_count" : 0,
        "user_photo" : "http:\/\/tx1.douguo.net\/upload\/photo\/3\/e\/a\/70_3e0e0aeb0815133c573b4fc5f659280a.jpeg",
        "gender" : 2,
        "user_id" : "25558952",
        "progress_image" : "",
        "mobile" : "",
        "subscription_article_count" : 0,
        "verified" : 1,
        "following_count" : 0,
        "email" : "",
        "recipes_count" : 0,
        "subscription" : 0,
        "weibo_nick" : "",
        "regist_time" : "",
        "avatar_medium" : "http:\/\/tx1.douguo.net\/upload\/photo\/3\/e\/a\/140_3e0e0aeb0815133c573b4fc5f659280a.jpeg",
        "verified_url" : "https:\/\/m.douguo.com\/user\/prodesc",
        "qzone_nick" : "",
        "qq_weibo_nick" : "",
        "location" : 0,
        "coursecount" : 0,
        "userid" : "25558952",
        "favor_diaries_count" : 0
      },
      "levelid" : 2,
      "ipurl" : "",
      "title_ad" : [

      ],
      "views_count_text" : "3.0万",
      "comments_count_text" : "4",
      "ecs" : 1,
      "advice" : {
        "da" : {
          "t" : "查看详细分析",
          "iu" : "https:\/\/i1.douguo.com\/upload\/banner\/f\/4\/d\/f48877e53c37759bc12ac494be82ec8d.png",
          "url" : "https:\/\/m.douguo.com\/recipe\/nutrient_self\/3135572"
        },
        "has" : [
          {
            "t" : "低胆固醇",
            "url" : "recipes:\/\/www.douguo.com\/simplerecipelist?t=低胆固醇&id=低胆固醇"
          },
          {
            "t" : "富含维生素C",
            "url" : "recipes:\/\/www.douguo.com\/simplerecipelist?t=富含维生素C&id=富含维生素C"
          }
        ],
        "at" : "一道菜对心血管健康～"
      },
      "tips" : "1、由于豆瓣酱香气馥郁，也有一定的含盐量，所以不需要额外加盐和其他调料；\n2、如果孕妇不想吃腊肉，也可以换五花肉哈！",
      "rcs" : [

      ],
      "collect_status" : 0,
      "rewarded_video_dsp" : [

      ],
      "rdsps" : [

      ],
      "dish_count" : 0,
      "cook_difficulty" : "",
      "old_comments" : [

      ],
      "image" : "http:\/\/i1.douguo.net\/upload\/caiku\/f\/2\/0\/300_f287da9a47826d991a71967216bae3a0.jpeg",
      "ipia" : [

      ],
      "favo_counts_text" : "820",
      "rpst" : "",
      "photo_path" : "https:\/\/i1.douguo.com\/upload\/caiku\/f\/2\/0\/600_f287da9a47826d991a71967216bae3a0.jpeg",
      "purl" : "",
      "sr" : "",
      "ipit" : 0,
      "dish_count_text" : "",
      "cook_id" : "3135572",
      "top_mdsp" : [

      ],
      "ipci" : "",
      "pw" : 1920,
      "mid_mdsp" : [

      ],
      "guide_image" : "",
      "hqu" : "recipes:\/\/www.douguo.com\/notedetail?id=21162253",
      "thumb_height" : 0,
      "cook_difficulty_image" : "",
      "rips" : 0,
      "vc" : "30139",
      "sc" : 0,
      "cookstorys" : [
        {
          "color" : "",
          "icon" : "",
          "u" : "",
          "id" : 0,
          "type" : 0,
          "c" : "前几天，看到三甲医院的主任医师说豆皮最是补钙，能有效预防骨质疏松哦～\n\n所以最近几天就采购了豆腐、豆皮等豆制品，隔三差五来上一顿～\n\n以前不是很喜欢青椒的青草味，偶尔用一点青椒也只只是为了好看，做做配菜，最后基本上都丢掉了。\n\n最近常做这道青椒酱炒豆皮，搭配了葱伴侣的豆瓣酱和豆皮后，发现青椒才是点睛之笔！\n\n这道青椒酱炒豆皮，整个菜品看上去翠绿又清爽，口感上脆脆爽爽，仔细品味后发现青椒居然是淡淡的甜，所以一下子又爱上了青椒，连吃了三顿都意犹未尽～\n\n如果您也在为吃什么能补钙发愁，那么不妨试试这道青椒酱炒豆皮，鲜香入味、超级下饭，一定不会让您失望哦！"
        }
      ],
      "rpid" : 0,
      "rpt" : "",
      "comments_count" : 4,
      "release_time" : "",
      "btm_dsp" : [

      ],
      "cook_time" : "",
      "author_photo" : "http:\/\/tx1.douguo.net\/upload\/photo\/3\/e\/a\/70_3e0e0aeb0815133c573b4fc5f659280a.jpeg",
      "rate" : 0,
      "original_photo_path" : "http:\/\/i1.douguo.net\/upload\/caiku\/f\/2\/0\/yuan_f287da9a47826d991a71967216bae3a0.jpeg",
      "share_info" : {
        "s_u" : "http:\/\/m.douguo.com\/cookbook\/3135572.html",
        "infos" : [
          {
            "channel" : "1",
            "qr_image" : "",
            "object_id" : "3135572",
            "name" : "【孕妇食谱】【孕妇食谱】青椒酱炒豆皮，咸鲜入味，超级下饭～-会做饭很酷!",
            "s_u" : "",
            "mini_program" : [

            ],
            "s_d" : "#学做饭用豆果美食# 我在@豆果美食 分享了【【孕妇食谱】【孕妇食谱】青椒酱炒豆皮，咸鲜入味，超级下饭～-会做饭很酷!】，色香味俱全说的就是这道菜！查看图片了解菜谱（快来点击https:\/\/m.weibo.cn\/p\/100404i33631和我一起修炼厨艺吧）#会做饭很酷# ",
            "image" : "https:\/\/cp1.douguo.com\/upload\/caiku\/f\/2\/0\/f287da9a47826d991a71967216bae3a0.jpeg"
          },
          {
            "object_id" : "3135572",
            "s_d" : "【孕妇食谱】【孕妇食谱】青椒酱炒豆皮，咸鲜入味，超级下饭～-会做饭很酷!",
            "mini_program" : [

            ],
            "name" : "【孕妇食谱】【孕妇食谱】青椒酱炒豆皮，咸鲜入味，超级下饭～-会做饭很酷!",
            "s_u" : "http:\/\/m.douguo.com\/cookbook\/3135572.html",
            "channel" : "7",
            "image" : "https:\/\/cp1.douguo.com\/upload\/caiku\/f\/2\/0\/f287da9a47826d991a71967216bae3a0.jpeg",
            "qr_image" : ""
          },
          {
            "name" : "【孕妇食谱】【孕妇食谱】青椒酱炒豆皮，咸鲜入味，超级下饭～-会做饭很酷!",
            "s_u" : "http:\/\/m.douguo.com\/cookbook\/3135572.html",
            "qr_image" : "",
            "channel" : "8",
            "mini_program" : [

            ],
            "object_id" : "3135572",
            "s_d" : "【孕妇食谱】【孕妇食谱】青椒酱炒豆皮，咸鲜入味，超级下饭～-会做饭很酷!",
            "image" : "https:\/\/cp1.douguo.com\/upload\/caiku\/f\/2\/0\/f287da9a47826d991a71967216bae3a0.jpeg"
          }
        ],
        "s_d" : "【孕妇食谱】【孕妇食谱】青椒酱炒豆皮，咸鲜入味，超级下饭～-会做饭很酷!",
        "qr_image" : "",
        "mini_program" : [

        ],
        "image" : "https:\/\/cp1.douguo.com\/upload\/caiku\/f\/2\/0\/f287da9a47826d991a71967216bae3a0.jpeg",
        "name" : "【孕妇食谱】【孕妇食谱】青椒酱炒豆皮，咸鲜入味，超级下饭～-会做饭很酷!",
        "object_id" : "3135572"
      },
      "ph" : 1390,
      "su" : "",
      "favo_counts" : 820,
      "rrps" : [

      ]
    }
  }
}