{
  "result" : {
    "recipe" : {
      "author_verified" : 1,
      "notes" : [

      ],
      "thumb_path" : "https:\/\/i1.douguo.com\/upload\/caiku\/6\/d\/0\/300_6d0620be907725a751a833cacb49f0f0.jpg",
      "title_ad" : [

      ],
      "author_photo" : "http:\/\/tx1.douguo.net\/upload\/photo\/a\/6\/6\/70_u27727127410622225643.jpeg",
      "bs" : [

      ],
      "dish_count" : 0,
      "rate_show" : 0,
      "tips" : "1.\t苹果尽量选择甜度高、核小的，这样充分利用果糖的甜度，减少细砂糖的用量；果酱在热的时候口感微酸，尝不出真实的甜度，所以可以舀一小勺尝尝，比理想的甜度酸一些就可以了；\n2.\t果酱冷藏后口感非常好，不但味道甜美，苹果中的少量果胶还有凝固的作用；\n3.\t柠檬汁可以用新鲜柠檬挤出来的汁，也可能用买来的瓶装柠檬汁；放柠檬汁可以起到防氧化和提亮保鲜的作用，不放柠檬汁也可以的；\n4.\t没有面包机来炒果酱，人工手动炒果然也是可以的；可以将苹果先切小块或者用料理机加水打成糊糊状，再用炒锅炒。",
      "rcs" : [

      ],
      "share_info" : {
        "name" : "自制苹果酱-会做饭很酷!",
        "image" : "https:\/\/cp1.douguo.com\/upload\/caiku\/6\/d\/0\/6d0620be907725a751a833cacb49f0f0.jpg",
        "object_id" : "2359797",
        "s_u" : "http:\/\/m.douguo.com\/cookbook\/2359797.html",
        "mini_program" : [

        ],
        "s_d" : "自制苹果酱-会做饭很酷!",
        "infos" : [
          {
            "object_id" : "2359797",
            "s_d" : "#学做饭用豆果美食# 会做饭真是太酷了！我在@豆果美食 分享了【自制苹果酱-会做饭很酷!】，这道菜真的神仙美味！喜欢的一定要试试绝对不会错的！～查看图片了解菜谱（快来点击https:\/\/m.weibo.cn\/p\/100404i33631和我一起修炼厨艺吧）",
            "s_u" : "",
            "name" : "自制苹果酱-会做饭很酷!",
            "mini_program" : [

            ],
            "image" : "https:\/\/cp1.douguo.com\/upload\/caiku\/6\/d\/0\/6d0620be907725a751a833cacb49f0f0.jpg",
            "channel" : "1",
            "qr_image" : ""
          },
          {
            "mini_program" : [

            ],
            "s_u" : "http:\/\/m.douguo.com\/cookbook\/2359797.html",
            "name" : "自制苹果酱-会做饭很酷!",
            "image" : "https:\/\/cp1.douguo.com\/upload\/caiku\/6\/d\/0\/6d0620be907725a751a833cacb49f0f0.jpg",
            "channel" : "7",
            "qr_image" : "",
            "object_id" : "2359797",
            "s_d" : "自制苹果酱-会做饭很酷!"
          },
          {
            "object_id" : "2359797",
            "mini_program" : [

            ],
            "s_u" : "http:\/\/m.douguo.com\/cookbook\/2359797.html",
            "s_d" : "自制苹果酱-会做饭很酷!",
            "image" : "https:\/\/cp1.douguo.com\/upload\/caiku\/6\/d\/0\/6d0620be907725a751a833cacb49f0f0.jpg",
            "channel" : "8",
            "name" : "自制苹果酱-会做饭很酷!",
            "qr_image" : ""
          }
        ],
        "qr_image" : ""
      },
      "dishes" : [

      ],
      "old_comments" : [

      ],
      "rpid" : 0,
      "recipe_list_tags" : [
        {
          "jump_url" : "",
          "background_end_color" : "#F4F5F5",
          "right_image" : "",
          "text_color" : "#141515",
          "text" : "关注的人",
          "background_border_color" : "",
          "background_start_color" : "#F4F5F5"
        },
        {
          "right_image" : "",
          "background_border_color" : "",
          "text_color" : "#141515",
          "background_end_color" : "#F4F5F5",
          "text" : "内容详细",
          "background_start_color" : "#F4F5F5",
          "jump_url" : ""
        }
      ],
      "clicks" : "569794",
      "su" : "",
      "eu" : "recipes:\/\/www.douguo.com\/postdetail?id=242016",
      "rpt" : "",
      "recent_comments" : [

      ],
      "top_mdsp" : [

      ],
      "major" : [
        {
          "tu" : "https:\/\/m.douguo.com\/ingredients\/苹果\/detailmaterial",
          "title" : "苹果",
          "note" : "3个"
        },
        {
          "note" : "200克",
          "title" : "糖水苹果片"
        },
        {
          "tu" : "https:\/\/m.douguo.com\/ingredients\/细砂糖\/detailmaterial",
          "note" : "50克",
          "title" : "细砂糖"
        },
        {
          "title" : "柠檬汁",
          "tu" : "https:\/\/m.douguo.com\/ingredients\/柠檬汁\/detailmaterial",
          "note" : "15克"
        }
      ],
      "cookstory" : "秋天的水果真是太丰富了，新鲜的水果食用方便，维生素C含量也高，植物纤维也能让肠胃很舒畅。想不上火，多吃蔬菜水果不是没有道理的。新鲜水果有诸多好处，但为了能长期享用水果带来的美妙口感，除了现在的商用冷库可常年提供新鲜水果，咱还可以把水果做成果酱，虽然会损失一些营养成分，但却能带来与新鲜水果不一样的口感，甚至由于果酱的参与，我们还能创造出更多的美味。\r\n\r\n早餐吃馒头、吐司时，舀几勺果酱抹在上面，清新甜美的口感让人食欲大开；再或者吃自制酸奶时舀几勺，两者互相衬托着也更能品味出各自的魅力。虽然糖多吃了会让人发胖，但错不在果酱，而在自己不运动。所以，我今天带来了苹果酱，不用自己动手炒，轻松得到甜美果酱，每天来两勺，心情也跟着欢快起来。\r\n\r\n因为在这之前做了苹果派，所以剩下一些苹果片。苹果片是用微甜的糖水煮的，再加上大凉山的苹果本身甜度就很高，所以苹果酱的总体用糖量很少。果酱一定要冷藏后凉吃才能突出其风味来噢。如果没有面包机，具体做法见小贴士。同理，其它果酱也基本上是用这种方法，一点儿都不难！",
      "hq" : 1,
      "title" : "自制苹果酱",
      "image" : "http:\/\/i1.douguo.net\/upload\/caiku\/6\/d\/0\/300_6d0620be907725a751a833cacb49f0f0.jpg",
      "create_time" : "2019-11-07 21:48:11",
      "cookstep" : [
        {
          "image" : "https:\/\/i1.douguo.com\/upload\/caiku\/c\/4\/8\/c43e2360576f97358dc370915d367428.jpg",
          "content" : "3个大苹果准备好；糖水苹果片不是必需的，我只是想把它们重新利用起来；",
          "position" : 1,
          "image_height" : 800,
          "frame" : "-1",
          "thumb" : "https:\/\/i1.douguo.com\/upload\/caiku\/c\/4\/8\/140_c43e2360576f97358dc370915d367428.jpg",
          "image_width" : 1200
        },
        {
          "image_width" : 1200,
          "image_height" : 800,
          "image" : "https:\/\/i1.douguo.com\/upload\/caiku\/4\/b\/0\/4b46f76a2125663b6d94b3f2e5a29bd0.JPG",
          "content" : "苹果去皮去核，切菱形块；我用电子秤称了一下重量，是496克净肉，就算它500克吧；",
          "thumb" : "https:\/\/i1.douguo.com\/upload\/caiku\/4\/b\/0\/140_4b46f76a2125663b6d94b3f2e5a29bd0.JPG",
          "position" : 2,
          "frame" : "-1"
        },
        {
          "image_width" : 1200,
          "position" : 3,
          "frame" : "-1",
          "content" : "我用的这个苹果甜度很高，还因为糖水苹果片中有一些细砂糖，所以细砂糖我只放了32克；细砂糖用量可以根据自己的喜欢来调整；用小勺将细砂糖和苹果块均匀地拌一下；",
          "thumb" : "https:\/\/i1.douguo.com\/upload\/caiku\/8\/c\/3\/140_8c87749150245b5e7d3ff726be8db1d3.JPG",
          "image" : "https:\/\/i1.douguo.com\/upload\/caiku\/8\/c\/3\/8c87749150245b5e7d3ff726be8db1d3.JPG",
          "image_height" : 800
        },
        {
          "image_width" : 1200,
          "content" : "面包机准备妥当，先将糖水苹果片倒入面包桶中，再把砂糖苹果块倒入其中；如果用纯的新鲜苹果，建议倒半杯凉水，这样可以更好地让将苹果酱搅拌起来；",
          "thumb" : "https:\/\/i1.douguo.com\/upload\/caiku\/0\/b\/f\/140_0bbb2065fb444eed82cc3e52d7a10ddf.jpg",
          "position" : 4,
          "image_height" : 800,
          "image" : "https:\/\/i1.douguo.com\/upload\/caiku\/0\/b\/f\/0bbb2065fb444eed82cc3e52d7a10ddf.jpg",
          "frame" : "-1"
        },
        {
          "frame" : "-1",
          "position" : 5,
          "image" : "https:\/\/i1.douguo.com\/upload\/caiku\/6\/c\/1\/6cfe0d182daeced783f915234f085851.JPG",
          "image_width" : 1200,
          "content" : "我用的东菱JD08面包机，自带“果酱”功能，我用了默认的1小时15分钟，盖上内盖和外盖，就等着它自动完成后想起提示音来“收货”了；",
          "image_height" : 800,
          "thumb" : "https:\/\/i1.douguo.com\/upload\/caiku\/6\/c\/1\/140_6cfe0d182daeced783f915234f085851.JPG"
        },
        {
          "frame" : "-1",
          "image_height" : 800,
          "thumb" : "https:\/\/i1.douguo.com\/upload\/caiku\/d\/2\/2\/140_d21547048241921bda594c096832bd32.JPG",
          "position" : 6,
          "content" : "这是熬好的苹果酱，很细腻；如果喜欢更粘稠的，可以再加时熬一下；柠檬汁不是必需的，可以在果酱熬好前的10分钟滴入，起防氧化、提亮的作用；",
          "image" : "https:\/\/i1.douguo.com\/upload\/caiku\/d\/2\/2\/d21547048241921bda594c096832bd32.JPG",
          "image_width" : 1200
        },
        {
          "frame" : "-1",
          "image" : "https:\/\/i1.douguo.com\/upload\/caiku\/f\/8\/6\/f8269fd643dd3e6bdbc1de145236ecb6.JPG",
          "content" : "在熬苹果酱的时候将容器清洗干净后用沸水烫一分钟捞出，倒扣沥干，或者直接在水里煮几分钟消毒；瓶内的水珠倒扣晒干即可，不要用纸巾什么的去擦，会造成污染；果酱熬好后，趁热用烫过水的小勺舀入瓶子中，盖盖倒扣，凉后放冰箱冷藏保存，在不打开盖子的情况下，可保持数月而不坏；近期吃的可直接入净碗中，冷藏保存，3日内食用完。",
          "thumb" : "https:\/\/i1.douguo.com\/upload\/caiku\/f\/8\/6\/140_f8269fd643dd3e6bdbc1de145236ecb6.JPG",
          "position" : 7,
          "image_width" : 1200,
          "image_height" : 800
        },
        {
          "image" : "https:\/\/i1.douguo.com\/upload\/caiku\/2\/c\/c\/2c3d4438e12644876f66ab21904c1bdc.jpg",
          "thumb" : "https:\/\/i1.douguo.com\/upload\/caiku\/2\/c\/c\/140_2c3d4438e12644876f66ab21904c1bdc.jpg",
          "image_width" : 1200,
          "position" : 8,
          "image_height" : 809,
          "frame" : "-1",
          "content" : "自制苹果酱，每天吃一点，胃口好！"
        }
      ],
      "user" : {
        "verified_image" : "https:\/\/i1.douguo.com\/upload\/note\/d\/a\/a\/da84247847aebe48d9dd0fcdac88862a.png",
        "favor_diaries_count" : 0,
        "lvl" : 8,
        "subscription" : 0,
        "user_cover" : "",
        "favorites_count" : 0,
        "pc" : 0,
        "user_photo" : "http:\/\/tx1.douguo.net\/upload\/photo\/a\/6\/6\/70_u27727127410622225643.jpeg",
        "qq_weibo_nick" : "",
        "introduction" : "",
        "location" : 0,
        "following_count" : 0,
        "recipes_count" : 0,
        "gender" : 2,
        "coursecount" : 0,
        "userid" : "8753046",
        "lv" : 0,
        "user_large_photo" : "http:\/\/tx1.douguo.net\/upload\/photo\/a\/6\/6\/yuan_u27727127410622225643.jpeg",
        "is_prime" : 0,
        "dishes_count" : 0,
        "fc" : 0,
        "verified" : 1,
        "avatar_medium" : "http:\/\/tx1.douguo.net\/upload\/photo\/a\/6\/6\/140_u27727127410622225643.jpeg",
        "nick" : "meggy跳舞的苹果",
        "age" : "",
        "point" : 0,
        "setted_email" : 0,
        "verified_url" : "https:\/\/m.douguo.com\/user\/prodesc",
        "email" : "",
        "mobile" : "",
        "followers_count" : 0,
        "birthday" : "",
        "weibo_nick" : "",
        "sign" : "",
        "user_id" : "8753046",
        "progress_image" : "",
        "diaries_count" : 0,
        "regist_time" : "",
        "qzone_nick" : "",
        "subscription_article_count" : 0
      },
      "v_u" : "",
      "rips" : 0,
      "mid_mdsp" : [

      ],
      "first_level_comment_count" : 23,
      "pw" : 1200,
      "ph" : 800,
      "ssu" : "",
      "rrps" : [

      ],
      "ipia" : [

      ],
      "thumb_height" : 0,
      "display_ingredient" : 1,
      "minor" : [

      ],
      "original_photo_path" : "http:\/\/i1.douguo.net\/upload\/caiku\/6\/d\/0\/yuan_6d0620be907725a751a833cacb49f0f0.jpg",
      "rate" : 0,
      "author" : "meggy跳舞的苹果",
      "ipci" : "",
      "sr" : "",
      "levelid" : 2,
      "story_dsp" : [

      ],
      "cookwares" : [

      ],
      "comments_count_text" : "23",
      "related_ads" : [

      ],
      "cook_id" : "2359797",
      "rrpt" : "",
      "recipe_tags" : [

      ],
      "cook_time" : "1小时以上",
      "guide_image" : "",
      "brand_day_dsp" : [

      ],
      "vu" : "",
      "vc" : "596790",
      "rsm" : "该功能暂停使用",
      "collect_status" : 0,
      "dish_count_text" : "",
      "rewarded_video_dsp" : [

      ],
      "recommended" : 0,
      "ipurl" : "",
      "advice" : {
        "da" : {
          "t" : "查看详细分析",
          "url" : "https:\/\/m.douguo.com\/recipe\/nutrient_self\/2359797",
          "iu" : "https:\/\/i1.douguo.com\/upload\/banner\/f\/4\/d\/f48877e53c37759bc12ac494be82ec8d.png"
        },
        "at" : "健身人群可以吃～",
        "has" : [
          {
            "t" : "低脂",
            "url" : "recipes:\/\/www.douguo.com\/simplerecipelist?t=低脂&id=低脂"
          }
        ]
      },
      "recommend_label" : "6394人刚刚收藏过",
      "rdsps" : [

      ],
      "views_count_text" : "59.7万",
      "photo_path" : "https:\/\/i1.douguo.com\/upload\/caiku\/6\/d\/0\/600_6d0620be907725a751a833cacb49f0f0.jpg",
      "ecs" : 0,
      "ipt" : "",
      "ss" : [

      ],
      "cookstorys" : [
        {
          "c" : "秋天的水果真是太丰富了，新鲜的水果食用方便，维生素C含量也高，植物纤维也能让肠胃很舒畅。想不上火，多吃蔬菜水果不是没有道理的。新鲜水果有诸多好处，但为了能长期享用水果带来的美妙口感，除了现在的商用冷库可常年提供新鲜水果，咱还可以把水果做成果酱，虽然会损失一些营养成分，但却能带来与新鲜水果不一样的口感，甚至由于果酱的参与，我们还能创造出更多的美味。\r\n\r\n早餐吃馒头、吐司时，舀几勺果酱抹在上面，清新甜美的口感让人食欲大开；再或者吃自制酸奶时舀几勺，两者互相衬托着也更能品味出各自的魅力。虽然糖多吃了会让人发胖，但错不在果酱，而在自己不运动。所以，我今天带来了苹果酱，不用自己动手炒，轻松得到甜美果酱，每天来两勺，心情也跟着欢快起来。\r\n\r\n因为在这之前做了苹果派，所以剩下一些苹果片。苹果片是用微甜的糖水煮的，再加上大凉山的苹果本身甜度就很高，所以苹果酱的总体用糖量很少。果酱一定要冷藏后凉吃才能突出其风味来噢。如果没有面包机，具体做法见小贴士。同理，其它果酱也基本上是用这种方法，一点儿都不难！",
          "id" : 0,
          "icon" : "",
          "color" : "",
          "u" : "",
          "type" : 0
        }
      ],
      "sc" : 0,
      "rate_count" : 0,
      "rpst" : "",
      "recommendation_tag" : "",
      "btm_dsp" : [

      ],
      "tags" : [

      ],
      "purl" : "",
      "cook_time_image" : "https:\/\/i1.douguo.com\/upload\/banner\/1551423815.png",
      "author_id" : 8753046,
      "hqu" : "recipes:\/\/www.douguo.com\/notedetail?id=21162253",
      "favo_counts_text" : "6394",
      "act_des" : "",
      "release_time" : "",
      "packages_id" : [

      ],
      "cook_difficulty_image" : "https:\/\/i1.douguo.com\/upload\/banner\/1551424390.png",
      "vfurl" : "",
      "ipoi" : "",
      "cook_difficulty" : "切墩(初级)",
      "comments" : [
        "{\n    ac = \"#999999\";\n    at = \"\\U5bbf\\U5dde\\U5e02\";\n    ccc = 0;\n    \"child_comments\" =     (\n    );\n    city = \"\\U5bbf\\U5dde\\U5e02\";\n    cmc = 2;\n    content =     (\n                {\n            c = \"\\U6ca1\\U6709\\U9762\\U5305\\U673a\\U600e\\U4e48\\U5904\\U7406\\U2510(\\U00b4-\\Uff40)\\U250c\\U6253\\U788e\\U5e72\\U71ac\\U561b\\Uff1f\";\n        }\n    );\n    ia = 0;\n    id = 8739270;\n    \"ip_address_location\" = \"\";\n    like = 0;\n    \"like_count\" = 0;\n    \"reply_id\" = 0;\n    \"sticker_icon\" =     (\n    );\n    time = \"2021-07-19 15:33:36\";\n    u =     {\n        \"followers_count_text\" = \"\";\n        id = 25907502;\n        \"is_prime\" = 0;\n        lv = 0;\n        lvl = 2;\n        n = \"\\U537f\\U8bed\\U58a8\\U98df\\U610f\\U793e\";\n        p = \"http:\/\/tx1.douguo.net\/upload\/photo\/2\/c\/6\/70_2c747f5af75bc195b124bec9f285e936.jpg\";\n        \"progress_image\" = \"\";\n        \"recipes_count_text\" = \"\";\n        relationship = \"-1\";\n        title = \"\";\n        v = 0;\n        \"verified_image\" = \"\";\n    };\n}",
        "{\n    ac = \"#999999\";\n    at = \"\";\n    ccc = 0;\n    \"child_comments\" =     (\n    );\n    city = \"\";\n    cmc = 2;\n    content =     (\n                {\n            c = \"\\U79c0\\U8272\\U53ef\\U9910\\U5450~~\\U4eb2\";\n        }\n    );\n    ia = 0;\n    id = 7293489;\n    \"ip_address_location\" = \"\";\n    like = 0;\n    \"like_count\" = 0;\n    \"reply_id\" = 0;\n    \"sticker_icon\" =     (\n    );\n    time = \"2019-11-08 17:19:06\";\n    u =     {\n        \"followers_count_text\" = \"\";\n        id = 18520794;\n        \"is_prime\" = 0;\n        lv = 0;\n        lvl = 4;\n        n = \"\\U4e39\\U4e397\";\n        p = \"http:\/\/tx1.douguo.net\/upload\/photo\/f\/e\/9\/70_u17844019578430408194322.jpg\";\n        \"progress_image\" = \"\";\n        \"recipes_count_text\" = \"\";\n        relationship = \"-1\";\n        title = \"\";\n        v = 0;\n        \"verified_image\" = \"\";\n    };\n}",
        "{\n    ac = \"#999999\";\n    at = \"\";\n    ccc = 0;\n    \"child_comments\" =     (\n    );\n    city = \"\";\n    cmc = 2;\n    content =     (\n                {\n            c = \"\\U597d\\U5389\\U5bb3\\U554a\\Uff01\\U4ee5\\U540e\\U505a\\U996d\\U8981\\U591a\\U53c2\\U7167\\U60a8\\U7684\\U83dc\\U8c31\\Uff0c\\U55ef\\U55ef\";\n        }\n    );\n    ia = 0;\n    id = 7293349;\n    \"ip_address_location\" = \"\";\n    like = 0;\n    \"like_count\" = 0;\n    \"reply_id\" = 0;\n    \"sticker_icon\" =     (\n    );\n    time = \"2019-11-08 17:08:08\";\n    u =     {\n        \"followers_count_text\" = \"\";\n        id = 23614856;\n        \"is_prime\" = 0;\n        lv = 0;\n        lvl = 3;\n        n = dyyyyt;\n        p = \"http:\/\/tx1.douguo.net\/upload\/photo\/4\/1\/c\/70_u7708929214790330002303.jpg\";\n        \"progress_image\" = \"\";\n        \"recipes_count_text\" = \"\";\n        relationship = \"-1\";\n        title = \"\";\n        v = 0;\n        \"verified_image\" = \"\";\n    };\n}"
      ],
      "favo_counts" : 6394,
      "comments_count" : 23,
      "ipit" : 0
    }
  },
  "state" : "success",
  "status" : 0
}