{
  "result" : {
    "recipe" : {
      "ss" : [

      ],
      "create_time" : "2019-04-20 20:21:32",
      "comments" : [
        "{\n    ac = \"#999999\";\n    at = \"\\U5317\\U4eac\\U5e02\";\n    ccc = 0;\n    \"child_comments\" =     (\n    );\n    city = \"\\U5317\\U4eac\\U5e02\";\n    cmc = 2;\n    content =     (\n                {\n            c = \"\\U770b\\U8d77\\U6765\\U597d\\U597d\\U5403\";\n        }\n    );\n    ia = 0;\n    id = 6679056;\n    \"ip_address_location\" = \"\";\n    like = 0;\n    \"like_count\" = 1;\n    \"reply_id\" = 0;\n    \"sticker_icon\" =     (\n    );\n    time = \"2019-06-20 18:46:35\";\n    u =     {\n        \"followers_count_text\" = \"\";\n        id = 23823022;\n        \"is_prime\" = 0;\n        lv = 0;\n        lvl = 3;\n        n = \"Anchor_Z\";\n        p = \"http:\/\/tx1.douguo.net\/upload\/photo\/c\/4\/1\/70_u57900756662519230704.jpeg\";\n        \"progress_image\" = \"\";\n        \"recipes_count_text\" = \"\";\n        relationship = \"-1\";\n        title = \"\";\n        v = 0;\n        \"verified_image\" = \"\";\n    };\n}",
        "{\n    ac = \"#999999\";\n    at = \"\\U90b5\\U9633\\U5e02\";\n    ccc = 0;\n    \"child_comments\" =     (\n    );\n    city = \"\\U90b5\\U9633\\U5e02\";\n    cmc = 2;\n    content =     (\n                {\n            c = \"\\U5b9d\\U5b9d\\U9910\";\n        }\n    );\n    ia = 0;\n    id = 8160027;\n    \"ip_address_location\" = \"\";\n    like = 0;\n    \"like_count\" = 0;\n    \"reply_id\" = 0;\n    \"sticker_icon\" =     (\n    );\n    time = \"2020-07-23 10:06:35\";\n    u =     {\n        \"followers_count_text\" = \"\";\n        id = 25722697;\n        \"is_prime\" = 0;\n        lv = 0;\n        lvl = 1;\n        n = \"\\U67d4\\U8f6f\\U7684\\U9ad8\\U7b4b\\U9762\\U7c89\\U5f88\\U5168\\U5fc3\\U5168\\U610f\";\n        p = \"http:\/\/tx1.douguo.net\/upload\/photo\/1\/1\/1\/70_54385960151cbdd788b49027fc4bd4ce.png\";\n        \"progress_image\" = \"\";\n        \"recipes_count_text\" = \"\";\n        relationship = \"-1\";\n        title = \"\";\n        v = 0;\n        \"verified_image\" = \"\";\n    };\n}",
        "{\n    ac = \"#999999\";\n    at = \"\\U9a6c\\U978d\\U5c71\\U5e02\";\n    ccc = 0;\n    \"child_comments\" =     (\n    );\n    city = \"\\U9a6c\\U978d\\U5c71\\U5e02\";\n    cmc = 2;\n    content =     (\n                {\n            c = \"\\U829d\\U9ebb\\U83dc\\U662f\\U4ec0\\U4e48\\U83dc\\Ud83d\\Ude07\";\n        }\n    );\n    ia = 0;\n    id = 7683906;\n    \"ip_address_location\" = \"\";\n    like = 0;\n    \"like_count\" = 0;\n    \"reply_id\" = 0;\n    \"sticker_icon\" =     (\n    );\n    time = \"2020-02-27 08:47:33\";\n    u =     {\n        \"followers_count_text\" = \"\";\n        id = 16505510;\n        \"is_prime\" = 0;\n        lv = 0;\n        lvl = 3;\n        n = \"\\U6c38\\U6052\\U7684\\U5e78\\U798f\\U4e4b\\U8def\";\n        p = \"http:\/\/tx1.douguo.net\/upload\/photo\/7\/9\/a\/70_u54754801599599002029.jpeg\";\n        \"progress_image\" = \"\";\n        \"recipes_count_text\" = \"\";\n        relationship = \"-1\";\n        title = \"\";\n        v = 0;\n        \"verified_image\" = \"\";\n    };\n}"
      ],
      "display_ingredient" : 1,
      "minor" : [

      ],
      "hqu" : "recipes:\/\/www.douguo.com\/notedetail?id=21162253",
      "ipci" : "",
      "sc" : 0,
      "cookstep" : [
        {
          "image_height" : 1280,
          "content" : "准备食材",
          "thumb" : "https:\/\/i1.douguo.com\/upload\/caiku\/a\/3\/b\/140_a37b6138c37016cc1b81974c49bce72b.JPG",
          "position" : 1,
          "image_width" : 1920,
          "image" : "https:\/\/i1.douguo.com\/upload\/caiku\/a\/3\/b\/a37b6138c37016cc1b81974c49bce72b.JPG",
          "frame" : "-1"
        },
        {
          "image_width" : 1920,
          "content" : "吐司略煎一下或者烤箱烘烤一下都可以",
          "image" : "https:\/\/i1.douguo.com\/upload\/caiku\/a\/4\/9\/a4c1327ba6c603b554d66fdb59256e59.JPG",
          "frame" : "-1",
          "position" : 2,
          "image_height" : 1280,
          "thumb" : "https:\/\/i1.douguo.com\/upload\/caiku\/a\/4\/9\/140_a4c1327ba6c603b554d66fdb59256e59.JPG"
        },
        {
          "position" : 3,
          "frame" : "-1",
          "image_height" : 1280,
          "image" : "https:\/\/i1.douguo.com\/upload\/caiku\/4\/b\/3\/4b6fef970ab058a10366e6b83a1f4e13.JPG",
          "image_width" : 1920,
          "content" : "番茄、黄瓜、吐司都切成小丁",
          "thumb" : "https:\/\/i1.douguo.com\/upload\/caiku\/4\/b\/3\/140_4b6fef970ab058a10366e6b83a1f4e13.JPG"
        },
        {
          "thumb" : "https:\/\/i1.douguo.com\/upload\/caiku\/9\/e\/b\/140_9e54198de9b18d5021e4f2a1e97523bb.JPG",
          "position" : 4,
          "image_height" : 1280,
          "image" : "https:\/\/i1.douguo.com\/upload\/caiku\/9\/e\/b\/9e54198de9b18d5021e4f2a1e97523bb.JPG",
          "image_width" : 1920,
          "content" : "洗净沥干水的芝麻菜铺碗底",
          "frame" : "-1"
        },
        {
          "position" : 5,
          "frame" : "-1",
          "image" : "https:\/\/i1.douguo.com\/upload\/caiku\/6\/c\/9\/6c7da322be72c7e594df06e3761a3919.JPG",
          "thumb" : "https:\/\/i1.douguo.com\/upload\/caiku\/6\/c\/9\/140_6c7da322be72c7e594df06e3761a3919.JPG",
          "image_height" : 1280,
          "image_width" : 1920,
          "content" : "将步骤3切好的食材放进去"
        },
        {
          "image_height" : 1280,
          "frame" : "-1",
          "content" : "淋上沙拉酱，研磨黑胡椒，吃前拌匀即可",
          "image" : "https:\/\/i1.douguo.com\/upload\/caiku\/7\/3\/f\/7372d3415783da5ff18d419dcc75df3f.JPG",
          "image_width" : 1920,
          "position" : 6,
          "thumb" : "https:\/\/i1.douguo.com\/upload\/caiku\/7\/3\/f\/140_7372d3415783da5ff18d419dcc75df3f.JPG"
        },
        {
          "thumb" : "https:\/\/i1.douguo.com\/upload\/caiku\/5\/8\/f\/140_58fa15e1f8e999e39d8369fd8356a07f.jpg",
          "image_width" : 1776,
          "image_height" : 1184,
          "frame" : "-1",
          "content" : "成品",
          "position" : 7,
          "image" : "https:\/\/i1.douguo.com\/upload\/caiku\/5\/8\/f\/58fa15e1f8e999e39d8369fd8356a07f.jpg"
        }
      ],
      "share_info" : {
        "qr_image" : "",
        "mini_program" : [

        ],
        "s_u" : "http:\/\/m.douguo.com\/cookbook\/2291083.html",
        "infos" : [
          {
            "qr_image" : "",
            "image" : "https:\/\/cp1.douguo.com\/upload\/caiku\/a\/c\/7\/ac6ab74c9240dfa6181d6e40614b0ed7.jpg",
            "mini_program" : [

            ],
            "s_u" : "",
            "name" : "早餐沙拉-会做饭很酷!",
            "channel" : "1",
            "s_d" : "#学做饭用豆果美食# 会做饭真是太酷了！我在@豆果美食 分享了【早餐沙拉-会做饭很酷!】，这道菜真的神仙美味！喜欢的一定要试试绝对不会错的！～查看图片了解菜谱（快来点击https:\/\/m.weibo.cn\/p\/100404i33631和我一起修炼厨艺吧）",
            "object_id" : "2291083"
          },
          {
            "image" : "https:\/\/cp1.douguo.com\/upload\/caiku\/a\/c\/7\/ac6ab74c9240dfa6181d6e40614b0ed7.jpg",
            "mini_program" : [

            ],
            "s_d" : "早餐沙拉-会做饭很酷!",
            "object_id" : "2291083",
            "channel" : "7",
            "s_u" : "http:\/\/m.douguo.com\/cookbook\/2291083.html",
            "name" : "早餐沙拉-会做饭很酷!",
            "qr_image" : ""
          },
          {
            "name" : "早餐沙拉-会做饭很酷!",
            "qr_image" : "",
            "image" : "https:\/\/cp1.douguo.com\/upload\/caiku\/a\/c\/7\/ac6ab74c9240dfa6181d6e40614b0ed7.jpg",
            "channel" : "8",
            "s_d" : "早餐沙拉-会做饭很酷!",
            "object_id" : "2291083",
            "mini_program" : [

            ],
            "s_u" : "http:\/\/m.douguo.com\/cookbook\/2291083.html"
          }
        ],
        "name" : "早餐沙拉-会做饭很酷!",
        "object_id" : "2291083",
        "s_d" : "早餐沙拉-会做饭很酷!",
        "image" : "https:\/\/cp1.douguo.com\/upload\/caiku\/a\/c\/7\/ac6ab74c9240dfa6181d6e40614b0ed7.jpg"
      },
      "pw" : 1776,
      "rpt" : "",
      "recipe_tags" : [

      ],
      "favo_counts" : 4973,
      "levelid" : 2,
      "rrpt" : "",
      "author_photo" : "http:\/\/tx1.douguo.net\/upload\/photo\/d\/e\/7\/70_u01012076308597112706.jpeg",
      "collect_status" : 0,
      "purl" : "",
      "author_id" : 20711347,
      "clicks" : "258945",
      "cook_difficulty" : "",
      "original_photo_path" : "http:\/\/i1.douguo.net\/upload\/caiku\/a\/c\/7\/yuan_ac6ab74c9240dfa6181d6e40614b0ed7.jpg",
      "bs" : [

      ],
      "btm_dsp" : [

      ],
      "cook_id" : "2291083",
      "eu" : "recipes:\/\/www.douguo.com\/postdetail?id=242016",
      "rewarded_video_dsp" : [

      ],
      "recipe_list_tags" : [
        {
          "jump_url" : "",
          "background_border_color" : "",
          "text" : "关注的人",
          "text_color" : "#141515",
          "background_end_color" : "#F4F5F5",
          "background_start_color" : "#F4F5F5",
          "right_image" : ""
        }
      ],
      "ecs" : 0,
      "tags" : [

      ],
      "favo_counts_text" : "4973",
      "tips" : "",
      "hq" : 1,
      "rpid" : 0,
      "major" : [
        {
          "tu" : "https:\/\/m.douguo.com\/ingredients\/吐司\/detailmaterial",
          "note" : "1片",
          "title" : "吐司"
        },
        {
          "note" : "1根",
          "title" : "黄瓜",
          "tu" : "https:\/\/m.douguo.com\/ingredients\/黄瓜\/detailmaterial"
        },
        {
          "note" : "5个",
          "title" : "樱桃番茄"
        },
        {
          "title" : "芝麻菜",
          "tu" : "https:\/\/m.douguo.com\/ingredients\/芝麻菜\/detailmaterial",
          "note" : "20克"
        },
        {
          "tu" : "https:\/\/m.douguo.com\/ingredients\/沙拉酱\/detailmaterial",
          "title" : "沙拉酱",
          "note" : "适量"
        },
        {
          "tu" : "https:\/\/m.douguo.com\/ingredients\/黑胡椒\/detailmaterial",
          "title" : "黑胡椒",
          "note" : "适量"
        }
      ],
      "cookstory" : "没什么技巧也能做的一款沙拉，虽然简单，但保证了营养均衡。食材简单，很适合上班族学生党，拌一碗就能当作一餐啦~黄瓜和樱桃番茄都是超级低脂的食材，在加一片吐司进去增加饱腹感，花费不到10分钟就能满足你的胃，快学做起来吧。",
      "act_des" : "",
      "ipoi" : "",
      "vu" : "",
      "ssu" : "",
      "story_dsp" : [

      ],
      "photo_path" : "https:\/\/i1.douguo.com\/upload\/caiku\/a\/c\/7\/600_ac6ab74c9240dfa6181d6e40614b0ed7.jpg",
      "recent_comments" : [

      ],
      "thumb_height" : 0,
      "recommendation_tag" : "",
      "dish_count_text" : "",
      "brand_day_dsp" : [

      ],
      "su" : "",
      "comments_count_text" : "11",
      "v_u" : "",
      "dishes" : [

      ],
      "first_level_comment_count" : 11,
      "author" : "尖尖实验室",
      "ipt" : "",
      "rips" : 0,
      "author_verified" : 1,
      "views_count_text" : "27.2万",
      "rsm" : "该功能暂停使用",
      "cook_time" : "",
      "rate_show" : 0,
      "old_comments" : [

      ],
      "rate" : 0,
      "rate_count" : 0,
      "thumb_path" : "https:\/\/i1.douguo.com\/upload\/caiku\/a\/c\/7\/300_ac6ab74c9240dfa6181d6e40614b0ed7.jpg",
      "user" : {
        "userid" : "20711347",
        "favorites_count" : 0,
        "lv" : 0,
        "recipes_count" : 0,
        "coursecount" : 0,
        "subscription_article_count" : 0,
        "mobile" : "",
        "following_count" : 0,
        "fc" : 0,
        "qq_weibo_nick" : "",
        "verified" : 1,
        "verified_url" : "https:\/\/m.douguo.com\/user\/prodesc",
        "introduction" : "",
        "progress_image" : "",
        "pc" : 0,
        "age" : "",
        "qzone_nick" : "",
        "birthday" : "",
        "email" : "",
        "user_id" : "20711347",
        "user_photo" : "http:\/\/tx1.douguo.net\/upload\/photo\/d\/e\/7\/70_u01012076308597112706.jpeg",
        "sign" : "",
        "dishes_count" : 0,
        "nick" : "尖尖实验室",
        "user_large_photo" : "http:\/\/tx1.douguo.net\/upload\/photo\/d\/e\/7\/yuan_u01012076308597112706.jpeg",
        "is_prime" : 0,
        "location" : 0,
        "point" : 0,
        "gender" : 2,
        "avatar_medium" : "http:\/\/tx1.douguo.net\/upload\/photo\/d\/e\/7\/140_u01012076308597112706.jpeg",
        "favor_diaries_count" : 0,
        "verified_image" : "https:\/\/i1.douguo.com\/upload\/note\/d\/a\/a\/da84247847aebe48d9dd0fcdac88862a.png",
        "lvl" : 7,
        "user_cover" : "",
        "regist_time" : "",
        "subscription" : 0,
        "followers_count" : 0,
        "diaries_count" : 0,
        "setted_email" : 0,
        "weibo_nick" : ""
      },
      "dish_count" : 0,
      "mid_mdsp" : [

      ],
      "recommended" : 0,
      "title" : "早餐沙拉",
      "image" : "http:\/\/i1.douguo.net\/upload\/caiku\/a\/c\/7\/300_ac6ab74c9240dfa6181d6e40614b0ed7.jpg",
      "vfurl" : "",
      "release_time" : "",
      "notes" : [

      ],
      "sr" : "",
      "rcs" : [

      ],
      "title_ad" : [

      ],
      "guide_image" : "",
      "ph" : 1184,
      "rrps" : [

      ],
      "rdsps" : [

      ],
      "related_ads" : [

      ],
      "vc" : "271633",
      "ipurl" : "",
      "cookwares" : [

      ],
      "cook_difficulty_image" : "",
      "cook_time_image" : "",
      "recommend_label" : "4973人刚刚收藏过",
      "packages_id" : [

      ],
      "ipia" : [

      ],
      "top_mdsp" : [

      ],
      "advice" : {
        "at" : "可以预防血栓形成～",
        "has" : [
          {
            "url" : "recipes:\/\/www.douguo.com\/simplerecipelist?t=低饱和脂肪&id=低饱和脂肪",
            "t" : "低饱和脂肪"
          },
          {
            "url" : "recipes:\/\/www.douguo.com\/simplerecipelist?t=低盐&id=低盐",
            "t" : "低盐"
          }
        ],
        "da" : {
          "t" : "查看详细分析",
          "iu" : "https:\/\/i1.douguo.com\/upload\/banner\/f\/4\/d\/f48877e53c37759bc12ac494be82ec8d.png",
          "url" : "https:\/\/m.douguo.com\/recipe\/nutrient_self\/2291083"
        }
      },
      "rpst" : "",
      "cookstorys" : [
        {
          "type" : 0,
          "c" : "没什么技巧也能做的一款沙拉，虽然简单，但保证了营养均衡。食材简单，很适合上班族学生党，拌一碗就能当作一餐啦~黄瓜和樱桃番茄都是超级低脂的食材，在加一片吐司进去增加饱腹感，花费不到10分钟就能满足你的胃，快学做起来吧。",
          "id" : 0,
          "icon" : "",
          "u" : "",
          "color" : ""
        }
      ],
      "comments_count" : 11,
      "ipit" : 0
    }
  },
  "status" : 0,
  "state" : "success"
}