{
  "status" : 0,
  "result" : {
    "recipe" : {
      "sr" : "",
      "advice" : {
        "has" : [
          {
            "t" : "富含蛋白质",
            "url" : "recipes:\/\/www.douguo.com\/simplerecipelist?t=富含蛋白质&id=富含蛋白质"
          },
          {
            "t" : "低糖",
            "url" : "recipes:\/\/www.douguo.com\/simplerecipelist?t=低糖&id=低糖"
          }
        ],
        "da" : {
          "iu" : "https:\/\/i1.douguo.com\/upload\/banner\/f\/4\/d\/f48877e53c37759bc12ac494be82ec8d.png",
          "url" : "https:\/\/m.douguo.com\/recipe\/nutrient_self\/3120464",
          "t" : "查看详细分析"
        },
        "at" : "有助于组织的形成和生长～"
      },
      "cook_time_image" : "https:\/\/i1.douguo.com\/upload\/banner\/1551424358.png",
      "mid_mdsp" : [

      ],
      "cookstory" : "超级简单快手的盐焗虾，虾肉紧实Q弹超好吃哦！",
      "rpt" : "",
      "related_ads" : [

      ],
      "comments" : [
        "{\n    ac = \"#999999\";\n    at = \"\\U6dc4\\U535a\\U5e02\";\n    ccc = 1;\n    \"child_comments\" =     (\n                {\n            ac = \"#999999\";\n            at = \"\\U53a6\\U95e8\\U5e02\";\n            ccc = 0;\n            city = \"\\U53a6\\U95e8\\U5e02\";\n            cmc = 2;\n            content =             (\n                                {\n                    c = \" \\U4e0d\\U9700\\U8981\\U653e\\U6cb9\\U54e6\\Ud83d\\Ude0b\";\n                }\n            );\n            ia = 1;\n            id = 8879282;\n            \"ip_address_location\" = \"\";\n            like = 0;\n            \"like_count\" = 0;\n            \"reply_id\" = 8879213;\n            \"reply_user\" =             {\n                \"followers_count_text\" = \"\";\n                id = 22863887;\n                \"is_prime\" = 0;\n                lv = 0;\n                lvl = 1;\n                n = \"\\U7cd6\\U8c46\\U8c46rpxn\";\n                p = \"http:\/\/tx1.douguo.net\/upload\/photo\/d\/a\/b\/70_u41064240310854094349.jpg\";\n                \"progress_image\" = \"\";\n                \"recipes_count_text\" = \"\";\n                relationship = \"-1\";\n                title = \"\";\n                v = 0;\n                \"verified_image\" = \"\";\n            };\n            \"sticker_icon\" =             (\n            );\n            time = \"2021-12-03 17:03:42\";\n            u =             {\n                \"followers_count_text\" = \"\";\n                id = 5791264;\n                \"is_prime\" = 0;\n                lv = 0;\n                lvl = 8;\n                n = will121;\n                p = \"http:\/\/tx1.douguo.net\/upload\/photo\/3\/1\/6\/70_u10987125744502152513.jpg\";\n                \"progress_image\" = \"\";\n                \"recipes_count_text\" = \"\";\n                relationship = \"-1\";\n                title = \"\";\n                v = 1;\n                \"verified_image\" = \"\";\n            };\n        }\n    );\n    city = \"\\U6dc4\\U535a\\U5e02\";\n    cmc = 2;\n    content =     (\n                {\n            c = \"\\U4e0d\\U653e\\U6cb9\\U5417\";\n        }\n    );\n    ia = 0;\n    id = 8879213;\n    \"ip_address_location\" = \"\";\n    like = 0;\n    \"like_count\" = 0;\n    \"reply_id\" = 0;\n    \"sticker_icon\" =     (\n    );\n    time = \"2021-12-03 15:26:19\";\n    u =     {\n        \"followers_count_text\" = \"\";\n        id = 22863887;\n        \"is_prime\" = 0;\n        lv = 0;\n        lvl = 1;\n        n = \"\\U7cd6\\U8c46\\U8c46rpxn\";\n        p = \"http:\/\/tx1.douguo.net\/upload\/photo\/d\/a\/b\/70_u41064240310854094349.jpg\";\n        \"progress_image\" = \"\";\n        \"recipes_count_text\" = \"\";\n        relationship = \"-1\";\n        title = \"\";\n        v = 0;\n        \"verified_image\" = \"\";\n    };\n}",
        "{\n    ac = \"#999999\";\n    at = \"\\U5317\\U4eac\\U5e02\";\n    ccc = 1;\n    \"child_comments\" =     (\n                {\n            ac = \"#999999\";\n            at = \"\\U53a6\\U95e8\\U5e02\";\n            ccc = 0;\n            city = \"\\U53a6\\U95e8\\U5e02\";\n            cmc = 2;\n            content =             (\n                                {\n                    c = \" \\U2764\\U2764\\U2764\";\n                }\n            );\n            ia = 1;\n            id = 8879283;\n            \"ip_address_location\" = \"\";\n            like = 0;\n            \"like_count\" = 0;\n            \"reply_id\" = 8794112;\n            \"reply_user\" =             {\n                \"followers_count_text\" = \"\";\n                id = 23067831;\n                \"is_prime\" = 0;\n                lv = 0;\n                lvl = 1;\n                n = \"\\U8c46\\U7c894635554653\";\n                p = \"\";\n                \"progress_image\" = \"\";\n                \"recipes_count_text\" = \"\";\n                relationship = \"-1\";\n                title = \"\";\n                v = 0;\n                \"verified_image\" = \"\";\n            };\n            \"sticker_icon\" =             (\n            );\n            time = \"2021-12-03 17:03:47\";\n            u =             {\n                \"followers_count_text\" = \"\";\n                id = 5791264;\n                \"is_prime\" = 0;\n                lv = 0;\n                lvl = 8;\n                n = will121;\n                p = \"http:\/\/tx1.douguo.net\/upload\/photo\/3\/1\/6\/70_u10987125744502152513.jpg\";\n                \"progress_image\" = \"\";\n                \"recipes_count_text\" = \"\";\n                relationship = \"-1\";\n                title = \"\";\n                v = 1;\n                \"verified_image\" = \"\";\n            };\n        }\n    );\n    city = \"\\U5317\\U4eac\\U5e02\";\n    cmc = 2;\n    content =     (\n                {\n            c = \"\\U7167\\U7740\\U505a\\U4e86 \\U597d\\U5403\\Ud83d\\Udc4f\\U2764\\Ufe0f\";\n        }\n    );\n    ia = 0;\n    id = 8794112;\n    \"ip_address_location\" = \"\";\n    like = 0;\n    \"like_count\" = 0;\n    \"reply_id\" = 0;\n    \"sticker_icon\" =     (\n    );\n    time = \"2021-09-24 13:29:58\";\n    u =     {\n        \"followers_count_text\" = \"\";\n        id = 23067831;\n        \"is_prime\" = 0;\n        lv = 0;\n        lvl = 1;\n        n = \"\\U8c46\\U7c894635554653\";\n        p = \"\";\n        \"progress_image\" = \"\";\n        \"recipes_count_text\" = \"\";\n        relationship = \"-1\";\n        title = \"\";\n        v = 0;\n        \"verified_image\" = \"\";\n    };\n}",
        "{\n    ac = \"#999999\";\n    at = \"\\U897f\\U5b89\\U5e02\";\n    ccc = 1;\n    \"child_comments\" =     (\n                {\n            ac = \"#999999\";\n            at = \"\\U53a6\\U95e8\\U5e02\";\n            ccc = 0;\n            city = \"\\U53a6\\U95e8\\U5e02\";\n            cmc = 2;\n            content =             (\n                                {\n                    c = \" \\U76d0\\U7117\\U7c89\\Uff0c\\U8d85\\U5e02\\U5c31\\U6709\\U5356\\U54e6\\Uff01\\U6216\\U8005\\U76f4\\U63a5\\U67d0\\U5b9d\\U4e0a\\U4e70\\U4e5f\\U884c\";\n                }\n            );\n            ia = 1;\n            id = 8781963;\n            \"ip_address_location\" = \"\";\n            like = 0;\n            \"like_count\" = 0;\n            \"reply_id\" = 8781958;\n            \"reply_user\" =             {\n                \"followers_count_text\" = \"\";\n                id = 24767615;\n                \"is_prime\" = 0;\n                lv = 0;\n                lvl = 1;\n                n = \"\\U5e72\\U51c0\\U7684\\U699b\\U5b50\";\n                p = \"http:\/\/tx1.douguo.net\/upload\/photo\/1\/1\/1\/70_12317e81bcc028bd2ba1944cdbf40d15.png\";\n                \"progress_image\" = \"\";\n                \"recipes_count_text\" = \"\";\n                relationship = \"-1\";\n                title = \"\";\n                v = 0;\n                \"verified_image\" = \"\";\n            };\n            \"sticker_icon\" =             (\n            );\n            time = \"2021-09-10 21:02:02\";\n            u =             {\n                \"followers_count_text\" = \"\";\n                id = 5791264;\n                \"is_prime\" = 0;\n                lv = 0;\n                lvl = 8;\n                n = will121;\n                p = \"http:\/\/tx1.douguo.net\/upload\/photo\/3\/1\/6\/70_u10987125744502152513.jpg\";\n                \"progress_image\" = \"\";\n                \"recipes_count_text\" = \"\";\n                relationship = \"-1\";\n                title = \"\";\n                v = 1;\n                \"verified_image\" = \"\";\n            };\n        }\n    );\n    city = \"\\U897f\\U5b89\\U5e02\";\n    cmc = 2;\n    content =     (\n                {\n            c = \"\\U76d0\\U7117\\U7c89\\U662f\\U4ec0\\U4e48\\Uff1f\\U90a3\\U6709\\U5356\\U7684\\Uff1f\";\n        }\n    );\n    ia = 0;\n    id = 8781958;\n    \"ip_address_location\" = \"\";\n    like = 0;\n    \"like_count\" = 0;\n    \"reply_id\" = 0;\n    \"sticker_icon\" =     (\n    );\n    time = \"2021-09-10 20:50:31\";\n    u =     {\n        \"followers_count_text\" = \"\";\n        id = 24767615;\n        \"is_prime\" = 0;\n        lv = 0;\n        lvl = 1;\n        n = \"\\U5e72\\U51c0\\U7684\\U699b\\U5b50\";\n        p = \"http:\/\/tx1.douguo.net\/upload\/photo\/1\/1\/1\/70_12317e81bcc028bd2ba1944cdbf40d15.png\";\n        \"progress_image\" = \"\";\n        \"recipes_count_text\" = \"\";\n        relationship = \"-1\";\n        title = \"\";\n        v = 0;\n        \"verified_image\" = \"\";\n    };\n}"
      ],
      "hqu" : "recipes:\/\/www.douguo.com\/notedetail?id=21162253",
      "vc" : "220888",
      "ipci" : "",
      "ipt" : "",
      "ipit" : 0,
      "levelid" : 2,
      "cookstep" : [
        {
          "content" : "虾剪去虾须去掉虾线洗净备用",
          "frame" : "-1",
          "image" : "https:\/\/i1.douguo.com\/upload\/caiku\/3\/1\/f\/3158b08d2a0df4cf3c044f36d9e4a80f.jpg",
          "image_width" : 1280,
          "image_height" : 960,
          "thumb" : "https:\/\/i1.douguo.com\/upload\/caiku\/3\/1\/f\/140_3158b08d2a0df4cf3c044f36d9e4a80f.jpg",
          "position" : 1
        },
        {
          "image_width" : 1280,
          "position" : 2,
          "image_height" : 960,
          "frame" : "-1",
          "image" : "https:\/\/i1.douguo.com\/upload\/caiku\/3\/7\/5\/372ebdb3cb516c945f2f2e7cce20adb5.jpg",
          "content" : "生姜去皮切片、小葱洗净切段备用",
          "thumb" : "https:\/\/i1.douguo.com\/upload\/caiku\/3\/7\/5\/140_372ebdb3cb516c945f2f2e7cce20adb5.jpg"
        },
        {
          "image" : "https:\/\/i1.douguo.com\/upload\/caiku\/6\/0\/1\/600eb7902a3ef0abcf37cea0e50f0ac1.jpg",
          "image_height" : 960,
          "position" : 3,
          "image_width" : 1280,
          "thumb" : "https:\/\/i1.douguo.com\/upload\/caiku\/6\/0\/1\/140_600eb7902a3ef0abcf37cea0e50f0ac1.jpg",
          "frame" : "-1",
          "content" : "处理好的虾放入锅中"
        },
        {
          "content" : "倒入姜片、葱段",
          "thumb" : "https:\/\/i1.douguo.com\/upload\/caiku\/0\/b\/1\/140_0baa6b3b8050d04e7aa92546864cf401.jpg",
          "image_width" : 1280,
          "position" : 4,
          "image" : "https:\/\/i1.douguo.com\/upload\/caiku\/0\/b\/1\/0baa6b3b8050d04e7aa92546864cf401.jpg",
          "image_height" : 960,
          "frame" : "-1"
        },
        {
          "thumb" : "https:\/\/i1.douguo.com\/upload\/caiku\/7\/1\/3\/140_71581dfd9e152f11cbc7497237d9bef3.jpg",
          "image_width" : 1280,
          "image_height" : 960,
          "position" : 5,
          "frame" : "-1",
          "image" : "https:\/\/i1.douguo.com\/upload\/caiku\/7\/1\/3\/71581dfd9e152f11cbc7497237d9bef3.jpg",
          "content" : "撒上盐焗粉"
        },
        {
          "thumb" : "https:\/\/i1.douguo.com\/upload\/caiku\/a\/7\/4\/140_a731406ebb8f4fa7f09421970cc51354.jpg",
          "position" : 6,
          "frame" : "-1",
          "image_width" : 1280,
          "image_height" : 960,
          "image" : "https:\/\/i1.douguo.com\/upload\/caiku\/a\/7\/4\/a731406ebb8f4fa7f09421970cc51354.jpg",
          "content" : "倒上料酒，盖盖焖5分钟"
        },
        {
          "image" : "https:\/\/i1.douguo.com\/upload\/caiku\/0\/0\/4\/00f2db3a7976f58bafd66f629607d054.jpg",
          "content" : "焖好取出",
          "image_width" : 1280,
          "image_height" : 960,
          "frame" : "-1",
          "thumb" : "https:\/\/i1.douguo.com\/upload\/caiku\/0\/0\/4\/140_00f2db3a7976f58bafd66f629607d054.jpg",
          "position" : 7
        },
        {
          "image_width" : 1280,
          "thumb" : "https:\/\/i1.douguo.com\/upload\/caiku\/c\/c\/7\/140_cc1511c266fba6a18d7736a9a2bc08a7.jpg",
          "image_height" : 960,
          "content" : "成品",
          "image" : "https:\/\/i1.douguo.com\/upload\/caiku\/c\/c\/7\/cc1511c266fba6a18d7736a9a2bc08a7.jpg",
          "position" : 8,
          "frame" : "-1"
        }
      ],
      "ecs" : 0,
      "favo_counts_text" : "4574",
      "recipe_list_tags" : [
        {
          "right_image" : "",
          "background_start_color" : "#F4F5F5",
          "background_end_color" : "#F4F5F5",
          "jump_url" : "",
          "text_color" : "#141515",
          "background_border_color" : "",
          "text" : "关注的人"
        },
        {
          "jump_url" : "",
          "background_start_color" : "#F4F5F5",
          "text_color" : "#141515",
          "background_end_color" : "#F4F5F5",
          "text" : "内容详细",
          "background_border_color" : "",
          "right_image" : ""
        }
      ],
      "btm_dsp" : [

      ],
      "author" : "will121",
      "dish_count" : 1,
      "thumb_path" : "https:\/\/i1.douguo.com\/upload\/caiku\/8\/7\/3\/300_876bd17655f3dc27ac8ebd673d3b2ef3.jpg",
      "create_time" : "2021-08-12 08:42:35",
      "cookwares" : [

      ],
      "recommend_label" : "1人学做",
      "vfurl" : "",
      "ipurl" : "",
      "packages_id" : [

      ],
      "recommendation_tag" : "",
      "ssu" : "",
      "photo_path" : "https:\/\/i1.douguo.com\/upload\/caiku\/8\/7\/3\/600_876bd17655f3dc27ac8ebd673d3b2ef3.jpg",
      "title" : "盐焗虾",
      "release_time" : "",
      "recommended" : 0,
      "cookstorys" : [
        {
          "type" : 0,
          "icon" : "",
          "id" : 0,
          "color" : "",
          "u" : "",
          "c" : "超级简单快手的盐焗虾，虾肉紧实Q弹超好吃哦！"
        },
        {
          "icon" : "",
          "id" : 0,
          "c" : "\n参与活动:",
          "type" : 0,
          "u" : "",
          "color" : ""
        },
        {
          "type" : 0,
          "u" : "https:\/\/m.douguo.com\/activity\/ncpzj\/detail\/3204?isapp=1&open=0&_vs=1000300&&dg_refreshkey=publishnote",
          "c" : "#创作中心——创作达人挑战赛#",
          "icon" : "",
          "id" : 0
        }
      ],
      "rsm" : "该功能暂停使用",
      "guide_image" : "",
      "original_photo_path" : "http:\/\/i1.douguo.net\/upload\/caiku\/8\/7\/3\/yuan_876bd17655f3dc27ac8ebd673d3b2ef3.jpg",
      "rpid" : 0,
      "ipia" : [

      ],
      "bs" : [

      ],
      "thumb_height" : 0,
      "cook_difficulty" : "切墩(初级)",
      "cook_id" : "3120464",
      "author_photo" : "http:\/\/tx1.douguo.net\/upload\/photo\/3\/1\/6\/70_u10987125744502152513.jpg",
      "comments_count_text" : "9",
      "top_mdsp" : [

      ],
      "major" : [
        {
          "note" : "2斤",
          "tu" : "https:\/\/m.douguo.com\/ingredients\/虾\/detailmaterial",
          "title" : "虾"
        },
        {
          "title" : "葱姜",
          "note" : "适量",
          "tu" : "https:\/\/m.douguo.com\/ingredients\/葱姜\/detailmaterial"
        },
        {
          "note" : "2勺",
          "tu" : "https:\/\/m.douguo.com\/ingredients\/料酒\/detailmaterial",
          "title" : "料酒"
        },
        {
          "note" : "20克",
          "title" : "盐焗粉"
        }
      ],
      "author_verified" : 1,
      "comments_count" : 9,
      "first_level_comment_count" : 6,
      "pw" : 1280,
      "cook_difficulty_image" : "https:\/\/i1.douguo.com\/upload\/banner\/1551424390.png",
      "display_ingredient" : 1,
      "collect_status" : 0,
      "eu" : "recipes:\/\/www.douguo.com\/postdetail?id=242016",
      "minor" : [

      ],
      "old_comments" : [

      ],
      "sc" : 0,
      "rpst" : "",
      "rcs" : [

      ],
      "favo_counts" : 4574,
      "dishes" : [

      ],
      "notes" : [

      ],
      "title_ad" : [

      ],
      "image" : "http:\/\/i1.douguo.net\/upload\/caiku\/8\/7\/3\/300_876bd17655f3dc27ac8ebd673d3b2ef3.jpg",
      "tips" : "盐焗粉，别有一番风味。",
      "rrpt" : "",
      "user" : {
        "subscription_article_count" : 0,
        "fc" : 0,
        "location" : 0,
        "following_count" : 0,
        "age" : "",
        "weibo_nick" : "",
        "user_photo" : "http:\/\/tx1.douguo.net\/upload\/photo\/3\/1\/6\/70_u10987125744502152513.jpg",
        "verified_url" : "https:\/\/m.douguo.com\/user\/prodesc",
        "pc" : 0,
        "setted_email" : 0,
        "dishes_count" : 0,
        "nick" : "will121",
        "favorites_count" : 0,
        "user_id" : "5791264",
        "qzone_nick" : "",
        "sign" : "",
        "coursecount" : 0,
        "progress_image" : "",
        "mobile" : "",
        "user_large_photo" : "http:\/\/tx1.douguo.net\/upload\/photo\/3\/1\/6\/yuan_u10987125744502152513.jpg",
        "diaries_count" : 0,
        "qq_weibo_nick" : "",
        "verified" : 1,
        "recipes_count" : 0,
        "subscription" : 0,
        "userid" : "5791264",
        "user_cover" : "",
        "lv" : 0,
        "lvl" : 8,
        "point" : 0,
        "gender" : 2,
        "followers_count" : 0,
        "avatar_medium" : "http:\/\/tx1.douguo.net\/upload\/photo\/3\/1\/6\/140_u10987125744502152513.jpg",
        "favor_diaries_count" : 0,
        "email" : "",
        "introduction" : "",
        "regist_time" : "",
        "verified_image" : "https:\/\/i1.douguo.com\/upload\/note\/d\/a\/a\/da84247847aebe48d9dd0fcdac88862a.png",
        "is_prime" : 0,
        "birthday" : ""
      },
      "rdsps" : [

      ],
      "author_id" : 5791264,
      "hq" : 1,
      "rips" : 0,
      "recipe_tags" : [

      ],
      "views_count_text" : "22.1万",
      "ipoi" : "",
      "event" : {
        "name" : "创作中心——创作达人挑战赛",
        "id" : 3204,
        "url" : "https:\/\/m.douguo.com\/activity\/ncpzj\/detail\/3204?isapp=1&open=0&_vs=1000300&&dg_refreshkey=publishnote"
      },
      "rrps" : [

      ],
      "tags" : [

      ],
      "su" : "",
      "ph" : 960,
      "rate" : 5,
      "vu" : "",
      "purl" : "",
      "act_des" : "",
      "share_info" : {
        "infos" : [
          {
            "s_u" : "",
            "image" : "https:\/\/cp1.douguo.com\/upload\/caiku\/8\/7\/3\/876bd17655f3dc27ac8ebd673d3b2ef3.jpg",
            "qr_image" : "",
            "channel" : "1",
            "mini_program" : [

            ],
            "name" : "#巨下饭的家常菜#盐焗虾-会做饭很酷!",
            "object_id" : "3120464",
            "s_d" : "#学做饭用豆果美食# 我在@豆果美食 分享了【#巨下饭的家常菜#盐焗虾-会做饭很酷!】，帅哥美眉们～你们喜欢的美食来咯！快来跟我一起做吧～查看图片了解菜谱（想要获取更多美食就看这https:\/\/m.weibo.cn\/p\/100404i33631）#会做饭很酷#"
          },
          {
            "object_id" : "3120464",
            "s_d" : "#巨下饭的家常菜#盐焗虾-会做饭很酷!",
            "s_u" : "http:\/\/m.douguo.com\/cookbook\/3120464.html",
            "image" : "https:\/\/cp1.douguo.com\/upload\/caiku\/8\/7\/3\/876bd17655f3dc27ac8ebd673d3b2ef3.jpg",
            "channel" : "7",
            "name" : "#巨下饭的家常菜#盐焗虾-会做饭很酷!",
            "mini_program" : [

            ],
            "qr_image" : ""
          },
          {
            "mini_program" : [

            ],
            "object_id" : "3120464",
            "image" : "https:\/\/cp1.douguo.com\/upload\/caiku\/8\/7\/3\/876bd17655f3dc27ac8ebd673d3b2ef3.jpg",
            "channel" : "8",
            "qr_image" : "",
            "s_u" : "http:\/\/m.douguo.com\/cookbook\/3120464.html",
            "s_d" : "#巨下饭的家常菜#盐焗虾-会做饭很酷!",
            "name" : "#巨下饭的家常菜#盐焗虾-会做饭很酷!"
          }
        ],
        "s_u" : "http:\/\/m.douguo.com\/cookbook\/3120464.html",
        "name" : "#巨下饭的家常菜#盐焗虾-会做饭很酷!",
        "qr_image" : "",
        "s_d" : "#巨下饭的家常菜#盐焗虾-会做饭很酷!",
        "mini_program" : [

        ],
        "object_id" : "3120464",
        "image" : "https:\/\/cp1.douguo.com\/upload\/caiku\/8\/7\/3\/876bd17655f3dc27ac8ebd673d3b2ef3.jpg"
      },
      "recent_comments" : [

      ],
      "rewarded_video_dsp" : [

      ],
      "story_dsp" : [

      ],
      "clicks" : "177424",
      "dish_count_text" : "1",
      "ss" : [

      ],
      "cook_time" : "10分钟左右",
      "rate_show" : 0,
      "brand_day_dsp" : [

      ],
      "rate_count" : 1,
      "v_u" : ""
    }
  },
  "state" : "success"
}