{
  "result" : {
    "recipe" : {
      "author_verified" : 1,
      "notes" : [

      ],
      "title_ad" : [

      ],
      "thumb_path" : "https:\/\/i1.douguo.com\/upload\/caiku\/2\/f\/d\/300_2f59b63a96d8b8e9d0f04741398344ad.jpg",
      "author_photo" : "http:\/\/tx1.douguo.net\/upload\/photo\/c\/2\/e\/70_c2fe4992d2ba91046837a236e33003ae.jpg",
      "bs" : [

      ],
      "tips" : "所有食材可根据用餐人数和个人口味自行调整。",
      "recipe_list_tags" : [
        {
          "right_image" : "",
          "background_start_color" : "#F4F5F5",
          "background_end_color" : "#F4F5F5",
          "text" : "关注的人",
          "jump_url" : "",
          "text_color" : "#141515",
          "background_border_color" : ""
        },
        {
          "right_image" : "",
          "background_start_color" : "#F4F5F5",
          "text" : "内容详细",
          "background_end_color" : "#F4F5F5",
          "text_color" : "#141515",
          "background_border_color" : "",
          "jump_url" : ""
        }
      ],
      "rcs" : [

      ],
      "rate_show" : 0,
      "share_info" : {
        "mini_program" : [

        ],
        "qr_image" : "",
        "object_id" : "2332787",
        "s_u" : "http:\/\/m.douguo.com\/cookbook\/2332787.html",
        "s_d" : "蒜苗炒猪血-会做饭很酷!",
        "name" : "蒜苗炒猪血-会做饭很酷!",
        "image" : "https:\/\/cp1.douguo.com\/upload\/caiku\/2\/f\/d\/2f59b63a96d8b8e9d0f04741398344ad.jpg",
        "infos" : [
          {
            "channel" : "1",
            "mini_program" : [

            ],
            "qr_image" : "",
            "image" : "https:\/\/cp1.douguo.com\/upload\/caiku\/2\/f\/d\/2f59b63a96d8b8e9d0f04741398344ad.jpg",
            "s_u" : "",
            "object_id" : "2332787",
            "name" : "蒜苗炒猪血-会做饭很酷!",
            "s_d" : "#学做饭用豆果美食# 我在@豆果美食 分享了【蒜苗炒猪血-会做饭很酷!】，哟，集美们～你看这是神仙美味～快跟着我做一份，做一份！查看图片了解菜谱（更多美食秘籍点击https:\/\/m.weibo.cn\/p\/100404i33631获取）#会做饭很酷# "
          },
          {
            "qr_image" : "",
            "image" : "https:\/\/cp1.douguo.com\/upload\/caiku\/2\/f\/d\/2f59b63a96d8b8e9d0f04741398344ad.jpg",
            "channel" : "7",
            "object_id" : "2332787",
            "s_d" : "蒜苗炒猪血-会做饭很酷!",
            "name" : "蒜苗炒猪血-会做饭很酷!",
            "s_u" : "http:\/\/m.douguo.com\/cookbook\/2332787.html",
            "mini_program" : [

            ]
          },
          {
            "name" : "蒜苗炒猪血-会做饭很酷!",
            "image" : "https:\/\/cp1.douguo.com\/upload\/caiku\/2\/f\/d\/2f59b63a96d8b8e9d0f04741398344ad.jpg",
            "s_u" : "http:\/\/m.douguo.com\/cookbook\/2332787.html",
            "object_id" : "2332787",
            "s_d" : "蒜苗炒猪血-会做饭很酷!",
            "channel" : "8",
            "qr_image" : "",
            "mini_program" : [

            ]
          }
        ]
      },
      "dishes" : [

      ],
      "old_comments" : [

      ],
      "eu" : "recipes:\/\/www.douguo.com\/postdetail?id=242016",
      "dish_count" : 1,
      "clicks" : "593774",
      "rpid" : 0,
      "su" : "",
      "rpt" : "",
      "recent_comments" : [

      ],
      "hq" : 1,
      "top_mdsp" : [

      ],
      "major" : [
        {
          "note" : "500g",
          "tu" : "https:\/\/m.douguo.com\/ingredients\/猪血\/detailmaterial",
          "title" : "猪血"
        },
        {
          "title" : "蒜苗",
          "note" : "2根",
          "tu" : "https:\/\/m.douguo.com\/ingredients\/蒜苗\/detailmaterial"
        },
        {
          "tu" : "https:\/\/m.douguo.com\/ingredients\/姜\/detailmaterial",
          "note" : "5g",
          "title" : "姜"
        },
        {
          "note" : "5g",
          "title" : "蒜",
          "tu" : "https:\/\/m.douguo.com\/ingredients\/蒜\/detailmaterial"
        },
        {
          "tu" : "https:\/\/m.douguo.com\/ingredients\/葱\/detailmaterial",
          "title" : "葱",
          "note" : "5g"
        },
        {
          "tu" : "https:\/\/m.douguo.com\/ingredients\/干辣椒\/detailmaterial",
          "title" : "干辣椒",
          "note" : "3个"
        },
        {
          "title" : "油",
          "note" : "适量",
          "tu" : "https:\/\/m.douguo.com\/ingredients\/油\/detailmaterial"
        },
        {
          "note" : "10g",
          "title" : "料酒",
          "tu" : "https:\/\/m.douguo.com\/ingredients\/料酒\/detailmaterial"
        },
        {
          "note" : "2g",
          "title" : "盐",
          "tu" : "https:\/\/m.douguo.com\/ingredients\/盐\/detailmaterial"
        },
        {
          "note" : "2g",
          "title" : "淀粉"
        },
        {
          "tu" : "https:\/\/m.douguo.com\/ingredients\/清水\/detailmaterial",
          "title" : "清水",
          "note" : "少许"
        }
      ],
      "cookstory" : "蒜苗不仅能去除猪血的腥味，还能让整道菜的味觉体验效果更佳。不愧是食材界里，一对默契的好搭档~\r\n\r\n猪血的蛋白质含量很高，甚至比鸡蛋、瘦猪肉都要高，还属于优质蛋白。\r\n\r\n加上富含铁、锌、钴等微量元素，有增强体质、滋补养颜、防止高血脂等的功效。\r\n\r\n而且，吃猪血还有补血的功效。针对这一功效，更有了“血中之玉”的盛名~",
      "title" : "蒜苗炒猪血",
      "create_time" : "2019-08-17 15:29:44",
      "image" : "http:\/\/i1.douguo.net\/upload\/caiku\/2\/f\/d\/300_2f59b63a96d8b8e9d0f04741398344ad.jpg",
      "cookstep" : [
        {
          "content" : "猪血切成大小均匀的块状；姜、蒜切末；葱切成葱粒；干辣椒、蒜苗切段",
          "image" : "https:\/\/i1.douguo.com\/upload\/caiku\/9\/4\/f\/941b669d37cf87fe5c73c7fda94162bf.gif",
          "thumb" : "https:\/\/i1.douguo.com\/upload\/caiku\/9\/4\/f\/941b669d37cf87fe5c73c7fda94162bf.gif",
          "position" : 1,
          "image_height" : 225,
          "frame" : "-1",
          "image_width" : 400
        },
        {
          "frame" : "-1",
          "image_height" : 225,
          "thumb" : "https:\/\/i1.douguo.com\/upload\/caiku\/8\/d\/2\/8dfbbd0de5476e528d2332c5ccfd5fd2.gif",
          "content" : "锅内倒入适量的油，烧热后，加入干辣椒段、姜末、蒜末和葱花爆香",
          "position" : 2,
          "image" : "https:\/\/i1.douguo.com\/upload\/caiku\/8\/d\/2\/8dfbbd0de5476e528d2332c5ccfd5fd2.gif",
          "image_width" : 400
        },
        {
          "thumb" : "https:\/\/i1.douguo.com\/upload\/caiku\/3\/4\/c\/34e554da182d88e5079d74f7174d9b0c.gif",
          "image_width" : 400,
          "image_height" : 225,
          "frame" : "-1",
          "image" : "https:\/\/i1.douguo.com\/upload\/caiku\/3\/4\/c\/34e554da182d88e5079d74f7174d9b0c.gif",
          "position" : 3,
          "content" : "放入猪血，煸炒至微焦"
        },
        {
          "image" : "https:\/\/i1.douguo.com\/upload\/caiku\/2\/8\/3\/288fb40a9bc8bb1a88e8988a016ba303.gif",
          "content" : "加入适量料酒，翻炒均匀",
          "image_height" : 225,
          "image_width" : 400,
          "position" : 4,
          "thumb" : "https:\/\/i1.douguo.com\/upload\/caiku\/2\/8\/3\/288fb40a9bc8bb1a88e8988a016ba303.gif",
          "frame" : "-1"
        },
        {
          "image_width" : 400,
          "thumb" : "https:\/\/i1.douguo.com\/upload\/caiku\/9\/1\/b\/91d69575b7d4c8b3a61f654cca456adb.gif",
          "frame" : "-1",
          "content" : "再加入蒜苗翻炒均匀",
          "image_height" : 225,
          "position" : 5,
          "image" : "https:\/\/i1.douguo.com\/upload\/caiku\/9\/1\/b\/91d69575b7d4c8b3a61f654cca456adb.gif"
        },
        {
          "image" : "https:\/\/i1.douguo.com\/upload\/caiku\/c\/7\/0\/c7b4a53d3d2e325ff80e4f7facad3ab0.gif",
          "thumb" : "https:\/\/i1.douguo.com\/upload\/caiku\/c\/7\/0\/c7b4a53d3d2e325ff80e4f7facad3ab0.gif",
          "position" : 6,
          "image_height" : 225,
          "image_width" : 400,
          "frame" : "-1",
          "content" : "倒入少许盐和勾兑好的水淀粉，翻炒均匀即可"
        },
        {
          "frame" : "-1",
          "content" : "噔噔！一盘滑嫩鲜香的蒜苗炒猪血就做好啦~",
          "image_height" : 225,
          "image_width" : 400,
          "thumb" : "https:\/\/i1.douguo.com\/upload\/caiku\/5\/c\/1\/5cae2e59d00f989d199f6725c3a5b571.gif",
          "position" : 7,
          "image" : "https:\/\/i1.douguo.com\/upload\/caiku\/5\/c\/1\/5cae2e59d00f989d199f6725c3a5b571.gif"
        },
        {
          "thumb" : "https:\/\/i1.douguo.com\/upload\/caiku\/6\/2\/4\/140_62e6188d8618e6c2c0c6b28c12196e24.jpg",
          "frame" : "-1",
          "image_height" : 720,
          "image" : "https:\/\/i1.douguo.com\/upload\/caiku\/6\/2\/4\/62e6188d8618e6c2c0c6b28c12196e24.jpg",
          "image_width" : 1080,
          "position" : 8,
          "content" : "猪血外表煎得焦黄，散发着浓郁的蒜香。入口，完全没有腥味，滑嫩鲜香，还带着一点点脆弹，口感很好。"
        }
      ],
      "rips" : 0,
      "mid_mdsp" : [

      ],
      "user" : {
        "email" : "",
        "qzone_nick" : "",
        "weibo_nick" : "",
        "gender" : 2,
        "subscription_article_count" : 0,
        "fc" : 0,
        "diaries_count" : 0,
        "coursecount" : 0,
        "favor_diaries_count" : 0,
        "setted_email" : 0,
        "nick" : "蜜桃厨房",
        "subscription" : 0,
        "is_prime" : 0,
        "qq_weibo_nick" : "",
        "introduction" : "",
        "favorites_count" : 0,
        "user_photo" : "http:\/\/tx1.douguo.net\/upload\/photo\/c\/2\/e\/70_c2fe4992d2ba91046837a236e33003ae.jpg",
        "mobile" : "",
        "verified" : 1,
        "user_id" : "22948190",
        "verified_url" : "https:\/\/m.douguo.com\/user\/prodesc",
        "following_count" : 0,
        "lvl" : 7,
        "lv" : 0,
        "point" : 0,
        "sign" : "",
        "dishes_count" : 0,
        "birthday" : "",
        "user_cover" : "",
        "user_large_photo" : "http:\/\/tx1.douguo.net\/upload\/photo\/c\/2\/e\/yuan_c2fe4992d2ba91046837a236e33003ae.jpg",
        "pc" : 0,
        "regist_time" : "",
        "verified_image" : "https:\/\/i1.douguo.com\/upload\/note\/d\/a\/a\/da84247847aebe48d9dd0fcdac88862a.png",
        "followers_count" : 0,
        "location" : 0,
        "userid" : "22948190",
        "progress_image" : "",
        "recipes_count" : 0,
        "avatar_medium" : "http:\/\/tx1.douguo.net\/upload\/photo\/c\/2\/e\/140_c2fe4992d2ba91046837a236e33003ae.jpg",
        "age" : ""
      },
      "pw" : 1080,
      "first_level_comment_count" : 20,
      "v_u" : "",
      "ph" : 720,
      "rrps" : [

      ],
      "ssu" : "",
      "ipia" : [

      ],
      "thumb_height" : 0,
      "minor" : [

      ],
      "display_ingredient" : 1,
      "original_photo_path" : "http:\/\/i1.douguo.net\/upload\/caiku\/2\/f\/d\/yuan_2f59b63a96d8b8e9d0f04741398344ad.jpg",
      "author" : "蜜桃厨房",
      "rate" : 5,
      "recipe_tags" : [

      ],
      "sr" : "",
      "levelid" : 2,
      "cook_time" : "10分钟左右",
      "cook_id" : "2332787",
      "story_dsp" : [

      ],
      "related_ads" : [

      ],
      "comments_count_text" : "20",
      "rrpt" : "",
      "ipci" : "",
      "cookwares" : [

      ],
      "guide_image" : "",
      "brand_day_dsp" : [

      ],
      "vu" : "",
      "vc" : "616659",
      "rsm" : "该功能暂停使用",
      "collect_status" : 0,
      "dish_count_text" : "1",
      "rewarded_video_dsp" : [

      ],
      "advice" : {
        "has" : [
          {
            "url" : "recipes:\/\/www.douguo.com\/simplerecipelist?t=低饱和脂肪&id=低饱和脂肪",
            "t" : "低饱和脂肪"
          },
          {
            "url" : "recipes:\/\/www.douguo.com\/simplerecipelist?t=富含铁&id=富含铁",
            "t" : "富含铁"
          }
        ],
        "at" : "对血管有保护作用～",
        "da" : {
          "url" : "https:\/\/m.douguo.com\/recipe\/nutrient_self\/2332787",
          "t" : "查看详细分析",
          "iu" : "https:\/\/i1.douguo.com\/upload\/banner\/f\/4\/d\/f48877e53c37759bc12ac494be82ec8d.png"
        }
      },
      "recommended" : 0,
      "ipurl" : "",
      "ecs" : 0,
      "rdsps" : [

      ],
      "views_count_text" : "61.7万",
      "photo_path" : "https:\/\/i1.douguo.com\/upload\/caiku\/2\/f\/d\/600_2f59b63a96d8b8e9d0f04741398344ad.jpg",
      "ipt" : "",
      "recommend_label" : "1人学做",
      "ss" : [

      ],
      "cookstorys" : [
        {
          "type" : 0,
          "id" : 0,
          "c" : "蒜苗不仅能去除猪血的腥味，还能让整道菜的味觉体验效果更佳。不愧是食材界里，一对默契的好搭档~\r\n\r\n猪血的蛋白质含量很高，甚至比鸡蛋、瘦猪肉都要高，还属于优质蛋白。\r\n\r\n加上富含铁、锌、钴等微量元素，有增强体质、滋补养颜、防止高血脂等的功效。\r\n\r\n而且，吃猪血还有补血的功效。针对这一功效，更有了“血中之玉”的盛名~",
          "u" : "",
          "icon" : "",
          "color" : ""
        }
      ],
      "sc" : 0,
      "rate_count" : 1,
      "rpst" : "",
      "recommendation_tag" : "",
      "btm_dsp" : [

      ],
      "tags" : [

      ],
      "purl" : "",
      "author_id" : 22948190,
      "cook_time_image" : "https:\/\/i1.douguo.com\/upload\/banner\/1551424358.png",
      "hqu" : "recipes:\/\/www.douguo.com\/notedetail?id=21162253",
      "favo_counts_text" : "4586",
      "act_des" : "",
      "release_time" : "",
      "packages_id" : [

      ],
      "cook_difficulty_image" : "https:\/\/i1.douguo.com\/upload\/banner\/1551424390.png",
      "vfurl" : "",
      "ipoi" : "",
      "cook_difficulty" : "切墩(初级)",
      "comments" : [
        "{\n    ac = \"#999999\";\n    at = \"\";\n    ccc = 0;\n    \"child_comments\" =     (\n    );\n    city = \"\";\n    cmc = 2;\n    content =     (\n                {\n            c = \"\\U6709\\U53e3\\U798f\\U55bd\\Uff0c\\U770b\\U8d77\\U6765\\U8d85\\U597d\\U5403\";\n        }\n    );\n    ia = 0;\n    id = 6923141;\n    \"ip_address_location\" = \"\";\n    like = 0;\n    \"like_count\" = 0;\n    \"reply_id\" = 0;\n    \"sticker_icon\" =     (\n    );\n    time = \"2019-08-18 23:05:08\";\n    u =     {\n        \"followers_count_text\" = \"\";\n        id = 18470723;\n        \"is_prime\" = 0;\n        lv = 0;\n        lvl = 3;\n        n = \"star\\U517090\";\n        p = \"http:\/\/tx1.douguo.net\/upload\/photo\/2\/5\/d\/70_u12854241813240408144025.jpg\";\n        \"progress_image\" = \"\";\n        \"recipes_count_text\" = \"\";\n        relationship = \"-1\";\n        title = \"\";\n        v = 0;\n        \"verified_image\" = \"\";\n    };\n}",
        "{\n    ac = \"#999999\";\n    at = \"\";\n    ccc = 0;\n    \"child_comments\" =     (\n    );\n    city = \"\";\n    cmc = 2;\n    content =     (\n                {\n            c = \"\\U503c\\U5f97\\U5b66\\U4e60\\Uff01\\U624b\\U52a8\\U6bd4\\U5fc3~\";\n        }\n    );\n    ia = 0;\n    id = 6922897;\n    \"ip_address_location\" = \"\";\n    like = 0;\n    \"like_count\" = 0;\n    \"reply_id\" = 0;\n    \"sticker_icon\" =     (\n    );\n    time = \"2019-08-18 22:22:07\";\n    u =     {\n        \"followers_count_text\" = \"\";\n        id = 18450552;\n        \"is_prime\" = 0;\n        lv = 0;\n        lvl = 4;\n        n = \"\\U5c0f\\U5347\\U53a8\";\n        p = \"http:\/\/tx1.douguo.net\/upload\/photo\/f\/c\/5\/70_u73430932327979172234.jpg\";\n        \"progress_image\" = \"\";\n        \"recipes_count_text\" = \"\";\n        relationship = \"-1\";\n        title = \"\";\n        v = 0;\n        \"verified_image\" = \"\";\n    };\n}",
        "{\n    ac = \"#999999\";\n    at = \"\\U6e29\\U5dde\\U5e02\";\n    ccc = 0;\n    \"child_comments\" =     (\n    );\n    city = \"\\U6e29\\U5dde\\U5e02\";\n    cmc = 2;\n    content =     (\n                {\n            c = \"\\U660e\\U5929\\U4e5f\\U505a\\U8fd9\\U4e2a\";\n        }\n    );\n    ia = 0;\n    id = 6921035;\n    \"ip_address_location\" = \"\";\n    like = 0;\n    \"like_count\" = 0;\n    \"reply_id\" = 0;\n    \"sticker_icon\" =     (\n    );\n    time = \"2019-08-18 16:31:55\";\n    u =     {\n        \"followers_count_text\" = \"\";\n        id = 24159450;\n        \"is_prime\" = 0;\n        lv = 0;\n        lvl = 1;\n        n = \"\\U8c46\\U7c896689429996\";\n        p = \"\";\n        \"progress_image\" = \"\";\n        \"recipes_count_text\" = \"\";\n        relationship = \"-1\";\n        title = \"\";\n        v = 0;\n        \"verified_image\" = \"\";\n    };\n}"
      ],
      "favo_counts" : 4586,
      "comments_count" : 20,
      "ipit" : 0
    }
  },
  "status" : 0,
  "state" : "success"
}