{
  "state" : "success",
  "result" : {
    "recipe" : {
      "levelid" : 2,
      "tags" : [

      ],
      "ecs" : 1,
      "mid_mdsp" : [

      ],
      "ipia" : [

      ],
      "rate_show" : 0,
      "rsm" : "该功能暂停使用",
      "eu" : "recipes:\/\/www.douguo.com\/postdetail?id=242016",
      "rpid" : 0,
      "notes" : [

      ],
      "sr" : "",
      "cook_difficulty_image" : "https:\/\/i1.douguo.com\/upload\/banner\/1551424390.png",
      "old_comments" : [

      ],
      "dish_count_text" : "",
      "views_count_text" : "14.1万",
      "event" : {
        "name" : "美国开心果免费申请开启啦！快来享受开心果快乐食光吧~",
        "id" : 3772,
        "url" : "https:\/\/m.douguo.com\/activity\/ncpzj\/detail\/3772?isapp=1&open=0&_vs=1000300&&dg_refreshkey=publishnote"
      },
      "recommended" : 0,
      "guide_image" : "",
      "cookstep" : [
        {
          "content" : "开心果放入保鲜袋压成开心果碎.",
          "image" : "https:\/\/i1.douguo.com\/upload\/caiku\/9\/0\/b\/90938ebe9e98d7433e9f7891336d7d2b.jpeg",
          "position" : 1,
          "image_width" : 2560,
          "frame" : "-1",
          "thumb" : "https:\/\/i1.douguo.com\/upload\/caiku\/9\/0\/b\/140_90938ebe9e98d7433e9f7891336d7d2b.jpeg",
          "image_height" : 3412
        },
        {
          "image" : "https:\/\/i1.douguo.com\/upload\/caiku\/5\/0\/3\/50e444d466628bd5810b3bf1ed6814a3.jpeg",
          "position" : 2,
          "image_width" : 2560,
          "image_height" : 3412,
          "thumb" : "https:\/\/i1.douguo.com\/upload\/caiku\/5\/0\/3\/140_50e444d466628bd5810b3bf1ed6814a3.jpeg",
          "frame" : "-1",
          "content" : "杯里放入切好的火龙果."
        },
        {
          "frame" : "-1",
          "thumb" : "https:\/\/i1.douguo.com\/upload\/caiku\/b\/e\/c\/140_bea2afeebdbdecf17c1a9f5a9e80d2bc.jpeg",
          "image_width" : 2560,
          "image" : "https:\/\/i1.douguo.com\/upload\/caiku\/b\/e\/c\/bea2afeebdbdecf17c1a9f5a9e80d2bc.jpeg",
          "position" : 3,
          "image_height" : 3412,
          "content" : "倒入无糖酸奶."
        },
        {
          "content" : "最后在酸奶上撒上一层开心果碎",
          "image_width" : 2560,
          "image" : "https:\/\/i1.douguo.com\/upload\/caiku\/5\/1\/5\/51fc37da80d685d7c25d986bb2e77855.jpeg",
          "frame" : "-1",
          "image_height" : 3412,
          "position" : 4,
          "thumb" : "https:\/\/i1.douguo.com\/upload\/caiku\/5\/1\/5\/140_51fc37da80d685d7c25d986bb2e77855.jpeg"
        },
        {
          "frame" : "-1",
          "image_height" : 3412,
          "image" : "https:\/\/i1.douguo.com\/upload\/caiku\/d\/b\/5\/db83ef87bf2652301bc46708d8e65735.jpeg",
          "position" : 5,
          "content" : "开心果酸奶杯完成，减脂期来一杯解馋不长肉，快来试试吧.",
          "image_width" : 2560,
          "thumb" : "https:\/\/i1.douguo.com\/upload\/caiku\/d\/b\/5\/140_db83ef87bf2652301bc46708d8e65735.jpeg"
        }
      ],
      "v_u" : "",
      "image" : "http:\/\/i1.douguo.net\/upload\/caiku\/f\/f\/f\/300_ff2c6df58cf0bb3d6c1b12de70cffe9f.jpeg",
      "rpt" : "",
      "ph" : 1920,
      "rrps" : [

      ],
      "btm_dsp" : [

      ],
      "rcs" : [

      ],
      "title" : "自制下午茶减脂期最爱｜开心果酸奶杯",
      "photo_path" : "https:\/\/i1.douguo.com\/upload\/caiku\/f\/f\/f\/600_ff2c6df58cf0bb3d6c1b12de70cffe9f.jpeg",
      "related_ads" : [

      ],
      "user" : {
        "verified" : 1,
        "user_large_photo" : "http:\/\/tx1.douguo.net\/upload\/photo\/3\/a\/6\/yuan_u51054833276016133329.jpeg",
        "weibo_nick" : "",
        "progress_image" : "",
        "avatar_medium" : "http:\/\/tx1.douguo.net\/upload\/photo\/3\/a\/6\/140_u51054833276016133329.jpeg",
        "qq_weibo_nick" : "",
        "lv" : 0,
        "user_id" : "16013273",
        "lvl" : 6,
        "coursecount" : 0,
        "user_photo" : "http:\/\/tx1.douguo.net\/upload\/photo\/3\/a\/6\/70_u51054833276016133329.jpeg",
        "user_cover" : "",
        "qzone_nick" : "",
        "verified_image" : "https:\/\/i1.douguo.com\/upload\/note\/d\/a\/a\/da84247847aebe48d9dd0fcdac88862a.png",
        "age" : "",
        "favor_diaries_count" : 0,
        "favorites_count" : 0,
        "regist_time" : "",
        "birthday" : "",
        "gender" : 2,
        "following_count" : 0,
        "setted_email" : 0,
        "followers_count" : 0,
        "fc" : 0,
        "pc" : 0,
        "point" : 0,
        "subscription_article_count" : 0,
        "dishes_count" : 0,
        "mobile" : "",
        "recipes_count" : 0,
        "nick" : "可可饭堂",
        "location" : 0,
        "subscription" : 0,
        "sign" : "",
        "is_prime" : 0,
        "verified_url" : "https:\/\/m.douguo.com\/user\/prodesc",
        "email" : "",
        "diaries_count" : 0,
        "introduction" : "",
        "userid" : "16013273"
      },
      "ipt" : "",
      "brand_day_dsp" : [

      ],
      "thumb_path" : "https:\/\/i1.douguo.com\/upload\/caiku\/f\/f\/f\/300_ff2c6df58cf0bb3d6c1b12de70cffe9f.jpeg",
      "cookstorys" : [
        {
          "color" : "",
          "u" : "",
          "id" : 0,
          "c" : "开心果+无糖酸奶+低糖水果，减脂期的下午茶，解馋又不长肉，还可以加燕麦，饱腹感强，很适合当早餐，随意搭配的酸奶杯，快来自由发挥吧～",
          "icon" : "",
          "type" : 0
        },
        {
          "c" : "\n参与活动:",
          "icon" : "",
          "type" : 0,
          "id" : 0,
          "u" : "",
          "color" : ""
        },
        {
          "c" : "#美国开心果免费申请开启啦！快来享受开心果快乐食光吧~#",
          "icon" : "",
          "u" : "https:\/\/m.douguo.com\/activity\/ncpzj\/detail\/3772?isapp=1&open=0&_vs=1000300&&dg_refreshkey=publishnote",
          "id" : 0,
          "type" : 0
        }
      ],
      "share_info" : {
        "s_u" : "http:\/\/m.douguo.com\/cookbook\/3256447.html",
        "image" : "https:\/\/cp1.douguo.com\/upload\/caiku\/f\/f\/f\/ff2c6df58cf0bb3d6c1b12de70cffe9f.jpeg",
        "s_d" : "#美国开心果快乐食光#自制下午茶减脂期最爱｜开心果酸奶杯-会做饭很酷!",
        "infos" : [
          {
            "qr_image" : "",
            "s_u" : "",
            "channel" : "1",
            "image" : "https:\/\/cp1.douguo.com\/upload\/caiku\/f\/f\/f\/ff2c6df58cf0bb3d6c1b12de70cffe9f.jpeg",
            "object_id" : "3256447",
            "s_d" : "#学做饭用豆果美食# 我在@豆果美食 分享了【#美国开心果快乐食光#自制下午茶减脂期最爱｜开心果酸奶杯-会做饭很酷!】，这菜真的很好吃，而且做法简单不难学，还不快来跟我学～查看图片了解菜谱（每天限量免费课程，想跟大师学厨艺就来这https:\/\/m.weibo.cn\/p\/100404i33631）#会做饭很酷# ",
            "mini_program" : [

            ],
            "name" : "#美国开心果快乐食光#自制下午茶减脂期最爱｜开心果酸奶杯-会做饭很酷!"
          },
          {
            "channel" : "7",
            "name" : "#美国开心果快乐食光#自制下午茶减脂期最爱｜开心果酸奶杯-会做饭很酷!",
            "object_id" : "3256447",
            "mini_program" : [

            ],
            "s_u" : "http:\/\/m.douguo.com\/cookbook\/3256447.html",
            "qr_image" : "",
            "image" : "https:\/\/cp1.douguo.com\/upload\/caiku\/f\/f\/f\/ff2c6df58cf0bb3d6c1b12de70cffe9f.jpeg",
            "s_d" : "#美国开心果快乐食光#自制下午茶减脂期最爱｜开心果酸奶杯-会做饭很酷!"
          },
          {
            "s_u" : "http:\/\/m.douguo.com\/cookbook\/3256447.html",
            "name" : "#美国开心果快乐食光#自制下午茶减脂期最爱｜开心果酸奶杯-会做饭很酷!",
            "image" : "https:\/\/cp1.douguo.com\/upload\/caiku\/f\/f\/f\/ff2c6df58cf0bb3d6c1b12de70cffe9f.jpeg",
            "mini_program" : [

            ],
            "channel" : "8",
            "s_d" : "#美国开心果快乐食光#自制下午茶减脂期最爱｜开心果酸奶杯-会做饭很酷!",
            "qr_image" : "",
            "object_id" : "3256447"
          }
        ],
        "name" : "#美国开心果快乐食光#自制下午茶减脂期最爱｜开心果酸奶杯-会做饭很酷!",
        "object_id" : "3256447",
        "qr_image" : "",
        "mini_program" : [

        ]
      },
      "vc" : "141213",
      "favo_counts_text" : "5515",
      "packages_id" : [

      ],
      "thumb_height" : 0,
      "ipit" : 0,
      "major" : [
        {
          "title" : "开心果",
          "tu" : "https:\/\/m.douguo.com\/ingredients\/开心果\/detailmaterial",
          "note" : "若干"
        },
        {
          "note" : "随意",
          "title" : "火龙果",
          "tu" : "https:\/\/m.douguo.com\/ingredients\/火龙果\/detailmaterial"
        },
        {
          "title" : "酸奶",
          "note" : "90克"
        }
      ],
      "author_photo" : "http:\/\/tx1.douguo.net\/upload\/photo\/3\/a\/6\/70_u51054833276016133329.jpeg",
      "original_photo_path" : "http:\/\/i1.douguo.net\/upload\/caiku\/f\/f\/f\/yuan_ff2c6df58cf0bb3d6c1b12de70cffe9f.jpeg",
      "hq" : 1,
      "create_time" : "2023-06-06 20:29:26",
      "comments_count" : 0,
      "recent_comments" : [

      ],
      "recommend_label" : "5515人刚刚收藏过",
      "rdsps" : [

      ],
      "cookwares" : [

      ],
      "ipci" : "",
      "ssu" : "",
      "dishes" : [

      ],
      "tips" : "",
      "act_des" : "",
      "rrpt" : "",
      "vu" : "",
      "favo_counts" : 5515,
      "su" : "",
      "vfurl" : "",
      "bs" : [

      ],
      "recommendation_tag" : "",
      "display_ingredient" : 1,
      "recipe_tags" : [

      ],
      "rips" : 0,
      "comments" : [

      ],
      "story_dsp" : [

      ],
      "first_level_comment_count" : 0,
      "rewarded_video_dsp" : [

      ],
      "rate" : 0,
      "top_mdsp" : [

      ],
      "cook_difficulty" : "切墩(初级)",
      "rate_count" : 0,
      "release_time" : "",
      "pw" : 1440,
      "author_verified" : 1,
      "recipe_list_tags" : [
        {
          "right_image" : "",
          "text_color" : "#141515",
          "text" : "关注的人",
          "background_border_color" : "",
          "background_end_color" : "#F4F5F5",
          "background_start_color" : "#F4F5F5",
          "jump_url" : ""
        }
      ],
      "hqu" : "recipes:\/\/www.douguo.com\/notedetail?id=21162253",
      "author_id" : 16013273,
      "dish_count" : 0,
      "purl" : "",
      "comments_count_text" : "",
      "clicks" : "1",
      "ipoi" : "",
      "minor" : [

      ],
      "cook_time" : "10分钟左右",
      "cook_id" : "3256447",
      "cook_time_image" : "https:\/\/i1.douguo.com\/upload\/banner\/1551424358.png",
      "ss" : [

      ],
      "author" : "可可饭堂",
      "rpst" : "",
      "title_ad" : [

      ],
      "sc" : 0,
      "cookstory" : "开心果+无糖酸奶+低糖水果，减脂期的下午茶，解馋又不长肉，还可以加燕麦，饱腹感强，很适合当早餐，随意搭配的酸奶杯，快来自由发挥吧～",
      "ipurl" : "",
      "collect_status" : 0
    }
  },
  "status" : 0
}