{
  "result" : {
    "recipe" : {
      "ecs" : 0,
      "rate_show" : 0,
      "ipia" : [

      ],
      "notes" : [

      ],
      "rsm" : "该功能暂停使用",
      "eu" : "recipes:\/\/www.douguo.com\/postdetail?id=242016",
      "rpid" : 0,
      "sr" : "",
      "dish_count_text" : "",
      "old_comments" : [

      ],
      "event" : {
        "name" : "我们约饭吧",
        "id" : 2579,
        "url" : "https:\/\/m.douguo.com\/activity\/cpzj\/detail\/2579?isapp=1&open=0&_vs=1000300"
      },
      "ph" : 1280,
      "v_u" : "",
      "image" : "http:\/\/i1.douguo.net\/upload\/caiku\/f\/0\/d\/300_f049b57d1b6659d2e33d546968247c7d.jpeg",
      "photo_path" : "https:\/\/i1.douguo.com\/upload\/caiku\/f\/0\/d\/600_f049b57d1b6659d2e33d546968247c7d.jpeg",
      "btm_dsp" : [

      ],
      "rrps" : [

      ],
      "title" : "蒜香梅花肉炒猪血",
      "rcs" : [

      ],
      "related_ads" : [

      ],
      "brand_day_dsp" : [

      ],
      "thumb_path" : "https:\/\/i1.douguo.com\/upload\/caiku\/f\/0\/d\/300_f049b57d1b6659d2e33d546968247c7d.jpeg",
      "cookstorys" : [
        {
          "id" : 0,
          "c" : "春天时节宜多吃清淡又健康的食物，今天用梅花肉炒了猪血，常吃猪血，能延缓机体衰老，耳聪目明，加了韭菜味道简直不要太好吃咯……",
          "color" : "",
          "u" : "",
          "icon" : "",
          "type" : 0
        }
      ],
      "favo_counts_text" : "1756",
      "packages_id" : [

      ],
      "comments_count" : 3,
      "major" : [
        {
          "tu" : "https:\/\/m.douguo.com\/ingredients\/猪血\/detailmaterial",
          "title" : "猪血",
          "note" : "1块"
        },
        {
          "title" : "梅花肉",
          "note" : "150克"
        },
        {
          "title" : "韭菜",
          "note" : "1把",
          "tu" : "https:\/\/m.douguo.com\/ingredients\/韭菜\/detailmaterial"
        },
        {
          "note" : "5瓣",
          "tu" : "https:\/\/m.douguo.com\/ingredients\/大蒜\/detailmaterial",
          "title" : "大蒜"
        },
        {
          "tu" : "https:\/\/m.douguo.com\/ingredients\/料酒\/detailmaterial",
          "title" : "料酒",
          "note" : "1勺"
        },
        {
          "note" : "1勺",
          "tu" : "https:\/\/m.douguo.com\/ingredients\/蚝油\/detailmaterial",
          "title" : "蚝油"
        },
        {
          "title" : "生抽",
          "tu" : "https:\/\/m.douguo.com\/ingredients\/生抽\/detailmaterial",
          "note" : "1勺"
        },
        {
          "title" : "盐",
          "tu" : "https:\/\/m.douguo.com\/ingredients\/盐\/detailmaterial",
          "note" : "适量"
        },
        {
          "title" : "花椒粉",
          "note" : "1克"
        },
        {
          "tu" : "https:\/\/m.douguo.com\/ingredients\/鸡精\/detailmaterial",
          "title" : "鸡精",
          "note" : "1克"
        },
        {
          "tu" : "https:\/\/m.douguo.com\/ingredients\/花生油\/detailmaterial",
          "note" : "30克",
          "title" : "花生油"
        }
      ],
      "ipit" : 0,
      "create_time" : "2020-05-31 21:47:59",
      "recommend_label" : "1756人刚刚收藏过",
      "rdsps" : [

      ],
      "rrpt" : "",
      "vu" : "",
      "favo_counts" : 1756,
      "su" : "",
      "display_ingredient" : 1,
      "recommendation_tag" : "",
      "recipe_list_tags" : [
        {
          "text_color" : "#141515",
          "background_start_color" : "#F4F5F5",
          "right_image" : "",
          "background_border_color" : "",
          "jump_url" : "",
          "background_end_color" : "#F4F5F5",
          "text" : "关注的人"
        },
        {
          "jump_url" : "",
          "text" : "内容详细",
          "background_end_color" : "#F4F5F5",
          "right_image" : "",
          "text_color" : "#141515",
          "background_start_color" : "#F4F5F5",
          "background_border_color" : ""
        }
      ],
      "comments" : [
        "{\n    ac = \"#999999\";\n    at = \"\\U897f\\U5b89\\U5e02\";\n    ccc = 0;\n    \"child_comments\" =     (\n    );\n    city = \"\\U897f\\U5b89\\U5e02\";\n    cmc = 2;\n    content =     (\n                {\n            c = \"\\U8d5e\\Ud83d\\Udc4d\\Ud83c\\Udf39\";\n        }\n    );\n    ia = 0;\n    id = 8037714;\n    \"ip_address_location\" = \"\";\n    like = 0;\n    \"like_count\" = 0;\n    \"reply_id\" = 0;\n    \"sticker_icon\" =     (\n    );\n    time = \"2020-06-03 12:20:19\";\n    u =     {\n        \"followers_count_text\" = \"\";\n        id = 21876175;\n        \"is_prime\" = 0;\n        lv = 0;\n        lvl = 5;\n        n = \"\\U5a1f\\U5b50\\U5c0f\\U53a8\\U623f\";\n        p = \"http:\/\/tx1.douguo.net\/upload\/photo\/0\/5\/3\/70_u23031311864462001633.jpeg\";\n        \"progress_image\" = \"\";\n        \"recipes_count_text\" = \"\";\n        relationship = \"-1\";\n        title = \"\";\n        v = 0;\n        \"verified_image\" = \"\";\n    };\n}",
        "{\n    ac = \"#999999\";\n    at = \"\";\n    ccc = 0;\n    \"child_comments\" =     (\n    );\n    city = \"\";\n    cmc = 2;\n    content =     (\n                {\n            c = \"\\U597d\\U60f3\\U53ef\\U4ee5\\U9694\\U7740\\U8fd9\\U4e2a\\U5c4f\\U5e55\\U5403\\U5230\";\n        }\n    );\n    ia = 0;\n    id = 8031908;\n    \"ip_address_location\" = \"\";\n    like = 0;\n    \"like_count\" = 0;\n    \"reply_id\" = 0;\n    \"sticker_icon\" =     (\n    );\n    time = \"2020-05-31 23:21:05\";\n    u =     {\n        \"followers_count_text\" = \"\";\n        id = 18474525;\n        \"is_prime\" = 0;\n        lv = 0;\n        lvl = 3;\n        n = \"\\U554a\\U554a\\U554a\\U554a\\U554a\\U554a\\U554a\\U54c8\";\n        p = \"http:\/\/tx1.douguo.net\/upload\/photo\/1\/b\/0\/70_u00764604701667211707.jpg\";\n        \"progress_image\" = \"\";\n        \"recipes_count_text\" = \"\";\n        relationship = \"-1\";\n        title = \"\";\n        v = 0;\n        \"verified_image\" = \"\";\n    };\n}",
        "{\n    ac = \"#999999\";\n    at = \"\";\n    ccc = 0;\n    \"child_comments\" =     (\n    );\n    city = \"\";\n    cmc = 2;\n    content =     (\n                {\n            c = \"\\U505a\\U8fc7\\U4e00\\U6b21 \\U73b0\\U5728\\U53c8\\U60f3\\U5403\\U4e86\";\n        }\n    );\n    ia = 0;\n    id = 8031871;\n    \"ip_address_location\" = \"\";\n    like = 0;\n    \"like_count\" = 0;\n    \"reply_id\" = 0;\n    \"sticker_icon\" =     (\n    );\n    time = \"2020-05-31 23:01:04\";\n    u =     {\n        \"followers_count_text\" = \"\";\n        id = 18482041;\n        \"is_prime\" = 0;\n        lv = 0;\n        lvl = 4;\n        n = \"\\U9738\\U9053\\U603b\\U88c1\\U7231\\U4e0a\\U4e38\\U5b50\";\n        p = \"http:\/\/tx1.douguo.net\/upload\/photo\/9\/6\/c\/70_u06279288459442223418.jpg\";\n        \"progress_image\" = \"\";\n        \"recipes_count_text\" = \"\";\n        relationship = \"-1\";\n        title = \"\";\n        v = 0;\n        \"verified_image\" = \"\";\n    };\n}"
      ],
      "rate_count" : 0,
      "rewarded_video_dsp" : [

      ],
      "pw" : 1920,
      "cook_difficulty" : "切墩(初级)",
      "release_time" : "",
      "rate" : 0,
      "author_verified" : 1,
      "comments_count_text" : "3",
      "dish_count" : 0,
      "purl" : "",
      "clicks" : "176894",
      "ipoi" : "",
      "levelid" : 2,
      "cookstory" : "春天时节宜多吃清淡又健康的食物，今天用梅花肉炒了猪血，常吃猪血，能延缓机体衰老，耳聪目明，加了韭菜味道简直不要太好吃咯……",
      "sc" : 0,
      "ipurl" : "",
      "collect_status" : 0,
      "tags" : [

      ],
      "mid_mdsp" : [

      ],
      "cook_difficulty_image" : "https:\/\/i1.douguo.com\/upload\/banner\/1551424390.png",
      "views_count_text" : "18.9万",
      "recommended" : 0,
      "guide_image" : "",
      "cookstep" : [
        {
          "thumb" : "https:\/\/i1.douguo.com\/upload\/caiku\/e\/9\/b\/140_e991d5e0e0d027491d4fdcdeaa4840cb.jpeg",
          "image_height" : 853,
          "frame" : "-1",
          "image" : "https:\/\/i1.douguo.com\/upload\/caiku\/e\/9\/b\/e991d5e0e0d027491d4fdcdeaa4840cb.jpeg",
          "image_width" : 1280,
          "position" : 1,
          "content" : "首先备齐所有的食材，韭菜提前摘洗干净。"
        },
        {
          "image" : "https:\/\/i1.douguo.com\/upload\/caiku\/9\/8\/8\/9801c539a6dcb15f31fda33234f6b278.jpeg",
          "position" : 2,
          "content" : "猪血洗净用刀切成细条。",
          "thumb" : "https:\/\/i1.douguo.com\/upload\/caiku\/9\/8\/8\/140_9801c539a6dcb15f31fda33234f6b278.jpeg",
          "image_height" : 853,
          "image_width" : 1280,
          "frame" : "-1"
        },
        {
          "frame" : "-1",
          "image_height" : 853,
          "image" : "https:\/\/i1.douguo.com\/upload\/caiku\/8\/6\/e\/8619075bfa94da94606e924e6aa51c9e.jpeg",
          "thumb" : "https:\/\/i1.douguo.com\/upload\/caiku\/8\/6\/e\/140_8619075bfa94da94606e924e6aa51c9e.jpeg",
          "position" : 3,
          "image_width" : 1280,
          "content" : "锅中倒入适量的清水烧开，放入猪血条，加入料酒。"
        },
        {
          "image_width" : 1280,
          "position" : 4,
          "thumb" : "https:\/\/i1.douguo.com\/upload\/caiku\/9\/0\/c\/140_90b33ac2ea0e5860216c9cb88745a28c.jpeg",
          "frame" : "-1",
          "image" : "https:\/\/i1.douguo.com\/upload\/caiku\/9\/0\/c\/90b33ac2ea0e5860216c9cb88745a28c.jpeg",
          "image_height" : 853,
          "content" : "大火烧开，看见猪血条变色即可捞出过冷水后沥干备用。"
        },
        {
          "thumb" : "https:\/\/i1.douguo.com\/upload\/caiku\/8\/d\/9\/140_8dba10a060a25940d9e75daae7a91df9.jpeg",
          "image" : "https:\/\/i1.douguo.com\/upload\/caiku\/8\/d\/9\/8dba10a060a25940d9e75daae7a91df9.jpeg",
          "image_height" : 853,
          "position" : 5,
          "content" : "梅花肉洗净切成细条，大蒜去皮后切薄片，韭菜切段。",
          "frame" : "-1",
          "image_width" : 1280
        },
        {
          "position" : 6,
          "content" : "锅烧热后倒入花生油烧热，先爆香蒜片，再放入梅花肉，大火快速翻炒均匀。",
          "image_height" : 853,
          "image" : "https:\/\/i1.douguo.com\/upload\/caiku\/2\/4\/8\/24db0e5844ec95e81434a199962f9158.jpeg",
          "frame" : "-1",
          "image_width" : 1280,
          "thumb" : "https:\/\/i1.douguo.com\/upload\/caiku\/2\/4\/8\/140_24db0e5844ec95e81434a199962f9158.jpeg"
        },
        {
          "image_width" : 1280,
          "image_height" : 853,
          "content" : "这个时候加入蚝油调味调色。",
          "thumb" : "https:\/\/i1.douguo.com\/upload\/caiku\/d\/3\/c\/140_d3846639a75887219cf1621d0dd3972c.jpeg",
          "image" : "https:\/\/i1.douguo.com\/upload\/caiku\/d\/3\/c\/d3846639a75887219cf1621d0dd3972c.jpeg",
          "position" : 7,
          "frame" : "-1"
        },
        {
          "frame" : "-1",
          "content" : "再加入生抽调色提味。",
          "image_width" : 1280,
          "thumb" : "https:\/\/i1.douguo.com\/upload\/caiku\/b\/9\/8\/140_b93994115b8246430503124c2b223c48.jpeg",
          "position" : 8,
          "image_height" : 853,
          "image" : "https:\/\/i1.douguo.com\/upload\/caiku\/b\/9\/8\/b93994115b8246430503124c2b223c48.jpeg"
        },
        {
          "frame" : "-1",
          "image" : "https:\/\/i1.douguo.com\/upload\/caiku\/a\/8\/b\/a835042cdba5da0d50c30d3fefd94b5b.jpeg",
          "image_height" : 853,
          "thumb" : "https:\/\/i1.douguo.com\/upload\/caiku\/a\/8\/b\/140_a835042cdba5da0d50c30d3fefd94b5b.jpeg",
          "position" : 9,
          "content" : "大火继续把梅花肉翻炒均匀上色。",
          "image_width" : 1280
        },
        {
          "image" : "https:\/\/i1.douguo.com\/upload\/caiku\/0\/f\/c\/0f99dcc2531cdc1179c68db3729e54fc.jpeg",
          "image_height" : 853,
          "position" : 10,
          "thumb" : "https:\/\/i1.douguo.com\/upload\/caiku\/0\/f\/c\/140_0f99dcc2531cdc1179c68db3729e54fc.jpeg",
          "image_width" : 1280,
          "frame" : "-1",
          "content" : "这个时候加入焯过水的猪血条，大火快速翻炒均匀。"
        },
        {
          "image_height" : 853,
          "image" : "https:\/\/i1.douguo.com\/upload\/caiku\/4\/e\/2\/4e91d4119d0f9c716e5b466f52e20442.jpeg",
          "position" : 11,
          "thumb" : "https:\/\/i1.douguo.com\/upload\/caiku\/4\/e\/2\/140_4e91d4119d0f9c716e5b466f52e20442.jpeg",
          "image_width" : 1280,
          "frame" : "-1",
          "content" : "根据个人口味加入适量的盐。"
        },
        {
          "position" : 12,
          "image_height" : 853,
          "content" : "再放入花椒粉增加口感。",
          "image_width" : 1280,
          "thumb" : "https:\/\/i1.douguo.com\/upload\/caiku\/3\/2\/6\/140_323d0727d8f5f7316ea8242499c34e36.jpeg",
          "frame" : "-1",
          "image" : "https:\/\/i1.douguo.com\/upload\/caiku\/3\/2\/6\/323d0727d8f5f7316ea8242499c34e36.jpeg"
        },
        {
          "frame" : "-1",
          "image_width" : 1280,
          "image_height" : 853,
          "content" : "最后加入鸡精，不喜欢的可以不加。",
          "image" : "https:\/\/i1.douguo.com\/upload\/caiku\/f\/7\/3\/f7e1a5acb2e438d38a6320664cfa5f53.jpeg",
          "position" : 13,
          "thumb" : "https:\/\/i1.douguo.com\/upload\/caiku\/f\/7\/3\/140_f7e1a5acb2e438d38a6320664cfa5f53.jpeg"
        },
        {
          "content" : "大火继续翻炒至所有的食材调料混合均匀。",
          "image_height" : 853,
          "frame" : "-1",
          "image_width" : 1280,
          "thumb" : "https:\/\/i1.douguo.com\/upload\/caiku\/0\/f\/e\/140_0fe7f49643a22000a05f0cd853ec6a3e.jpeg",
          "image" : "https:\/\/i1.douguo.com\/upload\/caiku\/0\/f\/e\/0fe7f49643a22000a05f0cd853ec6a3e.jpeg",
          "position" : 14
        },
        {
          "content" : "加入韭菜段翻炒至变色即可关火。",
          "thumb" : "https:\/\/i1.douguo.com\/upload\/caiku\/c\/4\/0\/140_c441bed6b4daee6007f804ccd5925710.jpeg",
          "image_width" : 1280,
          "image" : "https:\/\/i1.douguo.com\/upload\/caiku\/c\/4\/0\/c441bed6b4daee6007f804ccd5925710.jpeg",
          "position" : 15,
          "image_height" : 853,
          "frame" : "-1"
        },
        {
          "image_height" : 853,
          "image_width" : 1280,
          "position" : 16,
          "content" : "成品",
          "thumb" : "https:\/\/i1.douguo.com\/upload\/caiku\/b\/e\/e\/140_be2dec18e90e8bc0f81794e739ca959e.jpeg",
          "image" : "https:\/\/i1.douguo.com\/upload\/caiku\/b\/e\/e\/be2dec18e90e8bc0f81794e739ca959e.jpeg",
          "frame" : "-1"
        }
      ],
      "rpt" : "",
      "user" : {
        "verified_image" : "https:\/\/i1.douguo.com\/upload\/note\/d\/a\/a\/da84247847aebe48d9dd0fcdac88862a.png",
        "user_large_photo" : "http:\/\/tx1.douguo.net\/upload\/photo\/2\/8\/4\/yuan_286c8630337257d0859de92cd96512f4.jpeg",
        "dishes_count" : 0,
        "favorites_count" : 0,
        "point" : 0,
        "user_cover" : "",
        "pc" : 0,
        "followers_count" : 0,
        "introduction" : "",
        "setted_email" : 0,
        "is_prime" : 0,
        "birthday" : "",
        "lvl" : 7,
        "lv" : 0,
        "sign" : "",
        "nick" : "月色家的小厨房",
        "fc" : 0,
        "age" : "",
        "diaries_count" : 0,
        "user_photo" : "http:\/\/tx1.douguo.net\/upload\/photo\/2\/8\/4\/70_286c8630337257d0859de92cd96512f4.jpeg",
        "gender" : 2,
        "user_id" : "20141474",
        "progress_image" : "",
        "mobile" : "",
        "subscription_article_count" : 0,
        "verified" : 1,
        "following_count" : 0,
        "email" : "",
        "recipes_count" : 0,
        "subscription" : 0,
        "weibo_nick" : "",
        "regist_time" : "",
        "avatar_medium" : "http:\/\/tx1.douguo.net\/upload\/photo\/2\/8\/4\/140_286c8630337257d0859de92cd96512f4.jpeg",
        "verified_url" : "https:\/\/m.douguo.com\/user\/prodesc",
        "qzone_nick" : "",
        "qq_weibo_nick" : "",
        "location" : 0,
        "coursecount" : 0,
        "userid" : "20141474",
        "favor_diaries_count" : 0
      },
      "ipt" : "",
      "share_info" : {
        "name" : "#我们约饭吧#蒜香梅花肉炒猪血-会做饭很酷!",
        "mini_program" : [

        ],
        "infos" : [
          {
            "mini_program" : [

            ],
            "image" : "https:\/\/cp1.douguo.com\/upload\/caiku\/f\/0\/d\/f049b57d1b6659d2e33d546968247c7d.jpeg",
            "s_d" : "#学做饭用豆果美食# 会做饭真是太酷了！我在@豆果美食 分享了【#我们约饭吧#蒜香梅花肉炒猪血-会做饭很酷!】，看着是不是馋到不行呢～快来跟我学学吧！查看图片了解菜谱，（想要获取更多美食就看这https:\/\/m.weibo.cn\/p\/100404i33631）",
            "object_id" : "2502196",
            "name" : "#我们约饭吧#蒜香梅花肉炒猪血-会做饭很酷!",
            "qr_image" : "",
            "channel" : "1",
            "s_u" : ""
          },
          {
            "object_id" : "2502196",
            "image" : "https:\/\/cp1.douguo.com\/upload\/caiku\/f\/0\/d\/f049b57d1b6659d2e33d546968247c7d.jpeg",
            "s_u" : "http:\/\/m.douguo.com\/cookbook\/2502196.html",
            "channel" : "7",
            "name" : "#我们约饭吧#蒜香梅花肉炒猪血-会做饭很酷!",
            "s_d" : "#我们约饭吧#蒜香梅花肉炒猪血-会做饭很酷!",
            "qr_image" : "",
            "mini_program" : [

            ]
          },
          {
            "s_d" : "#我们约饭吧#蒜香梅花肉炒猪血-会做饭很酷!",
            "mini_program" : [

            ],
            "name" : "#我们约饭吧#蒜香梅花肉炒猪血-会做饭很酷!",
            "image" : "https:\/\/cp1.douguo.com\/upload\/caiku\/f\/0\/d\/f049b57d1b6659d2e33d546968247c7d.jpeg",
            "qr_image" : "",
            "s_u" : "http:\/\/m.douguo.com\/cookbook\/2502196.html",
            "object_id" : "2502196",
            "channel" : "8"
          }
        ],
        "s_d" : "#我们约饭吧#蒜香梅花肉炒猪血-会做饭很酷!",
        "qr_image" : "",
        "image" : "https:\/\/cp1.douguo.com\/upload\/caiku\/f\/0\/d\/f049b57d1b6659d2e33d546968247c7d.jpeg",
        "s_u" : "http:\/\/m.douguo.com\/cookbook\/2502196.html",
        "object_id" : "2502196"
      },
      "vc" : "189018",
      "hq" : 1,
      "thumb_height" : 0,
      "original_photo_path" : "http:\/\/i1.douguo.net\/upload\/caiku\/f\/0\/d\/yuan_f049b57d1b6659d2e33d546968247c7d.jpeg",
      "author_photo" : "http:\/\/tx1.douguo.net\/upload\/photo\/2\/8\/4\/70_286c8630337257d0859de92cd96512f4.jpeg",
      "recent_comments" : [

      ],
      "cookwares" : [

      ],
      "ipci" : "",
      "dishes" : [

      ],
      "ssu" : "",
      "act_des" : "",
      "tips" : "此道小炒一定要大火爆炒，猪血一定要提前焯水去异味，但是不要焯的时间太长，变色即可哟……",
      "advice" : {
        "has" : [
          {
            "t" : "低糖",
            "url" : "recipes:\/\/www.douguo.com\/simplerecipelist?t=低糖&id=低糖"
          }
        ],
        "at" : "能帮助你减脂、控血糖～",
        "da" : {
          "iu" : "https:\/\/i1.douguo.com\/upload\/banner\/f\/4\/d\/f48877e53c37759bc12ac494be82ec8d.png",
          "t" : "查看详细分析",
          "url" : "https:\/\/m.douguo.com\/recipe\/nutrient_self\/2502196"
        }
      },
      "bs" : [

      ],
      "vfurl" : "",
      "recipe_tags" : [

      ],
      "first_level_comment_count" : 3,
      "rips" : 0,
      "story_dsp" : [

      ],
      "top_mdsp" : [

      ],
      "author_id" : 20141474,
      "hqu" : "recipes:\/\/www.douguo.com\/notedetail?id=21162253",
      "minor" : [

      ],
      "cook_time" : "10分钟左右",
      "cook_id" : "2502196",
      "cook_time_image" : "https:\/\/i1.douguo.com\/upload\/banner\/1551424358.png",
      "ss" : [

      ],
      "author" : "月色家的小厨房",
      "rpst" : "",
      "title_ad" : [

      ]
    }
  },
  "state" : "success",
  "status" : 0
}