{
  "status" : 0,
  "state" : "success",
  "result" : {
    "recipe" : {
      "rate_show" : 0,
      "rrps" : [

      ],
      "user" : {
        "verified" : 1,
        "age" : "",
        "weibo_nick" : "",
        "subscription" : 0,
        "subscription_article_count" : 0,
        "regist_time" : "",
        "user_cover" : "",
        "pc" : 0,
        "fc" : 0,
        "birthday" : "",
        "location" : 0,
        "verified_url" : "https:\/\/m.douguo.com\/user\/prodesc",
        "mobile" : "",
        "favorites_count" : 0,
        "qq_weibo_nick" : "",
        "avatar_medium" : "http:\/\/tx1.douguo.net\/upload\/photo\/6\/a\/4\/140_u77402033353281201244.jpeg",
        "dishes_count" : 0,
        "user_id" : "18920478",
        "lvl" : 6,
        "following_count" : 0,
        "introduction" : "",
        "email" : "",
        "favor_diaries_count" : 0,
        "userid" : "18920478",
        "gender" : 2,
        "user_large_photo" : "http:\/\/tx1.douguo.net\/upload\/photo\/6\/a\/4\/yuan_u77402033353281201244.jpeg",
        "verified_image" : "https:\/\/i1.douguo.com\/upload\/note\/d\/a\/a\/da84247847aebe48d9dd0fcdac88862a.png",
        "lv" : 0,
        "nick" : "木木在厨房",
        "user_photo" : "http:\/\/tx1.douguo.net\/upload\/photo\/6\/a\/4\/70_u77402033353281201244.jpeg",
        "diaries_count" : 0,
        "is_prime" : 0,
        "sign" : "",
        "setted_email" : 0,
        "qzone_nick" : "",
        "recipes_count" : 0,
        "progress_image" : "",
        "followers_count" : 0,
        "point" : 0,
        "coursecount" : 0
      },
      "cook_difficulty_image" : "",
      "su" : "",
      "author_verified" : 1,
      "rips" : 0,
      "dishes" : [

      ],
      "bs" : [

      ],
      "sc" : 0,
      "author_id" : 18920478,
      "top_mdsp" : [

      ],
      "ecs" : 0,
      "cookstorys" : [

      ],
      "clicks" : "218082",
      "create_time" : "2019-06-09 10:07:01",
      "btm_dsp" : [

      ],
      "packages_id" : [

      ],
      "levelid" : 3,
      "ipci" : "",
      "related_ads" : [

      ],
      "cook_time" : "",
      "first_level_comment_count" : 0,
      "comments_count_text" : "",
      "brand_day_dsp" : [

      ],
      "cookwares" : [

      ],
      "tags" : [

      ],
      "cookstep" : [
        {
          "image_height" : 960,
          "content" : "藜麦煮好，放到米饭一起",
          "position" : 1,
          "thumb" : "https:\/\/i1.douguo.com\/upload\/caiku\/b\/2\/3\/140_b2df85272bc3c14ee5da7bfd089b1133.jpeg",
          "image_width" : 1280,
          "frame" : "-1",
          "image" : "https:\/\/i1.douguo.com\/upload\/caiku\/b\/2\/3\/b2df85272bc3c14ee5da7bfd089b1133.jpeg"
        },
        {
          "position" : 2,
          "content" : "放20克橄榄油",
          "frame" : "-1",
          "image_height" : 960,
          "image" : "https:\/\/i1.douguo.com\/upload\/caiku\/2\/4\/6\/24fc257ab4c3002b01906b3dc876b7d6.jpeg",
          "thumb" : "https:\/\/i1.douguo.com\/upload\/caiku\/2\/4\/6\/140_24fc257ab4c3002b01906b3dc876b7d6.jpeg",
          "image_width" : 1280
        },
        {
          "position" : 3,
          "image" : "https:\/\/i1.douguo.com\/upload\/caiku\/3\/7\/a\/3723ac7f8a5eabfe7319563b2188932a.jpeg",
          "thumb" : "https:\/\/i1.douguo.com\/upload\/caiku\/3\/7\/a\/140_3723ac7f8a5eabfe7319563b2188932a.jpeg",
          "image_width" : 1280,
          "frame" : "-1",
          "content" : "加入2克米醋，用aca电子秤去皮功能，直接滴到油里面就行，混合搅拌",
          "image_height" : 960
        },
        {
          "image" : "https:\/\/i1.douguo.com\/upload\/caiku\/a\/4\/e\/a4ec079f3ee4f5d1d2f32b0ddd3467ae.jpeg",
          "frame" : "-1",
          "image_width" : 1280,
          "position" : 4,
          "image_height" : 960,
          "thumb" : "https:\/\/i1.douguo.com\/upload\/caiku\/a\/4\/e\/140_a4ec079f3ee4f5d1d2f32b0ddd3467ae.jpeg",
          "content" : "加入米饭中，搅拌均匀"
        },
        {
          "image" : "https:\/\/i1.douguo.com\/upload\/caiku\/5\/2\/0\/52be9f6e09ab723b94e750b78c9dc9e0.jpeg",
          "position" : 5,
          "frame" : "-1",
          "image_height" : 960,
          "image_width" : 1280,
          "content" : "揉成自己喜欢的大小，摆盘",
          "thumb" : "https:\/\/i1.douguo.com\/upload\/caiku\/5\/2\/0\/140_52be9f6e09ab723b94e750b78c9dc9e0.jpeg"
        },
        {
          "content" : "减脂塑型必吃哈",
          "image" : "https:\/\/i1.douguo.com\/upload\/caiku\/8\/a\/c\/8ac3a600bd73ce7fb152a3f4b012f31c.jpeg",
          "image_width" : 1280,
          "position" : 6,
          "image_height" : 960,
          "frame" : "-1",
          "thumb" : "https:\/\/i1.douguo.com\/upload\/caiku\/8\/a\/c\/140_8ac3a600bd73ce7fb152a3f4b012f31c.jpeg"
        }
      ],
      "thumb_height" : 0,
      "minor" : [

      ],
      "rsm" : "该功能暂停使用",
      "hq" : 0,
      "story_dsp" : [

      ],
      "cookstory" : "",
      "cook_id" : "2306427",
      "recipe_tags" : [

      ],
      "rcs" : [

      ],
      "rate" : 0,
      "sr" : "",
      "dish_count_text" : "",
      "ipia" : [

      ],
      "pw" : 1920,
      "vu" : "",
      "cook_time_image" : "",
      "recipe_list_tags" : [
        {
          "background_end_color" : "#F4F5F5",
          "jump_url" : "",
          "text" : "关注的人",
          "background_border_color" : "",
          "right_image" : "",
          "text_color" : "#141515",
          "background_start_color" : "#F4F5F5"
        }
      ],
      "eu" : "recipes:\/\/www.douguo.com\/postdetail?id=242016",
      "recommend_label" : "5319人刚刚收藏过",
      "notes" : [

      ],
      "ss" : [

      ],
      "comments_count" : 0,
      "v_u" : "",
      "display_ingredient" : 1,
      "vfurl" : "",
      "recommendation_tag" : "",
      "hqu" : "recipes:\/\/www.douguo.com\/notedetail?id=21162253",
      "release_time" : "",
      "vc" : "221910",
      "mid_mdsp" : [

      ],
      "ipurl" : "",
      "original_photo_path" : "http:\/\/i1.douguo.net\/upload\/caiku\/f\/c\/0\/yuan_fc2d7a02c64e8365407fa6892814d850.jpeg",
      "title" : "藜麦饭团",
      "ssu" : "",
      "purl" : "",
      "old_comments" : [

      ],
      "thumb_path" : "https:\/\/i1.douguo.com\/upload\/caiku\/f\/c\/0\/300_fc2d7a02c64e8365407fa6892814d850.jpeg",
      "favo_counts" : 5319,
      "favo_counts_text" : "5319",
      "rate_count" : 0,
      "title_ad" : [

      ],
      "guide_image" : "",
      "major" : [
        {
          "title" : "米饭",
          "note" : "一碗",
          "tu" : "https:\/\/m.douguo.com\/ingredients\/米饭\/detailmaterial"
        },
        {
          "title" : "藜麦",
          "note" : "30克"
        },
        {
          "note" : "20克",
          "tu" : "https:\/\/m.douguo.com\/ingredients\/橄榄油\/detailmaterial",
          "title" : "橄榄油"
        },
        {
          "note" : "2克",
          "title" : "米醋"
        }
      ],
      "tips" : "",
      "rpt" : "",
      "ph" : 1440,
      "ipt" : "",
      "collect_status" : 0,
      "image" : "http:\/\/i1.douguo.net\/upload\/caiku\/f\/c\/0\/300_fc2d7a02c64e8365407fa6892814d850.jpeg",
      "photo_path" : "https:\/\/i1.douguo.com\/upload\/caiku\/f\/c\/0\/600_fc2d7a02c64e8365407fa6892814d850.jpeg",
      "share_info" : {
        "qr_image" : "",
        "name" : "#甜粽VS咸粽，你是哪一党？#藜麦饭团-会做饭很酷!",
        "image" : "https:\/\/cp1.douguo.com\/upload\/caiku\/f\/c\/0\/fc2d7a02c64e8365407fa6892814d850.jpeg",
        "object_id" : "2306427",
        "s_u" : "http:\/\/m.douguo.com\/cookbook\/2306427.html",
        "mini_program" : [

        ],
        "s_d" : "#甜粽VS咸粽，你是哪一党？#藜麦饭团-会做饭很酷!",
        "infos" : [
          {
            "image" : "https:\/\/cp1.douguo.com\/upload\/caiku\/f\/c\/0\/fc2d7a02c64e8365407fa6892814d850.jpeg",
            "s_d" : "#学做饭用豆果美食# 会做饭真是太酷了！我在@豆果美食 分享了【#甜粽VS咸粽，你是哪一党？#藜麦饭团-会做饭很酷!】，看着是不是馋到不行呢～快来跟我学学吧！查看图片了解菜谱，（想要获取更多美食就看这https:\/\/m.weibo.cn\/p\/100404i33631）",
            "object_id" : "2306427",
            "s_u" : "",
            "mini_program" : [

            ],
            "channel" : "1",
            "name" : "#甜粽VS咸粽，你是哪一党？#藜麦饭团-会做饭很酷!",
            "qr_image" : ""
          },
          {
            "mini_program" : [

            ],
            "s_d" : "#甜粽VS咸粽，你是哪一党？#藜麦饭团-会做饭很酷!",
            "s_u" : "http:\/\/m.douguo.com\/cookbook\/2306427.html",
            "object_id" : "2306427",
            "channel" : "7",
            "name" : "#甜粽VS咸粽，你是哪一党？#藜麦饭团-会做饭很酷!",
            "image" : "https:\/\/cp1.douguo.com\/upload\/caiku\/f\/c\/0\/fc2d7a02c64e8365407fa6892814d850.jpeg",
            "qr_image" : ""
          },
          {
            "s_d" : "#甜粽VS咸粽，你是哪一党？#藜麦饭团-会做饭很酷!",
            "name" : "#甜粽VS咸粽，你是哪一党？#藜麦饭团-会做饭很酷!",
            "object_id" : "2306427",
            "image" : "https:\/\/cp1.douguo.com\/upload\/caiku\/f\/c\/0\/fc2d7a02c64e8365407fa6892814d850.jpeg",
            "mini_program" : [

            ],
            "qr_image" : "",
            "channel" : "8",
            "s_u" : "http:\/\/m.douguo.com\/cookbook\/2306427.html"
          }
        ]
      },
      "recent_comments" : [

      ],
      "author_photo" : "http:\/\/tx1.douguo.net\/upload\/photo\/6\/a\/4\/70_u77402033353281201244.jpeg",
      "rrpt" : "",
      "dish_count" : 0,
      "advice" : {
        "da" : {
          "url" : "https:\/\/m.douguo.com\/recipe\/nutrient_self\/2306427",
          "iu" : "https:\/\/i1.douguo.com\/upload\/banner\/f\/4\/d\/f48877e53c37759bc12ac494be82ec8d.png",
          "t" : "查看详细分析"
        },
        "has" : [

        ]
      },
      "views_count_text" : "22.2万",
      "rpid" : 0,
      "rewarded_video_dsp" : [

      ],
      "act_des" : "",
      "recommended" : 0,
      "ipoi" : "",
      "ipit" : 0,
      "comments" : [

      ],
      "author" : "木木在厨房",
      "rpst" : "",
      "event" : {
        "id" : 0
      },
      "cook_difficulty" : "",
      "rdsps" : [

      ]
    }
  }
}