{
  "state" : "success",
  "result" : {
    "recipe" : {
      "sr" : "",
      "brand_day_dsp" : [

      ],
      "vc" : "1993158",
      "photo_path" : "https:\/\/i1.douguo.com\/upload\/caiku\/5\/a\/3\/600_5a016b8a8848d379a4f5887b84381da3.jpg",
      "ipurl" : "",
      "rate" : 4,
      "top_mdsp" : [

      ],
      "ipia" : [

      ],
      "rrps" : [

      ],
      "share_info" : {
        "mini_program" : [

        ],
        "object_id" : "1672011",
        "name" : "风味腐竹烩芹菜-会做饭很酷!",
        "s_u" : "http:\/\/m.douguo.com\/cookbook\/1672011.html",
        "image" : "https:\/\/cp1.douguo.com\/upload\/caiku\/5\/a\/3\/5a016b8a8848d379a4f5887b84381da3.jpg",
        "qr_image" : "",
        "s_d" : "风味腐竹烩芹菜-会做饭很酷!",
        "infos" : [
          {
            "name" : "风味腐竹烩芹菜-会做饭很酷!",
            "qr_image" : "",
            "channel" : "1",
            "s_d" : "#学做饭用豆果美食# 会做饭好酷啊！我在@豆果美食 分享了【风味腐竹烩芹菜-会做饭很酷!】，今天也是厨艺满满的一天呢，快来和我一起学做美食吧！查看图片了解菜谱（更多美食秘籍点击https:\/\/m.weibo.cn\/p\/100404i33631获取）",
            "s_u" : "",
            "image" : "https:\/\/cp1.douguo.com\/upload\/caiku\/5\/a\/3\/5a016b8a8848d379a4f5887b84381da3.jpg",
            "mini_program" : [

            ],
            "object_id" : "1672011"
          },
          {
            "qr_image" : "",
            "image" : "https:\/\/cp1.douguo.com\/upload\/caiku\/5\/a\/3\/5a016b8a8848d379a4f5887b84381da3.jpg",
            "s_d" : "风味腐竹烩芹菜-会做饭很酷!",
            "channel" : "7",
            "mini_program" : [

            ],
            "object_id" : "1672011",
            "s_u" : "http:\/\/m.douguo.com\/cookbook\/1672011.html",
            "name" : "风味腐竹烩芹菜-会做饭很酷!"
          },
          {
            "object_id" : "1672011",
            "image" : "https:\/\/cp1.douguo.com\/upload\/caiku\/5\/a\/3\/5a016b8a8848d379a4f5887b84381da3.jpg",
            "name" : "风味腐竹烩芹菜-会做饭很酷!",
            "s_d" : "风味腐竹烩芹菜-会做饭很酷!",
            "mini_program" : [

            ],
            "s_u" : "http:\/\/m.douguo.com\/cookbook\/1672011.html",
            "qr_image" : "",
            "channel" : "8"
          }
        ]
      },
      "first_level_comment_count" : 15,
      "ipit" : 0,
      "cookwares" : [

      ],
      "hqu" : "recipes:\/\/www.douguo.com\/notedetail?id=21162253",
      "comments" : [
        "{\n    ac = \"#999999\";\n    at = \"\";\n    ccc = 0;\n    \"child_comments\" =     (\n    );\n    city = \"\";\n    cmc = 2;\n    content =     (\n                {\n            c = \"\\U5b66\\U4e60\\U4e86\\U8d5e\\U4e00\\U4e2a\\U5427\\Uff0c\\U8981\\U6709\\U70b9\\U8d5e\\U529f\\U80fd\\U5c31\\U597d\\U4e86\";\n        }\n    );\n    ia = 0;\n    id = 5662434;\n    \"ip_address_location\" = \"\";\n    like = 0;\n    \"like_count\" = 5;\n    \"reply_id\" = 0;\n    \"sticker_icon\" =     (\n    );\n    time = \"2018-05-05 01:34:58\";\n    u =     {\n        \"followers_count_text\" = \"\";\n        id = 18466032;\n        \"is_prime\" = 0;\n        lv = 0;\n        lvl = 4;\n        n = \"\\U82cf\\U4e00\\U4e8c\";\n        p = \"http:\/\/tx1.douguo.net\/upload\/photo\/1\/f\/4\/70_u12386038813290408141317.jpg\";\n        \"progress_image\" = \"\";\n        \"recipes_count_text\" = \"\";\n        relationship = \"-1\";\n        title = \"\";\n        v = 0;\n        \"verified_image\" = \"\";\n    };\n}",
        "{\n    ac = \"#999999\";\n    at = \"\";\n    ccc = 0;\n    \"child_comments\" =     (\n    );\n    city = \"\";\n    cmc = 2;\n    content =     (\n                {\n            c = \"\\U5389\\U5bb3\\U4e86\\U6211\\U7684\\U697c\\U4e3b\\Uff01(*^__^*) \";\n        }\n    );\n    ia = 0;\n    id = 5662401;\n    \"ip_address_location\" = \"\";\n    like = 0;\n    \"like_count\" = 2;\n    \"reply_id\" = 0;\n    \"sticker_icon\" =     (\n    );\n    time = \"2018-05-05 01:16:22\";\n    u =     {\n        \"followers_count_text\" = \"\";\n        id = 18535838;\n        \"is_prime\" = 0;\n        lv = 0;\n        lvl = 6;\n        n = \"sneaker_zxc\";\n        p = \"http:\/\/tx1.douguo.net\/upload\/photo\/7\/a\/2\/70_u19341034439150408212137.jpg\";\n        \"progress_image\" = \"\";\n        \"recipes_count_text\" = \"\";\n        relationship = \"-1\";\n        title = \"\";\n        v = 0;\n        \"verified_image\" = \"\";\n    };\n}",
        "{\n    ac = \"#999999\";\n    at = \"\\U5b81\\U6ce2\\U5e02\";\n    ccc = 0;\n    \"child_comments\" =     (\n    );\n    city = \"\\U5b81\\U6ce2\\U5e02\";\n    cmc = 2;\n    content =     (\n                {\n            c = \"\\U4e0d\\U9519\";\n        }\n    );\n    ia = 0;\n    id = 6564026;\n    \"ip_address_location\" = \"\";\n    like = 0;\n    \"like_count\" = 1;\n    \"reply_id\" = 0;\n    \"sticker_icon\" =     (\n    );\n    time = \"2019-05-01 00:27:36\";\n    u =     {\n        \"followers_count_text\" = \"\";\n        id = 19684580;\n        \"is_prime\" = 0;\n        lv = 0;\n        lvl = 8;\n        n = \"\\U5e74\\U7cd5\\U963f\\U7237\";\n        p = \"http:\/\/tx1.douguo.net\/upload\/photo\/e\/9\/9\/70_u87476021424708074152.jpg\";\n        \"progress_image\" = \"\";\n        \"recipes_count_text\" = \"\";\n        relationship = \"-1\";\n        title = \"\";\n        v = 0;\n        \"verified_image\" = \"\";\n    };\n}"
      ],
      "vfurl" : "",
      "cookstep" : [
        {
          "content" : "腐竹泡发好",
          "position" : 1,
          "frame" : "-1",
          "image" : "https:\/\/i1.douguo.com\/upload\/caiku\/7\/5\/d\/7534b692c3f3917aa0a6b52d7fbfb8ed.JPG",
          "image_width" : 1776,
          "image_height" : 1184,
          "thumb" : "https:\/\/i1.douguo.com\/upload\/caiku\/7\/5\/d\/140_7534b692c3f3917aa0a6b52d7fbfb8ed.JPG"
        },
        {
          "image_height" : 1184,
          "position" : 2,
          "image" : "https:\/\/i1.douguo.com\/upload\/caiku\/a\/2\/c\/a22e5cd8dec3ed947f7f87c340bbc11c.JPG",
          "content" : "斜刀切成段",
          "image_width" : 1776,
          "frame" : "-1",
          "thumb" : "https:\/\/i1.douguo.com\/upload\/caiku\/a\/2\/c\/140_a22e5cd8dec3ed947f7f87c340bbc11c.JPG"
        },
        {
          "image_width" : 1776,
          "frame" : "-1",
          "image_height" : 1184,
          "thumb" : "https:\/\/i1.douguo.com\/upload\/caiku\/3\/3\/3\/140_33151b5a465da80738e54f771ae77a43.JPG",
          "image" : "https:\/\/i1.douguo.com\/upload\/caiku\/3\/3\/3\/33151b5a465da80738e54f771ae77a43.JPG",
          "position" : 3,
          "content" : "芹菜去叶，斜刀切成段\n"
        },
        {
          "image_width" : 1776,
          "position" : 4,
          "image_height" : 1184,
          "content" : "胡萝卜切成粗丝",
          "image" : "https:\/\/i1.douguo.com\/upload\/caiku\/c\/1\/5\/c1a168a455a15524fe4ab041f45c4295.JPG",
          "frame" : "-1",
          "thumb" : "https:\/\/i1.douguo.com\/upload\/caiku\/c\/1\/5\/140_c1a168a455a15524fe4ab041f45c4295.JPG"
        },
        {
          "image_width" : 1776,
          "position" : 5,
          "thumb" : "https:\/\/i1.douguo.com\/upload\/caiku\/0\/8\/0\/140_087a709226a4479600c0f7f99abeb7d0.JPG",
          "content" : "姜去皮切成末，风味豆豉备好\n",
          "frame" : "-1",
          "image_height" : 1184,
          "image" : "https:\/\/i1.douguo.com\/upload\/caiku\/0\/8\/0\/087a709226a4479600c0f7f99abeb7d0.JPG"
        },
        {
          "image_width" : 1776,
          "image" : "https:\/\/i1.douguo.com\/upload\/caiku\/6\/2\/9\/6219c45f8b760bbcbb8bbee127a84149.JPG",
          "position" : 6,
          "thumb" : "https:\/\/i1.douguo.com\/upload\/caiku\/6\/2\/9\/140_6219c45f8b760bbcbb8bbee127a84149.JPG",
          "image_height" : 1184,
          "content" : "起锅热油，下豆豉姜末炒出香味\n",
          "frame" : "-1"
        },
        {
          "content" : "下腐竹煸炒一会\n",
          "position" : 7,
          "thumb" : "https:\/\/i1.douguo.com\/upload\/caiku\/b\/7\/4\/140_b7359054cda4733efffc8b0887e02ac4.JPG",
          "image_width" : 1776,
          "frame" : "-1",
          "image" : "https:\/\/i1.douguo.com\/upload\/caiku\/b\/7\/4\/b7359054cda4733efffc8b0887e02ac4.JPG",
          "image_height" : 1184
        },
        {
          "position" : 8,
          "thumb" : "https:\/\/i1.douguo.com\/upload\/caiku\/2\/5\/0\/140_2562ebea119714583d6ffa1957aa9940.JPG",
          "content" : "加入芹菜、胡萝卜、蚝油翻炒至断生",
          "frame" : "-1",
          "image_width" : 1776,
          "image" : "https:\/\/i1.douguo.com\/upload\/caiku\/2\/5\/0\/2562ebea119714583d6ffa1957aa9940.JPG",
          "image_height" : 1184
        },
        {
          "thumb" : "https:\/\/i1.douguo.com\/upload\/caiku\/e\/5\/3\/140_e5c864b88aabec7ebe7203a124d50b83.JPG",
          "frame" : "-1",
          "content" : "最后加入盐和鸡粉调味，翻炒均匀即可",
          "image_width" : 1776,
          "image" : "https:\/\/i1.douguo.com\/upload\/caiku\/e\/5\/3\/e5c864b88aabec7ebe7203a124d50b83.JPG",
          "position" : 9,
          "image_height" : 1184
        },
        {
          "position" : 10,
          "image_height" : 1184,
          "content" : "成品",
          "image" : "https:\/\/i1.douguo.com\/upload\/caiku\/4\/2\/e\/4262f222970d0166e09678cb15e9d08e.jpg",
          "thumb" : "https:\/\/i1.douguo.com\/upload\/caiku\/4\/2\/e\/140_4262f222970d0166e09678cb15e9d08e.jpg",
          "image_width" : 1776,
          "frame" : "-1"
        }
      ],
      "rpid" : 0,
      "su" : "",
      "cook_time" : "",
      "cookstorys" : [
        {
          "type" : 0,
          "icon" : "",
          "id" : 0,
          "color" : "",
          "u" : "",
          "c" : "这道菜我加入了风味豆豉，菜名就由此得来，比起单纯的芹菜炒腐竹，加入豆豉真的很香很下饭"
        }
      ],
      "recipe_tags" : [

      ],
      "ss" : [

      ],
      "dishes" : [

      ],
      "user" : {
        "email" : "",
        "coursecount" : 0,
        "qq_weibo_nick" : "",
        "age" : "",
        "mobile" : "",
        "userid" : "20711347",
        "weibo_nick" : "",
        "user_id" : "20711347",
        "following_count" : 0,
        "subscription" : 0,
        "verified" : 1,
        "location" : 0,
        "setted_email" : 0,
        "dishes_count" : 0,
        "recipes_count" : 0,
        "introduction" : "",
        "avatar_medium" : "http:\/\/tx1.douguo.net\/upload\/photo\/d\/e\/7\/140_u01012076308597112706.jpeg",
        "user_large_photo" : "http:\/\/tx1.douguo.net\/upload\/photo\/d\/e\/7\/yuan_u01012076308597112706.jpeg",
        "user_photo" : "http:\/\/tx1.douguo.net\/upload\/photo\/d\/e\/7\/70_u01012076308597112706.jpeg",
        "favorites_count" : 0,
        "fc" : 0,
        "favor_diaries_count" : 0,
        "qzone_nick" : "",
        "point" : 0,
        "progress_image" : "",
        "user_cover" : "",
        "lvl" : 7,
        "birthday" : "",
        "subscription_article_count" : 0,
        "is_prime" : 0,
        "gender" : 2,
        "nick" : "尖尖实验室",
        "followers_count" : 0,
        "verified_url" : "https:\/\/m.douguo.com\/user\/prodesc",
        "regist_time" : "",
        "pc" : 0,
        "verified_image" : "https:\/\/i1.douguo.com\/upload\/note\/d\/a\/a\/da84247847aebe48d9dd0fcdac88862a.png",
        "lv" : 0,
        "diaries_count" : 0,
        "sign" : ""
      },
      "ipt" : "",
      "ipci" : "",
      "minor" : [
        "{\n    note = \"1\\U6c64\\U5319\";\n    title = \"\\U98ce\\U5473\\U8c46\\U8c49\";\n}",
        "{\n    note = \"3\\U514b\";\n    title = \"\\U59dc\\U672b\";\n}",
        "{\n    note = \"1\\U8336\\U5319\";\n    title = \"\\U76d0\";\n    tu = \"https:\/\/https:\/\/m.douguo.com\/ingredients\/\\U76d0\/detailmaterial\";\n}",
        "{\n    note = \"1\\U5927\\U52fa\";\n    title = \"\\U869d\\U6cb9\";\n    tu = \"https:\/\/https:\/\/m.douguo.com\/ingredients\/\\U869d\\U6cb9\/detailmaterial\";\n}",
        "{\n    note = \"1\\U8336\\U5319\";\n    title = \"\\U9e21\\U7cbe\";\n    tu = \"https:\/\/https:\/\/m.douguo.com\/ingredients\/\\U9e21\\U7cbe\/detailmaterial\";\n}"
      ],
      "author_verified" : 1,
      "related_ads" : [

      ],
      "author_photo" : "http:\/\/tx1.douguo.net\/upload\/photo\/d\/e\/7\/70_u01012076308597112706.jpeg",
      "btm_dsp" : [

      ],
      "rsm" : "该功能暂停使用",
      "release_time" : "",
      "collect_status" : 0,
      "rdsps" : [

      ],
      "ipoi" : "",
      "story_dsp" : [

      ],
      "author_id" : 20711347,
      "purl" : "",
      "rate_show" : 0,
      "clicks" : "1964846",
      "title" : "风味腐竹烩芹菜",
      "dish_count_text" : "14",
      "display_ingredient" : 1,
      "cook_difficulty_image" : "",
      "rrpt" : "",
      "eu" : "recipes:\/\/www.douguo.com\/postdetail?id=242016",
      "mid_mdsp" : [

      ],
      "old_comments" : [

      ],
      "levelid" : 2,
      "rpt" : "",
      "rcs" : [

      ],
      "comments_count_text" : "15",
      "tips" : "",
      "rips" : 0,
      "cook_id" : "1672011",
      "ecs" : 0,
      "views_count_text" : "199.3万",
      "vu" : "",
      "thumb_height" : 0,
      "dish_count" : 14,
      "act_des" : "",
      "create_time" : "2018-05-04 17:26:21",
      "ssu" : "",
      "rpst" : "",
      "guide_image" : "",
      "packages_id" : [

      ],
      "cookstory" : "这道菜我加入了风味豆豉，菜名就由此得来，比起单纯的芹菜炒腐竹，加入豆豉真的很香很下饭",
      "author" : "尖尖实验室",
      "recommended" : 0,
      "sc" : 0,
      "v_u" : "",
      "recommendation_tag" : "",
      "major" : [
        {
          "tu" : "https:\/\/m.douguo.com\/ingredients\/芹菜\/detailmaterial",
          "note" : "2棵",
          "title" : "芹菜"
        },
        {
          "title" : "干腐竹",
          "note" : "50克"
        },
        {
          "note" : "半根",
          "title" : "胡萝卜",
          "tu" : "https:\/\/m.douguo.com\/ingredients\/胡萝卜\/detailmaterial"
        }
      ],
      "thumb_path" : "https:\/\/i1.douguo.com\/upload\/caiku\/5\/a\/3\/300_5a016b8a8848d379a4f5887b84381da3.jpg",
      "cook_difficulty" : "",
      "hq" : 1,
      "tags" : [

      ],
      "rate_count" : 13,
      "pw" : 1776,
      "ph" : 1184,
      "recent_comments" : [

      ],
      "favo_counts" : 11998,
      "recipe_list_tags" : [
        {
          "text" : "关注的人",
          "background_end_color" : "#F4F5F5",
          "right_image" : "",
          "jump_url" : "",
          "background_border_color" : "",
          "background_start_color" : "#F4F5F5",
          "text_color" : "#141515"
        }
      ],
      "recommend_label" : "14人学做",
      "title_ad" : [

      ],
      "comments_count" : 15,
      "cook_time_image" : "",
      "notes" : [

      ],
      "favo_counts_text" : "1.2万",
      "advice" : {
        "at" : "可以预防血栓形成～",
        "has" : [
          {
            "t" : "低饱和脂肪",
            "url" : "recipes:\/\/www.douguo.com\/simplerecipelist?t=低饱和脂肪&id=低饱和脂肪"
          },
          {
            "t" : "高盐",
            "url" : "recipes:\/\/www.douguo.com\/simplerecipelist?t=高盐&id=高盐"
          }
        ],
        "da" : {
          "iu" : "https:\/\/i1.douguo.com\/upload\/banner\/f\/4\/d\/f48877e53c37759bc12ac494be82ec8d.png",
          "url" : "https:\/\/m.douguo.com\/recipe\/nutrient_self\/1672011",
          "t" : "查看详细分析"
        }
      },
      "rewarded_video_dsp" : [

      ],
      "original_photo_path" : "http:\/\/i1.douguo.net\/upload\/caiku\/5\/a\/3\/yuan_5a016b8a8848d379a4f5887b84381da3.jpg",
      "bs" : [

      ],
      "image" : "http:\/\/i1.douguo.net\/upload\/caiku\/5\/a\/3\/300_5a016b8a8848d379a4f5887b84381da3.jpg"
    }
  },
  "status" : 0
}