{
  "state" : "success",
  "status" : 0,
  "result" : {
    "recipe" : {
      "cook_id" : "3091411",
      "eu" : "recipes:\/\/www.douguo.com\/postdetail?id=242016",
      "rewarded_video_dsp" : [

      ],
      "btm_dsp" : [

      ],
      "author" : "小鱼哥的私房",
      "create_time" : "2021-05-10 19:59:45",
      "release_time" : "",
      "recommend_label" : "2169人刚刚收藏过",
      "su" : "",
      "cook_time" : "10~30分钟",
      "thumb_path" : "https:\/\/i1.douguo.com\/upload\/caiku\/0\/c\/1\/300_0c1e97881f90a9cd538321671715d931.jpg",
      "original_photo_path" : "http:\/\/i1.douguo.net\/upload\/caiku\/0\/c\/1\/yuan_0c1e97881f90a9cd538321671715d931.jpg",
      "author_photo" : "http:\/\/tx1.douguo.net\/upload\/photo\/1\/d\/b\/70_u07484448538492144757.jpg",
      "comments_count" : 2,
      "dishes" : [

      ],
      "rate" : 0,
      "title" : "双椒鱼头",
      "v_u" : "",
      "favo_counts_text" : "2169",
      "pw" : 1080,
      "rpid" : 0,
      "title_ad" : [

      ],
      "comments_count_text" : "2",
      "related_ads" : [

      ],
      "clicks" : "80141",
      "rsm" : "该功能暂停使用",
      "user" : {
        "age" : "",
        "email" : "",
        "nick" : "小鱼哥的私房",
        "followers_count" : 0,
        "avatar_medium" : "http:\/\/tx1.douguo.net\/upload\/photo\/1\/d\/b\/140_u07484448538492144757.jpg",
        "user_cover" : "",
        "following_count" : 0,
        "verified" : 1,
        "favorites_count" : 0,
        "weibo_nick" : "",
        "recipes_count" : 0,
        "introduction" : "",
        "user_id" : "26193956",
        "subscription_article_count" : 0,
        "location" : 0,
        "setted_email" : 0,
        "coursecount" : 0,
        "is_prime" : 0,
        "lv" : 0,
        "dishes_count" : 0,
        "verified_image" : "https:\/\/i1.douguo.com\/upload\/note\/d\/a\/a\/da84247847aebe48d9dd0fcdac88862a.png",
        "fc" : 0,
        "lvl" : 6,
        "favor_diaries_count" : 0,
        "birthday" : "",
        "point" : 0,
        "qzone_nick" : "",
        "verified_url" : "https:\/\/m.douguo.com\/user\/prodesc",
        "sign" : "",
        "regist_time" : "",
        "user_photo" : "http:\/\/tx1.douguo.net\/upload\/photo\/1\/d\/b\/70_u07484448538492144757.jpg",
        "diaries_count" : 0,
        "user_large_photo" : "http:\/\/tx1.douguo.net\/upload\/photo\/1\/d\/b\/yuan_u07484448538492144757.jpg",
        "subscription" : 0,
        "pc" : 0,
        "progress_image" : "",
        "userid" : "26193956",
        "gender" : 1,
        "qq_weibo_nick" : "",
        "mobile" : ""
      },
      "image" : "http:\/\/i1.douguo.net\/upload\/caiku\/0\/c\/1\/300_0c1e97881f90a9cd538321671715d931.jpg",
      "favo_counts" : 2169,
      "thumb_height" : 0,
      "dish_count" : 0,
      "ssu" : "",
      "sc" : 0,
      "mid_mdsp" : [

      ],
      "brand_day_dsp" : [

      ],
      "photo_path" : "https:\/\/i1.douguo.com\/upload\/caiku\/0\/c\/1\/600_0c1e97881f90a9cd538321671715d931.jpg",
      "tips" : "用盐摩擦鱼头可以很好的去腥。",
      "major" : [
        {
          "title" : "鱼头",
          "tu" : "https:\/\/m.douguo.com\/ingredients\/鱼头\/detailmaterial",
          "note" : "1个"
        },
        {
          "tu" : "https:\/\/m.douguo.com\/ingredients\/葱\/detailmaterial",
          "title" : "葱",
          "note" : "适量"
        },
        {
          "tu" : "https:\/\/m.douguo.com\/ingredients\/姜\/detailmaterial",
          "title" : "姜",
          "note" : "适量"
        },
        {
          "title" : "蒜末",
          "note" : "适量"
        },
        {
          "tu" : "https:\/\/m.douguo.com\/ingredients\/盐\/detailmaterial",
          "note" : "适量",
          "title" : "盐"
        },
        {
          "title" : "料酒",
          "note" : "适量",
          "tu" : "https:\/\/m.douguo.com\/ingredients\/料酒\/detailmaterial"
        },
        {
          "note" : "适量",
          "tu" : "https:\/\/m.douguo.com\/ingredients\/辣椒\/detailmaterial",
          "title" : "辣椒"
        },
        {
          "title" : "白糖",
          "note" : "适量",
          "tu" : "https:\/\/m.douguo.com\/ingredients\/白糖\/detailmaterial"
        },
        {
          "tu" : "https:\/\/m.douguo.com\/ingredients\/胡椒粉\/detailmaterial",
          "note" : "适量",
          "title" : "胡椒粉"
        },
        {
          "tu" : "https:\/\/m.douguo.com\/ingredients\/生抽\/detailmaterial",
          "note" : "适量",
          "title" : "生抽"
        },
        {
          "title" : "木耳",
          "note" : "适量",
          "tu" : "https:\/\/m.douguo.com\/ingredients\/木耳\/detailmaterial"
        },
        {
          "title" : "黄椒",
          "note" : "适量"
        },
        {
          "title" : "葱绿",
          "note" : "适量"
        },
        {
          "title" : "小米辣",
          "note" : "适量"
        },
        {
          "note" : "适量",
          "title" : "葱绿丝"
        },
        {
          "note" : "适量",
          "tu" : "https:\/\/m.douguo.com\/ingredients\/食用油\/detailmaterial",
          "title" : "食用油"
        }
      ],
      "recipe_list_tags" : [
        {
          "right_image" : "",
          "jump_url" : "",
          "background_end_color" : "#F4F5F5",
          "background_start_color" : "#F4F5F5",
          "text" : "关注的人",
          "background_border_color" : "",
          "text_color" : "#141515"
        },
        {
          "background_border_color" : "",
          "jump_url" : "",
          "text_color" : "#141515",
          "text" : "内容详细",
          "right_image" : "",
          "background_start_color" : "#F4F5F5",
          "background_end_color" : "#F4F5F5"
        }
      ],
      "cookwares" : [

      ],
      "sr" : "",
      "purl" : "",
      "hqu" : "recipes:\/\/www.douguo.com\/notedetail?id=21162253",
      "cook_difficulty_image" : "https:\/\/i1.douguo.com\/upload\/banner\/1551424390.png",
      "author_id" : 26193956,
      "ipurl" : "",
      "tags" : [

      ],
      "story_dsp" : [

      ],
      "vu" : "https:\/\/vplay.douguo.com\/lh2VWpvHnDDaWC0spfAiUdMSdH-n",
      "dish_count_text" : "",
      "rrps" : [

      ],
      "rcs" : [

      ],
      "ipit" : 0,
      "act_des" : "",
      "vfurl" : "https:\/\/vplay.douguo.com\/lh2VWpvHnDDaWC0spfAiUdMSdH-n__362x640.mp4",
      "notes" : [

      ],
      "cookstory" : "剁椒鱼头属湘菜系，是湘潭的一道名菜。以鱼头的“味鲜”和剁辣椒的“辣”为一体，肥而不腻、肉质细嫩、鲜辣适口，风味独具一格。母亲节快乐！",
      "old_comments" : [

      ],
      "minor" : [

      ],
      "ipia" : [

      ],
      "cookstorys" : [
        {
          "icon" : "",
          "c" : "剁椒鱼头属湘菜系，是湘潭的一道名菜。以鱼头的“味鲜”和剁辣椒的“辣”为一体，肥而不腻、肉质细嫩、鲜辣适口，风味独具一格。母亲节快乐！",
          "id" : 0,
          "color" : "",
          "u" : "",
          "type" : 0
        },
        {
          "type" : 0,
          "u" : "",
          "icon" : "",
          "color" : "",
          "id" : 0,
          "c" : "\n参与活动:"
        },
        {
          "id" : 0,
          "icon" : "",
          "u" : "https:\/\/m.douguo.com\/activity\/ncpzj\/detail\/3095?isapp=1&open=0&_vs=1000300&&dg_refreshkey=publishnote",
          "type" : 0,
          "c" : "#菜谱有奖征集|以美食的名义说爱她#"
        }
      ],
      "rpt" : "",
      "rate_show" : 0,
      "author_verified" : 1,
      "display_ingredient" : 1,
      "bs" : [

      ],
      "views_count_text" : "9.3万",
      "guide_image" : "",
      "cook_difficulty" : "切墩(初级)",
      "recommended" : 0,
      "rpst" : "",
      "top_mdsp" : [

      ],
      "advice" : {
        "da" : {
          "url" : "https:\/\/m.douguo.com\/recipe\/nutrient_self\/3091411",
          "t" : "查看详细分析",
          "iu" : "https:\/\/i1.douguo.com\/upload\/banner\/f\/4\/d\/f48877e53c37759bc12ac494be82ec8d.png"
        },
        "has" : [
          {
            "url" : "recipes:\/\/www.douguo.com\/simplerecipelist?t=富含蛋白质&id=富含蛋白质",
            "t" : "富含蛋白质"
          },
          {
            "url" : "recipes:\/\/www.douguo.com\/simplerecipelist?t=低饱和脂肪&id=低饱和脂肪",
            "t" : "低饱和脂肪"
          }
        ],
        "at" : "有助于组织的形成和生长～"
      },
      "ph" : 1440,
      "ss" : [

      ],
      "recent_comments" : [

      ],
      "ipoi" : "",
      "ipci" : "",
      "share_info" : {
        "s_u" : "http:\/\/m.douguo.com\/cookbook\/3091411.html",
        "infos" : [
          {
            "qr_image" : "",
            "image" : "https:\/\/cp1.douguo.com\/upload\/caiku\/0\/c\/1\/0c1e97881f90a9cd538321671715d931.jpg",
            "s_u" : "",
            "object_id" : "3091411",
            "mini_program" : [

            ],
            "channel" : "1",
            "name" : "#以美食的名义说爱她#双椒鱼头-会做饭很酷!",
            "s_d" : "#学做饭用豆果美食#  我在@豆果美食 分享了【#以美食的名义说爱她#双椒鱼头-会做饭很酷!】，制作美食的过程承载了我生活中的热情，和我一起感受这份小确幸吧！查看图片了解菜谱（你喜欢的美食都在这里！https:\/\/m.weibo.cn\/p\/100404i33631）#会做饭很酷# "
          },
          {
            "s_u" : "http:\/\/m.douguo.com\/cookbook\/3091411.html",
            "image" : "https:\/\/cp1.douguo.com\/upload\/caiku\/0\/c\/1\/0c1e97881f90a9cd538321671715d931.jpg",
            "qr_image" : "",
            "channel" : "7",
            "mini_program" : [

            ],
            "name" : "#以美食的名义说爱她#双椒鱼头-会做饭很酷!",
            "s_d" : "#以美食的名义说爱她#双椒鱼头-会做饭很酷!",
            "object_id" : "3091411"
          },
          {
            "s_d" : "#以美食的名义说爱她#双椒鱼头-会做饭很酷!",
            "s_u" : "http:\/\/m.douguo.com\/cookbook\/3091411.html",
            "object_id" : "3091411",
            "image" : "https:\/\/cp1.douguo.com\/upload\/caiku\/0\/c\/1\/0c1e97881f90a9cd538321671715d931.jpg",
            "channel" : "8",
            "name" : "#以美食的名义说爱她#双椒鱼头-会做饭很酷!",
            "mini_program" : [

            ],
            "qr_image" : ""
          }
        ],
        "image" : "https:\/\/cp1.douguo.com\/upload\/caiku\/0\/c\/1\/0c1e97881f90a9cd538321671715d931.jpg",
        "qr_image" : "",
        "s_d" : "#以美食的名义说爱她#双椒鱼头-会做饭很酷!",
        "mini_program" : [

        ],
        "object_id" : "3091411",
        "name" : "#以美食的名义说爱她#双椒鱼头-会做饭很酷!"
      },
      "cook_time_image" : "https:\/\/i1.douguo.com\/upload\/banner\/1551424341.png",
      "levelid" : 2,
      "packages_id" : [

      ],
      "hq" : 1,
      "rdsps" : [

      ],
      "vc" : "93129",
      "rate_count" : 0,
      "event" : {
        "name" : "菜谱有奖征集|以美食的名义说爱她",
        "id" : 3095,
        "url" : "https:\/\/m.douguo.com\/activity\/ncpzj\/detail\/3095?isapp=1&open=0&_vs=1000300&&dg_refreshkey=publishnote"
      },
      "comments" : [
        "{\n    ac = \"#999999\";\n    at = \"\";\n    ccc = 1;\n    \"child_comments\" =     (\n                {\n            ac = \"#999999\";\n            at = \"\\U83cf\\U6cfd\\U5e02\";\n            ccc = 0;\n            city = \"\\U83cf\\U6cfd\\U5e02\";\n            cmc = 2;\n            content =             (\n                                {\n                    c = \" \\U54c8\\U54c8\\U518d\\U914d\\U7897\\U7c73\\U996d\\Uff01\\Ud83d\\Ude04\";\n                }\n            );\n            ia = 1;\n            id = 8669780;\n            \"ip_address_location\" = \"\";\n            like = 0;\n            \"like_count\" = 0;\n            \"reply_id\" = 8669687;\n            \"reply_user\" =             {\n                \"followers_count_text\" = \"\";\n                id = 18575649;\n                \"is_prime\" = 0;\n                lv = 0;\n                lvl = 4;\n                n = MaxB;\n                p = \"http:\/\/tx1.douguo.net\/upload\/photo\/9\/d\/e\/70_u22410941422700409002515.jpg\";\n                \"progress_image\" = \"\";\n                \"recipes_count_text\" = \"\";\n                relationship = \"-1\";\n                title = \"\";\n                v = 0;\n                \"verified_image\" = \"\";\n            };\n            \"sticker_icon\" =             (\n            );\n            time = \"2021-05-10 22:03:50\";\n            u =             {\n                \"followers_count_text\" = \"\";\n                id = 26193956;\n                \"is_prime\" = 0;\n                lv = 0;\n                lvl = 6;\n                n = \"\\U5c0f\\U9c7c\\U54e5\\U7684\\U79c1\\U623f\";\n                p = \"http:\/\/tx1.douguo.net\/upload\/photo\/1\/d\/b\/70_u07484448538492144757.jpg\";\n                \"progress_image\" = \"\";\n                \"recipes_count_text\" = \"\";\n                relationship = \"-1\";\n                title = \"\";\n                v = 1;\n                \"verified_image\" = \"\";\n            };\n        }\n    );\n    city = \"\";\n    cmc = 2;\n    content =     (\n                {\n            c = \"\\U98df\\U6b32\\U98d9\\U5347~\\U54c8\\U54c8\\Uff01\";\n        }\n    );\n    ia = 0;\n    id = 8669687;\n    \"ip_address_location\" = \"\";\n    like = 0;\n    \"like_count\" = 0;\n    \"reply_id\" = 0;\n    \"sticker_icon\" =     (\n    );\n    time = \"2021-05-10 20:12:22\";\n    u =     {\n        \"followers_count_text\" = \"\";\n        id = 18575649;\n        \"is_prime\" = 0;\n        lv = 0;\n        lvl = 4;\n        n = MaxB;\n        p = \"http:\/\/tx1.douguo.net\/upload\/photo\/9\/d\/e\/70_u22410941422700409002515.jpg\";\n        \"progress_image\" = \"\";\n        \"recipes_count_text\" = \"\";\n        relationship = \"-1\";\n        title = \"\";\n        v = 0;\n        \"verified_image\" = \"\";\n    };\n}"
      ],
      "recipe_tags" : [

      ],
      "ecs" : 0,
      "first_level_comment_count" : 1,
      "rips" : 0,
      "recommendation_tag" : "",
      "rrpt" : "",
      "collect_status" : 0,
      "ipt" : "",
      "cookstep" : [
        {
          "image_width" : 1080,
          "image" : "https:\/\/i1.douguo.com\/upload\/caiku\/5\/a\/b\/5ae5f0d4d58b5758271cf0fb07cfa8bb.jpg",
          "position" : 1,
          "content" : "鱼头鱼身切开，鱼头打花刀，鱼身留备用，",
          "thumb" : "https:\/\/i1.douguo.com\/upload\/caiku\/5\/a\/b\/140_5ae5f0d4d58b5758271cf0fb07cfa8bb.jpg",
          "image_height" : 1388,
          "frame" : "-1"
        },
        {
          "frame" : "-1",
          "thumb" : "https:\/\/i1.douguo.com\/upload\/caiku\/e\/b\/f\/140_eb448cf78f0bc738aecac330a651071f.jpg",
          "image_width" : 800,
          "image_height" : 1013,
          "position" : 2,
          "image" : "https:\/\/i1.douguo.com\/upload\/caiku\/e\/b\/f\/eb448cf78f0bc738aecac330a651071f.jpg",
          "content" : "撒上葱姜、盐、料酒，"
        },
        {
          "thumb" : "https:\/\/i1.douguo.com\/upload\/caiku\/6\/3\/c\/140_6301eed0e741c7538f2c5cb4cc51637c.jpg",
          "frame" : "-1",
          "image" : "https:\/\/i1.douguo.com\/upload\/caiku\/6\/3\/c\/6301eed0e741c7538f2c5cb4cc51637c.jpg",
          "position" : 3,
          "image_height" : 1364,
          "image_width" : 1080,
          "content" : "两面腌制，"
        },
        {
          "image_width" : 800,
          "frame" : "-1",
          "image_height" : 1012,
          "thumb" : "https:\/\/i1.douguo.com\/upload\/caiku\/3\/2\/e\/140_3279254df4167246f469dc334502ecee.jpg",
          "image" : "https:\/\/i1.douguo.com\/upload\/caiku\/3\/2\/e\/3279254df4167246f469dc334502ecee.jpg",
          "content" : "剁椒酱:辣椒、葱末、姜末、蒜末、盐、糖、胡椒粉、生抽，",
          "position" : 4
        },
        {
          "thumb" : "https:\/\/i1.douguo.com\/upload\/caiku\/c\/0\/2\/140_c0eafa5eefa7105befadc9d791ed8a82.jpg",
          "position" : 5,
          "image" : "https:\/\/i1.douguo.com\/upload\/caiku\/c\/0\/2\/c0eafa5eefa7105befadc9d791ed8a82.jpg",
          "image_height" : 1370,
          "content" : "温水泡木耳20分钟，",
          "image_width" : 1080,
          "frame" : "-1"
        },
        {
          "image_height" : 1013,
          "frame" : "-1",
          "thumb" : "https:\/\/i1.douguo.com\/upload\/caiku\/1\/c\/f\/140_1c06cf09491fcc457babec3f6c57386f.jpg",
          "image" : "https:\/\/i1.douguo.com\/upload\/caiku\/1\/c\/f\/1c06cf09491fcc457babec3f6c57386f.jpg",
          "image_width" : 800,
          "position" : 6,
          "content" : "将木耳铺在盘底，"
        },
        {
          "image_width" : 1080,
          "content" : "放上鱼头，",
          "position" : 7,
          "image" : "https:\/\/i1.douguo.com\/upload\/caiku\/8\/f\/2\/8f521f830e74dfb3fadfd774b6c889b2.jpg",
          "frame" : "-1",
          "image_height" : 1375,
          "thumb" : "https:\/\/i1.douguo.com\/upload\/caiku\/8\/f\/2\/140_8f521f830e74dfb3fadfd774b6c889b2.jpg"
        },
        {
          "image" : "https:\/\/i1.douguo.com\/upload\/caiku\/8\/5\/2\/85e6fb52bd7ac6200358f3ccf32684a2.jpg",
          "thumb" : "https:\/\/i1.douguo.com\/upload\/caiku\/8\/5\/2\/140_85e6fb52bd7ac6200358f3ccf32684a2.jpg",
          "position" : 8,
          "image_height" : 1359,
          "image_width" : 1080,
          "content" : "抹上剁椒酱，",
          "frame" : "-1"
        },
        {
          "content" : "蒸锅上汽蒸8分钟，闷2分钟，",
          "frame" : "-1",
          "image_height" : 1374,
          "image_width" : 1080,
          "thumb" : "https:\/\/i1.douguo.com\/upload\/caiku\/2\/9\/a\/140_294b478d33851328e1f11b1954b0a89a.jpg",
          "position" : 9,
          "image" : "https:\/\/i1.douguo.com\/upload\/caiku\/2\/9\/a\/294b478d33851328e1f11b1954b0a89a.jpg"
        },
        {
          "frame" : "-1",
          "image_height" : 1368,
          "content" : "撒上葱绿、小米辣，",
          "thumb" : "https:\/\/i1.douguo.com\/upload\/caiku\/2\/1\/e\/140_21471c811cb0ada7acb6672f2ece4f6e.jpg",
          "image_width" : 1080,
          "image" : "https:\/\/i1.douguo.com\/upload\/caiku\/2\/1\/e\/21471c811cb0ada7acb6672f2ece4f6e.jpg",
          "position" : 10
        },
        {
          "frame" : "-1",
          "image" : "https:\/\/i1.douguo.com\/upload\/caiku\/e\/e\/a\/ee0bd81daefc421ab1f3cd22e14a4daa.jpg",
          "content" : "淋勺热油，",
          "thumb" : "https:\/\/i1.douguo.com\/upload\/caiku\/e\/e\/a\/140_ee0bd81daefc421ab1f3cd22e14a4daa.jpg",
          "image_width" : 800,
          "position" : 11,
          "image_height" : 1021
        },
        {
          "thumb" : "https:\/\/i1.douguo.com\/upload\/caiku\/3\/1\/f\/140_31c096335b094b91d33f96b1b2d72d9f.jpg",
          "image" : "https:\/\/i1.douguo.com\/upload\/caiku\/3\/1\/f\/31c096335b094b91d33f96b1b2d72d9f.jpg",
          "image_width" : 800,
          "position" : 12,
          "frame" : "-1",
          "image_height" : 1019,
          "content" : "看着不好看啊！"
        },
        {
          "content" : "重新再做一个，红、黄剁椒加葱绿丝，",
          "thumb" : "https:\/\/i1.douguo.com\/upload\/caiku\/c\/4\/a\/140_c4760756e973c935c96f46b7d87a207a.jpg",
          "image" : "https:\/\/i1.douguo.com\/upload\/caiku\/c\/4\/a\/c4760756e973c935c96f46b7d87a207a.jpg",
          "image_height" : 1016,
          "position" : 13,
          "image_width" : 800,
          "frame" : "-1"
        },
        {
          "frame" : "-1",
          "thumb" : "https:\/\/i1.douguo.com\/upload\/caiku\/b\/8\/b\/140_b846c043216e17225df15e072c3b877b.jpg",
          "image" : "https:\/\/i1.douguo.com\/upload\/caiku\/b\/8\/b\/b846c043216e17225df15e072c3b877b.jpg",
          "image_width" : 1080,
          "content" : "双椒、三色鱼头，",
          "position" : 14,
          "image_height" : 1369
        },
        {
          "image_height" : 1067,
          "content" : "这个颜值好看多了吧！",
          "image_width" : 800,
          "frame" : "-1",
          "image" : "https:\/\/i1.douguo.com\/upload\/caiku\/b\/b\/f\/bb2d294583d758fa8569d6f392cd59df.jpg",
          "position" : 15,
          "thumb" : "https:\/\/i1.douguo.com\/upload\/caiku\/b\/b\/f\/140_bb2d294583d758fa8569d6f392cd59df.jpg"
        }
      ]
    }
  }
}