{
  "state" : "success",
  "result" : {
    "recipe" : {
      "rate_show" : 0,
      "rrps" : [

      ],
      "user" : {
        "coursecount" : 0,
        "user_cover" : "",
        "followers_count" : 0,
        "user_large_photo" : "http:\/\/tx1.douguo.net\/upload\/photo\/c\/e\/d\/yuan_u19922396106873170446.jpg",
        "subscription_article_count" : 0,
        "location" : 0,
        "verified" : 1,
        "email" : "",
        "user_photo" : "http:\/\/tx1.douguo.net\/upload\/photo\/c\/e\/d\/70_u19922396106873170446.jpg",
        "subscription" : 0,
        "diaries_count" : 0,
        "point" : 0,
        "userid" : "26618527",
        "lvl" : 6,
        "favor_diaries_count" : 0,
        "recipes_count" : 0,
        "introduction" : "",
        "mobile" : "",
        "pc" : 0,
        "qzone_nick" : "",
        "is_prime" : 0,
        "gender" : 2,
        "regist_time" : "",
        "age" : "",
        "favorites_count" : 0,
        "verified_url" : "https:\/\/m.douguo.com\/user\/prodesc",
        "user_id" : "26618527",
        "avatar_medium" : "http:\/\/tx1.douguo.net\/upload\/photo\/c\/e\/d\/140_u19922396106873170446.jpg",
        "setted_email" : 0,
        "weibo_nick" : "",
        "following_count" : 0,
        "birthday" : "",
        "verified_image" : "https:\/\/i1.douguo.com\/upload\/note\/d\/a\/a\/da84247847aebe48d9dd0fcdac88862a.png",
        "qq_weibo_nick" : "",
        "progress_image" : "",
        "sign" : "",
        "fc" : 0,
        "dishes_count" : 0,
        "nick" : "阿冒冒美食",
        "lv" : 0
      },
      "cook_difficulty_image" : "https:\/\/i1.douguo.com\/upload\/banner\/1551424390.png",
      "su" : "",
      "author_verified" : 1,
      "dishes" : [

      ],
      "rips" : 0,
      "bs" : [

      ],
      "sc" : 0,
      "author_id" : 26618527,
      "ecs" : 1,
      "top_mdsp" : [

      ],
      "cookstorys" : [
        {
          "icon" : "",
          "u" : "",
          "color" : "",
          "type" : 0,
          "c" : "小米养胃，绿豆清热解暑，夏天很适合喝小米绿豆粥，做好的粥放冰箱冷藏一下，冰冰凉凉。",
          "id" : 0
        },
        {
          "u" : "",
          "icon" : "",
          "type" : 0,
          "id" : 0,
          "color" : "",
          "c" : "\n参与活动:"
        },
        {
          "type" : 0,
          "icon" : "",
          "u" : "https:\/\/m.douguo.com\/activity\/ncpzj\/detail\/3798?isapp=1&open=0&_vs=1000300&&dg_refreshkey=publishnote",
          "c" : "#忽而夏至 清凉一夏#",
          "id" : 0
        }
      ],
      "clicks" : "1",
      "create_time" : "2023-06-27 09:14:05",
      "btm_dsp" : [

      ],
      "packages_id" : [

      ],
      "levelid" : 2,
      "ipci" : "",
      "related_ads" : [

      ],
      "cook_time" : "10~30分钟",
      "first_level_comment_count" : 1,
      "comments_count_text" : "2",
      "brand_day_dsp" : [

      ],
      "cookwares" : [

      ],
      "tags" : [

      ],
      "minor" : [

      ],
      "hq" : 1,
      "thumb_height" : 0,
      "rsm" : "该功能暂停使用",
      "cookstep" : [
        {
          "image_height" : 920,
          "content" : "准备好小米、大米、绿豆、冰糖和红皮花生材料备用。",
          "position" : 1,
          "thumb" : "https:\/\/i1.douguo.com\/upload\/caiku\/3\/b\/3\/140_3b592ceb9e92f530a1c983bd5e283123.jpg",
          "image_width" : 800,
          "frame" : "-1",
          "image" : "https:\/\/i1.douguo.com\/upload\/caiku\/3\/b\/3\/3b592ceb9e92f530a1c983bd5e283123.jpg"
        },
        {
          "position" : 2,
          "content" : "绿豆和花生洗干净，提前浸泡6小时 。",
          "frame" : "-1",
          "image_height" : 778,
          "image" : "https:\/\/i1.douguo.com\/upload\/caiku\/b\/2\/9\/b24938f2bec0e0d44ef35d8fe879abe9.jpg",
          "thumb" : "https:\/\/i1.douguo.com\/upload\/caiku\/b\/2\/9\/140_b24938f2bec0e0d44ef35d8fe879abe9.jpg",
          "image_width" : 800
        },
        {
          "position" : 3,
          "image" : "https:\/\/i1.douguo.com\/upload\/caiku\/2\/a\/9\/2a923eac48b903d0dcfd541e4b0ef3c9.jpg",
          "thumb" : "https:\/\/i1.douguo.com\/upload\/caiku\/2\/a\/9\/140_2a923eac48b903d0dcfd541e4b0ef3c9.jpg",
          "frame" : "-1",
          "image_width" : 800,
          "content" : "小米和大米淘洗干净，提前浸泡15分钟。",
          "image_height" : 681
        },
        {
          "content" : "将所有材料放入高压锅，加入适量冰糖和比材料多10倍的清水。",
          "frame" : "-1",
          "image_width" : 800,
          "image_height" : 773,
          "thumb" : "https:\/\/i1.douguo.com\/upload\/caiku\/d\/1\/6\/140_d1c07b520314595c6e69954294d0a656.jpg",
          "position" : 4,
          "image" : "https:\/\/i1.douguo.com\/upload\/caiku\/d\/1\/6\/d1c07b520314595c6e69954294d0a656.jpg"
        },
        {
          "image_height" : 685,
          "thumb" : "https:\/\/i1.douguo.com\/upload\/caiku\/4\/e\/0\/140_4e1edf5d4fd7ff23c0c7c2b6740639b0.jpg",
          "content" : "用高压锅按煮粥键煲25分钟。",
          "image" : "https:\/\/i1.douguo.com\/upload\/caiku\/4\/e\/0\/4e1edf5d4fd7ff23c0c7c2b6740639b0.jpg",
          "position" : 5,
          "image_width" : 653,
          "frame" : "-1"
        },
        {
          "content" : "开锅，熬好的粥粘粘稠稠，入口即化。",
          "position" : 6,
          "image_width" : 800,
          "frame" : "-1",
          "thumb" : "https:\/\/i1.douguo.com\/upload\/caiku\/b\/0\/2\/140_b08ad99ccbd5675caac9be52ccf03312.jpg",
          "image_height" : 872,
          "image" : "https:\/\/i1.douguo.com\/upload\/caiku\/b\/0\/2\/b08ad99ccbd5675caac9be52ccf03312.jpg"
        },
        {
          "content" : "放冰箱冷藏一下口感更好。",
          "thumb" : "https:\/\/i1.douguo.com\/upload\/caiku\/2\/b\/4\/140_2bdafce4ac111f56aba60c4a92f564e4.jpg",
          "position" : 7,
          "image" : "https:\/\/i1.douguo.com\/upload\/caiku\/2\/b\/4\/2bdafce4ac111f56aba60c4a92f564e4.jpg",
          "image_width" : 800,
          "image_height" : 699,
          "frame" : "-1"
        }
      ],
      "story_dsp" : [

      ],
      "cookstory" : "小米养胃，绿豆清热解暑，夏天很适合喝小米绿豆粥，做好的粥放冰箱冷藏一下，冰冰凉凉。",
      "cook_id" : "3260145",
      "recipe_tags" : [
        "{\n    \"background_border_color\" = \"\";\n    \"background_end_color\" = \"#F5D39F\";\n    \"background_start_color\" = \"#FAE9CD\";\n    \"jump_url\" = \"recipes:\/\/www.douguo.com\/introdietitian\";\n    \"left_image\" = \"https:\/\/i1.douguo.com\/upload\/caiku\/4\/e\/8\/4ec0a3547dfdb0e8541ff7b7b61b2578.png\";\n    \"right_image\" = \"https:\/\/i1.douguo.com\/upload\/caiku\/0\/a\/b\/0a317d98c713e7e7d0d47ed003f2d93b.png\";\n    text = \"\\U51cf\\U8102\\U83dc\\U8c31\";\n    \"text_color\" = \"#413C32\";\n}"
      ],
      "rcs" : [

      ],
      "rate" : 0,
      "sr" : "",
      "dish_count_text" : "",
      "ipia" : [

      ],
      "pw" : 800,
      "vu" : "",
      "cook_time_image" : "https:\/\/i1.douguo.com\/upload\/banner\/1551424341.png",
      "recipe_list_tags" : [
        {
          "text" : "减脂菜谱",
          "background_end_color" : "#F5D39F",
          "right_image" : "https:\/\/i1.douguo.com\/upload\/caiku\/0\/a\/b\/0a317d98c713e7e7d0d47ed003f2d93b.png",
          "background_start_color" : "#FAE9CD",
          "jump_url" : "recipes:\/\/www.douguo.com\/introdietitian",
          "background_border_color" : "",
          "text_color" : "#413C32"
        },
        {
          "right_image" : "",
          "background_border_color" : "",
          "jump_url" : "",
          "background_start_color" : "#F4F5F5",
          "text" : "关注的人",
          "text_color" : "#141515",
          "background_end_color" : "#F4F5F5"
        }
      ],
      "eu" : "recipes:\/\/www.douguo.com\/postdetail?id=242016",
      "recommend_label" : "2131人刚刚收藏过",
      "notes" : [

      ],
      "ss" : [

      ],
      "comments_count" : 2,
      "v_u" : "",
      "display_ingredient" : 1,
      "vfurl" : "",
      "recommendation_tag" : "",
      "hqu" : "recipes:\/\/www.douguo.com\/notedetail?id=21162253",
      "release_time" : "",
      "vc" : "62710",
      "mid_mdsp" : [

      ],
      "original_photo_path" : "http:\/\/i1.douguo.net\/upload\/caiku\/7\/7\/8\/yuan_77de2356f1f42041b3f32a08e17cc588.jpg",
      "ipurl" : "",
      "title" : "小米绿豆粥",
      "ssu" : "",
      "purl" : "",
      "old_comments" : [

      ],
      "thumb_path" : "https:\/\/i1.douguo.com\/upload\/caiku\/7\/7\/8\/300_77de2356f1f42041b3f32a08e17cc588.jpg",
      "favo_counts" : 2131,
      "favo_counts_text" : "2131",
      "rate_count" : 0,
      "title_ad" : [

      ],
      "guide_image" : "",
      "major" : [
        {
          "note" : "120克",
          "tu" : "https:\/\/m.douguo.com\/ingredients\/绿豆\/detailmaterial",
          "title" : "绿豆"
        },
        {
          "tu" : "https:\/\/m.douguo.com\/ingredients\/小米\/detailmaterial",
          "note" : "100克",
          "title" : "小米"
        },
        {
          "note" : "15克",
          "tu" : "https:\/\/m.douguo.com\/ingredients\/冰糖\/detailmaterial",
          "title" : "冰糖"
        },
        {
          "tu" : "https:\/\/m.douguo.com\/ingredients\/大米\/detailmaterial",
          "note" : "100克",
          "title" : "大米"
        },
        {
          "note" : "50克",
          "title" : "花生"
        }
      ],
      "tips" : "",
      "rpt" : "",
      "ph" : 756,
      "ipt" : "",
      "collect_status" : 0,
      "image" : "http:\/\/i1.douguo.net\/upload\/caiku\/7\/7\/8\/300_77de2356f1f42041b3f32a08e17cc588.jpg",
      "share_info" : {
        "s_d" : "#忽而夏至 清凉一夏#小米绿豆粥-会做饭很酷!",
        "name" : "#忽而夏至 清凉一夏#小米绿豆粥-会做饭很酷!",
        "mini_program" : [

        ],
        "object_id" : "3260145",
        "infos" : [
          {
            "s_u" : "",
            "qr_image" : "",
            "name" : "#忽而夏至 清凉一夏#小米绿豆粥-会做饭很酷!",
            "s_d" : "#学做饭用豆果美食# 我在@豆果美食 分享了【#忽而夏至 清凉一夏#小米绿豆粥-会做饭很酷!】，哟，集美们～你看这是神仙美味～快跟着我做一份，做一份！查看图片了解菜谱（更多美食秘籍点击https:\/\/m.weibo.cn\/p\/100404i33631获取）#会做饭很酷# ",
            "mini_program" : [

            ],
            "image" : "https:\/\/cp1.douguo.com\/upload\/caiku\/7\/7\/8\/77de2356f1f42041b3f32a08e17cc588.jpg",
            "channel" : "1",
            "object_id" : "3260145"
          },
          {
            "object_id" : "3260145",
            "mini_program" : [

            ],
            "image" : "https:\/\/cp1.douguo.com\/upload\/caiku\/7\/7\/8\/77de2356f1f42041b3f32a08e17cc588.jpg",
            "qr_image" : "",
            "name" : "#忽而夏至 清凉一夏#小米绿豆粥-会做饭很酷!",
            "s_u" : "http:\/\/m.douguo.com\/cookbook\/3260145.html",
            "channel" : "7",
            "s_d" : "#忽而夏至 清凉一夏#小米绿豆粥-会做饭很酷!"
          },
          {
            "qr_image" : "",
            "image" : "https:\/\/cp1.douguo.com\/upload\/caiku\/7\/7\/8\/77de2356f1f42041b3f32a08e17cc588.jpg",
            "object_id" : "3260145",
            "mini_program" : [

            ],
            "channel" : "8",
            "s_d" : "#忽而夏至 清凉一夏#小米绿豆粥-会做饭很酷!",
            "s_u" : "http:\/\/m.douguo.com\/cookbook\/3260145.html",
            "name" : "#忽而夏至 清凉一夏#小米绿豆粥-会做饭很酷!"
          }
        ],
        "s_u" : "http:\/\/m.douguo.com\/cookbook\/3260145.html",
        "image" : "https:\/\/cp1.douguo.com\/upload\/caiku\/7\/7\/8\/77de2356f1f42041b3f32a08e17cc588.jpg",
        "qr_image" : ""
      },
      "recent_comments" : [

      ],
      "author_photo" : "http:\/\/tx1.douguo.net\/upload\/photo\/c\/e\/d\/70_u19922396106873170446.jpg",
      "photo_path" : "https:\/\/i1.douguo.com\/upload\/caiku\/7\/7\/8\/600_77de2356f1f42041b3f32a08e17cc588.jpg",
      "dish_count" : 0,
      "rrpt" : "",
      "advice" : {
        "at" : "有助于构成或修复人体组织～",
        "da" : {
          "t" : "查看详细分析",
          "iu" : "https:\/\/i1.douguo.com\/upload\/banner\/f\/4\/d\/f48877e53c37759bc12ac494be82ec8d.png",
          "url" : "https:\/\/m.douguo.com\/recipe\/nutrient_self\/3260145"
        },
        "has" : [
          {
            "url" : "recipes:\/\/www.douguo.com\/simplerecipelist?t=富含蛋白质&id=富含蛋白质",
            "t" : "富含蛋白质"
          },
          {
            "url" : "recipes:\/\/www.douguo.com\/simplerecipelist?t=低饱和脂肪&id=低饱和脂肪",
            "t" : "低饱和脂肪"
          }
        ]
      },
      "rewarded_video_dsp" : [

      ],
      "views_count_text" : "6.3万",
      "rpid" : 0,
      "act_des" : "",
      "recommended" : 0,
      "ipoi" : "",
      "ipit" : 0,
      "comments" : [
        "{\n    ac = \"#999999\";\n    at = \"\";\n    ccc = 1;\n    \"child_comments\" =     (\n                {\n            ac = \"#999999\";\n            at = \"\\U695a\\U96c4\\U5f5d\\U65cf\\U81ea\\U6cbb\\U5dde\";\n            ccc = 0;\n            city = \"\\U695a\\U96c4\\U5f5d\\U65cf\\U81ea\\U6cbb\\U5dde\";\n            cmc = 2;\n            content =             (\n                                {\n                    c = \" \\U8c22\\U8c22\\Ud83c\\Udf39\";\n                }\n            );\n            ia = 1;\n            id = 9036169;\n            \"ip_address_location\" = \"\\U4e91\\U5357\";\n            like = 0;\n            \"like_count\" = 0;\n            \"reply_id\" = 9036118;\n            \"reply_user\" =             {\n                \"followers_count_text\" = \"\";\n                id = 18503966;\n                \"is_prime\" = 0;\n                lv = 0;\n                lvl = 3;\n                n = \"\\U7a0b\\U56ed\\U56ed\";\n                p = \"http:\/\/tx1.douguo.net\/upload\/photo\/5\/8\/b\/70_u16166775277130408180137.jpg\";\n                \"progress_image\" = \"\";\n                \"recipes_count_text\" = \"\";\n                relationship = \"-1\";\n                title = \"\";\n                v = 0;\n                \"verified_image\" = \"\";\n            };\n            \"sticker_icon\" =             (\n            );\n            time = \"2023-06-30 15:04:43\";\n            u =             {\n                \"followers_count_text\" = \"\";\n                id = 26618527;\n                \"is_prime\" = 0;\n                lv = 0;\n                lvl = 6;\n                n = \"\\U963f\\U5192\\U5192\\U7f8e\\U98df\";\n                p = \"http:\/\/tx1.douguo.net\/upload\/photo\/c\/e\/d\/70_u19922396106873170446.jpg\";\n                \"progress_image\" = \"\";\n                \"recipes_count_text\" = \"\";\n                relationship = \"-1\";\n                title = \"\";\n                v = 1;\n                \"verified_image\" = \"\";\n            };\n        }\n    );\n    city = \"\";\n    cmc = 2;\n    content =     (\n                {\n            c = \"\\U975e\\U5e38\\U4e0d\\U9519,\\U52a0\\U70b9\\U5976\\U5c31\\U662f\\U4e2a\\U5c0f\\U751c\\U54c1\\U4e86\";\n        }\n    );\n    ia = 0;\n    id = 9036118;\n    \"ip_address_location\" = \"\";\n    like = 0;\n    \"like_count\" = 0;\n    \"reply_id\" = 0;\n    \"sticker_icon\" =     (\n    );\n    time = \"2023-06-30 13:48:37\";\n    u =     {\n        \"followers_count_text\" = \"\";\n        id = 18503966;\n        \"is_prime\" = 0;\n        lv = 0;\n        lvl = 3;\n        n = \"\\U7a0b\\U56ed\\U56ed\";\n        p = \"http:\/\/tx1.douguo.net\/upload\/photo\/5\/8\/b\/70_u16166775277130408180137.jpg\";\n        \"progress_image\" = \"\";\n        \"recipes_count_text\" = \"\";\n        relationship = \"-1\";\n        title = \"\";\n        v = 0;\n        \"verified_image\" = \"\";\n    };\n}"
      ],
      "author" : "阿冒冒美食",
      "rpst" : "",
      "event" : {
        "id" : 3798,
        "url" : "https:\/\/m.douguo.com\/activity\/ncpzj\/detail\/3798?isapp=1&open=0&_vs=1000300&&dg_refreshkey=publishnote",
        "name" : "忽而夏至 清凉一夏"
      },
      "cook_difficulty" : "切墩(初级)",
      "rdsps" : [

      ]
    }
  },
  "status" : 0
}