{
  "status" : 0,
  "result" : {
    "recipe" : {
      "comments_count" : 77,
      "story_dsp" : [

      ],
      "cook_time_image" : "",
      "comments" : [
        "{\n    ac = \"#999999\";\n    at = \"\";\n    ccc = 8;\n    \"child_comments\" =     (\n                {\n            ac = \"#999999\";\n            at = \"\";\n            ccc = 0;\n            city = \"\";\n            cmc = 2;\n            content =             (\n                                {\n                    c = \" \\U6211\\U5bb6\\U5b69\\U5b50\\U8001\\U4eba\\U90fd\\U7231\\U5403\\Uff0c\\U662f\\U9762\\U6ca1\\U53d1\\U597d\\U5417\\Uff1f\";\n                }\n            );\n            ia = 1;\n            id = 4006846;\n            \"ip_address_location\" = \"\";\n            like = 0;\n            \"like_count\" = 0;\n            \"reply_id\" = 4006813;\n            \"reply_user\" =             {\n                \"followers_count_text\" = \"\";\n                id = 16190963;\n                \"is_prime\" = 0;\n                lv = 0;\n                lvl = 1;\n                n = \"\\U68a6mckr\";\n                p = \"http:\/\/tx1.douguo.net\/upload\/photo\/8\/0\/a\/70_u52405071411534103157.jpg\";\n                \"progress_image\" = \"\";\n                \"recipes_count_text\" = \"\";\n                relationship = \"-1\";\n                title = \"\";\n                v = 0;\n                \"verified_image\" = \"\";\n            };\n            \"sticker_icon\" =             (\n            );\n            time = \"2016-08-18 07:05:54\";\n            u =             {\n                \"followers_count_text\" = \"\";\n                id = 18232524;\n                \"is_prime\" = 0;\n                lv = 0;\n                lvl = 6;\n                n = \"\\U7f8e\\U98dfC\\U4f4d\";\n                p = \"http:\/\/tx1.douguo.net\/upload\/photo\/1\/4\/d\/70_u70494105133702200636.jpg\";\n                \"progress_image\" = \"\";\n                \"recipes_count_text\" = \"\";\n                relationship = \"-1\";\n                title = \"\";\n                v = 1;\n                \"verified_image\" = \"\";\n            };\n        },\n                {\n            ac = \"#999999\";\n            at = \"\";\n            ccc = 0;\n            city = \"\";\n            cmc = 2;\n            content =             (\n                                {\n                    c = \" \\U9762\\U662f\\U53d1\\U4e86\\Uff0c\\U5403\\U8d77\\U6765\\U6709\\U80a1\\U53d1\\U9175\\U5473\\Uff0c\\U770b\\U4e0a\\U53bb\\U4e0d\\U7ec6\\U817b\";\n                }\n            );\n            ia = 0;\n            id = 4006882;\n            \"ip_address_location\" = \"\";\n            like = 0;\n            \"like_count\" = 0;\n            \"reply_id\" = 4006846;\n            \"reply_user\" =             {\n                \"followers_count_text\" = \"\";\n                id = 18232524;\n                \"is_prime\" = 0;\n                lv = 0;\n                lvl = 6;\n                n = \"\\U7f8e\\U98dfC\\U4f4d\";\n                p = \"http:\/\/tx1.douguo.net\/upload\/photo\/1\/4\/d\/70_u70494105133702200636.jpg\";\n                \"progress_image\" = \"\";\n                \"recipes_count_text\" = \"\";\n                relationship = \"-1\";\n                title = \"\";\n                v = 1;\n                \"verified_image\" = \"\";\n            };\n            \"sticker_icon\" =             (\n            );\n            time = \"2016-08-18 07:14:15\";\n            u =             {\n                \"followers_count_text\" = \"\";\n                id = 16190963;\n                \"is_prime\" = 0;\n                lv = 0;\n                lvl = 1;\n                n = \"\\U68a6mckr\";\n                p = \"http:\/\/tx1.douguo.net\/upload\/photo\/8\/0\/a\/70_u52405071411534103157.jpg\";\n                \"progress_image\" = \"\";\n                \"recipes_count_text\" = \"\";\n                relationship = \"-1\";\n                title = \"\";\n                v = 0;\n                \"verified_image\" = \"\";\n            };\n        }\n    );\n    city = \"\";\n    cmc = 2;\n    content =     (\n                {\n            c = \"\\U6ca1\\U6709\\U6210\\U529f\\Uff0c\\U611f\\U89c9\\U505a\\U597d\\U4e0d\\U597d\\U5403\";\n        }\n    );\n    ia = 0;\n    id = 4006813;\n    \"ip_address_location\" = \"\";\n    like = 0;\n    \"like_count\" = 1;\n    \"reply_id\" = 0;\n    \"sticker_icon\" =     (\n    );\n    time = \"2016-08-18 06:50:28\";\n    u =     {\n        \"followers_count_text\" = \"\";\n        id = 16190963;\n        \"is_prime\" = 0;\n        lv = 0;\n        lvl = 1;\n        n = \"\\U68a6mckr\";\n        p = \"http:\/\/tx1.douguo.net\/upload\/photo\/8\/0\/a\/70_u52405071411534103157.jpg\";\n        \"progress_image\" = \"\";\n        \"recipes_count_text\" = \"\";\n        relationship = \"-1\";\n        title = \"\";\n        v = 0;\n        \"verified_image\" = \"\";\n    };\n}",
        "{\n    ac = \"#999999\";\n    at = \"\";\n    ccc = 4;\n    \"child_comments\" =     (\n                {\n            ac = \"#999999\";\n            at = \"\";\n            ccc = 0;\n            city = \"\";\n            cmc = 2;\n            content =             (\n                                {\n                    c = \" \\U505a\\U9762\\U5305\\U7528\\U9ad8\\U7b4b\\U9762\\U7c89\\Uff0c\\U505a\\U86cb\\U7cd5\\U7528\\U4f4e\\U7b4b\\U9762\\U7c89\\Uff0c\\U5e73\\U5e38\\U6211\\U4eec\\U5305\\U5305\\U5b50\\U9992\\U5934\\U997a\\U5b50\\U5c31\\U662f\\U4e2d\\U7b4b\\U9762\\U7c89\\U3002\";\n                }\n            );\n            ia = 1;\n            id = 4359305;\n            \"ip_address_location\" = \"\";\n            like = 0;\n            \"like_count\" = 0;\n            \"reply_id\" = 4358908;\n            \"reply_user\" =             {\n                \"followers_count_text\" = \"\";\n                id = 3269421;\n                \"is_prime\" = 0;\n                lv = 0;\n                lvl = 2;\n                n = yyqq22;\n                p = \"http:\/\/tx1.douguo.net\/upload\/photo\/2\/7\/4\/70_u78972096843706230107.jpg\";\n                \"progress_image\" = \"\";\n                \"recipes_count_text\" = \"\";\n                relationship = \"-1\";\n                title = \"\";\n                v = 0;\n                \"verified_image\" = \"\";\n            };\n            \"sticker_icon\" =             (\n            );\n            time = \"2016-12-17 06:08:18\";\n            u =             {\n                \"followers_count_text\" = \"\";\n                id = 18232524;\n                \"is_prime\" = 0;\n                lv = 0;\n                lvl = 6;\n                n = \"\\U7f8e\\U98dfC\\U4f4d\";\n                p = \"http:\/\/tx1.douguo.net\/upload\/photo\/1\/4\/d\/70_u70494105133702200636.jpg\";\n                \"progress_image\" = \"\";\n                \"recipes_count_text\" = \"\";\n                relationship = \"-1\";\n                title = \"\";\n                v = 1;\n                \"verified_image\" = \"\";\n            };\n        },\n                {\n            ac = \"#999999\";\n            at = \"\";\n            ccc = 0;\n            city = \"\";\n            cmc = 2;\n            content =             (\n                                {\n                    c = \" \\U90a3\\U8fd9\\U6b21\\U7528\\U7684\\U5c31\\U662f\\U4f4e\\U7b4b\\U9762\\U7c89\\U54af\\Uff1f\";\n                }\n            );\n            ia = 0;\n            id = 4359510;\n            \"ip_address_location\" = \"\";\n            like = 0;\n            \"like_count\" = 0;\n            \"reply_id\" = 4359305;\n            \"reply_user\" =             {\n                \"followers_count_text\" = \"\";\n                id = 18232524;\n                \"is_prime\" = 0;\n                lv = 0;\n                lvl = 6;\n                n = \"\\U7f8e\\U98dfC\\U4f4d\";\n                p = \"http:\/\/tx1.douguo.net\/upload\/photo\/1\/4\/d\/70_u70494105133702200636.jpg\";\n                \"progress_image\" = \"\";\n                \"recipes_count_text\" = \"\";\n                relationship = \"-1\";\n                title = \"\";\n                v = 1;\n                \"verified_image\" = \"\";\n            };\n            \"sticker_icon\" =             (\n            );\n            time = \"2016-12-17 07:46:03\";\n            u =             {\n                \"followers_count_text\" = \"\";\n                id = 3269421;\n                \"is_prime\" = 0;\n                lv = 0;\n                lvl = 2;\n                n = yyqq22;\n                p = \"http:\/\/tx1.douguo.net\/upload\/photo\/2\/7\/4\/70_u78972096843706230107.jpg\";\n                \"progress_image\" = \"\";\n                \"recipes_count_text\" = \"\";\n                relationship = \"-1\";\n                title = \"\";\n                v = 0;\n                \"verified_image\" = \"\";\n            };\n        }\n    );\n    city = \"\";\n    cmc = 2;\n    content =     (\n                {\n            c = \"\\U9762\\U7c89\\U5c31\\U662f\\U666e\\U901a\\U7684\\U9762\\U7c89\\U5417\\Uff1f\\U6709\\U5206\\U9ad8\\U7b4b\\U4f4e\\U7b4b\\U5417\\Uff1f\";\n        }\n    );\n    ia = 0;\n    id = 4358908;\n    \"ip_address_location\" = \"\";\n    like = 0;\n    \"like_count\" = 2;\n    \"reply_id\" = 0;\n    \"sticker_icon\" =     (\n    );\n    time = \"2016-12-17 02:50:49\";\n    u =     {\n        \"followers_count_text\" = \"\";\n        id = 3269421;\n        \"is_prime\" = 0;\n        lv = 0;\n        lvl = 2;\n        n = yyqq22;\n        p = \"http:\/\/tx1.douguo.net\/upload\/photo\/2\/7\/4\/70_u78972096843706230107.jpg\";\n        \"progress_image\" = \"\";\n        \"recipes_count_text\" = \"\";\n        relationship = \"-1\";\n        title = \"\";\n        v = 0;\n        \"verified_image\" = \"\";\n    };\n}",
        "{\n    ac = \"#999999\";\n    at = \"\";\n    ccc = 1;\n    \"child_comments\" =     (\n                {\n            ac = \"#999999\";\n            at = \"\";\n            ccc = 0;\n            city = \"\";\n            cmc = 2;\n            content =             (\n                                {\n                    c = \" \\U53ef\\U4ee5\\U7684\";\n                }\n            );\n            ia = 1;\n            id = 4956999;\n            \"ip_address_location\" = \"\";\n            like = 0;\n            \"like_count\" = 0;\n            \"reply_id\" = 4956183;\n            \"reply_user\" =             {\n                \"followers_count_text\" = \"\";\n                id = 15652333;\n                \"is_prime\" = 0;\n                lv = 0;\n                lvl = 1;\n                n = \"\\U592a\\U7a7a\\U8c465\";\n                p = \"http:\/\/tx1.douguo.net\/upload\/photo\/0\/1\/6\/70_u48777712131849121603.jpg\";\n                \"progress_image\" = \"\";\n                \"recipes_count_text\" = \"\";\n                relationship = \"-1\";\n                title = \"\";\n                v = 0;\n                \"verified_image\" = \"\";\n            };\n            \"sticker_icon\" =             (\n            );\n            time = \"2017-08-01 02:17:20\";\n            u =             {\n                \"followers_count_text\" = \"\";\n                id = 18232524;\n                \"is_prime\" = 0;\n                lv = 0;\n                lvl = 6;\n                n = \"\\U7f8e\\U98dfC\\U4f4d\";\n                p = \"http:\/\/tx1.douguo.net\/upload\/photo\/1\/4\/d\/70_u70494105133702200636.jpg\";\n                \"progress_image\" = \"\";\n                \"recipes_count_text\" = \"\";\n                relationship = \"-1\";\n                title = \"\";\n                v = 1;\n                \"verified_image\" = \"\";\n            };\n        }\n    );\n    city = \"\";\n    cmc = 2;\n    content =     (\n                {\n            c = \"\\U7528\\U666e\\U901a\\U6cb9\\U53ef\\U4ee5\\U5417\";\n        }\n    );\n    ia = 0;\n    id = 4956183;\n    \"ip_address_location\" = \"\";\n    like = 0;\n    \"like_count\" = 0;\n    \"reply_id\" = 0;\n    \"sticker_icon\" =     (\n    );\n    time = \"2017-07-31 13:27:16\";\n    u =     {\n        \"followers_count_text\" = \"\";\n        id = 15652333;\n        \"is_prime\" = 0;\n        lv = 0;\n        lvl = 1;\n        n = \"\\U592a\\U7a7a\\U8c465\";\n        p = \"http:\/\/tx1.douguo.net\/upload\/photo\/0\/1\/6\/70_u48777712131849121603.jpg\";\n        \"progress_image\" = \"\";\n        \"recipes_count_text\" = \"\";\n        relationship = \"-1\";\n        title = \"\";\n        v = 0;\n        \"verified_image\" = \"\";\n    };\n}"
      ],
      "hqu" : "recipes:\/\/www.douguo.com\/notedetail?id=21162253",
      "rpid" : 0,
      "vc" : "1619124",
      "minor" : [

      ],
      "rewarded_video_dsp" : [

      ],
      "notes" : [

      ],
      "cook_difficulty_image" : "",
      "release_time" : "",
      "rdsps" : [

      ],
      "event" : {
        "id" : 0
      },
      "related_ads" : [

      ],
      "share_info" : {
        "object_id" : "1426107",
        "s_d" : "健康美味小米糕#方太蒸爱行动#-会做饭很酷!",
        "infos" : [
          {
            "mini_program" : [

            ],
            "object_id" : "1426107",
            "s_u" : "",
            "image" : "https:\/\/cp1.douguo.com\/upload\/caiku\/4\/7\/7\/47cab72c76cb49b681ca4aaa86577017.jpg",
            "channel" : "1",
            "name" : "健康美味小米糕#方太蒸爱行动#-会做饭很酷!",
            "s_d" : "#学做饭用豆果美食# 会做饭真是太酷了！我在@豆果美食 分享了【健康美味小米糕#方太蒸爱行动#-会做饭很酷!】OMG！这是什么神仙美味啊~真的强烈推荐你们试一试～查看图片了解菜谱（每天限量免费课程，想跟大师学厨艺就来这https:\/\/m.weibo.cn\/p\/100404i33631）",
            "qr_image" : ""
          },
          {
            "mini_program" : [

            ],
            "image" : "https:\/\/cp1.douguo.com\/upload\/caiku\/4\/7\/7\/47cab72c76cb49b681ca4aaa86577017.jpg",
            "s_d" : "健康美味小米糕#方太蒸爱行动#-会做饭很酷!",
            "name" : "健康美味小米糕#方太蒸爱行动#-会做饭很酷!",
            "channel" : "7",
            "s_u" : "http:\/\/m.douguo.com\/cookbook\/1426107.html",
            "qr_image" : "",
            "object_id" : "1426107"
          },
          {
            "name" : "健康美味小米糕#方太蒸爱行动#-会做饭很酷!",
            "qr_image" : "",
            "mini_program" : [

            ],
            "s_u" : "http:\/\/m.douguo.com\/cookbook\/1426107.html",
            "channel" : "8",
            "s_d" : "健康美味小米糕#方太蒸爱行动#-会做饭很酷!",
            "object_id" : "1426107",
            "image" : "https:\/\/cp1.douguo.com\/upload\/caiku\/4\/7\/7\/47cab72c76cb49b681ca4aaa86577017.jpg"
          }
        ],
        "image" : "https:\/\/cp1.douguo.com\/upload\/caiku\/4\/7\/7\/47cab72c76cb49b681ca4aaa86577017.jpg",
        "name" : "健康美味小米糕#方太蒸爱行动#-会做饭很酷!",
        "qr_image" : "",
        "mini_program" : [

        ],
        "s_u" : "http:\/\/m.douguo.com\/cookbook\/1426107.html"
      },
      "brand_day_dsp" : [

      ],
      "cookstorys" : [
        {
          "id" : 0,
          "color" : "",
          "type" : 0,
          "u" : "",
          "icon" : "",
          "c" : "小米糕做过很多次，样子也越来越好看，即使冷却后口感依然很棒。家中的老人和小孩都非常喜欢。"
        }
      ],
      "rrpt" : "",
      "collect_status" : 0,
      "rrps" : [

      ],
      "cook_difficulty" : "",
      "rate" : 4,
      "photo_path" : "https:\/\/i1.douguo.com\/upload\/caiku\/4\/7\/7\/600_47cab72c76cb49b681ca4aaa86577017.jpg",
      "packages_id" : [

      ],
      "tips" : "",
      "views_count_text" : "161.9万",
      "dish_count" : 11,
      "cookstory" : "小米糕做过很多次，样子也越来越好看，即使冷却后口感依然很棒。家中的老人和小孩都非常喜欢。",
      "favo_counts" : 10790,
      "eu" : "recipes:\/\/www.douguo.com\/postdetail?id=242016",
      "hq" : 1,
      "sc" : 0,
      "su" : "",
      "cookwares" : [

      ],
      "ipt" : "",
      "rpst" : "",
      "tags" : [
        "{\n    text = \"\\U4e3b\\U98df\";\n}",
        "{\n    text = \"\\U53d1\\U7cd5\";\n}",
        "{\n    text = \"\\U82cf\\U83dc\";\n}",
        "{\n    text = \"\\U84b8\\U7bb1\\U98df\\U8c31\";\n}",
        "{\n    text = \"\\U84b8\";\n}",
        "{\n    text = \"\\U62cc\";\n}",
        "{\n    text = \"\\U751c\";\n}",
        "{\n    text = \"\\U6e05\\U6de1\";\n}",
        "{\n    text = \"\\U65e9\\U9910\\U98df\\U8c31\";\n}",
        "{\n    text = \"\\U4e00\\U5bb6\\U4e09\\U53e3\";\n}"
      ],
      "ipia" : [

      ],
      "thumb_path" : "https:\/\/i1.douguo.com\/upload\/caiku\/4\/7\/7\/300_47cab72c76cb49b681ca4aaa86577017.jpg",
      "pw" : 800,
      "vu" : "",
      "thumb_height" : 0,
      "favo_counts_text" : "1.1万",
      "ss" : [

      ],
      "ipurl" : "",
      "guide_image" : "",
      "old_comments" : [

      ],
      "recommended" : 0,
      "act_des" : "",
      "image" : "http:\/\/i1.douguo.net\/upload\/caiku\/4\/7\/7\/300_47cab72c76cb49b681ca4aaa86577017.jpg",
      "rpt" : "",
      "rate_count" : 6,
      "recipe_list_tags" : [
        {
          "text_color" : "#141515",
          "jump_url" : "",
          "text" : "关注的人",
          "background_start_color" : "#F4F5F5",
          "right_image" : "",
          "background_border_color" : "",
          "background_end_color" : "#F4F5F5"
        }
      ],
      "author" : "美食C位",
      "levelid" : 2,
      "display_ingredient" : 1,
      "clicks" : "1544705",
      "author_verified" : 1,
      "dishes" : [

      ],
      "title_ad" : [

      ],
      "cookstep" : [
        {
          "frame" : "-1",
          "image_height" : 1422,
          "thumb" : "https:\/\/i1.douguo.com\/upload\/caiku\/c\/3\/d\/140_c3d0de640d42c54b6a9d29d9ebf8869d.jpg",
          "image" : "https:\/\/i1.douguo.com\/upload\/caiku\/c\/3\/d\/c3d0de640d42c54b6a9d29d9ebf8869d.jpg",
          "image_width" : 800,
          "position" : 1,
          "content" : "小米面加水用料理机打细腻，加入一个鸡蛋再次搅打一遍。我的小米面比较粗，这样处理是为了让口感更好些。"
        },
        {
          "position" : 2,
          "image_height" : 1422,
          "image" : "https:\/\/i1.douguo.com\/upload\/caiku\/b\/a\/e\/bad8652ab042f9b0d13fa5695acaba8e.jpg",
          "thumb" : "https:\/\/i1.douguo.com\/upload\/caiku\/b\/a\/e\/140_bad8652ab042f9b0d13fa5695acaba8e.jpg",
          "content" : "将搅打好的小米糊放入料理盆中，加入面粉，糯米粉，搅拌均匀。",
          "image_width" : 800,
          "frame" : "-1"
        },
        {
          "image_width" : 800,
          "content" : "放入糖搅拌均匀。",
          "image" : "https:\/\/i1.douguo.com\/upload\/caiku\/7\/5\/a\/75b569f5dce2687194e66ac40a3a10fa.jpg",
          "image_height" : 1422,
          "position" : 3,
          "thumb" : "https:\/\/i1.douguo.com\/upload\/caiku\/7\/5\/a\/140_75b569f5dce2687194e66ac40a3a10fa.jpg",
          "frame" : "-1"
        },
        {
          "thumb" : "https:\/\/i1.douguo.com\/upload\/caiku\/1\/3\/1\/140_135f7e47785c2724f581df9e45fb38e1.jpg",
          "image_height" : 1422,
          "frame" : "-1",
          "image_width" : 800,
          "position" : 4,
          "content" : "加入牛奶搅拌均匀。",
          "image" : "https:\/\/i1.douguo.com\/upload\/caiku\/1\/3\/1\/135f7e47785c2724f581df9e45fb38e1.jpg"
        },
        {
          "thumb" : "https:\/\/i1.douguo.com\/upload\/caiku\/c\/f\/8\/140_cf5dbb4c4847b2dffa22822e4c5c6a58.jpg",
          "image_width" : 800,
          "frame" : "-1",
          "content" : "少许温水融化酵母，加入到面糊中，搅拌均匀。",
          "image" : "https:\/\/i1.douguo.com\/upload\/caiku\/c\/f\/8\/cf5dbb4c4847b2dffa22822e4c5c6a58.jpg",
          "position" : 5,
          "image_height" : 1422
        },
        {
          "thumb" : "https:\/\/i1.douguo.com\/upload\/caiku\/9\/e\/3\/140_9e07e826773257b1b7edd383f1b2a443.jpg",
          "position" : 6,
          "image_width" : 800,
          "image_height" : 1422,
          "image" : "https:\/\/i1.douguo.com\/upload\/caiku\/9\/e\/3\/9e07e826773257b1b7edd383f1b2a443.jpg",
          "frame" : "-1",
          "content" : "最后加入玉米油搅拌均匀。"
        },
        {
          "thumb" : "https:\/\/i1.douguo.com\/upload\/caiku\/6\/9\/4\/140_692cd52d0a31d51d88394bc9275126e4.jpg",
          "image" : "https:\/\/i1.douguo.com\/upload\/caiku\/6\/9\/4\/692cd52d0a31d51d88394bc9275126e4.jpg",
          "content" : "直接在盆中发酵，发酵至原来2倍大。",
          "position" : 7,
          "image_height" : 1422,
          "frame" : "-1",
          "image_width" : 800
        },
        {
          "image_width" : 800,
          "image" : "https:\/\/i1.douguo.com\/upload\/caiku\/5\/4\/f\/54084a6d7bca8e1c18106e87aacd9b1f.jpg",
          "frame" : "-1",
          "position" : 8,
          "content" : "用筷子将面糊搅拌均匀，目的是给面糊排气。",
          "thumb" : "https:\/\/i1.douguo.com\/upload\/caiku\/5\/4\/f\/140_54084a6d7bca8e1c18106e87aacd9b1f.jpg",
          "image_height" : 1422
        },
        {
          "image_width" : 800,
          "thumb" : "https:\/\/i1.douguo.com\/upload\/caiku\/b\/c\/9\/140_bc855b3b29175442d47f3b13e6f62c69.jpg",
          "position" : 9,
          "image" : "https:\/\/i1.douguo.com\/upload\/caiku\/b\/c\/9\/bc855b3b29175442d47f3b13e6f62c69.jpg",
          "frame" : "-1",
          "content" : "将排好气的面糊倒入8寸的披萨盘中。二次发酵至9分满，开火，大火烧开转中小火20分钟。模具提前刷油或铺油纸。",
          "image_height" : 1422
        }
      ],
      "user" : {
        "email" : "",
        "subscription_article_count" : 0,
        "followers_count" : 0,
        "weibo_nick" : "",
        "lvl" : 6,
        "recipes_count" : 0,
        "dishes_count" : 0,
        "avatar_medium" : "http:\/\/tx1.douguo.net\/upload\/photo\/1\/4\/d\/140_u70494105133702200636.jpg",
        "fc" : 0,
        "birthday" : "",
        "setted_email" : 0,
        "userid" : "18232524",
        "coursecount" : 0,
        "qq_weibo_nick" : "",
        "progress_image" : "",
        "favor_diaries_count" : 0,
        "point" : 0,
        "user_cover" : "",
        "introduction" : "",
        "diaries_count" : 0,
        "favorites_count" : 0,
        "regist_time" : "",
        "user_id" : "18232524",
        "following_count" : 0,
        "mobile" : "",
        "age" : "",
        "nick" : "美食C位",
        "sign" : "",
        "gender" : 2,
        "user_large_photo" : "http:\/\/tx1.douguo.net\/upload\/photo\/1\/4\/d\/yuan_u70494105133702200636.jpg",
        "pc" : 0,
        "lv" : 0,
        "qzone_nick" : "",
        "is_prime" : 0,
        "verified_image" : "https:\/\/i1.douguo.com\/upload\/note\/d\/a\/a\/da84247847aebe48d9dd0fcdac88862a.png",
        "subscription" : 0,
        "verified_url" : "https:\/\/m.douguo.com\/user\/prodesc",
        "user_photo" : "http:\/\/tx1.douguo.net\/upload\/photo\/1\/4\/d\/70_u70494105133702200636.jpg",
        "verified" : 1,
        "location" : 0
      },
      "comments_count_text" : "77",
      "rcs" : [

      ],
      "author_photo" : "http:\/\/tx1.douguo.net\/upload\/photo\/1\/4\/d\/70_u70494105133702200636.jpg",
      "recipe_tags" : [

      ],
      "vfurl" : "",
      "dish_count_text" : "11",
      "recommendation_tag" : "",
      "sr" : "",
      "rsm" : "该功能暂停使用",
      "top_mdsp" : [

      ],
      "rate_show" : 0,
      "ph" : 1422,
      "rips" : 0,
      "cook_time" : "",
      "v_u" : "",
      "author_id" : 18232524,
      "ipoi" : "",
      "ipci" : "",
      "ssu" : "",
      "recent_comments" : [

      ],
      "title" : "健康美味小米糕",
      "first_level_comment_count" : 59,
      "create_time" : "2016-08-08 17:30:10",
      "mid_mdsp" : [

      ],
      "major" : [
        {
          "note" : "120克",
          "tu" : "https:\/\/m.douguo.com\/ingredients\/小米面\/detailmaterial",
          "title" : "小米面"
        },
        {
          "note" : "90克",
          "tu" : "https:\/\/m.douguo.com\/ingredients\/清水\/detailmaterial",
          "title" : "清水"
        },
        {
          "tu" : "https:\/\/m.douguo.com\/ingredients\/牛奶\/detailmaterial",
          "title" : "牛奶",
          "note" : "60克"
        },
        {
          "tu" : "https:\/\/m.douguo.com\/ingredients\/鸡蛋\/detailmaterial",
          "note" : "1个",
          "title" : "鸡蛋"
        },
        {
          "note" : "38克",
          "tu" : "https:\/\/m.douguo.com\/ingredients\/糖\/detailmaterial",
          "title" : "糖"
        },
        {
          "note" : "1.5克",
          "tu" : "https:\/\/m.douguo.com\/ingredients\/酵母\/detailmaterial",
          "title" : "酵母"
        },
        {
          "note" : "100克",
          "tu" : "https:\/\/m.douguo.com\/ingredients\/面粉\/detailmaterial",
          "title" : "面粉"
        },
        {
          "title" : "糯米粉",
          "note" : "40克",
          "tu" : "https:\/\/m.douguo.com\/ingredients\/糯米粉\/detailmaterial"
        },
        {
          "note" : "20克",
          "tu" : "https:\/\/m.douguo.com\/ingredients\/玉米油\/detailmaterial",
          "title" : "玉米油"
        }
      ],
      "cook_id" : "1426107",
      "recommend_label" : "11人学做",
      "advice" : {
        "has" : [

        ],
        "da" : {
          "t" : "查看详细分析",
          "url" : "https:\/\/m.douguo.com\/recipe\/nutrient_self\/1426107",
          "iu" : "https:\/\/i1.douguo.com\/upload\/banner\/f\/4\/d\/f48877e53c37759bc12ac494be82ec8d.png"
        }
      },
      "original_photo_path" : "http:\/\/i1.douguo.net\/upload\/caiku\/4\/7\/7\/yuan_47cab72c76cb49b681ca4aaa86577017.jpg",
      "purl" : "",
      "ecs" : 0,
      "bs" : [

      ],
      "ipit" : 0,
      "btm_dsp" : [

      ]
    }
  },
  "state" : "success"
}