{
  "state" : "success",
  "status" : 0,
  "result" : {
    "recipe" : {
      "cook_difficulty" : "配菜(中级)",
      "old_comments" : [

      ],
      "cook_time" : "10-30分钟",
      "ipit" : 0,
      "ipt" : "",
      "ph" : 1200,
      "purl" : "",
      "cookstep" : [
        {
          "image_width" : 800,
          "content" : "里几肉切成约2、3厘米长1厘米宽的长条（斜刀切更易成熟），放1克盐抓至发粘，再调入半汤匙料酒及蛋液抓匀腌制备用",
          "image_height" : 533,
          "image" : "https:\/\/i1.douguo.com\/upload\/caiku\/0\/a\/a\/0ac292f721df192d67f126826088fb0a.jpg",
          "frame" : "-1",
          "position" : 1,
          "thumb" : "https:\/\/i1.douguo.com\/upload\/caiku\/0\/a\/a\/140_0ac292f721df192d67f126826088fb0a.jpg"
        },
        {
          "image_height" : 533,
          "image_width" : 800,
          "thumb" : "https:\/\/i1.douguo.com\/upload\/caiku\/c\/7\/8\/140_c74c248de0d120366ae5a31232744968.jpg",
          "content" : "撰写制作步骤",
          "image" : "https:\/\/i1.douguo.com\/upload\/caiku\/c\/7\/8\/c74c248de0d120366ae5a31232744968.jpg",
          "position" : 2,
          "frame" : "-1"
        },
        {
          "image" : "https:\/\/i1.douguo.com\/upload\/caiku\/a\/6\/c\/a6c439b96132c4652b68b3430861e8ec.jpg",
          "frame" : "-1",
          "position" : 3,
          "content" : "撰写制作步骤",
          "image_width" : 800,
          "thumb" : "https:\/\/i1.douguo.com\/upload\/caiku\/a\/6\/c\/140_a6c439b96132c4652b68b3430861e8ec.jpg",
          "image_height" : 533
        },
        {
          "content" : "凤梨，火龙果切块，橙子大半个切大块，另外小半切圆形薄片再对半切开摆盘用",
          "image" : "https:\/\/i1.douguo.com\/upload\/caiku\/e\/5\/5\/e525c67665643bce7116763ee7c8b145.jpg",
          "frame" : "-1",
          "thumb" : "https:\/\/i1.douguo.com\/upload\/caiku\/e\/5\/5\/140_e525c67665643bce7116763ee7c8b145.jpg",
          "position" : 4,
          "image_width" : 800,
          "image_height" : 533
        },
        {
          "content" : "在肉块上多放些干生粉拌匀，直到每条肉的表面均匀沾满一层干生粉",
          "image" : "https:\/\/i1.douguo.com\/upload\/caiku\/5\/e\/8\/5ea173c27def4b1c2e71f28975d35c28.jpg",
          "image_height" : 533,
          "frame" : "-1",
          "image_width" : 800,
          "thumb" : "https:\/\/i1.douguo.com\/upload\/caiku\/5\/e\/8\/140_5ea173c27def4b1c2e71f28975d35c28.jpg",
          "position" : 5
        },
        {
          "image_height" : 533,
          "frame" : "-1",
          "content" : "撰写制作步骤",
          "position" : 6,
          "image" : "https:\/\/i1.douguo.com\/upload\/caiku\/6\/1\/4\/61c8e07b0d3a90537ebbb1a3c729a7f4.jpg",
          "thumb" : "https:\/\/i1.douguo.com\/upload\/caiku\/6\/1\/4\/140_61c8e07b0d3a90537ebbb1a3c729a7f4.jpg",
          "image_width" : 800
        },
        {
          "position" : 7,
          "frame" : "-1",
          "image_width" : 800,
          "image_height" : 533,
          "content" : "锅中放足量油烧至五六成热，逐条放入肉块炸至微微焦黄，捞出",
          "thumb" : "https:\/\/i1.douguo.com\/upload\/caiku\/3\/9\/a\/140_3993345ff6c65e8db4e6f2c4ba74e0ba.jpg",
          "image" : "https:\/\/i1.douguo.com\/upload\/caiku\/3\/9\/a\/3993345ff6c65e8db4e6f2c4ba74e0ba.jpg"
        },
        {
          "frame" : "-1",
          "image_height" : 533,
          "image" : "https:\/\/i1.douguo.com\/upload\/caiku\/8\/a\/d\/8a99e3545b6844f1db4af8e5b7533bed.jpg",
          "image_width" : 800,
          "position" : 8,
          "content" : "继续加热锅中的油至八成热，放入肉块复炸到颜色金黄，口感酥脆，捞出",
          "thumb" : "https:\/\/i1.douguo.com\/upload\/caiku\/8\/a\/d\/140_8a99e3545b6844f1db4af8e5b7533bed.jpg"
        },
        {
          "content" : "小碗中加入5汤匙蕃茄沙司，1汤匙白醋和1汤匙糖调匀，倒入干净的炒锅中加小半碗水加热",
          "thumb" : "https:\/\/i1.douguo.com\/upload\/caiku\/e\/d\/c\/140_ed8a4a975817ec104424ccea0de7f0dc.jpg",
          "image" : "https:\/\/i1.douguo.com\/upload\/caiku\/e\/d\/c\/ed8a4a975817ec104424ccea0de7f0dc.jpg",
          "frame" : "-1",
          "image_width" : 800,
          "position" : 9,
          "image_height" : 533
        },
        {
          "image_height" : 533,
          "thumb" : "https:\/\/i1.douguo.com\/upload\/caiku\/b\/5\/6\/140_b51820a2fc0c3c3d60b43228faf53f56.jpg",
          "frame" : "-1",
          "content" : "撰写制作步骤",
          "position" : 10,
          "image_width" : 800,
          "image" : "https:\/\/i1.douguo.com\/upload\/caiku\/b\/5\/6\/b51820a2fc0c3c3d60b43228faf53f56.jpg"
        },
        {
          "image_width" : 800,
          "content" : "沸腾以后，调入少许生粉水勾薄芡使酱汁达到轻薄的浓稠度",
          "image" : "https:\/\/i1.douguo.com\/upload\/caiku\/5\/2\/3\/5201a9a5803b89f9e1ed384e910b62a3.jpg",
          "position" : 11,
          "thumb" : "https:\/\/i1.douguo.com\/upload\/caiku\/5\/2\/3\/140_5201a9a5803b89f9e1ed384e910b62a3.jpg",
          "image_height" : 533,
          "frame" : "-1"
        },
        {
          "frame" : "-1",
          "content" : "将炸好的里几肉和水果倒入拌匀酱汁，将对半切开的橙子摆成圆形，装盘即可",
          "image_width" : 800,
          "image" : "https:\/\/i1.douguo.com\/upload\/caiku\/9\/5\/2\/95b029ff61959fda9b3a4b76270bef82.jpg",
          "image_height" : 533,
          "position" : 12,
          "thumb" : "https:\/\/i1.douguo.com\/upload\/caiku\/9\/5\/2\/140_95b029ff61959fda9b3a4b76270bef82.jpg"
        },
        {
          "image_width" : 800,
          "content" : "撰写制作步骤",
          "image" : "https:\/\/i1.douguo.com\/upload\/caiku\/6\/8\/b\/686148183f137c6120bd16074150a40b.jpg",
          "thumb" : "https:\/\/i1.douguo.com\/upload\/caiku\/6\/8\/b\/140_686148183f137c6120bd16074150a40b.jpg",
          "position" : 13,
          "frame" : "-1",
          "image_height" : 533
        },
        {
          "image_height" : 533,
          "position" : 14,
          "content" : "撰写制作步骤",
          "image" : "https:\/\/i1.douguo.com\/upload\/caiku\/f\/3\/5\/f37266467d569983f27d3a0be423d675.jpg",
          "thumb" : "https:\/\/i1.douguo.com\/upload\/caiku\/f\/3\/5\/140_f37266467d569983f27d3a0be423d675.jpg",
          "image_width" : 800,
          "frame" : "-1"
        },
        {
          "content" : "完成～",
          "image_width" : 1000,
          "image" : "https:\/\/i1.douguo.com\/upload\/caiku\/7\/f\/3\/7f41c82b45c0eb28aea65dce7e3f8863.jpg",
          "frame" : "-1",
          "image_height" : 1500,
          "thumb" : "https:\/\/i1.douguo.com\/upload\/caiku\/7\/f\/3\/140_7f41c82b45c0eb28aea65dce7e3f8863.jpg",
          "position" : 15
        }
      ],
      "recent_comments" : [

      ],
      "vfurl" : "",
      "recipe_list_tags" : [
        {
          "background_border_color" : "",
          "text_color" : "#413C32",
          "text" : "荣誉殿堂",
          "background_start_color" : "#FAE9CD",
          "right_image" : "https:\/\/i1.douguo.com\/upload\/caiku\/0\/a\/b\/0a317d98c713e7e7d0d47ed003f2d93b.png",
          "jump_url" : "",
          "background_end_color" : "#F5D39F"
        },
        {
          "background_end_color" : "#F4F5F5",
          "jump_url" : "",
          "background_start_color" : "#F4F5F5",
          "text_color" : "#141515",
          "background_border_color" : "",
          "text" : "关注的人",
          "right_image" : ""
        },
        {
          "background_end_color" : "#F4F5F5",
          "text_color" : "#141515",
          "jump_url" : "",
          "background_start_color" : "#F4F5F5",
          "background_border_color" : "",
          "right_image" : "",
          "text" : "内容详细"
        }
      ],
      "author" : "臻妈美食厨房",
      "rrpt" : "",
      "ipurl" : "",
      "top_mdsp" : [

      ],
      "ssu" : "",
      "recommendation_tag" : "",
      "thumb_height" : 0,
      "cookwares" : [

      ],
      "collect_status" : 0,
      "v_u" : "",
      "recommended" : 0,
      "hqu" : "recipes:\/\/www.douguo.com\/notedetail?id=21162253",
      "cook_id" : "1129939",
      "dish_count" : 301,
      "story_dsp" : [

      ],
      "ecs" : 0,
      "tips" : "1，腌制里几肉时加入1\/3个全蛋液，可使肉质口感细嫩。\n2，水果最后放入拌匀即可，不要过度加热，以免变黄口感变酸。",
      "vc" : "655708",
      "advice" : {
        "has" : [
          {
            "t" : "低脂",
            "url" : "recipes:\/\/www.douguo.com\/simplerecipelist?t=低脂&id=低脂"
          },
          {
            "t" : "低饱和脂肪",
            "url" : "recipes:\/\/www.douguo.com\/simplerecipelist?t=低饱和脂肪&id=低饱和脂肪"
          }
        ],
        "da" : {
          "iu" : "https:\/\/i1.douguo.com\/upload\/banner\/f\/4\/d\/f48877e53c37759bc12ac494be82ec8d.png",
          "t" : "查看详细分析",
          "url" : "https:\/\/m.douguo.com\/recipe\/nutrient_self\/1129939"
        },
        "at" : "能有效控制体重～"
      },
      "guide_image" : "",
      "rpid" : 0,
      "minor" : [
        "{\n    note = \"\";\n    title = \"\\U5168\\U86cb\\U6db21\/3\\U4e2a\";\n}",
        "{\n    note = \"\\U534a\\U6c64\\U5319\";\n    title = \"\\U6599\\U9152\";\n    tu = \"https:\/\/https:\/\/m.douguo.com\/ingredients\/\\U6599\\U9152\/detailmaterial\";\n}",
        "{\n    note = \"1\\U514b\";\n    title = \"\\U76d0\";\n    tu = \"https:\/\/https:\/\/m.douguo.com\/ingredients\/\\U76d0\/detailmaterial\";\n}",
        "{\n    note = \"5\\U6c64\\U5319\";\n    title = \"\\U8543\\U8304\\U6c99\\U53f8\";\n}",
        "{\n    note = \"1\\U6c64\\U5319\";\n    title = \"\\U767d\\U918b\";\n    tu = \"https:\/\/https:\/\/m.douguo.com\/ingredients\/\\U767d\\U918b\/detailmaterial\";\n}",
        "{\n    note = \"1\\U6c64\\U5319\";\n    title = \"\\U7ec6\\U7802\\U7cd6\";\n    tu = \"https:\/\/https:\/\/m.douguo.com\/ingredients\/\\U7ec6\\U7802\\U7cd6\/detailmaterial\";\n}",
        "{\n    note = \"\\U9002\\U91cf\";\n    title = \"\\U5e72\\U751f\\U7c89\\U53ca\\U751f\\U7c89\\U6c34\";\n}"
      ],
      "ipoi" : "",
      "image" : "http:\/\/i1.douguo.net\/upload\/caiku\/d\/2\/1\/300_d2cb8c9d3cea0dfcb1dc2eb5fe2bb341.jpg",
      "rate" : 4,
      "clicks" : "646694",
      "cookstory" : "轻薄的酸甜汁包裹在香酥的里几肉上，外酥里嫩，也没有遮挡住水果的清甜果香，小朋友们最喜爱的酸甜开胃菜。",
      "rips" : 0,
      "share_info" : {
        "s_u" : "http:\/\/m.douguo.com\/cookbook\/1129939.html",
        "infos" : [
          {
            "qr_image" : "",
            "s_d" : "#学做饭用豆果美食# 会做饭真是太酷了！我在@豆果美食 分享了【鲜果咕咾肉-会做饭很酷!】，看着是不是馋到不行呢～快来跟我学学吧！查看图片了解菜谱，（想要获取更多美食就看这https:\/\/m.weibo.cn\/p\/100404i33631）",
            "image" : "https:\/\/cp1.douguo.com\/upload\/caiku\/d\/2\/1\/d2cb8c9d3cea0dfcb1dc2eb5fe2bb341.jpg",
            "object_id" : "1129939",
            "name" : "鲜果咕咾肉-会做饭很酷!",
            "s_u" : "",
            "mini_program" : [

            ],
            "channel" : "1"
          },
          {
            "mini_program" : [

            ],
            "channel" : "7",
            "object_id" : "1129939",
            "image" : "https:\/\/cp1.douguo.com\/upload\/caiku\/d\/2\/1\/d2cb8c9d3cea0dfcb1dc2eb5fe2bb341.jpg",
            "s_u" : "http:\/\/m.douguo.com\/cookbook\/1129939.html",
            "s_d" : "鲜果咕咾肉-会做饭很酷!",
            "qr_image" : "",
            "name" : "鲜果咕咾肉-会做饭很酷!"
          },
          {
            "channel" : "8",
            "mini_program" : [

            ],
            "object_id" : "1129939",
            "name" : "鲜果咕咾肉-会做饭很酷!",
            "s_d" : "鲜果咕咾肉-会做饭很酷!",
            "image" : "https:\/\/cp1.douguo.com\/upload\/caiku\/d\/2\/1\/d2cb8c9d3cea0dfcb1dc2eb5fe2bb341.jpg",
            "qr_image" : "",
            "s_u" : "http:\/\/m.douguo.com\/cookbook\/1129939.html"
          }
        ],
        "qr_image" : "",
        "s_d" : "鲜果咕咾肉-会做饭很酷!",
        "mini_program" : [

        ],
        "image" : "https:\/\/cp1.douguo.com\/upload\/caiku\/d\/2\/1\/d2cb8c9d3cea0dfcb1dc2eb5fe2bb341.jpg",
        "name" : "鲜果咕咾肉-会做饭很酷!",
        "object_id" : "1129939"
      },
      "ipia" : [

      ],
      "dish_count_text" : "301",
      "major" : [
        {
          "note" : "150克",
          "title" : "里几肉"
        },
        {
          "note" : "半个",
          "tu" : "https:\/\/m.douguo.com\/ingredients\/火龙果\/detailmaterial",
          "title" : "火龙果"
        },
        {
          "note" : "1小块",
          "title" : "凤梨"
        },
        {
          "note" : "1个",
          "title" : "橙子",
          "tu" : "https:\/\/m.douguo.com\/ingredients\/橙子\/detailmaterial"
        }
      ],
      "packages_id" : [

      ],
      "sc" : 0,
      "recipe_tags" : [
        "{\n    \"background_border_color\" = \"\";\n    \"background_end_color\" = \"#F5D39F\";\n    \"background_start_color\" = \"#FAE9CD\";\n    index = 1052;\n    \"jump_url\" = \"https:\/\/m.douguo.com\/activity\/page\/xuezuo?isapp=1&type=honor\";\n    \"right_image\" = \"https:\/\/i1.douguo.com\/upload\/caiku\/0\/a\/b\/0a317d98c713e7e7d0d47ed003f2d93b.png\";\n    text = \"\\U8363\\U8a89\\U6bbf\\U5802\";\n    \"text_color\" = \"#413C32\";\n}"
      ],
      "cookstorys" : [
        {
          "color" : "",
          "type" : 0,
          "id" : 0,
          "icon" : "",
          "c" : "轻薄的酸甜汁包裹在香酥的里几肉上，外酥里嫩，也没有遮挡住水果的清甜果香，小朋友们最喜爱的酸甜开胃菜。",
          "u" : ""
        }
      ],
      "related_ads" : [

      ],
      "thumb_path" : "https:\/\/i1.douguo.com\/upload\/caiku\/d\/2\/1\/300_d2cb8c9d3cea0dfcb1dc2eb5fe2bb341.jpg",
      "rpst" : "",
      "eu" : "recipes:\/\/www.douguo.com\/postdetail?id=242016",
      "pw" : 800,
      "views_count_text" : "65.6万",
      "recommend_label" : "301人学做",
      "favo_counts_text" : "3.5万",
      "ipci" : "",
      "bs" : [

      ],
      "notes" : [

      ],
      "brand_day_dsp" : [

      ],
      "rate_show" : 1,
      "levelid" : 2,
      "cook_time_image" : "https:\/\/i1.douguo.com\/upload\/banner\/1551424341.png",
      "title_ad" : [

      ],
      "tags" : [
        "{\n    text = \"\\U5bb6\\U5e38\\U83dc\";\n}",
        "{\n    text = \"\\U8089\\U7c7b\";\n}",
        "{\n    text = \"\\U751c\";\n}",
        "{\n    text = \"\\U5348\\U9910\";\n}",
        "{\n    text = \"\\U665a\\U9910\";\n}",
        "{\n    text = \"\\U7ca4\\U83dc\";\n}"
      ],
      "photo_path" : "https:\/\/i1.douguo.com\/upload\/caiku\/d\/2\/1\/600_d2cb8c9d3cea0dfcb1dc2eb5fe2bb341.jpg",
      "author_id" : 452307,
      "ss" : [

      ],
      "comments_count_text" : "196",
      "release_time" : "",
      "sr" : "",
      "mid_mdsp" : [

      ],
      "rcs" : [

      ],
      "favo_counts" : 35158,
      "vu" : "",
      "rpt" : "",
      "display_ingredient" : 1,
      "author_verified" : 1,
      "rate_count" : 76,
      "rewarded_video_dsp" : [

      ],
      "su" : "",
      "comments" : [
        "{\n    ac = \"#999999\";\n    at = \"\";\n    ccc = 6;\n    \"child_comments\" =     (\n                {\n            ac = \"#999999\";\n            at = \"\";\n            ccc = 0;\n            city = \"\";\n            cmc = 2;\n            content =             (\n                                {\n                    c = \"  \\U751f\\U7c89\\U5c31\\U662f\\U6dc0\\U7c89\\U554a\";\n                }\n            );\n            ia = 0;\n            id = 2192295;\n            \"ip_address_location\" = \"\";\n            like = 0;\n            \"like_count\" = 0;\n            \"reply_id\" = 2187816;\n            \"reply_user\" =             {\n                \"followers_count_text\" = \"\";\n                id = 7558895;\n                \"is_prime\" = 0;\n                lv = 0;\n                lvl = 5;\n                n = \"a_min\";\n                p = \"http:\/\/tx1.douguo.net\/upload\/photo\/a\/6\/4\/70_u19320962786578221617.jpg\";\n                \"progress_image\" = \"\";\n                \"recipes_count_text\" = \"\";\n                relationship = \"-1\";\n                title = \"\";\n                v = 0;\n                \"verified_image\" = \"\";\n            };\n            \"sticker_icon\" =             (\n            );\n            time = \"2015-04-18 08:50:29\";\n            u =             {\n                \"followers_count_text\" = \"\";\n                id = 4957276;\n                \"is_prime\" = 0;\n                lv = 0;\n                lvl = 1;\n                n = \"\\U7a00\\U996d\\U4e3a\\U60a8\";\n                p = \"\";\n                \"progress_image\" = \"\";\n                \"recipes_count_text\" = \"\";\n                relationship = \"-1\";\n                title = \"\";\n                v = 0;\n                \"verified_image\" = \"\";\n            };\n        },\n                {\n            ac = \"#999999\";\n            at = \"\";\n            ccc = 0;\n            city = \"\";\n            cmc = 2;\n            content =             (\n                                {\n                    c = \" \\U6211\\U7528\\U9762\\U7c89\\U70b8\\Uff0c\\U7528\\U70b9\\U751f\\U7c89\\U814c\\U5236\";\n                }\n            );\n            ia = 0;\n            id = 2257033;\n            \"ip_address_location\" = \"\";\n            like = 0;\n            \"like_count\" = 0;\n            \"reply_id\" = 2187816;\n            \"reply_user\" =             {\n                \"followers_count_text\" = \"\";\n                id = 7558895;\n                \"is_prime\" = 0;\n                lv = 0;\n                lvl = 5;\n                n = \"a_min\";\n                p = \"http:\/\/tx1.douguo.net\/upload\/photo\/a\/6\/4\/70_u19320962786578221617.jpg\";\n                \"progress_image\" = \"\";\n                \"recipes_count_text\" = \"\";\n                relationship = \"-1\";\n                title = \"\";\n                v = 0;\n                \"verified_image\" = \"\";\n            };\n            \"sticker_icon\" =             (\n            );\n            time = \"2015-05-12 16:55:45\";\n            u =             {\n                \"followers_count_text\" = \"\";\n                id = 8238333;\n                \"is_prime\" = 0;\n                lv = 0;\n                lvl = 1;\n                n = \"\\U9aa8z_1.\\U91cc\\U7684\\U6c14\\U8d28\";\n                p = \"http:\/\/tx1.douguo.net\/upload\/photo\/7\/0\/0\/70_70cb2cb06a791a3a4476892ae8b24240.jpg\";\n                \"progress_image\" = \"\";\n                \"recipes_count_text\" = \"\";\n                relationship = \"-1\";\n                title = \"\";\n                v = 0;\n                \"verified_image\" = \"\";\n            };\n        }\n    );\n    city = \"\";\n    cmc = 2;\n    content =     (\n                {\n            c = \"\\U751f\\U7c89\\U662f\\U6dc0\\U7c89\\U8fd8\\U662f\\U9762\\U7c89\\U554a\\Uff1f\\Uff1f\";\n        }\n    );\n    ia = 0;\n    id = 2187816;\n    \"ip_address_location\" = \"\";\n    like = 0;\n    \"like_count\" = 0;\n    \"reply_id\" = 0;\n    \"sticker_icon\" =     (\n    );\n    time = \"2015-04-16 13:36:51\";\n    u =     {\n        \"followers_count_text\" = \"\";\n        id = 7558895;\n        \"is_prime\" = 0;\n        lv = 0;\n        lvl = 5;\n        n = \"a_min\";\n        p = \"http:\/\/tx1.douguo.net\/upload\/photo\/a\/6\/4\/70_u19320962786578221617.jpg\";\n        \"progress_image\" = \"\";\n        \"recipes_count_text\" = \"\";\n        relationship = \"-1\";\n        title = \"\";\n        v = 0;\n        \"verified_image\" = \"\";\n    };\n}",
        "{\n    ac = \"#999999\";\n    at = \"\";\n    ccc = 4;\n    \"child_comments\" =     (\n                {\n            ac = \"#999999\";\n            at = \"\";\n            ccc = 0;\n            city = \"\";\n            cmc = 2;\n            content =             (\n                                {\n                    c = \" \\U91cc\\U810a\\U8089\\Uff0c\\U810a\\U690e\\U9aa8\\U5185\\U4fa7\\U7684\\U6761\\U72b6\\U5ae9\\U8089\\U3002\\U5230\\U8089\\U94fa\\U4e00\\U8bf4\\U5c31\\U77e5\\U9053\\U3002\";\n                }\n            );\n            ia = 0;\n            id = 2092215;\n            \"ip_address_location\" = \"\";\n            like = 0;\n            \"like_count\" = 0;\n            \"reply_id\" = 2092155;\n            \"reply_user\" =             {\n                \"followers_count_text\" = \"\";\n                id = 8518971;\n                \"is_prime\" = 0;\n                lv = 0;\n                lvl = 1;\n                n = \"\\U7b28\\U86cb\\U4e0d\\U5e05\\U3002\\U3002\\U4f46\\U6211\\U7231\";\n                p = \"http:\/\/tx1.douguo.net\/upload\/photo\/d\/4\/c\/70_u26040627916770115806.jpg\";\n                \"progress_image\" = \"\";\n                \"recipes_count_text\" = \"\";\n                relationship = \"-1\";\n                title = \"\";\n                v = 0;\n                \"verified_image\" = \"\";\n            };\n            \"sticker_icon\" =             (\n            );\n            time = \"2015-03-11 04:20:37\";\n            u =             {\n                \"followers_count_text\" = \"\";\n                id = 3294705;\n                \"is_prime\" = 0;\n                lv = 0;\n                lvl = 4;\n                n = \"\\U677f\\U7816\\U5929\\U4e0a\\U98de\";\n                p = \"http:\/\/tx1.douguo.net\/upload\/photo\/5\/c\/2\/70_u7933750341783083612.jpg\";\n                \"progress_image\" = \"\";\n                \"recipes_count_text\" = \"\";\n                relationship = \"-1\";\n                title = \"\";\n                v = 0;\n                \"verified_image\" = \"\";\n            };\n        },\n                {\n            ac = \"#999999\";\n            at = \"\";\n            ccc = 0;\n            city = \"\";\n            cmc = 2;\n            content =             (\n                                {\n                    c = \" \\U54e6\\U54e6\\Uff0c\\U8c22\\U8c22\";\n                }\n            );\n            ia = 0;\n            id = 2092234;\n            \"ip_address_location\" = \"\";\n            like = 0;\n            \"like_count\" = 0;\n            \"reply_id\" = 2092215;\n            \"reply_user\" =             {\n                \"followers_count_text\" = \"\";\n                id = 3294705;\n                \"is_prime\" = 0;\n                lv = 0;\n                lvl = 4;\n                n = \"\\U677f\\U7816\\U5929\\U4e0a\\U98de\";\n                p = \"http:\/\/tx1.douguo.net\/upload\/photo\/5\/c\/2\/70_u7933750341783083612.jpg\";\n                \"progress_image\" = \"\";\n                \"recipes_count_text\" = \"\";\n                relationship = \"-1\";\n                title = \"\";\n                v = 0;\n                \"verified_image\" = \"\";\n            };\n            \"sticker_icon\" =             (\n            );\n            time = \"2015-03-11 04:28:41\";\n            u =             {\n                \"followers_count_text\" = \"\";\n                id = 8518971;\n                \"is_prime\" = 0;\n                lv = 0;\n                lvl = 1;\n                n = \"\\U7b28\\U86cb\\U4e0d\\U5e05\\U3002\\U3002\\U4f46\\U6211\\U7231\";\n                p = \"http:\/\/tx1.douguo.net\/upload\/photo\/d\/4\/c\/70_u26040627916770115806.jpg\";\n                \"progress_image\" = \"\";\n                \"recipes_count_text\" = \"\";\n                relationship = \"-1\";\n                title = \"\";\n                v = 0;\n                \"verified_image\" = \"\";\n            };\n        }\n    );\n    city = \"\";\n    cmc = 2;\n    content =     (\n                {\n            c = \"\\U91cc\\U51e0\\U8089\\U662f\\U4ec0\\U4e48\";\n        }\n    );\n    ia = 0;\n    id = 2092155;\n    \"ip_address_location\" = \"\";\n    like = 0;\n    \"like_count\" = 0;\n    \"reply_id\" = 0;\n    \"sticker_icon\" =     (\n    );\n    time = \"2015-03-11 03:59:55\";\n    u =     {\n        \"followers_count_text\" = \"\";\n        id = 8518971;\n        \"is_prime\" = 0;\n        lv = 0;\n        lvl = 1;\n        n = \"\\U7b28\\U86cb\\U4e0d\\U5e05\\U3002\\U3002\\U4f46\\U6211\\U7231\";\n        p = \"http:\/\/tx1.douguo.net\/upload\/photo\/d\/4\/c\/70_u26040627916770115806.jpg\";\n        \"progress_image\" = \"\";\n        \"recipes_count_text\" = \"\";\n        relationship = \"-1\";\n        title = \"\";\n        v = 0;\n        \"verified_image\" = \"\";\n    };\n}",
        "{\n    ac = \"#999999\";\n    at = \"\";\n    ccc = 3;\n    \"child_comments\" =     (\n                {\n            ac = \"#999999\";\n            at = \"\";\n            ccc = 0;\n            city = \"\";\n            cmc = 2;\n            content =             (\n                                {\n                    c = \"  \\U662f\";\n                }\n            );\n            ia = 0;\n            id = 2090639;\n            \"ip_address_location\" = \"\";\n            like = 0;\n            \"like_count\" = 0;\n            \"reply_id\" = 2090566;\n            \"reply_user\" =             {\n                \"followers_count_text\" = \"\";\n                id = 4207220;\n                \"is_prime\" = 0;\n                lv = 0;\n                lvl = 1;\n                n = \"\\U5927\\U5927\\U5927\\U7f8e\\U599e\\U513f\";\n                p = \"http:\/\/tx1.douguo.net\/upload\/photo\/0\/e\/9\/70_u96693649767388175811.jpg\";\n                \"progress_image\" = \"\";\n                \"recipes_count_text\" = \"\";\n                relationship = \"-1\";\n                title = \"\";\n                v = 0;\n                \"verified_image\" = \"\";\n            };\n            \"sticker_icon\" =             (\n            );\n            time = \"2015-03-10 11:35:21\";\n            u =             {\n                \"followers_count_text\" = \"\";\n                id = 6067256;\n                \"is_prime\" = 0;\n                lv = 0;\n                lvl = 1;\n                n = \"\\U82f9\\U679c\\U6811\\U4e0b\\U7684\\U9c7c\";\n                p = \"\";\n                \"progress_image\" = \"\";\n                \"recipes_count_text\" = \"\";\n                relationship = \"-1\";\n                title = \"\";\n                v = 0;\n                \"verified_image\" = \"\";\n            };\n        },\n                {\n            ac = \"#999999\";\n            at = \"\";\n            ccc = 0;\n            city = \"\";\n            cmc = 2;\n            content =             (\n                                {\n                    c = \" \\U6dc0\\U7c89\\U3002\";\n                }\n            );\n            ia = 0;\n            id = 2090731;\n            \"ip_address_location\" = \"\";\n            like = 0;\n            \"like_count\" = 0;\n            \"reply_id\" = 2090566;\n            \"reply_user\" =             {\n                \"followers_count_text\" = \"\";\n                id = 4207220;\n                \"is_prime\" = 0;\n                lv = 0;\n                lvl = 1;\n                n = \"\\U5927\\U5927\\U5927\\U7f8e\\U599e\\U513f\";\n                p = \"http:\/\/tx1.douguo.net\/upload\/photo\/0\/e\/9\/70_u96693649767388175811.jpg\";\n                \"progress_image\" = \"\";\n                \"recipes_count_text\" = \"\";\n                relationship = \"-1\";\n                title = \"\";\n                v = 0;\n                \"verified_image\" = \"\";\n            };\n            \"sticker_icon\" =             (\n            );\n            time = \"2015-03-10 12:08:08\";\n            u =             {\n                \"followers_count_text\" = \"\";\n                id = 8513754;\n                \"is_prime\" = 0;\n                lv = 0;\n                lvl = 1;\n                n = \"\\U8c46\\U7c89989228\";\n                p = \"http:\/\/tx1.douguo.net\/upload\/photo\/a\/9\/8\/70_a90cd97c1e6a99a43d2252acc8e54a48.jpg\";\n                \"progress_image\" = \"\";\n                \"recipes_count_text\" = \"\";\n                relationship = \"-1\";\n                title = \"\";\n                v = 0;\n                \"verified_image\" = \"\";\n            };\n        }\n    );\n    city = \"\";\n    cmc = 2;\n    content =     (\n                {\n            c = \"\\U5e72\\U751f\\U7c89\\U662f\\U9762\\U7c89\\U5417\\Uff1f\";\n        }\n    );\n    ia = 0;\n    id = 2090566;\n    \"ip_address_location\" = \"\";\n    like = 0;\n    \"like_count\" = 0;\n    \"reply_id\" = 0;\n    \"sticker_icon\" =     (\n    );\n    time = \"2015-03-10 11:05:32\";\n    u =     {\n        \"followers_count_text\" = \"\";\n        id = 4207220;\n        \"is_prime\" = 0;\n        lv = 0;\n        lvl = 1;\n        n = \"\\U5927\\U5927\\U5927\\U7f8e\\U599e\\U513f\";\n        p = \"http:\/\/tx1.douguo.net\/upload\/photo\/0\/e\/9\/70_u96693649767388175811.jpg\";\n        \"progress_image\" = \"\";\n        \"recipes_count_text\" = \"\";\n        relationship = \"-1\";\n        title = \"\";\n        v = 0;\n        \"verified_image\" = \"\";\n    };\n}"
      ],
      "cook_difficulty_image" : "https:\/\/i1.douguo.com\/upload\/banner\/1551424413.png",
      "btm_dsp" : [

      ],
      "rdsps" : [

      ],
      "rsm" : "该功能暂停使用",
      "act_des" : "",
      "user" : {
        "following_count" : 0,
        "mobile" : "",
        "avatar_medium" : "http:\/\/tx1.douguo.net\/upload\/photo\/f\/e\/a\/140_u23058212.jpg",
        "favorites_count" : 0,
        "is_prime" : 0,
        "user_cover" : "",
        "verified_image" : "https:\/\/i1.douguo.com\/upload\/note\/d\/a\/a\/da84247847aebe48d9dd0fcdac88862a.png",
        "lvl" : 5,
        "lv" : 0,
        "favor_diaries_count" : 0,
        "user_photo" : "http:\/\/tx1.douguo.net\/upload\/photo\/f\/e\/a\/70_u23058212.jpg",
        "qzone_nick" : "",
        "birthday" : "",
        "weibo_nick" : "",
        "introduction" : "",
        "dishes_count" : 0,
        "point" : 0,
        "qq_weibo_nick" : "",
        "user_large_photo" : "http:\/\/tx1.douguo.net\/upload\/photo\/f\/e\/a\/yuan_u23058212.jpg",
        "verified_url" : "https:\/\/m.douguo.com\/user\/prodesc",
        "verified" : 1,
        "progress_image" : "",
        "fc" : 0,
        "sign" : "",
        "user_id" : "452307",
        "age" : "",
        "coursecount" : 0,
        "nick" : "臻妈美食厨房",
        "pc" : 0,
        "location" : 0,
        "email" : "",
        "gender" : 2,
        "recipes_count" : 0,
        "regist_time" : "",
        "userid" : "452307",
        "setted_email" : 0,
        "diaries_count" : 0,
        "followers_count" : 0,
        "subscription_article_count" : 0,
        "subscription" : 0
      },
      "comments_count" : 196,
      "create_time" : "2015-03-07 10:56:23",
      "first_level_comment_count" : 166,
      "dishes" : [

      ],
      "title" : "鲜果咕咾肉",
      "hq" : 1,
      "author_photo" : "http:\/\/tx1.douguo.net\/upload\/photo\/f\/e\/a\/70_u23058212.jpg",
      "original_photo_path" : "http:\/\/i1.douguo.net\/upload\/caiku\/d\/2\/1\/yuan_d2cb8c9d3cea0dfcb1dc2eb5fe2bb341.jpg",
      "rrps" : [

      ]
    }
  }
}