{
  "result" : {
    "recipe" : {
      "cook_difficulty" : "切墩(初级)",
      "author_photo" : "http:\/\/tx1.douguo.net\/upload\/photo\/4\/9\/d\/70_u77273933994908225619.jpeg",
      "ipit" : 0,
      "old_comments" : [

      ],
      "ipci" : "",
      "ipt" : "",
      "ph" : 1920,
      "purl" : "",
      "recipe_list_tags" : [
        {
          "background_start_color" : "#F4F5F5",
          "text_color" : "#141515",
          "text" : "关注的人",
          "jump_url" : "",
          "background_end_color" : "#F4F5F5",
          "right_image" : "",
          "background_border_color" : ""
        }
      ],
      "recent_comments" : [

      ],
      "vfurl" : "",
      "cookstep" : [
        {
          "content" : "先来张成品图",
          "frame" : "-1",
          "image" : "https:\/\/i1.douguo.com\/upload\/caiku\/3\/0\/7\/303049d3d6ffda91996b221d025287d7.jpeg",
          "thumb" : "https:\/\/i1.douguo.com\/upload\/caiku\/3\/0\/7\/140_303049d3d6ffda91996b221d025287d7.jpeg",
          "image_width" : 3840,
          "position" : 1,
          "image_height" : 5118
        },
        {
          "image_height" : 5118,
          "image_width" : 3840,
          "thumb" : "https:\/\/i1.douguo.com\/upload\/caiku\/7\/6\/6\/140_76b3c82a7376614cb081aa93f7da3146.jpeg",
          "content" : "猪肉切成小丁",
          "image" : "https:\/\/i1.douguo.com\/upload\/caiku\/7\/6\/6\/76b3c82a7376614cb081aa93f7da3146.jpeg",
          "position" : 2,
          "frame" : "-1"
        },
        {
          "image" : "https:\/\/i1.douguo.com\/upload\/caiku\/a\/b\/a\/ab1a8b3c0b496f2137b5b80e68a143fa.jpeg",
          "frame" : "-1",
          "position" : 3,
          "image_width" : 3840,
          "content" : "放入腌肉调料",
          "thumb" : "https:\/\/i1.douguo.com\/upload\/caiku\/a\/b\/a\/140_ab1a8b3c0b496f2137b5b80e68a143fa.jpeg",
          "image_height" : 5118
        },
        {
          "content" : "拌匀后腌制一会儿",
          "image_height" : 5118,
          "image_width" : 3840,
          "frame" : "-1",
          "image" : "https:\/\/i1.douguo.com\/upload\/caiku\/d\/f\/f\/dfc691b58b27be83b434fbac755aa99f.jpeg",
          "thumb" : "https:\/\/i1.douguo.com\/upload\/caiku\/d\/f\/f\/140_dfc691b58b27be83b434fbac755aa99f.jpeg",
          "position" : 4
        },
        {
          "image_height" : 5118,
          "frame" : "-1",
          "content" : "锅中放油烧热，放入蒜末炒香",
          "position" : 5,
          "image" : "https:\/\/i1.douguo.com\/upload\/caiku\/8\/3\/d\/83b4fbb4fe717e392a0ee754f7d2d62d.jpeg",
          "thumb" : "https:\/\/i1.douguo.com\/upload\/caiku\/8\/3\/d\/140_83b4fbb4fe717e392a0ee754f7d2d62d.jpeg",
          "image_width" : 3840
        },
        {
          "position" : 6,
          "frame" : "-1",
          "image_width" : 3840,
          "image_height" : 5118,
          "content" : "放入猪肉炒变色",
          "thumb" : "https:\/\/i1.douguo.com\/upload\/caiku\/f\/9\/5\/140_f9e18eed24c9433c6ab6d10c84004c35.jpeg",
          "image" : "https:\/\/i1.douguo.com\/upload\/caiku\/f\/9\/5\/f9e18eed24c9433c6ab6d10c84004c35.jpeg"
        },
        {
          "frame" : "-1",
          "image_height" : 5118,
          "image" : "https:\/\/i1.douguo.com\/upload\/caiku\/d\/6\/a\/d6f695a0e4bca3df86be6da7b8a4f26a.jpeg",
          "image_width" : 3840,
          "content" : "放入青豆米",
          "position" : 7,
          "thumb" : "https:\/\/i1.douguo.com\/upload\/caiku\/d\/6\/a\/140_d6f695a0e4bca3df86be6da7b8a4f26a.jpeg"
        },
        {
          "content" : "翻炒均匀",
          "thumb" : "https:\/\/i1.douguo.com\/upload\/caiku\/c\/0\/6\/140_c0089f43888d5f04ac2a8a8a445cfa36.jpeg",
          "image" : "https:\/\/i1.douguo.com\/upload\/caiku\/c\/0\/6\/c0089f43888d5f04ac2a8a8a445cfa36.jpeg",
          "frame" : "-1",
          "image_width" : 3840,
          "position" : 8,
          "image_height" : 5118
        },
        {
          "image_height" : 5118,
          "thumb" : "https:\/\/i1.douguo.com\/upload\/caiku\/a\/6\/5\/140_a609ed3f08f801d6aba3ed73589377e5.jpeg",
          "frame" : "-1",
          "content" : "加入清水",
          "image_width" : 3840,
          "position" : 9,
          "image" : "https:\/\/i1.douguo.com\/upload\/caiku\/a\/6\/5\/a609ed3f08f801d6aba3ed73589377e5.jpeg"
        },
        {
          "image_width" : 3840,
          "content" : "烧至8成熟后磨入一些胡椒粉",
          "position" : 10,
          "image" : "https:\/\/i1.douguo.com\/upload\/caiku\/c\/c\/3\/ccba5ec0ec56818784ec30d3d83e5963.jpeg",
          "thumb" : "https:\/\/i1.douguo.com\/upload\/caiku\/c\/c\/3\/140_ccba5ec0ec56818784ec30d3d83e5963.jpeg",
          "image_height" : 5118,
          "frame" : "-1"
        },
        {
          "frame" : "-1",
          "content" : "放盐、味达美秘制鲜蚝油（吃得清淡的就不要放盐了）",
          "image_width" : 3840,
          "image" : "https:\/\/i1.douguo.com\/upload\/caiku\/8\/1\/9\/81e0e26481436349a6faa2fce01d59e9.jpeg",
          "position" : 11,
          "image_height" : 5118,
          "thumb" : "https:\/\/i1.douguo.com\/upload\/caiku\/8\/1\/9\/140_81e0e26481436349a6faa2fce01d59e9.jpeg"
        },
        {
          "image_width" : 3840,
          "content" : "翻炒入味",
          "image" : "https:\/\/i1.douguo.com\/upload\/caiku\/1\/8\/d\/183c21d72386ea8780dacee46ddb1a4d.jpeg",
          "thumb" : "https:\/\/i1.douguo.com\/upload\/caiku\/1\/8\/d\/140_183c21d72386ea8780dacee46ddb1a4d.jpeg",
          "position" : 12,
          "frame" : "-1",
          "image_height" : 5118
        },
        {
          "image_height" : 5118,
          "position" : 13,
          "content" : "装盘食用",
          "image" : "https:\/\/i1.douguo.com\/upload\/caiku\/b\/6\/0\/b6d4f06dcc7cec3bd90348cc863d6a80.jpeg",
          "thumb" : "https:\/\/i1.douguo.com\/upload\/caiku\/b\/6\/0\/140_b6d4f06dcc7cec3bd90348cc863d6a80.jpeg",
          "image_width" : 3840,
          "frame" : "-1"
        }
      ],
      "author" : "薯条沾腐乳",
      "ipurl" : "",
      "rrpt" : "",
      "recommendation_tag" : "",
      "top_mdsp" : [

      ],
      "ssu" : "",
      "thumb_height" : 0,
      "cookwares" : [

      ],
      "collect_status" : 0,
      "cook_id" : "3265446",
      "v_u" : "",
      "hqu" : "recipes:\/\/www.douguo.com\/notedetail?id=21162253",
      "dish_count" : 2,
      "recommended" : 0,
      "ecs" : 1,
      "story_dsp" : [

      ],
      "tips" : "",
      "vc" : "145402",
      "rpid" : 0,
      "ipoi" : "",
      "minor" : [

      ],
      "guide_image" : "",
      "image" : "http:\/\/i1.douguo.net\/upload\/caiku\/3\/c\/4\/300_3cdf2744106caa628c72d1651f7fdc04.jpeg",
      "rate" : 5,
      "clicks" : "1",
      "cookstory" : "普通的家常菜，用0添加防腐剂的味达美秘制鲜蚝油调味，鲜美无比！",
      "rips" : 0,
      "ipia" : [

      ],
      "share_info" : {
        "object_id" : "3265446",
        "mini_program" : [

        ],
        "name" : "猪肉烧青豆米-会做饭很酷!",
        "qr_image" : "",
        "s_u" : "http:\/\/m.douguo.com\/cookbook\/3265446.html",
        "image" : "https:\/\/cp1.douguo.com\/upload\/caiku\/3\/c\/4\/3cdf2744106caa628c72d1651f7fdc04.jpeg",
        "s_d" : "猪肉烧青豆米-会做饭很酷!",
        "infos" : [
          {
            "channel" : "1",
            "mini_program" : [

            ],
            "object_id" : "3265446",
            "name" : "猪肉烧青豆米-会做饭很酷!",
            "s_d" : "#学做饭用豆果美食# 我在@豆果美食 分享了【猪肉烧青豆米-会做饭很酷!】，色香味俱全说的就是这道菜！查看图片了解菜谱（快来点击https:\/\/m.weibo.cn\/p\/100404i33631和我一起修炼厨艺吧）#会做饭很酷# ",
            "qr_image" : "",
            "s_u" : "",
            "image" : "https:\/\/cp1.douguo.com\/upload\/caiku\/3\/c\/4\/3cdf2744106caa628c72d1651f7fdc04.jpeg"
          },
          {
            "qr_image" : "",
            "s_d" : "猪肉烧青豆米-会做饭很酷!",
            "image" : "https:\/\/cp1.douguo.com\/upload\/caiku\/3\/c\/4\/3cdf2744106caa628c72d1651f7fdc04.jpeg",
            "object_id" : "3265446",
            "name" : "猪肉烧青豆米-会做饭很酷!",
            "s_u" : "http:\/\/m.douguo.com\/cookbook\/3265446.html",
            "mini_program" : [

            ],
            "channel" : "7"
          },
          {
            "mini_program" : [

            ],
            "object_id" : "3265446",
            "channel" : "8",
            "s_u" : "http:\/\/m.douguo.com\/cookbook\/3265446.html",
            "image" : "https:\/\/cp1.douguo.com\/upload\/caiku\/3\/c\/4\/3cdf2744106caa628c72d1651f7fdc04.jpeg",
            "s_d" : "猪肉烧青豆米-会做饭很酷!",
            "qr_image" : "",
            "name" : "猪肉烧青豆米-会做饭很酷!"
          }
        ]
      },
      "related_ads" : [

      ],
      "major" : [
        {
          "title" : "梅花肉",
          "note" : "1块"
        },
        {
          "note" : "120克",
          "title" : "新鲜青豆米"
        },
        {
          "note" : "适量",
          "tu" : "https:\/\/m.douguo.com\/ingredients\/食用油\/detailmaterial",
          "title" : "食用油"
        },
        {
          "note" : "3瓣",
          "tu" : "https:\/\/m.douguo.com\/ingredients\/大蒜\/detailmaterial",
          "title" : "大蒜"
        },
        {
          "note" : "适量",
          "tu" : "https:\/\/m.douguo.com\/ingredients\/胡椒粉\/detailmaterial",
          "title" : "胡椒粉"
        },
        {
          "note" : "少许",
          "title" : "盐",
          "tu" : "https:\/\/m.douguo.com\/ingredients\/盐\/detailmaterial"
        },
        {
          "note" : "适量",
          "title" : "味达美秘制鲜蚝油"
        },
        {
          "note" : "适量",
          "title" : "腌肉用生粉"
        },
        {
          "title" : "腌肉用料酒",
          "note" : "适量"
        },
        {
          "note" : "适量",
          "title" : "腌肉用生抽"
        }
      ],
      "sc" : 0,
      "dish_count_text" : "2",
      "recipe_tags" : [

      ],
      "cookstorys" : [
        {
          "c" : "普通的家常菜，用0添加防腐剂的味达美秘制鲜蚝油调味，鲜美无比！",
          "icon" : "",
          "type" : 0,
          "u" : "",
          "id" : 0,
          "color" : ""
        },
        {
          "id" : 0,
          "icon" : "",
          "c" : "\n参与活动:",
          "u" : "",
          "type" : 0,
          "color" : ""
        },
        {
          "icon" : "",
          "c" : "#【有奖征集+免费申领】味达美·名厨汁味正当夏#",
          "type" : 0,
          "u" : "https:\/\/m.douguo.com\/activity\/ncpzj\/detail\/3819?isapp=1&open=0&_vs=1000300&&dg_refreshkey=publishnote",
          "id" : 0
        }
      ],
      "packages_id" : [

      ],
      "thumb_path" : "https:\/\/i1.douguo.com\/upload\/caiku\/3\/c\/4\/300_3cdf2744106caa628c72d1651f7fdc04.jpeg",
      "rpst" : "",
      "eu" : "recipes:\/\/www.douguo.com\/postdetail?id=242016",
      "pw" : 1440,
      "views_count_text" : "14.5万",
      "recommend_label" : "2人学做",
      "favo_counts_text" : "4984",
      "title_ad" : [

      ],
      "bs" : [

      ],
      "notes" : [

      ],
      "rewarded_video_dsp" : [

      ],
      "comments_count_text" : "",
      "cook_time_image" : "https:\/\/i1.douguo.com\/upload\/banner\/1551424341.png",
      "brand_day_dsp" : [

      ],
      "tags" : [

      ],
      "event" : {
        "name" : "【有奖征集+免费申领】味达美·名厨汁味正当夏",
        "id" : 3819,
        "url" : "https:\/\/m.douguo.com\/activity\/ncpzj\/detail\/3819?isapp=1&open=0&_vs=1000300&&dg_refreshkey=publishnote"
      },
      "comments" : [

      ],
      "photo_path" : "https:\/\/i1.douguo.com\/upload\/caiku\/3\/c\/4\/600_3cdf2744106caa628c72d1651f7fdc04.jpeg",
      "ss" : [

      ],
      "levelid" : 2,
      "release_time" : "",
      "rcs" : [

      ],
      "mid_mdsp" : [

      ],
      "sr" : "",
      "favo_counts" : 4984,
      "vu" : "",
      "rpt" : "",
      "rate_count" : 1,
      "first_level_comment_count" : 0,
      "author_verified" : 1,
      "display_ingredient" : 1,
      "su" : "",
      "rate_show" : 0,
      "cook_difficulty_image" : "https:\/\/i1.douguo.com\/upload\/banner\/1551424390.png",
      "btm_dsp" : [

      ],
      "rdsps" : [

      ],
      "rsm" : "该功能暂停使用",
      "act_des" : "",
      "comments_count" : 0,
      "user" : {
        "nick" : "薯条沾腐乳",
        "lv" : 0,
        "recipes_count" : 0,
        "followers_count" : 0,
        "favorites_count" : 0,
        "point" : 0,
        "birthday" : "",
        "email" : "",
        "subscription_article_count" : 0,
        "verified" : 1,
        "following_count" : 0,
        "pc" : 0,
        "diaries_count" : 0,
        "qq_weibo_nick" : "",
        "verified_url" : "https:\/\/m.douguo.com\/user\/prodesc",
        "qzone_nick" : "",
        "userid" : "24737238",
        "user_photo" : "http:\/\/tx1.douguo.net\/upload\/photo\/4\/9\/d\/70_u77273933994908225619.jpeg",
        "age" : "",
        "dishes_count" : 0,
        "favor_diaries_count" : 0,
        "user_cover" : "",
        "is_prime" : 0,
        "subscription" : 0,
        "setted_email" : 0,
        "mobile" : "",
        "weibo_nick" : "",
        "introduction" : "",
        "verified_image" : "https:\/\/i1.douguo.com\/upload\/note\/d\/a\/a\/da84247847aebe48d9dd0fcdac88862a.png",
        "avatar_medium" : "http:\/\/tx1.douguo.net\/upload\/photo\/4\/9\/d\/140_u77273933994908225619.jpeg",
        "lvl" : 8,
        "regist_time" : "",
        "location" : 0,
        "fc" : 0,
        "progress_image" : "",
        "sign" : "",
        "user_id" : "24737238",
        "coursecount" : 0,
        "user_large_photo" : "http:\/\/tx1.douguo.net\/upload\/photo\/4\/9\/d\/yuan_u77273933994908225619.jpeg",
        "gender" : 2
      },
      "create_time" : "2023-08-02 20:41:07",
      "author_id" : 24737238,
      "dishes" : [

      ],
      "title" : "猪肉烧青豆米",
      "hq" : 1,
      "cook_time" : "10~30分钟",
      "original_photo_path" : "http:\/\/i1.douguo.net\/upload\/caiku\/3\/c\/4\/yuan_3cdf2744106caa628c72d1651f7fdc04.jpeg",
      "rrps" : [

      ]
    }
  },
  "status" : 0,
  "state" : "success"
}