{
  "state" : "success",
  "status" : 0,
  "result" : {
    "recipe" : {
      "favo_counts_text" : "216",
      "act_des" : "",
      "hqu" : "recipes:\/\/www.douguo.com\/notedetail?id=21162253",
      "views_count_text" : "2.5万",
      "author_verified" : 1,
      "ss" : [

      ],
      "rate" : 0,
      "cookwares" : [

      ],
      "packages_id" : [

      ],
      "sc" : 0,
      "purl" : "",
      "guide_image" : "",
      "mid_mdsp" : [

      ],
      "rate_count" : 0,
      "cook_difficulty" : "切墩(初级)",
      "recipe_list_tags" : [
        {
          "right_image" : "",
          "text" : "关注的人",
          "background_border_color" : "",
          "background_start_color" : "#F4F5F5",
          "jump_url" : "",
          "text_color" : "#141515",
          "background_end_color" : "#F4F5F5"
        },
        {
          "text" : "内容详细",
          "background_border_color" : "",
          "background_start_color" : "#F4F5F5",
          "text_color" : "#141515",
          "right_image" : "",
          "background_end_color" : "#F4F5F5",
          "jump_url" : ""
        }
      ],
      "sr" : "",
      "thumb_path" : "https:\/\/i1.douguo.com\/upload\/caiku\/9\/4\/e\/300_948d910652b58d2598a3e912462e8ace.jpg",
      "rips" : 0,
      "rate_show" : 0,
      "author_id" : 39353,
      "share_info" : {
        "image" : "https:\/\/cp1.douguo.com\/upload\/caiku\/9\/4\/e\/948d910652b58d2598a3e912462e8ace.jpg",
        "qr_image" : "",
        "s_u" : "http:\/\/m.douguo.com\/cookbook\/1206232.html",
        "name" : "腊肉丁蒸黄鱼鲞#夏日时光#-会做饭很酷!",
        "object_id" : "1206232",
        "s_d" : "腊肉丁蒸黄鱼鲞#夏日时光#-会做饭很酷!",
        "mini_program" : [

        ],
        "infos" : [
          {
            "mini_program" : [

            ],
            "s_d" : "#学做饭用豆果美食# 我在@豆果美食 分享了【腊肉丁蒸黄鱼鲞#夏日时光#-会做饭很酷!】，这菜真的很好吃，而且做法简单不难学，还不快来跟我学～查看图片了解菜谱（每天限量免费课程，想跟大师学厨艺就来这https:\/\/m.weibo.cn\/p\/100404i33631）#会做饭很酷# ",
            "s_u" : "",
            "name" : "腊肉丁蒸黄鱼鲞#夏日时光#-会做饭很酷!",
            "image" : "https:\/\/cp1.douguo.com\/upload\/caiku\/9\/4\/e\/948d910652b58d2598a3e912462e8ace.jpg",
            "qr_image" : "",
            "channel" : "1",
            "object_id" : "1206232"
          },
          {
            "channel" : "7",
            "s_d" : "腊肉丁蒸黄鱼鲞#夏日时光#-会做饭很酷!",
            "mini_program" : [

            ],
            "s_u" : "http:\/\/m.douguo.com\/cookbook\/1206232.html",
            "qr_image" : "",
            "object_id" : "1206232",
            "name" : "腊肉丁蒸黄鱼鲞#夏日时光#-会做饭很酷!",
            "image" : "https:\/\/cp1.douguo.com\/upload\/caiku\/9\/4\/e\/948d910652b58d2598a3e912462e8ace.jpg"
          },
          {
            "s_u" : "http:\/\/m.douguo.com\/cookbook\/1206232.html",
            "channel" : "8",
            "object_id" : "1206232",
            "qr_image" : "",
            "mini_program" : [

            ],
            "s_d" : "腊肉丁蒸黄鱼鲞#夏日时光#-会做饭很酷!",
            "image" : "https:\/\/cp1.douguo.com\/upload\/caiku\/9\/4\/e\/948d910652b58d2598a3e912462e8ace.jpg",
            "name" : "腊肉丁蒸黄鱼鲞#夏日时光#-会做饭很酷!"
          }
        ]
      },
      "major" : [
        {
          "note" : "1条",
          "title" : "黄鱼鲞"
        }
      ],
      "favo_counts" : 216,
      "display_ingredient" : 1,
      "rrps" : [

      ],
      "rdsps" : [

      ],
      "comments" : [
        "{\n    ac = \"#999999\";\n    at = \"\";\n    ccc = 1;\n    \"child_comments\" =     (\n                {\n            ac = \"#999999\";\n            at = \"\";\n            ccc = 0;\n            city = \"\";\n            cmc = 2;\n            content =             (\n                                {\n                    c = \" \\U9c9eXIANG\\U4e09\\U58f0\";\n                }\n            );\n            ia = 0;\n            id = 2886214;\n            \"ip_address_location\" = \"\";\n            like = 0;\n            \"like_count\" = 0;\n            \"reply_id\" = 2377983;\n            \"reply_user\" =             {\n                \"followers_count_text\" = \"\";\n                id = 4208051;\n                \"is_prime\" = 0;\n                lv = 0;\n                lvl = 5;\n                n = \"\\U707f\\U59d0\\U94fa\\U5b50\";\n                p = \"http:\/\/tx1.douguo.net\/upload\/photo\/d\/a\/e\/70_u96704169179242120527.jpeg\";\n                \"progress_image\" = \"\";\n                \"recipes_count_text\" = \"\";\n                relationship = \"-1\";\n                title = \"\";\n                v = 0;\n                \"verified_image\" = \"\";\n            };\n            \"sticker_icon\" =             (\n            );\n            time = \"2015-11-28 06:26:03\";\n            u =             {\n                \"followers_count_text\" = \"\";\n                id = 4722034;\n                \"is_prime\" = 0;\n                lv = 0;\n                lvl = 1;\n                n = \"Lovely_\\U9e7f\\U9e7f\";\n                p = \"http:\/\/tx1.douguo.net\/upload\/photo\/1\/9\/8\/70_u04232432539911003353.jpg\";\n                \"progress_image\" = \"\";\n                \"recipes_count_text\" = \"\";\n                relationship = \"-1\";\n                title = \"\";\n                v = 0;\n                \"verified_image\" = \"\";\n            };\n        }\n    );\n    city = \"\";\n    cmc = 2;\n    content =     (\n                {\n            c = \"\\U6ca1\\U8fd9\\U4e2a\\U8fd9\\U9c7c\\Uff0c\\U8fd9\\U4e2a\\U5b57\\U8be5\\U5ff5\\U5565-_-#\";\n        }\n    );\n    ia = 0;\n    id = 2377983;\n    \"ip_address_location\" = \"\";\n    like = 0;\n    \"like_count\" = 1;\n    \"reply_id\" = 0;\n    \"sticker_icon\" =     (\n    );\n    time = \"2015-06-25 10:22:29\";\n    u =     {\n        \"followers_count_text\" = \"\";\n        id = 4208051;\n        \"is_prime\" = 0;\n        lv = 0;\n        lvl = 5;\n        n = \"\\U707f\\U59d0\\U94fa\\U5b50\";\n        p = \"http:\/\/tx1.douguo.net\/upload\/photo\/d\/a\/e\/70_u96704169179242120527.jpeg\";\n        \"progress_image\" = \"\";\n        \"recipes_count_text\" = \"\";\n        relationship = \"-1\";\n        title = \"\";\n        v = 0;\n        \"verified_image\" = \"\";\n    };\n}",
        "{\n    ac = \"#999999\";\n    at = \"\";\n    ccc = 0;\n    \"child_comments\" =     (\n    );\n    city = \"\";\n    cmc = 2;\n    content =     (\n                {\n            c = \"\\U5b66\\U4f1a\\U8fd9\\U9053\\U83dc\\Uff0c\\U60f3\\U5403\\U597d\\U7684\\U4e0d\\U6c42\\U4eba\\Uff01\";\n        }\n    );\n    ia = 0;\n    id = 5880601;\n    \"ip_address_location\" = \"\";\n    like = 0;\n    \"like_count\" = 0;\n    \"reply_id\" = 0;\n    \"sticker_icon\" =     (\n    );\n    time = \"2018-07-25 16:42:14\";\n    u =     {\n        \"followers_count_text\" = \"\";\n        id = 18460106;\n        \"is_prime\" = 0;\n        lv = 0;\n        lvl = 6;\n        n = \"\\U5982\\U6c34111\";\n        p = \"http:\/\/tx1.douguo.net\/upload\/photo\/b\/d\/7\/70_u8242740498894711121513.jpg\";\n        \"progress_image\" = \"\";\n        \"recipes_count_text\" = \"\";\n        relationship = \"-1\";\n        title = \"\";\n        v = 0;\n        \"verified_image\" = \"\";\n    };\n}",
        "{\n    ac = \"#999999\";\n    at = \"\";\n    ccc = 0;\n    \"child_comments\" =     (\n    );\n    city = \"\";\n    cmc = 2;\n    content =     (\n                {\n            c = \"\\U9c9e\\Uff0cXIANG\\U4e09\\U58f0\";\n        }\n    );\n    ia = 0;\n    id = 2886210;\n    \"ip_address_location\" = \"\";\n    like = 0;\n    \"like_count\" = 0;\n    \"reply_id\" = 0;\n    \"sticker_icon\" =     (\n    );\n    time = \"2015-11-28 06:25:45\";\n    u =     {\n        \"followers_count_text\" = \"\";\n        id = 4722034;\n        \"is_prime\" = 0;\n        lv = 0;\n        lvl = 1;\n        n = \"Lovely_\\U9e7f\\U9e7f\";\n        p = \"http:\/\/tx1.douguo.net\/upload\/photo\/1\/9\/8\/70_u04232432539911003353.jpg\";\n        \"progress_image\" = \"\";\n        \"recipes_count_text\" = \"\";\n        relationship = \"-1\";\n        title = \"\";\n        v = 0;\n        \"verified_image\" = \"\";\n    };\n}"
      ],
      "cook_time" : "10-30分钟",
      "user" : {
        "following_count" : 0,
        "mobile" : "",
        "avatar_medium" : "http:\/\/tx1.douguo.net\/upload\/photo\/f\/2\/a\/140_u0530091402261033.jpg",
        "lvl" : 7,
        "is_prime" : 0,
        "user_cover" : "",
        "verified_image" : "https:\/\/i1.douguo.com\/upload\/note\/d\/a\/a\/da84247847aebe48d9dd0fcdac88862a.png",
        "nick" : "牛妈厨房",
        "lv" : 0,
        "favor_diaries_count" : 0,
        "user_photo" : "http:\/\/tx1.douguo.net\/upload\/photo\/f\/2\/a\/70_u0530091402261033.jpg",
        "qzone_nick" : "",
        "introduction" : "",
        "birthday" : "",
        "favorites_count" : 0,
        "sign" : "",
        "point" : 0,
        "coursecount" : 0,
        "user_large_photo" : "http:\/\/tx1.douguo.net\/upload\/photo\/f\/2\/a\/yuan_u0530091402261033.jpg",
        "verified_url" : "https:\/\/m.douguo.com\/user\/prodesc",
        "user_id" : "39353",
        "dishes_count" : 0,
        "fc" : 0,
        "weibo_nick" : "",
        "progress_image" : "",
        "age" : "",
        "verified" : 1,
        "qq_weibo_nick" : "",
        "pc" : 0,
        "location" : 0,
        "gender" : 2,
        "email" : "",
        "recipes_count" : 0,
        "regist_time" : "",
        "userid" : "39353",
        "setted_email" : 0,
        "followers_count" : 0,
        "diaries_count" : 0,
        "subscription_article_count" : 0,
        "subscription" : 0
      },
      "original_photo_path" : "http:\/\/i1.douguo.net\/upload\/caiku\/9\/4\/e\/yuan_948d910652b58d2598a3e912462e8ace.jpg",
      "title_ad" : [

      ],
      "first_level_comment_count" : 3,
      "rsm" : "该功能暂停使用",
      "tips" : "洗米水是很好的，洗水果洗鱼真是很不错。",
      "recommended" : 0,
      "related_ads" : [

      ],
      "author" : "牛妈厨房",
      "comments_count_text" : "4",
      "ssu" : "",
      "ipoi" : "",
      "rewarded_video_dsp" : [

      ],
      "btm_dsp" : [

      ],
      "title" : "腊肉丁蒸黄鱼鲞",
      "event" : {
        "id" : 0
      },
      "cookstory" : "    知道电饭锅边煮饭边蒸菜的人肯定很多，我也是其中之一。工作时间忙，晚上做菜真是比较赶。一般情况下我都会选择一个蒸菜，这样子就可以减少在厨房的工作量，也可以更快的为家人做好丰富可口的一餐。\n   在选择食材上，我们要选择易熟的食材，这样子饭熟也可以以保证菜也熟。一般我爱蒸鸡蛋肉末，蛤蜊鸡蛋，或是蒸个鱼，再蒸几个辣椒什么得。\n   今天我是作电饭锅来蒸黄鱼鲞，配了一点腊肉丁，这样子蒸好的黄鱼鲞就十分的鲜美又十分的下饭哦，会吃辣的朋友们还可以配一点辣椒下去。",
      "vfurl" : "",
      "ipit" : 0,
      "ipia" : [

      ],
      "recommendation_tag" : "",
      "release_time" : "",
      "hq" : 1,
      "comments_count" : 4,
      "clicks" : "22836",
      "ecs" : 0,
      "eu" : "recipes:\/\/www.douguo.com\/postdetail?id=242016",
      "v_u" : "",
      "cook_time_image" : "https:\/\/i1.douguo.com\/upload\/banner\/1551424341.png",
      "ipurl" : "",
      "minor" : [
        "{\n    note = \"\\U5c11\\U8bb8\";\n    title = \"\\U814a\\U8089\";\n    tu = \"https:\/\/https:\/\/m.douguo.com\/ingredients\/\\U814a\\U8089\/detailmaterial\";\n}",
        "{\n    note = \"\\U9002\\U91cf\";\n    title = \"\\U9171\\U6cb9\";\n    tu = \"https:\/\/https:\/\/m.douguo.com\/ingredients\/\\U9171\\U6cb9\/detailmaterial\";\n}",
        "{\n    note = \"\\U9002\\U91cf\";\n    title = \"\\U6599\\U9152\";\n    tu = \"https:\/\/https:\/\/m.douguo.com\/ingredients\/\\U6599\\U9152\/detailmaterial\";\n}"
      ],
      "dish_count_text" : "",
      "tags" : [
        "{\n    text = \"\\U5bb6\\U5e38\\U83dc\";\n}",
        "{\n    text = \"\\U6c34\\U4ea7\";\n}",
        "{\n    text = \"\\U84b8\";\n}",
        "{\n    text = \"\\U9c9c\";\n}",
        "{\n    text = \"\\U5348\\U9910\";\n}",
        "{\n    text = \"\\U665a\\U9910\";\n}"
      ],
      "thumb_height" : 0,
      "story_dsp" : [

      ],
      "brand_day_dsp" : [

      ],
      "rcs" : [

      ],
      "old_comments" : [

      ],
      "dish_count" : 0,
      "rrpt" : "",
      "photo_path" : "https:\/\/i1.douguo.com\/upload\/caiku\/9\/4\/e\/600_948d910652b58d2598a3e912462e8ace.jpg",
      "rpt" : "",
      "create_time" : "2015-06-25 10:33:40",
      "cook_difficulty_image" : "https:\/\/i1.douguo.com\/upload\/banner\/1551424390.png",
      "levelid" : 2,
      "vu" : "",
      "recent_comments" : [

      ],
      "ipt" : "",
      "cookstep" : [
        {
          "content" : "备好黄鱼鲞一条，腊肉少许。",
          "thumb" : "https:\/\/i1.douguo.com\/upload\/caiku\/3\/4\/8\/140_34371ccd37825815d90149aec0368f18.jpg",
          "image_height" : 800,
          "image_width" : 600,
          "image" : "https:\/\/i1.douguo.com\/upload\/caiku\/3\/4\/8\/34371ccd37825815d90149aec0368f18.jpg",
          "frame" : "-1",
          "position" : 1
        },
        {
          "position" : 2,
          "image_height" : 800,
          "frame" : "-1",
          "image" : "https:\/\/i1.douguo.com\/upload\/caiku\/f\/6\/d\/f62ab91774f6c48a77acc8dafc066a6d.jpg",
          "image_width" : 600,
          "content" : "将黄鱼鲞改刀后，用洗米水泡洗干净备用。",
          "thumb" : "https:\/\/i1.douguo.com\/upload\/caiku\/f\/6\/d\/140_f62ab91774f6c48a77acc8dafc066a6d.jpg"
        },
        {
          "position" : 3,
          "image_height" : 800,
          "frame" : "-1",
          "content" : "将洗好的黄鱼鲞摆盘，再加入少许的腊肉丁。",
          "image_width" : 600,
          "image" : "https:\/\/i1.douguo.com\/upload\/caiku\/8\/1\/7\/8100017411768b13f4a8bfee7f017f77.jpg",
          "thumb" : "https:\/\/i1.douguo.com\/upload\/caiku\/8\/1\/7\/140_8100017411768b13f4a8bfee7f017f77.jpg"
        },
        {
          "frame" : "-1",
          "thumb" : "https:\/\/i1.douguo.com\/upload\/caiku\/e\/4\/a\/140_e433cf95e515712ef8045f769253203a.jpg",
          "image_height" : 800,
          "image" : "https:\/\/i1.douguo.com\/upload\/caiku\/e\/4\/a\/e433cf95e515712ef8045f769253203a.jpg",
          "image_width" : 600,
          "content" : "再淋上调好的料酒及酱油。",
          "position" : 4
        },
        {
          "frame" : "-1",
          "image_height" : 800,
          "image_width" : 600,
          "content" : "上电饭锅边煮饭边蒸制。",
          "image" : "https:\/\/i1.douguo.com\/upload\/caiku\/5\/0\/a\/506b75d63a993d1cebd4b97ca93d7f1a.jpg",
          "position" : 5,
          "thumb" : "https:\/\/i1.douguo.com\/upload\/caiku\/5\/0\/a\/140_506b75d63a993d1cebd4b97ca93d7f1a.jpg"
        },
        {
          "thumb" : "https:\/\/i1.douguo.com\/upload\/caiku\/6\/b\/2\/140_6b61118ba548e8869e1869347e9084d2.jpg",
          "frame" : "-1",
          "image_height" : 752,
          "position" : 6,
          "content" : "饭熟菜也熟，就可以美美享用了。",
          "image_width" : 500,
          "image" : "https:\/\/i1.douguo.com\/upload\/caiku\/6\/b\/2\/6b61118ba548e8869e1869347e9084d2.jpg"
        }
      ],
      "bs" : [

      ],
      "top_mdsp" : [

      ],
      "cook_id" : "1206232",
      "cookstorys" : [
        {
          "color" : "",
          "icon" : "",
          "c" : "    知道电饭锅边煮饭边蒸菜的人肯定很多，我也是其中之一。工作时间忙，晚上做菜真是比较赶。一般情况下我都会选择一个蒸菜，这样子就可以减少在厨房的工作量，也可以更快的为家人做好丰富可口的一餐。\n   在选择食材上，我们要选择易熟的食材，这样子饭熟也可以以保证菜也熟。一般我爱蒸鸡蛋肉末，蛤蜊鸡蛋，或是蒸个鱼，再蒸几个辣椒什么得。\n   今天我是作电饭锅来蒸黄鱼鲞，配了一点腊肉丁，这样子蒸好的黄鱼鲞就十分的鲜美又十分的下饭哦，会吃辣的朋友们还可以配一点辣椒下去。",
          "id" : 0,
          "type" : 0,
          "u" : ""
        }
      ],
      "rpst" : "",
      "ipci" : "",
      "pw" : 500,
      "rpid" : 0,
      "author_photo" : "http:\/\/tx1.douguo.net\/upload\/photo\/f\/2\/a\/70_u0530091402261033.jpg",
      "notes" : [

      ],
      "recommend_label" : "2.5万人看过",
      "dishes" : [

      ],
      "ph" : 752,
      "su" : "",
      "advice" : {
        "da" : {
          "url" : "https:\/\/m.douguo.com\/recipe\/nutrient_self\/1206232",
          "t" : "查看详细分析",
          "iu" : "https:\/\/i1.douguo.com\/upload\/banner\/f\/4\/d\/f48877e53c37759bc12ac494be82ec8d.png"
        },
        "at" : "盐摄入过高有害健康～",
        "has" : [
          {
            "t" : "高盐",
            "url" : "recipes:\/\/www.douguo.com\/simplerecipelist?t=高盐&id=高盐"
          },
          {
            "url" : "recipes:\/\/www.douguo.com\/simplerecipelist?t=富含铁&id=富含铁",
            "t" : "富含铁"
          }
        ]
      },
      "image" : "http:\/\/i1.douguo.net\/upload\/caiku\/9\/4\/e\/300_948d910652b58d2598a3e912462e8ace.jpg",
      "vc" : "24559",
      "collect_status" : 0,
      "recipe_tags" : [

      ]
    }
  }
}