{
  "state" : "success",
  "result" : {
    "recipe" : {
      "hqu" : "recipes:\/\/www.douguo.com\/notedetail?id=21162253",
      "favo_counts_text" : "4123",
      "related_ads" : [

      ],
      "author_photo" : "http:\/\/tx1.douguo.net\/upload\/photo\/a\/6\/9\/70_u41051172943653083951.jpg",
      "title_ad" : [

      ],
      "story_dsp" : [

      ],
      "cookstory" : "天热不想吃饭，做点发面葱花千层饼，烹饪过程中香喷喷的葱花味道弥漫整个厨房，让你馋的流口水，发好的面团加入盐、葱花、食用油做成葱花千层饼解腻又开胃",
      "advice" : {
        "at" : "对血管有保护作用～",
        "da" : {
          "url" : "https:\/\/m.douguo.com\/recipe\/nutrient_self\/3201561",
          "iu" : "https:\/\/i1.douguo.com\/upload\/banner\/f\/4\/d\/f48877e53c37759bc12ac494be82ec8d.png",
          "t" : "查看详细分析"
        },
        "has" : [
          {
            "url" : "recipes:\/\/www.douguo.com\/simplerecipelist?t=低饱和脂肪&id=低饱和脂肪",
            "t" : "低饱和脂肪"
          }
        ]
      },
      "ipci" : "",
      "cookstep" : [
        {
          "image_height" : 960,
          "image_width" : 1280,
          "thumb" : "https:\/\/i1.douguo.com\/upload\/caiku\/6\/5\/5\/140_65ad7c19634a024f7eeab23289b52325.jpg",
          "content" : "面团材料揉好后室温发酵至2倍大，柔顺排气",
          "image" : "https:\/\/i1.douguo.com\/upload\/caiku\/6\/5\/5\/65ad7c19634a024f7eeab23289b52325.jpg",
          "position" : 1,
          "frame" : "-1"
        },
        {
          "image" : "https:\/\/i1.douguo.com\/upload\/caiku\/c\/4\/7\/c48460556baee733e8eac04acd1b0f37.jpg",
          "content" : "面团擀开涂一层食用油，撒上盐、撒上葱花，上下间隔10cm左右切开",
          "image_width" : 1280,
          "thumb" : "https:\/\/i1.douguo.com\/upload\/caiku\/c\/4\/7\/140_c48460556baee733e8eac04acd1b0f37.jpg",
          "image_height" : 960,
          "frame" : "-1",
          "position" : 2
        },
        {
          "image_height" : 960,
          "frame" : "-1",
          "image" : "https:\/\/i1.douguo.com\/upload\/caiku\/8\/1\/6\/81a01b0bb2f6598444848d21cc53e1a6.jpg",
          "thumb" : "https:\/\/i1.douguo.com\/upload\/caiku\/8\/1\/6\/140_81a01b0bb2f6598444848d21cc53e1a6.jpg",
          "content" : "左右对折后向下折，依次折好",
          "position" : 3,
          "image_width" : 1280
        },
        {
          "position" : 4,
          "frame" : "-1",
          "image_width" : 1280,
          "image_height" : 960,
          "content" : "最后折好的样子",
          "thumb" : "https:\/\/i1.douguo.com\/upload\/caiku\/a\/b\/9\/140_abc91b96853748804aa79d3cbd35e8b9.jpg",
          "image" : "https:\/\/i1.douguo.com\/upload\/caiku\/a\/b\/9\/abc91b96853748804aa79d3cbd35e8b9.jpg"
        },
        {
          "image_width" : 1280,
          "content" : "擀开",
          "image" : "https:\/\/i1.douguo.com\/upload\/caiku\/1\/3\/d\/13b4a27c40f343070537534cb573ca4d.jpg",
          "thumb" : "https:\/\/i1.douguo.com\/upload\/caiku\/1\/3\/d\/140_13b4a27c40f343070537534cb573ca4d.jpg",
          "position" : 5,
          "frame" : "-1",
          "image_height" : 960
        },
        {
          "image_height" : 960,
          "position" : 6,
          "image" : "https:\/\/i1.douguo.com\/upload\/caiku\/f\/1\/3\/f1da807d458c8b54745f85c32a505dc3.jpg",
          "content" : "放入平底锅小火慢慢加热至两面金黄",
          "thumb" : "https:\/\/i1.douguo.com\/upload\/caiku\/f\/1\/3\/140_f1da807d458c8b54745f85c32a505dc3.jpg",
          "image_width" : 1280,
          "frame" : "-1"
        },
        {
          "content" : "切块",
          "image_width" : 1280,
          "image" : "https:\/\/i1.douguo.com\/upload\/caiku\/5\/b\/5\/5bff9317f1234f71e72d80727bc78c45.jpg",
          "frame" : "-1",
          "thumb" : "https:\/\/i1.douguo.com\/upload\/caiku\/5\/b\/5\/140_5bff9317f1234f71e72d80727bc78c45.jpg",
          "image_height" : 960,
          "position" : 7
        },
        {
          "position" : 8,
          "content" : "香喷喷的葱花千层饼",
          "frame" : "-1",
          "image_width" : 1280,
          "image" : "https:\/\/i1.douguo.com\/upload\/caiku\/9\/a\/5\/9a5c9d795c02d8fa034405ee972275a5.jpg",
          "thumb" : "https:\/\/i1.douguo.com\/upload\/caiku\/9\/a\/5\/140_9a5c9d795c02d8fa034405ee972275a5.jpg",
          "image_height" : 960
        },
        {
          "position" : 9,
          "image_width" : 1280,
          "thumb" : "https:\/\/i1.douguo.com\/upload\/caiku\/7\/e\/7\/140_7e1eb2733e26215417556cbaa31a7a57.jpg",
          "image_height" : 960,
          "frame" : "-1",
          "image" : "https:\/\/i1.douguo.com\/upload\/caiku\/7\/e\/7\/7e1eb2733e26215417556cbaa31a7a57.jpg",
          "content" : "开饭啦"
        },
        {
          "image_width" : 1152,
          "frame" : "-1",
          "thumb" : "https:\/\/i1.douguo.com\/upload\/caiku\/9\/7\/7\/140_97c09cf539df12cda04206c47220c767.jpg",
          "content" : "小盆友吃的很美",
          "position" : 10,
          "image_height" : 1536,
          "image" : "https:\/\/i1.douguo.com\/upload\/caiku\/9\/7\/7\/97c09cf539df12cda04206c47220c767.jpg"
        }
      ],
      "ph" : 1536,
      "rdsps" : [

      ],
      "notes" : [

      ],
      "rate" : 0,
      "recommendation_tag" : "",
      "comments_count" : 0,
      "ipurl" : "",
      "collect_status" : 0,
      "clicks" : "1",
      "rrpt" : "",
      "ipia" : [

      ],
      "cook_difficulty" : "",
      "sr" : "",
      "packages_id" : [

      ],
      "mid_mdsp" : [

      ],
      "title" : "发面葱花千层饼",
      "top_mdsp" : [

      ],
      "bs" : [

      ],
      "rewarded_video_dsp" : [

      ],
      "first_level_comment_count" : 0,
      "create_time" : "2022-07-11 16:07:07",
      "v_u" : "",
      "display_ingredient" : 1,
      "cook_difficulty_image" : "",
      "ecs" : 0,
      "ipit" : 0,
      "dish_count" : 0,
      "thumb_height" : 0,
      "cook_time" : "",
      "author_id" : 22862967,
      "vfurl" : "",
      "tags" : [

      ],
      "photo_path" : "https:\/\/i1.douguo.com\/upload\/caiku\/9\/a\/2\/600_9a973537d1c3dfe7147e8e27fd514f92.jpg",
      "recipe_list_tags" : [
        {
          "text" : "减脂菜谱",
          "background_border_color" : "",
          "background_start_color" : "#FAE9CD",
          "text_color" : "#413C32",
          "right_image" : "https:\/\/i1.douguo.com\/upload\/caiku\/0\/a\/b\/0a317d98c713e7e7d0d47ed003f2d93b.png",
          "background_end_color" : "#F5D39F",
          "jump_url" : "recipes:\/\/www.douguo.com\/introdietitian"
        },
        {
          "background_start_color" : "#F4F5F5",
          "text_color" : "#141515",
          "text" : "关注的人",
          "background_border_color" : "",
          "background_end_color" : "#F4F5F5",
          "jump_url" : "",
          "right_image" : ""
        },
        {
          "right_image" : "",
          "text" : "内容详细",
          "background_border_color" : "",
          "background_start_color" : "#F4F5F5",
          "text_color" : "#141515",
          "jump_url" : "",
          "background_end_color" : "#F4F5F5"
        }
      ],
      "recommend_label" : "4123人刚刚收藏过",
      "rrps" : [

      ],
      "comments_count_text" : "",
      "ipoi" : "",
      "act_des" : "",
      "cook_time_image" : "",
      "share_info" : {
        "qr_image" : "",
        "s_u" : "http:\/\/m.douguo.com\/cookbook\/3201561.html",
        "image" : "https:\/\/cp1.douguo.com\/upload\/caiku\/9\/a\/2\/9a973537d1c3dfe7147e8e27fd514f92.jpg",
        "name" : "#解腻开胃就吃它#发面葱花千层饼-会做饭很酷!",
        "object_id" : "3201561",
        "mini_program" : [

        ],
        "infos" : [
          {
            "channel" : "1",
            "s_u" : "",
            "qr_image" : "",
            "s_d" : "#学做饭用豆果美食# 我在@豆果美食 分享了【#解腻开胃就吃它#发面葱花千层饼-会做饭很酷!】，色香味俱全说的就是这道菜！查看图片了解菜谱（快来点击https:\/\/m.weibo.cn\/p\/100404i33631和我一起修炼厨艺吧）#会做饭很酷# ",
            "image" : "https:\/\/cp1.douguo.com\/upload\/caiku\/9\/a\/2\/9a973537d1c3dfe7147e8e27fd514f92.jpg",
            "mini_program" : [

            ],
            "object_id" : "3201561",
            "name" : "#解腻开胃就吃它#发面葱花千层饼-会做饭很酷!"
          },
          {
            "object_id" : "3201561",
            "name" : "#解腻开胃就吃它#发面葱花千层饼-会做饭很酷!",
            "mini_program" : [

            ],
            "qr_image" : "",
            "s_u" : "http:\/\/m.douguo.com\/cookbook\/3201561.html",
            "image" : "https:\/\/cp1.douguo.com\/upload\/caiku\/9\/a\/2\/9a973537d1c3dfe7147e8e27fd514f92.jpg",
            "s_d" : "#解腻开胃就吃它#发面葱花千层饼-会做饭很酷!",
            "channel" : "7"
          },
          {
            "s_d" : "#解腻开胃就吃它#发面葱花千层饼-会做饭很酷!",
            "image" : "https:\/\/cp1.douguo.com\/upload\/caiku\/9\/a\/2\/9a973537d1c3dfe7147e8e27fd514f92.jpg",
            "channel" : "8",
            "object_id" : "3201561",
            "name" : "#解腻开胃就吃它#发面葱花千层饼-会做饭很酷!",
            "s_u" : "http:\/\/m.douguo.com\/cookbook\/3201561.html",
            "qr_image" : "",
            "mini_program" : [

            ]
          }
        ],
        "s_d" : "#解腻开胃就吃它#发面葱花千层饼-会做饭很酷!"
      },
      "sc" : 0,
      "vu" : "",
      "dish_count_text" : "",
      "minor" : [

      ],
      "cook_id" : "3201561",
      "cookwares" : [

      ],
      "old_comments" : [

      ],
      "brand_day_dsp" : [

      ],
      "views_count_text" : "14.7万",
      "recommended" : 0,
      "rpid" : 0,
      "guide_image" : "",
      "hq" : 1,
      "rate_show" : 0,
      "pw" : 1152,
      "purl" : "",
      "ipt" : "",
      "favo_counts" : 4123,
      "image" : "http:\/\/i1.douguo.net\/upload\/caiku\/9\/a\/2\/300_9a973537d1c3dfe7147e8e27fd514f92.jpg",
      "comments" : [

      ],
      "author_verified" : 1,
      "release_time" : "",
      "btm_dsp" : [

      ],
      "vc" : "147441",
      "author" : "辰辰妈dg",
      "rate_count" : 0,
      "event" : {
        "url" : "https:\/\/m.douguo.com\/activity\/ncpzj\/detail\/3511?isapp=1&open=0&_vs=1000300&&dg_refreshkey=publishnote",
        "id" : 3511,
        "name" : "小暑菜谱征集|解腻开胃就吃它"
      },
      "recent_comments" : [

      ],
      "cookstorys" : [
        {
          "c" : "天热不想吃饭，做点发面葱花千层饼，烹饪过程中香喷喷的葱花味道弥漫整个厨房，让你馋的流口水，发好的面团加入盐、葱花、食用油做成葱花千层饼解腻又开胃",
          "id" : 0,
          "u" : "",
          "color" : "",
          "type" : 0,
          "icon" : ""
        },
        {
          "id" : 0,
          "c" : "\n参与活动:",
          "u" : "",
          "icon" : "",
          "type" : 0,
          "color" : ""
        },
        {
          "u" : "https:\/\/m.douguo.com\/activity\/ncpzj\/detail\/3511?isapp=1&open=0&_vs=1000300&&dg_refreshkey=publishnote",
          "id" : 0,
          "icon" : "",
          "type" : 0,
          "c" : "#小暑菜谱征集|解腻开胃就吃它#"
        }
      ],
      "tips" : "食用油如果不小心加多了可以撒上一点面粉",
      "rpst" : "",
      "rcs" : [

      ],
      "rsm" : "该功能暂停使用",
      "levelid" : 2,
      "ss" : [

      ],
      "rips" : 0,
      "su" : "",
      "rpt" : "",
      "dishes" : [

      ],
      "user" : {
        "following_count" : 0,
        "mobile" : "",
        "avatar_medium" : "http:\/\/tx1.douguo.net\/upload\/photo\/a\/6\/9\/140_u41051172943653083951.jpg",
        "favorites_count" : 0,
        "is_prime" : 0,
        "user_cover" : "",
        "verified_image" : "https:\/\/i1.douguo.com\/upload\/note\/d\/a\/a\/da84247847aebe48d9dd0fcdac88862a.png",
        "nick" : "辰辰妈dg",
        "lv" : 0,
        "lvl" : 8,
        "birthday" : "",
        "user_photo" : "http:\/\/tx1.douguo.net\/upload\/photo\/a\/6\/9\/70_u41051172943653083951.jpg",
        "introduction" : "",
        "weibo_nick" : "",
        "favor_diaries_count" : 0,
        "sign" : "",
        "point" : 0,
        "qq_weibo_nick" : "",
        "verified_url" : "https:\/\/m.douguo.com\/user\/prodesc",
        "user_id" : "22862967",
        "progress_image" : "",
        "verified" : 1,
        "fc" : 0,
        "dishes_count" : 0,
        "user_large_photo" : "http:\/\/tx1.douguo.net\/upload\/photo\/a\/6\/9\/yuan_u41051172943653083951.jpg",
        "age" : "",
        "coursecount" : 0,
        "qzone_nick" : "",
        "pc" : 0,
        "location" : 0,
        "gender" : 2,
        "email" : "",
        "recipes_count" : 0,
        "regist_time" : "",
        "userid" : "22862967",
        "setted_email" : 0,
        "followers_count" : 0,
        "diaries_count" : 0,
        "subscription_article_count" : 0,
        "subscription" : 0
      },
      "recipe_tags" : [
        "{\n    \"background_border_color\" = \"\";\n    \"background_end_color\" = \"#F5D39F\";\n    \"background_start_color\" = \"#FAE9CD\";\n    \"jump_url\" = \"recipes:\/\/www.douguo.com\/introdietitian\";\n    \"left_image\" = \"https:\/\/i1.douguo.com\/upload\/caiku\/4\/e\/8\/4ec0a3547dfdb0e8541ff7b7b61b2578.png\";\n    \"right_image\" = \"https:\/\/i1.douguo.com\/upload\/caiku\/0\/a\/b\/0a317d98c713e7e7d0d47ed003f2d93b.png\";\n    text = \"\\U51cf\\U8102\\U83dc\\U8c31\";\n    \"text_color\" = \"#413C32\";\n}"
      ],
      "major" : [
        {
          "note" : "300克",
          "tu" : "https:\/\/m.douguo.com\/ingredients\/面粉\/detailmaterial",
          "title" : "面粉"
        },
        {
          "tu" : "https:\/\/m.douguo.com\/ingredients\/水\/detailmaterial",
          "title" : "水",
          "note" : "170克"
        },
        {
          "tu" : "https:\/\/m.douguo.com\/ingredients\/酵母\/detailmaterial",
          "note" : "3g",
          "title" : "酵母"
        },
        {
          "note" : "30克",
          "title" : "夹层：食用油"
        },
        {
          "note" : "100克",
          "tu" : "https:\/\/m.douguo.com\/ingredients\/葱花\/detailmaterial",
          "title" : "葱花"
        },
        {
          "note" : "2克",
          "title" : "盐",
          "tu" : "https:\/\/m.douguo.com\/ingredients\/盐\/detailmaterial"
        }
      ],
      "thumb_path" : "https:\/\/i1.douguo.com\/upload\/caiku\/9\/a\/2\/300_9a973537d1c3dfe7147e8e27fd514f92.jpg",
      "ssu" : "",
      "original_photo_path" : "http:\/\/i1.douguo.net\/upload\/caiku\/9\/a\/2\/yuan_9a973537d1c3dfe7147e8e27fd514f92.jpg",
      "eu" : "recipes:\/\/www.douguo.com\/postdetail?id=242016"
    }
  },
  "status" : 0
}