{
  "status" : 0,
  "result" : {
    "recipe" : {
      "ss" : [

      ],
      "major" : [
        {
          "tu" : "https:\/\/m.douguo.com\/ingredients\/鸡蛋\/detailmaterial",
          "title" : "鸡蛋",
          "note" : "5个（每个60克左右）"
        },
        {
          "note" : "70克",
          "tu" : "https:\/\/m.douguo.com\/ingredients\/低筋面粉\/detailmaterial",
          "title" : "低筋面粉"
        },
        {
          "note" : "65克",
          "tu" : "https:\/\/m.douguo.com\/ingredients\/砂糖\/detailmaterial",
          "title" : "砂糖"
        },
        {
          "tu" : "https:\/\/m.douguo.com\/ingredients\/玉米油\/detailmaterial",
          "title" : "玉米油",
          "note" : "55克"
        },
        {
          "tu" : "https:\/\/m.douguo.com\/ingredients\/牛奶\/detailmaterial",
          "note" : "65克",
          "title" : "牛奶"
        },
        {
          "title" : "沙拉酱",
          "tu" : "https:\/\/m.douguo.com\/ingredients\/沙拉酱\/detailmaterial",
          "note" : "适量"
        },
        {
          "tu" : "https:\/\/m.douguo.com\/ingredients\/葱花\/detailmaterial",
          "title" : "葱花",
          "note" : "适量"
        },
        {
          "title" : "肉松",
          "note" : "适量",
          "tu" : "https:\/\/m.douguo.com\/ingredients\/肉松\/detailmaterial"
        }
      ],
      "create_time" : "2019-04-11 11:17:39",
      "title_ad" : [

      ],
      "rips" : 0,
      "tips" : "",
      "ipci" : "",
      "recipe_list_tags" : [
        {
          "background_end_color" : "#F4F5F5",
          "background_start_color" : "#F4F5F5",
          "jump_url" : "",
          "background_border_color" : "",
          "text" : "关注的人",
          "text_color" : "#141515",
          "right_image" : ""
        }
      ],
      "original_photo_path" : "http:\/\/i1.douguo.net\/upload\/caiku\/2\/8\/3\/yuan_289c02395563097eff72a7ff6cce5d13.jpeg",
      "bs" : [

      ],
      "notes" : [

      ],
      "rpid" : 0,
      "rrpt" : "",
      "rdsps" : [

      ],
      "rcs" : [

      ],
      "cookwares" : [

      ],
      "pw" : 1920,
      "rrps" : [

      ],
      "story_dsp" : [

      ],
      "vu" : "",
      "author" : "悠悠小厨Z",
      "recommendation_tag" : "",
      "sr" : "",
      "act_des" : "",
      "rpt" : "",
      "rsm" : "该功能暂停使用",
      "title" : "带着葱香沾着肉松的蛋糕卷",
      "rpst" : "",
      "thumb_height" : 0,
      "display_ingredient" : 1,
      "comments_count" : 3,
      "guide_image" : "",
      "photo_path" : "https:\/\/i1.douguo.com\/upload\/caiku\/2\/8\/3\/600_289c02395563097eff72a7ff6cce5d13.jpeg",
      "dish_count_text" : "",
      "sc" : 0,
      "related_ads" : [

      ],
      "recommended" : 0,
      "vfurl" : "",
      "v_u" : "",
      "ecs" : 0,
      "old_comments" : [

      ],
      "rewarded_video_dsp" : [

      ],
      "ph" : 1440,
      "eu" : "recipes:\/\/www.douguo.com\/postdetail?id=242016",
      "su" : "",
      "cook_difficulty_image" : "https:\/\/i1.douguo.com\/upload\/banner\/1551424390.png",
      "author_photo" : "http:\/\/tx1.douguo.net\/upload\/photo\/4\/8\/9\/70_u76029627392009001643.jpeg",
      "thumb_path" : "https:\/\/i1.douguo.com\/upload\/caiku\/2\/8\/3\/300_289c02395563097eff72a7ff6cce5d13.jpeg",
      "dishes" : [

      ],
      "levelid" : 2,
      "cook_time" : "1小时以上",
      "ipoi" : "",
      "user" : {
        "mobile" : "",
        "recipes_count" : 0,
        "regist_time" : "",
        "user_photo" : "http:\/\/tx1.douguo.net\/upload\/photo\/4\/8\/9\/70_u76029627392009001643.jpeg",
        "user_cover" : "",
        "diaries_count" : 0,
        "qq_weibo_nick" : "",
        "verified_image" : "https:\/\/i1.douguo.com\/upload\/note\/d\/a\/a\/da84247847aebe48d9dd0fcdac88862a.png",
        "fc" : 0,
        "dishes_count" : 0,
        "userid" : "3088213",
        "email" : "",
        "point" : 0,
        "favorites_count" : 0,
        "verified" : 1,
        "gender" : 2,
        "following_count" : 0,
        "lv" : 0,
        "subscription" : 0,
        "lvl" : 6,
        "sign" : "",
        "qzone_nick" : "",
        "verified_url" : "https:\/\/m.douguo.com\/user\/prodesc",
        "followers_count" : 0,
        "setted_email" : 0,
        "user_id" : "3088213",
        "progress_image" : "",
        "user_large_photo" : "http:\/\/tx1.douguo.net\/upload\/photo\/4\/8\/9\/yuan_u76029627392009001643.jpeg",
        "weibo_nick" : "",
        "nick" : "悠悠小厨Z",
        "favor_diaries_count" : 0,
        "age" : "",
        "introduction" : "",
        "location" : 0,
        "coursecount" : 0,
        "subscription_article_count" : 0,
        "avatar_medium" : "http:\/\/tx1.douguo.net\/upload\/photo\/4\/8\/9\/140_u76029627392009001643.jpeg",
        "is_prime" : 0,
        "pc" : 0,
        "birthday" : ""
      },
      "tags" : [

      ],
      "ipia" : [

      ],
      "minor" : [

      ],
      "advice" : {
        "da" : {
          "iu" : "https:\/\/i1.douguo.com\/upload\/banner\/f\/4\/d\/f48877e53c37759bc12ac494be82ec8d.png",
          "url" : "https:\/\/m.douguo.com\/recipe\/nutrient_self\/2287546",
          "t" : "查看详细分析"
        },
        "has" : [

        ]
      },
      "rate_show" : 0,
      "recent_comments" : [

      ],
      "author_id" : 3088213,
      "cook_difficulty" : "切墩(初级)",
      "comments" : [
        "{\n    ac = \"#999999\";\n    at = \"\";\n    ccc = 1;\n    \"child_comments\" =     (\n                {\n            ac = \"#999999\";\n            at = \"\\U6d4e\\U5357\\U5e02\";\n            ccc = 0;\n            city = \"\\U6d4e\\U5357\\U5e02\";\n            cmc = 2;\n            content =             (\n                                {\n                    c = \" \\U7845\\U80f6\\U592a\\U539a\\U4e86\\Uff0c\\U5377\\U7684\\U6ca1\\U6709\\U90a3\\U4e48\\U7d27\\Uff0c\\U81ea\\U5df1\\U5bb6\\U5403\\U4e5f\\U53ef\\U4ee5\\U7684\";\n                }\n            );\n            ia = 1;\n            id = 6510722;\n            \"ip_address_location\" = \"\";\n            like = 0;\n            \"like_count\" = 0;\n            \"reply_id\" = 6506327;\n            \"reply_user\" =             {\n                \"followers_count_text\" = \"\";\n                id = 18471735;\n                \"is_prime\" = 0;\n                lv = 0;\n                lvl = 6;\n                n = \"\\U8f69\\U8f95\\U5b64\\U6b87\";\n                p = \"http:\/\/tx1.douguo.net\/upload\/photo\/f\/1\/8\/70_u97627603526047135418.jpg\";\n                \"progress_image\" = \"\";\n                \"recipes_count_text\" = \"\";\n                relationship = \"-1\";\n                title = \"\";\n                v = 0;\n                \"verified_image\" = \"\";\n            };\n            \"sticker_icon\" =             (\n            );\n            time = \"2019-04-15 00:34:42\";\n            u =             {\n                \"followers_count_text\" = \"\";\n                id = 3088213;\n                \"is_prime\" = 0;\n                lv = 0;\n                lvl = 6;\n                n = \"\\U60a0\\U60a0\\U5c0f\\U53a8Z\";\n                p = \"http:\/\/tx1.douguo.net\/upload\/photo\/4\/8\/9\/70_u76029627392009001643.jpeg\";\n                \"progress_image\" = \"\";\n                \"recipes_count_text\" = \"\";\n                relationship = \"-1\";\n                title = \"\";\n                v = 1;\n                \"verified_image\" = \"\";\n            };\n        }\n    );\n    city = \"\";\n    cmc = 2;\n    content =     (\n                {\n            c = \"\\U6ca1\\U6709\\U7845\\U80f6\\U57ab\\Uff0c\\U7528\\U6cb9\\U7eb8\\U6253\\U5e95\\U53ef\\U4ee5\\U4e48\";\n        }\n    );\n    ia = 0;\n    id = 6506327;\n    \"ip_address_location\" = \"\";\n    like = 0;\n    \"like_count\" = 0;\n    \"reply_id\" = 0;\n    \"sticker_icon\" =     (\n    );\n    time = \"2019-04-13 16:13:22\";\n    u =     {\n        \"followers_count_text\" = \"\";\n        id = 18471735;\n        \"is_prime\" = 0;\n        lv = 0;\n        lvl = 6;\n        n = \"\\U8f69\\U8f95\\U5b64\\U6b87\";\n        p = \"http:\/\/tx1.douguo.net\/upload\/photo\/f\/1\/8\/70_u97627603526047135418.jpg\";\n        \"progress_image\" = \"\";\n        \"recipes_count_text\" = \"\";\n        relationship = \"-1\";\n        title = \"\";\n        v = 0;\n        \"verified_image\" = \"\";\n    };\n}",
        "{\n    ac = \"#999999\";\n    at = \"\\U5317\\U4eac\\U5e02\";\n    ccc = 0;\n    \"child_comments\" =     (\n    );\n    city = \"\\U5317\\U4eac\\U5e02\";\n    cmc = 2;\n    content =     (\n                {\n            c = \"\\U8fd9\\U4e2a\\U86cb\\U7cd5\\U5377\\U6df1\\U5f97\\U6211\\U5fc3\";\n        }\n    );\n    ia = 0;\n    id = 7593726;\n    \"ip_address_location\" = \"\";\n    like = 0;\n    \"like_count\" = 0;\n    \"reply_id\" = 0;\n    \"sticker_icon\" =     (\n    );\n    time = \"2020-02-05 23:26:30\";\n    u =     {\n        \"followers_count_text\" = \"\";\n        id = 24027967;\n        \"is_prime\" = 0;\n        lv = 0;\n        lvl = 6;\n        n = \"\\U6613\\U5b890812\";\n        p = \"http:\/\/tx1.douguo.net\/upload\/photo\/e\/d\/1\/70_u62655349674267101250.jpeg\";\n        \"progress_image\" = \"\";\n        \"recipes_count_text\" = \"\";\n        relationship = \"-1\";\n        title = \"\";\n        v = 0;\n        \"verified_image\" = \"\";\n    };\n}"
      ],
      "hq" : 1,
      "btm_dsp" : [

      ],
      "clicks" : "294648",
      "image" : "http:\/\/i1.douguo.net\/upload\/caiku\/2\/8\/3\/300_289c02395563097eff72a7ff6cce5d13.jpeg",
      "cookstep" : [
        {
          "content" : "准备食材",
          "image" : "https:\/\/i1.douguo.com\/upload\/caiku\/e\/d\/f\/ed610adb2be8f4a421fdb40e49aafd0f.jpeg",
          "image_width" : 1280,
          "thumb" : "https:\/\/i1.douguo.com\/upload\/caiku\/e\/d\/f\/140_ed610adb2be8f4a421fdb40e49aafd0f.jpeg",
          "frame" : "-1",
          "position" : 1,
          "image_height" : 960
        },
        {
          "image_height" : 960,
          "thumb" : "https:\/\/i1.douguo.com\/upload\/caiku\/e\/6\/1\/140_e67c2f6073c4121d6794f707717ca991.jpeg",
          "frame" : "-1",
          "position" : 2,
          "image_width" : 1280,
          "content" : "蛋黄蛋白分离",
          "image" : "https:\/\/i1.douguo.com\/upload\/caiku\/e\/6\/1\/e67c2f6073c4121d6794f707717ca991.jpeg"
        },
        {
          "image" : "https:\/\/i1.douguo.com\/upload\/caiku\/0\/b\/2\/0bc60be6da55f92f1c676f4aeb006072.jpeg",
          "image_width" : 1280,
          "image_height" : 960,
          "thumb" : "https:\/\/i1.douguo.com\/upload\/caiku\/0\/b\/2\/140_0bc60be6da55f92f1c676f4aeb006072.jpeg",
          "content" : "蛋黄盆中倒入牛奶和玉米油",
          "position" : 3,
          "frame" : "-1"
        },
        {
          "frame" : "-1",
          "content" : "搅拌均匀",
          "image" : "https:\/\/i1.douguo.com\/upload\/caiku\/3\/a\/4\/3af7c2e95fe5d5d28f283126ba343374.jpeg",
          "image_width" : 1280,
          "image_height" : 960,
          "position" : 4,
          "thumb" : "https:\/\/i1.douguo.com\/upload\/caiku\/3\/a\/4\/140_3af7c2e95fe5d5d28f283126ba343374.jpeg"
        },
        {
          "image_width" : 1280,
          "image_height" : 960,
          "position" : 5,
          "content" : "筛入低粉",
          "image" : "https:\/\/i1.douguo.com\/upload\/caiku\/f\/6\/6\/f65dc3c40a2bb52c23251e9dd681c9d6.jpeg",
          "frame" : "-1",
          "thumb" : "https:\/\/i1.douguo.com\/upload\/caiku\/f\/6\/6\/140_f65dc3c40a2bb52c23251e9dd681c9d6.jpeg"
        },
        {
          "image_height" : 960,
          "image_width" : 1280,
          "position" : 6,
          "image" : "https:\/\/i1.douguo.com\/upload\/caiku\/8\/b\/2\/8b760ddca17a384f49b21fa745b6fa22.jpeg",
          "frame" : "-1",
          "thumb" : "https:\/\/i1.douguo.com\/upload\/caiku\/8\/b\/2\/140_8b760ddca17a384f49b21fa745b6fa22.jpeg",
          "content" : "搅拌均匀，像图片这样，这时候烤箱预热170度5分钟"
        },
        {
          "image_width" : 1280,
          "position" : 7,
          "image_height" : 960,
          "image" : "https:\/\/i1.douguo.com\/upload\/caiku\/c\/e\/2\/ce2e060f2c3738e84142b32ef797feb2.jpeg",
          "content" : "蛋清中加入三滴白醋",
          "frame" : "-1",
          "thumb" : "https:\/\/i1.douguo.com\/upload\/caiku\/c\/e\/2\/140_ce2e060f2c3738e84142b32ef797feb2.jpeg"
        },
        {
          "image" : "https:\/\/i1.douguo.com\/upload\/caiku\/7\/1\/0\/717d8ab292f63046e2f414d2f370ba80.jpeg",
          "image_height" : 960,
          "image_width" : 1280,
          "position" : 8,
          "frame" : "-1",
          "content" : "鱼眼泡加入第一次白砂糖",
          "thumb" : "https:\/\/i1.douguo.com\/upload\/caiku\/7\/1\/0\/140_717d8ab292f63046e2f414d2f370ba80.jpeg"
        },
        {
          "image_height" : 960,
          "content" : "细腻纹理加入第二次白砂糖",
          "image_width" : 1280,
          "image" : "https:\/\/i1.douguo.com\/upload\/caiku\/c\/a\/b\/ca5f47262c47a07035dae0a960779c2b.jpeg",
          "frame" : "-1",
          "thumb" : "https:\/\/i1.douguo.com\/upload\/caiku\/c\/a\/b\/140_ca5f47262c47a07035dae0a960779c2b.jpeg",
          "position" : 9
        },
        {
          "image_width" : 1280,
          "frame" : "-1",
          "image_height" : 960,
          "position" : 10,
          "image" : "https:\/\/i1.douguo.com\/upload\/caiku\/7\/b\/d\/7b9e9426af657734326ddbba044baded.jpeg",
          "content" : "明显纹路加入第三次细砂糖",
          "thumb" : "https:\/\/i1.douguo.com\/upload\/caiku\/7\/b\/d\/140_7b9e9426af657734326ddbba044baded.jpeg"
        },
        {
          "image_width" : 1280,
          "image_height" : 960,
          "thumb" : "https:\/\/i1.douguo.com\/upload\/caiku\/f\/7\/7\/140_f792dc32dba4f9d71daf46c4f20a6bb7.jpeg",
          "image" : "https:\/\/i1.douguo.com\/upload\/caiku\/f\/7\/7\/f792dc32dba4f9d71daf46c4f20a6bb7.jpeg",
          "frame" : "-1",
          "position" : 11,
          "content" : "取1\/3蛋白倒入蛋黄糊中，搅拌均匀，这一部别怕消泡，一定要搅拌均匀，要不然会有果冻层"
        },
        {
          "position" : 12,
          "image" : "https:\/\/i1.douguo.com\/upload\/caiku\/6\/4\/7\/647f1e7a5f78370bea9101d24310f817.jpeg",
          "frame" : "-1",
          "content" : "搅拌好再倒回蛋白盆中，搅拌均匀",
          "image_height" : 960,
          "image_width" : 1280,
          "thumb" : "https:\/\/i1.douguo.com\/upload\/caiku\/6\/4\/7\/140_647f1e7a5f78370bea9101d24310f817.jpeg"
        },
        {
          "content" : "倒入烤盘轻震出气泡，撒上香葱和肉松",
          "image" : "https:\/\/i1.douguo.com\/upload\/caiku\/1\/1\/1\/113d5f0e321a329afce5838c0d9bb881.jpeg",
          "frame" : "-1",
          "image_height" : 960,
          "image_width" : 1280,
          "thumb" : "https:\/\/i1.douguo.com\/upload\/caiku\/1\/1\/1\/140_113d5f0e321a329afce5838c0d9bb881.jpeg",
          "position" : 13
        },
        {
          "position" : 14,
          "frame" : "-1",
          "content" : "放入烤盘170度25分钟，放入烤箱中层",
          "image_width" : 1280,
          "thumb" : "https:\/\/i1.douguo.com\/upload\/caiku\/7\/0\/e\/140_700d9fcc610ea2b0e3a6c1d9dabca4ae.jpeg",
          "image_height" : 960,
          "image" : "https:\/\/i1.douguo.com\/upload\/caiku\/7\/0\/e\/700d9fcc610ea2b0e3a6c1d9dabca4ae.jpeg"
        },
        {
          "image_height" : 960,
          "frame" : "-1",
          "content" : "出炉后，在表面挤上沙拉酱撒上肉松，卷成蛋糕卷就可以",
          "position" : 15,
          "image" : "https:\/\/i1.douguo.com\/upload\/caiku\/4\/f\/1\/4f4c95031c33b6437616c60e36ff3001.jpeg",
          "image_width" : 1280,
          "thumb" : "https:\/\/i1.douguo.com\/upload\/caiku\/4\/f\/1\/140_4f4c95031c33b6437616c60e36ff3001.jpeg"
        },
        {
          "position" : 16,
          "image_height" : 960,
          "content" : "开吃",
          "frame" : "-1",
          "thumb" : "https:\/\/i1.douguo.com\/upload\/caiku\/d\/c\/d\/140_dccdb21577a61b8d27f4e18526ffc42d.jpeg",
          "image_width" : 1280,
          "image" : "https:\/\/i1.douguo.com\/upload\/caiku\/d\/c\/d\/dccdb21577a61b8d27f4e18526ffc42d.jpeg"
        }
      ],
      "author_verified" : 1,
      "purl" : "",
      "hqu" : "recipes:\/\/www.douguo.com\/notedetail?id=21162253",
      "dish_count" : 0,
      "rate_count" : 0,
      "views_count_text" : "31.2万",
      "release_time" : "",
      "cookstory" : "此配方是一个28*28烤盘的量",
      "first_level_comment_count" : 2,
      "collect_status" : 0,
      "brand_day_dsp" : [

      ],
      "ipurl" : "",
      "cook_id" : "2287546",
      "packages_id" : [

      ],
      "ipit" : 0,
      "vc" : "311924",
      "recommend_label" : "6357人刚刚收藏过",
      "favo_counts_text" : "6357",
      "comments_count_text" : "3",
      "cookstorys" : [
        {
          "id" : 0,
          "color" : "",
          "type" : 0,
          "c" : "此配方是一个28*28烤盘的量",
          "icon" : "",
          "u" : ""
        }
      ],
      "top_mdsp" : [

      ],
      "cook_time_image" : "https:\/\/i1.douguo.com\/upload\/banner\/1551423815.png",
      "ipt" : "",
      "share_info" : {
        "object_id" : "2287546",
        "name" : "#春季减肥，边吃边瘦#带着葱香沾着肉松的蛋糕卷-会做饭很酷!",
        "qr_image" : "",
        "image" : "https:\/\/cp1.douguo.com\/upload\/caiku\/2\/8\/3\/289c02395563097eff72a7ff6cce5d13.jpeg",
        "s_u" : "http:\/\/m.douguo.com\/cookbook\/2287546.html",
        "s_d" : "#春季减肥，边吃边瘦#带着葱香沾着肉松的蛋糕卷-会做饭很酷!",
        "mini_program" : [

        ],
        "infos" : [
          {
            "s_d" : "#学做饭用豆果美食#  我在@豆果美食 分享了【#春季减肥，边吃边瘦#带着葱香沾着肉松的蛋糕卷-会做饭很酷!】，制作美食的过程承载了我生活中的热情，和我一起感受这份小确幸吧！查看图片了解菜谱（你喜欢的美食都在这里！https:\/\/m.weibo.cn\/p\/100404i33631）#会做饭很酷# ",
            "name" : "#春季减肥，边吃边瘦#带着葱香沾着肉松的蛋糕卷-会做饭很酷!",
            "mini_program" : [

            ],
            "qr_image" : "",
            "s_u" : "",
            "object_id" : "2287546",
            "channel" : "1",
            "image" : "https:\/\/cp1.douguo.com\/upload\/caiku\/2\/8\/3\/289c02395563097eff72a7ff6cce5d13.jpeg"
          },
          {
            "name" : "#春季减肥，边吃边瘦#带着葱香沾着肉松的蛋糕卷-会做饭很酷!",
            "object_id" : "2287546",
            "qr_image" : "",
            "s_u" : "http:\/\/m.douguo.com\/cookbook\/2287546.html",
            "image" : "https:\/\/cp1.douguo.com\/upload\/caiku\/2\/8\/3\/289c02395563097eff72a7ff6cce5d13.jpeg",
            "s_d" : "#春季减肥，边吃边瘦#带着葱香沾着肉松的蛋糕卷-会做饭很酷!",
            "channel" : "7",
            "mini_program" : [

            ]
          },
          {
            "channel" : "8",
            "mini_program" : [

            ],
            "name" : "#春季减肥，边吃边瘦#带着葱香沾着肉松的蛋糕卷-会做饭很酷!",
            "object_id" : "2287546",
            "s_u" : "http:\/\/m.douguo.com\/cookbook\/2287546.html",
            "image" : "https:\/\/cp1.douguo.com\/upload\/caiku\/2\/8\/3\/289c02395563097eff72a7ff6cce5d13.jpeg",
            "s_d" : "#春季减肥，边吃边瘦#带着葱香沾着肉松的蛋糕卷-会做饭很酷!",
            "qr_image" : ""
          }
        ]
      },
      "ssu" : "",
      "favo_counts" : 6357,
      "event" : {
        "url" : "https:\/\/m.douguo.com\/activity\/ncpzj\/detail\/2683?isapp=1&open=0&_vs=1000300&&dg_refreshkey=publishnote",
        "id" : 2683,
        "name" : "金龙鱼精英100%烘焙大师赛"
      },
      "mid_mdsp" : [

      ],
      "recipe_tags" : [

      ],
      "rate" : 0
    }
  },
  "state" : "success"
}