{
  "result" : {
    "recipe" : {
      "rate_show" : 1,
      "hq" : 1,
      "ipt" : "",
      "top_mdsp" : [

      ],
      "vu" : "",
      "tips" : "鸡胸肉片开一切二，可以节约煮的时间，还有这样煮出来的鸡胸肉口感不柴。 喜欢花生酱的可以淋上一点，也可以按个人口味调味。",
      "sr" : "",
      "author_id" : 16627624,
      "v_u" : "",
      "old_comments" : [

      ],
      "recommended" : 0,
      "ipoi" : "",
      "ipit" : 0,
      "recipe_list_tags" : [
        {
          "background_border_color" : "",
          "jump_url" : "",
          "text_color" : "#141515",
          "background_end_color" : "#F4F5F5",
          "right_image" : "",
          "text" : "关注的人",
          "background_start_color" : "#F4F5F5"
        },
        {
          "background_border_color" : "",
          "jump_url" : "",
          "background_start_color" : "#F4F5F5",
          "background_end_color" : "#F4F5F5",
          "text_color" : "#141515",
          "right_image" : "",
          "text" : "内容详细"
        }
      ],
      "rpt" : "",
      "cook_time_image" : "https:\/\/i1.douguo.com\/upload\/banner\/1551424358.png",
      "user" : {
        "lv" : 0,
        "qzone_nick" : "",
        "favor_diaries_count" : 0,
        "avatar_medium" : "http:\/\/tx1.douguo.net\/upload\/photo\/2\/1\/4\/140_u55968356313010234901.jpg",
        "birthday" : "",
        "qq_weibo_nick" : "",
        "userid" : "16627624",
        "gender" : 2,
        "progress_image" : "",
        "fc" : 0,
        "diaries_count" : 0,
        "coursecount" : 0,
        "age" : "",
        "verified" : 1,
        "recipes_count" : 0,
        "favorites_count" : 0,
        "introduction" : "",
        "user_cover" : "",
        "email" : "",
        "user_photo" : "http:\/\/tx1.douguo.net\/upload\/photo\/2\/1\/4\/70_u55968356313010234901.jpg",
        "regist_time" : "",
        "followers_count" : 0,
        "location" : 0,
        "verified_url" : "https:\/\/m.douguo.com\/user\/prodesc",
        "following_count" : 0,
        "dishes_count" : 0,
        "setted_email" : 0,
        "pc" : 0,
        "verified_image" : "https:\/\/i1.douguo.com\/upload\/note\/d\/a\/a\/da84247847aebe48d9dd0fcdac88862a.png",
        "point" : 0,
        "user_large_photo" : "http:\/\/tx1.douguo.net\/upload\/photo\/2\/1\/4\/yuan_u55968356313010234901.jpg",
        "is_prime" : 0,
        "nick" : "枭笑",
        "subscription" : 0,
        "lvl" : 8,
        "weibo_nick" : "",
        "sign" : "",
        "mobile" : "",
        "user_id" : "16627624",
        "subscription_article_count" : 0
      },
      "comments_count" : 43,
      "rpid" : 0,
      "minor" : [

      ],
      "rdsps" : [

      ],
      "btm_dsp" : [

      ],
      "levelid" : 2,
      "original_photo_path" : "http:\/\/i1.douguo.net\/upload\/caiku\/e\/d\/7\/yuan_eda71d375c0cce405b15774219ea24e7.jpg",
      "rsm" : "该功能暂停使用",
      "collect_status" : 0,
      "create_time" : "2019-08-04 07:43:16",
      "vfurl" : "",
      "rrps" : [

      ],
      "major" : [
        {
          "note" : "1块",
          "title" : "鸡胸肉",
          "tu" : "https:\/\/m.douguo.com\/ingredients\/鸡胸肉\/detailmaterial"
        },
        {
          "note" : "1根",
          "title" : "黄瓜",
          "tu" : "https:\/\/m.douguo.com\/ingredients\/黄瓜\/detailmaterial"
        },
        {
          "note" : "半根",
          "title" : "胡萝卜",
          "tu" : "https:\/\/m.douguo.com\/ingredients\/胡萝卜\/detailmaterial"
        },
        {
          "title" : "大蒜",
          "tu" : "https:\/\/m.douguo.com\/ingredients\/大蒜\/detailmaterial",
          "note" : "2瓣"
        },
        {
          "title" : "小葱",
          "note" : "2颗",
          "tu" : "https:\/\/m.douguo.com\/ingredients\/小葱\/detailmaterial"
        },
        {
          "title" : "甘汁园双碳绵白糖",
          "note" : "5g"
        },
        {
          "note" : "1勺",
          "title" : "老干妈辣酱"
        },
        {
          "title" : "剁椒酱",
          "note" : "1勺"
        },
        {
          "title" : "生抽",
          "tu" : "https:\/\/m.douguo.com\/ingredients\/生抽\/detailmaterial",
          "note" : "1勺"
        },
        {
          "note" : "依个人口味",
          "title" : "香醋",
          "tu" : "https:\/\/m.douguo.com\/ingredients\/香醋\/detailmaterial"
        },
        {
          "note" : "适量",
          "title" : "熟花生米"
        },
        {
          "tu" : "https:\/\/m.douguo.com\/ingredients\/料酒\/detailmaterial",
          "title" : "料酒",
          "note" : "1勺"
        },
        {
          "note" : "依个人口味",
          "title" : "盐",
          "tu" : "https:\/\/m.douguo.com\/ingredients\/盐\/detailmaterial"
        },
        {
          "title" : "熟白芝麻",
          "note" : "少许"
        }
      ],
      "notes" : [

      ],
      "rate" : 5,
      "event" : {
        "id" : 0
      },
      "tags" : [

      ],
      "bs" : [

      ],
      "comments_count_text" : "43",
      "recipe_tags" : [

      ],
      "related_ads" : [

      ],
      "ipci" : "",
      "dishes" : [

      ],
      "favo_counts_text" : "1.6万",
      "title_ad" : [

      ],
      "ss" : [

      ],
      "cook_difficulty" : "切墩(初级)",
      "image" : "http:\/\/i1.douguo.net\/upload\/caiku\/e\/d\/7\/300_eda71d375c0cce405b15774219ea24e7.jpg",
      "guide_image" : "",
      "packages_id" : [

      ],
      "comments" : [
        "{\n    ac = \"#999999\";\n    at = \"\\U4e0a\\U6d77\\U5e02\";\n    ccc = 7;\n    \"child_comments\" =     (\n                {\n            ac = \"#999999\";\n            at = \"\\U65e0\\U9521\\U5e02\";\n            ccc = 0;\n            city = \"\\U65e0\\U9521\\U5e02\";\n            cmc = 2;\n            content =             (\n                                {\n                    c = \" \\U4e70\\U73b0\\U6210\\U7684\";\n                }\n            );\n            ia = 0;\n            id = 8736855;\n            \"ip_address_location\" = \"\";\n            like = 0;\n            \"like_count\" = 0;\n            \"reply_id\" = 8643578;\n            \"reply_user\" =             {\n                \"followers_count_text\" = \"\";\n                id = 26199791;\n                \"is_prime\" = 0;\n                lv = 0;\n                lvl = 1;\n                n = \"\\U5c34\\U5c2c\\U7684\\U8c4c\\U8c46\\U82d7\\U5f88\\U5b64\\U5355\";\n                p = \"http:\/\/tx1.douguo.net\/upload\/photo\/1\/1\/1\/70_12317e81bcc028bd2ba1944cdbf40d15.png\";\n                \"progress_image\" = \"\";\n                \"recipes_count_text\" = \"\";\n                relationship = \"-1\";\n                title = \"\";\n                v = 0;\n                \"verified_image\" = \"\";\n            };\n            \"sticker_icon\" =             (\n            );\n            time = \"2021-07-16 19:03:46\";\n            u =             {\n                \"followers_count_text\" = \"\";\n                id = 15892149;\n                \"is_prime\" = 0;\n                lv = 0;\n                lvl = 1;\n                n = \"Dandelion-G\";\n                p = \"http:\/\/tx1.douguo.net\/upload\/photo\/f\/3\/9\/70_u504079578861174512.jpeg\";\n                \"progress_image\" = \"\";\n                \"recipes_count_text\" = \"\";\n                relationship = \"-1\";\n                title = \"\";\n                v = 0;\n                \"verified_image\" = \"\";\n            };\n        },\n                {\n            ac = \"#999999\";\n            at = \"\";\n            ccc = 0;\n            city = \"\";\n            cmc = 2;\n            content =             (\n                                {\n                    c = \" \\U7528\\U5200\\U5207\\Ud83d\\Udd2a\";\n                }\n            );\n            ia = 0;\n            id = 8760919;\n            \"ip_address_location\" = \"\";\n            like = 0;\n            \"like_count\" = 0;\n            \"reply_id\" = 8643578;\n            \"reply_user\" =             {\n                \"followers_count_text\" = \"\";\n                id = 26199791;\n                \"is_prime\" = 0;\n                lv = 0;\n                lvl = 1;\n                n = \"\\U5c34\\U5c2c\\U7684\\U8c4c\\U8c46\\U82d7\\U5f88\\U5b64\\U5355\";\n                p = \"http:\/\/tx1.douguo.net\/upload\/photo\/1\/1\/1\/70_12317e81bcc028bd2ba1944cdbf40d15.png\";\n                \"progress_image\" = \"\";\n                \"recipes_count_text\" = \"\";\n                relationship = \"-1\";\n                title = \"\";\n                v = 0;\n                \"verified_image\" = \"\";\n            };\n            \"sticker_icon\" =             (\n            );\n            time = \"2021-08-16 18:11:30\";\n            u =             {\n                \"followers_count_text\" = \"\";\n                id = 22789767;\n                \"is_prime\" = 0;\n                lv = 0;\n                lvl = 1;\n                n = \"\\U827e\\U8349\\U7684\\U4fe1\\U554a\";\n                p = \"http:\/\/tx1.douguo.net\/upload\/photo\/0\/b\/4\/70_u39330774870882155238.jpeg\";\n                \"progress_image\" = \"\";\n                \"recipes_count_text\" = \"\";\n                relationship = \"-1\";\n                title = \"\";\n                v = 0;\n                \"verified_image\" = \"\";\n            };\n        }\n    );\n    city = \"\\U4e0a\\U6d77\\U5e02\";\n    cmc = 2;\n    content =     (\n                {\n            c = \"\\U53ef\\U4ee5\\U727a\\U7272\\U53e3\\U611f\\U7684\\U524d\\U63d0\\U4e0b\\Uff0c\\U6709\\U6ca1\\U6709\\U529e\\U6cd5\\U5feb\\U901f\\U6495\\U7684\\U529e\\U6cd5\\Uff0c\\U624b\\U6495\\U8981\\U82b1\\U597d\\U4e45\\U54c7\";\n        }\n    );\n    ia = 0;\n    id = 8643578;\n    \"ip_address_location\" = \"\";\n    like = 0;\n    \"like_count\" = 1;\n    \"reply_id\" = 0;\n    \"sticker_icon\" =     (\n    );\n    time = \"2021-04-29 23:11:10\";\n    u =     {\n        \"followers_count_text\" = \"\";\n        id = 26199791;\n        \"is_prime\" = 0;\n        lv = 0;\n        lvl = 1;\n        n = \"\\U5c34\\U5c2c\\U7684\\U8c4c\\U8c46\\U82d7\\U5f88\\U5b64\\U5355\";\n        p = \"http:\/\/tx1.douguo.net\/upload\/photo\/1\/1\/1\/70_12317e81bcc028bd2ba1944cdbf40d15.png\";\n        \"progress_image\" = \"\";\n        \"recipes_count_text\" = \"\";\n        relationship = \"-1\";\n        title = \"\";\n        v = 0;\n        \"verified_image\" = \"\";\n    };\n}",
        "{\n    ac = \"#999999\";\n    at = \"\\U676d\\U5dde\\U5e02\";\n    ccc = 2;\n    \"child_comments\" =     (\n                {\n            ac = \"#999999\";\n            at = \"\";\n            ccc = 0;\n            city = \"\";\n            cmc = 2;\n            content =             (\n                                {\n                    c = \" \\U51b7\\U6c34\\U4e0b\\U9505\";\n                }\n            );\n            ia = 1;\n            id = 8076691;\n            \"ip_address_location\" = \"\";\n            like = 0;\n            \"like_count\" = 0;\n            \"reply_id\" = 8076543;\n            \"reply_user\" =             {\n                \"followers_count_text\" = \"\";\n                id = 25601134;\n                \"is_prime\" = 0;\n                lv = 0;\n                lvl = 1;\n                n = \"\\U5fd7\\U6210svbr\";\n                p = \"http:\/\/tx1.douguo.net\/upload\/photo\/1\/1\/1\/70_8bb9e303921017ed2e50b5f8589a76d8.png\";\n                \"progress_image\" = \"\";\n                \"recipes_count_text\" = \"\";\n                relationship = \"-1\";\n                title = \"\";\n                v = 0;\n                \"verified_image\" = \"\";\n            };\n            \"sticker_icon\" =             (\n            );\n            time = \"2020-06-17 07:10:58\";\n            u =             {\n                \"followers_count_text\" = \"\";\n                id = 16627624;\n                \"is_prime\" = 0;\n                lv = 0;\n                lvl = 8;\n                n = \"\\U67ad\\U7b11\";\n                p = \"http:\/\/tx1.douguo.net\/upload\/photo\/2\/1\/4\/70_u55968356313010234901.jpg\";\n                \"progress_image\" = \"\";\n                \"recipes_count_text\" = \"\";\n                relationship = \"-1\";\n                title = \"\";\n                v = 1;\n                \"verified_image\" = \"\";\n            };\n        },\n                {\n            ac = \"#999999\";\n            at = \"\";\n            ccc = 0;\n            city = \"\";\n            cmc = 2;\n            content =             (\n                                {\n                    c = \" sa\";\n                }\n            );\n            ia = 0;\n            id = 8636596;\n            \"ip_address_location\" = \"\";\n            like = 0;\n            \"like_count\" = 0;\n            \"reply_id\" = 8076543;\n            \"reply_user\" =             {\n                \"followers_count_text\" = \"\";\n                id = 25601134;\n                \"is_prime\" = 0;\n                lv = 0;\n                lvl = 1;\n                n = \"\\U5fd7\\U6210svbr\";\n                p = \"http:\/\/tx1.douguo.net\/upload\/photo\/1\/1\/1\/70_8bb9e303921017ed2e50b5f8589a76d8.png\";\n                \"progress_image\" = \"\";\n                \"recipes_count_text\" = \"\";\n                relationship = \"-1\";\n                title = \"\";\n                v = 0;\n                \"verified_image\" = \"\";\n            };\n            \"sticker_icon\" =             (\n            );\n            time = \"2021-04-26 23:01:43\";\n            u =             {\n                \"followers_count_text\" = \"\";\n                id = 25425318;\n                \"is_prime\" = 0;\n                lv = 0;\n                lvl = 1;\n                n = \"\\U9ecf\\U5527\\U5527\\U7684\\U571f\\U9e21\";\n                p = \"http:\/\/tx1.douguo.net\/upload\/photo\/1\/1\/1\/70_055852722984baca45384a10494b2d45.png\";\n                \"progress_image\" = \"\";\n                \"recipes_count_text\" = \"\";\n                relationship = \"-1\";\n                title = \"\";\n                v = 0;\n                \"verified_image\" = \"\";\n            };\n        }\n    );\n    city = \"\\U676d\\U5dde\\U5e02\";\n    cmc = 2;\n    content =     (\n                {\n            c = \"\\U51b7\\U6c34\\U716e\\U9e21\\U812f\\U8089\\U8fd8\\U662f\\U6c34\\U5f00\\U4e86\\U518d\\U653e\\U5462\";\n        }\n    );\n    ia = 0;\n    id = 8076543;\n    \"ip_address_location\" = \"\";\n    like = 0;\n    \"like_count\" = 2;\n    \"reply_id\" = 0;\n    \"sticker_icon\" =     (\n    );\n    time = \"2020-06-17 01:44:41\";\n    u =     {\n        \"followers_count_text\" = \"\";\n        id = 25601134;\n        \"is_prime\" = 0;\n        lv = 0;\n        lvl = 1;\n        n = \"\\U5fd7\\U6210svbr\";\n        p = \"http:\/\/tx1.douguo.net\/upload\/photo\/1\/1\/1\/70_8bb9e303921017ed2e50b5f8589a76d8.png\";\n        \"progress_image\" = \"\";\n        \"recipes_count_text\" = \"\";\n        relationship = \"-1\";\n        title = \"\";\n        v = 0;\n        \"verified_image\" = \"\";\n    };\n}",
        "{\n    ac = \"#999999\";\n    at = \"\";\n    ccc = 1;\n    \"child_comments\" =     (\n                {\n            ac = \"#999999\";\n            at = \"\\U4e0a\\U6d77\\U5e02\";\n            ccc = 0;\n            city = \"\\U4e0a\\U6d77\\U5e02\";\n            cmc = 2;\n            content =             (\n                                {\n                    c = \" \\Ud83c\\Udf39\\Ud83c\\Udf39\\Ud83d\\Udc4f\";\n                }\n            );\n            ia = 1;\n            id = 8957059;\n            \"ip_address_location\" = \"\";\n            like = 0;\n            \"like_count\" = 0;\n            \"reply_id\" = 8957004;\n            \"reply_user\" =             {\n                \"followers_count_text\" = \"\";\n                id = 18096914;\n                \"is_prime\" = 0;\n                lv = 0;\n                lvl = 2;\n                n = yvenne;\n                p = \"http:\/\/tx1.douguo.net\/upload\/photo\/5\/b\/8\/70_u69302619386163175905.jpeg\";\n                \"progress_image\" = \"\";\n                \"recipes_count_text\" = \"\";\n                relationship = \"-1\";\n                title = \"\";\n                v = 0;\n                \"verified_image\" = \"\";\n            };\n            \"sticker_icon\" =             (\n            );\n            time = \"2022-07-21 08:33:18\";\n            u =             {\n                \"followers_count_text\" = \"\";\n                id = 16627624;\n                \"is_prime\" = 0;\n                lv = 0;\n                lvl = 8;\n                n = \"\\U67ad\\U7b11\";\n                p = \"http:\/\/tx1.douguo.net\/upload\/photo\/2\/1\/4\/70_u55968356313010234901.jpg\";\n                \"progress_image\" = \"\";\n                \"recipes_count_text\" = \"\";\n                relationship = \"-1\";\n                title = \"\";\n                v = 1;\n                \"verified_image\" = \"\";\n            };\n        }\n    );\n    city = \"\";\n    cmc = 2;\n    content =     (\n                {\n            c = \"\\U8ddf\\U7740\\U505a\\U4e86\\Uff0c\\U5f88\\U597d\\U5403\\Uff0c\\U9664\\U4e86\\U7f3a\\U70b9\\U8fa3\\U53c8\\U653e\\U4e86\\U4e00\\U4e2a\\U5c0f\\U7c73\\U6912\\Uff0c\\U7b80\\U76f4\\U5b8c\\U7f8e\\Uff01\\U6d17\\U7897\\U7684\\U65f6\\U5019\\U90a3\\U4e2a\\U6599\\U6c41\\U90a3\\U4e2a\\U9999\\Uff0c\\U771f\\U7684\\U90fd\\U820d\\U4e0d\\U5f97\\U5012\\U6389555555\";\n        }\n    );\n    ia = 0;\n    id = 8957004;\n    \"ip_address_location\" = \"\";\n    like = 0;\n    \"like_count\" = 2;\n    \"reply_id\" = 0;\n    \"sticker_icon\" =     (\n    );\n    time = \"2022-07-20 20:35:34\";\n    u =     {\n        \"followers_count_text\" = \"\";\n        id = 18096914;\n        \"is_prime\" = 0;\n        lv = 0;\n        lvl = 2;\n        n = yvenne;\n        p = \"http:\/\/tx1.douguo.net\/upload\/photo\/5\/b\/8\/70_u69302619386163175905.jpeg\";\n        \"progress_image\" = \"\";\n        \"recipes_count_text\" = \"\";\n        relationship = \"-1\";\n        title = \"\";\n        v = 0;\n        \"verified_image\" = \"\";\n    };\n}"
      ],
      "pw" : 1280,
      "eu" : "recipes:\/\/www.douguo.com\/postdetail?id=242016",
      "vc" : "1523988",
      "ecs" : 0,
      "mid_mdsp" : [

      ],
      "rate_count" : 55,
      "cook_time" : "10分钟左右",
      "display_ingredient" : 1,
      "cook_id" : "2326523",
      "recommend_label" : "63人学做",
      "author" : "枭笑",
      "cookstep" : [
        {
          "content" : "准备食材，配菜可以根据喜欢任意搭配。",
          "image_width" : 1280,
          "thumb" : "https:\/\/i1.douguo.com\/upload\/caiku\/c\/c\/b\/140_cc924db6e8183d9f5791690b1a9dcf9b.jpg",
          "position" : 1,
          "image_height" : 960,
          "image" : "https:\/\/i1.douguo.com\/upload\/caiku\/c\/c\/b\/cc924db6e8183d9f5791690b1a9dcf9b.jpg",
          "frame" : "-1"
        },
        {
          "frame" : "-1",
          "image" : "https:\/\/i1.douguo.com\/upload\/caiku\/d\/f\/f\/df90f7251586df145b71f3824624d2bf.jpg",
          "content" : "首先将鸡胸肉洗干净，从中间切开，一切二。",
          "thumb" : "https:\/\/i1.douguo.com\/upload\/caiku\/d\/f\/f\/140_df90f7251586df145b71f3824624d2bf.jpg",
          "position" : 2,
          "image_width" : 800,
          "image_height" : 600
        },
        {
          "thumb" : "https:\/\/i1.douguo.com\/upload\/caiku\/4\/b\/a\/140_4b12b68a2fb01a14d678c72c4c05c16a.jpg",
          "image" : "https:\/\/i1.douguo.com\/upload\/caiku\/4\/b\/a\/4b12b68a2fb01a14d678c72c4c05c16a.jpg",
          "image_width" : 1280,
          "position" : 3,
          "frame" : "-1",
          "image_height" : 960,
          "content" : "锅中加水，料酒，葱，姜片烧开，放入鸡胸肉大火煮4-5分钟，焖3分钟。"
        },
        {
          "thumb" : "https:\/\/i1.douguo.com\/upload\/caiku\/f\/8\/4\/140_f8d39614c823788e0ac811c76ff4e8d4.jpg",
          "content" : "利用这时间准备配菜，黄瓜洗干净切丝，胡萝卜去皮切丝。",
          "image" : "https:\/\/i1.douguo.com\/upload\/caiku\/f\/8\/4\/f8d39614c823788e0ac811c76ff4e8d4.jpg",
          "position" : 4,
          "image_height" : 600,
          "image_width" : 800,
          "frame" : "-1"
        },
        {
          "position" : 5,
          "content" : "煮熟的鸡胸肉用冷水冲洗，再手撕成条状。",
          "image_width" : 800,
          "image_height" : 600,
          "thumb" : "https:\/\/i1.douguo.com\/upload\/caiku\/c\/6\/b\/140_c6fcdb7ffcf6286507846cc1ec38c7db.jpg",
          "frame" : "-1",
          "image" : "https:\/\/i1.douguo.com\/upload\/caiku\/c\/6\/b\/c6fcdb7ffcf6286507846cc1ec38c7db.jpg"
        },
        {
          "content" : "大蒜去皮切碎，小葱去皮，切段，准备工作做好。",
          "thumb" : "https:\/\/i1.douguo.com\/upload\/caiku\/e\/5\/e\/140_e58d9b53529d63d89e6cdad8f40af49e.jpg",
          "frame" : "-1",
          "image_height" : 600,
          "image_width" : 800,
          "position" : 6,
          "image" : "https:\/\/i1.douguo.com\/upload\/caiku\/e\/5\/e\/e58d9b53529d63d89e6cdad8f40af49e.jpg"
        },
        {
          "thumb" : "https:\/\/i1.douguo.com\/upload\/caiku\/7\/1\/f\/140_71a093c6ca5d91c7dc342c59b5225eef.jpg",
          "content" : "将所有调味料放入碗中，蒜末，老干妈辣酱，剁椒，盐，生抽，绵白糖，醋，搅拌均匀。",
          "position" : 7,
          "image_width" : 800,
          "frame" : "-1",
          "image_height" : 600,
          "image" : "https:\/\/i1.douguo.com\/upload\/caiku\/7\/1\/f\/71a093c6ca5d91c7dc342c59b5225eef.jpg"
        },
        {
          "thumb" : "https:\/\/i1.douguo.com\/upload\/caiku\/1\/2\/7\/140_12521027043bf4d09f3b4841acc7a217.jpg",
          "frame" : "-1",
          "image" : "https:\/\/i1.douguo.com\/upload\/caiku\/1\/2\/7\/12521027043bf4d09f3b4841acc7a217.jpg",
          "content" : "把撕好的鸡胸肉放入大碗中，再加入调味料，拌均匀即可享用。",
          "position" : 8,
          "image_height" : 600,
          "image_width" : 800
        },
        {
          "position" : 9,
          "image_height" : 600,
          "frame" : "-1",
          "image_width" : 800,
          "content" : "装盘，撒上熟白芝麻。",
          "thumb" : "https:\/\/i1.douguo.com\/upload\/caiku\/5\/e\/b\/140_5edbf78232bc44b8667a8e6d73f33e5b.jpg",
          "image" : "https:\/\/i1.douguo.com\/upload\/caiku\/5\/e\/b\/5edbf78232bc44b8667a8e6d73f33e5b.jpg"
        },
        {
          "thumb" : "https:\/\/i1.douguo.com\/upload\/caiku\/8\/a\/c\/140_8adcfdd2f6de51415720808cfb6dacec.jpg",
          "frame" : "-1",
          "content" : "口感香辣味道好，清爽可口不油腻。",
          "position" : 10,
          "image" : "https:\/\/i1.douguo.com\/upload\/caiku\/8\/a\/c\/8adcfdd2f6de51415720808cfb6dacec.jpg",
          "image_width" : 1280,
          "image_height" : 960
        },
        {
          "frame" : "-1",
          "content" : "健康低脂，好吃不胖。",
          "thumb" : "https:\/\/i1.douguo.com\/upload\/caiku\/7\/3\/2\/140_734aebba2d24495a4434b63105058202.jpg",
          "image_width" : 1280,
          "image_height" : 960,
          "image" : "https:\/\/i1.douguo.com\/upload\/caiku\/7\/3\/2\/734aebba2d24495a4434b63105058202.jpg",
          "position" : 11
        },
        {
          "thumb" : "https:\/\/i1.douguo.com\/upload\/caiku\/f\/c\/d\/140_fc87f7c4597d6690b85532e0f5c0560d.jpg",
          "image_height" : 960,
          "position" : 12,
          "frame" : "-1",
          "image" : "https:\/\/i1.douguo.com\/upload\/caiku\/f\/c\/d\/fc87f7c4597d6690b85532e0f5c0560d.jpg",
          "content" : "味道鲜美十足，好吃极了。",
          "image_width" : 1280
        },
        {
          "thumb" : "https:\/\/i1.douguo.com\/upload\/caiku\/0\/2\/b\/140_026dd3ddc6c8a6049ceaaac0e3b90c7b.jpg",
          "content" : "一人食秒光～",
          "frame" : "-1",
          "position" : 13,
          "image_width" : 800,
          "image_height" : 1067,
          "image" : "https:\/\/i1.douguo.com\/upload\/caiku\/0\/2\/b\/026dd3ddc6c8a6049ceaaac0e3b90c7b.jpg"
        }
      ],
      "cookstorys" : [
        {
          "id" : 0,
          "icon" : "",
          "color" : "",
          "type" : 0,
          "u" : "",
          "c" : "夏日快手美食～凉拌鸡丝， 口感香辣鲜美味道好，清爽可口不油腻！热量低，特别适合减肥的宝宝们食用～"
        }
      ],
      "advice" : {
        "da" : {
          "url" : "https:\/\/m.douguo.com\/recipe\/nutrient_self\/2326523",
          "iu" : "https:\/\/i1.douguo.com\/upload\/banner\/f\/4\/d\/f48877e53c37759bc12ac494be82ec8d.png",
          "t" : "查看详细分析"
        },
        "has" : [
          {
            "t" : "低脂",
            "url" : "recipes:\/\/www.douguo.com\/simplerecipelist?t=低脂&id=低脂"
          },
          {
            "t" : "低糖",
            "url" : "recipes:\/\/www.douguo.com\/simplerecipelist?t=低糖&id=低糖"
          }
        ],
        "at" : "能有效控制体重～"
      },
      "ssu" : "",
      "release_time" : "",
      "sc" : 0,
      "title" : "凉拌鸡丝",
      "act_des" : "",
      "clicks" : "842310",
      "rpst" : "",
      "rewarded_video_dsp" : [

      ],
      "su" : "",
      "ph" : 960,
      "rrpt" : "",
      "dish_count" : 63,
      "thumb_path" : "https:\/\/i1.douguo.com\/upload\/caiku\/e\/d\/7\/300_eda71d375c0cce405b15774219ea24e7.jpg",
      "recommendation_tag" : "",
      "brand_day_dsp" : [

      ],
      "cookwares" : [

      ],
      "ipia" : [

      ],
      "dish_count_text" : "63",
      "favo_counts" : 16430,
      "views_count_text" : "152.4万",
      "author_photo" : "http:\/\/tx1.douguo.net\/upload\/photo\/2\/1\/4\/70_u55968356313010234901.jpg",
      "hqu" : "recipes:\/\/www.douguo.com\/notedetail?id=21162253",
      "rcs" : [

      ],
      "cook_difficulty_image" : "https:\/\/i1.douguo.com\/upload\/banner\/1551424390.png",
      "story_dsp" : [

      ],
      "cookstory" : "夏日快手美食～凉拌鸡丝， 口感香辣鲜美味道好，清爽可口不油腻！热量低，特别适合减肥的宝宝们食用～",
      "recent_comments" : [

      ],
      "author_verified" : 1,
      "first_level_comment_count" : 30,
      "ipurl" : "",
      "rips" : 0,
      "share_info" : {
        "name" : "凉拌鸡丝#炎夏消暑就吃「它」#-会做饭很酷!",
        "image" : "https:\/\/cp1.douguo.com\/upload\/caiku\/e\/d\/7\/eda71d375c0cce405b15774219ea24e7.jpg",
        "s_u" : "http:\/\/m.douguo.com\/cookbook\/2326523.html",
        "s_d" : "凉拌鸡丝#炎夏消暑就吃「它」#-会做饭很酷!",
        "mini_program" : [

        ],
        "object_id" : "2326523",
        "qr_image" : "",
        "infos" : [
          {
            "qr_image" : "",
            "channel" : "1",
            "name" : "凉拌鸡丝#炎夏消暑就吃「它」#-会做饭很酷!",
            "mini_program" : [

            ],
            "object_id" : "2326523",
            "image" : "https:\/\/cp1.douguo.com\/upload\/caiku\/e\/d\/7\/eda71d375c0cce405b15774219ea24e7.jpg",
            "s_u" : "",
            "s_d" : "#学做饭用豆果美食# 我在@豆果美食 分享了【凉拌鸡丝#炎夏消暑就吃「它」#-会做饭很酷!】，帅哥美眉们～你们喜欢的美食来咯！快来跟我一起做吧～查看图片了解菜谱（想要获取更多美食就看这https:\/\/m.weibo.cn\/p\/100404i33631）#会做饭很酷#"
          },
          {
            "object_id" : "2326523",
            "qr_image" : "",
            "s_d" : "凉拌鸡丝#炎夏消暑就吃「它」#-会做饭很酷!",
            "name" : "凉拌鸡丝#炎夏消暑就吃「它」#-会做饭很酷!",
            "mini_program" : [

            ],
            "s_u" : "http:\/\/m.douguo.com\/cookbook\/2326523.html",
            "channel" : "7",
            "image" : "https:\/\/cp1.douguo.com\/upload\/caiku\/e\/d\/7\/eda71d375c0cce405b15774219ea24e7.jpg"
          },
          {
            "s_d" : "凉拌鸡丝#炎夏消暑就吃「它」#-会做饭很酷!",
            "qr_image" : "",
            "object_id" : "2326523",
            "channel" : "8",
            "s_u" : "http:\/\/m.douguo.com\/cookbook\/2326523.html",
            "name" : "凉拌鸡丝#炎夏消暑就吃「它」#-会做饭很酷!",
            "mini_program" : [

            ],
            "image" : "https:\/\/cp1.douguo.com\/upload\/caiku\/e\/d\/7\/eda71d375c0cce405b15774219ea24e7.jpg"
          }
        ]
      },
      "thumb_height" : 0,
      "purl" : "",
      "photo_path" : "https:\/\/i1.douguo.com\/upload\/caiku\/e\/d\/7\/600_eda71d375c0cce405b15774219ea24e7.jpg"
    }
  },
  "status" : 0,
  "state" : "success"
}