{
  "result" : {
    "recipe" : {
      "comments_count_text" : "6",
      "ecs" : 0,
      "favo_counts_text" : "4062",
      "thumb_height" : 0,
      "author_id" : 16958406,
      "author_verified" : 1,
      "bs" : [

      ],
      "create_time" : "2018-10-29 21:38:30",
      "vc" : "139893",
      "rips" : 0,
      "top_mdsp" : [

      ],
      "rpst" : "",
      "major" : [
        {
          "note" : "",
          "title" : "饼底"
        },
        {
          "note" : "50克",
          "tu" : "https:\/\/m.douguo.com\/ingredients\/黄油\/detailmaterial",
          "title" : "黄油"
        },
        {
          "tu" : "https:\/\/m.douguo.com\/ingredients\/细砂糖\/detailmaterial",
          "title" : "细砂糖",
          "note" : "30克"
        },
        {
          "note" : "15克",
          "title" : "蛋液"
        },
        {
          "tu" : "https:\/\/m.douguo.com\/ingredients\/低筋面粉\/detailmaterial",
          "title" : "低筋面粉",
          "note" : "95克"
        },
        {
          "note" : "",
          "title" : "奶酥"
        },
        {
          "note" : "35克",
          "tu" : "https:\/\/m.douguo.com\/ingredients\/黄油\/detailmaterial",
          "title" : "黄油"
        },
        {
          "title" : "细砂糖",
          "note" : "30克",
          "tu" : "https:\/\/m.douguo.com\/ingredients\/细砂糖\/detailmaterial"
        },
        {
          "note" : "40克",
          "title" : "低筋面粉",
          "tu" : "https:\/\/m.douguo.com\/ingredients\/低筋面粉\/detailmaterial"
        },
        {
          "title" : "杏仁粉",
          "tu" : "https:\/\/m.douguo.com\/ingredients\/杏仁粉\/detailmaterial",
          "note" : "30克"
        },
        {
          "title" : "奶粉",
          "tu" : "https:\/\/m.douguo.com\/ingredients\/奶粉\/detailmaterial",
          "note" : "10克"
        },
        {
          "note" : "",
          "title" : "苹果馅"
        },
        {
          "tu" : "https:\/\/m.douguo.com\/ingredients\/细砂糖\/detailmaterial",
          "title" : "细砂糖",
          "note" : "5克"
        },
        {
          "title" : "柠檬汁",
          "note" : "2克",
          "tu" : "https:\/\/m.douguo.com\/ingredients\/柠檬汁\/detailmaterial"
        },
        {
          "note" : "半个",
          "title" : "苹果",
          "tu" : "https:\/\/m.douguo.com\/ingredients\/苹果\/detailmaterial"
        },
        {
          "note" : "少许",
          "title" : "肉桂粉"
        }
      ],
      "tags" : [

      ],
      "notes" : [

      ],
      "favo_counts" : 4062,
      "cookwares" : [

      ],
      "photo_path" : "https:\/\/i1.douguo.com\/upload\/caiku\/a\/b\/c\/600_ab229728a836ff582a1ae5e666d6890c.jpg",
      "cook_time" : "10-30分钟",
      "ipoi" : "",
      "author" : "然儿小食光",
      "guide_image" : "",
      "recommend_label" : "4062人刚刚收藏过",
      "btm_dsp" : [

      ],
      "author_photo" : "http:\/\/tx1.douguo.net\/upload\/photo\/8\/b\/c\/70_u58884840182090150954.jpg",
      "sr" : "",
      "thumb_path" : "https:\/\/i1.douguo.com\/upload\/caiku\/a\/b\/c\/300_ab229728a836ff582a1ae5e666d6890c.jpg",
      "hq" : 1,
      "ss" : [

      ],
      "levelid" : 2,
      "act_des" : "",
      "v_u" : "",
      "ph" : 522,
      "rrps" : [

      ],
      "comments" : [
        "{\n    ac = \"#999999\";\n    at = \"\\U90a2\\U53f0\\U5e02\";\n    ccc = 2;\n    \"child_comments\" =     (\n                {\n            ac = \"#999999\";\n            at = \"\";\n            ccc = 0;\n            city = \"\";\n            cmc = 2;\n            content =             (\n                                {\n                    c = \" \\U5927\\U4e00\\U70b9\\U7684\\U82f9\\U679c\\U591f\\U7528\\U7684\\Uff0c\\U534a\\U4e2a\\U82f9\\U679c\\U53bb\\U6389\\U76ae\\U548c\\U6838\\U540e\\U5927\\U698290\\U514b\\U5de6\\U53f3\\U3002\";\n                }\n            );\n            ia = 1;\n            id = 6189431;\n            \"ip_address_location\" = \"\";\n            like = 0;\n            \"like_count\" = 0;\n            \"reply_id\" = 6187746;\n            \"reply_user\" =             {\n                \"followers_count_text\" = \"\";\n                id = 16487594;\n                \"is_prime\" = 0;\n                lv = 0;\n                lvl = 2;\n                n = \"\\U55b5\\U4e86\\U4e2a\\U5c0f\\U732b\\U54aa\";\n                p = \"http:\/\/tx1.douguo.net\/upload\/photo\/9\/2\/1\/70_u54605527876461181559.jpeg\";\n                \"progress_image\" = \"\";\n                \"recipes_count_text\" = \"\";\n                relationship = \"-1\";\n                title = \"\";\n                v = 0;\n                \"verified_image\" = \"\";\n            };\n            \"sticker_icon\" =             (\n            );\n            time = \"2018-11-08 20:02:40\";\n            u =             {\n                \"followers_count_text\" = \"\";\n                id = 16958406;\n                \"is_prime\" = 0;\n                lv = 0;\n                lvl = 6;\n                n = \"\\U7136\\U513f\\U5c0f\\U98df\\U5149\";\n                p = \"http:\/\/tx1.douguo.net\/upload\/photo\/8\/b\/c\/70_u58884840182090150954.jpg\";\n                \"progress_image\" = \"\";\n                \"recipes_count_text\" = \"\";\n                relationship = \"-1\";\n                title = \"\";\n                v = 1;\n                \"verified_image\" = \"\";\n            };\n        },\n                {\n            ac = \"#999999\";\n            at = \"\\U90a2\\U53f0\\U5e02\";\n            ccc = 0;\n            city = \"\\U90a2\\U53f0\\U5e02\";\n            cmc = 2;\n            content =             (\n                                {\n                    c = \" \\U597d\\U7684\\Uff0c\\U8c22\\U8c22\\U5566\\Uff0c\\U6211\\U5df2\\U7ecf\\U4e70\\U597d\\U4e86\\U6750\\U6599\\U51c6\\U5907\\U8bd5\\U8bd5\\U4e86\";\n                }\n            );\n            ia = 0;\n            id = 6202515;\n            \"ip_address_location\" = \"\";\n            like = 0;\n            \"like_count\" = 0;\n            \"reply_id\" = 6189431;\n            \"reply_user\" =             {\n                \"followers_count_text\" = \"\";\n                id = 16958406;\n                \"is_prime\" = 0;\n                lv = 0;\n                lvl = 6;\n                n = \"\\U7136\\U513f\\U5c0f\\U98df\\U5149\";\n                p = \"http:\/\/tx1.douguo.net\/upload\/photo\/8\/b\/c\/70_u58884840182090150954.jpg\";\n                \"progress_image\" = \"\";\n                \"recipes_count_text\" = \"\";\n                relationship = \"-1\";\n                title = \"\";\n                v = 1;\n                \"verified_image\" = \"\";\n            };\n            \"sticker_icon\" =             (\n            );\n            time = \"2018-11-14 01:44:49\";\n            u =             {\n                \"followers_count_text\" = \"\";\n                id = 16487594;\n                \"is_prime\" = 0;\n                lv = 0;\n                lvl = 2;\n                n = \"\\U55b5\\U4e86\\U4e2a\\U5c0f\\U732b\\U54aa\";\n                p = \"http:\/\/tx1.douguo.net\/upload\/photo\/9\/2\/1\/70_u54605527876461181559.jpeg\";\n                \"progress_image\" = \"\";\n                \"recipes_count_text\" = \"\";\n                relationship = \"-1\";\n                title = \"\";\n                v = 0;\n                \"verified_image\" = \"\";\n            };\n        }\n    );\n    city = \"\\U90a2\\U53f0\\U5e02\";\n    cmc = 2;\n    content =     (\n                {\n            c = \"\\U534a\\U4e2a\\U82f9\\U679c\\U591f\\U7528\\U5417\";\n        }\n    );\n    ia = 0;\n    id = 6187746;\n    \"ip_address_location\" = \"\";\n    like = 0;\n    \"like_count\" = 0;\n    \"reply_id\" = 0;\n    \"sticker_icon\" =     (\n    );\n    time = \"2018-11-07 23:38:25\";\n    u =     {\n        \"followers_count_text\" = \"\";\n        id = 16487594;\n        \"is_prime\" = 0;\n        lv = 0;\n        lvl = 2;\n        n = \"\\U55b5\\U4e86\\U4e2a\\U5c0f\\U732b\\U54aa\";\n        p = \"http:\/\/tx1.douguo.net\/upload\/photo\/9\/2\/1\/70_u54605527876461181559.jpeg\";\n        \"progress_image\" = \"\";\n        \"recipes_count_text\" = \"\";\n        relationship = \"-1\";\n        title = \"\";\n        v = 0;\n        \"verified_image\" = \"\";\n    };\n}",
        "{\n    ac = \"#999999\";\n    at = \"\";\n    ccc = 2;\n    \"child_comments\" =     (\n                {\n            ac = \"#999999\";\n            at = \"\";\n            ccc = 0;\n            city = \"\";\n            cmc = 2;\n            content =             (\n                                {\n                    c = \" \\U7528\\U56fe\\U7247\\U91cc\\U7684\\U6a21\\U5177\\U53ef\\U4ee5\\U505a12\\U4e2a\\U5c0f\\U631e\";\n                }\n            );\n            ia = 1;\n            id = 6180516;\n            \"ip_address_location\" = \"\";\n            like = 0;\n            \"like_count\" = 0;\n            \"reply_id\" = 6178888;\n            \"reply_user\" =             {\n                \"followers_count_text\" = \"\";\n                id = 20018326;\n                \"is_prime\" = 0;\n                lv = 0;\n                lvl = 2;\n                n = \"\\U5c0f\\U84dd\\U8393\\U4e0e\\U751c\\U571f\\U8c46\";\n                p = \"http:\/\/tx1.douguo.net\/upload\/photo\/1\/e\/3\/70_u91749419773073172324.jpeg\";\n                \"progress_image\" = \"\";\n                \"recipes_count_text\" = \"\";\n                relationship = \"-1\";\n                title = \"\";\n                v = 0;\n                \"verified_image\" = \"\";\n            };\n            \"sticker_icon\" =             (\n            );\n            time = \"2018-11-04 16:19:28\";\n            u =             {\n                \"followers_count_text\" = \"\";\n                id = 16958406;\n                \"is_prime\" = 0;\n                lv = 0;\n                lvl = 6;\n                n = \"\\U7136\\U513f\\U5c0f\\U98df\\U5149\";\n                p = \"http:\/\/tx1.douguo.net\/upload\/photo\/8\/b\/c\/70_u58884840182090150954.jpg\";\n                \"progress_image\" = \"\";\n                \"recipes_count_text\" = \"\";\n                relationship = \"-1\";\n                title = \"\";\n                v = 1;\n                \"verified_image\" = \"\";\n            };\n        },\n                {\n            ac = \"#999999\";\n            at = \"\";\n            ccc = 0;\n            city = \"\";\n            cmc = 2;\n            content =             (\n                                {\n                    c = \" \\Ud83d\\Udc4c\\U8c22\\U8c22\";\n                }\n            );\n            ia = 0;\n            id = 6180606;\n            \"ip_address_location\" = \"\";\n            like = 0;\n            \"like_count\" = 0;\n            \"reply_id\" = 6180516;\n            \"reply_user\" =             {\n                \"followers_count_text\" = \"\";\n                id = 16958406;\n                \"is_prime\" = 0;\n                lv = 0;\n                lvl = 6;\n                n = \"\\U7136\\U513f\\U5c0f\\U98df\\U5149\";\n                p = \"http:\/\/tx1.douguo.net\/upload\/photo\/8\/b\/c\/70_u58884840182090150954.jpg\";\n                \"progress_image\" = \"\";\n                \"recipes_count_text\" = \"\";\n                relationship = \"-1\";\n                title = \"\";\n                v = 1;\n                \"verified_image\" = \"\";\n            };\n            \"sticker_icon\" =             (\n            );\n            time = \"2018-11-04 16:52:11\";\n            u =             {\n                \"followers_count_text\" = \"\";\n                id = 20018326;\n                \"is_prime\" = 0;\n                lv = 0;\n                lvl = 2;\n                n = \"\\U5c0f\\U84dd\\U8393\\U4e0e\\U751c\\U571f\\U8c46\";\n                p = \"http:\/\/tx1.douguo.net\/upload\/photo\/1\/e\/3\/70_u91749419773073172324.jpeg\";\n                \"progress_image\" = \"\";\n                \"recipes_count_text\" = \"\";\n                relationship = \"-1\";\n                title = \"\";\n                v = 0;\n                \"verified_image\" = \"\";\n            };\n        }\n    );\n    city = \"\";\n    cmc = 2;\n    content =     (\n                {\n            c = \"\\U8bf7\\U95ee\\U8fd9\\U6837\\U7684\\U5206\\U91cf\\U53ef\\U4ee5\\U505a\\U51e0\\U4e2a\\U6210\\U54c1\\Uff1f\\U8c22\\U8c22\";\n        }\n    );\n    ia = 0;\n    id = 6178888;\n    \"ip_address_location\" = \"\";\n    like = 0;\n    \"like_count\" = 0;\n    \"reply_id\" = 0;\n    \"sticker_icon\" =     (\n    );\n    time = \"2018-11-03 20:20:18\";\n    u =     {\n        \"followers_count_text\" = \"\";\n        id = 20018326;\n        \"is_prime\" = 0;\n        lv = 0;\n        lvl = 2;\n        n = \"\\U5c0f\\U84dd\\U8393\\U4e0e\\U751c\\U571f\\U8c46\";\n        p = \"http:\/\/tx1.douguo.net\/upload\/photo\/1\/e\/3\/70_u91749419773073172324.jpeg\";\n        \"progress_image\" = \"\";\n        \"recipes_count_text\" = \"\";\n        relationship = \"-1\";\n        title = \"\";\n        v = 0;\n        \"verified_image\" = \"\";\n    };\n}"
      ],
      "title_ad" : [

      ],
      "release_time" : "",
      "ipt" : "",
      "recipe_list_tags" : [
        {
          "background_border_color" : "",
          "jump_url" : "",
          "right_image" : "",
          "background_start_color" : "#F4F5F5",
          "text" : "关注的人",
          "text_color" : "#141515",
          "background_end_color" : "#F4F5F5"
        },
        {
          "text_color" : "#141515",
          "background_start_color" : "#F4F5F5",
          "text" : "值得pick",
          "background_border_color" : "",
          "jump_url" : "",
          "right_image" : "",
          "background_end_color" : "#F4F5F5"
        },
        {
          "background_end_color" : "#F4F5F5",
          "text" : "内容详细",
          "jump_url" : "",
          "text_color" : "#141515",
          "background_border_color" : "",
          "right_image" : "",
          "background_start_color" : "#F4F5F5"
        }
      ],
      "packages_id" : [

      ],
      "cookstory" : "这款苹果奶酥小挞每次做都是秒杀的节奏，小然私藏了很久很久…… 今天分享给大家。",
      "title" : "苹果奶酥小挞",
      "cook_difficulty" : "切墩(初级)",
      "recent_comments" : [

      ],
      "ipia" : [

      ],
      "clicks" : "136264",
      "minor" : [

      ],
      "recipe_tags" : [

      ],
      "rsm" : "该功能暂停使用",
      "mid_mdsp" : [

      ],
      "ipit" : 0,
      "related_ads" : [

      ],
      "story_dsp" : [

      ],
      "tips" : "烤制的具体时间和温度，根据自己的烤箱脾气做调整。",
      "hqu" : "recipes:\/\/www.douguo.com\/notedetail?id=21162253",
      "ipci" : "",
      "old_comments" : [

      ],
      "rpt" : "",
      "dish_count_text" : "",
      "rpid" : 0,
      "views_count_text" : "14.0万",
      "collect_status" : 0,
      "cook_id" : "1712858",
      "vu" : "",
      "recommended" : 0,
      "first_level_comment_count" : 2,
      "brand_day_dsp" : [

      ],
      "dish_count" : 0,
      "ssu" : "",
      "eu" : "recipes:\/\/www.douguo.com\/postdetail?id=242016",
      "image" : "http:\/\/i1.douguo.net\/upload\/caiku\/a\/b\/c\/300_ab229728a836ff582a1ae5e666d6890c.jpg",
      "recommendation_tag" : "",
      "vfurl" : "",
      "advice" : {
        "da" : {
          "url" : "https:\/\/m.douguo.com\/recipe\/nutrient_self\/1712858",
          "iu" : "https:\/\/i1.douguo.com\/upload\/banner\/f\/4\/d\/f48877e53c37759bc12ac494be82ec8d.png",
          "t" : "查看详细分析"
        },
        "at" : "减肥的美女注意喽～",
        "has" : [
          {
            "t" : "高脂肪",
            "url" : "recipes:\/\/www.douguo.com\/simplerecipelist?t=高脂肪&id=高脂肪"
          }
        ]
      },
      "share_info" : {
        "name" : "苹果奶酥小挞-会做饭很酷!",
        "qr_image" : "",
        "mini_program" : [

        ],
        "s_u" : "http:\/\/m.douguo.com\/cookbook\/1712858.html",
        "object_id" : "1712858",
        "s_d" : "苹果奶酥小挞-会做饭很酷!",
        "infos" : [
          {
            "mini_program" : [

            ],
            "object_id" : "1712858",
            "s_u" : "",
            "channel" : "1",
            "image" : "https:\/\/cp1.douguo.com\/upload\/caiku\/a\/b\/c\/ab229728a836ff582a1ae5e666d6890c.jpg",
            "name" : "苹果奶酥小挞-会做饭很酷!",
            "s_d" : "#学做饭用豆果美食# 会做饭真是好酷啊！我在@豆果美食 分享了【苹果奶酥小挞-会做饭很酷!】，快来康康我这道菜做的怎么样～美味停不下来！查看图片了解菜谱（你喜欢的美食都在这里！https:\/\/m.weibo.cn\/p\/100404i33631）",
            "qr_image" : ""
          },
          {
            "mini_program" : [

            ],
            "image" : "https:\/\/cp1.douguo.com\/upload\/caiku\/a\/b\/c\/ab229728a836ff582a1ae5e666d6890c.jpg",
            "s_d" : "苹果奶酥小挞-会做饭很酷!",
            "name" : "苹果奶酥小挞-会做饭很酷!",
            "channel" : "7",
            "s_u" : "http:\/\/m.douguo.com\/cookbook\/1712858.html",
            "object_id" : "1712858",
            "qr_image" : ""
          },
          {
            "channel" : "8",
            "object_id" : "1712858",
            "s_d" : "苹果奶酥小挞-会做饭很酷!",
            "qr_image" : "",
            "image" : "https:\/\/cp1.douguo.com\/upload\/caiku\/a\/b\/c\/ab229728a836ff582a1ae5e666d6890c.jpg",
            "name" : "苹果奶酥小挞-会做饭很酷!",
            "mini_program" : [

            ],
            "s_u" : "http:\/\/m.douguo.com\/cookbook\/1712858.html"
          }
        ],
        "image" : "https:\/\/cp1.douguo.com\/upload\/caiku\/a\/b\/c\/ab229728a836ff582a1ae5e666d6890c.jpg"
      },
      "rate_count" : 0,
      "pw" : 800,
      "display_ingredient" : 1,
      "cookstorys" : [
        {
          "type" : 0,
          "color" : "",
          "id" : 0,
          "u" : "",
          "icon" : "",
          "c" : "这款苹果奶酥小挞每次做都是秒杀的节奏，小然私藏了很久很久…… 今天分享给大家。"
        }
      ],
      "cook_time_image" : "https:\/\/i1.douguo.com\/upload\/banner\/1551424341.png",
      "cookstep" : [
        {
          "image_width" : 800,
          "frame" : "-1",
          "content" : "黄油室温软化加入细砂糖搅拌均匀",
          "image" : "https:\/\/i1.douguo.com\/upload\/caiku\/3\/7\/c\/378f573157c3a34c75dcadc566a5d0cc.jpg",
          "image_height" : 600,
          "thumb" : "https:\/\/i1.douguo.com\/upload\/caiku\/3\/7\/c\/140_378f573157c3a34c75dcadc566a5d0cc.jpg",
          "position" : 1
        },
        {
          "frame" : "-1",
          "image_height" : 600,
          "thumb" : "https:\/\/i1.douguo.com\/upload\/caiku\/8\/d\/e\/140_8d29a4963e1e0effe2c7742d8d11a6ce.jpg",
          "image" : "https:\/\/i1.douguo.com\/upload\/caiku\/8\/d\/e\/8d29a4963e1e0effe2c7742d8d11a6ce.jpg",
          "image_width" : 800,
          "position" : 2,
          "content" : "加入蛋液搅匀"
        },
        {
          "image" : "https:\/\/i1.douguo.com\/upload\/caiku\/3\/7\/4\/37b897a86cdbbdfe5168ee2f3d815fe4.jpg",
          "content" : "筛入低筋面粉翻拌均匀",
          "image_height" : 600,
          "thumb" : "https:\/\/i1.douguo.com\/upload\/caiku\/3\/7\/4\/140_37b897a86cdbbdfe5168ee2f3d815fe4.jpg",
          "position" : 3,
          "image_width" : 800,
          "frame" : "-1"
        },
        {
          "image_height" : 600,
          "thumb" : "https:\/\/i1.douguo.com\/upload\/caiku\/6\/2\/2\/140_62801a169163d0b3df124a240cc7fbf2.jpg",
          "position" : 4,
          "image_width" : 800,
          "content" : "将面团放在油纸上",
          "image" : "https:\/\/i1.douguo.com\/upload\/caiku\/6\/2\/2\/62801a169163d0b3df124a240cc7fbf2.jpg",
          "frame" : "-1"
        },
        {
          "image_width" : 1632,
          "image_height" : 1224,
          "image" : "https:\/\/i1.douguo.com\/upload\/caiku\/0\/e\/4\/0e0b84a95c66bcf1f844eafca078bf64.jpg",
          "content" : "在面团上在盖一张油纸，用擀面杖将面团擀成0.6㎝厚度，放入冰箱冷冻半小时。",
          "thumb" : "https:\/\/i1.douguo.com\/upload\/caiku\/0\/e\/4\/140_0e0b84a95c66bcf1f844eafca078bf64.jpg",
          "frame" : "-1",
          "position" : 5
        },
        {
          "image_width" : 800,
          "image" : "https:\/\/i1.douguo.com\/upload\/caiku\/f\/0\/b\/f0612b22be3fe9c31e4819bcc8476bcb.jpg",
          "content" : "苹果去皮去果核，切成小丁放入锅里，加入糖、柠檬汁、肉桂粉小火炒制。",
          "position" : 6,
          "thumb" : "https:\/\/i1.douguo.com\/upload\/caiku\/f\/0\/b\/140_f0612b22be3fe9c31e4819bcc8476bcb.jpg",
          "frame" : "-1",
          "image_height" : 600
        },
        {
          "image" : "https:\/\/i1.douguo.com\/upload\/caiku\/f\/f\/0\/ff5f80d1ff19cd1c25f1e344814d0a20.jpg",
          "frame" : "-1",
          "image_width" : 800,
          "content" : "炒到苹果变软关火，放一旁备用。",
          "position" : 7,
          "thumb" : "https:\/\/i1.douguo.com\/upload\/caiku\/f\/f\/0\/140_ff5f80d1ff19cd1c25f1e344814d0a20.jpg",
          "image_height" : 600
        },
        {
          "image" : "https:\/\/i1.douguo.com\/upload\/caiku\/d\/0\/7\/d0c3dd41cb42907224889ab97a31aca7.jpg",
          "thumb" : "https:\/\/i1.douguo.com\/upload\/caiku\/d\/0\/7\/140_d0c3dd41cb42907224889ab97a31aca7.jpg",
          "content" : "开始做奶酥，把黄油，杏仁粉，低筋面粉，糖和奶粉加到碗里。",
          "image_width" : 800,
          "image_height" : 600,
          "frame" : "-1",
          "position" : 8
        },
        {
          "position" : 9,
          "content" : "用手将所以的材料混合均匀，注意不要用劲去按压，保持奶酥蓬松度。",
          "thumb" : "https:\/\/i1.douguo.com\/upload\/caiku\/7\/d\/5\/140_7d833837b93fa30099008edf38385b45.jpg",
          "frame" : "-1",
          "image_height" : 1224,
          "image" : "https:\/\/i1.douguo.com\/upload\/caiku\/7\/d\/5\/7d833837b93fa30099008edf38385b45.jpg",
          "image_width" : 1632
        },
        {
          "frame" : "-1",
          "image_width" : 800,
          "thumb" : "https:\/\/i1.douguo.com\/upload\/caiku\/c\/b\/5\/140_cb66d7f469224ccabe40e317fb12d8a5.jpg",
          "image" : "https:\/\/i1.douguo.com\/upload\/caiku\/c\/b\/5\/cb66d7f469224ccabe40e317fb12d8a5.jpg",
          "position" : 10,
          "image_height" : 600,
          "content" : "将冷冻的挞底从冰箱拿出来，压出圆形。"
        },
        {
          "content" : "放入模具里",
          "position" : 11,
          "image" : "https:\/\/i1.douguo.com\/upload\/caiku\/5\/6\/3\/56f337ddbf9f02b8769b650be271de23.jpg",
          "thumb" : "https:\/\/i1.douguo.com\/upload\/caiku\/5\/6\/3\/140_56f337ddbf9f02b8769b650be271de23.jpg",
          "frame" : "-1",
          "image_height" : 1224,
          "image_width" : 1632
        },
        {
          "image_width" : 800,
          "frame" : "-1",
          "position" : 12,
          "image" : "https:\/\/i1.douguo.com\/upload\/caiku\/d\/9\/5\/d9e79ec0ff7d04cfdb743aade9472c25.jpg",
          "thumb" : "https:\/\/i1.douguo.com\/upload\/caiku\/d\/9\/5\/140_d9e79ec0ff7d04cfdb743aade9472c25.jpg",
          "image_height" : 600,
          "content" : "在挞底放入苹果馅"
        },
        {
          "image_width" : 800,
          "image_height" : 600,
          "position" : 13,
          "content" : "在撒上一层奶酥，奶酥要完全覆盖苹果馅。",
          "thumb" : "https:\/\/i1.douguo.com\/upload\/caiku\/a\/f\/8\/140_af5b221aa03742513acdf51410859588.jpg",
          "image" : "https:\/\/i1.douguo.com\/upload\/caiku\/a\/f\/8\/af5b221aa03742513acdf51410859588.jpg",
          "frame" : "-1"
        },
        {
          "position" : 14,
          "frame" : "-1",
          "image" : "https:\/\/i1.douguo.com\/upload\/caiku\/1\/a\/2\/1a9b8d2b58e9129b94b6de3bdfde3cb2.jpg",
          "content" : "烤箱预热170度，将苹果奶酥放入烤箱中层，烤20—25分钟左右。",
          "image_width" : 800,
          "image_height" : 600,
          "thumb" : "https:\/\/i1.douguo.com\/upload\/caiku\/1\/a\/2\/140_1a9b8d2b58e9129b94b6de3bdfde3cb2.jpg"
        },
        {
          "image" : "https:\/\/i1.douguo.com\/upload\/caiku\/8\/1\/9\/81ab86130a2b5880b5863eb75b08ba99.jpg",
          "image_width" : 1616,
          "thumb" : "https:\/\/i1.douguo.com\/upload\/caiku\/8\/1\/9\/140_81ab86130a2b5880b5863eb75b08ba99.jpg",
          "image_height" : 1080,
          "position" : 15,
          "frame" : "-1",
          "content" : "苹果奶酥挞真的酥到没朋友，赶紧试试吧！"
        }
      ],
      "rate_show" : 0,
      "rdsps" : [

      ],
      "su" : "",
      "dishes" : [

      ],
      "rcs" : [

      ],
      "user" : {
        "user_id" : "16958406",
        "fc" : 0,
        "point" : 0,
        "birthday" : "",
        "lv" : 0,
        "dishes_count" : 0,
        "pc" : 0,
        "email" : "",
        "sign" : "",
        "qq_weibo_nick" : "",
        "user_photo" : "http:\/\/tx1.douguo.net\/upload\/photo\/8\/b\/c\/70_u58884840182090150954.jpg",
        "qzone_nick" : "",
        "following_count" : 0,
        "regist_time" : "",
        "recipes_count" : 0,
        "lvl" : 6,
        "nick" : "然儿小食光",
        "user_cover" : "",
        "introduction" : "",
        "coursecount" : 0,
        "favorites_count" : 0,
        "diaries_count" : 0,
        "verified_image" : "https:\/\/i1.douguo.com\/upload\/note\/d\/a\/a\/da84247847aebe48d9dd0fcdac88862a.png",
        "setted_email" : 0,
        "avatar_medium" : "http:\/\/tx1.douguo.net\/upload\/photo\/8\/b\/c\/140_u58884840182090150954.jpg",
        "age" : "",
        "location" : 0,
        "verified" : 1,
        "subscription" : 0,
        "followers_count" : 0,
        "userid" : "16958406",
        "user_large_photo" : "http:\/\/tx1.douguo.net\/upload\/photo\/8\/b\/c\/yuan_u58884840182090150954.jpg",
        "mobile" : "",
        "is_prime" : 0,
        "weibo_nick" : "",
        "favor_diaries_count" : 0,
        "gender" : 2,
        "verified_url" : "https:\/\/m.douguo.com\/user\/prodesc",
        "progress_image" : "",
        "subscription_article_count" : 0
      },
      "cook_difficulty_image" : "https:\/\/i1.douguo.com\/upload\/banner\/1551424390.png",
      "sc" : 0,
      "comments_count" : 6,
      "rrpt" : "",
      "purl" : "",
      "original_photo_path" : "http:\/\/i1.douguo.net\/upload\/caiku\/a\/b\/c\/yuan_ab229728a836ff582a1ae5e666d6890c.jpg",
      "rewarded_video_dsp" : [

      ],
      "rate" : 0,
      "ipurl" : ""
    }
  },
  "status" : 0,
  "state" : "success"
}