{
  "status" : 0,
  "result" : {
    "recipe" : {
      "brand_day_dsp" : [

      ],
      "comments" : [
        "{\n    ac = \"#999999\";\n    at = \"\\U961c\\U9633\\U5e02\";\n    ccc = 1;\n    \"child_comments\" =     (\n                {\n            ac = \"#999999\";\n            at = \"\";\n            ccc = 0;\n            city = \"\";\n            cmc = 2;\n            content =             (\n                                {\n                    c = \" \\U78b1\\U9762\\Uff0c\\U997a\\U5b50\\U76ae\\U5e97\\U91cc\\U6709\";\n                }\n            );\n            ia = 0;\n            id = 8567315;\n            \"ip_address_location\" = \"\";\n            like = 0;\n            \"like_count\" = 0;\n            \"reply_id\" = 8196668;\n            \"reply_user\" =             {\n                \"followers_count_text\" = \"\";\n                id = 25146991;\n                \"is_prime\" = 0;\n                lv = 0;\n                lvl = 1;\n                n = \"\\U6c5f\\U769e\";\n                p = \"http:\/\/tx1.douguo.net\/upload\/photo\/7\/9\/c\/70_u83741038438129073638.jpg\";\n                \"progress_image\" = \"\";\n                \"recipes_count_text\" = \"\";\n                relationship = \"-1\";\n                title = \"\";\n                v = 0;\n                \"verified_image\" = \"\";\n            };\n            \"sticker_icon\" =             (\n            );\n            time = \"2021-03-10 20:41:06\";\n            u =             {\n                \"followers_count_text\" = \"\";\n                id = 26472120;\n                \"is_prime\" = 0;\n                lv = 0;\n                lvl = 1;\n                n = \"\\U6254\\U4e0d\\U6389\\U7684\\U725b\\U809d\\U83cc\";\n                p = \"http:\/\/tx1.douguo.net\/upload\/photo\/1\/1\/1\/70_1499a7147ecac912ea48d6125e0b8954.png\";\n                \"progress_image\" = \"\";\n                \"recipes_count_text\" = \"\";\n                relationship = \"-1\";\n                title = \"\";\n                v = 0;\n                \"verified_image\" = \"\";\n            };\n        }\n    );\n    city = \"\\U961c\\U9633\\U5e02\";\n    cmc = 2;\n    content =     (\n                {\n            c = \"\\U8fd9\\U4e2a\\U9762\\U662f\\U4ec0\\U4e48\\U9762\\U554a\\Uff0c\\U62c9\\U9762\\U5417\";\n        }\n    );\n    ia = 0;\n    id = 8196668;\n    \"ip_address_location\" = \"\";\n    like = 0;\n    \"like_count\" = 2;\n    \"reply_id\" = 0;\n    \"sticker_icon\" =     (\n    );\n    time = \"2020-08-13 07:37:32\";\n    u =     {\n        \"followers_count_text\" = \"\";\n        id = 25146991;\n        \"is_prime\" = 0;\n        lv = 0;\n        lvl = 1;\n        n = \"\\U6c5f\\U769e\";\n        p = \"http:\/\/tx1.douguo.net\/upload\/photo\/7\/9\/c\/70_u83741038438129073638.jpg\";\n        \"progress_image\" = \"\";\n        \"recipes_count_text\" = \"\";\n        relationship = \"-1\";\n        title = \"\";\n        v = 0;\n        \"verified_image\" = \"\";\n    };\n}",
        "{\n    ac = \"#999999\";\n    at = \"\\U6210\\U90fd\\U5e02\";\n    ccc = 1;\n    \"child_comments\" =     (\n                {\n            ac = \"#999999\";\n            at = \"\\U4e4c\\U9c81\\U6728\\U9f50\\U5e02\";\n            ccc = 0;\n            city = \"\\U4e4c\\U9c81\\U6728\\U9f50\\U5e02\";\n            cmc = 2;\n            content =             (\n                                {\n                    c = \" \\U4eca\\U5929\\U505a\\U7684\\Uff0c\\U6302\\U9762\\U592a\\U5e72\\Uff0c\\U8981\\U591a\\U52a0\\U70b9\\U6c34\\U3002\\U3002\";\n                }\n            );\n            ia = 0;\n            id = 8197885;\n            \"ip_address_location\" = \"\";\n            like = 0;\n            \"like_count\" = 0;\n            \"reply_id\" = 8197845;\n            \"reply_user\" =             {\n                \"followers_count_text\" = \"\";\n                id = 25790690;\n                \"is_prime\" = 0;\n                lv = 0;\n                lvl = 2;\n                n = \"EmmaLee_\";\n                p = \"http:\/\/tx1.douguo.net\/upload\/photo\/3\/d\/3\/70_3d3830b9cf82a6f2e40df46bc5cf1873.jpeg\";\n                \"progress_image\" = \"\";\n                \"recipes_count_text\" = \"\";\n                relationship = \"-1\";\n                title = \"\";\n                v = 0;\n                \"verified_image\" = \"\";\n            };\n            \"sticker_icon\" =             (\n            );\n            time = \"2020-08-14 03:10:11\";\n            u =             {\n                \"followers_count_text\" = \"\";\n                id = 24451687;\n                \"is_prime\" = 0;\n                lv = 0;\n                lvl = 1;\n                n = \"\\U51b0\\U51b7\\U7684\\U9e2d\\U8116\\U5f88\\U6c34\\U5ae9\\U5ae9\";\n                p = \"http:\/\/tx1.douguo.net\/upload\/photo\/1\/1\/1\/70_b916105c8502ab223be6fb1000443fad.png\";\n                \"progress_image\" = \"\";\n                \"recipes_count_text\" = \"\";\n                relationship = \"-1\";\n                title = \"\";\n                v = 0;\n                \"verified_image\" = \"\";\n            };\n        }\n    );\n    city = \"\\U6210\\U90fd\\U5e02\";\n    cmc = 2;\n    content =     (\n                {\n            c = \"\\U6302\\U9762\\U80fd\\U505a\\U5417\";\n        }\n    );\n    ia = 0;\n    id = 8197845;\n    \"ip_address_location\" = \"\";\n    like = 0;\n    \"like_count\" = 2;\n    \"reply_id\" = 0;\n    \"sticker_icon\" =     (\n    );\n    time = \"2020-08-14 00:56:41\";\n    u =     {\n        \"followers_count_text\" = \"\";\n        id = 25790690;\n        \"is_prime\" = 0;\n        lv = 0;\n        lvl = 2;\n        n = \"EmmaLee_\";\n        p = \"http:\/\/tx1.douguo.net\/upload\/photo\/3\/d\/3\/70_3d3830b9cf82a6f2e40df46bc5cf1873.jpeg\";\n        \"progress_image\" = \"\";\n        \"recipes_count_text\" = \"\";\n        relationship = \"-1\";\n        title = \"\";\n        v = 0;\n        \"verified_image\" = \"\";\n    };\n}",
        "{\n    ac = \"#999999\";\n    at = \"\\U54c8\\U5c14\\U6ee8\\U5e02\";\n    ccc = 0;\n    \"child_comments\" =     (\n    );\n    city = \"\\U54c8\\U5c14\\U6ee8\\U5e02\";\n    cmc = 2;\n    content =     (\n                {\n            c = \"\\U4e0d\\U652f\\U6301\\U6258\\U5802\\Uff01\\Uff01\";\n        }\n    );\n    ia = 0;\n    id = 8198741;\n    \"ip_address_location\" = \"\";\n    like = 0;\n    \"like_count\" = 1;\n    \"reply_id\" = 0;\n    \"sticker_icon\" =     (\n    );\n    time = \"2020-08-14 19:10:23\";\n    u =     {\n        \"followers_count_text\" = \"\";\n        id = 25561600;\n        \"is_prime\" = 0;\n        lv = 0;\n        lvl = 2;\n        n = \"\\U7a97\\U53f0\\U4e0a\\U7684\\U91d1\\U67aa\\U9c7c\";\n        p = \"http:\/\/tx1.douguo.net\/upload\/photo\/a\/7\/5\/70_a7842e230a87b13e5c0e43b02b0a59e5.jpg\";\n        \"progress_image\" = \"\";\n        \"recipes_count_text\" = \"\";\n        relationship = \"-1\";\n        title = \"\";\n        v = 0;\n        \"verified_image\" = \"\";\n    };\n}"
      ],
      "rips" : 0,
      "hq" : 1,
      "rate_count" : 14,
      "dishes" : [

      ],
      "rrpt" : "",
      "first_level_comment_count" : 22,
      "rrps" : [

      ],
      "clicks" : "7140111",
      "image" : "http:\/\/i1.douguo.net\/upload\/caiku\/4\/c\/b\/300_4cf49b8a9dc0fff6103d3d0b6706057b.jpg",
      "cook_difficulty" : "",
      "event" : {
        "name" : "我要上首焦丨万元红包瓜分计划",
        "id" : 2706,
        "url" : "https:\/\/m.douguo.com\/activity\/cpzj\/detail\/2706?isapp=1&open=0&_vs=1000300"
      },
      "top_mdsp" : [

      ],
      "ipoi" : "",
      "release_time" : "",
      "notes" : [

      ],
      "favo_counts_text" : "2.8万",
      "cookstep" : [
        {
          "image_height" : 960,
          "frame" : "-1",
          "thumb" : "https:\/\/i1.douguo.com\/upload\/caiku\/d\/8\/f\/140_d8cd50e82ee43e4e267bbd9e0d4bcb0f.jpg",
          "position" : 1,
          "image_width" : 1280,
          "content" : "锅里加适量油，把鸡蛋煎至两面金黄",
          "image" : "https:\/\/i1.douguo.com\/upload\/caiku\/d\/8\/f\/d8cd50e82ee43e4e267bbd9e0d4bcb0f.jpg"
        },
        {
          "image" : "https:\/\/i1.douguo.com\/upload\/caiku\/8\/e\/7\/8ecf6eb85eeea8eab50d350611a2f527.jpg",
          "image_width" : 1280,
          "image_height" : 960,
          "thumb" : "https:\/\/i1.douguo.com\/upload\/caiku\/8\/e\/7\/140_8ecf6eb85eeea8eab50d350611a2f527.jpg",
          "content" : "下葱花爆香",
          "position" : 2,
          "frame" : "-1"
        },
        {
          "image_width" : 1280,
          "image_height" : 960,
          "thumb" : "https:\/\/i1.douguo.com\/upload\/caiku\/c\/8\/b\/140_c8a550cce25286bcc93077cb9256a9db.jpg",
          "image" : "https:\/\/i1.douguo.com\/upload\/caiku\/c\/8\/b\/c8a550cce25286bcc93077cb9256a9db.jpg",
          "frame" : "-1",
          "position" : 3,
          "content" : "加一勺生抽"
        },
        {
          "position" : 4,
          "frame" : "-1",
          "image" : "https:\/\/i1.douguo.com\/upload\/caiku\/0\/5\/7\/05c7bdb98e1bb2e2040fb4d50a7faf97.jpg",
          "content" : "一勺老抽",
          "image_height" : 960,
          "image_width" : 1280,
          "thumb" : "https:\/\/i1.douguo.com\/upload\/caiku\/0\/5\/7\/140_05c7bdb98e1bb2e2040fb4d50a7faf97.jpg"
        },
        {
          "image_height" : 600,
          "content" : "一勺陈醋",
          "image_width" : 800,
          "position" : 5,
          "frame" : "-1",
          "image" : "https:\/\/i1.douguo.com\/upload\/caiku\/d\/f\/9\/dff661aba2907de4a2b45b89ff084549.jpg",
          "thumb" : "https:\/\/i1.douguo.com\/upload\/caiku\/d\/f\/9\/140_dff661aba2907de4a2b45b89ff084549.jpg"
        },
        {
          "frame" : "-1",
          "image_width" : 1280,
          "content" : "适量盐和白糖",
          "image" : "https:\/\/i1.douguo.com\/upload\/caiku\/6\/c\/b\/6c7c43635e5a73f81756ade962ceb38b.jpg",
          "position" : 6,
          "thumb" : "https:\/\/i1.douguo.com\/upload\/caiku\/6\/c\/b\/140_6c7c43635e5a73f81756ade962ceb38b.jpg",
          "image_height" : 960
        },
        {
          "content" : "加适量水",
          "image" : "https:\/\/i1.douguo.com\/upload\/caiku\/6\/f\/d\/6ff30047dddcfd1ff733513ea0bfd28d.jpg",
          "position" : 7,
          "frame" : "-1",
          "image_height" : 600,
          "thumb" : "https:\/\/i1.douguo.com\/upload\/caiku\/6\/f\/d\/140_6ff30047dddcfd1ff733513ea0bfd28d.jpg",
          "image_width" : 800
        },
        {
          "frame" : "-1",
          "image" : "https:\/\/i1.douguo.com\/upload\/caiku\/d\/c\/9\/dce80bf679352ba7a3567893131d5fb9.jpg",
          "image_height" : 960,
          "image_width" : 1280,
          "content" : "大火烧开",
          "position" : 8,
          "thumb" : "https:\/\/i1.douguo.com\/upload\/caiku\/d\/c\/9\/140_dce80bf679352ba7a3567893131d5fb9.jpg"
        },
        {
          "position" : 9,
          "frame" : "-1",
          "thumb" : "https:\/\/i1.douguo.com\/upload\/caiku\/9\/3\/6\/140_93622864624eaf2c3e935f00fda366a6.jpg",
          "image_height" : 600,
          "image_width" : 800,
          "image" : "https:\/\/i1.douguo.com\/upload\/caiku\/9\/3\/6\/93622864624eaf2c3e935f00fda366a6.jpg",
          "content" : "加入鲜面条"
        },
        {
          "image" : "https:\/\/i1.douguo.com\/upload\/caiku\/7\/e\/8\/7e0a78f9b7001915e50c96297d5f4c18.jpg",
          "image_height" : 960,
          "frame" : "-1",
          "position" : 10,
          "content" : "小火煮至面条熟透即可",
          "image_width" : 1280,
          "thumb" : "https:\/\/i1.douguo.com\/upload\/caiku\/7\/e\/8\/140_7e0a78f9b7001915e50c96297d5f4c18.jpg"
        },
        {
          "frame" : "-1",
          "position" : 11,
          "thumb" : "https:\/\/i1.douguo.com\/upload\/caiku\/2\/4\/6\/140_249c29cc366e5b2fcf2ae35f1df625e6.jpg",
          "image" : "https:\/\/i1.douguo.com\/upload\/caiku\/2\/4\/6\/249c29cc366e5b2fcf2ae35f1df625e6.jpg",
          "image_width" : 1280,
          "image_height" : 960,
          "content" : "成品图"
        },
        {
          "frame" : "-1",
          "thumb" : "https:\/\/i1.douguo.com\/upload\/caiku\/5\/4\/9\/140_5440939d0d8dce5160d6bcc4cb3fd0c9.jpg",
          "position" : 12,
          "image" : "https:\/\/i1.douguo.com\/upload\/caiku\/5\/4\/9\/5440939d0d8dce5160d6bcc4cb3fd0c9.jpg",
          "image_height" : 600,
          "content" : "成品图",
          "image_width" : 800
        },
        {
          "frame" : "-1",
          "image_height" : 960,
          "position" : 13,
          "content" : "成品图",
          "image" : "https:\/\/i1.douguo.com\/upload\/caiku\/2\/a\/7\/2a6e29ff97bcfdef102c6815289a49a7.jpg",
          "image_width" : 1280,
          "thumb" : "https:\/\/i1.douguo.com\/upload\/caiku\/2\/a\/7\/140_2a6e29ff97bcfdef102c6815289a49a7.jpg"
        }
      ],
      "ssu" : "",
      "rdsps" : [

      ],
      "recommended" : 0,
      "collect_status" : 0,
      "mid_mdsp" : [

      ],
      "user" : {
        "dishes_count" : 0,
        "user_large_photo" : "http:\/\/tx1.douguo.net\/upload\/photo\/3\/2\/9\/yuan_u01160205466906080407.jpg",
        "is_prime" : 0,
        "fc" : 0,
        "age" : "",
        "gender" : 2,
        "qq_weibo_nick" : "",
        "userid" : "20723998",
        "email" : "",
        "following_count" : 0,
        "nick" : "米粒爱奇异果",
        "user_cover" : "",
        "verified_image" : "https:\/\/i1.douguo.com\/upload\/note\/d\/a\/a\/da84247847aebe48d9dd0fcdac88862a.png",
        "diaries_count" : 0,
        "location" : 0,
        "subscription_article_count" : 0,
        "lvl" : 6,
        "weibo_nick" : "",
        "birthday" : "",
        "favorites_count" : 0,
        "qzone_nick" : "",
        "favor_diaries_count" : 0,
        "followers_count" : 0,
        "recipes_count" : 0,
        "coursecount" : 0,
        "progress_image" : "",
        "verified_url" : "https:\/\/m.douguo.com\/user\/prodesc",
        "mobile" : "",
        "point" : 0,
        "sign" : "",
        "verified" : 1,
        "introduction" : "",
        "lv" : 0,
        "subscription" : 0,
        "avatar_medium" : "http:\/\/tx1.douguo.net\/upload\/photo\/3\/2\/9\/140_u01160205466906080407.jpg",
        "regist_time" : "",
        "pc" : 0,
        "user_id" : "20723998",
        "user_photo" : "http:\/\/tx1.douguo.net\/upload\/photo\/3\/2\/9\/70_u01160205466906080407.jpg",
        "setted_email" : 0
      },
      "su" : "",
      "eu" : "recipes:\/\/www.douguo.com\/postdetail?id=242016",
      "ipci" : "",
      "old_comments" : [

      ],
      "dish_count" : 22,
      "tags" : [

      ],
      "v_u" : "",
      "levelid" : 2,
      "share_info" : {
        "s_d" : "#我要上首焦#全网最火的荷包蛋焖面❗️真的太好吃啦❗️-会做饭很酷!",
        "s_u" : "http:\/\/m.douguo.com\/cookbook\/2969757.html",
        "object_id" : "2969757",
        "mini_program" : [

        ],
        "infos" : [
          {
            "s_d" : "#学做饭用豆果美食# 会做饭真是太酷了！我在@豆果美食 分享了【#我要上首焦#全网最火的荷包蛋焖面❗️真的太好吃啦❗️-会做饭很酷!】OMG！这是什么神仙美味啊~真的强烈推荐你们试一试～查看图片了解菜谱（每天限量免费课程，想跟大师学厨艺就来这https:\/\/m.weibo.cn\/p\/100404i33631）",
            "name" : "#我要上首焦#全网最火的荷包蛋焖面❗️真的太好吃啦❗️-会做饭很酷!",
            "image" : "https:\/\/cp1.douguo.com\/upload\/caiku\/4\/c\/b\/4cf49b8a9dc0fff6103d3d0b6706057b.jpg",
            "channel" : "1",
            "mini_program" : [

            ],
            "qr_image" : "",
            "s_u" : "",
            "object_id" : "2969757"
          },
          {
            "s_d" : "#我要上首焦#全网最火的荷包蛋焖面❗️真的太好吃啦❗️-会做饭很酷!",
            "name" : "#我要上首焦#全网最火的荷包蛋焖面❗️真的太好吃啦❗️-会做饭很酷!",
            "channel" : "7",
            "image" : "https:\/\/cp1.douguo.com\/upload\/caiku\/4\/c\/b\/4cf49b8a9dc0fff6103d3d0b6706057b.jpg",
            "object_id" : "2969757",
            "s_u" : "http:\/\/m.douguo.com\/cookbook\/2969757.html",
            "qr_image" : "",
            "mini_program" : [

            ]
          },
          {
            "channel" : "8",
            "s_d" : "#我要上首焦#全网最火的荷包蛋焖面❗️真的太好吃啦❗️-会做饭很酷!",
            "image" : "https:\/\/cp1.douguo.com\/upload\/caiku\/4\/c\/b\/4cf49b8a9dc0fff6103d3d0b6706057b.jpg",
            "mini_program" : [

            ],
            "object_id" : "2969757",
            "s_u" : "http:\/\/m.douguo.com\/cookbook\/2969757.html",
            "qr_image" : "",
            "name" : "#我要上首焦#全网最火的荷包蛋焖面❗️真的太好吃啦❗️-会做饭很酷!"
          }
        ],
        "image" : "https:\/\/cp1.douguo.com\/upload\/caiku\/4\/c\/b\/4cf49b8a9dc0fff6103d3d0b6706057b.jpg",
        "qr_image" : "",
        "name" : "#我要上首焦#全网最火的荷包蛋焖面❗️真的太好吃啦❗️-会做饭很酷!"
      },
      "dish_count_text" : "22",
      "sr" : "",
      "pw" : 600,
      "recommend_label" : "22人学做",
      "major" : [
        {
          "note" : "适量",
          "title" : "鲜面条"
        },
        {
          "note" : "两个",
          "tu" : "https:\/\/m.douguo.com\/ingredients\/鸡蛋\/detailmaterial",
          "title" : "鸡蛋"
        },
        {
          "tu" : "https:\/\/m.douguo.com\/ingredients\/葱花\/detailmaterial",
          "title" : "葱花",
          "note" : "适量"
        },
        {
          "note" : "一勺",
          "tu" : "https:\/\/m.douguo.com\/ingredients\/生抽\/detailmaterial",
          "title" : "生抽"
        },
        {
          "title" : "老抽",
          "note" : "一勺",
          "tu" : "https:\/\/m.douguo.com\/ingredients\/老抽\/detailmaterial"
        },
        {
          "title" : "陈醋",
          "note" : "一勺",
          "tu" : "https:\/\/m.douguo.com\/ingredients\/陈醋\/detailmaterial"
        },
        {
          "title" : "白糖，盐",
          "note" : "适量"
        }
      ],
      "original_photo_path" : "http:\/\/i1.douguo.net\/upload\/caiku\/4\/c\/b\/yuan_4cf49b8a9dc0fff6103d3d0b6706057b.jpg",
      "author_id" : 20723998,
      "cook_time" : "",
      "title_ad" : [

      ],
      "tips" : "",
      "guide_image" : "",
      "hqu" : "recipes:\/\/www.douguo.com\/notedetail?id=21162253",
      "thumb_path" : "https:\/\/i1.douguo.com\/upload\/caiku\/4\/c\/b\/300_4cf49b8a9dc0fff6103d3d0b6706057b.jpg",
      "cookstory" : "",
      "minor" : [

      ],
      "vfurl" : "",
      "act_des" : "",
      "btm_dsp" : [

      ],
      "cook_id" : "2969757",
      "ipia" : [

      ],
      "comments_count_text" : "24",
      "cook_difficulty_image" : "",
      "views_count_text" : "724.0万",
      "author_verified" : 1,
      "comments_count" : 24,
      "ipit" : 0,
      "display_ingredient" : 1,
      "rpst" : "",
      "ipurl" : "",
      "story_dsp" : [

      ],
      "rate_show" : 0,
      "rate" : 4,
      "create_time" : "2020-08-12 18:06:23",
      "vc" : "7240083",
      "recent_comments" : [

      ],
      "bs" : [

      ],
      "ipt" : "",
      "ph" : 450,
      "title" : "全网最火的荷包蛋焖面❗️真的太好吃啦❗️",
      "cookwares" : [

      ],
      "ecs" : 0,
      "author_photo" : "http:\/\/tx1.douguo.net\/upload\/photo\/3\/2\/9\/70_u01160205466906080407.jpg",
      "vu" : "",
      "purl" : "",
      "rewarded_video_dsp" : [

      ],
      "recommendation_tag" : "",
      "sc" : 0,
      "advice" : {
        "at" : "盐摄入过高有害健康～",
        "has" : [
          {
            "t" : "高盐",
            "url" : "recipes:\/\/www.douguo.com\/simplerecipelist?t=高盐&id=高盐"
          }
        ],
        "da" : {
          "t" : "查看详细分析",
          "url" : "https:\/\/m.douguo.com\/recipe\/nutrient_self\/2969757",
          "iu" : "https:\/\/i1.douguo.com\/upload\/banner\/f\/4\/d\/f48877e53c37759bc12ac494be82ec8d.png"
        }
      },
      "recipe_tags" : [

      ],
      "packages_id" : [

      ],
      "photo_path" : "https:\/\/i1.douguo.com\/upload\/caiku\/4\/c\/b\/600_4cf49b8a9dc0fff6103d3d0b6706057b.jpg",
      "rpid" : 0,
      "recipe_list_tags" : [
        {
          "text" : "关注的人",
          "background_start_color" : "#F4F5F5",
          "right_image" : "",
          "background_end_color" : "#F4F5F5",
          "text_color" : "#141515",
          "background_border_color" : "",
          "jump_url" : ""
        }
      ],
      "cook_time_image" : "",
      "ss" : [

      ],
      "author" : "米粒爱奇异果",
      "thumb_height" : 0,
      "related_ads" : [

      ],
      "rpt" : "",
      "cookstorys" : [
        {
          "color" : "",
          "c" : "参与活动:",
          "icon" : "",
          "type" : 0,
          "u" : "",
          "id" : 0
        },
        {
          "id" : 0,
          "c" : "#我要上首焦丨万元红包瓜分计划#",
          "icon" : "",
          "u" : "https:\/\/m.douguo.com\/activity\/cpzj\/detail\/2706?isapp=1&open=0&_vs=1000300",
          "type" : 0
        }
      ],
      "favo_counts" : 27536,
      "rcs" : [

      ],
      "rsm" : "该功能暂停使用"
    }
  },
  "state" : "success"
}