{
  "state" : "success",
  "result" : {
    "recipe" : {
      "ssu" : "",
      "author_verified" : 1,
      "thumb_height" : 0,
      "cook_id" : "2061661",
      "comments" : [
        "{\n    ac = \"#999999\";\n    at = \"\\U6d4e\\U5357\\U5e02\";\n    ccc = 2;\n    \"child_comments\" =     (\n                {\n            ac = \"#999999\";\n            at = \"\\U6cf0\\U5b89\\U5e02\";\n            ccc = 0;\n            city = \"\\U6cf0\\U5b89\\U5e02\";\n            cmc = 2;\n            content =             (\n                                {\n                    c = \" \\U6602~\\U7279\\U6e05\\U6de1\";\n                }\n            );\n            ia = 1;\n            id = 6394580;\n            \"ip_address_location\" = \"\";\n            like = 0;\n            \"like_count\" = 0;\n            \"reply_id\" = 6392175;\n            \"reply_user\" =             {\n                \"followers_count_text\" = \"\";\n                id = 15703874;\n                \"is_prime\" = 0;\n                lv = 0;\n                lvl = 5;\n                n = \"\\U6d41\\U62c9\\U62c9\";\n                p = \"http:\/\/tx1.douguo.net\/upload\/photo\/0\/4\/6\/70_u49135727967077192524.jpeg\";\n                \"progress_image\" = \"\";\n                \"recipes_count_text\" = \"\";\n                relationship = \"-1\";\n                title = \"\";\n                v = 0;\n                \"verified_image\" = \"\";\n            };\n            \"sticker_icon\" =             (\n            );\n            time = \"2019-02-16 00:00:02\";\n            u =             {\n                \"followers_count_text\" = \"\";\n                id = 17794329;\n                \"is_prime\" = 0;\n                lv = 0;\n                lvl = 8;\n                n = \"sure\\U6c6a\";\n                p = \"http:\/\/tx1.douguo.net\/upload\/photo\/6\/2\/8\/70_u66631823200625014715.jpg\";\n                \"progress_image\" = \"\";\n                \"recipes_count_text\" = \"\";\n                relationship = \"-1\";\n                title = \"\";\n                v = 1;\n                \"verified_image\" = \"\";\n            };\n        },\n                {\n            ac = \"#999999\";\n            at = \"\\U6cf0\\U5b89\\U5e02\";\n            ccc = 0;\n            city = \"\\U6cf0\\U5b89\\U5e02\";\n            cmc = 2;\n            content =             (\n                                {\n                    c = \" \\U8ddf\\U6211\\U6d41\\U665a\\U4e2a\\U5b89\";\n                }\n            );\n            ia = 1;\n            id = 6394638;\n            \"ip_address_location\" = \"\";\n            like = 0;\n            \"like_count\" = 0;\n            \"reply_id\" = 6392175;\n            \"reply_user\" =             {\n                \"followers_count_text\" = \"\";\n                id = 15703874;\n                \"is_prime\" = 0;\n                lv = 0;\n                lvl = 5;\n                n = \"\\U6d41\\U62c9\\U62c9\";\n                p = \"http:\/\/tx1.douguo.net\/upload\/photo\/0\/4\/6\/70_u49135727967077192524.jpeg\";\n                \"progress_image\" = \"\";\n                \"recipes_count_text\" = \"\";\n                relationship = \"-1\";\n                title = \"\";\n                v = 0;\n                \"verified_image\" = \"\";\n            };\n            \"sticker_icon\" =             (\n            );\n            time = \"2019-02-16 00:22:16\";\n            u =             {\n                \"followers_count_text\" = \"\";\n                id = 17794329;\n                \"is_prime\" = 0;\n                lv = 0;\n                lvl = 8;\n                n = \"sure\\U6c6a\";\n                p = \"http:\/\/tx1.douguo.net\/upload\/photo\/6\/2\/8\/70_u66631823200625014715.jpg\";\n                \"progress_image\" = \"\";\n                \"recipes_count_text\" = \"\";\n                relationship = \"-1\";\n                title = \"\";\n                v = 1;\n                \"verified_image\" = \"\";\n            };\n        }\n    );\n    city = \"\\U6d4e\\U5357\\U5e02\";\n    cmc = 2;\n    content =     (\n                {\n            c = \"\\U55f7\\U545c\\Uff0c\\U539f\\U6765\\U82b9\\U83dc\\U53f6\\U8fd8\\U53ef\\U4ee5\\U8fd9\\U4e48\\U5403\\U5440\\U3002\";\n        }\n    );\n    ia = 0;\n    id = 6392175;\n    \"ip_address_location\" = \"\";\n    like = 0;\n    \"like_count\" = 0;\n    \"reply_id\" = 0;\n    \"sticker_icon\" =     (\n    );\n    time = \"2019-02-15 08:13:13\";\n    u =     {\n        \"followers_count_text\" = \"\";\n        id = 15703874;\n        \"is_prime\" = 0;\n        lv = 0;\n        lvl = 5;\n        n = \"\\U6d41\\U62c9\\U62c9\";\n        p = \"http:\/\/tx1.douguo.net\/upload\/photo\/0\/4\/6\/70_u49135727967077192524.jpeg\";\n        \"progress_image\" = \"\";\n        \"recipes_count_text\" = \"\";\n        relationship = \"-1\";\n        title = \"\";\n        v = 0;\n        \"verified_image\" = \"\";\n    };\n}",
        "{\n    ac = \"#999999\";\n    at = \"\";\n    ccc = 1;\n    \"child_comments\" =     (\n                {\n            ac = \"#999999\";\n            at = \"\";\n            ccc = 0;\n            city = \"\";\n            cmc = 2;\n            content =             (\n                                {\n                    c = \" \\U751c\\U7b52\\U53ef\\U771f\\U597d\\U5403\";\n                }\n            );\n            ia = 1;\n            id = 6391604;\n            \"ip_address_location\" = \"\";\n            like = 0;\n            \"like_count\" = 0;\n            \"reply_id\" = 6391603;\n            \"reply_user\" =             {\n                \"followers_count_text\" = \"\";\n                id = 17794329;\n                \"is_prime\" = 0;\n                lv = 0;\n                lvl = 8;\n                n = \"sure\\U6c6a\";\n                p = \"http:\/\/tx1.douguo.net\/upload\/photo\/6\/2\/8\/70_u66631823200625014715.jpg\";\n                \"progress_image\" = \"\";\n                \"recipes_count_text\" = \"\";\n                relationship = \"-1\";\n                title = \"\";\n                v = 1;\n                \"verified_image\" = \"\";\n            };\n            \"sticker_icon\" =             (\n            );\n            time = \"2019-02-14 22:06:43\";\n            u =             {\n                \"followers_count_text\" = \"\";\n                id = 17794329;\n                \"is_prime\" = 0;\n                lv = 0;\n                lvl = 8;\n                n = \"sure\\U6c6a\";\n                p = \"http:\/\/tx1.douguo.net\/upload\/photo\/6\/2\/8\/70_u66631823200625014715.jpg\";\n                \"progress_image\" = \"\";\n                \"recipes_count_text\" = \"\";\n                relationship = \"-1\";\n                title = \"\";\n                v = 1;\n                \"verified_image\" = \"\";\n            };\n        }\n    );\n    city = \"\";\n    cmc = 2;\n    content =     (\n                {\n            c = \"\\U55f7\\U545c\";\n        }\n    );\n    ia = 1;\n    id = 6391603;\n    \"ip_address_location\" = \"\";\n    like = 0;\n    \"like_count\" = 0;\n    \"reply_id\" = 0;\n    \"sticker_icon\" =     (\n    );\n    time = \"2019-02-14 22:06:28\";\n    u =     {\n        \"followers_count_text\" = \"\";\n        id = 17794329;\n        \"is_prime\" = 0;\n        lv = 0;\n        lvl = 8;\n        n = \"sure\\U6c6a\";\n        p = \"http:\/\/tx1.douguo.net\/upload\/photo\/6\/2\/8\/70_u66631823200625014715.jpg\";\n        \"progress_image\" = \"\";\n        \"recipes_count_text\" = \"\";\n        relationship = \"-1\";\n        title = \"\";\n        v = 1;\n        \"verified_image\" = \"\";\n    };\n}"
      ],
      "rate" : 5,
      "v_u" : "",
      "author_photo" : "http:\/\/tx1.douguo.net\/upload\/photo\/6\/2\/8\/70_u66631823200625014715.jpg",
      "ipci" : "",
      "share_info" : {
        "infos" : [
          {
            "channel" : "1",
            "name" : "芝豆卜酸油芹甜-会做饭很酷!",
            "s_u" : "",
            "mini_program" : [

            ],
            "qr_image" : "",
            "object_id" : "2061661",
            "s_d" : "#学做饭用豆果美食#  我在@豆果美食 分享了【芝豆卜酸油芹甜-会做饭很酷!】，制作美食的过程承载了我生活中的热情，和我一起感受这份小确幸吧！查看图片了解菜谱（你喜欢的美食都在这里！https:\/\/m.weibo.cn\/p\/100404i33631）#会做饭很酷# ",
            "image" : "https:\/\/cp1.douguo.com\/upload\/caiku\/0\/c\/8\/0cdb558012af3909cd31789a349413d8.jpg"
          },
          {
            "channel" : "7",
            "qr_image" : "",
            "s_u" : "http:\/\/m.douguo.com\/cookbook\/2061661.html",
            "object_id" : "2061661",
            "s_d" : "芝豆卜酸油芹甜-会做饭很酷!",
            "mini_program" : [

            ],
            "image" : "https:\/\/cp1.douguo.com\/upload\/caiku\/0\/c\/8\/0cdb558012af3909cd31789a349413d8.jpg",
            "name" : "芝豆卜酸油芹甜-会做饭很酷!"
          },
          {
            "s_u" : "http:\/\/m.douguo.com\/cookbook\/2061661.html",
            "channel" : "8",
            "qr_image" : "",
            "name" : "芝豆卜酸油芹甜-会做饭很酷!",
            "object_id" : "2061661",
            "s_d" : "芝豆卜酸油芹甜-会做饭很酷!",
            "image" : "https:\/\/cp1.douguo.com\/upload\/caiku\/0\/c\/8\/0cdb558012af3909cd31789a349413d8.jpg",
            "mini_program" : [

            ]
          }
        ],
        "qr_image" : "",
        "s_d" : "芝豆卜酸油芹甜-会做饭很酷!",
        "object_id" : "2061661",
        "image" : "https:\/\/cp1.douguo.com\/upload\/caiku\/0\/c\/8\/0cdb558012af3909cd31789a349413d8.jpg",
        "mini_program" : [

        ],
        "name" : "芝豆卜酸油芹甜-会做饭很酷!",
        "s_u" : "http:\/\/m.douguo.com\/cookbook\/2061661.html"
      },
      "display_ingredient" : 1,
      "rips" : 0,
      "collect_status" : 0,
      "major" : [
        {
          "tu" : "https:\/\/m.douguo.com\/ingredients\/芹菜叶\/detailmaterial",
          "title" : "芹菜叶",
          "note" : "一盆"
        },
        {
          "note" : "五片",
          "title" : "豆腐",
          "tu" : "https:\/\/m.douguo.com\/ingredients\/豆腐\/detailmaterial"
        },
        {
          "note" : "可换",
          "title" : "辣萝卜"
        },
        {
          "note" : "适量",
          "tu" : "https:\/\/m.douguo.com\/ingredients\/白糖\/detailmaterial",
          "title" : "白糖"
        },
        {
          "title" : "盐",
          "note" : "少许",
          "tu" : "https:\/\/m.douguo.com\/ingredients\/盐\/detailmaterial"
        },
        {
          "note" : "可换",
          "title" : "醋",
          "tu" : "https:\/\/m.douguo.com\/ingredients\/醋\/detailmaterial"
        },
        {
          "tu" : "https:\/\/m.douguo.com\/ingredients\/香油\/detailmaterial",
          "note" : "几滴",
          "title" : "香油"
        },
        {
          "title" : "熟芝麻",
          "note" : "一把"
        }
      ],
      "levelid" : 2,
      "guide_image" : "",
      "cook_difficulty_image" : "https:\/\/i1.douguo.com\/upload\/banner\/1551424390.png",
      "rpid" : 0,
      "ipoi" : "",
      "advice" : {
        "at" : "能帮助你减脂、控血糖～",
        "da" : {
          "t" : "查看详细分析",
          "iu" : "https:\/\/i1.douguo.com\/upload\/banner\/f\/4\/d\/f48877e53c37759bc12ac494be82ec8d.png",
          "url" : "https:\/\/m.douguo.com\/recipe\/nutrient_self\/2061661"
        },
        "has" : [
          {
            "url" : "recipes:\/\/www.douguo.com\/simplerecipelist?t=低糖&id=低糖",
            "t" : "低糖"
          }
        ]
      },
      "minor" : [

      ],
      "comments_count" : 5,
      "recommendation_tag" : "",
      "cook_time_image" : "https:\/\/i1.douguo.com\/upload\/banner\/1551424358.png",
      "title" : "芝豆卜酸油芹甜",
      "views_count_text" : "11.1万",
      "rewarded_video_dsp" : [

      ],
      "ipit" : 0,
      "ipurl" : "",
      "notes" : [

      ],
      "vc" : "110605",
      "old_comments" : [

      ],
      "ipt" : "",
      "recent_comments" : [

      ],
      "pw" : 800,
      "su" : "",
      "rcs" : [

      ],
      "original_photo_path" : "http:\/\/i1.douguo.net\/upload\/caiku\/0\/c\/8\/yuan_0cdb558012af3909cd31789a349413d8.jpg",
      "mid_mdsp" : [

      ],
      "thumb_path" : "https:\/\/i1.douguo.com\/upload\/caiku\/0\/c\/8\/300_0cdb558012af3909cd31789a349413d8.jpg",
      "rrpt" : "",
      "user" : {
        "following_count" : 0,
        "avatar_medium" : "http:\/\/tx1.douguo.net\/upload\/photo\/6\/2\/8\/140_u66631823200625014715.jpg",
        "lvl" : 8,
        "user_photo" : "http:\/\/tx1.douguo.net\/upload\/photo\/6\/2\/8\/70_u66631823200625014715.jpg",
        "birthday" : "",
        "favor_diaries_count" : 0,
        "qzone_nick" : "",
        "nick" : "sure汪",
        "recipes_count" : 0,
        "progress_image" : "",
        "subscription_article_count" : 0,
        "user_id" : "17794329",
        "subscription" : 0,
        "pc" : 0,
        "introduction" : "",
        "verified" : 1,
        "verified_url" : "https:\/\/m.douguo.com\/user\/prodesc",
        "weibo_nick" : "",
        "is_prime" : 0,
        "gender" : 2,
        "setted_email" : 0,
        "fc" : 0,
        "verified_image" : "https:\/\/i1.douguo.com\/upload\/note\/d\/a\/a\/da84247847aebe48d9dd0fcdac88862a.png",
        "sign" : "",
        "point" : 0,
        "favorites_count" : 0,
        "age" : "",
        "user_large_photo" : "http:\/\/tx1.douguo.net\/upload\/photo\/6\/2\/8\/yuan_u66631823200625014715.jpg",
        "dishes_count" : 0,
        "followers_count" : 0,
        "diaries_count" : 0,
        "lv" : 0,
        "regist_time" : "",
        "email" : "",
        "user_cover" : "",
        "location" : 0,
        "qq_weibo_nick" : "",
        "mobile" : "",
        "coursecount" : 0,
        "userid" : "17794329"
      },
      "packages_id" : [

      ],
      "cook_time" : "10分钟左右",
      "release_time" : "",
      "vfurl" : "",
      "act_des" : "",
      "favo_counts" : 3453,
      "ph" : 450,
      "photo_path" : "https:\/\/i1.douguo.com\/upload\/caiku\/0\/c\/8\/600_0cdb558012af3909cd31789a349413d8.jpg",
      "first_level_comment_count" : 2,
      "purl" : "",
      "rate_count" : 1,
      "recipe_list_tags" : [
        {
          "background_end_color" : "#F4F5F5",
          "background_border_color" : "",
          "background_start_color" : "#F4F5F5",
          "text" : "关注的人",
          "text_color" : "#141515",
          "jump_url" : "",
          "right_image" : ""
        }
      ],
      "tags" : [

      ],
      "rpst" : "",
      "author" : "sure汪",
      "btm_dsp" : [

      ],
      "story_dsp" : [

      ],
      "ecs" : 1,
      "cookwares" : [

      ],
      "rsm" : "该功能暂停使用",
      "dish_count" : 2,
      "hqu" : "recipes:\/\/www.douguo.com\/notedetail?id=21162253",
      "ipia" : [

      ],
      "clicks" : "106881",
      "dishes" : [

      ],
      "cookstorys" : [
        {
          "type" : 0,
          "c" : "【3-237】   这是一个只可逗趣不可酸 彼此有情就很甜的故事……祝有伴儿的胖又情人节快乐，没伴儿的小可爱初十开心\n                                           ----- 2019.2.14",
          "color" : "",
          "id" : 0,
          "u" : "",
          "icon" : ""
        }
      ],
      "dish_count_text" : "2",
      "eu" : "recipes:\/\/www.douguo.com\/postdetail?id=242016",
      "favo_counts_text" : "3453",
      "image" : "http:\/\/i1.douguo.net\/upload\/caiku\/0\/c\/8\/300_0cdb558012af3909cd31789a349413d8.jpg",
      "rate_show" : 0,
      "recommend_label" : "2人学做",
      "tips" : "",
      "top_mdsp" : [

      ],
      "recipe_tags" : [

      ],
      "title_ad" : [

      ],
      "comments_count_text" : "5",
      "sc" : 0,
      "author_id" : 17794329,
      "brand_day_dsp" : [

      ],
      "rrps" : [

      ],
      "create_time" : "2019-02-14 21:58:16",
      "ss" : [

      ],
      "bs" : [

      ],
      "cook_difficulty" : "切墩(初级)",
      "hq" : 1,
      "recommended" : 0,
      "rpt" : "",
      "vu" : "",
      "cookstory" : "【3-237】   这是一个只可逗趣不可酸 彼此有情就很甜的故事……祝有伴儿的胖又情人节快乐，没伴儿的小可爱初十开心\n                                           ----- 2019.2.14",
      "cookstep" : [
        {
          "thumb" : "https:\/\/i1.douguo.com\/upload\/caiku\/0\/5\/c\/140_05aaa2ef97c1de96098d6bb3ed70d32c.jpg",
          "frame" : "-1",
          "image" : "https:\/\/i1.douguo.com\/upload\/caiku\/0\/5\/c\/05aaa2ef97c1de96098d6bb3ed70d32c.jpg",
          "position" : 1,
          "image_width" : 1920,
          "image_height" : 1080,
          "content" : "芹菜叶收拾干净，扔到将开未开搁了点白糖的热水锅里"
        },
        {
          "frame" : "-1",
          "thumb" : "https:\/\/i1.douguo.com\/upload\/caiku\/6\/8\/3\/140_68a12380c05d5c6f937adb3675c97133.jpg",
          "content" : "烫个十几秒关火捞出来，控水攥干收拾成自己喜欢的碎度",
          "image" : "https:\/\/i1.douguo.com\/upload\/caiku\/6\/8\/3\/68a12380c05d5c6f937adb3675c97133.jpg",
          "position" : 2,
          "image_height" : 450,
          "image_width" : 800
        },
        {
          "image" : "https:\/\/i1.douguo.com\/upload\/caiku\/9\/b\/4\/9b339605f605564beec71b41e973ff24.jpg",
          "frame" : "-1",
          "image_width" : 1920,
          "thumb" : "https:\/\/i1.douguo.com\/upload\/caiku\/9\/b\/4\/140_9b339605f605564beec71b41e973ff24.jpg",
          "content" : "切上点炸好的豆腐或者烫好的豆干",
          "position" : 3,
          "image_height" : 1080
        },
        {
          "image" : "https:\/\/i1.douguo.com\/upload\/caiku\/d\/4\/f\/d4818fb448c4909d451ec6cd5224d98f.jpg",
          "position" : 4,
          "image_height" : 450,
          "content" : "根据个人口味加糖加盐，根据个人喜好淋醋或者生抽，扔切碎的榨菜或者酸辣萝卜干",
          "frame" : "-1",
          "image_width" : 800,
          "thumb" : "https:\/\/i1.douguo.com\/upload\/caiku\/d\/4\/f\/140_d4818fb448c4909d451ec6cd5224d98f.jpg"
        },
        {
          "content" : "搅和匀了揪点尝尝，确认没问题了淋油撒芝麻",
          "image" : "https:\/\/i1.douguo.com\/upload\/caiku\/0\/6\/f\/0665aa7284ddca56220242db4a661e0f.jpg",
          "image_width" : 800,
          "image_height" : 450,
          "thumb" : "https:\/\/i1.douguo.com\/upload\/caiku\/0\/6\/f\/140_0665aa7284ddca56220242db4a661e0f.jpg",
          "frame" : "-1",
          "position" : 5
        },
        {
          "content" : "咔咔搅和匀就是一份可以配粥配饭配饺砸的优秀小凉菜啦",
          "thumb" : "https:\/\/i1.douguo.com\/upload\/caiku\/2\/7\/3\/140_27c93ab261d238a9b5fada202d43aaf3.jpg",
          "image_width" : 1920,
          "frame" : "-1",
          "image" : "https:\/\/i1.douguo.com\/upload\/caiku\/2\/7\/3\/27c93ab261d238a9b5fada202d43aaf3.jpg",
          "image_height" : 1080,
          "position" : 6
        },
        {
          "frame" : "-1",
          "image_width" : 800,
          "thumb" : "https:\/\/i1.douguo.com\/upload\/caiku\/6\/3\/6\/140_6379acdb52a0cedcb2b3a61ab0d57016.jpg",
          "content" : "来，张……嘴合上吧还是，寄几的饭菜寄几吃",
          "image_height" : 450,
          "image" : "https:\/\/i1.douguo.com\/upload\/caiku\/6\/3\/6\/6379acdb52a0cedcb2b3a61ab0d57016.jpg",
          "position" : 7
        },
        {
          "image" : "https:\/\/i1.douguo.com\/upload\/caiku\/3\/9\/c\/3965c057e08f6a9ca7ef3cc3dde5962c.jpg",
          "content" : "走了哟，明天见~",
          "frame" : "-1",
          "position" : 8,
          "thumb" : "https:\/\/i1.douguo.com\/upload\/caiku\/3\/9\/c\/140_3965c057e08f6a9ca7ef3cc3dde5962c.jpg",
          "image_height" : 450,
          "image_width" : 800
        }
      ],
      "related_ads" : [

      ],
      "rdsps" : [

      ],
      "sr" : ""
    }
  },
  "status" : 0
}