{
  "state" : "success",
  "status" : 0,
  "result" : {
    "recipe" : {
      "notes" : [

      ],
      "author_verified" : 1,
      "rpid" : 0,
      "thumb_height" : 0,
      "rpst" : "",
      "cookwares" : [

      ],
      "ecs" : 0,
      "rcs" : [

      ],
      "pw" : 800,
      "cook_time" : "30~60分钟",
      "ipt" : "",
      "rsm" : "该功能暂停使用",
      "comments_count" : 1,
      "top_mdsp" : [

      ],
      "recipe_tags" : [

      ],
      "dish_count" : 1,
      "btm_dsp" : [

      ],
      "recommended" : 0,
      "ph" : 609,
      "recipe_list_tags" : [
        {
          "text_color" : "#141515",
          "background_border_color" : "",
          "background_start_color" : "#F4F5F5",
          "jump_url" : "",
          "text" : "关注的人",
          "background_end_color" : "#F4F5F5",
          "right_image" : ""
        },
        {
          "text_color" : "#141515",
          "jump_url" : "",
          "background_start_color" : "#F4F5F5",
          "text" : "内容详细",
          "right_image" : "",
          "background_border_color" : "",
          "background_end_color" : "#F4F5F5"
        }
      ],
      "ipoi" : "",
      "advice" : {
        "da" : {
          "url" : "https:\/\/m.douguo.com\/recipe\/nutrient_self\/2287808",
          "iu" : "https:\/\/i1.douguo.com\/upload\/banner\/f\/4\/d\/f48877e53c37759bc12ac494be82ec8d.png",
          "t" : "查看详细分析"
        },
        "has" : [
          {
            "url" : "recipes:\/\/www.douguo.com\/simplerecipelist?t=低盐&id=低盐",
            "t" : "低盐"
          }
        ],
        "at" : "钠能调节机体水分，维持酸碱平衡～"
      },
      "vfurl" : "",
      "vc" : "297395",
      "rdsps" : [

      ],
      "cookstory" : "宝贝嚷嚷了好久的杯子蛋糕，今天给她做了，松软可口，超级好吃哦！",
      "rewarded_video_dsp" : [

      ],
      "ipurl" : "",
      "cook_difficulty_image" : "https:\/\/i1.douguo.com\/upload\/banner\/1551424413.png",
      "title_ad" : [

      ],
      "dishes" : [

      ],
      "purl" : "",
      "event" : {
        "name" : "金龙鱼精英100%烘焙大师赛",
        "id" : 2683,
        "url" : "https:\/\/m.douguo.com\/activity\/ncpzj\/detail\/2683?isapp=1&open=0&_vs=1000300&&dg_refreshkey=publishnote"
      },
      "dish_count_text" : "1",
      "old_comments" : [

      ],
      "eu" : "recipes:\/\/www.douguo.com\/postdetail?id=242016",
      "ssu" : "",
      "author_photo" : "http:\/\/tx1.douguo.net\/upload\/photo\/e\/b\/1\/70_eb6d54eb5912d1c2452ebd28cc032da1.jpg",
      "comments_count_text" : "1",
      "hqu" : "recipes:\/\/www.douguo.com\/notedetail?id=21162253",
      "tips" : "烤箱的时间和温度根据自己家烤箱的脾气调整。",
      "cook_id" : "2287808",
      "cookstorys" : [
        {
          "id" : 0,
          "color" : "",
          "type" : 0,
          "c" : "宝贝嚷嚷了好久的杯子蛋糕，今天给她做了，松软可口，超级好吃哦！",
          "icon" : "",
          "u" : ""
        }
      ],
      "image" : "http:\/\/i1.douguo.net\/upload\/caiku\/6\/0\/e\/300_606322aa88d27c7cfbac26a08e38db9e.jpg",
      "create_time" : "2019-04-11 23:05:00",
      "rrpt" : "",
      "ipci" : "",
      "act_des" : "",
      "rips" : 0,
      "ss" : [

      ],
      "recommend_label" : "1人学做",
      "levelid" : 2,
      "comments" : [
        "{\n    ac = \"#999999\";\n    at = \"\";\n    ccc = 0;\n    \"child_comments\" =     (\n    );\n    city = \"\";\n    cmc = 2;\n    content =     (\n                {\n            c = \"\\U4e3a\\U4ec0\\U4e48\\U51b7\\U4e86\\U86cb\\U7cd5\\U4f1a\\U7f29\\U676f\\U5462\";\n        }\n    );\n    ia = 0;\n    id = 6505128;\n    \"ip_address_location\" = \"\";\n    like = 0;\n    \"like_count\" = 0;\n    \"reply_id\" = 0;\n    \"sticker_icon\" =     (\n    );\n    time = \"2019-04-13 09:11:41\";\n    u =     {\n        \"followers_count_text\" = \"\";\n        id = 18476038;\n        \"is_prime\" = 0;\n        lv = 0;\n        lvl = 4;\n        n = \"K\\U5c0f\\U5586\";\n        p = \"http:\/\/tx1.douguo.net\/upload\/photo\/a\/c\/3\/70_u13382545653700408151633.jpg\";\n        \"progress_image\" = \"\";\n        \"recipes_count_text\" = \"\";\n        relationship = \"-1\";\n        title = \"\";\n        v = 0;\n        \"verified_image\" = \"\";\n    };\n}"
      ],
      "v_u" : "",
      "share_info" : {
        "qr_image" : "",
        "infos" : [
          {
            "s_d" : "#学做饭用豆果美食# 我在@豆果美食 分享了【芝麻杯子蛋糕#春季减肥，边吃边瘦#-会做饭很酷!】，这菜真的很好吃，而且做法简单不难学，还不快来跟我学～查看图片了解菜谱（每天限量免费课程，想跟大师学厨艺就来这https:\/\/m.weibo.cn\/p\/100404i33631）#会做饭很酷# ",
            "object_id" : "2287808",
            "qr_image" : "",
            "mini_program" : [

            ],
            "name" : "芝麻杯子蛋糕#春季减肥，边吃边瘦#-会做饭很酷!",
            "s_u" : "",
            "channel" : "1",
            "image" : "https:\/\/cp1.douguo.com\/upload\/caiku\/6\/0\/e\/606322aa88d27c7cfbac26a08e38db9e.jpg"
          },
          {
            "image" : "https:\/\/cp1.douguo.com\/upload\/caiku\/6\/0\/e\/606322aa88d27c7cfbac26a08e38db9e.jpg",
            "s_u" : "http:\/\/m.douguo.com\/cookbook\/2287808.html",
            "object_id" : "2287808",
            "channel" : "7",
            "s_d" : "芝麻杯子蛋糕#春季减肥，边吃边瘦#-会做饭很酷!",
            "mini_program" : [

            ],
            "name" : "芝麻杯子蛋糕#春季减肥，边吃边瘦#-会做饭很酷!",
            "qr_image" : ""
          },
          {
            "image" : "https:\/\/cp1.douguo.com\/upload\/caiku\/6\/0\/e\/606322aa88d27c7cfbac26a08e38db9e.jpg",
            "name" : "芝麻杯子蛋糕#春季减肥，边吃边瘦#-会做饭很酷!",
            "s_u" : "http:\/\/m.douguo.com\/cookbook\/2287808.html",
            "object_id" : "2287808",
            "channel" : "8",
            "s_d" : "芝麻杯子蛋糕#春季减肥，边吃边瘦#-会做饭很酷!",
            "qr_image" : "",
            "mini_program" : [

            ]
          }
        ],
        "name" : "芝麻杯子蛋糕#春季减肥，边吃边瘦#-会做饭很酷!",
        "s_d" : "芝麻杯子蛋糕#春季减肥，边吃边瘦#-会做饭很酷!",
        "s_u" : "http:\/\/m.douguo.com\/cookbook\/2287808.html",
        "mini_program" : [

        ],
        "image" : "https:\/\/cp1.douguo.com\/upload\/caiku\/6\/0\/e\/606322aa88d27c7cfbac26a08e38db9e.jpg",
        "object_id" : "2287808"
      },
      "favo_counts" : 5578,
      "guide_image" : "",
      "ipit" : 0,
      "vu" : "",
      "cookstep" : [
        {
          "content" : "鸡蛋打入打蛋盆里。",
          "image" : "https:\/\/i1.douguo.com\/upload\/caiku\/5\/d\/a\/5de6fd5bfc1cdb77a446ccfe5ed7309a.jpg",
          "image_width" : 800,
          "thumb" : "https:\/\/i1.douguo.com\/upload\/caiku\/5\/d\/a\/140_5de6fd5bfc1cdb77a446ccfe5ed7309a.jpg",
          "frame" : "-1",
          "position" : 1,
          "image_height" : 600
        },
        {
          "thumb" : "https:\/\/i1.douguo.com\/upload\/caiku\/4\/6\/7\/140_46614a6f41795c1e2a2481c250d49aa7.jpg",
          "image_height" : 600,
          "frame" : "-1",
          "image_width" : 800,
          "position" : 2,
          "content" : "加入细砂糖。",
          "image" : "https:\/\/i1.douguo.com\/upload\/caiku\/4\/6\/7\/46614a6f41795c1e2a2481c250d49aa7.jpg"
        },
        {
          "image_width" : 800,
          "image" : "https:\/\/i1.douguo.com\/upload\/caiku\/8\/8\/7\/88c6c5986ef51042f747dbedc2c1f517.jpg",
          "image_height" : 600,
          "thumb" : "https:\/\/i1.douguo.com\/upload\/caiku\/8\/8\/7\/140_88c6c5986ef51042f747dbedc2c1f517.jpg",
          "content" : "用电动打蛋器打发至，提起打蛋器随意画图案不易消失。",
          "position" : 3,
          "frame" : "-1"
        },
        {
          "frame" : "-1",
          "content" : "分三次筛入低筋面粉，每一次筛入以后都要用刮刀从底部翻拌均匀，再进行下一次筛入。",
          "image" : "https:\/\/i1.douguo.com\/upload\/caiku\/4\/7\/8\/47195b7c9872a4e3e0395e678874f748.jpg",
          "image_width" : 800,
          "image_height" : 600,
          "position" : 4,
          "thumb" : "https:\/\/i1.douguo.com\/upload\/caiku\/4\/7\/8\/140_47195b7c9872a4e3e0395e678874f748.jpg"
        },
        {
          "image_width" : 800,
          "content" : "加入玉米油翻拌均匀。\r\n烤箱上下管165度预热。",
          "image_height" : 600,
          "position" : 5,
          "image" : "https:\/\/i1.douguo.com\/upload\/caiku\/4\/9\/d\/495ce9ea2b166229a0c65088dc48f6ed.jpg",
          "frame" : "-1",
          "thumb" : "https:\/\/i1.douguo.com\/upload\/caiku\/4\/9\/d\/140_495ce9ea2b166229a0c65088dc48f6ed.jpg"
        },
        {
          "image_height" : 600,
          "content" : "翻拌好的蛋糕糊装进裱花袋。",
          "image_width" : 800,
          "position" : 6,
          "frame" : "-1",
          "image" : "https:\/\/i1.douguo.com\/upload\/caiku\/4\/8\/f\/48295049dc804905bf638b1f6cba3aaf.jpg",
          "thumb" : "https:\/\/i1.douguo.com\/upload\/caiku\/4\/8\/f\/140_48295049dc804905bf638b1f6cba3aaf.jpg"
        },
        {
          "image_width" : 800,
          "frame" : "-1",
          "content" : "六连模里面放入纸托。",
          "image" : "https:\/\/i1.douguo.com\/upload\/caiku\/1\/9\/0\/19fa26532a543fb90b39a9ddeed40410.jpg",
          "thumb" : "https:\/\/i1.douguo.com\/upload\/caiku\/1\/9\/0\/140_19fa26532a543fb90b39a9ddeed40410.jpg",
          "position" : 7,
          "image_height" : 610
        },
        {
          "content" : "挤入准备好的蛋糕糊，八分满即可。",
          "image" : "https:\/\/i1.douguo.com\/upload\/caiku\/6\/9\/5\/69977c2f87f120f2b947c427d29111a5.jpg",
          "position" : 8,
          "image_width" : 1280,
          "thumb" : "https:\/\/i1.douguo.com\/upload\/caiku\/6\/9\/5\/140_69977c2f87f120f2b947c427d29111a5.jpg",
          "image_height" : 978,
          "frame" : "-1"
        },
        {
          "frame" : "-1",
          "image_width" : 800,
          "image_height" : 609,
          "image" : "https:\/\/i1.douguo.com\/upload\/caiku\/7\/d\/0\/7db2e867e5ab40a627de934ba51ea380.jpg",
          "content" : "撒上白芝麻。",
          "position" : 9,
          "thumb" : "https:\/\/i1.douguo.com\/upload\/caiku\/7\/d\/0\/140_7db2e867e5ab40a627de934ba51ea380.jpg"
        },
        {
          "position" : 10,
          "frame" : "-1",
          "thumb" : "https:\/\/i1.douguo.com\/upload\/caiku\/c\/c\/4\/140_cce1e3d47955ef206fce943e1f6f1664.jpg",
          "image_height" : 600,
          "image_width" : 800,
          "image" : "https:\/\/i1.douguo.com\/upload\/caiku\/c\/c\/4\/cce1e3d47955ef206fce943e1f6f1664.jpg",
          "content" : "送入预热好的烤箱。"
        },
        {
          "image" : "https:\/\/i1.douguo.com\/upload\/caiku\/2\/f\/d\/2f59e2631948e903b9e818e7f962513d.jpg",
          "image_height" : 588,
          "frame" : "-1",
          "position" : 11,
          "content" : "上下管165度烤20分钟。",
          "image_width" : 800,
          "thumb" : "https:\/\/i1.douguo.com\/upload\/caiku\/2\/f\/d\/140_2f59e2631948e903b9e818e7f962513d.jpg"
        },
        {
          "frame" : "-1",
          "thumb" : "https:\/\/i1.douguo.com\/upload\/caiku\/7\/e\/1\/140_7e3292fce0fa3536d442901b53bc91f1.jpg",
          "image_width" : 800,
          "image" : "https:\/\/i1.douguo.com\/upload\/caiku\/7\/e\/1\/7e3292fce0fa3536d442901b53bc91f1.jpg",
          "position" : 12,
          "image_height" : 600,
          "content" : "出炉。"
        },
        {
          "frame" : "-1",
          "thumb" : "https:\/\/i1.douguo.com\/upload\/caiku\/0\/7\/c\/140_079a842f45c3735e0d7a30543ca3d82c.jpg",
          "position" : 13,
          "image" : "https:\/\/i1.douguo.com\/upload\/caiku\/0\/7\/c\/079a842f45c3735e0d7a30543ca3d82c.jpg",
          "content" : "松软可口的杯子蛋糕。",
          "image_height" : 982,
          "image_width" : 1280
        },
        {
          "frame" : "-1",
          "image_height" : 609,
          "position" : 14,
          "content" : "宝贝放学回来看到特别开心。",
          "image_width" : 800,
          "image" : "https:\/\/i1.douguo.com\/upload\/caiku\/6\/9\/b\/692fac75f67bfdace1b101e14d46ccdb.jpg",
          "thumb" : "https:\/\/i1.douguo.com\/upload\/caiku\/6\/9\/b\/140_692fac75f67bfdace1b101e14d46ccdb.jpg"
        },
        {
          "thumb" : "https:\/\/i1.douguo.com\/upload\/caiku\/f\/d\/8\/140_fdb6f36e0ae6aad9e5fff3e26cb2f868.jpg",
          "image" : "https:\/\/i1.douguo.com\/upload\/caiku\/f\/d\/8\/fdb6f36e0ae6aad9e5fff3e26cb2f868.jpg",
          "image_width" : 800,
          "image_height" : 604,
          "content" : "一连吃了两个。",
          "position" : 15,
          "frame" : "-1"
        },
        {
          "frame" : "-1",
          "thumb" : "https:\/\/i1.douguo.com\/upload\/caiku\/f\/2\/9\/140_f26c1ff04fef7dec315e7b2027511f99.jpg",
          "image" : "https:\/\/i1.douguo.com\/upload\/caiku\/f\/2\/9\/f26c1ff04fef7dec315e7b2027511f99.jpg",
          "image_width" : 1280,
          "position" : 16,
          "content" : "撕开纸杯看看，蛋糕里面组织细腻，超级好吃哦！",
          "image_height" : 980
        }
      ],
      "related_ads" : [

      ],
      "rate_show" : 0,
      "author" : "妞妞妈美食",
      "display_ingredient" : 1,
      "collect_status" : 0,
      "brand_day_dsp" : [

      ],
      "sc" : 0,
      "sr" : "",
      "cook_difficulty" : "配菜(中级)",
      "recent_comments" : [

      ],
      "clicks" : "293680",
      "first_level_comment_count" : 1,
      "rrps" : [

      ],
      "photo_path" : "https:\/\/i1.douguo.com\/upload\/caiku\/6\/0\/e\/600_606322aa88d27c7cfbac26a08e38db9e.jpg",
      "original_photo_path" : "http:\/\/i1.douguo.net\/upload\/caiku\/6\/0\/e\/yuan_606322aa88d27c7cfbac26a08e38db9e.jpg",
      "bs" : [

      ],
      "hq" : 1,
      "views_count_text" : "29.7万",
      "rate_count" : 1,
      "title" : "芝麻杯子蛋糕",
      "packages_id" : [

      ],
      "release_time" : "",
      "ipia" : [

      ],
      "author_id" : 17448588,
      "thumb_path" : "https:\/\/i1.douguo.com\/upload\/caiku\/6\/0\/e\/300_606322aa88d27c7cfbac26a08e38db9e.jpg",
      "su" : "",
      "favo_counts_text" : "5578",
      "rate" : 5,
      "story_dsp" : [

      ],
      "rpt" : "",
      "minor" : [

      ],
      "major" : [
        {
          "note" : "2个",
          "tu" : "https:\/\/m.douguo.com\/ingredients\/鸡蛋\/detailmaterial",
          "title" : "鸡蛋"
        },
        {
          "tu" : "https:\/\/m.douguo.com\/ingredients\/低筋面粉\/detailmaterial",
          "note" : "60g",
          "title" : "低筋面粉"
        },
        {
          "title" : "细砂糖",
          "tu" : "https:\/\/m.douguo.com\/ingredients\/细砂糖\/detailmaterial",
          "note" : "40g"
        },
        {
          "note" : "20g",
          "title" : "玉米油",
          "tu" : "https:\/\/m.douguo.com\/ingredients\/玉米油\/detailmaterial"
        },
        {
          "title" : "白芝麻(熟)",
          "note" : "适量"
        }
      ],
      "user" : {
        "introduction" : "",
        "mobile" : "",
        "qq_weibo_nick" : "",
        "dishes_count" : 0,
        "subscription_article_count" : 0,
        "progress_image" : "",
        "location" : 0,
        "birthday" : "",
        "lvl" : 8,
        "user_photo" : "http:\/\/tx1.douguo.net\/upload\/photo\/e\/b\/1\/70_eb6d54eb5912d1c2452ebd28cc032da1.jpg",
        "coursecount" : 0,
        "lv" : 0,
        "point" : 0,
        "userid" : "17448588",
        "weibo_nick" : "",
        "verified_url" : "https:\/\/m.douguo.com\/user\/prodesc",
        "fc" : 0,
        "is_prime" : 0,
        "user_cover" : "",
        "followers_count" : 0,
        "favor_diaries_count" : 0,
        "favorites_count" : 0,
        "verified" : 1,
        "verified_image" : "https:\/\/i1.douguo.com\/upload\/note\/d\/a\/a\/da84247847aebe48d9dd0fcdac88862a.png",
        "sign" : "",
        "email" : "",
        "user_large_photo" : "http:\/\/tx1.douguo.net\/upload\/photo\/e\/b\/1\/yuan_eb6d54eb5912d1c2452ebd28cc032da1.jpg",
        "nick" : "妞妞妈美食",
        "user_id" : "17448588",
        "recipes_count" : 0,
        "subscription" : 0,
        "regist_time" : "",
        "diaries_count" : 0,
        "following_count" : 0,
        "age" : "",
        "avatar_medium" : "http:\/\/tx1.douguo.net\/upload\/photo\/e\/b\/1\/140_eb6d54eb5912d1c2452ebd28cc032da1.jpg",
        "pc" : 0,
        "qzone_nick" : "",
        "gender" : 2,
        "setted_email" : 0
      },
      "recommendation_tag" : "",
      "mid_mdsp" : [

      ],
      "tags" : [

      ],
      "cook_time_image" : "https:\/\/i1.douguo.com\/upload\/banner\/1551424318.png"
    }
  }
}