{
  "state" : "success",
  "status" : 0,
  "result" : {
    "recipe" : {
      "user" : {
        "favor_diaries_count" : 0,
        "userid" : "8691613",
        "point" : 0,
        "birthday" : "",
        "user_large_photo" : "http:\/\/tx1.douguo.net\/upload\/photo\/c\/8\/1\/yuan_u27292703736204133140.jpg",
        "diaries_count" : 0,
        "avatar_medium" : "http:\/\/tx1.douguo.net\/upload\/photo\/c\/8\/1\/140_u27292703736204133140.jpg",
        "user_photo" : "http:\/\/tx1.douguo.net\/upload\/photo\/c\/8\/1\/70_u27292703736204133140.jpg",
        "mobile" : "",
        "weibo_nick" : "",
        "introduction" : "",
        "user_cover" : "",
        "subscription" : 0,
        "following_count" : 0,
        "sign" : "",
        "favorites_count" : 0,
        "verified" : 0,
        "location" : 0,
        "setted_email" : 0,
        "regist_time" : "",
        "fc" : 0,
        "age" : "",
        "nick" : "小叉是坏蛋",
        "gender" : 1,
        "qq_weibo_nick" : "",
        "dishes_count" : 0,
        "progress_image" : "",
        "followers_count" : 0,
        "lv" : 0,
        "recipes_count" : 0,
        "lvl" : 6,
        "verified_image" : "",
        "subscription_article_count" : 0,
        "pc" : 0,
        "is_prime" : 0,
        "qzone_nick" : "",
        "user_id" : "8691613",
        "email" : "",
        "verified_url" : "https:\/\/m.douguo.com\/user\/prodesc",
        "coursecount" : 0
      },
      "release_time" : "",
      "rips" : 0,
      "levelid" : 2,
      "ipci" : "",
      "recommended" : 0,
      "recipe_list_tags" : [
        {
          "background_start_color" : "#F4F5F5",
          "jump_url" : "",
          "background_end_color" : "#F4F5F5",
          "background_border_color" : "",
          "right_image" : "",
          "text_color" : "#141515",
          "text" : "关注的人"
        }
      ],
      "recommend_label" : "8人学做",
      "ecs" : 0,
      "sr" : "",
      "rrps" : [

      ],
      "packages_id" : [

      ],
      "pw" : 800,
      "cookstory" : "",
      "rrpt" : "",
      "ph" : 1079,
      "recipe_tags" : [

      ],
      "rate_count" : 6,
      "major" : [
        {
          "title" : "主料   猪血",
          "note" : "500g"
        },
        {
          "title" : "辅料  韭菜",
          "note" : "150g"
        },
        {
          "title" : "洋葱",
          "tu" : "https:\/\/m.douguo.com\/ingredients\/洋葱\/detailmaterial",
          "note" : "半个"
        },
        {
          "note" : "少许",
          "title" : "姜",
          "tu" : "https:\/\/m.douguo.com\/ingredients\/姜\/detailmaterial"
        },
        {
          "title" : "调料    盐",
          "note" : "少许"
        },
        {
          "title" : "味精",
          "note" : "少许",
          "tu" : "https:\/\/m.douguo.com\/ingredients\/味精\/detailmaterial"
        },
        {
          "title" : "料酒",
          "tu" : "https:\/\/m.douguo.com\/ingredients\/料酒\/detailmaterial",
          "note" : "少许"
        }
      ],
      "rate" : 3,
      "rpid" : 0,
      "cook_time" : "10分钟左右",
      "rsm" : "该功能暂停使用",
      "cook_difficulty" : "切墩(初级)",
      "image" : "http:\/\/i1.douguo.net\/upload\/caiku\/c\/f\/b\/300_cf36b4aab6feb1270a4bc12542f6e93b.jpg",
      "v_u" : "",
      "share_info" : {
        "qr_image" : "",
        "mini_program" : [

        ],
        "s_u" : "http:\/\/m.douguo.com\/cookbook\/1175593.html",
        "object_id" : "1175593",
        "s_d" : "猪血炒韭菜-会做饭很酷!",
        "name" : "猪血炒韭菜-会做饭很酷!",
        "infos" : [
          {
            "object_id" : "1175593",
            "qr_image" : "",
            "s_u" : "",
            "channel" : "1",
            "s_d" : "#学做饭用豆果美食# 我在@豆果美食 分享了【猪血炒韭菜-会做饭很酷!】，这菜真的很好吃，而且做法简单不难学，还不快来跟我学～查看图片了解菜谱（每天限量免费课程，想跟大师学厨艺就来这https:\/\/m.weibo.cn\/p\/100404i33631）#会做饭很酷# ",
            "name" : "猪血炒韭菜-会做饭很酷!",
            "mini_program" : [

            ],
            "image" : "https:\/\/cp1.douguo.com\/upload\/caiku\/c\/f\/b\/cf36b4aab6feb1270a4bc12542f6e93b.jpg"
          },
          {
            "channel" : "7",
            "s_d" : "猪血炒韭菜-会做饭很酷!",
            "qr_image" : "",
            "s_u" : "http:\/\/m.douguo.com\/cookbook\/1175593.html",
            "image" : "https:\/\/cp1.douguo.com\/upload\/caiku\/c\/f\/b\/cf36b4aab6feb1270a4bc12542f6e93b.jpg",
            "object_id" : "1175593",
            "mini_program" : [

            ],
            "name" : "猪血炒韭菜-会做饭很酷!"
          },
          {
            "qr_image" : "",
            "image" : "https:\/\/cp1.douguo.com\/upload\/caiku\/c\/f\/b\/cf36b4aab6feb1270a4bc12542f6e93b.jpg",
            "name" : "猪血炒韭菜-会做饭很酷!",
            "s_u" : "http:\/\/m.douguo.com\/cookbook\/1175593.html",
            "object_id" : "1175593",
            "s_d" : "猪血炒韭菜-会做饭很酷!",
            "mini_program" : [

            ],
            "channel" : "8"
          }
        ],
        "image" : "https:\/\/cp1.douguo.com\/upload\/caiku\/c\/f\/b\/cf36b4aab6feb1270a4bc12542f6e93b.jpg"
      },
      "hq" : 1,
      "favo_counts_text" : "1074",
      "ipt" : "",
      "tags" : [
        "{\n    text = \"\\U5bb6\\U5e38\\U83dc\";\n}",
        "{\n    text = \"\\U7092\";\n}",
        "{\n    text = \"\\U9999\";\n}",
        "{\n    text = \"\\U9c9c\";\n}",
        "{\n    text = \"\\U665a\\U9910\";\n}"
      ],
      "author_verified" : 0,
      "ss" : [

      ],
      "ipoi" : "",
      "vu" : "",
      "rpt" : "",
      "guide_image" : "",
      "old_comments" : [

      ],
      "comments_count" : 2,
      "notes" : [

      ],
      "advice" : {
        "da" : {
          "t" : "查看详细分析",
          "url" : "https:\/\/m.douguo.com\/recipe\/nutrient_self\/1175593",
          "iu" : "https:\/\/i1.douguo.com\/upload\/banner\/f\/4\/d\/f48877e53c37759bc12ac494be82ec8d.png"
        },
        "has" : [
          {
            "t" : "低脂",
            "url" : "recipes:\/\/www.douguo.com\/simplerecipelist?t=低脂&id=低脂"
          },
          {
            "t" : "低盐",
            "url" : "recipes:\/\/www.douguo.com\/simplerecipelist?t=低盐&id=低盐"
          }
        ],
        "at" : "能有效控制体重～"
      },
      "top_mdsp" : [

      ],
      "title_ad" : [

      ],
      "author_id" : 8691613,
      "collect_status" : 0,
      "first_level_comment_count" : 2,
      "cookwares" : [

      ],
      "cook_time_image" : "https:\/\/i1.douguo.com\/upload\/banner\/1551424358.png",
      "mid_mdsp" : [

      ],
      "rdsps" : [

      ],
      "minor" : [

      ],
      "bs" : [

      ],
      "thumb_height" : 0,
      "favo_counts" : 1074,
      "related_ads" : [

      ],
      "sc" : 0,
      "rate_show" : 0,
      "comments" : [
        "{\n    ac = \"#999999\";\n    at = \"\\U5510\\U5c71\\U5e02\";\n    ccc = 0;\n    \"child_comments\" =     (\n    );\n    city = \"\\U5510\\U5c71\\U5e02\";\n    cmc = 2;\n    content =     (\n                {\n            c = \"\\U600e\\U4e48\\U90fd\\U7cca\\U4e86\";\n        }\n    );\n    ia = 0;\n    id = 5922795;\n    \"ip_address_location\" = \"\";\n    like = 0;\n    \"like_count\" = 0;\n    \"reply_id\" = 0;\n    \"sticker_icon\" =     (\n    );\n    time = \"2018-08-08 20:33:26\";\n    u =     {\n        \"followers_count_text\" = \"\";\n        id = 22490694;\n        \"is_prime\" = 0;\n        lv = 0;\n        lvl = 1;\n        n = \"\\U8c46\\U7c89726850\";\n        p = \"\";\n        \"progress_image\" = \"\";\n        \"recipes_count_text\" = \"\";\n        relationship = \"-1\";\n        title = \"\";\n        v = 0;\n        \"verified_image\" = \"\";\n    };\n}",
        "{\n    ac = \"#999999\";\n    at = \"\\U8386\\U7530\\U5e02\";\n    ccc = 0;\n    \"child_comments\" =     (\n    );\n    city = \"\\U8386\\U7530\\U5e02\";\n    cmc = 2;\n    content =     (\n                {\n            c = \"\\U714e\\U7cca\\U4e86\";\n        }\n    );\n    ia = 0;\n    id = 5858876;\n    \"ip_address_location\" = \"\";\n    like = 0;\n    \"like_count\" = 0;\n    \"reply_id\" = 0;\n    \"sticker_icon\" =     (\n    );\n    time = \"2018-07-18 02:11:37\";\n    u =     {\n        \"followers_count_text\" = \"\";\n        id = 18907241;\n        \"is_prime\" = 0;\n        lv = 0;\n        lvl = 1;\n        n = ncwjv;\n        p = \"http:\/\/tx1.douguo.net\/upload\/photo\/e\/4\/a\/70_u77221469498760154426.jpg\";\n        \"progress_image\" = \"\";\n        \"recipes_count_text\" = \"\";\n        relationship = \"-1\";\n        title = \"\";\n        v = 0;\n        \"verified_image\" = \"\";\n    };\n}"
      ],
      "original_photo_path" : "http:\/\/i1.douguo.net\/upload\/caiku\/c\/f\/b\/yuan_cf36b4aab6feb1270a4bc12542f6e93b.jpg",
      "thumb_path" : "https:\/\/i1.douguo.com\/upload\/caiku\/c\/f\/b\/300_cf36b4aab6feb1270a4bc12542f6e93b.jpg",
      "cookstep" : [
        {
          "image_width" : 800,
          "thumb" : "https:\/\/i1.douguo.com\/upload\/caiku\/5\/9\/e\/140_5958e06804dba947d8aca3ca6ffc928e.jpg",
          "image" : "https:\/\/i1.douguo.com\/upload\/caiku\/5\/9\/e\/5958e06804dba947d8aca3ca6ffc928e.jpg",
          "position" : 1,
          "frame" : "-1",
          "image_height" : 1079,
          "content" : "韭菜洗净备用"
        },
        {
          "position" : 2,
          "frame" : "-1",
          "image" : "https:\/\/i1.douguo.com\/upload\/caiku\/4\/3\/a\/439d2a98d189d4497486b1e329d07b8a.jpg",
          "image_height" : 1079,
          "thumb" : "https:\/\/i1.douguo.com\/upload\/caiku\/4\/3\/a\/140_439d2a98d189d4497486b1e329d07b8a.jpg",
          "content" : "洋葱，猪血洗净备用",
          "image_width" : 800
        },
        {
          "position" : 3,
          "thumb" : "https:\/\/i1.douguo.com\/upload\/caiku\/9\/a\/5\/140_9aed90d7609667c7af5fd9125361fb65.jpg",
          "image_width" : 800,
          "content" : "猪血切片",
          "image" : "https:\/\/i1.douguo.com\/upload\/caiku\/9\/a\/5\/9aed90d7609667c7af5fd9125361fb65.jpg",
          "frame" : "-1",
          "image_height" : 1079
        },
        {
          "frame" : "-1",
          "image_width" : 800,
          "thumb" : "https:\/\/i1.douguo.com\/upload\/caiku\/a\/7\/1\/140_a7b08c960ca072095ae37a7debbf6ca1.jpg",
          "image" : "https:\/\/i1.douguo.com\/upload\/caiku\/a\/7\/1\/a7b08c960ca072095ae37a7debbf6ca1.jpg",
          "content" : "韭菜切断，洋葱切片，姜切片",
          "image_height" : 1079,
          "position" : 4
        },
        {
          "image" : "https:\/\/i1.douguo.com\/upload\/caiku\/1\/2\/d\/12ebd4d0f73167a73b65dd14a33281dd.jpg",
          "image_width" : 800,
          "frame" : "-1",
          "image_height" : 1079,
          "position" : 5,
          "content" : "热锅凉油，姜猪血放入煎一下",
          "thumb" : "https:\/\/i1.douguo.com\/upload\/caiku\/1\/2\/d\/140_12ebd4d0f73167a73b65dd14a33281dd.jpg"
        },
        {
          "image" : "https:\/\/i1.douguo.com\/upload\/caiku\/1\/b\/e\/1b999b0010ef83adee28564491ce87de.jpg",
          "position" : 6,
          "content" : "然后放入姜片，倒入韭菜和洋葱，加入少许料酒，翻炒片刻，加入少许开水加盖烧一会",
          "thumb" : "https:\/\/i1.douguo.com\/upload\/caiku\/1\/b\/e\/140_1b999b0010ef83adee28564491ce87de.jpg",
          "image_height" : 1079,
          "image_width" : 800,
          "frame" : "-1"
        },
        {
          "frame" : "-1",
          "image_height" : 1079,
          "image_width" : 800,
          "thumb" : "https:\/\/i1.douguo.com\/upload\/caiku\/7\/a\/6\/140_7a8746d2a2972eba9fcd971d3253c326.jpg",
          "position" : 7,
          "image" : "https:\/\/i1.douguo.com\/upload\/caiku\/7\/a\/6\/7a8746d2a2972eba9fcd971d3253c326.jpg",
          "content" : "出锅前放入少许盐和味精调味即可"
        },
        {
          "image_width" : 800,
          "thumb" : "https:\/\/i1.douguo.com\/upload\/caiku\/6\/8\/9\/140_6867661e742945f6cf574baf91a5ab69.jpg",
          "position" : 8,
          "frame" : "-1",
          "image_height" : 1079,
          "image" : "https:\/\/i1.douguo.com\/upload\/caiku\/6\/8\/9\/6867661e742945f6cf574baf91a5ab69.jpg",
          "content" : "很美味"
        }
      ],
      "story_dsp" : [

      ],
      "rcs" : [

      ],
      "clicks" : "166360",
      "dishes" : [

      ],
      "tips" : "",
      "title" : "猪血炒韭菜",
      "ipurl" : "",
      "recent_comments" : [

      ],
      "ssu" : "",
      "cookstorys" : [

      ],
      "ipit" : 0,
      "views_count_text" : "17.8万",
      "brand_day_dsp" : [

      ],
      "recommendation_tag" : "",
      "hqu" : "recipes:\/\/www.douguo.com\/notedetail?id=21162253",
      "ipia" : [

      ],
      "eu" : "recipes:\/\/www.douguo.com\/postdetail?id=242016",
      "rewarded_video_dsp" : [

      ],
      "author" : "小叉是坏蛋",
      "purl" : "",
      "dish_count_text" : "8",
      "vfurl" : "",
      "comments_count_text" : "2",
      "photo_path" : "https:\/\/i1.douguo.com\/upload\/caiku\/c\/f\/b\/600_cf36b4aab6feb1270a4bc12542f6e93b.jpg",
      "act_des" : "",
      "author_photo" : "http:\/\/tx1.douguo.net\/upload\/photo\/c\/8\/1\/70_u27292703736204133140.jpg",
      "cook_id" : "1175593",
      "vc" : "178436",
      "rpst" : "",
      "dish_count" : 8,
      "btm_dsp" : [

      ],
      "create_time" : "2015-05-11 14:16:19",
      "su" : "",
      "display_ingredient" : 1,
      "cook_difficulty_image" : "https:\/\/i1.douguo.com\/upload\/banner\/1551424390.png"
    }
  }
}