{
  "state" : "success",
  "result" : {
    "recipe" : {
      "recent_comments" : [

      ],
      "ipt" : "",
      "brand_day_dsp" : [

      ],
      "comments" : [
        "{\n    ac = \"#999999\";\n    at = \"\";\n    ccc = 20;\n    \"child_comments\" =     (\n                {\n            ac = \"#999999\";\n            at = \"\\U82cf\\U5dde\\U5e02\";\n            ccc = 0;\n            city = \"\\U82cf\\U5dde\\U5e02\";\n            cmc = 2;\n            content =             (\n                                {\n                    c = \" \\Ud83d\\Udc4d\";\n                }\n            );\n            ia = 0;\n            id = 8764576;\n            \"ip_address_location\" = \"\";\n            like = 0;\n            \"like_count\" = 0;\n            \"reply_id\" = 8764453;\n            \"reply_user\" =             (\n            );\n            \"sticker_icon\" =             (\n            );\n            time = \"2021-08-21 08:27:12\";\n            u =             {\n                \"followers_count_text\" = \"\";\n                id = 23401680;\n                \"is_prime\" = 0;\n                lv = 0;\n                lvl = 2;\n                n = \"\\U8c46\\U7c89209238\";\n                p = \"http:\/\/tx1.douguo.net\/upload\/photo\/c\/5\/b\/70_c5b42907f5bb5ed5a4a7c840310a58bb.jpeg\";\n                \"progress_image\" = \"\";\n                \"recipes_count_text\" = \"\";\n                relationship = \"-1\";\n                title = \"\";\n                v = 0;\n                \"verified_image\" = \"\";\n            };\n        },\n                {\n            ac = \"#999999\";\n            at = \"\";\n            ccc = 0;\n            city = \"\";\n            cmc = 2;\n            content =             (\n                                {\n                    c = \" \\U770b\\U8d77\\U6765\\U5f88\\U597d\\U5403\\Uff0c\\U786e\\U5b9e\\U7b97\\U662f\\U5feb\\U624b\\U65e9\\U9910\\U3002\\U4f46\\U662f\\U60a8\\U7684\\U56de\\U7b54\\U662f\\U4e0d\\U662f\\U6709\\U4e9b\\U91cd\\U4e86\\U3002\\U4eba\\U5bb6\\U4e5f\\U6ca1\\U8bc4\\U8bba\\U4ec0\\U4e48\\U5440\\Uff0c\\U5bf9\\U4e8e\\U521d\\U5b66\\U8005\\U6765\\U8bf4\\U7b2c\\U4e00\\U773c\\U770b\\U89c1\\U8fd9\\U4e48\\U591a\\U98df\\U6750\\U5c31\\U53ef\\U80fd\\U5934\\U6655\\U4e86\\Uff0c\\U8fd9\\U662f\\U6b63\\U5e38\\U7684\\U5440\\U3002\";\n                }\n            );\n            ia = 0;\n            id = 8766446;\n            \"ip_address_location\" = \"\";\n            like = 0;\n            \"like_count\" = 0;\n            \"reply_id\" = 8764453;\n            \"reply_user\" =             (\n            );\n            \"sticker_icon\" =             (\n            );\n            time = \"2021-08-23 16:01:07\";\n            u =             {\n                \"followers_count_text\" = \"\";\n                id = 20437109;\n                \"is_prime\" = 0;\n                lv = 0;\n                lvl = 4;\n                n = \"\\U5317\\U7acb\\U590f\";\n                p = \"http:\/\/tx1.douguo.net\/upload\/photo\/4\/6\/a\/70_u97612875143056221814.jpeg\";\n                \"progress_image\" = \"\";\n                \"recipes_count_text\" = \"\";\n                relationship = \"-1\";\n                title = \"\";\n                v = 0;\n                \"verified_image\" = \"\";\n            };\n        }\n    );\n    city = \"\";\n    cmc = 2;\n    content =     (\n                {\n            c = \"\\U8fd9\\U4e48\\U590d\\U6742\\U8fd8\\U53eb\\U5feb\\U624b\";\n        }\n    );\n    ia = 0;\n    id = 8764221;\n    \"ip_address_location\" = \"\";\n    like = 0;\n    \"like_count\" = 24;\n    \"reply_id\" = 0;\n    \"sticker_icon\" =     (\n    );\n    time = \"2021-08-20 18:39:29\";\n    u =     {\n        \"followers_count_text\" = \"\";\n        id = 26882036;\n        \"is_prime\" = 0;\n        lv = 0;\n        lvl = 1;\n        n = \"\\U4e70\\U4e0d\\U8d77\\U7684\\U5976\\U916a\\U5f88\\U65b0\";\n        p = \"http:\/\/tx1.douguo.net\/upload\/photo\/1\/1\/1\/70_36e82d2839518d8228210e4227bf623d.png\";\n        \"progress_image\" = \"\";\n        \"recipes_count_text\" = \"\";\n        relationship = \"-1\";\n        title = \"\";\n        v = 0;\n        \"verified_image\" = \"\";\n    };\n}",
        "{\n    ac = \"#999999\";\n    at = \"\\U5b81\\U6ce2\\U5e02\";\n    ccc = 11;\n    \"child_comments\" =     (\n                {\n            ac = \"#999999\";\n            at = \"\\U4e0a\\U6d77\\U5e02\";\n            ccc = 0;\n            city = \"\\U4e0a\\U6d77\\U5e02\";\n            cmc = 2;\n            content =             (\n                                {\n                    c = \" \\U4e0d\\U77e5\\U9053\\U8bf6\\Uff0c\\U6ca1\\U7528\\U8fc7\\U7a7a\\U6c14\\U70b8\\U9505\";\n                }\n            );\n            ia = 1;\n            id = 8762769;\n            \"ip_address_location\" = \"\";\n            like = 0;\n            \"like_count\" = 0;\n            \"reply_id\" = 8762385;\n            \"reply_user\" =             {\n                \"followers_count_text\" = \"\";\n                id = 19669828;\n                \"is_prime\" = 0;\n                lv = 0;\n                lvl = 1;\n                n = \"\\U60e0\\U829d\\U5170\\U5fc3\";\n                p = \"\";\n                \"progress_image\" = \"\";\n                \"recipes_count_text\" = \"\";\n                relationship = \"-1\";\n                title = \"\";\n                v = 0;\n                \"verified_image\" = \"\";\n            };\n            \"sticker_icon\" =             (\n            );\n            time = \"2021-08-18 23:00:17\";\n            u =             {\n                \"followers_count_text\" = \"\";\n                id = 26230390;\n                \"is_prime\" = 0;\n                lv = 0;\n                lvl = 6;\n                n = \"\\U5c55\\U827a\\U70d8\\U7119\";\n                p = \"http:\/\/tx1.douguo.net\/upload\/photo\/7\/8\/3\/70_783f734e57c1df10690b2e3019037a93.png\";\n                \"progress_image\" = \"\";\n                \"recipes_count_text\" = \"\";\n                relationship = \"-1\";\n                title = \"\";\n                v = 2;\n                \"verified_image\" = \"\";\n            };\n        },\n                {\n            ac = \"#999999\";\n            at = \"\";\n            ccc = 0;\n            city = \"\";\n            cmc = 2;\n            content =             (\n                                {\n                    c = \" \\U7a7a\\U6c14\\U70b8\\U9505\\U548c\\U70e4\\U7bb1\\U5dee\\U4e0d\\U591a\\U7684\";\n                }\n            );\n            ia = 0;\n            id = 8762826;\n            \"ip_address_location\" = \"\";\n            like = 0;\n            \"like_count\" = 0;\n            \"reply_id\" = 8762385;\n            \"reply_user\" =             {\n                \"followers_count_text\" = \"\";\n                id = 19669828;\n                \"is_prime\" = 0;\n                lv = 0;\n                lvl = 1;\n                n = \"\\U60e0\\U829d\\U5170\\U5fc3\";\n                p = \"\";\n                \"progress_image\" = \"\";\n                \"recipes_count_text\" = \"\";\n                relationship = \"-1\";\n                title = \"\";\n                v = 0;\n                \"verified_image\" = \"\";\n            };\n            \"sticker_icon\" =             (\n            );\n            time = \"2021-08-19 00:21:59\";\n            u =             {\n                \"followers_count_text\" = \"\";\n                id = 17251296;\n                \"is_prime\" = 0;\n                lv = 0;\n                lvl = 1;\n                n = \"\\U6708\\U4eae\\U7ed9\\U6211\\U54ac\\U4e00\\U53e3\\U9e2d\";\n                p = \"http:\/\/tx1.douguo.net\/upload\/photo\/2\/9\/a\/70_u61558514548320184312.jpeg\";\n                \"progress_image\" = \"\";\n                \"recipes_count_text\" = \"\";\n                relationship = \"-1\";\n                title = \"\";\n                v = 0;\n                \"verified_image\" = \"\";\n            };\n        }\n    );\n    city = \"\\U5b81\\U6ce2\\U5e02\";\n    cmc = 2;\n    content =     (\n                {\n            c = \"\\U7a7a\\U6c14\\U70b8\\U9505\\U53ef\\U4ee5\\U5417\\Uff1f\";\n        }\n    );\n    ia = 0;\n    id = 8762385;\n    \"ip_address_location\" = \"\";\n    like = 0;\n    \"like_count\" = 6;\n    \"reply_id\" = 0;\n    \"sticker_icon\" =     (\n    );\n    time = \"2021-08-18 16:01:16\";\n    u =     {\n        \"followers_count_text\" = \"\";\n        id = 19669828;\n        \"is_prime\" = 0;\n        lv = 0;\n        lvl = 1;\n        n = \"\\U60e0\\U829d\\U5170\\U5fc3\";\n        p = \"\";\n        \"progress_image\" = \"\";\n        \"recipes_count_text\" = \"\";\n        relationship = \"-1\";\n        title = \"\";\n        v = 0;\n        \"verified_image\" = \"\";\n    };\n}",
        "{\n    ac = \"#999999\";\n    at = \"\";\n    ccc = 5;\n    \"child_comments\" =     (\n                {\n            ac = \"#999999\";\n            at = \"\\U4e0a\\U6d77\\U5e02\";\n            ccc = 0;\n            city = \"\\U4e0a\\U6d77\\U5e02\";\n            cmc = 2;\n            content =             (\n                                {\n                    c = \" \\U5207\\U4e2d\\U95f4\\Uff0c\\U4e2d\\U95f4\\U6bd4\\U8f83\\U957f\";\n                }\n            );\n            ia = 1;\n            id = 8763291;\n            \"ip_address_location\" = \"\";\n            like = 0;\n            \"like_count\" = 0;\n            \"reply_id\" = 8763285;\n            \"reply_user\" =             {\n                \"followers_count_text\" = \"\";\n                id = 19474405;\n                \"is_prime\" = 0;\n                lv = 0;\n                lvl = 2;\n                n = \"\\U5927\\U529b\\U59d0\\U2661\";\n                p = \"http:\/\/tx1.douguo.net\/upload\/photo\/6\/3\/6\/70_u84726103532381104720.jpeg\";\n                \"progress_image\" = \"\";\n                \"recipes_count_text\" = \"\";\n                relationship = \"-1\";\n                title = \"\";\n                v = 0;\n                \"verified_image\" = \"\";\n            };\n            \"sticker_icon\" =             (\n            );\n            time = \"2021-08-19 15:47:15\";\n            u =             {\n                \"followers_count_text\" = \"\";\n                id = 26230390;\n                \"is_prime\" = 0;\n                lv = 0;\n                lvl = 6;\n                n = \"\\U5c55\\U827a\\U70d8\\U7119\";\n                p = \"http:\/\/tx1.douguo.net\/upload\/photo\/7\/8\/3\/70_783f734e57c1df10690b2e3019037a93.png\";\n                \"progress_image\" = \"\";\n                \"recipes_count_text\" = \"\";\n                relationship = \"-1\";\n                title = \"\";\n                v = 2;\n                \"verified_image\" = \"\";\n            };\n        },\n                {\n            ac = \"#999999\";\n            at = \"\\U4e0a\\U6d77\\U5e02\";\n            ccc = 0;\n            city = \"\\U4e0a\\U6d77\\U5e02\";\n            cmc = 2;\n            content =             (\n                                {\n                    c = \" \\U5c31\\U662f\\U666e\\U901a\\U7684\\U76d0\";\n                }\n            );\n            ia = 1;\n            id = 8763300;\n            \"ip_address_location\" = \"\";\n            like = 0;\n            \"like_count\" = 0;\n            \"reply_id\" = 8763285;\n            \"reply_user\" =             {\n                \"followers_count_text\" = \"\";\n                id = 19474405;\n                \"is_prime\" = 0;\n                lv = 0;\n                lvl = 2;\n                n = \"\\U5927\\U529b\\U59d0\\U2661\";\n                p = \"http:\/\/tx1.douguo.net\/upload\/photo\/6\/3\/6\/70_u84726103532381104720.jpeg\";\n                \"progress_image\" = \"\";\n                \"recipes_count_text\" = \"\";\n                relationship = \"-1\";\n                title = \"\";\n                v = 0;\n                \"verified_image\" = \"\";\n            };\n            \"sticker_icon\" =             (\n            );\n            time = \"2021-08-19 15:49:24\";\n            u =             {\n                \"followers_count_text\" = \"\";\n                id = 26230390;\n                \"is_prime\" = 0;\n                lv = 0;\n                lvl = 6;\n                n = \"\\U5c55\\U827a\\U70d8\\U7119\";\n                p = \"http:\/\/tx1.douguo.net\/upload\/photo\/7\/8\/3\/70_783f734e57c1df10690b2e3019037a93.png\";\n                \"progress_image\" = \"\";\n                \"recipes_count_text\" = \"\";\n                relationship = \"-1\";\n                title = \"\";\n                v = 2;\n                \"verified_image\" = \"\";\n            };\n        }\n    );\n    city = \"\";\n    cmc = 2;\n    content =     (\n                {\n            c = \"\\U7c97\\U76d0\\Uff1f  \\U624b\\U6293\\U997c\\U600e\\U4e48\\U5207\\U7684  \\U8fb9\\U4e0a\\U80fd\\U94fa\\U5e73  \";\n        }\n    );\n    ia = 0;\n    id = 8763285;\n    \"ip_address_location\" = \"\";\n    like = 0;\n    \"like_count\" = 5;\n    \"reply_id\" = 0;\n    \"sticker_icon\" =     (\n    );\n    time = \"2021-08-19 15:44:20\";\n    u =     {\n        \"followers_count_text\" = \"\";\n        id = 19474405;\n        \"is_prime\" = 0;\n        lv = 0;\n        lvl = 2;\n        n = \"\\U5927\\U529b\\U59d0\\U2661\";\n        p = \"http:\/\/tx1.douguo.net\/upload\/photo\/6\/3\/6\/70_u84726103532381104720.jpeg\";\n        \"progress_image\" = \"\";\n        \"recipes_count_text\" = \"\";\n        relationship = \"-1\";\n        title = \"\";\n        v = 0;\n        \"verified_image\" = \"\";\n    };\n}"
      ],
      "favo_counts" : 31659,
      "sr" : "",
      "act_des" : "",
      "dish_count_text" : "29",
      "rips" : 0,
      "cook_id" : "3122019",
      "photo_path" : "https:\/\/i1.douguo.com\/upload\/caiku\/1\/2\/6\/600_125ebc5b49e5be443921b5928bb794d6.jpg",
      "old_comments" : [

      ],
      "guide_image" : "",
      "rrpt" : "",
      "rcs" : [

      ],
      "sc" : 0,
      "author_id" : 26230390,
      "advice" : {
        "has" : [
          {
            "url" : "recipes:\/\/www.douguo.com\/simplerecipelist?t=富含蛋白质&id=富含蛋白质",
            "t" : "富含蛋白质"
          }
        ],
        "da" : {
          "t" : "查看详细分析",
          "url" : "https:\/\/m.douguo.com\/recipe\/nutrient_self\/3122019",
          "iu" : "https:\/\/i1.douguo.com\/upload\/banner\/f\/4\/d\/f48877e53c37759bc12ac494be82ec8d.png"
        },
        "at" : "可以提供多种氨基酸～"
      },
      "cook_difficulty" : "切墩(初级)",
      "ipurl" : "",
      "rpid" : 0,
      "recommended" : 0,
      "pw" : 4800,
      "ph" : 7445,
      "ss" : [

      ],
      "ipia" : [

      ],
      "title_ad" : [

      ],
      "ipoi" : "",
      "rsm" : "该功能暂停使用",
      "minor" : [

      ],
      "bs" : [

      ],
      "collect_status" : 0,
      "ssu" : "",
      "comments_count" : 180,
      "su" : "",
      "purl" : "",
      "v_u" : "",
      "views_count_text" : "401.4万",
      "eu" : "recipes:\/\/www.douguo.com\/postdetail?id=242016",
      "cookstorys" : [
        {
          "c" : "外皮酥酥脆脆，里面是豌豆、培根、彩椒、火腿、芝士等，十分美味~ \r\n\r\n15分钟，一家人的早餐搞定，再来杯牛奶，完美！",
          "icon" : "",
          "color" : "",
          "type" : 0,
          "id" : 0,
          "u" : ""
        }
      ],
      "levelid" : 2,
      "vc" : "4013947",
      "recipe_tags" : [

      ],
      "rpst" : "",
      "display_ingredient" : 1,
      "first_level_comment_count" : 117,
      "create_time" : "2021-08-17 11:28:32",
      "clicks" : "1909188",
      "cookstep" : [
        {
          "position" : 1,
          "frame" : "-1",
          "thumb" : "https:\/\/i1.douguo.com\/upload\/caiku\/3\/a\/c\/140_3a760bc6dd2e96e78dd9584082b5ffec.jpg",
          "image" : "https:\/\/i1.douguo.com\/upload\/caiku\/3\/a\/c\/3a760bc6dd2e96e78dd9584082b5ffec.jpg",
          "image_height" : 4000,
          "image_width" : 6000,
          "content" : "手抓饼铺入六寸模具，四周及底部"
        },
        {
          "content" : "放入玉米、青豆、甜椒、虾仁、香肠、马苏里拉芝士",
          "image_height" : 3591,
          "image" : "https:\/\/i1.douguo.com\/upload\/caiku\/6\/8\/0\/68e94e349aa14a9c3f78f3f6b550e040.jpg",
          "image_width" : 5387,
          "thumb" : "https:\/\/i1.douguo.com\/upload\/caiku\/6\/8\/0\/140_68e94e349aa14a9c3f78f3f6b550e040.jpg",
          "position" : 2,
          "frame" : "-1"
        },
        {
          "position" : 3,
          "frame" : "-1",
          "image_height" : 3790,
          "image" : "https:\/\/i1.douguo.com\/upload\/caiku\/e\/3\/f\/e379dc9edf01b0491e411085cd9d766f.jpg",
          "image_width" : 5685,
          "thumb" : "https:\/\/i1.douguo.com\/upload\/caiku\/e\/3\/f\/140_e379dc9edf01b0491e411085cd9d766f.jpg",
          "content" : "放入玉米、青豆、甜椒、虾仁、香肠、马苏里拉芝士"
        },
        {
          "image_width" : 6000,
          "content" : "放入玉米、青豆、甜椒、虾仁、香肠、马苏里拉芝士",
          "image_height" : 4000,
          "image" : "https:\/\/i1.douguo.com\/upload\/caiku\/1\/8\/c\/187a713aed9ba79ef88262647859f6bc.jpg",
          "frame" : "-1",
          "position" : 4,
          "thumb" : "https:\/\/i1.douguo.com\/upload\/caiku\/1\/8\/c\/140_187a713aed9ba79ef88262647859f6bc.jpg"
        },
        {
          "image" : "https:\/\/i1.douguo.com\/upload\/caiku\/7\/9\/d\/7909ea1459e4bea8ae00b2cad654b51d.jpg",
          "frame" : "-1",
          "position" : 5,
          "content" : "放入玉米、青豆、甜椒、虾仁、香肠、马苏里拉芝士",
          "image_width" : 6000,
          "thumb" : "https:\/\/i1.douguo.com\/upload\/caiku\/7\/9\/d\/140_7909ea1459e4bea8ae00b2cad654b51d.jpg",
          "image_height" : 4000
        },
        {
          "content" : "放入玉米、青豆、甜椒、虾仁、香肠、马苏里拉芝士",
          "frame" : "-1",
          "image" : "https:\/\/i1.douguo.com\/upload\/caiku\/2\/b\/9\/2bb885a6e3f3068d4f27075451cc1019.jpg",
          "thumb" : "https:\/\/i1.douguo.com\/upload\/caiku\/2\/b\/9\/140_2bb885a6e3f3068d4f27075451cc1019.jpg",
          "image_width" : 6000,
          "position" : 6,
          "image_height" : 4000
        },
        {
          "image_height" : 4000,
          "image_width" : 6000,
          "thumb" : "https:\/\/i1.douguo.com\/upload\/caiku\/8\/1\/e\/140_811a067d9d85f626691b9a7a84d63ede.jpg",
          "content" : "放入玉米、青豆、甜椒、虾仁、香肠、马苏里拉芝士",
          "image" : "https:\/\/i1.douguo.com\/upload\/caiku\/8\/1\/e\/811a067d9d85f626691b9a7a84d63ede.jpg",
          "position" : 7,
          "frame" : "-1"
        },
        {
          "position" : 8,
          "frame" : "-1",
          "image_height" : 4000,
          "image_width" : 6000,
          "content" : "放入玉米、青豆、甜椒、虾仁、香肠、马苏里拉芝士",
          "thumb" : "https:\/\/i1.douguo.com\/upload\/caiku\/c\/5\/a\/140_c5d9027f5e372087ab150a95fb67cbea.jpg",
          "image" : "https:\/\/i1.douguo.com\/upload\/caiku\/c\/5\/a\/c5d9027f5e372087ab150a95fb67cbea.jpg"
        },
        {
          "image_height" : 4000,
          "frame" : "-1",
          "image" : "https:\/\/i1.douguo.com\/upload\/caiku\/c\/1\/8\/c138401cfc854b12f585bc14bcf615f8.jpg",
          "content" : "4个鸡蛋加入少许盐搅散",
          "position" : 9,
          "thumb" : "https:\/\/i1.douguo.com\/upload\/caiku\/c\/1\/8\/140_c138401cfc854b12f585bc14bcf615f8.jpg",
          "image_width" : 6000
        },
        {
          "image_height" : 4000,
          "image" : "https:\/\/i1.douguo.com\/upload\/caiku\/2\/d\/2\/2da95805d437b19c3f16ee317f762502.jpg",
          "frame" : "-1",
          "image_width" : 6000,
          "content" : "搅散",
          "thumb" : "https:\/\/i1.douguo.com\/upload\/caiku\/2\/d\/2\/140_2da95805d437b19c3f16ee317f762502.jpg",
          "position" : 10
        },
        {
          "image_width" : 5050,
          "content" : "倒入6寸模具内",
          "image" : "https:\/\/i1.douguo.com\/upload\/caiku\/9\/f\/e\/9f76c4ffd151326a4b62a5fa87f2d69e.jpg",
          "thumb" : "https:\/\/i1.douguo.com\/upload\/caiku\/9\/f\/e\/140_9f76c4ffd151326a4b62a5fa87f2d69e.jpg",
          "position" : 11,
          "frame" : "-1",
          "image_height" : 3367
        },
        {
          "image_height" : 4000,
          "position" : 12,
          "image" : "https:\/\/i1.douguo.com\/upload\/caiku\/4\/1\/c\/41e00b4a5f809d28f5c9b827ab04eacc.jpg",
          "content" : "180度烤20分钟表面金黄上色即可",
          "thumb" : "https:\/\/i1.douguo.com\/upload\/caiku\/4\/1\/c\/140_41e00b4a5f809d28f5c9b827ab04eacc.jpg",
          "image_width" : 6000,
          "frame" : "-1"
        },
        {
          "content" : "完成",
          "image_width" : 4000,
          "image" : "https:\/\/i1.douguo.com\/upload\/caiku\/1\/5\/d\/15aab0f9c1422ee0694756fd1baa137d.jpg",
          "frame" : "-1",
          "image_height" : 6000,
          "thumb" : "https:\/\/i1.douguo.com\/upload\/caiku\/1\/5\/d\/140_15aab0f9c1422ee0694756fd1baa137d.jpg",
          "position" : 13
        },
        {
          "position" : 14,
          "content" : "喷香喷香的~",
          "frame" : "-1",
          "image_width" : 4000,
          "image" : "https:\/\/i1.douguo.com\/upload\/caiku\/6\/6\/c\/66e02fbe78cb8c4cc88b9972f1a1001c.jpg",
          "image_height" : 3144,
          "thumb" : "https:\/\/i1.douguo.com\/upload\/caiku\/6\/6\/c\/140_66e02fbe78cb8c4cc88b9972f1a1001c.jpg"
        }
      ],
      "release_time" : "",
      "favo_counts_text" : "3.2万",
      "author_photo" : "http:\/\/tx1.douguo.net\/upload\/photo\/7\/8\/3\/70_783f734e57c1df10690b2e3019037a93.png",
      "title" : "快手早餐 | 厚蛋烧",
      "recommendation_tag" : "",
      "hqu" : "recipes:\/\/www.douguo.com\/notedetail?id=21162253",
      "rewarded_video_dsp" : [

      ],
      "tags" : [

      ],
      "thumb_height" : 0,
      "comments_count_text" : "180",
      "btm_dsp" : [

      ],
      "cookstory" : "外皮酥酥脆脆，里面是豌豆、培根、彩椒、火腿、芝士等，十分美味~ \r\n\r\n15分钟，一家人的早餐搞定，再来杯牛奶，完美！",
      "mid_mdsp" : [

      ],
      "story_dsp" : [

      ],
      "packages_id" : [

      ],
      "recommend_label" : "29人学做",
      "dish_count" : 29,
      "ecs" : 0,
      "rrps" : [

      ],
      "rdsps" : [

      ],
      "ipci" : "",
      "tips" : "",
      "vu" : "",
      "user" : {
        "fc" : 0,
        "user_large_photo" : "http:\/\/tx1.douguo.net\/upload\/photo\/7\/8\/3\/yuan_783f734e57c1df10690b2e3019037a93.png",
        "setted_email" : 0,
        "mobile" : "",
        "user_id" : "26230390",
        "user_photo" : "http:\/\/tx1.douguo.net\/upload\/photo\/7\/8\/3\/70_783f734e57c1df10690b2e3019037a93.png",
        "recipes_count" : 0,
        "email" : "",
        "nick" : "展艺烘焙",
        "verified_image" : "https:\/\/i1.douguo.com\/upload\/note\/2\/b\/1\/2ba3cf1657cbf92e474d7e0534ce8da1.png",
        "location" : 0,
        "subscription" : 0,
        "coursecount" : 0,
        "favor_diaries_count" : 0,
        "qzone_nick" : "",
        "verified" : 2,
        "lv" : 0,
        "introduction" : "",
        "verified_url" : "https:\/\/m.douguo.com\/user\/prodesc",
        "point" : 0,
        "dishes_count" : 0,
        "gender" : 2,
        "diaries_count" : 0,
        "weibo_nick" : "",
        "followers_count" : 0,
        "is_prime" : 0,
        "qq_weibo_nick" : "",
        "following_count" : 0,
        "age" : "",
        "favorites_count" : 0,
        "regist_time" : "",
        "user_cover" : "",
        "avatar_medium" : "http:\/\/tx1.douguo.net\/upload\/photo\/7\/8\/3\/140_783f734e57c1df10690b2e3019037a93.png",
        "pc" : 0,
        "birthday" : "",
        "progress_image" : "",
        "userid" : "26230390",
        "lvl" : 6,
        "subscription_article_count" : 0,
        "sign" : ""
      },
      "author_verified" : 2,
      "dishes" : [

      ],
      "notes" : [

      ],
      "hq" : 1,
      "image" : "http:\/\/i1.douguo.net\/upload\/caiku\/1\/2\/6\/300_125ebc5b49e5be443921b5928bb794d6.jpg",
      "cook_time" : "10分钟左右",
      "thumb_path" : "https:\/\/i1.douguo.com\/upload\/caiku\/1\/2\/6\/300_125ebc5b49e5be443921b5928bb794d6.jpg",
      "cook_time_image" : "https:\/\/i1.douguo.com\/upload\/banner\/1551424358.png",
      "rpt" : "",
      "rate" : 4,
      "rate_show" : 1,
      "share_info" : {
        "image" : "https:\/\/cp1.douguo.com\/upload\/caiku\/1\/2\/6\/125ebc5b49e5be443921b5928bb794d6.jpg",
        "object_id" : "3122019",
        "qr_image" : "",
        "mini_program" : [

        ],
        "name" : "快手早餐 | 厚蛋烧-会做饭很酷!",
        "infos" : [
          {
            "s_u" : "",
            "s_d" : "#学做饭用豆果美食# 会做饭真是太酷了！我在@豆果美食 分享了【快手早餐 | 厚蛋烧-会做饭很酷!】，看着是不是馋到不行呢～快来跟我学学吧！查看图片了解菜谱，（想要获取更多美食就看这https:\/\/m.weibo.cn\/p\/100404i33631）",
            "qr_image" : "",
            "mini_program" : [

            ],
            "name" : "快手早餐 | 厚蛋烧-会做饭很酷!",
            "image" : "https:\/\/cp1.douguo.com\/upload\/caiku\/1\/2\/6\/125ebc5b49e5be443921b5928bb794d6.jpg",
            "object_id" : "3122019",
            "channel" : "1"
          },
          {
            "name" : "快手早餐 | 厚蛋烧-会做饭很酷!",
            "s_d" : "快手早餐 | 厚蛋烧-会做饭很酷!",
            "s_u" : "http:\/\/m.douguo.com\/cookbook\/3122019.html",
            "object_id" : "3122019",
            "channel" : "7",
            "mini_program" : [

            ],
            "qr_image" : "",
            "image" : "https:\/\/cp1.douguo.com\/upload\/caiku\/1\/2\/6\/125ebc5b49e5be443921b5928bb794d6.jpg"
          },
          {
            "image" : "https:\/\/cp1.douguo.com\/upload\/caiku\/1\/2\/6\/125ebc5b49e5be443921b5928bb794d6.jpg",
            "qr_image" : "",
            "mini_program" : [

            ],
            "object_id" : "3122019",
            "name" : "快手早餐 | 厚蛋烧-会做饭很酷!",
            "channel" : "8",
            "s_u" : "http:\/\/m.douguo.com\/cookbook\/3122019.html",
            "s_d" : "快手早餐 | 厚蛋烧-会做饭很酷!"
          }
        ],
        "s_u" : "http:\/\/m.douguo.com\/cookbook\/3122019.html",
        "s_d" : "快手早餐 | 厚蛋烧-会做饭很酷!"
      },
      "cook_difficulty_image" : "https:\/\/i1.douguo.com\/upload\/banner\/1551424390.png",
      "ipit" : 0,
      "original_photo_path" : "http:\/\/i1.douguo.net\/upload\/caiku\/1\/2\/6\/yuan_125ebc5b49e5be443921b5928bb794d6.jpg",
      "top_mdsp" : [

      ],
      "rate_count" : 29,
      "major" : [
        {
          "note" : "2张",
          "title" : "展艺手抓饼\/葱油饼"
        },
        {
          "title" : "鸡蛋",
          "tu" : "https:\/\/m.douguo.com\/ingredients\/鸡蛋\/detailmaterial",
          "note" : "4个"
        },
        {
          "note" : "适量",
          "title" : "培根",
          "tu" : "https:\/\/m.douguo.com\/ingredients\/培根\/detailmaterial"
        },
        {
          "tu" : "https:\/\/m.douguo.com\/ingredients\/玉米\/detailmaterial",
          "title" : "玉米",
          "note" : "适量"
        },
        {
          "note" : "适量",
          "title" : "甜椒"
        },
        {
          "note" : "适量",
          "title" : "马苏里拉芝士"
        },
        {
          "tu" : "https:\/\/m.douguo.com\/ingredients\/火腿\/detailmaterial",
          "title" : "火腿",
          "note" : "适量"
        },
        {
          "title" : "虾仁",
          "note" : "适量",
          "tu" : "https:\/\/m.douguo.com\/ingredients\/虾仁\/detailmaterial"
        }
      ],
      "related_ads" : [

      ],
      "cookwares" : [

      ],
      "vfurl" : "",
      "recipe_list_tags" : [
        {
          "right_image" : "",
          "text" : "关注的人",
          "background_end_color" : "#F4F5F5",
          "background_start_color" : "#F4F5F5",
          "text_color" : "#141515",
          "background_border_color" : "",
          "jump_url" : ""
        }
      ],
      "author" : "展艺烘焙"
    }
  },
  "status" : 0
}