{
  "state" : "success",
  "status" : 0,
  "result" : {
    "recipe" : {
      "packages_id" : [

      ],
      "act_des" : "",
      "vfurl" : "",
      "rpid" : 0,
      "cook_difficulty" : "切墩(初级)",
      "favo_counts_text" : "1264",
      "thumb_path" : "https:\/\/i1.douguo.com\/upload\/caiku\/2\/4\/2\/300_247df4f4cade93eb24f4447cbfd5ef02.jpg",
      "recommended" : 0,
      "vc" : "37667",
      "clicks" : "1",
      "collect_status" : 0,
      "tags" : [

      ],
      "major" : [
        {
          "title" : "黄桃罐头3大块",
          "note" : ""
        },
        {
          "title" : "白凉粉20g",
          "note" : ""
        },
        {
          "note" : "",
          "title" : "水500ml"
        },
        {
          "title" : "绵白糖70g",
          "note" : ""
        },
        {
          "note" : "",
          "title" : "食用闪粉（银色）少许"
        }
      ],
      "image" : "http:\/\/i1.douguo.net\/upload\/caiku\/2\/4\/2\/300_247df4f4cade93eb24f4447cbfd5ef02.jpg",
      "favo_counts" : 1264,
      "cookstory" : "这个水晶果冻是我之前一直想做、但是又一直都没有做的，主要以前用鱼胶粉做出来的类似东西那个味道我个人不是太喜欢，所以这一搁置就一直耽搁下来了。直到后来买了白凉粉回来，昨天我做了个果冻感觉效果很好，所以就想到了一直没做的这个小甜品，决定赶紧给他给做出来，顺便也把菜谱给拍了\r\n\r\n其实做这种水果冻方法很简单，可以用鲜水果，也可以用水果罐头，而我手边现在正好就有好几罐子黄桃罐头，所以就直接拿过来利用啦，超级方便哦~~",
      "recent_comments" : [

      ],
      "advice" : {
        "has" : [
          {
            "t" : "低热量",
            "url" : "recipes:\/\/www.douguo.com\/simplerecipelist?t=低热量&id=低热量"
          },
          {
            "url" : "recipes:\/\/www.douguo.com\/simplerecipelist?t=低脂&id=低脂",
            "t" : "低脂"
          }
        ],
        "at" : "能有效控制体重～",
        "da" : {
          "iu" : "https:\/\/i1.douguo.com\/upload\/banner\/f\/4\/d\/f48877e53c37759bc12ac494be82ec8d.png",
          "url" : "https:\/\/m.douguo.com\/recipe\/nutrient_self\/3253128",
          "t" : "查看详细分析"
        }
      },
      "share_info" : {
        "name" : "#感恩妈妈 爱与味蕾同行#黄桃水晶果冻-会做饭很酷!",
        "s_u" : "http:\/\/m.douguo.com\/cookbook\/3253128.html",
        "s_d" : "#感恩妈妈 爱与味蕾同行#黄桃水晶果冻-会做饭很酷!",
        "infos" : [
          {
            "object_id" : "3253128",
            "mini_program" : [

            ],
            "s_u" : "",
            "qr_image" : "",
            "image" : "https:\/\/cp1.douguo.com\/upload\/caiku\/2\/4\/2\/247df4f4cade93eb24f4447cbfd5ef02.jpg",
            "s_d" : "#学做饭用豆果美食# 我在@豆果美食 分享了【#感恩妈妈 爱与味蕾同行#黄桃水晶果冻-会做饭很酷!】，哟，集美们～你看这是神仙美味～快跟着我做一份，做一份！查看图片了解菜谱（更多美食秘籍点击https:\/\/m.weibo.cn\/p\/100404i33631获取）#会做饭很酷# ",
            "name" : "#感恩妈妈 爱与味蕾同行#黄桃水晶果冻-会做饭很酷!",
            "channel" : "1"
          },
          {
            "qr_image" : "",
            "image" : "https:\/\/cp1.douguo.com\/upload\/caiku\/2\/4\/2\/247df4f4cade93eb24f4447cbfd5ef02.jpg",
            "channel" : "7",
            "s_u" : "http:\/\/m.douguo.com\/cookbook\/3253128.html",
            "mini_program" : [

            ],
            "object_id" : "3253128",
            "name" : "#感恩妈妈 爱与味蕾同行#黄桃水晶果冻-会做饭很酷!",
            "s_d" : "#感恩妈妈 爱与味蕾同行#黄桃水晶果冻-会做饭很酷!"
          },
          {
            "name" : "#感恩妈妈 爱与味蕾同行#黄桃水晶果冻-会做饭很酷!",
            "image" : "https:\/\/cp1.douguo.com\/upload\/caiku\/2\/4\/2\/247df4f4cade93eb24f4447cbfd5ef02.jpg",
            "mini_program" : [

            ],
            "s_d" : "#感恩妈妈 爱与味蕾同行#黄桃水晶果冻-会做饭很酷!",
            "object_id" : "3253128",
            "qr_image" : "",
            "s_u" : "http:\/\/m.douguo.com\/cookbook\/3253128.html",
            "channel" : "8"
          }
        ],
        "object_id" : "3253128",
        "qr_image" : "",
        "image" : "https:\/\/cp1.douguo.com\/upload\/caiku\/2\/4\/2\/247df4f4cade93eb24f4447cbfd5ef02.jpg",
        "mini_program" : [

        ]
      },
      "cook_difficulty_image" : "https:\/\/i1.douguo.com\/upload\/banner\/1551424390.png",
      "cook_id" : "3253128",
      "thumb_height" : 0,
      "hq" : 1,
      "dish_count" : 0,
      "cook_time_image" : "https:\/\/i1.douguo.com\/upload\/banner\/1551424358.png",
      "ssu" : "",
      "ecs" : 0,
      "rewarded_video_dsp" : [

      ],
      "tips" : "这里边放白糖的量根据你自己的个人口味调整就行了，毕竟桃子罐头他本身就有甜度\r\n\r\n另外食用闪粉你要是没有可以不放，这个只是为了好看而已，放在上面会有闪闪发光的效果，不强求放不放。要是你觉得做玫瑰花太难的话也可以直接舍弃掉这一步哈，毕竟我做的时候也有点抓狂，因为实在是太滑了不好固定.......你要是实在整不出来，或者是觉得自己手残的话，那就直接把罐头切丁，然后一股脑的放进杯子里就好了",
      "hqu" : "recipes:\/\/www.douguo.com\/notedetail?id=21162253",
      "bs" : [

      ],
      "rate_show" : 0,
      "brand_day_dsp" : [

      ],
      "original_photo_path" : "http:\/\/i1.douguo.net\/upload\/caiku\/2\/4\/2\/yuan_247df4f4cade93eb24f4447cbfd5ef02.jpg",
      "rate_count" : 0,
      "su" : "",
      "release_time" : "",
      "recommendation_tag" : "",
      "rdsps" : [

      ],
      "ss" : [

      ],
      "title_ad" : [

      ],
      "ipoi" : "",
      "related_ads" : [

      ],
      "levelid" : 2,
      "comments_count_text" : "",
      "comments_count" : 0,
      "guide_image" : "",
      "photo_path" : "https:\/\/i1.douguo.com\/upload\/caiku\/2\/4\/2\/600_247df4f4cade93eb24f4447cbfd5ef02.jpg",
      "user" : {
        "dishes_count" : 0,
        "lvl" : 6,
        "verified_url" : "https:\/\/m.douguo.com\/user\/prodesc",
        "location" : 0,
        "progress_image" : "",
        "userid" : "19282352",
        "favor_diaries_count" : 0,
        "lv" : 0,
        "followers_count" : 0,
        "age" : "",
        "point" : 0,
        "subscription" : 0,
        "weibo_nick" : "",
        "sign" : "",
        "coursecount" : 0,
        "user_cover" : "",
        "favorites_count" : 0,
        "diaries_count" : 0,
        "regist_time" : "",
        "subscription_article_count" : 0,
        "recipes_count" : 0,
        "verified_image" : "https:\/\/i1.douguo.com\/upload\/note\/d\/a\/a\/da84247847aebe48d9dd0fcdac88862a.png",
        "gender" : 2,
        "qzone_nick" : "",
        "fc" : 0,
        "qq_weibo_nick" : "",
        "birthday" : "",
        "avatar_medium" : "http:\/\/tx1.douguo.net\/upload\/photo\/6\/6\/c\/140_66cb8152c14841e0b72a7defd94eef3c.jpg",
        "user_photo" : "http:\/\/tx1.douguo.net\/upload\/photo\/6\/6\/c\/70_66cb8152c14841e0b72a7defd94eef3c.jpg",
        "setted_email" : 0,
        "verified" : 1,
        "pc" : 0,
        "nick" : "NANA的美食工坊",
        "mobile" : "",
        "user_id" : "19282352",
        "email" : "",
        "following_count" : 0,
        "is_prime" : 0,
        "user_large_photo" : "http:\/\/tx1.douguo.net\/upload\/photo\/6\/6\/c\/yuan_66cb8152c14841e0b72a7defd94eef3c.jpg",
        "introduction" : ""
      },
      "mid_mdsp" : [

      ],
      "author_id" : 19282352,
      "author_photo" : "http:\/\/tx1.douguo.net\/upload\/photo\/6\/6\/c\/70_66cb8152c14841e0b72a7defd94eef3c.jpg",
      "notes" : [

      ],
      "rpt" : "",
      "purl" : "",
      "dish_count_text" : "",
      "rcs" : [

      ],
      "vu" : "",
      "cook_time" : "10分钟左右",
      "rsm" : "该功能暂停使用",
      "sc" : 0,
      "recipe_list_tags" : [
        {
          "background_border_color" : "",
          "jump_url" : "",
          "background_start_color" : "#F4F5F5",
          "text_color" : "#141515",
          "background_end_color" : "#F4F5F5",
          "right_image" : "",
          "text" : "关注的人"
        },
        {
          "jump_url" : "",
          "text_color" : "#141515",
          "background_border_color" : "",
          "right_image" : "",
          "background_end_color" : "#F4F5F5",
          "background_start_color" : "#F4F5F5",
          "text" : "内容详细"
        }
      ],
      "rrps" : [

      ],
      "cookwares" : [

      ],
      "display_ingredient" : 1,
      "ipurl" : "",
      "old_comments" : [

      ],
      "create_time" : "2023-05-24 12:50:44",
      "recommend_label" : "1264人刚刚收藏过",
      "dishes" : [

      ],
      "cookstep" : [
        {
          "frame" : "-1",
          "image_width" : 4176,
          "thumb" : "https:\/\/i1.douguo.com\/upload\/caiku\/3\/4\/3\/140_342804d0445b24d994cd3160e04888b3.JPG",
          "image_height" : 2784,
          "position" : 1,
          "image" : "https:\/\/i1.douguo.com\/upload\/caiku\/3\/4\/3\/342804d0445b24d994cd3160e04888b3.JPG",
          "content" : "先把两个黄桃罐头切成小块，放到杯子里"
        },
        {
          "image_height" : 2784,
          "frame" : "-1",
          "thumb" : "https:\/\/i1.douguo.com\/upload\/caiku\/9\/0\/3\/140_90c05d5d8d09ce251751a2e1178b61c3.JPG",
          "image" : "https:\/\/i1.douguo.com\/upload\/caiku\/9\/0\/3\/90c05d5d8d09ce251751a2e1178b61c3.JPG",
          "image_width" : 4176,
          "position" : 2,
          "content" : "再另外取一块黄桃罐头，切成薄片"
        },
        {
          "image_width" : 4176,
          "content" : "把两头较大的拿掉不要，用中间宽窄比较适中的部分。先把切好的桃子片一字码平，然后从一头卷起来，卷成玫瑰花的形状备用",
          "position" : 3,
          "thumb" : "https:\/\/i1.douguo.com\/upload\/caiku\/4\/b\/3\/140_4b8772f81db367a7a136e86666707ad3.JPG",
          "frame" : "-1",
          "image_height" : 2784,
          "image" : "https:\/\/i1.douguo.com\/upload\/caiku\/4\/b\/3\/4b8772f81db367a7a136e86666707ad3.JPG"
        },
        {
          "frame" : "-1",
          "content" : "水里放入白凉粉和糖，煮开搅匀",
          "thumb" : "https:\/\/i1.douguo.com\/upload\/caiku\/8\/7\/9\/140_87801d94333ab1738e06b294fe146c09.JPG",
          "position" : 4,
          "image_width" : 4176,
          "image_height" : 2784,
          "image" : "https:\/\/i1.douguo.com\/upload\/caiku\/8\/7\/9\/87801d94333ab1738e06b294fe146c09.JPG"
        },
        {
          "thumb" : "https:\/\/i1.douguo.com\/upload\/caiku\/4\/4\/9\/140_44324e7c03e2b7eb93ea644eba2eee19.JPG",
          "image" : "https:\/\/i1.douguo.com\/upload\/caiku\/4\/4\/9\/44324e7c03e2b7eb93ea644eba2eee19.JPG",
          "content" : "把凉粉糖水倒入杯子中八分满，剩下的凉粉液保温防止凝固，把杯子放入冰箱冷冻25分钟定型",
          "image_height" : 2784,
          "position" : 5,
          "image_width" : 4176,
          "frame" : "-1"
        },
        {
          "thumb" : "https:\/\/i1.douguo.com\/upload\/caiku\/b\/2\/0\/140_b23d36c0a860cfc3c6e8c806f556ef10.JPG",
          "position" : 6,
          "frame" : "-1",
          "image" : "https:\/\/i1.douguo.com\/upload\/caiku\/b\/2\/0\/b23d36c0a860cfc3c6e8c806f556ef10.JPG",
          "image_height" : 2784,
          "content" : "再把做好的桃子玫瑰花移入杯子中，接着倒入剩下的凉粉液至贴近杯口处，直到盖过桃子做的玫瑰花",
          "image_width" : 4176
        },
        {
          "image_width" : 4176,
          "frame" : "-1",
          "image_height" : 2784,
          "thumb" : "https:\/\/i1.douguo.com\/upload\/caiku\/6\/4\/5\/140_64eadf297723ed2484387ec1e7f7f195.JPG",
          "image" : "https:\/\/i1.douguo.com\/upload\/caiku\/6\/4\/5\/64eadf297723ed2484387ec1e7f7f195.JPG",
          "content" : "重新放入冰箱冷藏一小时，定型",
          "position" : 7
        },
        {
          "frame" : "-1",
          "thumb" : "https:\/\/i1.douguo.com\/upload\/caiku\/6\/6\/4\/140_66b3843387ebdb5ea2eb8e7bb6001114.JPG",
          "content" : "取两勺罐头汤，加入少许食用闪粉搅匀，把闪粉液淋在果冻表面即可",
          "image_width" : 4176,
          "image" : "https:\/\/i1.douguo.com\/upload\/caiku\/6\/6\/4\/66b3843387ebdb5ea2eb8e7bb6001114.JPG",
          "image_height" : 2784,
          "position" : 8
        }
      ],
      "v_u" : "",
      "minor" : [

      ],
      "ipt" : "",
      "views_count_text" : "3.8万",
      "first_level_comment_count" : 0,
      "recipe_tags" : [

      ],
      "eu" : "recipes:\/\/www.douguo.com\/postdetail?id=242016",
      "sr" : "",
      "top_mdsp" : [

      ],
      "ph" : 466,
      "story_dsp" : [

      ],
      "btm_dsp" : [

      ],
      "ipit" : 0,
      "author_verified" : 1,
      "pw" : 700,
      "rips" : 0,
      "ipia" : [

      ],
      "title" : "黄桃水晶果冻",
      "ipci" : "",
      "rrpt" : "",
      "rpst" : "",
      "event" : {
        "name" : "感恩妈妈 爱与味蕾同行",
        "id" : 3766,
        "url" : "https:\/\/m.douguo.com\/activity\/ncpzj\/detail\/3766?isapp=1&open=0&_vs=1000300&&dg_refreshkey=publishnote"
      },
      "rate" : 0,
      "comments" : [

      ],
      "author" : "NANA的美食工坊",
      "cookstorys" : [
        {
          "color" : "",
          "u" : "",
          "id" : 0,
          "c" : "这个水晶果冻是我之前一直想做、但是又一直都没有做的，主要以前用鱼胶粉做出来的类似东西那个味道我个人不是太喜欢，所以这一搁置就一直耽搁下来了。直到后来买了白凉粉回来，昨天我做了个果冻感觉效果很好，所以就想到了一直没做的这个小甜品，决定赶紧给他给做出来，顺便也把菜谱给拍了\r\n\r\n其实做这种水果冻方法很简单，可以用鲜水果，也可以用水果罐头，而我手边现在正好就有好几罐子黄桃罐头，所以就直接拿过来利用啦，超级方便哦~~",
          "icon" : "",
          "type" : 0
        },
        {
          "icon" : "",
          "type" : 0,
          "color" : "",
          "c" : "\n参与活动:",
          "id" : 0,
          "u" : ""
        },
        {
          "c" : "#感恩妈妈 爱与味蕾同行#",
          "icon" : "",
          "id" : 0,
          "type" : 0,
          "u" : "https:\/\/m.douguo.com\/activity\/ncpzj\/detail\/3766?isapp=1&open=0&_vs=1000300&&dg_refreshkey=publishnote"
        }
      ]
    }
  }
}