{
  "result" : {
    "recipe" : {
      "related_ads" : [

      ],
      "cook_difficulty" : "",
      "cookstep" : [
        {
          "content" : "调料准备就绪",
          "image" : "https:\/\/i1.douguo.com\/upload\/caiku\/e\/a\/d\/ea8cb31c5fbd8aeff35ce04e4cda33dd.jpg",
          "image_width" : 1280,
          "thumb" : "https:\/\/i1.douguo.com\/upload\/caiku\/e\/a\/d\/140_ea8cb31c5fbd8aeff35ce04e4cda33dd.jpg",
          "frame" : "-1",
          "position" : 1,
          "image_height" : 1707
        },
        {
          "thumb" : "https:\/\/i1.douguo.com\/upload\/caiku\/4\/0\/b\/140_40c00af763c83257bb8e9c077de2e3db.jpg",
          "frame" : "-1",
          "image_height" : 960,
          "image_width" : 1280,
          "position" : 2,
          "content" : "猪肉肥瘦分开切",
          "image" : "https:\/\/i1.douguo.com\/upload\/caiku\/4\/0\/b\/40c00af763c83257bb8e9c077de2e3db.jpg"
        },
        {
          "image_width" : 1280,
          "image" : "https:\/\/i1.douguo.com\/upload\/caiku\/8\/2\/9\/82f3b0c22a3a11a595fb828c0b75ba99.jpg",
          "image_height" : 1707,
          "thumb" : "https:\/\/i1.douguo.com\/upload\/caiku\/8\/2\/9\/140_82f3b0c22a3a11a595fb828c0b75ba99.jpg",
          "content" : "大葱切段，一起搅肉沫",
          "position" : 3,
          "frame" : "-1"
        },
        {
          "image_width" : 1280,
          "content" : "肥肉熬油",
          "image_height" : 960,
          "image" : "https:\/\/i1.douguo.com\/upload\/caiku\/3\/c\/e\/3cb16ebf90fe95ef39c89abb29466e5e.jpg",
          "thumb" : "https:\/\/i1.douguo.com\/upload\/caiku\/3\/c\/e\/140_3cb16ebf90fe95ef39c89abb29466e5e.jpg",
          "position" : 4,
          "frame" : "-1"
        },
        {
          "image" : "https:\/\/i1.douguo.com\/upload\/caiku\/a\/c\/c\/ac1bf22a9d83554afaab0e0784fee0bc.jpg",
          "image_height" : 960,
          "content" : "油渣、瘦肉、大葱、生姜、一起搅肉机搅拌",
          "position" : 5,
          "image_width" : 1280,
          "thumb" : "https:\/\/i1.douguo.com\/upload\/caiku\/a\/c\/c\/140_ac1bf22a9d83554afaab0e0784fee0bc.jpg",
          "frame" : "-1"
        },
        {
          "image_width" : 1280,
          "image_height" : 960,
          "thumb" : "https:\/\/i1.douguo.com\/upload\/caiku\/2\/7\/a\/140_278896338ffb9266b0305bd2bc7bf98a.jpg",
          "image" : "https:\/\/i1.douguo.com\/upload\/caiku\/2\/7\/a\/278896338ffb9266b0305bd2bc7bf98a.jpg",
          "frame" : "-1",
          "position" : 6,
          "content" : "花生油炒肉馅、料酒两勺收干"
        },
        {
          "position" : 7,
          "image" : "https:\/\/i1.douguo.com\/upload\/caiku\/f\/3\/0\/f39ee6b2acde593abf5662a2a243c660.jpg",
          "frame" : "-1",
          "content" : "味达美味极鲜酱油很鲜",
          "image_height" : 1707,
          "image_width" : 1280,
          "thumb" : "https:\/\/i1.douguo.com\/upload\/caiku\/f\/3\/0\/140_f39ee6b2acde593abf5662a2a243c660.jpg"
        },
        {
          "image_height" : 960,
          "thumb" : "https:\/\/i1.douguo.com\/upload\/caiku\/6\/6\/c\/140_66b620eb6999676f6eb262916f9cbafc.jpg",
          "frame" : "-1",
          "content" : "味美达酱油两勺即可",
          "image" : "https:\/\/i1.douguo.com\/upload\/caiku\/6\/6\/c\/66b620eb6999676f6eb262916f9cbafc.jpg",
          "image_width" : 1280,
          "position" : 8
        },
        {
          "thumb" : "https:\/\/i1.douguo.com\/upload\/caiku\/3\/5\/3\/140_356a2dba707821bb8319dcfa926f56c3.jpg",
          "image_height" : 960,
          "image" : "https:\/\/i1.douguo.com\/upload\/caiku\/3\/5\/3\/356a2dba707821bb8319dcfa926f56c3.jpg",
          "frame" : "-1",
          "content" : "好多大葱，炒出来很香的",
          "position" : 9,
          "image_width" : 1280
        },
        {
          "image_height" : 960,
          "thumb" : "https:\/\/i1.douguo.com\/upload\/caiku\/9\/2\/0\/140_92a5cf220ccbb2f00def0f6f51d22230.jpg",
          "position" : 10,
          "image_width" : 1280,
          "image" : "https:\/\/i1.douguo.com\/upload\/caiku\/9\/2\/0\/92a5cf220ccbb2f00def0f6f51d22230.jpg",
          "frame" : "-1",
          "content" : "放入大葱"
        },
        {
          "position" : 11,
          "image_width" : 1280,
          "frame" : "-1",
          "content" : "盐来一点",
          "thumb" : "https:\/\/i1.douguo.com\/upload\/caiku\/a\/c\/d\/140_aca309fd8670cac3e1526f550c15490d.jpg",
          "image" : "https:\/\/i1.douguo.com\/upload\/caiku\/a\/c\/d\/aca309fd8670cac3e1526f550c15490d.jpg",
          "image_height" : 1707
        },
        {
          "thumb" : "https:\/\/i1.douguo.com\/upload\/caiku\/9\/e\/3\/140_9e1979329f97bbf701e99556195425f3.jpg",
          "frame" : "-1",
          "image_height" : 960,
          "content" : "砂糖来一点",
          "image" : "https:\/\/i1.douguo.com\/upload\/caiku\/9\/e\/3\/9e1979329f97bbf701e99556195425f3.jpg",
          "position" : 12,
          "image_width" : 1280
        },
        {
          "frame" : "-1",
          "image" : "https:\/\/i1.douguo.com\/upload\/caiku\/6\/f\/5\/6f5ff4928a58617270378f5612692385.jpg",
          "position" : 13,
          "image_height" : 960,
          "image_width" : 1280,
          "thumb" : "https:\/\/i1.douguo.com\/upload\/caiku\/6\/f\/5\/140_6f5ff4928a58617270378f5612692385.jpg",
          "content" : "炒好的肉馅冷却一下"
        },
        {
          "image_height" : 960,
          "image_width" : 1280,
          "position" : 14,
          "image" : "https:\/\/i1.douguo.com\/upload\/caiku\/4\/2\/c\/4296108e3ea743011527d87763b81a7c.jpg",
          "frame" : "-1",
          "thumb" : "https:\/\/i1.douguo.com\/upload\/caiku\/4\/2\/c\/140_4296108e3ea743011527d87763b81a7c.jpg",
          "content" : "大葱炒炒更香"
        },
        {
          "image_width" : 1280,
          "position" : 15,
          "frame" : "-1",
          "image" : "https:\/\/i1.douguo.com\/upload\/caiku\/9\/9\/d\/997a15b746590b5e2d1b8a5cd998b30d.jpg",
          "image_height" : 960,
          "content" : "味达美蚝油调味",
          "thumb" : "https:\/\/i1.douguo.com\/upload\/caiku\/9\/9\/d\/140_997a15b746590b5e2d1b8a5cd998b30d.jpg"
        },
        {
          "image" : "https:\/\/i1.douguo.com\/upload\/caiku\/c\/4\/2\/c4ae018de244163598034ccf5da3ffc2.jpg",
          "image_height" : 960,
          "image_width" : 1280,
          "position" : 16,
          "frame" : "-1",
          "content" : "一勺就很鲜",
          "thumb" : "https:\/\/i1.douguo.com\/upload\/caiku\/c\/4\/2\/140_c4ae018de244163598034ccf5da3ffc2.jpg"
        },
        {
          "image_height" : 1707,
          "content" : "青南瓜，自己家种的",
          "image_width" : 1280,
          "image" : "https:\/\/i1.douguo.com\/upload\/caiku\/9\/3\/4\/93d7fdabe80d1ca4e09d67d613d58f64.jpg",
          "frame" : "-1",
          "thumb" : "https:\/\/i1.douguo.com\/upload\/caiku\/9\/3\/4\/140_93d7fdabe80d1ca4e09d67d613d58f64.jpg",
          "position" : 17
        },
        {
          "image_width" : 1280,
          "frame" : "-1",
          "image_height" : 960,
          "position" : 18,
          "image" : "https:\/\/i1.douguo.com\/upload\/caiku\/9\/a\/b\/9abf346870de210add4d6377ef765aeb.jpg",
          "content" : "南瓜剥丝",
          "thumb" : "https:\/\/i1.douguo.com\/upload\/caiku\/9\/a\/b\/140_9abf346870de210add4d6377ef765aeb.jpg"
        },
        {
          "image_width" : 1280,
          "thumb" : "https:\/\/i1.douguo.com\/upload\/caiku\/5\/4\/a\/140_542ab8029113b2d220c3b7109f771ada.jpg",
          "position" : 19,
          "image" : "https:\/\/i1.douguo.com\/upload\/caiku\/5\/4\/a\/542ab8029113b2d220c3b7109f771ada.jpg",
          "content" : "这么多",
          "frame" : "-1",
          "image_height" : 1707
        },
        {
          "frame" : "-1",
          "image_width" : 1280,
          "image" : "https:\/\/i1.douguo.com\/upload\/caiku\/4\/b\/7\/4b4558915f09ad25ee914acb1724e777.jpg",
          "image_height" : 960,
          "content" : "盐杀出水分",
          "thumb" : "https:\/\/i1.douguo.com\/upload\/caiku\/4\/b\/7\/140_4b4558915f09ad25ee914acb1724e777.jpg",
          "position" : 20
        },
        {
          "image" : "https:\/\/i1.douguo.com\/upload\/caiku\/4\/c\/3\/4c12f997cbbd13d0eb2852af41b6edf3.jpg",
          "frame" : "-1",
          "image_height" : 960,
          "position" : 21,
          "image_width" : 1280,
          "thumb" : "https:\/\/i1.douguo.com\/upload\/caiku\/4\/c\/3\/140_4c12f997cbbd13d0eb2852af41b6edf3.jpg",
          "content" : "不少南瓜汁"
        },
        {
          "content" : "纱布挤挤干",
          "thumb" : "https:\/\/i1.douguo.com\/upload\/caiku\/9\/4\/9\/140_9482adc2e34736c7562954202811ef79.jpg",
          "image_height" : 960,
          "position" : 22,
          "image" : "https:\/\/i1.douguo.com\/upload\/caiku\/9\/4\/9\/9482adc2e34736c7562954202811ef79.jpg",
          "frame" : "-1",
          "image_width" : 1280
        },
        {
          "position" : 23,
          "thumb" : "https:\/\/i1.douguo.com\/upload\/caiku\/b\/8\/c\/140_b85b788f566885cf72824da450fd120c.jpg",
          "content" : "好多南瓜汁，第二天早上煮了面条",
          "image_width" : 1280,
          "image" : "https:\/\/i1.douguo.com\/upload\/caiku\/b\/8\/c\/b85b788f566885cf72824da450fd120c.jpg",
          "image_height" : 960,
          "frame" : "-1"
        },
        {
          "image_height" : 960,
          "frame" : "-1",
          "content" : "挤干的南瓜丝有这么多",
          "position" : 24,
          "image_width" : 1280,
          "image" : "https:\/\/i1.douguo.com\/upload\/caiku\/3\/1\/7\/319852dba78bde38934bf0129c5b8997.jpg",
          "thumb" : "https:\/\/i1.douguo.com\/upload\/caiku\/3\/1\/7\/140_319852dba78bde38934bf0129c5b8997.jpg"
        },
        {
          "position" : 25,
          "content" : "冷却好的肉馅",
          "image_height" : 960,
          "frame" : "-1",
          "thumb" : "https:\/\/i1.douguo.com\/upload\/caiku\/9\/b\/f\/140_9bdd1a54c2161dac748792c4951ce25f.jpg",
          "image_width" : 1280,
          "image" : "https:\/\/i1.douguo.com\/upload\/caiku\/9\/b\/f\/9bdd1a54c2161dac748792c4951ce25f.jpg"
        },
        {
          "image_height" : 960,
          "image_width" : 1280,
          "thumb" : "https:\/\/i1.douguo.com\/upload\/caiku\/f\/0\/b\/140_f05b3de3bc45afc7921a9c7008d237cb.jpg",
          "content" : "南瓜丝和肉馅一起搅拌一下",
          "frame" : "-1",
          "image" : "https:\/\/i1.douguo.com\/upload\/caiku\/f\/0\/b\/f05b3de3bc45afc7921a9c7008d237cb.jpg",
          "position" : 26
        },
        {
          "image" : "https:\/\/i1.douguo.com\/upload\/caiku\/9\/e\/c\/9ebba373f79ab90b4c5e1ff77c8e7f1c.jpg",
          "frame" : "-1",
          "content" : "搅拌好了，备用",
          "image_height" : 960,
          "position" : 27,
          "image_width" : 1280,
          "thumb" : "https:\/\/i1.douguo.com\/upload\/caiku\/9\/e\/c\/140_9ebba373f79ab90b4c5e1ff77c8e7f1c.jpg"
        },
        {
          "image_width" : 1280,
          "position" : 28,
          "image_height" : 1707,
          "thumb" : "https:\/\/i1.douguo.com\/upload\/caiku\/1\/6\/a\/140_160bf84526f9e84542f1e6eb922c0d9a.jpg",
          "image" : "https:\/\/i1.douguo.com\/upload\/caiku\/1\/6\/a\/160bf84526f9e84542f1e6eb922c0d9a.jpg",
          "frame" : "-1",
          "content" : "普通面粉1000克"
        },
        {
          "content" : "温水，540克",
          "thumb" : "https:\/\/i1.douguo.com\/upload\/caiku\/9\/2\/6\/140_9289793022f304fe2d97599b36f335a6.jpg",
          "position" : 29,
          "image_height" : 1707,
          "image" : "https:\/\/i1.douguo.com\/upload\/caiku\/9\/2\/6\/9289793022f304fe2d97599b36f335a6.jpg",
          "frame" : "-1",
          "image_width" : 1280
        },
        {
          "frame" : "-1",
          "content" : "酵母5克加入温水里，多搅拌一会",
          "image" : "https:\/\/i1.douguo.com\/upload\/caiku\/6\/9\/8\/69454def74a5709f99c3b07150bb37c8.jpg",
          "image_width" : 1280,
          "position" : 30,
          "image_height" : 1707,
          "thumb" : "https:\/\/i1.douguo.com\/upload\/caiku\/6\/9\/8\/140_69454def74a5709f99c3b07150bb37c8.jpg"
        },
        {
          "image_width" : 1280,
          "content" : "和面",
          "position" : 31,
          "image_height" : 1707,
          "image" : "https:\/\/i1.douguo.com\/upload\/caiku\/8\/c\/c\/8ce3357ac084535f57ada8cb5dfb4b6c.jpg",
          "frame" : "-1",
          "thumb" : "https:\/\/i1.douguo.com\/upload\/caiku\/8\/c\/c\/140_8ce3357ac084535f57ada8cb5dfb4b6c.jpg"
        },
        {
          "content" : "猪油来一块",
          "image" : "https:\/\/i1.douguo.com\/upload\/caiku\/c\/b\/7\/cb9ac0d9ad16e60967210fc1486f4687.jpg",
          "frame" : "-1",
          "image_height" : 960,
          "image_width" : 1280,
          "thumb" : "https:\/\/i1.douguo.com\/upload\/caiku\/c\/b\/7\/140_cb9ac0d9ad16e60967210fc1486f4687.jpg",
          "position" : 32
        },
        {
          "position" : 33,
          "frame" : "-1",
          "content" : "和好的面团",
          "image_width" : 1280,
          "thumb" : "https:\/\/i1.douguo.com\/upload\/caiku\/6\/0\/8\/140_605746268662ad7527f94b8804cc1d68.jpg",
          "image_height" : 960,
          "image" : "https:\/\/i1.douguo.com\/upload\/caiku\/6\/0\/8\/605746268662ad7527f94b8804cc1d68.jpg"
        },
        {
          "image_height" : 960,
          "content" : "天气冷放温水锅里发酵，发酵好的面团",
          "image_width" : 1280,
          "position" : 34,
          "frame" : "-1",
          "image" : "https:\/\/i1.douguo.com\/upload\/caiku\/3\/4\/5\/34e417e6b3a88e426a8ef5e7110665b5.jpg",
          "thumb" : "https:\/\/i1.douguo.com\/upload\/caiku\/3\/4\/5\/140_34e417e6b3a88e426a8ef5e7110665b5.jpg"
        },
        {
          "image_width" : 1280,
          "frame" : "-1",
          "content" : "发酵至蜂窝状",
          "image" : "https:\/\/i1.douguo.com\/upload\/caiku\/7\/5\/a\/75de999ec7b8be90cd6b059fa86b5ffa.jpg",
          "thumb" : "https:\/\/i1.douguo.com\/upload\/caiku\/7\/5\/a\/140_75de999ec7b8be90cd6b059fa86b5ffa.jpg",
          "position" : 35,
          "image_height" : 960
        },
        {
          "content" : "分成70克左右的剂子",
          "image" : "https:\/\/i1.douguo.com\/upload\/caiku\/0\/e\/3\/0e64b33f8398452332d22f8a0445d823.jpg",
          "position" : 36,
          "thumb" : "https:\/\/i1.douguo.com\/upload\/caiku\/0\/e\/3\/140_0e64b33f8398452332d22f8a0445d823.jpg",
          "image_width" : 1280,
          "image_height" : 960,
          "frame" : "-1"
        },
        {
          "frame" : "-1",
          "image_width" : 1280,
          "image" : "https:\/\/i1.douguo.com\/upload\/caiku\/5\/0\/1\/5077abfacf00e116526cb0c07e43dfe1.jpg",
          "image_height" : 1707,
          "content" : "馅料多多",
          "position" : 37,
          "thumb" : "https:\/\/i1.douguo.com\/upload\/caiku\/5\/0\/1\/140_5077abfacf00e116526cb0c07e43dfe1.jpg"
        },
        {
          "position" : 38,
          "frame" : "-1",
          "thumb" : "https:\/\/i1.douguo.com\/upload\/caiku\/b\/3\/a\/140_b3e5825171227869cb9b48e49003b34a.jpg",
          "image_height" : 960,
          "image_width" : 1280,
          "image" : "https:\/\/i1.douguo.com\/upload\/caiku\/b\/3\/a\/b3e5825171227869cb9b48e49003b34a.jpg",
          "content" : "做成包子的形状"
        },
        {
          "image" : "https:\/\/i1.douguo.com\/upload\/caiku\/7\/5\/f\/758a74a79f65f6859bfbf07a19e25b0f.jpg",
          "image_height" : 960,
          "frame" : "-1",
          "position" : 39,
          "content" : "收口朝下，按按扁",
          "image_width" : 1280,
          "thumb" : "https:\/\/i1.douguo.com\/upload\/caiku\/7\/5\/f\/140_758a74a79f65f6859bfbf07a19e25b0f.jpg"
        },
        {
          "frame" : "-1",
          "thumb" : "https:\/\/i1.douguo.com\/upload\/caiku\/e\/e\/4\/140_ee1cf29829796c13d1ca7d2523f1fa04.jpg",
          "image_width" : 1280,
          "image" : "https:\/\/i1.douguo.com\/upload\/caiku\/e\/e\/4\/ee1cf29829796c13d1ca7d2523f1fa04.jpg",
          "position" : 40,
          "image_height" : 960,
          "content" : "刷点水，撒上黑芝麻"
        },
        {
          "frame" : "-1",
          "thumb" : "https:\/\/i1.douguo.com\/upload\/caiku\/7\/0\/2\/140_70a5b0d0740c6c9d758b1992c46b9e32.jpg",
          "position" : 41,
          "image" : "https:\/\/i1.douguo.com\/upload\/caiku\/7\/0\/2\/70a5b0d0740c6c9d758b1992c46b9e32.jpg",
          "content" : "开启馅饼功能键",
          "image_height" : 960,
          "image_width" : 1280
        },
        {
          "frame" : "-1",
          "image_height" : 960,
          "position" : 42,
          "content" : "黄金大馅饼",
          "image_width" : 1280,
          "image" : "https:\/\/i1.douguo.com\/upload\/caiku\/9\/0\/5\/90cec7cb1fb624cdb0f46bdac5e67de5.jpg",
          "thumb" : "https:\/\/i1.douguo.com\/upload\/caiku\/9\/0\/5\/140_90cec7cb1fb624cdb0f46bdac5e67de5.jpg"
        },
        {
          "thumb" : "https:\/\/i1.douguo.com\/upload\/caiku\/9\/0\/6\/140_90255efd26a25787a6cb2d0621c2eed6.jpg",
          "image" : "https:\/\/i1.douguo.com\/upload\/caiku\/9\/0\/6\/90255efd26a25787a6cb2d0621c2eed6.jpg",
          "image_width" : 1280,
          "position" : 43,
          "content" : "这么多饼",
          "image_height" : 960,
          "frame" : "-1"
        },
        {
          "frame" : "-1",
          "thumb" : "https:\/\/i1.douguo.com\/upload\/caiku\/2\/c\/c\/140_2c5c074f968670dc5784236145a1a0fc.jpg",
          "image" : "https:\/\/i1.douguo.com\/upload\/caiku\/2\/c\/c\/2c5c074f968670dc5784236145a1a0fc.jpg",
          "image_width" : 1280,
          "position" : 44,
          "content" : "有点被幸福包围的感觉……",
          "image_height" : 960
        }
      ],
      "original_photo_path" : "http:\/\/i1.douguo.net\/upload\/caiku\/0\/3\/0\/yuan_03bfc6fa34d41b90d7e089b56f8a4da0.jpg",
      "ssu" : "",
      "author_photo" : "http:\/\/tx1.douguo.net\/upload\/photo\/9\/3\/8\/70_u14295326770248225818.jpg",
      "ph" : 960,
      "sc" : 0,
      "recent_comments" : [

      ],
      "v_u" : "",
      "rewarded_video_dsp" : [

      ],
      "create_time" : "2023-01-15 12:32:22",
      "share_info" : {
        "infos" : [
          {
            "s_d" : "#学做饭用豆果美食#  我在@豆果美食 分享了【南瓜丝大葱猪肉馅发面饼-会做饭很酷!】，制作美食的过程承载了我生活中的热情，和我一起感受这份小确幸吧！查看图片了解菜谱（你喜欢的美食都在这里！https:\/\/m.weibo.cn\/p\/100404i33631）#会做饭很酷# ",
            "s_u" : "",
            "object_id" : "3234352",
            "mini_program" : [

            ],
            "image" : "https:\/\/cp1.douguo.com\/upload\/caiku\/0\/3\/0\/03bfc6fa34d41b90d7e089b56f8a4da0.jpg",
            "qr_image" : "",
            "channel" : "1",
            "name" : "南瓜丝大葱猪肉馅发面饼-会做饭很酷!"
          },
          {
            "s_d" : "南瓜丝大葱猪肉馅发面饼-会做饭很酷!",
            "qr_image" : "",
            "object_id" : "3234352",
            "mini_program" : [

            ],
            "name" : "南瓜丝大葱猪肉馅发面饼-会做饭很酷!",
            "s_u" : "http:\/\/m.douguo.com\/cookbook\/3234352.html",
            "channel" : "7",
            "image" : "https:\/\/cp1.douguo.com\/upload\/caiku\/0\/3\/0\/03bfc6fa34d41b90d7e089b56f8a4da0.jpg"
          },
          {
            "image" : "https:\/\/cp1.douguo.com\/upload\/caiku\/0\/3\/0\/03bfc6fa34d41b90d7e089b56f8a4da0.jpg",
            "s_u" : "http:\/\/m.douguo.com\/cookbook\/3234352.html",
            "object_id" : "3234352",
            "s_d" : "南瓜丝大葱猪肉馅发面饼-会做饭很酷!",
            "channel" : "8",
            "mini_program" : [

            ],
            "qr_image" : "",
            "name" : "南瓜丝大葱猪肉馅发面饼-会做饭很酷!"
          }
        ],
        "s_d" : "南瓜丝大葱猪肉馅发面饼-会做饭很酷!",
        "image" : "https:\/\/cp1.douguo.com\/upload\/caiku\/0\/3\/0\/03bfc6fa34d41b90d7e089b56f8a4da0.jpg",
        "mini_program" : [

        ],
        "qr_image" : "",
        "object_id" : "3234352",
        "s_u" : "http:\/\/m.douguo.com\/cookbook\/3234352.html",
        "name" : "南瓜丝大葱猪肉馅发面饼-会做饭很酷!"
      },
      "cookstory" : "我妈妈爱吃发面馅饼，自家门前种了几棵南瓜，妈妈给我带来两个青南瓜，第一次尝试用南瓜丝做馅饼，老妈和小朋友一致好评。",
      "views_count_text" : "14.5万",
      "photo_path" : "https:\/\/i1.douguo.com\/upload\/caiku\/0\/3\/0\/600_03bfc6fa34d41b90d7e089b56f8a4da0.jpg",
      "cook_id" : "3234352",
      "rdsps" : [

      ],
      "cook_time_image" : "https:\/\/i1.douguo.com\/upload\/banner\/1551424318.png",
      "ipia" : [

      ],
      "favo_counts" : 4679,
      "user" : {
        "following_count" : 0,
        "qzone_nick" : "",
        "regist_time" : "",
        "subscription" : 0,
        "point" : 0,
        "dishes_count" : 0,
        "gender" : 2,
        "user_id" : "21447975",
        "subscription_article_count" : 0,
        "birthday" : "",
        "user_photo" : "http:\/\/tx1.douguo.net\/upload\/photo\/9\/3\/8\/70_u14295326770248225818.jpg",
        "verified_image" : "https:\/\/i1.douguo.com\/upload\/note\/d\/a\/a\/da84247847aebe48d9dd0fcdac88862a.png",
        "is_prime" : 0,
        "user_large_photo" : "http:\/\/tx1.douguo.net\/upload\/photo\/9\/3\/8\/yuan_u14295326770248225818.jpg",
        "location" : 0,
        "followers_count" : 0,
        "favor_diaries_count" : 0,
        "userid" : "21447975",
        "mobile" : "",
        "verified" : 1,
        "lvl" : 8,
        "user_cover" : "",
        "sign" : "",
        "recipes_count" : 0,
        "avatar_medium" : "http:\/\/tx1.douguo.net\/upload\/photo\/9\/3\/8\/140_u14295326770248225818.jpg",
        "diaries_count" : 0,
        "nick" : "快乐天使乐乐妈",
        "fc" : 0,
        "progress_image" : "",
        "weibo_nick" : "",
        "qq_weibo_nick" : "",
        "pc" : 0,
        "favorites_count" : 0,
        "setted_email" : 0,
        "lv" : 0,
        "introduction" : "",
        "verified_url" : "https:\/\/m.douguo.com\/user\/prodesc",
        "email" : "",
        "age" : "",
        "coursecount" : 0
      },
      "event" : {
        "name" : "名厨妙汁 红火到味 味达美·年味小馆期待您的光临",
        "id" : 3671,
        "url" : "https:\/\/m.douguo.com\/activity\/ncpzj\/detail\/3671?isapp=1&open=0&_vs=1000300&&dg_refreshkey=publishnote"
      },
      "dishes" : [

      ],
      "clicks" : "1",
      "rate_show" : 0,
      "collect_status" : 0,
      "cookwares" : [

      ],
      "cookstorys" : [
        {
          "id" : 0,
          "color" : "",
          "type" : 0,
          "c" : "我妈妈爱吃发面馅饼，自家门前种了几棵南瓜，妈妈给我带来两个青南瓜，第一次尝试用南瓜丝做馅饼，老妈和小朋友一致好评。",
          "icon" : "",
          "u" : ""
        },
        {
          "c" : "\n参与活动:",
          "u" : "",
          "type" : 0,
          "icon" : "",
          "id" : 0,
          "color" : ""
        },
        {
          "u" : "https:\/\/m.douguo.com\/activity\/ncpzj\/detail\/3671?isapp=1&open=0&_vs=1000300&&dg_refreshkey=publishnote",
          "type" : 0,
          "icon" : "",
          "c" : "#名厨妙汁 红火到味 味达美·年味小馆期待您的光临#",
          "id" : 0
        }
      ],
      "comments" : [

      ],
      "rate" : 0,
      "vfurl" : "",
      "tags" : [

      ],
      "vc" : "144964",
      "mid_mdsp" : [

      ],
      "cook_difficulty_image" : "",
      "rrpt" : "",
      "release_time" : "",
      "advice" : {
        "da" : {
          "url" : "https:\/\/m.douguo.com\/recipe\/nutrient_self\/3234352",
          "t" : "查看详细分析",
          "iu" : "https:\/\/i1.douguo.com\/upload\/banner\/f\/4\/d\/f48877e53c37759bc12ac494be82ec8d.png"
        },
        "has" : [

        ]
      },
      "rrps" : [

      ],
      "tips" : "",
      "btm_dsp" : [

      ],
      "recipe_list_tags" : [
        {
          "text_color" : "#141515",
          "background_start_color" : "#F4F5F5",
          "background_end_color" : "#F4F5F5",
          "text" : "关注的人",
          "jump_url" : "",
          "right_image" : "",
          "background_border_color" : ""
        }
      ],
      "display_ingredient" : 1,
      "recommend_label" : "4679人刚刚收藏过",
      "bs" : [

      ],
      "author_id" : 21447975,
      "rips" : 0,
      "rate_count" : 0,
      "ipt" : "",
      "rpid" : 0,
      "rcs" : [

      ],
      "ipurl" : "",
      "title_ad" : [

      ],
      "author_verified" : 1,
      "rsm" : "该功能暂停使用",
      "comments_count_text" : "",
      "favo_counts_text" : "4679",
      "pw" : 1280,
      "ipit" : 0,
      "hq" : 1,
      "thumb_path" : "https:\/\/i1.douguo.com\/upload\/caiku\/0\/3\/0\/300_03bfc6fa34d41b90d7e089b56f8a4da0.jpg",
      "rpt" : "",
      "ecs" : 1,
      "guide_image" : "",
      "ss" : [

      ],
      "recipe_tags" : [

      ],
      "recommended" : 0,
      "act_des" : "",
      "minor" : [

      ],
      "su" : "",
      "dish_count_text" : "",
      "comments_count" : 0,
      "rpst" : "",
      "purl" : "",
      "hqu" : "recipes:\/\/www.douguo.com\/notedetail?id=21162253",
      "major" : [
        {
          "note" : "1000克",
          "title" : "普通面粉"
        },
        {
          "note" : "540克",
          "tu" : "https:\/\/m.douguo.com\/ingredients\/水\/detailmaterial",
          "title" : "水"
        },
        {
          "title" : "大葱",
          "tu" : "https:\/\/m.douguo.com\/ingredients\/大葱\/detailmaterial",
          "note" : "1根"
        },
        {
          "title" : "肉末",
          "note" : "500g"
        },
        {
          "note" : "适量",
          "tu" : "https:\/\/m.douguo.com\/ingredients\/盐\/detailmaterial",
          "title" : "盐"
        },
        {
          "title" : "麻油",
          "note" : "几滴"
        },
        {
          "title" : "鸡精",
          "tu" : "https:\/\/m.douguo.com\/ingredients\/鸡精\/detailmaterial",
          "note" : "1小勺"
        },
        {
          "title" : "味达美味极鲜酱油",
          "note" : "2勺"
        },
        {
          "title" : "味达美蚝油",
          "note" : "1勺"
        },
        {
          "title" : "酵母",
          "tu" : "https:\/\/m.douguo.com\/ingredients\/酵母\/detailmaterial",
          "note" : "5g"
        },
        {
          "tu" : "https:\/\/m.douguo.com\/ingredients\/白糖\/detailmaterial",
          "title" : "白糖",
          "note" : "5g"
        },
        {
          "note" : "15～20克",
          "tu" : "https:\/\/m.douguo.com\/ingredients\/猪油\/detailmaterial",
          "title" : "猪油"
        }
      ],
      "author" : "快乐天使乐乐妈",
      "thumb_height" : 0,
      "story_dsp" : [

      ],
      "title" : "南瓜丝大葱猪肉馅发面饼",
      "eu" : "recipes:\/\/www.douguo.com\/postdetail?id=242016",
      "sr" : "",
      "image" : "http:\/\/i1.douguo.net\/upload\/caiku\/0\/3\/0\/300_03bfc6fa34d41b90d7e089b56f8a4da0.jpg",
      "old_comments" : [

      ],
      "brand_day_dsp" : [

      ],
      "notes" : [

      ],
      "levelid" : 2,
      "top_mdsp" : [

      ],
      "dish_count" : 0,
      "first_level_comment_count" : 0,
      "ipoi" : "",
      "ipci" : "",
      "cook_time" : "30~60分钟",
      "recommendation_tag" : "",
      "packages_id" : [

      ],
      "vu" : ""
    }
  },
  "state" : "success",
  "status" : 0
}