{
  "state" : "success",
  "result" : {
    "recipe" : {
      "notes" : [

      ],
      "clicks" : "203073",
      "ipia" : [

      ],
      "thumb_height" : 0,
      "pw" : 800,
      "comments" : [
        "{\n    ac = \"#999999\";\n    at = \"\";\n    ccc = 1;\n    \"child_comments\" =     (\n                {\n            ac = \"#999999\";\n            at = \"\\U77f3\\U5bb6\\U5e84\\U5e02\";\n            ccc = 0;\n            city = \"\\U77f3\\U5bb6\\U5e84\\U5e02\";\n            cmc = 2;\n            content =             (\n                                {\n                    c = \" 10ml\\U4ee5\\U5185\\U5427\\Uff0c\\U592a\\U591a\\U4e86\\U7092\\U51fa\\U6765\\U7684\\U82b1\\U751f\\U7c73\\U592a\\U6cb9\";\n                }\n            );\n            ia = 1;\n            id = 7040535;\n            \"ip_address_location\" = \"\";\n            like = 0;\n            \"like_count\" = 0;\n            \"reply_id\" = 7039371;\n            \"reply_user\" =             {\n                \"followers_count_text\" = \"\";\n                id = 18492020;\n                \"is_prime\" = 0;\n                lv = 0;\n                lvl = 4;\n                n = \"\\U6ce5\\U9cc5Boss\";\n                p = \"http:\/\/tx1.douguo.net\/upload\/photo\/7\/3\/b\/70_u10033816650119101729.jpg\";\n                \"progress_image\" = \"\";\n                \"recipes_count_text\" = \"\";\n                relationship = \"-1\";\n                title = \"\";\n                v = 0;\n                \"verified_image\" = \"\";\n            };\n            \"sticker_icon\" =             (\n            );\n            time = \"2019-09-10 19:51:36\";\n            u =             {\n                \"followers_count_text\" = \"\";\n                id = 21721727;\n                \"is_prime\" = 0;\n                lv = 0;\n                lvl = 6;\n                n = \"\\U671b\\U6708\\U6865\";\n                p = \"http:\/\/tx1.douguo.net\/upload\/photo\/2\/8\/b\/70_u20165201442588110856.jpg\";\n                \"progress_image\" = \"\";\n                \"recipes_count_text\" = \"\";\n                relationship = \"-1\";\n                title = \"\";\n                v = 1;\n                \"verified_image\" = \"\";\n            };\n        }\n    );\n    city = \"\";\n    cmc = 2;\n    content =     (\n                {\n            c = \"\\U5c11\\U8bb8\\U662f\\U591a\\U5c11\\Uff1f\";\n        }\n    );\n    ia = 0;\n    id = 7039371;\n    \"ip_address_location\" = \"\";\n    like = 0;\n    \"like_count\" = 0;\n    \"reply_id\" = 0;\n    \"sticker_icon\" =     (\n    );\n    time = \"2019-09-10 16:50:27\";\n    u =     {\n        \"followers_count_text\" = \"\";\n        id = 18492020;\n        \"is_prime\" = 0;\n        lv = 0;\n        lvl = 4;\n        n = \"\\U6ce5\\U9cc5Boss\";\n        p = \"http:\/\/tx1.douguo.net\/upload\/photo\/7\/3\/b\/70_u10033816650119101729.jpg\";\n        \"progress_image\" = \"\";\n        \"recipes_count_text\" = \"\";\n        relationship = \"-1\";\n        title = \"\";\n        v = 0;\n        \"verified_image\" = \"\";\n    };\n}",
        "{\n    ac = \"#999999\";\n    at = \"\";\n    ccc = 1;\n    \"child_comments\" =     (\n                {\n            ac = \"#999999\";\n            at = \"\\U77f3\\U5bb6\\U5e84\\U5e02\";\n            ccc = 0;\n            city = \"\\U77f3\\U5bb6\\U5e84\\U5e02\";\n            cmc = 2;\n            content =             (\n                                {\n                    c = \" \\U90fd\\U53ef\\U4ee5\\U5403\\U7684\\Uff0c\\U4e0d\\U653e\\U5fc3\\U7684\\U8bdd\\U53ef\\U4ee5\\U4e0d\\U653e\\U78b1\\U6c34\\Uff0c\\U4f46\\U662f\\U70e4\\U51fa\\U6765\\U989c\\U8272\\U4f1a\\U6d45\\U3002\";\n                }\n            );\n            ia = 1;\n            id = 7040541;\n            \"ip_address_location\" = \"\";\n            like = 0;\n            \"like_count\" = 0;\n            \"reply_id\" = 7039368;\n            \"reply_user\" =             {\n                \"followers_count_text\" = \"\";\n                id = 18481551;\n                \"is_prime\" = 0;\n                lv = 0;\n                lvl = 3;\n                n = \"\\U968f\\U98ce\\U54c8\\U54c8\\U54c8\";\n                p = \"http:\/\/tx1.douguo.net\/upload\/photo\/b\/0\/b\/70_u13932649096750408133106.jpg\";\n                \"progress_image\" = \"\";\n                \"recipes_count_text\" = \"\";\n                relationship = \"-1\";\n                title = \"\";\n                v = 0;\n                \"verified_image\" = \"\";\n            };\n            \"sticker_icon\" =             (\n            );\n            time = \"2019-09-10 19:55:11\";\n            u =             {\n                \"followers_count_text\" = \"\";\n                id = 21721727;\n                \"is_prime\" = 0;\n                lv = 0;\n                lvl = 6;\n                n = \"\\U671b\\U6708\\U6865\";\n                p = \"http:\/\/tx1.douguo.net\/upload\/photo\/2\/8\/b\/70_u20165201442588110856.jpg\";\n                \"progress_image\" = \"\";\n                \"recipes_count_text\" = \"\";\n                relationship = \"-1\";\n                title = \"\";\n                v = 1;\n                \"verified_image\" = \"\";\n            };\n        }\n    );\n    city = \"\";\n    cmc = 2;\n    content =     (\n                {\n            c = \"\\U7ed92\\U5c81\\U5b69\\U5b50\\U5403\\Uff0c\\U54ea\\U4e9b\\U914d\\U6599\\U662f\\U4e0d\\U80fd\\U653e\\U7684\\Uff1f\";\n        }\n    );\n    ia = 0;\n    id = 7039368;\n    \"ip_address_location\" = \"\";\n    like = 0;\n    \"like_count\" = 0;\n    \"reply_id\" = 0;\n    \"sticker_icon\" =     (\n    );\n    time = \"2019-09-10 16:49:27\";\n    u =     {\n        \"followers_count_text\" = \"\";\n        id = 18481551;\n        \"is_prime\" = 0;\n        lv = 0;\n        lvl = 3;\n        n = \"\\U968f\\U98ce\\U54c8\\U54c8\\U54c8\";\n        p = \"http:\/\/tx1.douguo.net\/upload\/photo\/b\/0\/b\/70_u13932649096750408133106.jpg\";\n        \"progress_image\" = \"\";\n        \"recipes_count_text\" = \"\";\n        relationship = \"-1\";\n        title = \"\";\n        v = 0;\n        \"verified_image\" = \"\";\n    };\n}",
        "{\n    ac = \"#999999\";\n    at = \"\\U6df1\\U5733\\U5e02\";\n    ccc = 0;\n    \"child_comments\" =     (\n    );\n    city = \"\\U6df1\\U5733\\U5e02\";\n    cmc = 2;\n    content =     (\n                {\n            c = \"\\Ud83d\\Ude0b\";\n        }\n    );\n    ia = 0;\n    id = 8223755;\n    \"ip_address_location\" = \"\";\n    like = 0;\n    \"like_count\" = 0;\n    \"reply_id\" = 0;\n    \"sticker_icon\" =     (\n    );\n    time = \"2020-09-03 21:07:08\";\n    u =     {\n        \"followers_count_text\" = \"\";\n        id = 21720056;\n        \"is_prime\" = 0;\n        lv = 0;\n        lvl = 6;\n        n = \"Amelie\\Ud83c\\Udf38\";\n        p = \"http:\/\/tx1.douguo.net\/upload\/photo\/8\/7\/c\/70_u20144034959474204146.jpeg\";\n        \"progress_image\" = \"\";\n        \"recipes_count_text\" = \"\";\n        relationship = \"-1\";\n        title = \"\";\n        v = 0;\n        \"verified_image\" = \"\";\n    };\n}"
      ],
      "author" : "望月桥",
      "rips" : 0,
      "cook_difficulty_image" : "https:\/\/i1.douguo.com\/upload\/banner\/1551424390.png",
      "create_time" : "2019-09-10 11:11:38",
      "ecs" : 0,
      "purl" : "",
      "comments_count_text" : "17",
      "author_id" : 21721727,
      "ssu" : "",
      "major" : [
        {
          "title" : "馅料：",
          "note" : ""
        },
        {
          "title" : "核桃仁",
          "note" : "60g"
        },
        {
          "title" : "花生米",
          "note" : "60g"
        },
        {
          "tu" : "https:\/\/m.douguo.com\/ingredients\/瓜子仁\/detailmaterial",
          "note" : "35g",
          "title" : "瓜子仁"
        },
        {
          "title" : "黑芝麻（熟）",
          "note" : "15g"
        },
        {
          "title" : "白芝麻（熟）",
          "note" : "15g"
        },
        {
          "note" : "50g",
          "title" : "蔓越莓干",
          "tu" : "https:\/\/m.douguo.com\/ingredients\/蔓越莓干\/detailmaterial"
        },
        {
          "title" : "糯米粉",
          "tu" : "https:\/\/m.douguo.com\/ingredients\/糯米粉\/detailmaterial",
          "note" : "90g"
        },
        {
          "title" : "低筋粉",
          "note" : "80g",
          "tu" : "https:\/\/m.douguo.com\/ingredients\/低筋粉\/detailmaterial"
        },
        {
          "note" : "56g",
          "tu" : "https:\/\/m.douguo.com\/ingredients\/玉米油\/detailmaterial",
          "title" : "玉米油"
        },
        {
          "note" : "114g",
          "title" : "温开水"
        },
        {
          "title" : "白砂糖",
          "note" : "25g",
          "tu" : "https:\/\/m.douguo.com\/ingredients\/白砂糖\/detailmaterial"
        },
        {
          "note" : "",
          "title" : "月饼皮："
        },
        {
          "title" : "中筋粉",
          "note" : "200g"
        },
        {
          "title" : "转化糖浆",
          "note" : "150g"
        },
        {
          "note" : "50g",
          "title" : "花生油",
          "tu" : "https:\/\/m.douguo.com\/ingredients\/花生油\/detailmaterial"
        },
        {
          "note" : "4g",
          "title" : "碱水"
        },
        {
          "note" : "",
          "title" : "其他辅料："
        },
        {
          "note" : "适量",
          "title" : "全蛋液（刷表面）"
        },
        {
          "note" : "少许",
          "title" : "食用油（炒花生米用）"
        }
      ],
      "packages_id" : [

      ],
      "cookstorys" : [
        {
          "color" : "",
          "type" : 0,
          "u" : "",
          "c" : "配方是20个50g月饼，饼皮和馅料是4:6，干果可根据个人喜好来搭配。",
          "id" : 0,
          "icon" : ""
        }
      ],
      "rdsps" : [

      ],
      "ipci" : "",
      "brand_day_dsp" : [

      ],
      "cook_time_image" : "https:\/\/i1.douguo.com\/upload\/banner\/1551423815.png",
      "story_dsp" : [

      ],
      "first_level_comment_count" : 15,
      "sc" : 0,
      "hqu" : "recipes:\/\/www.douguo.com\/notedetail?id=21162253",
      "minor" : [

      ],
      "old_comments" : [

      ],
      "release_time" : "",
      "recommend_label" : "1人学做",
      "ipit" : 0,
      "author_photo" : "http:\/\/tx1.douguo.net\/upload\/photo\/2\/8\/b\/70_u20165201442588110856.jpg",
      "dish_count" : 1,
      "recipe_list_tags" : [
        {
          "jump_url" : "",
          "right_image" : "",
          "background_start_color" : "#F4F5F5",
          "background_end_color" : "#F4F5F5",
          "text" : "关注的人",
          "background_border_color" : "",
          "text_color" : "#141515"
        },
        {
          "text" : "内容详细",
          "text_color" : "#141515",
          "background_end_color" : "#F4F5F5",
          "background_start_color" : "#F4F5F5",
          "background_border_color" : "",
          "right_image" : "",
          "jump_url" : ""
        }
      ],
      "vu" : "",
      "hq" : 1,
      "title_ad" : [

      ],
      "ss" : [

      ],
      "title" : "广式五仁月饼",
      "rpt" : "",
      "recommendation_tag" : "",
      "rate_count" : 1,
      "favo_counts" : 2705,
      "rewarded_video_dsp" : [

      ],
      "top_mdsp" : [

      ],
      "ipoi" : "",
      "cook_time" : "1小时以上",
      "recipe_tags" : [

      ],
      "rate" : 5,
      "rate_show" : 0,
      "views_count_text" : "20.7万",
      "original_photo_path" : "http:\/\/i1.douguo.net\/upload\/caiku\/6\/c\/c\/yuan_6ca3e076693687b8e88ec4cd4a19563c.jpg",
      "favo_counts_text" : "2705",
      "thumb_path" : "https:\/\/i1.douguo.com\/upload\/caiku\/6\/c\/c\/300_6ca3e076693687b8e88ec4cd4a19563c.jpg",
      "rpid" : 0,
      "tips" : "1.干果可以根据个人喜好搭配，比如杏仁、腰果、葡萄干等。\r\n2.核桃可以用烤箱烤一下，这样更香。\r\n3.刷蛋液要薄薄的刷一层就可以，刷多了纹理就不清晰了。",
      "rrpt" : "",
      "advice" : {
        "at" : "减肥的美女注意喽～",
        "has" : [
          {
            "url" : "recipes:\/\/www.douguo.com\/simplerecipelist?t=高脂肪&id=高脂肪",
            "t" : "高脂肪"
          }
        ],
        "da" : {
          "url" : "https:\/\/m.douguo.com\/recipe\/nutrient_self\/2340629",
          "iu" : "https:\/\/i1.douguo.com\/upload\/banner\/f\/4\/d\/f48877e53c37759bc12ac494be82ec8d.png",
          "t" : "查看详细分析"
        }
      },
      "recommended" : 0,
      "user" : {
        "dishes_count" : 0,
        "recipes_count" : 0,
        "lvl" : 6,
        "progress_image" : "",
        "userid" : "21721727",
        "point" : 0,
        "user_large_photo" : "http:\/\/tx1.douguo.net\/upload\/photo\/2\/8\/b\/yuan_u20165201442588110856.jpg",
        "regist_time" : "",
        "user_cover" : "",
        "favorites_count" : 0,
        "qzone_nick" : "",
        "weibo_nick" : "",
        "setted_email" : 0,
        "age" : "",
        "avatar_medium" : "http:\/\/tx1.douguo.net\/upload\/photo\/2\/8\/b\/140_u20165201442588110856.jpg",
        "gender" : 2,
        "is_prime" : 0,
        "lv" : 0,
        "user_photo" : "http:\/\/tx1.douguo.net\/upload\/photo\/2\/8\/b\/70_u20165201442588110856.jpg",
        "location" : 0,
        "mobile" : "",
        "nick" : "望月桥",
        "email" : "",
        "coursecount" : 0,
        "verified" : 1,
        "favor_diaries_count" : 0,
        "verified_image" : "https:\/\/i1.douguo.com\/upload\/note\/d\/a\/a\/da84247847aebe48d9dd0fcdac88862a.png",
        "user_id" : "21721727",
        "birthday" : "",
        "fc" : 0,
        "subscription_article_count" : 0,
        "introduction" : "",
        "subscription" : 0,
        "sign" : "",
        "qq_weibo_nick" : "",
        "verified_url" : "https:\/\/m.douguo.com\/user\/prodesc",
        "followers_count" : 0,
        "diaries_count" : 0,
        "following_count" : 0,
        "pc" : 0
      },
      "collect_status" : 0,
      "vc" : "207318",
      "levelid" : 2,
      "rpst" : "",
      "act_des" : "",
      "rcs" : [

      ],
      "sr" : "",
      "author_verified" : 1,
      "cook_id" : "2340629",
      "share_info" : {
        "infos" : [
          {
            "mini_program" : [

            ],
            "channel" : "1",
            "s_u" : "",
            "qr_image" : "",
            "image" : "https:\/\/cp1.douguo.com\/upload\/caiku\/6\/c\/c\/6ca3e076693687b8e88ec4cd4a19563c.jpg",
            "name" : "广式五仁月饼-会做饭很酷!",
            "s_d" : "#学做饭用豆果美食# 会做饭好酷啊！我在@豆果美食 分享了【广式五仁月饼-会做饭很酷!】，今天也是厨艺满满的一天呢，快来和我一起学做美食吧！查看图片了解菜谱（更多美食秘籍点击https:\/\/m.weibo.cn\/p\/100404i33631获取）",
            "object_id" : "2340629"
          },
          {
            "s_u" : "http:\/\/m.douguo.com\/cookbook\/2340629.html",
            "object_id" : "2340629",
            "image" : "https:\/\/cp1.douguo.com\/upload\/caiku\/6\/c\/c\/6ca3e076693687b8e88ec4cd4a19563c.jpg",
            "s_d" : "广式五仁月饼-会做饭很酷!",
            "qr_image" : "",
            "channel" : "7",
            "mini_program" : [

            ],
            "name" : "广式五仁月饼-会做饭很酷!"
          },
          {
            "name" : "广式五仁月饼-会做饭很酷!",
            "s_u" : "http:\/\/m.douguo.com\/cookbook\/2340629.html",
            "image" : "https:\/\/cp1.douguo.com\/upload\/caiku\/6\/c\/c\/6ca3e076693687b8e88ec4cd4a19563c.jpg",
            "object_id" : "2340629",
            "s_d" : "广式五仁月饼-会做饭很酷!",
            "qr_image" : "",
            "channel" : "8",
            "mini_program" : [

            ]
          }
        ],
        "qr_image" : "",
        "object_id" : "2340629",
        "image" : "https:\/\/cp1.douguo.com\/upload\/caiku\/6\/c\/c\/6ca3e076693687b8e88ec4cd4a19563c.jpg",
        "name" : "广式五仁月饼-会做饭很酷!",
        "s_u" : "http:\/\/m.douguo.com\/cookbook\/2340629.html",
        "s_d" : "广式五仁月饼-会做饭很酷!",
        "mini_program" : [

        ]
      },
      "eu" : "recipes:\/\/www.douguo.com\/postdetail?id=242016",
      "su" : "",
      "rsm" : "该功能暂停使用",
      "v_u" : "",
      "image" : "http:\/\/i1.douguo.net\/upload\/caiku\/6\/c\/c\/300_6ca3e076693687b8e88ec4cd4a19563c.jpg",
      "guide_image" : "",
      "tags" : [

      ],
      "cookwares" : [

      ],
      "btm_dsp" : [

      ],
      "dish_count_text" : "1",
      "dishes" : [

      ],
      "bs" : [

      ],
      "cook_difficulty" : "切墩(初级)",
      "mid_mdsp" : [

      ],
      "ipt" : "",
      "rrps" : [

      ],
      "ph" : 600,
      "comments_count" : 17,
      "photo_path" : "https:\/\/i1.douguo.com\/upload\/caiku\/6\/c\/c\/600_6ca3e076693687b8e88ec4cd4a19563c.jpg",
      "cookstory" : "配方是20个50g月饼，饼皮和馅料是4:6，干果可根据个人喜好来搭配。",
      "related_ads" : [

      ],
      "recent_comments" : [

      ],
      "vfurl" : "",
      "cookstep" : [
        {
          "position" : 1,
          "image_width" : 800,
          "content" : "先制作五仁馅：糯米粉和低筋粉分别用炒锅炒熟，至微微发黄、闻到香味即可。",
          "frame" : "-1",
          "image_height" : 600,
          "thumb" : "https:\/\/i1.douguo.com\/upload\/caiku\/e\/6\/5\/140_e6406630996c1a08d06f2eed6102d675.jpg",
          "image" : "https:\/\/i1.douguo.com\/upload\/caiku\/e\/6\/5\/e6406630996c1a08d06f2eed6102d675.jpg"
        },
        {
          "image" : "https:\/\/i1.douguo.com\/upload\/caiku\/b\/3\/4\/b3f82d90e430c52fc6f67b8bf0064cf4.jpg",
          "position" : 2,
          "image_width" : 1280,
          "image_height" : 960,
          "thumb" : "https:\/\/i1.douguo.com\/upload\/caiku\/b\/3\/4\/140_b3f82d90e430c52fc6f67b8bf0064cf4.jpg",
          "frame" : "-1",
          "content" : "炒锅中倒入少许食用油，将花生米倒入，小火将花生米炒熟，冷却后去皮。"
        },
        {
          "position" : 3,
          "image_width" : 800,
          "image_height" : 600,
          "thumb" : "https:\/\/i1.douguo.com\/upload\/caiku\/8\/3\/1\/140_83bf666ea55175f86263ebc6d9899501.jpg",
          "frame" : "-1",
          "image" : "https:\/\/i1.douguo.com\/upload\/caiku\/8\/3\/1\/83bf666ea55175f86263ebc6d9899501.jpg",
          "content" : "将炒熟的花生和核桃仁装入保鲜袋中，用擀面杖敲碎。"
        },
        {
          "frame" : "-1",
          "position" : 4,
          "thumb" : "https:\/\/i1.douguo.com\/upload\/caiku\/1\/7\/8\/140_173abd12b7c200bb8578a0afe5216288.jpg",
          "image_height" : 600,
          "image_width" : 800,
          "content" : "蔓越莓干切碎。",
          "image" : "https:\/\/i1.douguo.com\/upload\/caiku\/1\/7\/8\/173abd12b7c200bb8578a0afe5216288.jpg"
        },
        {
          "image" : "https:\/\/i1.douguo.com\/upload\/caiku\/d\/5\/8\/d5c49a377defd86cc191c21f575c5ca8.jpg",
          "position" : 5,
          "thumb" : "https:\/\/i1.douguo.com\/upload\/caiku\/d\/5\/8\/140_d5c49a377defd86cc191c21f575c5ca8.jpg",
          "frame" : "-1",
          "content" : "馅料所有食材：核桃仁、花生、瓜子仁、黑芝麻、白芝麻、蔓越莓干、熟糯米粉、熟低筋粉、玉米油、白砂糖、温开水，倒入容器中。",
          "image_height" : 600,
          "image_width" : 800
        },
        {
          "thumb" : "https:\/\/i1.douguo.com\/upload\/caiku\/4\/3\/b\/140_43449d706ddc060995e6cbd1e396612b.jpg",
          "position" : 6,
          "frame" : "-1",
          "content" : "戴上一次性手套抓匀，按压结实，盖上保鲜膜，静置1小时以上。",
          "image_height" : 600,
          "image_width" : 800,
          "image" : "https:\/\/i1.douguo.com\/upload\/caiku\/4\/3\/b\/43449d706ddc060995e6cbd1e396612b.jpg"
        },
        {
          "frame" : "-1",
          "image" : "https:\/\/i1.douguo.com\/upload\/caiku\/8\/5\/d\/85ababf9a28868472c9713a43c9f8cbd.jpg",
          "image_height" : 600,
          "image_width" : 800,
          "content" : "制作月饼皮：转化糖浆、花生油、碱水倒入容器中，搅拌均匀。",
          "position" : 7,
          "thumb" : "https:\/\/i1.douguo.com\/upload\/caiku\/8\/5\/d\/140_85ababf9a28868472c9713a43c9f8cbd.jpg"
        },
        {
          "frame" : "-1",
          "position" : 8,
          "image_width" : 800,
          "thumb" : "https:\/\/i1.douguo.com\/upload\/caiku\/1\/9\/8\/140_194bb8e4b35dff37ca48fa9b763433c8.jpg",
          "content" : "筛入低筋粉，搅拌至无干粉。",
          "image_height" : 600,
          "image" : "https:\/\/i1.douguo.com\/upload\/caiku\/1\/9\/8\/194bb8e4b35dff37ca48fa9b763433c8.jpg"
        },
        {
          "thumb" : "https:\/\/i1.douguo.com\/upload\/caiku\/e\/5\/d\/140_e553b81534b20df1277adf005ed75ddd.jpg",
          "image" : "https:\/\/i1.douguo.com\/upload\/caiku\/e\/5\/d\/e553b81534b20df1277adf005ed75ddd.jpg",
          "image_width" : 800,
          "image_height" : 600,
          "position" : 9,
          "content" : "用硅胶刮刀翻拌成团，裹上保鲜膜，放冰箱冷藏1小时。",
          "frame" : "-1"
        },
        {
          "thumb" : "https:\/\/i1.douguo.com\/upload\/caiku\/c\/8\/5\/140_c8a8dddb15562067d972f0cfa9b0e515.jpg",
          "frame" : "-1",
          "content" : "取出冷藏好的月饼皮，分为20等份，每份20g，滚圆，盖上保鲜膜。",
          "image_width" : 800,
          "image_height" : 600,
          "position" : 10,
          "image" : "https:\/\/i1.douguo.com\/upload\/caiku\/c\/8\/5\/c8a8dddb15562067d972f0cfa9b0e515.jpg"
        },
        {
          "frame" : "-1",
          "image" : "https:\/\/i1.douguo.com\/upload\/caiku\/d\/8\/d\/d829ff3d6cee2b914aa00a0ab3373b3d.jpg",
          "image_width" : 800,
          "position" : 11,
          "image_height" : 600,
          "content" : "馅料分为20等份，每份30g，滚圆，盖上保鲜膜。",
          "thumb" : "https:\/\/i1.douguo.com\/upload\/caiku\/d\/8\/d\/140_d829ff3d6cee2b914aa00a0ab3373b3d.jpg"
        },
        {
          "position" : 12,
          "image" : "https:\/\/i1.douguo.com\/upload\/caiku\/9\/0\/1\/9075aa79a1241cadf0f8d0a096df1c31.jpg",
          "image_height" : 600,
          "image_width" : 800,
          "thumb" : "https:\/\/i1.douguo.com\/upload\/caiku\/9\/0\/1\/140_9075aa79a1241cadf0f8d0a096df1c31.jpg",
          "frame" : "-1",
          "content" : "取一个月饼皮，按压成圆饼。"
        },
        {
          "image_height" : 960,
          "position" : 13,
          "frame" : "-1",
          "image_width" : 1280,
          "content" : "放上一份馅料，像包汤圆一样包住，两手配合慢慢往上推，直到收口。",
          "image" : "https:\/\/i1.douguo.com\/upload\/caiku\/0\/6\/c\/06babee1564014094de468660857807c.jpg",
          "thumb" : "https:\/\/i1.douguo.com\/upload\/caiku\/0\/6\/c\/140_06babee1564014094de468660857807c.jpg"
        },
        {
          "frame" : "-1",
          "thumb" : "https:\/\/i1.douguo.com\/upload\/caiku\/7\/5\/7\/140_75b945694700a6fe31683ae7e06a8c97.jpg",
          "image_height" : 960,
          "position" : 14,
          "image" : "https:\/\/i1.douguo.com\/upload\/caiku\/7\/5\/7\/75b945694700a6fe31683ae7e06a8c97.jpg",
          "image_width" : 1280,
          "content" : "表面粘少许面粉，放入月饼模具中，用力按压，刻出图案（力气小了图案纹理不清晰）。此时，烤箱165度预热。"
        },
        {
          "image_height" : 600,
          "image" : "https:\/\/i1.douguo.com\/upload\/caiku\/b\/5\/c\/b5aac2fff2746690764374f48fea839c.jpg",
          "image_width" : 800,
          "thumb" : "https:\/\/i1.douguo.com\/upload\/caiku\/b\/5\/c\/140_b5aac2fff2746690764374f48fea839c.jpg",
          "content" : "依次包好，往月饼表面喷一薄层水，放入烤箱，150度烤5分钟（以上食材是20个50g月饼，饼皮20g，馅料30g）。",
          "frame" : "-1",
          "position" : 15
        },
        {
          "image_width" : 1280,
          "image_height" : 960,
          "content" : "取出，刷薄薄一层全蛋液，放入烤箱继续烤5分钟，再取出刷一层蛋液。",
          "position" : 16,
          "image" : "https:\/\/i1.douguo.com\/upload\/caiku\/b\/f\/d\/bf51ae1813e61ab4707b3fdf6a43d28d.jpg",
          "frame" : "-1",
          "thumb" : "https:\/\/i1.douguo.com\/upload\/caiku\/b\/f\/d\/140_bf51ae1813e61ab4707b3fdf6a43d28d.jpg"
        },
        {
          "frame" : "-1",
          "thumb" : "https:\/\/i1.douguo.com\/upload\/caiku\/b\/8\/c\/140_b8c548dde3b8dcf8986d13fe37ab31bc.jpg",
          "image_height" : 600,
          "content" : "放入烤箱继续烤18分钟。",
          "position" : 17,
          "image" : "https:\/\/i1.douguo.com\/upload\/caiku\/b\/8\/c\/b8c548dde3b8dcf8986d13fe37ab31bc.jpg",
          "image_width" : 800
        },
        {
          "image" : "https:\/\/i1.douguo.com\/upload\/caiku\/3\/c\/5\/3c128311ae9de1667b5b8e559090b8b5.jpg",
          "image_width" : 800,
          "position" : 18,
          "image_height" : 600,
          "frame" : "-1",
          "content" : "取出晾凉、装袋密封，刚烤好的月饼皮很软，放凉后会变硬，装袋密封放两三天待饼皮回油后再吃，口感会更好。",
          "thumb" : "https:\/\/i1.douguo.com\/upload\/caiku\/3\/c\/5\/140_3c128311ae9de1667b5b8e559090b8b5.jpg"
        }
      ],
      "display_ingredient" : 1,
      "ipurl" : ""
    }
  },
  "status" : 0
}