{
  "state" : "success",
  "result" : {
    "recipe" : {
      "comments_count" : 2,
      "ipurl" : "",
      "act_des" : "",
      "rate" : 5,
      "sc" : 0,
      "vu" : "",
      "advice" : {
        "da" : {
          "t" : "查看详细分析",
          "url" : "https:\/\/m.douguo.com\/recipe\/nutrient_self\/2060668",
          "iu" : "https:\/\/i1.douguo.com\/upload\/banner\/f\/4\/d\/f48877e53c37759bc12ac494be82ec8d.png"
        },
        "at" : "是组织形成和生长的主要营养素～",
        "has" : [
          {
            "url" : "recipes:\/\/www.douguo.com\/simplerecipelist?t=富含蛋白质&id=富含蛋白质",
            "t" : "富含蛋白质"
          },
          {
            "url" : "recipes:\/\/www.douguo.com\/simplerecipelist?t=低盐&id=低盐",
            "t" : "低盐"
          }
        ]
      },
      "recipe_tags" : [

      ],
      "cook_id" : "2060668",
      "first_level_comment_count" : 2,
      "create_time" : "2019-02-10 00:11:53",
      "rpt" : "",
      "author_photo" : "http:\/\/tx1.douguo.net\/upload\/photo\/4\/c\/9\/70_u07947152152895082607.jpeg",
      "levelid" : 2,
      "comments" : [
        "{\n    ac = \"#999999\";\n    at = \"\";\n    ccc = 0;\n    \"child_comments\" =     (\n    );\n    city = \"\";\n    cmc = 2;\n    content =     (\n                {\n            c = \"\\U9171\\U8c46\\U8150\\U6c41\\U662f\\U4ec0\\U4e48?_?\";\n        }\n    );\n    ia = 0;\n    id = 6390694;\n    \"ip_address_location\" = \"\";\n    like = 0;\n    \"like_count\" = 1;\n    \"reply_id\" = 0;\n    \"sticker_icon\" =     (\n    );\n    time = \"2019-02-14 17:08:42\";\n    u =     {\n        \"followers_count_text\" = \"\";\n        id = 18483879;\n        \"is_prime\" = 0;\n        lv = 0;\n        lvl = 4;\n        n = \"\\U7b11\\U9526\\U5988\\U5988\";\n        p = \"http:\/\/tx1.douguo.net\/upload\/photo\/3\/f\/7\/70_u07077171782214224616.jpg\";\n        \"progress_image\" = \"\";\n        \"recipes_count_text\" = \"\";\n        relationship = \"-1\";\n        title = \"\";\n        v = 0;\n        \"verified_image\" = \"\";\n    };\n}",
        "{\n    ac = \"#999999\";\n    at = \"\\U5317\\U4eac\\U5e02\";\n    ccc = 0;\n    \"child_comments\" =     (\n    );\n    city = \"\\U5317\\U4eac\\U5e02\";\n    cmc = 2;\n    content =     (\n                {\n            c = \"\\U559c\\U6b22\";\n        }\n    );\n    ia = 0;\n    id = 6414939;\n    \"ip_address_location\" = \"\";\n    like = 0;\n    \"like_count\" = 0;\n    \"reply_id\" = 0;\n    \"sticker_icon\" =     (\n    );\n    time = \"2019-02-26 23:22:00\";\n    u =     {\n        \"followers_count_text\" = \"\";\n        id = 23180672;\n        \"is_prime\" = 0;\n        lv = 0;\n        lvl = 4;\n        n = \"\\U5c0f\\U6960XN\";\n        p = \"http:\/\/tx1.douguo.net\/upload\/photo\/2\/5\/f\/70_u48147885110813102803.jpg\";\n        \"progress_image\" = \"\";\n        \"recipes_count_text\" = \"\";\n        relationship = \"-1\";\n        title = \"\";\n        v = 0;\n        \"verified_image\" = \"\";\n    };\n}"
      ],
      "clicks" : "279813",
      "favo_counts_text" : "5176",
      "vc" : "287447",
      "dish_count" : 1,
      "cookstorys" : [
        {
          "color" : "",
          "u" : "",
          "id" : 0,
          "type" : 0,
          "c" : "猪蹄，是指猪的脚部（蹄）和小腿，在中国又叫元蹄。在华人世界中，猪蹄是猪常被人食用的部位之一，有多种不同的烹调作法。猪蹄含有丰富的胶原蛋白质，脂肪含量也比肥肉低。它能防治皮肤干瘪起皱、增强皮肤弹性和韧性，对延缓衰老和促进儿童生长发育都具有特殊意义。为此，人们把猪蹄称为“美容食品” 和“类似于熊掌的美味佳肴”。\n婆婆做的红烧菜深受大家的喜欢，所以最近我都在跟她学习，这道红烧猪蹄就是在她的指挥下做的。",
          "icon" : ""
        }
      ],
      "rips" : 0,
      "cook_time_image" : "https:\/\/i1.douguo.com\/upload\/banner\/1551424318.png",
      "ss" : [

      ],
      "pw" : 1920,
      "thumb_path" : "https:\/\/i1.douguo.com\/upload\/caiku\/3\/b\/e\/300_3b73bb924e6160e2a531019e767b4ace.jpeg",
      "ipoi" : "",
      "eu" : "recipes:\/\/www.douguo.com\/postdetail?id=242016",
      "recommendation_tag" : "",
      "story_dsp" : [

      ],
      "rdsps" : [

      ],
      "vfurl" : "",
      "favo_counts" : 5176,
      "collect_status" : 0,
      "su" : "",
      "notes" : [

      ],
      "hqu" : "recipes:\/\/www.douguo.com\/notedetail?id=21162253",
      "user" : {
        "userid" : "5207160",
        "lv" : 0,
        "diaries_count" : 0,
        "coursecount" : 0,
        "qzone_nick" : "",
        "progress_image" : "",
        "dishes_count" : 0,
        "user_cover" : "",
        "favor_diaries_count" : 0,
        "pc" : 0,
        "user_large_photo" : "http:\/\/tx1.douguo.net\/upload\/photo\/4\/c\/9\/yuan_u07947152152895082607.jpeg",
        "lvl" : 7,
        "qq_weibo_nick" : "",
        "user_id" : "5207160",
        "birthday" : "",
        "regist_time" : "",
        "mobile" : "",
        "recipes_count" : 0,
        "age" : "",
        "subscription" : 0,
        "setted_email" : 0,
        "point" : 0,
        "verified" : 1,
        "verified_image" : "https:\/\/i1.douguo.com\/upload\/note\/d\/a\/a\/da84247847aebe48d9dd0fcdac88862a.png",
        "subscription_article_count" : 0,
        "weibo_nick" : "",
        "is_prime" : 0,
        "favorites_count" : 0,
        "nick" : "微微0214",
        "user_photo" : "http:\/\/tx1.douguo.net\/upload\/photo\/4\/c\/9\/70_u07947152152895082607.jpeg",
        "following_count" : 0,
        "location" : 0,
        "gender" : 2,
        "verified_url" : "https:\/\/m.douguo.com\/user\/prodesc",
        "sign" : "",
        "avatar_medium" : "http:\/\/tx1.douguo.net\/upload\/photo\/4\/c\/9\/140_u07947152152895082607.jpeg",
        "fc" : 0,
        "followers_count" : 0,
        "introduction" : "",
        "email" : ""
      },
      "title" : "红烧猪蹄",
      "rsm" : "该功能暂停使用",
      "dishes" : [

      ],
      "purl" : "",
      "cook_difficulty_image" : "https:\/\/i1.douguo.com\/upload\/banner\/1551424413.png",
      "dish_count_text" : "1",
      "recommend_label" : "1人学做",
      "thumb_height" : 0,
      "share_info" : {
        "image" : "https:\/\/cp1.douguo.com\/upload\/caiku\/3\/b\/e\/3b73bb924e6160e2a531019e767b4ace.jpeg",
        "mini_program" : [

        ],
        "s_u" : "http:\/\/m.douguo.com\/cookbook\/2060668.html",
        "object_id" : "2060668",
        "s_d" : "红烧猪蹄-会做饭很酷!",
        "name" : "红烧猪蹄-会做饭很酷!",
        "infos" : [
          {
            "s_d" : "#学做饭用豆果美食# 会做饭真是太酷了！我在@豆果美食 分享了【红烧猪蹄-会做饭很酷!】，这道菜真的神仙美味！喜欢的一定要试试绝对不会错的！～查看图片了解菜谱（快来点击https:\/\/m.weibo.cn\/p\/100404i33631和我一起修炼厨艺吧）",
            "object_id" : "2060668",
            "name" : "红烧猪蹄-会做饭很酷!",
            "s_u" : "",
            "image" : "https:\/\/cp1.douguo.com\/upload\/caiku\/3\/b\/e\/3b73bb924e6160e2a531019e767b4ace.jpeg",
            "channel" : "1",
            "mini_program" : [

            ],
            "qr_image" : ""
          },
          {
            "s_u" : "http:\/\/m.douguo.com\/cookbook\/2060668.html",
            "qr_image" : "",
            "object_id" : "2060668",
            "name" : "红烧猪蹄-会做饭很酷!",
            "image" : "https:\/\/cp1.douguo.com\/upload\/caiku\/3\/b\/e\/3b73bb924e6160e2a531019e767b4ace.jpeg",
            "s_d" : "红烧猪蹄-会做饭很酷!",
            "mini_program" : [

            ],
            "channel" : "7"
          },
          {
            "s_u" : "http:\/\/m.douguo.com\/cookbook\/2060668.html",
            "qr_image" : "",
            "image" : "https:\/\/cp1.douguo.com\/upload\/caiku\/3\/b\/e\/3b73bb924e6160e2a531019e767b4ace.jpeg",
            "mini_program" : [

            ],
            "object_id" : "2060668",
            "channel" : "8",
            "name" : "红烧猪蹄-会做饭很酷!",
            "s_d" : "红烧猪蹄-会做饭很酷!"
          }
        ],
        "qr_image" : ""
      },
      "photo_path" : "https:\/\/i1.douguo.com\/upload\/caiku\/3\/b\/e\/600_3b73bb924e6160e2a531019e767b4ace.jpeg",
      "guide_image" : "",
      "packages_id" : [

      ],
      "major" : [
        {
          "note" : "600g",
          "tu" : "https:\/\/m.douguo.com\/ingredients\/猪蹄\/detailmaterial",
          "title" : "猪蹄"
        },
        {
          "note" : "各适量",
          "title" : "油盐酱油"
        },
        {
          "title" : "生姜",
          "tu" : "https:\/\/m.douguo.com\/ingredients\/生姜\/detailmaterial",
          "note" : "4片"
        },
        {
          "tu" : "https:\/\/m.douguo.com\/ingredients\/葱\/detailmaterial",
          "title" : "葱",
          "note" : "少许"
        },
        {
          "tu" : "https:\/\/m.douguo.com\/ingredients\/白糖\/detailmaterial",
          "title" : "白糖",
          "note" : "2汤匙"
        },
        {
          "note" : "少许",
          "tu" : "https:\/\/m.douguo.com\/ingredients\/鸡精\/detailmaterial",
          "title" : "鸡精"
        },
        {
          "title" : "水淀粉",
          "note" : "小半碗"
        }
      ],
      "old_comments" : [

      ],
      "cookstep" : [
        {
          "image_height" : 960,
          "image" : "https:\/\/i1.douguo.com\/upload\/caiku\/0\/b\/b\/0b6da75171ae1448eb330c765f6e048b.jpeg",
          "position" : 1,
          "frame" : "-1",
          "thumb" : "https:\/\/i1.douguo.com\/upload\/caiku\/0\/b\/b\/140_0b6da75171ae1448eb330c765f6e048b.jpeg",
          "content" : "猪蹄洗好剁块，开水煮沸后捞出，再用冷水清洗干净！",
          "image_width" : 1280
        },
        {
          "image_height" : 960,
          "image" : "https:\/\/i1.douguo.com\/upload\/caiku\/e\/7\/9\/e742f3c1264275d2ae7dd25e8a9d03c9.jpeg",
          "content" : "锅里放油，生姜片烧热。",
          "frame" : "-1",
          "image_width" : 1280,
          "thumb" : "https:\/\/i1.douguo.com\/upload\/caiku\/e\/7\/9\/140_e742f3c1264275d2ae7dd25e8a9d03c9.jpeg",
          "position" : 2
        },
        {
          "content" : "倒入清洗好的猪蹄。",
          "image_width" : 1280,
          "position" : 3,
          "frame" : "-1",
          "thumb" : "https:\/\/i1.douguo.com\/upload\/caiku\/e\/7\/1\/140_e73b78ccf95da58883e9950e1b3bbdb1.jpeg",
          "image" : "https:\/\/i1.douguo.com\/upload\/caiku\/e\/7\/1\/e73b78ccf95da58883e9950e1b3bbdb1.jpeg",
          "image_height" : 960
        },
        {
          "frame" : "-1",
          "image_height" : 960,
          "position" : 4,
          "thumb" : "https:\/\/i1.douguo.com\/upload\/caiku\/a\/8\/6\/140_a80a4f23da98348f5a8517c2fe5dbe06.jpeg",
          "content" : "加入差不多2.5茶匙老抽。",
          "image" : "https:\/\/i1.douguo.com\/upload\/caiku\/a\/8\/6\/a80a4f23da98348f5a8517c2fe5dbe06.jpeg",
          "image_width" : 1280
        },
        {
          "image_width" : 1280,
          "image" : "https:\/\/i1.douguo.com\/upload\/caiku\/0\/1\/9\/01a38adec5de45853fa6f709fe372d79.jpeg",
          "position" : 5,
          "thumb" : "https:\/\/i1.douguo.com\/upload\/caiku\/0\/1\/9\/140_01a38adec5de45853fa6f709fe372d79.jpeg",
          "image_height" : 958,
          "frame" : "-1",
          "content" : "先翻炒均匀，这样也能很好的防治猪蹄粘锅！"
        },
        {
          "thumb" : "https:\/\/i1.douguo.com\/upload\/caiku\/9\/d\/7\/140_9dc9a94bb4a5633441ccfcbf35ff2d07.jpeg",
          "image_height" : 960,
          "image_width" : 1280,
          "position" : 6,
          "frame" : "-1",
          "content" : "加入适量白糖，盐和料酒。",
          "image" : "https:\/\/i1.douguo.com\/upload\/caiku\/9\/d\/7\/9dc9a94bb4a5633441ccfcbf35ff2d07.jpeg"
        },
        {
          "thumb" : "https:\/\/i1.douguo.com\/upload\/caiku\/8\/4\/2\/140_84446e2c60e7318a4f39379a78fda132.jpeg",
          "image_width" : 1280,
          "image_height" : 960,
          "frame" : "-1",
          "position" : 7,
          "content" : "翻炒均匀后倒入一大碗清水。大火煮沸后转中小火炖煮。",
          "image" : "https:\/\/i1.douguo.com\/upload\/caiku\/8\/4\/2\/84446e2c60e7318a4f39379a78fda132.jpeg"
        },
        {
          "image" : "https:\/\/i1.douguo.com\/upload\/caiku\/8\/3\/3\/83241a8b7075843ddf54708af49bc703.jpeg",
          "content" : "煮至汤汁浓稠倒入小半碗水淀粉勾芡，加入少量鸡精就可以了！",
          "frame" : "-1",
          "image_width" : 1280,
          "thumb" : "https:\/\/i1.douguo.com\/upload\/caiku\/8\/3\/3\/140_83241a8b7075843ddf54708af49bc703.jpeg",
          "position" : 8,
          "image_height" : 960
        },
        {
          "content" : "满满的胶原蛋白，一定要多啃两块。",
          "thumb" : "https:\/\/i1.douguo.com\/upload\/caiku\/f\/d\/3\/140_fdb0674b3808ec010b158e294c8ef8f3.jpeg",
          "frame" : "-1",
          "position" : 9,
          "image_width" : 1280,
          "image_height" : 960,
          "image" : "https:\/\/i1.douguo.com\/upload\/caiku\/f\/d\/3\/fdb0674b3808ec010b158e294c8ef8f3.jpeg"
        },
        {
          "image" : "https:\/\/i1.douguo.com\/upload\/caiku\/e\/8\/0\/e8fb12cc0a07fc0101d3e0353d721390.jpeg",
          "thumb" : "https:\/\/i1.douguo.com\/upload\/caiku\/e\/8\/0\/140_e8fb12cc0a07fc0101d3e0353d721390.jpeg",
          "image_height" : 960,
          "content" : "成品图。",
          "position" : 10,
          "image_width" : 1280,
          "frame" : "-1"
        },
        {
          "position" : 11,
          "image" : "https:\/\/i1.douguo.com\/upload\/caiku\/8\/7\/6\/879fff1615151dcf68dcd8ad18cbe5b6.jpeg",
          "frame" : "-1",
          "image_height" : 960,
          "image_width" : 1280,
          "content" : "成品图。",
          "thumb" : "https:\/\/i1.douguo.com\/upload\/caiku\/8\/7\/6\/140_879fff1615151dcf68dcd8ad18cbe5b6.jpeg"
        }
      ],
      "mid_mdsp" : [

      ],
      "author" : "微微0214",
      "cookwares" : [

      ],
      "display_ingredient" : 1,
      "related_ads" : [

      ],
      "views_count_text" : "28.7万",
      "tags" : [

      ],
      "v_u" : "",
      "ipia" : [

      ],
      "rate_count" : 1,
      "rpst" : "",
      "ssu" : "",
      "title_ad" : [

      ],
      "comments_count_text" : "2",
      "cookstory" : "猪蹄，是指猪的脚部（蹄）和小腿，在中国又叫元蹄。在华人世界中，猪蹄是猪常被人食用的部位之一，有多种不同的烹调作法。猪蹄含有丰富的胶原蛋白质，脂肪含量也比肥肉低。它能防治皮肤干瘪起皱、增强皮肤弹性和韧性，对延缓衰老和促进儿童生长发育都具有特殊意义。为此，人们把猪蹄称为“美容食品” 和“类似于熊掌的美味佳肴”。\n婆婆做的红烧菜深受大家的喜欢，所以最近我都在跟她学习，这道红烧猪蹄就是在她的指挥下做的。",
      "tips" : "",
      "sr" : "",
      "hq" : 1,
      "rpid" : 0,
      "rrps" : [

      ],
      "minor" : [

      ],
      "cook_time" : "30~60分钟",
      "bs" : [

      ],
      "image" : "http:\/\/i1.douguo.net\/upload\/caiku\/3\/b\/e\/300_3b73bb924e6160e2a531019e767b4ace.jpeg",
      "ipci" : "",
      "author_verified" : 1,
      "rcs" : [

      ],
      "top_mdsp" : [

      ],
      "ipit" : 0,
      "rrpt" : "",
      "rewarded_video_dsp" : [

      ],
      "author_id" : 5207160,
      "brand_day_dsp" : [

      ],
      "rate_show" : 0,
      "recent_comments" : [

      ],
      "recipe_list_tags" : [
        {
          "background_border_color" : "",
          "jump_url" : "",
          "text_color" : "#141515",
          "right_image" : "",
          "text" : "关注的人",
          "background_end_color" : "#F4F5F5",
          "background_start_color" : "#F4F5F5"
        }
      ],
      "recommended" : 0,
      "ecs" : 0,
      "ipt" : "",
      "release_time" : "",
      "ph" : 1440,
      "original_photo_path" : "http:\/\/i1.douguo.net\/upload\/caiku\/3\/b\/e\/yuan_3b73bb924e6160e2a531019e767b4ace.jpeg",
      "cook_difficulty" : "配菜(中级)",
      "btm_dsp" : [

      ]
    }
  },
  "status" : 0
}