{
  "state" : "success",
  "result" : {
    "recipe" : {
      "comments_count_text" : "6",
      "rrps" : [

      ],
      "original_photo_path" : "http:\/\/i1.douguo.net\/upload\/caiku\/7\/4\/7\/yuan_747895a01cef7e5deb57b54c82b6fbb7.jpg",
      "vfurl" : "",
      "share_info" : {
        "mini_program" : [

        ],
        "qr_image" : "",
        "name" : "芒果草莓双味蛋糕卷-会做饭很酷!",
        "object_id" : "1571802",
        "s_d" : "芒果草莓双味蛋糕卷-会做饭很酷!",
        "image" : "https:\/\/cp1.douguo.com\/upload\/caiku\/7\/4\/7\/747895a01cef7e5deb57b54c82b6fbb7.jpg",
        "infos" : [
          {
            "image" : "https:\/\/cp1.douguo.com\/upload\/caiku\/7\/4\/7\/747895a01cef7e5deb57b54c82b6fbb7.jpg",
            "s_u" : "",
            "s_d" : "#学做饭用豆果美食# 我在@豆果美食 分享了【芒果草莓双味蛋糕卷-会做饭很酷!】，色香味俱全说的就是这道菜！查看图片了解菜谱（快来点击https:\/\/m.weibo.cn\/p\/100404i33631和我一起修炼厨艺吧）#会做饭很酷# ",
            "qr_image" : "",
            "name" : "芒果草莓双味蛋糕卷-会做饭很酷!",
            "object_id" : "1571802",
            "channel" : "1",
            "mini_program" : [

            ]
          },
          {
            "channel" : "7",
            "qr_image" : "",
            "image" : "https:\/\/cp1.douguo.com\/upload\/caiku\/7\/4\/7\/747895a01cef7e5deb57b54c82b6fbb7.jpg",
            "object_id" : "1571802",
            "mini_program" : [

            ],
            "name" : "芒果草莓双味蛋糕卷-会做饭很酷!",
            "s_d" : "芒果草莓双味蛋糕卷-会做饭很酷!",
            "s_u" : "http:\/\/m.douguo.com\/cookbook\/1571802.html"
          },
          {
            "qr_image" : "",
            "channel" : "8",
            "name" : "芒果草莓双味蛋糕卷-会做饭很酷!",
            "s_u" : "http:\/\/m.douguo.com\/cookbook\/1571802.html",
            "mini_program" : [

            ],
            "object_id" : "1571802",
            "s_d" : "芒果草莓双味蛋糕卷-会做饭很酷!",
            "image" : "https:\/\/cp1.douguo.com\/upload\/caiku\/7\/4\/7\/747895a01cef7e5deb57b54c82b6fbb7.jpg"
          }
        ],
        "s_u" : "http:\/\/m.douguo.com\/cookbook\/1571802.html"
      },
      "brand_day_dsp" : [

      ],
      "story_dsp" : [

      ],
      "act_des" : "",
      "eu" : "recipes:\/\/www.douguo.com\/postdetail?id=242016",
      "comments" : [
        "{\n    ac = \"#999999\";\n    at = \"\";\n    ccc = 1;\n    \"child_comments\" =     (\n                {\n            ac = \"#999999\";\n            at = \"\";\n            ccc = 0;\n            city = \"\";\n            cmc = 2;\n            content =             (\n                                {\n                    c = \" \\U8c22\\U8c22\\U4f60\\U7684\\U9f13\\U52b1\";\n                }\n            );\n            ia = 1;\n            id = 4873308;\n            \"ip_address_location\" = \"\";\n            like = 0;\n            \"like_count\" = 0;\n            \"reply_id\" = 4872469;\n            \"reply_user\" =             {\n                \"followers_count_text\" = \"\";\n                id = 18568867;\n                \"is_prime\" = 0;\n                lv = 0;\n                lvl = 4;\n                n = \"\\U4f73\\U4f73\\U7f8e\\U4eba\\U9c7c\";\n                p = \"http:\/\/tx1.douguo.net\/upload\/photo\/6\/9\/2\/70_u21734136750940408235759.jpg\";\n                \"progress_image\" = \"\";\n                \"recipes_count_text\" = \"\";\n                relationship = \"-1\";\n                title = \"\";\n                v = 0;\n                \"verified_image\" = \"\";\n            };\n            \"sticker_icon\" =             (\n            );\n            time = \"2017-06-29 07:43:56\";\n            u =             {\n                \"followers_count_text\" = \"\";\n                id = 20387500;\n                \"is_prime\" = 0;\n                lv = 0;\n                lvl = 6;\n                n = \"\\U5f20\\U7259\\U821e\\U722a\\U7684\\U7d2b\\U53f6\\U751f\\U83dc\\U5f88\\U5929\\U7136\";\n                p = \"http:\/\/tx1.douguo.net\/upload\/photo\/1\/1\/1\/70_365cb5ec653b194c05b1053281d6b854.png\";\n                \"progress_image\" = \"\";\n                \"recipes_count_text\" = \"\";\n                relationship = \"-1\";\n                title = \"\";\n                v = 0;\n                \"verified_image\" = \"\";\n            };\n        }\n    );\n    city = \"\";\n    cmc = 2;\n    content =     (\n                {\n            c = \"\\U505a\\U7684\\U5f88\\U4e0d\\U9519\\U5662~ \";\n        }\n    );\n    ia = 0;\n    id = 4872469;\n    \"ip_address_location\" = \"\";\n    like = 0;\n    \"like_count\" = 0;\n    \"reply_id\" = 0;\n    \"sticker_icon\" =     (\n    );\n    time = \"2017-06-29 03:07:05\";\n    u =     {\n        \"followers_count_text\" = \"\";\n        id = 18568867;\n        \"is_prime\" = 0;\n        lv = 0;\n        lvl = 4;\n        n = \"\\U4f73\\U4f73\\U7f8e\\U4eba\\U9c7c\";\n        p = \"http:\/\/tx1.douguo.net\/upload\/photo\/6\/9\/2\/70_u21734136750940408235759.jpg\";\n        \"progress_image\" = \"\";\n        \"recipes_count_text\" = \"\";\n        relationship = \"-1\";\n        title = \"\";\n        v = 0;\n        \"verified_image\" = \"\";\n    };\n}",
        "{\n    ac = \"#999999\";\n    at = \"\";\n    ccc = 1;\n    \"child_comments\" =     (\n                {\n            ac = \"#999999\";\n            at = \"\";\n            ccc = 0;\n            city = \"\";\n            cmc = 2;\n            content =             (\n                                {\n                    c = \" \\U770b\\U6765\\U548c\\U6211\\U4e00\\U6837\\U5fd7\\U540c\\U9053\\U5408\";\n                }\n            );\n            ia = 1;\n            id = 4873310;\n            \"ip_address_location\" = \"\";\n            like = 0;\n            \"like_count\" = 0;\n            \"reply_id\" = 4872190;\n            \"reply_user\" =             {\n                \"followers_count_text\" = \"\";\n                id = 18543493;\n                \"is_prime\" = 0;\n                lv = 0;\n                lvl = 4;\n                n = \"\\U5fc3\\U5982\\U6b62\\U6c34299\";\n                p = \"http:\/\/tx1.douguo.net\/upload\/photo\/1\/1\/1\/70_f7e594d7de9edf3c5d9eea15eb1067bb.png\";\n                \"progress_image\" = \"\";\n                \"recipes_count_text\" = \"\";\n                relationship = \"-1\";\n                title = \"\";\n                v = 0;\n                \"verified_image\" = \"\";\n            };\n            \"sticker_icon\" =             (\n            );\n            time = \"2017-06-29 07:44:11\";\n            u =             {\n                \"followers_count_text\" = \"\";\n                id = 20387500;\n                \"is_prime\" = 0;\n                lv = 0;\n                lvl = 6;\n                n = \"\\U5f20\\U7259\\U821e\\U722a\\U7684\\U7d2b\\U53f6\\U751f\\U83dc\\U5f88\\U5929\\U7136\";\n                p = \"http:\/\/tx1.douguo.net\/upload\/photo\/1\/1\/1\/70_365cb5ec653b194c05b1053281d6b854.png\";\n                \"progress_image\" = \"\";\n                \"recipes_count_text\" = \"\";\n                relationship = \"-1\";\n                title = \"\";\n                v = 0;\n                \"verified_image\" = \"\";\n            };\n        }\n    );\n    city = \"\";\n    cmc = 2;\n    content =     (\n                {\n            c = \"\\U5468\\U516d\\U521a\\U505a\\U8fc7\";\n        }\n    );\n    ia = 0;\n    id = 4872190;\n    \"ip_address_location\" = \"\";\n    like = 0;\n    \"like_count\" = 0;\n    \"reply_id\" = 0;\n    \"sticker_icon\" =     (\n    );\n    time = \"2017-06-29 02:07:05\";\n    u =     {\n        \"followers_count_text\" = \"\";\n        id = 18543493;\n        \"is_prime\" = 0;\n        lv = 0;\n        lvl = 4;\n        n = \"\\U5fc3\\U5982\\U6b62\\U6c34299\";\n        p = \"http:\/\/tx1.douguo.net\/upload\/photo\/1\/1\/1\/70_f7e594d7de9edf3c5d9eea15eb1067bb.png\";\n        \"progress_image\" = \"\";\n        \"recipes_count_text\" = \"\";\n        relationship = \"-1\";\n        title = \"\";\n        v = 0;\n        \"verified_image\" = \"\";\n    };\n}",
        "{\n    ac = \"#999999\";\n    at = \"\";\n    ccc = 0;\n    \"child_comments\" =     (\n    );\n    city = \"\";\n    cmc = 2;\n    content =     (\n                {\n            c = \"\\U751f\\U6d3b\\U603b\\U6709\\U5f88\\U591a\\U7410\\U788e\\Uff0c\\U8ba9\\U6211\\U4eec\\U75b2\\U60eb\\U614c\\U5f20\\Uff0c\\U4f46\\U662f\\U5f53\\U771f\\U6b63\\U5403\\U8d77\\U6765\\U4f60\\U4f1a\\U53d1\\U73b0\\U98df\\U7269\\U91cc\\U6cbe\\U6ee1\\U751f\\U6d3b\\U7684\\U7cbe\\U534e\";\n        }\n    );\n    ia = 0;\n    id = 6095635;\n    \"ip_address_location\" = \"\";\n    like = 0;\n    \"like_count\" = 0;\n    \"reply_id\" = 0;\n    \"sticker_icon\" =     (\n    );\n    time = \"2018-10-06 23:25:14\";\n    u =     {\n        \"followers_count_text\" = \"\";\n        id = 18504031;\n        \"is_prime\" = 0;\n        lv = 0;\n        lvl = 2;\n        n = \"\\U6797\\U4e8c\\U5bb6\\U7684\\U6021\\U592a\\U592a0\";\n        p = \"http:\/\/tx1.douguo.net\/upload\/photo\/e\/7\/0\/70_e799ae8e244d28e1bb3b21656c7aab30.jpg\";\n        \"progress_image\" = \"\";\n        \"recipes_count_text\" = \"\";\n        relationship = \"-1\";\n        title = \"\";\n        v = 0;\n        \"verified_image\" = \"\";\n    };\n}"
      ],
      "dish_count" : 2,
      "rrpt" : "",
      "thumb_path" : "https:\/\/i1.douguo.com\/upload\/caiku\/7\/4\/7\/300_747895a01cef7e5deb57b54c82b6fbb7.jpg",
      "ipit" : 0,
      "cookstep" : [
        {
          "position" : 1,
          "frame" : "-1",
          "thumb" : "https:\/\/i1.douguo.com\/upload\/caiku\/f\/e\/e\/140_fe11cd7be241545ca510589179d97dbe.jpg",
          "image" : "https:\/\/i1.douguo.com\/upload\/caiku\/f\/e\/e\/fe11cd7be241545ca510589179d97dbe.jpg",
          "image_height" : 773,
          "image_width" : 800,
          "content" : "将十克糖加入蛋黄中，搅拌均匀"
        },
        {
          "position" : 2,
          "frame" : "-1",
          "image_height" : 782,
          "image" : "https:\/\/i1.douguo.com\/upload\/caiku\/4\/3\/a\/43a423c7d554e7a8b12473a499c05aea.jpg",
          "image_width" : 800,
          "thumb" : "https:\/\/i1.douguo.com\/upload\/caiku\/4\/3\/a\/140_43a423c7d554e7a8b12473a499c05aea.jpg",
          "content" : "将油分三次加入到蛋黄液中，充分搅匀，再加入牛奶混合均匀"
        },
        {
          "content" : "筛入低筋面粉，刮刀拌匀",
          "image_height" : 769,
          "image" : "https:\/\/i1.douguo.com\/upload\/caiku\/f\/c\/2\/fc0c1977a3d9c51c5a02cca55324d932.jpg",
          "image_width" : 800,
          "thumb" : "https:\/\/i1.douguo.com\/upload\/caiku\/f\/c\/2\/140_fc0c1977a3d9c51c5a02cca55324d932.jpg",
          "position" : 3,
          "frame" : "-1"
        },
        {
          "thumb" : "https:\/\/i1.douguo.com\/upload\/caiku\/b\/9\/7\/140_b97ba5bfc12745737b24a0caf3ba75d7.jpg",
          "image" : "https:\/\/i1.douguo.com\/upload\/caiku\/b\/9\/7\/b97ba5bfc12745737b24a0caf3ba75d7.jpg",
          "frame" : "-1",
          "image_width" : 800,
          "image_height" : 787,
          "position" : 4,
          "content" : "蛋清分三次加入六十克的糖，打发至湿性发泡"
        },
        {
          "image_width" : 800,
          "content" : "取少量蛋白到蛋黄糊中，刮刀翻拌均匀。再倒回剩下的蛋白中，继续翻拌均匀",
          "image_height" : 779,
          "image" : "https:\/\/i1.douguo.com\/upload\/caiku\/f\/d\/8\/fd7e88ceac9b9e391a9905e494894878.jpg",
          "frame" : "-1",
          "position" : 5,
          "thumb" : "https:\/\/i1.douguo.com\/upload\/caiku\/f\/d\/8\/140_fd7e88ceac9b9e391a9905e494894878.jpg"
        },
        {
          "image_height" : 788,
          "image_width" : 800,
          "thumb" : "https:\/\/i1.douguo.com\/upload\/caiku\/8\/9\/8\/140_89832fa15846bacac565f875b5b86e08.jpg",
          "content" : "面糊倒入铺好油纸的烤盘里，震出气泡，烤箱160度15分钟",
          "image" : "https:\/\/i1.douguo.com\/upload\/caiku\/8\/9\/8\/89832fa15846bacac565f875b5b86e08.jpg",
          "position" : 6,
          "frame" : "-1"
        },
        {
          "content" : "蛋糕出炉后倒扣，撕去油纸，晾至不烫手。这个时候取淡奶油，加入糖打发，直到提起打蛋器有个小尖角",
          "frame" : "-1",
          "image" : "https:\/\/i1.douguo.com\/upload\/caiku\/4\/3\/f\/43748b8706b955938995492d15bd04df.jpg",
          "thumb" : "https:\/\/i1.douguo.com\/upload\/caiku\/4\/3\/f\/140_43748b8706b955938995492d15bd04df.jpg",
          "position" : 7,
          "image_width" : 800,
          "image_height" : 786
        },
        {
          "image" : "https:\/\/i1.douguo.com\/upload\/caiku\/9\/b\/6\/9b839adc521609a5b00f91fd5308de86.jpg",
          "frame" : "-1",
          "position" : 8,
          "content" : "蛋糕片正面朝上，涂满奶油，摆上芒果丁，在芒果丁上再涂一层奶油，卷成卷后用油纸包好，冰箱冷藏半小时以上",
          "thumb" : "https:\/\/i1.douguo.com\/upload\/caiku\/9\/b\/6\/140_9b839adc521609a5b00f91fd5308de86.jpg",
          "image_width" : 800,
          "image_height" : 777
        },
        {
          "position" : 9,
          "frame" : "-1",
          "image_height" : 794,
          "image_width" : 800,
          "content" : "揭开油纸，在蛋糕卷上面挤横条奶油",
          "thumb" : "https:\/\/i1.douguo.com\/upload\/caiku\/5\/8\/8\/140_58dc459bd5606cf43b9144c11910e2f8.jpg",
          "image" : "https:\/\/i1.douguo.com\/upload\/caiku\/5\/8\/8\/58dc459bd5606cf43b9144c11910e2f8.jpg"
        },
        {
          "image_height" : 796,
          "frame" : "-1",
          "content" : "放上草莓，芒果，和巧克力酱装饰",
          "position" : 10,
          "thumb" : "https:\/\/i1.douguo.com\/upload\/caiku\/f\/9\/7\/140_f941b0c4eacb010c9ae14c232b1b4307.jpg",
          "image" : "https:\/\/i1.douguo.com\/upload\/caiku\/f\/9\/7\/f941b0c4eacb010c9ae14c232b1b4307.jpg",
          "image_width" : 800
        },
        {
          "content" : "切块即食。",
          "image_height" : 794,
          "frame" : "-1",
          "thumb" : "https:\/\/i1.douguo.com\/upload\/caiku\/0\/d\/e\/140_0d6ac929307b596dd1fc06d9c22b5e7e.jpg",
          "image" : "https:\/\/i1.douguo.com\/upload\/caiku\/0\/d\/e\/0d6ac929307b596dd1fc06d9c22b5e7e.jpg",
          "image_width" : 800,
          "position" : 11
        }
      ],
      "ipoi" : "",
      "rcs" : [

      ],
      "minor" : [

      ],
      "sr" : "",
      "rpt" : "",
      "ipurl" : "",
      "author_photo" : "http:\/\/tx1.douguo.net\/upload\/photo\/1\/1\/1\/70_365cb5ec653b194c05b1053281d6b854.png",
      "first_level_comment_count" : 4,
      "clicks" : "6383",
      "ipci" : "",
      "rate" : 5,
      "rdsps" : [

      ],
      "ss" : [

      ],
      "author" : "张牙舞爪的紫叶生菜很天然",
      "purl" : "",
      "dish_count_text" : "2",
      "ipia" : [

      ],
      "user" : {
        "sign" : "",
        "introduction" : "",
        "pc" : 0,
        "subscription" : 0,
        "verified_url" : "https:\/\/m.douguo.com\/user\/prodesc",
        "setted_email" : 0,
        "qzone_nick" : "",
        "is_prime" : 0,
        "coursecount" : 0,
        "fc" : 0,
        "point" : 0,
        "followers_count" : 0,
        "subscription_article_count" : 0,
        "nick" : "张牙舞爪的紫叶生菜很天然",
        "dishes_count" : 0,
        "birthday" : "",
        "user_large_photo" : "http:\/\/tx1.douguo.net\/upload\/photo\/1\/1\/1\/yuan_365cb5ec653b194c05b1053281d6b854.png",
        "favor_diaries_count" : 0,
        "gender" : 2,
        "user_cover" : "",
        "user_id" : "20387500",
        "user_photo" : "http:\/\/tx1.douguo.net\/upload\/photo\/1\/1\/1\/70_365cb5ec653b194c05b1053281d6b854.png",
        "email" : "",
        "verified_image" : "",
        "lvl" : 6,
        "lv" : 0,
        "recipes_count" : 0,
        "regist_time" : "",
        "weibo_nick" : "",
        "favorites_count" : 0,
        "diaries_count" : 0,
        "avatar_medium" : "http:\/\/tx1.douguo.net\/upload\/photo\/1\/1\/1\/140_365cb5ec653b194c05b1053281d6b854.png",
        "age" : "",
        "mobile" : "",
        "progress_image" : "",
        "userid" : "20387500",
        "verified" : 0,
        "following_count" : 0,
        "location" : 0,
        "qq_weibo_nick" : ""
      },
      "title_ad" : [

      ],
      "author_id" : 20387500,
      "recipe_list_tags" : [
        {
          "background_start_color" : "#F4F5F5",
          "background_border_color" : "",
          "jump_url" : "",
          "text" : "关注的人",
          "text_color" : "#141515",
          "background_end_color" : "#F4F5F5",
          "right_image" : ""
        }
      ],
      "rewarded_video_dsp" : [

      ],
      "ecs" : 0,
      "collect_status" : 0,
      "dishes" : [

      ],
      "rate_count" : 1,
      "cookwares" : [

      ],
      "author_verified" : 0,
      "hqu" : "recipes:\/\/www.douguo.com\/notedetail?id=21162253",
      "packages_id" : [

      ],
      "rpid" : 0,
      "vc" : "7054",
      "ph" : 897,
      "image" : "http:\/\/i1.douguo.net\/upload\/caiku\/7\/4\/7\/300_747895a01cef7e5deb57b54c82b6fbb7.jpg",
      "favo_counts" : 13,
      "cook_id" : "1571802",
      "tags" : [

      ],
      "top_mdsp" : [

      ],
      "favo_counts_text" : "13",
      "cook_difficulty_image" : "",
      "levelid" : 3,
      "hq" : 0,
      "release_time" : "",
      "photo_path" : "https:\/\/i1.douguo.com\/upload\/caiku\/7\/4\/7\/600_747895a01cef7e5deb57b54c82b6fbb7.jpg",
      "rips" : 0,
      "display_ingredient" : 1,
      "recommend_label" : "2人学做",
      "title" : "芒果草莓双味蛋糕卷",
      "mid_mdsp" : [

      ],
      "create_time" : "2017-06-28 22:07:43",
      "thumb_height" : 0,
      "old_comments" : [

      ],
      "pw" : 800,
      "advice" : {
        "at" : "钠能调节机体水分，维持酸碱平衡～",
        "da" : {
          "iu" : "https:\/\/i1.douguo.com\/upload\/banner\/f\/4\/d\/f48877e53c37759bc12ac494be82ec8d.png",
          "t" : "查看详细分析",
          "url" : "https:\/\/m.douguo.com\/recipe\/nutrient_self\/1571802"
        },
        "has" : [
          {
            "url" : "recipes:\/\/www.douguo.com\/simplerecipelist?t=低盐&id=低盐",
            "t" : "低盐"
          }
        ]
      },
      "vu" : "",
      "cook_time" : "",
      "tips" : "",
      "sc" : 0,
      "comments_count" : 6,
      "guide_image" : "",
      "recommended" : 0,
      "cookstory" : "芒果和草莓都爱吃，不如做个双味的蛋糕卷",
      "recipe_tags" : [

      ],
      "cook_time_image" : "",
      "btm_dsp" : [

      ],
      "notes" : [

      ],
      "views_count_text" : "7054",
      "rsm" : "该功能暂停使用",
      "rate_show" : 0,
      "related_ads" : [

      ],
      "ssu" : "",
      "recent_comments" : [

      ],
      "su" : "",
      "cook_difficulty" : "",
      "ipt" : "",
      "bs" : [

      ],
      "recommendation_tag" : "",
      "v_u" : "",
      "rpst" : "",
      "cookstorys" : [
        {
          "type" : 0,
          "u" : "",
          "color" : "",
          "id" : 0,
          "c" : "芒果和草莓都爱吃，不如做个双味的蛋糕卷",
          "icon" : ""
        }
      ],
      "major" : [
        {
          "note" : "4个",
          "title" : "鸡蛋",
          "tu" : "https:\/\/m.douguo.com\/ingredients\/鸡蛋\/detailmaterial"
        },
        {
          "note" : "60克",
          "tu" : "https:\/\/m.douguo.com\/ingredients\/低筋面粉\/detailmaterial",
          "title" : "低筋面粉"
        },
        {
          "note" : "70克",
          "tu" : "https:\/\/m.douguo.com\/ingredients\/细砂糖\/detailmaterial",
          "title" : "细砂糖"
        },
        {
          "note" : "40毫升",
          "tu" : "https:\/\/m.douguo.com\/ingredients\/色拉油\/detailmaterial",
          "title" : "色拉油"
        },
        {
          "note" : "60毫升",
          "title" : "鲜奶"
        },
        {
          "note" : "25克",
          "title" : "白砂糖（打发淡奶油用）"
        },
        {
          "note" : "100毫升",
          "title" : "淡奶油",
          "tu" : "https:\/\/m.douguo.com\/ingredients\/淡奶油\/detailmaterial"
        },
        {
          "note" : "适量",
          "title" : "芒果肉"
        },
        {
          "tu" : "https:\/\/m.douguo.com\/ingredients\/草莓\/detailmaterial",
          "note" : "适量",
          "title" : "草莓"
        }
      ]
    }
  },
  "status" : 0
}