{
  "status" : 0,
  "state" : "success",
  "result" : {
    "recipe" : {
      "story_dsp" : [

      ],
      "related_ads" : [

      ],
      "tips" : "1、颗粒的桃子酱比纯果泥的有嚼劲，口感更好；\r\n2、液体椰子油也可以换成液体黄油；",
      "btm_dsp" : [

      ],
      "ipia" : [

      ],
      "comments_count" : 0,
      "rate_count" : 0,
      "image" : "http:\/\/i1.douguo.net\/upload\/caiku\/e\/3\/f\/300_e3f7ea8d571f658a6bc464bdd6de9a9f.jpg",
      "ipurl" : "",
      "dish_count_text" : "",
      "display_ingredient" : 1,
      "su" : "",
      "rpt" : "",
      "title" : "超好吃椰椰桃桃雪媚娘|附自制桃子果酱做法",
      "purl" : "",
      "ipci" : "",
      "pw" : 5379,
      "cookstory" : "夏天的代表性甜品，怎么少得了雪媚娘呢。咬一口外皮糯糯的，内心冰凉丝滑的奶油，加上酸酸甜甜的自制桃子酱，简直不要太好吃！",
      "ssu" : "",
      "tags" : [

      ],
      "share_info" : {
        "name" : "超好吃椰椰桃桃雪媚娘|附自制桃子果酱做法-会做饭很酷!",
        "mini_program" : [

        ],
        "infos" : [
          {
            "s_u" : "",
            "name" : "超好吃椰椰桃桃雪媚娘|附自制桃子果酱做法-会做饭很酷!",
            "object_id" : "3264261",
            "mini_program" : [

            ],
            "s_d" : "#学做饭用豆果美食# 会做饭好酷啊！我在@豆果美食 分享了【超好吃椰椰桃桃雪媚娘|附自制桃子果酱做法-会做饭很酷!】，今天也是厨艺满满的一天呢，快来和我一起学做美食吧！查看图片了解菜谱（更多美食秘籍点击https:\/\/m.weibo.cn\/p\/100404i33631获取）",
            "channel" : "1",
            "image" : "https:\/\/cp1.douguo.com\/upload\/caiku\/e\/3\/f\/e3f7ea8d571f658a6bc464bdd6de9a9f.jpg",
            "qr_image" : ""
          },
          {
            "image" : "https:\/\/cp1.douguo.com\/upload\/caiku\/e\/3\/f\/e3f7ea8d571f658a6bc464bdd6de9a9f.jpg",
            "object_id" : "3264261",
            "channel" : "7",
            "name" : "超好吃椰椰桃桃雪媚娘|附自制桃子果酱做法-会做饭很酷!",
            "s_u" : "http:\/\/m.douguo.com\/cookbook\/3264261.html",
            "mini_program" : [

            ],
            "s_d" : "超好吃椰椰桃桃雪媚娘|附自制桃子果酱做法-会做饭很酷!",
            "qr_image" : ""
          },
          {
            "image" : "https:\/\/cp1.douguo.com\/upload\/caiku\/e\/3\/f\/e3f7ea8d571f658a6bc464bdd6de9a9f.jpg",
            "qr_image" : "",
            "name" : "超好吃椰椰桃桃雪媚娘|附自制桃子果酱做法-会做饭很酷!",
            "s_d" : "超好吃椰椰桃桃雪媚娘|附自制桃子果酱做法-会做饭很酷!",
            "mini_program" : [

            ],
            "object_id" : "3264261",
            "s_u" : "http:\/\/m.douguo.com\/cookbook\/3264261.html",
            "channel" : "8"
          }
        ],
        "s_d" : "超好吃椰椰桃桃雪媚娘|附自制桃子果酱做法-会做饭很酷!",
        "qr_image" : "",
        "image" : "https:\/\/cp1.douguo.com\/upload\/caiku\/e\/3\/f\/e3f7ea8d571f658a6bc464bdd6de9a9f.jpg",
        "s_u" : "http:\/\/m.douguo.com\/cookbook\/3264261.html",
        "object_id" : "3264261"
      },
      "bs" : [

      ],
      "author_photo" : "http:\/\/tx1.douguo.net\/upload\/photo\/a\/e\/2\/70_ae0ddac49b37cb5798564f2af7bebaa2.jpeg",
      "author_verified" : 1,
      "rdsps" : [

      ],
      "thumb_path" : "https:\/\/i1.douguo.com\/upload\/caiku\/e\/3\/f\/300_e3f7ea8d571f658a6bc464bdd6de9a9f.jpg",
      "v_u" : "",
      "hqu" : "recipes:\/\/www.douguo.com\/notedetail?id=21162253",
      "rewarded_video_dsp" : [

      ],
      "hq" : 1,
      "cook_time_image" : "https:\/\/i1.douguo.com\/upload\/banner\/1551424341.png",
      "vu" : "",
      "rcs" : [

      ],
      "cook_difficulty" : "切墩(初级)",
      "notes" : [

      ],
      "vc" : "18701",
      "views_count_text" : "1.9万",
      "recommend_label" : "1.9万人看过",
      "dishes" : [

      ],
      "sc" : 0,
      "clicks" : "1",
      "cook_difficulty_image" : "https:\/\/i1.douguo.com\/upload\/banner\/1551424390.png",
      "ph" : 3586,
      "release_time" : "",
      "user" : {
        "user_cover" : "",
        "verified_url" : "https:\/\/m.douguo.com\/user\/prodesc",
        "following_count" : 0,
        "mobile" : "",
        "user_large_photo" : "http:\/\/tx1.douguo.net\/upload\/photo\/a\/e\/2\/yuan_ae0ddac49b37cb5798564f2af7bebaa2.jpeg",
        "followers_count" : 0,
        "setted_email" : 0,
        "subscription_article_count" : 0,
        "favorites_count" : 0,
        "favor_diaries_count" : 0,
        "nick" : "马琳malin",
        "age" : "",
        "recipes_count" : 0,
        "birthday" : "",
        "sign" : "",
        "verified" : 1,
        "email" : "",
        "gender" : 2,
        "user_photo" : "http:\/\/tx1.douguo.net\/upload\/photo\/a\/e\/2\/70_ae0ddac49b37cb5798564f2af7bebaa2.jpeg",
        "progress_image" : "",
        "point" : 0,
        "pc" : 0,
        "dishes_count" : 0,
        "location" : 0,
        "diaries_count" : 0,
        "avatar_medium" : "http:\/\/tx1.douguo.net\/upload\/photo\/a\/e\/2\/140_ae0ddac49b37cb5798564f2af7bebaa2.jpeg",
        "is_prime" : 0,
        "introduction" : "",
        "subscription" : 0,
        "lv" : 0,
        "qq_weibo_nick" : "",
        "weibo_nick" : "",
        "regist_time" : "",
        "user_id" : "617941",
        "qzone_nick" : "",
        "lvl" : 6,
        "coursecount" : 0,
        "verified_image" : "https:\/\/i1.douguo.com\/upload\/note\/d\/a\/a\/da84247847aebe48d9dd0fcdac88862a.png",
        "fc" : 0,
        "userid" : "617941"
      },
      "packages_id" : [

      ],
      "cookstorys" : [
        {
          "c" : "夏天的代表性甜品，怎么少得了雪媚娘呢。咬一口外皮糯糯的，内心冰凉丝滑的奶油，加上酸酸甜甜的自制桃子酱，简直不要太好吃！",
          "icon" : "",
          "color" : "",
          "type" : 0,
          "u" : "",
          "id" : 0
        }
      ],
      "ipt" : "",
      "recommended" : 0,
      "cook_time" : "10-30分钟",
      "recipe_tags" : [

      ],
      "create_time" : "2023-07-26 11:38:04",
      "title_ad" : [

      ],
      "rpid" : 0,
      "thumb_height" : 0,
      "cook_id" : "3264261",
      "ss" : [

      ],
      "ipoi" : "",
      "recipe_list_tags" : [
        {
          "background_start_color" : "#F4F5F5",
          "background_border_color" : "",
          "text" : "关注的人",
          "right_image" : "",
          "background_end_color" : "#F4F5F5",
          "jump_url" : "",
          "text_color" : "#141515"
        },
        {
          "background_start_color" : "#F4F5F5",
          "background_border_color" : "",
          "background_end_color" : "#F4F5F5",
          "text_color" : "#141515",
          "right_image" : "",
          "jump_url" : "",
          "text" : "内容详细"
        }
      ],
      "sr" : "",
      "collect_status" : 0,
      "rrpt" : "",
      "dish_count" : 0,
      "recommendation_tag" : "",
      "top_mdsp" : [

      ],
      "minor" : [

      ],
      "cookwares" : [

      ],
      "eu" : "recipes:\/\/www.douguo.com\/postdetail?id=242016",
      "levelid" : 2,
      "ipit" : 0,
      "act_des" : "",
      "comments_count_text" : "",
      "mid_mdsp" : [

      ],
      "old_comments" : [

      ],
      "comments" : [

      ],
      "guide_image" : "",
      "rsm" : "该功能暂停使用",
      "author_id" : 617941,
      "major" : [
        {
          "title" : "雪媚娘皮部分：雪媚娘预拌粉",
          "note" : "100克"
        },
        {
          "title" : "煮完桃子皮的粉色开水",
          "note" : "100克"
        },
        {
          "note" : "15克",
          "title" : "液体椰子油"
        },
        {
          "note" : "100克",
          "title" : "夹心部分：淡奶油"
        },
        {
          "title" : "糖粉",
          "tu" : "https:\/\/m.douguo.com\/ingredients\/糖粉\/detailmaterial",
          "note" : "8克"
        },
        {
          "note" : "适量",
          "title" : "桃子果酱部分：桃子皮"
        },
        {
          "note" : "250克",
          "title" : "桃子丁"
        },
        {
          "title" : "细砂糖",
          "note" : "70克",
          "tu" : "https:\/\/m.douguo.com\/ingredients\/细砂糖\/detailmaterial"
        },
        {
          "tu" : "https:\/\/m.douguo.com\/ingredients\/柠檬汁\/detailmaterial",
          "note" : "10克",
          "title" : "柠檬汁"
        }
      ],
      "photo_path" : "https:\/\/i1.douguo.com\/upload\/caiku\/e\/3\/f\/600_e3f7ea8d571f658a6bc464bdd6de9a9f.jpg",
      "rips" : 0,
      "rate_show" : 0,
      "vfurl" : "",
      "favo_counts_text" : "656",
      "ecs" : 0,
      "rrps" : [

      ],
      "recent_comments" : [

      ],
      "first_level_comment_count" : 0,
      "cookstep" : [
        {
          "content" : "先来做桃子酱：桃子皮放入少许清水中煮出粉红色，捞出桃皮，放入桃丁、细砂糖和柠檬汁继续小火熬煮；",
          "frame" : "-1",
          "image" : "https:\/\/i1.douguo.com\/upload\/caiku\/b\/0\/5\/b01bc2eac6ac304cb23855c336bef315.jpg",
          "image_width" : 4032,
          "image_height" : 3024,
          "position" : 1,
          "thumb" : "https:\/\/i1.douguo.com\/upload\/caiku\/b\/0\/5\/140_b01bc2eac6ac304cb23855c336bef315.jpg"
        },
        {
          "position" : 2,
          "content" : "",
          "frame" : "-1",
          "image" : "https:\/\/i1.douguo.com\/upload\/caiku\/d\/6\/b\/d6361e90321dde3e5b683c5a71f37beb.jpg",
          "thumb" : "https:\/\/i1.douguo.com\/upload\/caiku\/d\/6\/b\/140_d6361e90321dde3e5b683c5a71f37beb.jpg",
          "image_width" : 4032,
          "image_height" : 3024
        },
        {
          "frame" : "-1",
          "content" : "",
          "thumb" : "https:\/\/i1.douguo.com\/upload\/caiku\/b\/4\/a\/140_b4fb52a4fab425fc360e2caa26afea3a.jpg",
          "position" : 3,
          "image_width" : 4032,
          "image" : "https:\/\/i1.douguo.com\/upload\/caiku\/b\/4\/a\/b4fb52a4fab425fc360e2caa26afea3a.jpg",
          "image_height" : 3024
        },
        {
          "image_width" : 4032,
          "frame" : "-1",
          "position" : 4,
          "content" : "直到桃丁变软变透明，汁水收干，放入容器中冷却备用；",
          "image_height" : 3024,
          "image" : "https:\/\/i1.douguo.com\/upload\/caiku\/3\/2\/d\/32b66a1f597c11f462fd726ed4cdd23d.jpg",
          "thumb" : "https:\/\/i1.douguo.com\/upload\/caiku\/3\/2\/d\/140_32b66a1f597c11f462fd726ed4cdd23d.jpg"
        },
        {
          "image_width" : 4032,
          "position" : 5,
          "image" : "https:\/\/i1.douguo.com\/upload\/caiku\/8\/4\/5\/84a369025bf73a8f25f516cd4e32eea5.jpg",
          "content" : "雪媚娘预拌粉和粉色开水拌匀，加入液体椰子油揉到光滑，分成35克一个；",
          "image_height" : 3024,
          "frame" : "-1",
          "thumb" : "https:\/\/i1.douguo.com\/upload\/caiku\/8\/4\/5\/140_84a369025bf73a8f25f516cd4e32eea5.jpg"
        },
        {
          "image_width" : 4032,
          "frame" : "-1",
          "thumb" : "https:\/\/i1.douguo.com\/upload\/caiku\/a\/1\/8\/140_a1d4a8fae831f04175432639e6b0dbc8.jpg",
          "position" : 6,
          "content" : "",
          "image" : "https:\/\/i1.douguo.com\/upload\/caiku\/a\/1\/8\/a1d4a8fae831f04175432639e6b0dbc8.jpg",
          "image_height" : 3024
        },
        {
          "image" : "https:\/\/i1.douguo.com\/upload\/caiku\/9\/8\/c\/98d77678b30aa0f2b7ee272bcbaeeb7c.jpg",
          "thumb" : "https:\/\/i1.douguo.com\/upload\/caiku\/9\/8\/c\/140_98d77678b30aa0f2b7ee272bcbaeeb7c.jpg",
          "image_height" : 3024,
          "position" : 7,
          "frame" : "-1",
          "image_width" : 4032,
          "content" : ""
        },
        {
          "position" : 8,
          "content" : "",
          "thumb" : "https:\/\/i1.douguo.com\/upload\/caiku\/c\/b\/d\/140_cb0651f5cfadb0572b42860b78f76e0d.jpg",
          "image" : "https:\/\/i1.douguo.com\/upload\/caiku\/c\/b\/d\/cb0651f5cfadb0572b42860b78f76e0d.jpg",
          "frame" : "-1",
          "image_width" : 4032,
          "image_height" : 3024
        },
        {
          "position" : 9,
          "image_width" : 4032,
          "content" : "夹心部分的淡奶油加入糖粉打发，装入裱花袋中；",
          "image_height" : 3024,
          "frame" : "-1",
          "image" : "https:\/\/i1.douguo.com\/upload\/caiku\/e\/5\/f\/e50d63869a863159d1895271b9eede6f.jpg",
          "thumb" : "https:\/\/i1.douguo.com\/upload\/caiku\/e\/5\/f\/140_e50d63869a863159d1895271b9eede6f.jpg"
        },
        {
          "image" : "https:\/\/i1.douguo.com\/upload\/caiku\/3\/8\/e\/38a8ce5a81437fcc08266a34bf568fce.jpg",
          "image_width" : 4032,
          "frame" : "-1",
          "image_height" : 3024,
          "position" : 10,
          "thumb" : "https:\/\/i1.douguo.com\/upload\/caiku\/3\/8\/e\/140_38a8ce5a81437fcc08266a34bf568fce.jpg",
          "content" : "把雪媚娘皮擀开，放在蛋挞模上，底部尽量压实，挤入少许淡奶油，放入一些桃子酱，再挤一些淡奶油覆盖，四周拎起来收口捏紧；"
        },
        {
          "image_width" : 4032,
          "frame" : "-1",
          "image" : "https:\/\/i1.douguo.com\/upload\/caiku\/b\/b\/d\/bbb686fc0d8eb0ac69ee94d95211a20d.jpg",
          "content" : "",
          "image_height" : 3024,
          "position" : 11,
          "thumb" : "https:\/\/i1.douguo.com\/upload\/caiku\/b\/b\/d\/140_bbb686fc0d8eb0ac69ee94d95211a20d.jpg"
        },
        {
          "image_height" : 3024,
          "image" : "https:\/\/i1.douguo.com\/upload\/caiku\/7\/3\/9\/738f8da125a412c8b11b1767c6035999.jpg",
          "thumb" : "https:\/\/i1.douguo.com\/upload\/caiku\/7\/3\/9\/140_738f8da125a412c8b11b1767c6035999.jpg",
          "content" : "",
          "position" : 12,
          "frame" : "-1",
          "image_width" : 4032
        },
        {
          "frame" : "-1",
          "image_width" : 4032,
          "image_height" : 3024,
          "content" : "",
          "image" : "https:\/\/i1.douguo.com\/upload\/caiku\/5\/a\/1\/5a6776f161d896022fc775ede65b8271.jpg",
          "thumb" : "https:\/\/i1.douguo.com\/upload\/caiku\/5\/a\/1\/140_5a6776f161d896022fc775ede65b8271.jpg",
          "position" : 13
        },
        {
          "image" : "https:\/\/i1.douguo.com\/upload\/caiku\/f\/2\/6\/f242e4a2c110971caea83f30857c80b6.jpg",
          "frame" : "-1",
          "image_height" : 3024,
          "content" : "",
          "image_width" : 4032,
          "thumb" : "https:\/\/i1.douguo.com\/upload\/caiku\/f\/2\/6\/140_f242e4a2c110971caea83f30857c80b6.jpg",
          "position" : 14
        },
        {
          "content" : "倒扣在手心，底部朝下放入纸杯模中，用刮板按压出桃子的纹路，冷藏片刻口感更好。",
          "image_width" : 4032,
          "image" : "https:\/\/i1.douguo.com\/upload\/caiku\/1\/a\/f\/1aca8d724a08d246c8c3d6bcaf0782af.jpg",
          "thumb" : "https:\/\/i1.douguo.com\/upload\/caiku\/1\/a\/f\/140_1aca8d724a08d246c8c3d6bcaf0782af.jpg",
          "image_height" : 3024,
          "position" : 15,
          "frame" : "-1"
        },
        {
          "image" : "https:\/\/i1.douguo.com\/upload\/caiku\/d\/f\/6\/df45689f03339a21a38ef71bf38ea256.jpg",
          "thumb" : "https:\/\/i1.douguo.com\/upload\/caiku\/d\/f\/6\/140_df45689f03339a21a38ef71bf38ea256.jpg",
          "position" : 16,
          "image_height" : 3024,
          "content" : "",
          "image_width" : 4032,
          "frame" : "-1"
        },
        {
          "content" : "",
          "image_width" : 3189,
          "image_height" : 4250,
          "position" : 17,
          "image" : "https:\/\/i1.douguo.com\/upload\/caiku\/9\/4\/1\/94addc894abc26c6c065efa868bec121.jpg",
          "frame" : "-1",
          "thumb" : "https:\/\/i1.douguo.com\/upload\/caiku\/9\/4\/1\/140_94addc894abc26c6c065efa868bec121.jpg"
        },
        {
          "image" : "https:\/\/i1.douguo.com\/upload\/caiku\/6\/8\/5\/6873bf630d7bc9da3ca7249cb68cefe5.jpg",
          "content" : "",
          "image_width" : 4672,
          "image_height" : 7008,
          "frame" : "-1",
          "thumb" : "https:\/\/i1.douguo.com\/upload\/caiku\/6\/8\/5\/140_6873bf630d7bc9da3ca7249cb68cefe5.jpg",
          "position" : 18
        },
        {
          "image_height" : 6682,
          "image_width" : 4455,
          "thumb" : "https:\/\/i1.douguo.com\/upload\/caiku\/5\/b\/4\/140_5bb2ecf7288becf29a6f158d2d235344.jpg",
          "frame" : "-1",
          "position" : 19,
          "image" : "https:\/\/i1.douguo.com\/upload\/caiku\/5\/b\/4\/5bb2ecf7288becf29a6f158d2d235344.jpg",
          "content" : ""
        },
        {
          "position" : 20,
          "image_width" : 4672,
          "thumb" : "https:\/\/i1.douguo.com\/upload\/caiku\/b\/e\/e\/140_be87b4497eadd01aeed767fa070412ce.jpg",
          "image_height" : 7008,
          "image" : "https:\/\/i1.douguo.com\/upload\/caiku\/b\/e\/e\/be87b4497eadd01aeed767fa070412ce.jpg",
          "content" : "",
          "frame" : "-1"
        }
      ],
      "rate" : 0,
      "original_photo_path" : "http:\/\/i1.douguo.net\/upload\/caiku\/e\/3\/f\/yuan_e3f7ea8d571f658a6bc464bdd6de9a9f.jpg",
      "brand_day_dsp" : [

      ],
      "favo_counts" : 656,
      "author" : "马琳malin",
      "rpst" : ""
    }
  }
}