{
  "status" : 0,
  "result" : {
    "recipe" : {
      "cook_id" : "2290970",
      "author_id" : 22377198,
      "rewarded_video_dsp" : [

      ],
      "vc" : "184825",
      "btm_dsp" : [

      ],
      "ipurl" : "",
      "author" : "孙大爷的小吃部",
      "cookwares" : [

      ],
      "eu" : "recipes:\/\/www.douguo.com\/postdetail?id=242016",
      "tags" : [

      ],
      "levelid" : 2,
      "vu" : "",
      "story_dsp" : [

      ],
      "create_time" : "2019-04-20 16:10:42",
      "release_time" : "",
      "ipt" : "",
      "dish_count_text" : "1",
      "recommend_label" : "1人学做",
      "su" : "",
      "rcs" : [

      ],
      "thumb_path" : "https:\/\/i1.douguo.com\/upload\/caiku\/4\/8\/4\/300_48f42ebbd1ecdff336ef27b17d5560f4.jpg",
      "cook_time" : "30-60分钟",
      "ipit" : 0,
      "original_photo_path" : "http:\/\/i1.douguo.net\/upload\/caiku\/4\/8\/4\/yuan_48f42ebbd1ecdff336ef27b17d5560f4.jpg",
      "author_photo" : "http:\/\/tx1.douguo.net\/upload\/photo\/f\/4\/d\/70_u32023488276410235725.jpeg",
      "rrps" : [

      ],
      "comments_count" : 2,
      "dishes" : [

      ],
      "rate" : 0,
      "title" : "拔丝地瓜￨香甜酥脆",
      "act_des" : "",
      "v_u" : "",
      "vfurl" : "",
      "notes" : [

      ],
      "cookstory" : "今天出差回来，直接去了老爸家蹭饭\r\n\r\n到家发现上小学的小侄女在\r\n\r\n就问她最近怎么样\r\n\r\n她一脸无奈的说，欢乐的时间总是短暂的\r\n\r\n我一脸懵\r\n\r\n后来知道，是暑假要结束了\r\n\r\n我就问他，想吃什么好吃的，我给你做呀\r\n\r\n她说，心里苦，就来盘拔丝地瓜吧\r\n\r\n我二脸懵\r\n\r\n拔丝地瓜，就是那种说起来容易，做起来巨难的菜\r\n\r\n虽然没做过，也只能硬着头皮上了\r\n\r\n绝对不能怂\r\n\r\n做了3次，才有点像样\r\n\r\n做好以后端到小侄女面前\r\n\r\n她吃了一口，开心的笑了\r\n\r\n虽然卖相不是很完美，但是味道应该还不错\r\n\r\n现在就教你们做吃一口就会笑的拔丝地瓜",
      "old_comments" : [

      ],
      "favo_counts_text" : "2935",
      "ipia" : [

      ],
      "rpt" : "",
      "minor" : [

      ],
      "cookstorys" : [
        {
          "color" : "",
          "c" : "今天出差回来，直接去了老爸家蹭饭\r\n\r\n到家发现上小学的小侄女在\r\n\r\n就问她最近怎么样\r\n\r\n她一脸无奈的说，欢乐的时间总是短暂的\r\n\r\n我一脸懵\r\n\r\n后来知道，是暑假要结束了\r\n\r\n我就问他，想吃什么好吃的，我给你做呀\r\n\r\n她说，心里苦，就来盘拔丝地瓜吧\r\n\r\n我二脸懵\r\n\r\n拔丝地瓜，就是那种说起来容易，做起来巨难的菜\r\n\r\n虽然没做过，也只能硬着头皮上了\r\n\r\n绝对不能怂\r\n\r\n做了3次，才有点像样\r\n\r\n做好以后端到小侄女面前\r\n\r\n她吃了一口，开心的笑了\r\n\r\n虽然卖相不是很完美，但是味道应该还不错\r\n\r\n现在就教你们做吃一口就会笑的拔丝地瓜",
          "icon" : "",
          "id" : 0,
          "type" : 0,
          "u" : ""
        }
      ],
      "rate_show" : 0,
      "pw" : 1280,
      "rpid" : 0,
      "author_verified" : 1,
      "display_ingredient" : 1,
      "bs" : [

      ],
      "comments_count_text" : "2",
      "related_ads" : [

      ],
      "rsm" : "该功能暂停使用",
      "clicks" : "181826",
      "views_count_text" : "18.5万",
      "favo_counts" : 2935,
      "image" : "http:\/\/i1.douguo.net\/upload\/caiku\/4\/8\/4\/300_48f42ebbd1ecdff336ef27b17d5560f4.jpg",
      "guide_image" : "",
      "user" : {
        "weibo_nick" : "",
        "recipes_count" : 0,
        "lv" : 0,
        "favorites_count" : 0,
        "subscription_article_count" : 0,
        "coursecount" : 0,
        "mobile" : "",
        "following_count" : 0,
        "qq_weibo_nick" : "",
        "fc" : 0,
        "verified" : 1,
        "pc" : 0,
        "progress_image" : "",
        "age" : "",
        "introduction" : "",
        "birthday" : "",
        "user_photo" : "http:\/\/tx1.douguo.net\/upload\/photo\/f\/4\/d\/70_u32023488276410235725.jpeg",
        "verified_url" : "https:\/\/m.douguo.com\/user\/prodesc",
        "email" : "",
        "user_id" : "22377198",
        "dishes_count" : 0,
        "sign" : "",
        "qzone_nick" : "",
        "nick" : "孙大爷的小吃部",
        "location" : 0,
        "is_prime" : 0,
        "user_large_photo" : "http:\/\/tx1.douguo.net\/upload\/photo\/f\/4\/d\/yuan_u32023488276410235725.jpeg",
        "point" : 0,
        "gender" : 1,
        "avatar_medium" : "http:\/\/tx1.douguo.net\/upload\/photo\/f\/4\/d\/140_u32023488276410235725.jpeg",
        "favor_diaries_count" : 0,
        "verified_image" : "https:\/\/i1.douguo.com\/upload\/note\/d\/a\/a\/da84247847aebe48d9dd0fcdac88862a.png",
        "regist_time" : "",
        "user_cover" : "",
        "lvl" : 6,
        "subscription" : 0,
        "followers_count" : 0,
        "diaries_count" : 0,
        "setted_email" : 0,
        "userid" : "22377198"
      },
      "title_ad" : [

      ],
      "thumb_height" : 0,
      "cook_difficulty" : "掌勺(高级)",
      "ssu" : "",
      "sc" : 0,
      "dish_count" : 1,
      "mid_mdsp" : [

      ],
      "recommended" : 0,
      "photo_path" : "https:\/\/i1.douguo.com\/upload\/caiku\/4\/8\/4\/600_48f42ebbd1ecdff336ef27b17d5560f4.jpg",
      "top_mdsp" : [

      ],
      "rpst" : "",
      "brand_day_dsp" : [

      ],
      "advice" : {
        "has" : [
          {
            "url" : "recipes:\/\/www.douguo.com\/simplerecipelist?t=低脂&id=低脂",
            "t" : "低脂"
          },
          {
            "url" : "recipes:\/\/www.douguo.com\/simplerecipelist?t=低盐&id=低盐",
            "t" : "低盐"
          }
        ],
        "at" : "能有效控制体重～",
        "da" : {
          "iu" : "https:\/\/i1.douguo.com\/upload\/banner\/f\/4\/d\/f48877e53c37759bc12ac494be82ec8d.png",
          "url" : "https:\/\/m.douguo.com\/recipe\/nutrient_self\/2290970",
          "t" : "查看详细分析"
        }
      },
      "ph" : 853,
      "ss" : [

      ],
      "ipoi" : "",
      "recent_comments" : [

      ],
      "ipci" : "",
      "share_info" : {
        "image" : "https:\/\/cp1.douguo.com\/upload\/caiku\/4\/8\/4\/48f42ebbd1ecdff336ef27b17d5560f4.jpg",
        "object_id" : "2290970",
        "qr_image" : "",
        "mini_program" : [

        ],
        "infos" : [
          {
            "s_u" : "",
            "channel" : "1",
            "name" : "拔丝地瓜￨香甜酥脆-会做饭很酷!",
            "mini_program" : [

            ],
            "image" : "https:\/\/cp1.douguo.com\/upload\/caiku\/4\/8\/4\/48f42ebbd1ecdff336ef27b17d5560f4.jpg",
            "object_id" : "2290970",
            "qr_image" : "",
            "s_d" : "#学做饭用豆果美食# 会做饭真是太酷了！我在@豆果美食 分享了【拔丝地瓜￨香甜酥脆-会做饭很酷!】，看着是不是馋到不行呢～快来跟我学学吧！查看图片了解菜谱，（想要获取更多美食就看这https:\/\/m.weibo.cn\/p\/100404i33631）"
          },
          {
            "mini_program" : [

            ],
            "s_d" : "拔丝地瓜￨香甜酥脆-会做饭很酷!",
            "object_id" : "2290970",
            "channel" : "7",
            "qr_image" : "",
            "image" : "https:\/\/cp1.douguo.com\/upload\/caiku\/4\/8\/4\/48f42ebbd1ecdff336ef27b17d5560f4.jpg",
            "s_u" : "http:\/\/m.douguo.com\/cookbook\/2290970.html",
            "name" : "拔丝地瓜￨香甜酥脆-会做饭很酷!"
          },
          {
            "s_u" : "http:\/\/m.douguo.com\/cookbook\/2290970.html",
            "s_d" : "拔丝地瓜￨香甜酥脆-会做饭很酷!",
            "qr_image" : "",
            "object_id" : "2290970",
            "name" : "拔丝地瓜￨香甜酥脆-会做饭很酷!",
            "channel" : "8",
            "image" : "https:\/\/cp1.douguo.com\/upload\/caiku\/4\/8\/4\/48f42ebbd1ecdff336ef27b17d5560f4.jpg",
            "mini_program" : [

            ]
          }
        ],
        "s_u" : "http:\/\/m.douguo.com\/cookbook\/2290970.html",
        "name" : "拔丝地瓜￨香甜酥脆-会做饭很酷!",
        "s_d" : "拔丝地瓜￨香甜酥脆-会做饭很酷!"
      },
      "tips" : "1、炸地瓜油温不要太高，不然地瓜就会外面炸焦了，里面还没熟\n2、炒糖色的时候要耐心，炒成深红色马上下地瓜\n3、盘子抹香油是为了防止地瓜粘在盘子上\n4、这道菜还是有一定难度的，拔不出来丝很正常，我做了3次才成功，还是在有老爸帮忙的情况下，主要是把地瓜放入糖中的时机，多做几次就可以掌握啦",
      "cook_time_image" : "https:\/\/i1.douguo.com\/upload\/banner\/1551424318.png",
      "packages_id" : [

      ],
      "recipe_list_tags" : [
        {
          "background_border_color" : "",
          "text_color" : "#141515",
          "background_end_color" : "#F4F5F5",
          "text" : "关注的人",
          "background_start_color" : "#F4F5F5",
          "right_image" : "",
          "jump_url" : ""
        },
        {
          "text" : "内容详细",
          "jump_url" : "",
          "right_image" : "",
          "background_end_color" : "#F4F5F5",
          "text_color" : "#141515",
          "background_start_color" : "#F4F5F5",
          "background_border_color" : ""
        }
      ],
      "major" : [
        {
          "title" : "地瓜",
          "note" : "500g"
        },
        {
          "tu" : "https:\/\/m.douguo.com\/ingredients\/白糖\/detailmaterial",
          "title" : "白糖",
          "note" : "200g"
        }
      ],
      "rrpt" : "",
      "hq" : 1,
      "rdsps" : [

      ],
      "rips" : 0,
      "rate_count" : 0,
      "sr" : "",
      "recipe_tags" : [

      ],
      "comments" : [
        "{\n    ac = \"#999999\";\n    at = \"\";\n    ccc = 0;\n    \"child_comments\" =     (\n    );\n    city = \"\";\n    cmc = 2;\n    content =     (\n                {\n            c = \"\\U60f3\\U5403\\Uff0c\\U6d41\\U53e3\\U6c34\\U4e86\\Ud83c\\Udf39\";\n        }\n    );\n    ia = 0;\n    id = 6828376;\n    \"ip_address_location\" = \"\";\n    like = 0;\n    \"like_count\" = 0;\n    \"reply_id\" = 0;\n    \"sticker_icon\" =     (\n    );\n    time = \"2019-07-27 18:27:55\";\n    u =     {\n        \"followers_count_text\" = \"\";\n        id = 21477499;\n        \"is_prime\" = 0;\n        lv = 0;\n        lvl = 6;\n        n = \"\\U6d45\\U82e5\\U5982\\U521dYing\";\n        p = \"http:\/\/tx1.douguo.net\/upload\/photo\/2\/d\/3\/70_u15030664564483122341.jpg\";\n        \"progress_image\" = \"\";\n        \"recipes_count_text\" = \"\";\n        relationship = \"-1\";\n        title = \"\";\n        v = 0;\n        \"verified_image\" = \"\";\n    };\n}",
        "{\n    ac = \"#999999\";\n    at = \"\";\n    ccc = 0;\n    \"child_comments\" =     (\n    );\n    city = \"\";\n    cmc = 2;\n    content =     (\n                {\n            c = \"\\U7cd6\\U548c\\U6c34\\U662f\\U548c\\U597d\\U7684\\U8fd8\\U662f\\U600e\\U6837\\U7684\";\n        }\n    );\n    ia = 0;\n    id = 6541844;\n    \"ip_address_location\" = \"\";\n    like = 0;\n    \"like_count\" = 0;\n    \"reply_id\" = 0;\n    \"sticker_icon\" =     (\n    );\n    time = \"2019-04-23 08:12:12\";\n    u =     {\n        \"followers_count_text\" = \"\";\n        id = 18467691;\n        \"is_prime\" = 0;\n        lv = 0;\n        lvl = 3;\n        n = milliesmile;\n        p = \"http:\/\/tx1.douguo.net\/upload\/photo\/e\/e\/c\/70_u12551639926050408142213.jpg\";\n        \"progress_image\" = \"\";\n        \"recipes_count_text\" = \"\";\n        relationship = \"-1\";\n        title = \"\";\n        v = 0;\n        \"verified_image\" = \"\";\n    };\n}"
      ],
      "ecs" : 0,
      "purl" : "",
      "first_level_comment_count" : 2,
      "recommendation_tag" : "",
      "collect_status" : 0,
      "hqu" : "recipes:\/\/www.douguo.com\/notedetail?id=21162253",
      "cook_difficulty_image" : "https:\/\/i1.douguo.com\/upload\/banner\/1551424430.png",
      "cookstep" : [
        {
          "image" : "https:\/\/i1.douguo.com\/upload\/caiku\/0\/d\/e\/0d6eeae410ec16dfa70ac80d7b8b760e.jpg",
          "thumb" : "https:\/\/i1.douguo.com\/upload\/caiku\/0\/d\/e\/140_0d6eeae410ec16dfa70ac80d7b8b760e.jpg",
          "image_width" : 1280,
          "position" : 1,
          "image_height" : 853,
          "frame" : "-1",
          "content" : "地瓜去皮切滚刀大块，再准备一个空盘子抹一层香油备用"
        },
        {
          "position" : 2,
          "thumb" : "https:\/\/i1.douguo.com\/upload\/caiku\/0\/8\/7\/140_084b4cd377a34b92cf7355868818a707.jpg",
          "image" : "https:\/\/i1.douguo.com\/upload\/caiku\/0\/8\/7\/084b4cd377a34b92cf7355868818a707.jpg",
          "image_height" : 853,
          "image_width" : 1280,
          "frame" : "-1",
          "content" : "锅中加入足量的油，烧至五成热，放入地瓜块炸至表面金黄发硬，内部有点软的状态后，控油捞出（先放一个地瓜块，试一下油温，缓缓冒泡的状态就可以了，全程保持中火，不要油温太好，大约炸了5分钟）"
        },
        {
          "thumb" : "https:\/\/i1.douguo.com\/upload\/caiku\/6\/f\/3\/140_6fd4da5e2e200bd8123793e8e6f7a8e3.jpg",
          "position" : 3,
          "frame" : "-1",
          "content" : "锅中留一点点油，开小火，把糖加入锅中，不停的搅拌，直至融化",
          "image_width" : 1280,
          "image_height" : 853,
          "image" : "https:\/\/i1.douguo.com\/upload\/caiku\/6\/f\/3\/6fd4da5e2e200bd8123793e8e6f7a8e3.jpg"
        },
        {
          "thumb" : "https:\/\/i1.douguo.com\/upload\/caiku\/0\/5\/a\/140_050705c5e06696b2c1b172e91c4e977a.jpg",
          "image_width" : 1280,
          "content" : "当糖熬制深红色时，加入炸好的地瓜块，迅速搅拌均匀后盛入开始准备的盘子中",
          "image" : "https:\/\/i1.douguo.com\/upload\/caiku\/0\/5\/a\/050705c5e06696b2c1b172e91c4e977a.jpg",
          "frame" : "-1",
          "image_height" : 853,
          "position" : 4
        },
        {
          "image_width" : 1280,
          "position" : 5,
          "image" : "https:\/\/i1.douguo.com\/upload\/caiku\/c\/8\/0\/c86e5c9ee71c651e8562740a86031700.jpg",
          "thumb" : "https:\/\/i1.douguo.com\/upload\/caiku\/c\/8\/0\/140_c86e5c9ee71c651e8562740a86031700.jpg",
          "content" : "开始拔丝，这一步就自行操作吧，实在来不及拍照，要快，凉了就拔不出来丝了",
          "frame" : "-1",
          "image_height" : 853
        },
        {
          "image_width" : 1280,
          "image_height" : 853,
          "frame" : "-1",
          "position" : 6,
          "thumb" : "https:\/\/i1.douguo.com\/upload\/caiku\/c\/e\/a\/140_cec62c7a5e9bb89b289147be0380711a.jpg",
          "content" : "出锅，完成",
          "image" : "https:\/\/i1.douguo.com\/upload\/caiku\/c\/e\/a\/cec62c7a5e9bb89b289147be0380711a.jpg"
        }
      ]
    }
  },
  "state" : "success"
}