{
  "state" : "success",
  "status" : 0,
  "result" : {
    "recipe" : {
      "original_photo_path" : "http:\/\/i1.douguo.net\/upload\/caiku\/1\/f\/f\/yuan_1f081d5ff19e0bdd21523ef7505db85f.jpg",
      "purl" : "",
      "author_photo" : "http:\/\/tx1.douguo.net\/upload\/photo\/5\/3\/7\/70_536433286a7f13f9a28f9a548644ee57.jpg",
      "rate" : 0,
      "rcs" : [

      ],
      "vu" : "",
      "mid_mdsp" : [

      ],
      "comments_count" : 2,
      "related_ads" : [

      ],
      "ipt" : "",
      "thumb_path" : "https:\/\/i1.douguo.com\/upload\/caiku\/1\/f\/f\/300_1f081d5ff19e0bdd21523ef7505db85f.jpg",
      "create_time" : "2021-09-12 08:04:43",
      "sr" : "",
      "favo_counts" : 4449,
      "rsm" : "该功能暂停使用",
      "author_verified" : 1,
      "sc" : 0,
      "cookwares" : [

      ],
      "release_time" : "",
      "vc" : "149808",
      "rrps" : [

      ],
      "brand_day_dsp" : [

      ],
      "rips" : 0,
      "rate_show" : 0,
      "ecs" : 1,
      "photo_path" : "https:\/\/i1.douguo.com\/upload\/caiku\/1\/f\/f\/600_1f081d5ff19e0bdd21523ef7505db85f.jpg",
      "comments_count_text" : "2",
      "first_level_comment_count" : 2,
      "cook_difficulty" : "",
      "recent_comments" : [

      ],
      "cook_id" : "3129512",
      "rdsps" : [

      ],
      "cookstory" : "第二次做泡芙，却是第一次认真做，感想是想做好泡芙真的不容易，不过自己做真的好吃。因为用的是安佳黄油和奶油，吃着更安心。原配方是12个，我本来想做成两倍大的，最后完成时竟只做出四个来，注入卡仕达奶油馅料后一个个跟馒头似的，吃起来真是过瘾。",
      "dish_count_text" : "",
      "rrpt" : "",
      "dish_count" : 0,
      "ph" : 960,
      "image" : "http:\/\/i1.douguo.net\/upload\/caiku\/1\/f\/f\/300_1f081d5ff19e0bdd21523ef7505db85f.jpg",
      "ss" : [

      ],
      "su" : "",
      "recommend_label" : "4449人刚刚收藏过",
      "hq" : 1,
      "pw" : 1280,
      "display_ingredient" : 1,
      "rpst" : "",
      "cook_time" : "1小时以上",
      "recommended" : 0,
      "levelid" : 2,
      "bs" : [

      ],
      "notes" : [

      ],
      "share_info" : {
        "mini_program" : [

        ],
        "name" : "馒头大的酥皮泡芙-会做饭很酷!",
        "s_d" : "馒头大的酥皮泡芙-会做饭很酷!",
        "s_u" : "http:\/\/m.douguo.com\/cookbook\/3129512.html",
        "object_id" : "3129512",
        "infos" : [
          {
            "s_d" : "#学做饭用豆果美食# 会做饭真是太酷了！我在@豆果美食 分享了【馒头大的酥皮泡芙-会做饭很酷!】，这道菜真的神仙美味！喜欢的一定要试试绝对不会错的！～查看图片了解菜谱（快来点击https:\/\/m.weibo.cn\/p\/100404i33631和我一起修炼厨艺吧）",
            "image" : "https:\/\/cp1.douguo.com\/upload\/caiku\/1\/f\/f\/1f081d5ff19e0bdd21523ef7505db85f.jpg",
            "channel" : "1",
            "s_u" : "",
            "object_id" : "3129512",
            "qr_image" : "",
            "mini_program" : [

            ],
            "name" : "馒头大的酥皮泡芙-会做饭很酷!"
          },
          {
            "s_u" : "http:\/\/m.douguo.com\/cookbook\/3129512.html",
            "channel" : "7",
            "s_d" : "馒头大的酥皮泡芙-会做饭很酷!",
            "name" : "馒头大的酥皮泡芙-会做饭很酷!",
            "image" : "https:\/\/cp1.douguo.com\/upload\/caiku\/1\/f\/f\/1f081d5ff19e0bdd21523ef7505db85f.jpg",
            "qr_image" : "",
            "object_id" : "3129512",
            "mini_program" : [

            ]
          },
          {
            "s_u" : "http:\/\/m.douguo.com\/cookbook\/3129512.html",
            "s_d" : "馒头大的酥皮泡芙-会做饭很酷!",
            "qr_image" : "",
            "mini_program" : [

            ],
            "name" : "馒头大的酥皮泡芙-会做饭很酷!",
            "image" : "https:\/\/cp1.douguo.com\/upload\/caiku\/1\/f\/f\/1f081d5ff19e0bdd21523ef7505db85f.jpg",
            "object_id" : "3129512",
            "channel" : "8"
          }
        ],
        "qr_image" : "",
        "image" : "https:\/\/cp1.douguo.com\/upload\/caiku\/1\/f\/f\/1f081d5ff19e0bdd21523ef7505db85f.jpg"
      },
      "tags" : [

      ],
      "advice" : {
        "da" : {
          "t" : "查看详细分析",
          "iu" : "https:\/\/i1.douguo.com\/upload\/banner\/f\/4\/d\/f48877e53c37759bc12ac494be82ec8d.png",
          "url" : "https:\/\/m.douguo.com\/recipe\/nutrient_self\/3129512"
        },
        "at" : "盐摄入过高有害健康～",
        "has" : [
          {
            "t" : "低盐",
            "url" : "recipes:\/\/www.douguo.com\/simplerecipelist?t=低盐&id=低盐"
          }
        ]
      },
      "minor" : [

      ],
      "rpid" : 0,
      "ssu" : "",
      "recommendation_tag" : "",
      "event" : {
        "id" : 3243,
        "url" : "https:\/\/m.douguo.com\/activity\/ncpzj\/detail\/3243?isapp=1&open=0&_vs=1000300&&dg_refreshkey=publishnote",
        "name" : "2021中国家庭烘焙料理大赛-亲子烘焙组"
      },
      "old_comments" : [

      ],
      "author_id" : 25224522,
      "views_count_text" : "15.0万",
      "title_ad" : [

      ],
      "act_des" : "",
      "cookstep" : [
        {
          "content" : "卡仕达奶油酱需冷藏才更好吃，所以我最先做卡仕达酱。蛋黄，糖和淀粉搅匀。",
          "frame" : "-1",
          "thumb" : "https:\/\/i1.douguo.com\/upload\/caiku\/e\/b\/0\/140_ebd23a90437b8b4e93deb476c7fea9f0.jpg",
          "image" : "https:\/\/i1.douguo.com\/upload\/caiku\/e\/b\/0\/ebd23a90437b8b4e93deb476c7fea9f0.jpg",
          "image_height" : 1707,
          "position" : 1,
          "image_width" : 1280
        },
        {
          "content" : "牛奶小火煮沸放入香草精搅匀",
          "image_height" : 1707,
          "image" : "https:\/\/i1.douguo.com\/upload\/caiku\/5\/0\/0\/50835d223e8a32abaa01a32e897004f0.jpg",
          "image_width" : 1280,
          "thumb" : "https:\/\/i1.douguo.com\/upload\/caiku\/5\/0\/0\/140_50835d223e8a32abaa01a32e897004f0.jpg",
          "position" : 2,
          "frame" : "-1"
        },
        {
          "image_width" : 1280,
          "content" : "少量多次加入蛋黄糊里，每次都要完全搅匀后再加牛奶，直到蛋黄糊温度升高确保牛奶都倒上也不会烫熟蛋黄时再一次性加入，完全搅匀后再次小火加热不停搅拌，直至变成酱，关火放入黄油搅匀。",
          "image_height" : 960,
          "image" : "https:\/\/i1.douguo.com\/upload\/caiku\/a\/0\/f\/a0e412ad04a99d8cd09717a1e2f66acf.jpg",
          "frame" : "-1",
          "position" : 3,
          "thumb" : "https:\/\/i1.douguo.com\/upload\/caiku\/a\/0\/f\/140_a0e412ad04a99d8cd09717a1e2f66acf.jpg"
        },
        {
          "image_height" : 960,
          "image_width" : 1280,
          "thumb" : "https:\/\/i1.douguo.com\/upload\/caiku\/4\/e\/d\/140_4e69240872f58b9287adc83cd864c5cd.jpg",
          "content" : "盛出密封放入冰箱冷藏",
          "image" : "https:\/\/i1.douguo.com\/upload\/caiku\/4\/e\/d\/4e69240872f58b9287adc83cd864c5cd.jpg",
          "position" : 4,
          "frame" : "-1"
        },
        {
          "image" : "https:\/\/i1.douguo.com\/upload\/caiku\/d\/4\/e\/d419ab67dc493c06ead604b6573df53e.jpg",
          "frame" : "-1",
          "position" : 5,
          "image_width" : 1280,
          "content" : "做酥皮：黄油软化后和其他材料混合拌匀",
          "thumb" : "https:\/\/i1.douguo.com\/upload\/caiku\/d\/4\/e\/140_d419ab67dc493c06ead604b6573df53e.jpg",
          "image_height" : 1707
        },
        {
          "content" : "放在油纸上",
          "frame" : "-1",
          "image" : "https:\/\/i1.douguo.com\/upload\/caiku\/4\/b\/f\/4bd3686484967467defbf964a63f41af.jpg",
          "thumb" : "https:\/\/i1.douguo.com\/upload\/caiku\/4\/b\/f\/140_4bd3686484967467defbf964a63f41af.jpg",
          "position" : 6,
          "image_width" : 1280,
          "image_height" : 1707
        },
        {
          "position" : 7,
          "frame" : "-1",
          "image_height" : 960,
          "image_width" : 1280,
          "content" : "油纸对折用擀面杖擀成1—2毫米厚的薄片，放冰箱冷冻，酥皮过厚影响泡芙鼓起还容易掉渣。",
          "thumb" : "https:\/\/i1.douguo.com\/upload\/caiku\/c\/2\/c\/140_c2488a710d2fd275c0d9152b98bd90dc.jpg",
          "image" : "https:\/\/i1.douguo.com\/upload\/caiku\/c\/2\/c\/c2488a710d2fd275c0d9152b98bd90dc.jpg"
        },
        {
          "image_height" : 1707,
          "frame" : "-1",
          "image" : "https:\/\/i1.douguo.com\/upload\/caiku\/5\/1\/3\/51332302ae142008550980cdaa997b03.jpg",
          "position" : 8,
          "content" : "泡芙糊部分：除面粉鸡蛋外把其余材料都放进锅里，小火搅拌，牛奶沸腾后关火，筛入低筋面粉快速搅拌均匀，放至60度左右，打好蛋液，多次加入，每次都要搅匀再加，鸡蛋液不用都加上，面糊搅到提起来有光滑的尖就可以了。",
          "thumb" : "https:\/\/i1.douguo.com\/upload\/caiku\/5\/1\/3\/140_51332302ae142008550980cdaa997b03.jpg",
          "image_width" : 1280
        },
        {
          "image" : "https:\/\/i1.douguo.com\/upload\/caiku\/0\/0\/2\/0001c92b10dfda344a5c4641cef75c42.jpg",
          "content" : "搅好的面糊最好拿到冰箱里冷藏几个小时，拿出来回温一个小时，嫌麻烦也可以省略这一步，直接刮到 裱花袋里。",
          "frame" : "-1",
          "image_height" : 960,
          "image_width" : 1280,
          "thumb" : "https:\/\/i1.douguo.com\/upload\/caiku\/0\/0\/2\/140_0001c92b10dfda344a5c4641cef75c42.jpg",
          "position" : 9
        },
        {
          "image_width" : 1280,
          "position" : 10,
          "image_height" : 960,
          "frame" : "-1",
          "image" : "https:\/\/i1.douguo.com\/upload\/caiku\/7\/a\/7\/7a4ae91341d61f7baa7b7704cbe22f47.jpg",
          "content" : "一勺面粉半勺可可粉三勺水调个面糊",
          "thumb" : "https:\/\/i1.douguo.com\/upload\/caiku\/7\/a\/7\/140_7a4ae91341d61f7baa7b7704cbe22f47.jpg"
        },
        {
          "frame" : "-1",
          "image" : "https:\/\/i1.douguo.com\/upload\/caiku\/6\/5\/f\/65d7e91d577fd067b436fbcbd3d1a3af.jpg",
          "image_height" : 1707,
          "content" : "用一个直径7厘米左右的杯子蘸一下",
          "image_width" : 1280,
          "thumb" : "https:\/\/i1.douguo.com\/upload\/caiku\/6\/5\/f\/140_65d7e91d577fd067b436fbcbd3d1a3af.jpg",
          "position" : 11
        },
        {
          "content" : "在油纸上印上印记，一会儿可以按照这个圈的大小挤泡芙糊",
          "image" : "https:\/\/i1.douguo.com\/upload\/caiku\/d\/d\/7\/dd286528213aa6603f2fd741be677457.jpg",
          "image_height" : 960,
          "thumb" : "https:\/\/i1.douguo.com\/upload\/caiku\/d\/d\/7\/140_dd286528213aa6603f2fd741be677457.jpg",
          "image_width" : 1280,
          "frame" : "-1",
          "position" : 12
        },
        {
          "content" : "拿出冷冻好的酥皮，用刚才的杯子压出同样大小的圆形",
          "image_width" : 1280,
          "frame" : "-1",
          "position" : 13,
          "image_height" : 960,
          "image" : "https:\/\/i1.douguo.com\/upload\/caiku\/3\/e\/8\/3e7c1829b0fd52556b2ae68a3567c848.jpg",
          "thumb" : "https:\/\/i1.douguo.com\/upload\/caiku\/3\/e\/8\/140_3e7c1829b0fd52556b2ae68a3567c848.jpg"
        },
        {
          "image_width" : 1280,
          "thumb" : "https:\/\/i1.douguo.com\/upload\/caiku\/6\/2\/a\/140_620ab6d6bba7dccc048e4872514fb31a.jpg",
          "position" : 14,
          "image" : "https:\/\/i1.douguo.com\/upload\/caiku\/6\/2\/a\/620ab6d6bba7dccc048e4872514fb31a.jpg",
          "frame" : "-1",
          "content" : "轻轻盖在挤好的泡芙糊上",
          "image_height" : 960
        },
        {
          "content" : "烤箱预热200度，中下层上火190度，下火180度先烤22分钟。如果不能调上下火，就中层190度烤20分钟。22分钟泡芙烤定型了，上火调到175度，下火155度再烤十二分钟，如果温度不能马上降下来可以先把烤箱门开点缝帮助降温，时间不用长，30秒就好。最后温度调到150度再烤15分钟就可以了。",
          "image_height" : 605,
          "frame" : "-1",
          "position" : 15,
          "image" : "https:\/\/i1.douguo.com\/upload\/caiku\/e\/0\/1\/e001f1f3575464a86e8d38e0d1b3c991.jpg",
          "image_width" : 1280,
          "thumb" : "https:\/\/i1.douguo.com\/upload\/caiku\/e\/0\/1\/140_e001f1f3575464a86e8d38e0d1b3c991.jpg"
        },
        {
          "image_width" : 1280,
          "image" : "https:\/\/i1.douguo.com\/upload\/caiku\/f\/1\/e\/f1ffd6c582fadbcbbae1171ca9350dce.jpg",
          "position" : 16,
          "thumb" : "https:\/\/i1.douguo.com\/upload\/caiku\/f\/1\/e\/140_f1ffd6c582fadbcbbae1171ca9350dce.jpg",
          "image_height" : 960,
          "frame" : "-1",
          "content" : "这是我烤好的，有两个温度第二次降下来稍微塌陷的，但是里面是空的，这是正常现象，不影响口感。拿到晾网上晾凉。"
        },
        {
          "image_width" : 1280,
          "image" : "https:\/\/i1.douguo.com\/upload\/caiku\/7\/c\/a\/7cdead3277bc92dc6b256618a4be790a.jpg",
          "position" : 17,
          "image_height" : 960,
          "frame" : "-1",
          "thumb" : "https:\/\/i1.douguo.com\/upload\/caiku\/7\/c\/a\/140_7cdead3277bc92dc6b256618a4be790a.jpg",
          "content" : "奶油打发完全加入冷藏好的卡仕达酱拌匀。奶油需要完全打发拌上卡仕达酱才不会太稀。"
        },
        {
          "position" : 18,
          "image" : "https:\/\/i1.douguo.com\/upload\/caiku\/6\/2\/5\/6286abd9e2aeeb25ebd8150f2c2c1775.jpg",
          "frame" : "-1",
          "thumb" : "https:\/\/i1.douguo.com\/upload\/caiku\/6\/2\/5\/140_6286abd9e2aeeb25ebd8150f2c2c1775.jpg",
          "content" : "晾凉的泡芙底部用筷子戳洞",
          "image_width" : 1280,
          "image_height" : 960
        },
        {
          "image_width" : 1280,
          "content" : "注入馅料，不要心疼馅料只要不留出来就一直往里挤就行，直到注满感觉泡芙沉甸甸的鼓起来了。",
          "image" : "https:\/\/i1.douguo.com\/upload\/caiku\/5\/1\/2\/51e0e92037339f09e363bbb6e2cc82f2.jpg",
          "thumb" : "https:\/\/i1.douguo.com\/upload\/caiku\/5\/1\/2\/140_51e0e92037339f09e363bbb6e2cc82f2.jpg",
          "position" : 19,
          "frame" : "-1",
          "image_height" : 1640
        },
        {
          "image_height" : 1707,
          "position" : 20,
          "image" : "https:\/\/i1.douguo.com\/upload\/caiku\/7\/c\/0\/7cc844105f1d3ca4217025e2141ecfc0.jpg",
          "content" : "切开一个尝尝，馅料稍微有点稀，所以卡仕达酱尽量要炒粘稠，淡奶油要完全打发。馅料口感像冰激凌，皮又酥又软，整个泡芙吃起来不甜腻，太好吃了。这个泡芙因为是酥皮，所以注入馅料后要尽快吃完，不然口感就不酥脆了，一次吃不完要冷冻保存，吃的时候拿出来180度烤3、4分钟后再吃，皮是酥脆的馅料真的是冰激凌了，别有一番风味。",
          "thumb" : "https:\/\/i1.douguo.com\/upload\/caiku\/7\/c\/0\/140_7cc844105f1d3ca4217025e2141ecfc0.jpg",
          "image_width" : 1280,
          "frame" : "-1"
        }
      ],
      "ipci" : "",
      "hqu" : "recipes:\/\/www.douguo.com\/notedetail?id=21162253",
      "vfurl" : "",
      "recipe_tags" : [

      ],
      "ipurl" : "",
      "rate_count" : 0,
      "author" : "kimchi就是泡菜",
      "guide_image" : "",
      "tips" : "1.烤泡芙第一次高温定型，这个时候一定不要开门，不然容易塌陷烤不起来。\n2.烤出来底部塌陷这个问题我看幸福老师说可以铺上油布解决，我铺的油纸显然是不行的。也可以买泡芙网或是放在石板上烤。\n3.整个过程温度一定要管控好，如果没有把握还是买个温度计来测温吧。\n4.酥皮要薄，不要超过2毫米，我的经验是先擀薄再冻比冻完再切好控制。",
      "recipe_list_tags" : [
        {
          "background_start_color" : "#F4F5F5",
          "text_color" : "#141515",
          "text" : "关注的人",
          "jump_url" : "",
          "background_end_color" : "#F4F5F5",
          "right_image" : "",
          "background_border_color" : ""
        },
        {
          "right_image" : "",
          "text" : "内容详细",
          "background_end_color" : "#F4F5F5",
          "background_start_color" : "#F4F5F5",
          "text_color" : "#141515",
          "background_border_color" : "",
          "jump_url" : ""
        }
      ],
      "comments" : [
        "{\n    ac = \"#999999\";\n    at = \"\";\n    ccc = 0;\n    \"child_comments\" =     (\n    );\n    city = \"\";\n    cmc = 2;\n    content =     (\n                {\n            c = \"\\U770b\\U997f\\U4e86\\Uff0c\\U600e\\U4e48\\U529e\";\n        }\n    );\n    ia = 0;\n    id = 8783040;\n    \"ip_address_location\" = \"\";\n    like = 0;\n    \"like_count\" = 0;\n    \"reply_id\" = 0;\n    \"sticker_icon\" =     (\n    );\n    time = \"2021-09-12 09:09:08\";\n    u =     {\n        \"followers_count_text\" = \"\";\n        id = 18456477;\n        \"is_prime\" = 0;\n        lv = 0;\n        lvl = 2;\n        n = \"\\U84c9\\U84c9\\U5768\";\n        p = \"http:\/\/tx1.douguo.net\/upload\/photo\/7\/4\/4\/70_u79521574735070232822.jpg\";\n        \"progress_image\" = \"\";\n        \"recipes_count_text\" = \"\";\n        relationship = \"-1\";\n        title = \"\";\n        v = 0;\n        \"verified_image\" = \"\";\n    };\n}",
        "{\n    ac = \"#999999\";\n    at = \"\";\n    ccc = 0;\n    \"child_comments\" =     (\n    );\n    city = \"\";\n    cmc = 2;\n    content =     (\n                {\n            c = \"\\U8fd9\\U4e2a\\U70b9\\U770b\\U997f\\U4e86~\\U00b7 \";\n        }\n    );\n    ia = 0;\n    id = 8783027;\n    \"ip_address_location\" = \"\";\n    like = 0;\n    \"like_count\" = 0;\n    \"reply_id\" = 0;\n    \"sticker_icon\" =     (\n    );\n    time = \"2021-09-12 08:38:16\";\n    u =     {\n        \"followers_count_text\" = \"\";\n        id = 18531933;\n        \"is_prime\" = 0;\n        lv = 0;\n        lvl = 4;\n        n = \"\\U96ea\\U821e\\U98de\\U626c1234\";\n        p = \"http:\/\/tx1.douguo.net\/upload\/photo\/0\/a\/7\/70_u18951032129740408204550.jpg\";\n        \"progress_image\" = \"\";\n        \"recipes_count_text\" = \"\";\n        relationship = \"-1\";\n        title = \"\";\n        v = 0;\n        \"verified_image\" = \"\";\n    };\n}"
      ],
      "v_u" : "",
      "favo_counts_text" : "4449",
      "cookstorys" : [
        {
          "c" : "第二次做泡芙，却是第一次认真做，感想是想做好泡芙真的不容易，不过自己做真的好吃。因为用的是安佳黄油和奶油，吃着更安心。原配方是12个，我本来想做成两倍大的，最后完成时竟只做出四个来，注入卡仕达奶油馅料后一个个跟馒头似的，吃起来真是过瘾。",
          "icon" : "",
          "color" : "",
          "type" : 0,
          "id" : 0,
          "u" : ""
        },
        {
          "color" : "",
          "id" : 0,
          "icon" : "",
          "c" : "\n参与活动:",
          "type" : 0,
          "u" : ""
        },
        {
          "type" : 0,
          "icon" : "",
          "c" : "#2021中国家庭烘焙料理大赛-亲子烘焙组#",
          "u" : "https:\/\/m.douguo.com\/activity\/ncpzj\/detail\/3243?isapp=1&open=0&_vs=1000300&&dg_refreshkey=publishnote",
          "id" : 0
        }
      ],
      "btm_dsp" : [

      ],
      "cook_time_image" : "https:\/\/i1.douguo.com\/upload\/banner\/1551423815.png",
      "top_mdsp" : [

      ],
      "rpt" : "",
      "clicks" : "143113",
      "user" : {
        "lv" : 0,
        "nick" : "kimchi就是泡菜",
        "pc" : 0,
        "location" : 0,
        "gender" : 2,
        "favor_diaries_count" : 0,
        "verified_url" : "https:\/\/m.douguo.com\/user\/prodesc",
        "favorites_count" : 0,
        "mobile" : "",
        "user_photo" : "http:\/\/tx1.douguo.net\/upload\/photo\/5\/3\/7\/70_536433286a7f13f9a28f9a548644ee57.jpg",
        "subscription" : 0,
        "birthday" : "",
        "regist_time" : "",
        "diaries_count" : 0,
        "lvl" : 7,
        "avatar_medium" : "http:\/\/tx1.douguo.net\/upload\/photo\/5\/3\/7\/140_536433286a7f13f9a28f9a548644ee57.jpg",
        "is_prime" : 0,
        "point" : 0,
        "dishes_count" : 0,
        "subscription_article_count" : 0,
        "userid" : "25224522",
        "followers_count" : 0,
        "setted_email" : 0,
        "qq_weibo_nick" : "",
        "age" : "",
        "qzone_nick" : "",
        "fc" : 0,
        "recipes_count" : 0,
        "verified" : 1,
        "coursecount" : 0,
        "user_id" : "25224522",
        "sign" : "",
        "verified_image" : "https:\/\/i1.douguo.com\/upload\/note\/d\/a\/a\/da84247847aebe48d9dd0fcdac88862a.png",
        "user_cover" : "",
        "user_large_photo" : "http:\/\/tx1.douguo.net\/upload\/photo\/5\/3\/7\/yuan_536433286a7f13f9a28f9a548644ee57.jpg",
        "following_count" : 0,
        "introduction" : "",
        "weibo_nick" : "",
        "email" : "",
        "progress_image" : ""
      },
      "ipoi" : "",
      "title" : "馒头大的酥皮泡芙",
      "collect_status" : 0,
      "ipia" : [

      ],
      "story_dsp" : [

      ],
      "rewarded_video_dsp" : [

      ],
      "thumb_height" : 0,
      "ipit" : 0,
      "dishes" : [

      ],
      "eu" : "recipes:\/\/www.douguo.com\/postdetail?id=242016",
      "major" : [
        {
          "title" : "酥皮部分",
          "note" : ""
        },
        {
          "note" : "40克",
          "title" : "安佳黄油"
        },
        {
          "note" : "30克",
          "title" : "糖",
          "tu" : "https:\/\/m.douguo.com\/ingredients\/糖\/detailmaterial"
        },
        {
          "tu" : "https:\/\/m.douguo.com\/ingredients\/低筋面粉\/detailmaterial",
          "note" : "50克",
          "title" : "低筋面粉"
        },
        {
          "note" : "",
          "title" : "泡芙糊部分"
        },
        {
          "title" : "牛奶",
          "tu" : "https:\/\/m.douguo.com\/ingredients\/牛奶\/detailmaterial",
          "note" : "45克"
        },
        {
          "tu" : "https:\/\/m.douguo.com\/ingredients\/水\/detailmaterial",
          "title" : "水",
          "note" : "40克"
        },
        {
          "title" : "安佳黄油",
          "note" : "40克"
        },
        {
          "title" : "糖",
          "note" : "5克",
          "tu" : "https:\/\/m.douguo.com\/ingredients\/糖\/detailmaterial"
        },
        {
          "tu" : "https:\/\/m.douguo.com\/ingredients\/盐\/detailmaterial",
          "title" : "盐",
          "note" : "1克"
        },
        {
          "note" : "55克",
          "title" : "面粉",
          "tu" : "https:\/\/m.douguo.com\/ingredients\/面粉\/detailmaterial"
        },
        {
          "title" : "鸡蛋",
          "note" : "2个",
          "tu" : "https:\/\/m.douguo.com\/ingredients\/鸡蛋\/detailmaterial"
        },
        {
          "note" : "",
          "title" : "馅料"
        },
        {
          "title" : "馅料",
          "note" : ""
        },
        {
          "title" : "牛奶",
          "note" : "180克",
          "tu" : "https:\/\/m.douguo.com\/ingredients\/牛奶\/detailmaterial"
        },
        {
          "tu" : "https:\/\/m.douguo.com\/ingredients\/蛋黄\/detailmaterial",
          "note" : "2个",
          "title" : "蛋黄"
        },
        {
          "title" : "糖",
          "note" : "40克",
          "tu" : "https:\/\/m.douguo.com\/ingredients\/糖\/detailmaterial"
        },
        {
          "title" : "玉米淀粉",
          "note" : "15克",
          "tu" : "https:\/\/m.douguo.com\/ingredients\/玉米淀粉\/detailmaterial"
        },
        {
          "note" : "10克",
          "title" : "安佳黄油"
        },
        {
          "note" : "2—3滴",
          "title" : "香草精（可选）"
        }
      ],
      "cook_difficulty_image" : "",
      "packages_id" : [

      ]
    }
  }
}