{
  "result" : {
    "recipe" : {
      "brand_day_dsp" : [

      ],
      "comments" : [
        "{\n    ac = \"#999999\";\n    at = \"\";\n    ccc = 0;\n    \"child_comments\" =     (\n    );\n    city = \"\";\n    cmc = 2;\n    content =     (\n                {\n            c = \"\\U6b64\\U83dc\\U53ea\\U5e94\\U5929\\U4e0a\\U6709\\Uff0c\\U5927\\U53a8\\Uff01\\U6211\\U5c01\\U4f60\\U4e3a\\U53a8\\U795e~\";\n        }\n    );\n    ia = 0;\n    id = 5853853;\n    \"ip_address_location\" = \"\";\n    like = 0;\n    \"like_count\" = 0;\n    \"reply_id\" = 0;\n    \"sticker_icon\" =     (\n    );\n    time = \"2018-07-16 10:32:56\";\n    u =     {\n        \"followers_count_text\" = \"\";\n        id = 18560883;\n        \"is_prime\" = 0;\n        lv = 0;\n        lvl = 4;\n        n = \"\\U5510\\U843d\\U4f9d\";\n        p = \"http:\/\/tx1.douguo.net\/upload\/photo\/b\/5\/9\/70_u95377980473212091555.jpg\";\n        \"progress_image\" = \"\";\n        \"recipes_count_text\" = \"\";\n        relationship = \"-1\";\n        title = \"\";\n        v = 0;\n        \"verified_image\" = \"\";\n    };\n}",
        "{\n    ac = \"#999999\";\n    at = \"\";\n    ccc = 0;\n    \"child_comments\" =     (\n    );\n    city = \"\";\n    cmc = 2;\n    content =     (\n                {\n            c = \"3\\U3002\";\n        }\n    );\n    ia = 0;\n    id = 4943825;\n    \"ip_address_location\" = \"\";\n    like = 0;\n    \"like_count\" = 0;\n    \"reply_id\" = 0;\n    \"sticker_icon\" =     (\n    );\n    time = \"2017-07-26 10:03:45\";\n    u =     {\n        \"followers_count_text\" = \"\";\n        id = 3145289;\n        \"is_prime\" = 0;\n        lv = 0;\n        lvl = 6;\n        n = \"\\U6d1b\\U5c0f\\U5154\";\n        p = \"http:\/\/tx1.douguo.net\/upload\/photo\/f\/f\/1\/70_u76996848324470195524.jpg\";\n        \"progress_image\" = \"\";\n        \"recipes_count_text\" = \"\";\n        relationship = \"-1\";\n        title = \"\";\n        v = 1;\n        \"verified_image\" = \"\";\n    };\n}",
        "{\n    ac = \"#999999\";\n    at = \"\";\n    ccc = 0;\n    \"child_comments\" =     (\n    );\n    city = \"\";\n    cmc = 2;\n    content =     (\n                {\n            c = \"\\U8c46\\U679c\\U8c46\\U679c\\U5bb3\\U6b7b\\U6211\\Uff0c\\U7adf\\U7136\\U6709\\U8fd9\\U4e48\\U591a\\U597d\\U5403\\U7684\\U83dc\\Uff0c\\U53ef\\U662f\\U6211\\U4e00\\U9053\\U90fd\\U4e0d\\U4f1a\\U554a\";\n        }\n    );\n    ia = 0;\n    id = 4939064;\n    \"ip_address_location\" = \"\";\n    like = 0;\n    \"like_count\" = 0;\n    \"reply_id\" = 0;\n    \"sticker_icon\" =     (\n    );\n    time = \"2017-07-24 18:07:05\";\n    u =     {\n        \"followers_count_text\" = \"\";\n        id = 18494166;\n        \"is_prime\" = 0;\n        lv = 0;\n        lvl = 2;\n        n = \"\\U8349\\U6839\\U5c0f\\U5b50\\U5f20\\U6d77\\U89c1\";\n        p = \"http:\/\/tx1.douguo.net\/upload\/photo\/d\/6\/3\/70_u11377315189767172341.jpg\";\n        \"progress_image\" = \"\";\n        \"recipes_count_text\" = \"\";\n        relationship = \"-1\";\n        title = \"\";\n        v = 0;\n        \"verified_image\" = \"\";\n    };\n}"
      ],
      "rips" : 0,
      "hq" : 1,
      "rate_count" : 2,
      "dishes" : [

      ],
      "rrpt" : "",
      "first_level_comment_count" : 4,
      "rrps" : [

      ],
      "clicks" : "564662",
      "image" : "http:\/\/i1.douguo.net\/upload\/caiku\/1\/9\/7\/300_19b1c5860ebc3b7792bffa574e62ab07.jpg",
      "cook_difficulty" : "",
      "top_mdsp" : [

      ],
      "event" : {
        "id" : 0
      },
      "ipoi" : "",
      "release_time" : "",
      "notes" : [

      ],
      "favo_counts_text" : "2353",
      "cookstep" : [
        {
          "image_width" : 1500,
          "image" : "https:\/\/i1.douguo.com\/upload\/caiku\/1\/1\/5\/11557628f4b00531957021d60e4498d5.jpg",
          "image_height" : 997,
          "thumb" : "https:\/\/i1.douguo.com\/upload\/caiku\/1\/1\/5\/140_11557628f4b00531957021d60e4498d5.jpg",
          "content" : "牛肉切薄片，也可以切丝，或者换成猪肉\n",
          "position" : 1,
          "frame" : "-1"
        },
        {
          "image_width" : 1500,
          "image_height" : 997,
          "thumb" : "https:\/\/i1.douguo.com\/upload\/caiku\/e\/5\/a\/140_e51884e9b9e189c03a4b91777a77af0a.jpg",
          "image" : "https:\/\/i1.douguo.com\/upload\/caiku\/e\/5\/a\/e51884e9b9e189c03a4b91777a77af0a.jpg",
          "frame" : "-1",
          "position" : 2,
          "content" : "放一小勺淀粉、少许料酒，少许盐，抓捏腌5分钟\n"
        },
        {
          "position" : 3,
          "image" : "https:\/\/i1.douguo.com\/upload\/caiku\/6\/c\/f\/6c36ee241f0a0f6a388c2e801b3668af.jpg",
          "frame" : "-1",
          "content" : "豆角去掉两端，撕掉边筋，清洗干净后撅成寸段\n",
          "image_height" : 997,
          "image_width" : 1500,
          "thumb" : "https:\/\/i1.douguo.com\/upload\/caiku\/6\/c\/f\/140_6c36ee241f0a0f6a388c2e801b3668af.jpg"
        },
        {
          "image_height" : 997,
          "content" : "炒锅中倒适量油，油温5、6成热时将肉片入锅中，迅速划散，略变色后倒少许酱油调色入味\n",
          "image_width" : 1500,
          "position" : 4,
          "frame" : "-1",
          "image" : "https:\/\/i1.douguo.com\/upload\/caiku\/8\/e\/1\/8e0f32410a8370f3865dc3e48620c3d1.jpg",
          "thumb" : "https:\/\/i1.douguo.com\/upload\/caiku\/8\/e\/1\/140_8e0f32410a8370f3865dc3e48620c3d1.jpg"
        },
        {
          "image_width" : 1500,
          "frame" : "-1",
          "content" : "豆角入锅中翻炒变色\n",
          "image" : "https:\/\/i1.douguo.com\/upload\/caiku\/6\/1\/8\/61e9cd471a0e6438a619084c99760cc8.jpg",
          "thumb" : "https:\/\/i1.douguo.com\/upload\/caiku\/6\/1\/8\/140_61e9cd471a0e6438a619084c99760cc8.jpg",
          "position" : 5,
          "image_height" : 997
        },
        {
          "content" : "加适量盐，盐要比平时炒菜时多放点儿，因为还要放面条；如果嫌颜色浅，再适当地倒点酱油，倒热水没过豆角\n",
          "image" : "https:\/\/i1.douguo.com\/upload\/caiku\/c\/3\/4\/c39b88e92e654eebf9489bd144051d14.jpg",
          "position" : 6,
          "thumb" : "https:\/\/i1.douguo.com\/upload\/caiku\/c\/3\/4\/140_c39b88e92e654eebf9489bd144051d14.jpg",
          "image_width" : 1500,
          "frame" : "-1",
          "image_height" : 997
        },
        {
          "frame" : "-1",
          "image_width" : 1500,
          "image" : "https:\/\/i1.douguo.com\/upload\/caiku\/5\/4\/4\/5492cd173fbe76538746a2c7c3dbf564.jpg",
          "image_height" : 997,
          "content" : "手擀面提前擀好，手擀面的制作感兴趣的朋友可以翻看我前几天的文章，有一篇专门写手擀面的制作的；如果没有手擀面，用买来的机器压的湿面条也成，不建议用挂面，那个不易焖熟\n",
          "position" : 7,
          "thumb" : "https:\/\/i1.douguo.com\/upload\/caiku\/5\/4\/4\/140_5492cd173fbe76538746a2c7c3dbf564.jpg"
        },
        {
          "position" : 8,
          "frame" : "-1",
          "thumb" : "https:\/\/i1.douguo.com\/upload\/caiku\/6\/4\/e\/140_641af3fc316cb3e203e885e4dca0700e.jpg",
          "image_height" : 997,
          "image_width" : 1500,
          "image" : "https:\/\/i1.douguo.com\/upload\/caiku\/6\/4\/e\/641af3fc316cb3e203e885e4dca0700e.jpg",
          "content" : "将面条抖散在豆角表面，千万别翻动啦，盖盖子，小火焖炖至少10分钟\n"
        },
        {
          "image" : "https:\/\/i1.douguo.com\/upload\/caiku\/1\/a\/6\/1a408b437f21a8f32ae578948c0a7d46.jpg",
          "image_height" : 997,
          "frame" : "-1",
          "position" : 9,
          "content" : "听到有“滋滋”声，打开锅盖查看一下面条和豆角的成熟度，如果不熟再加点水继续盖盖焖炖，如果熟了，将铲子和筷子配合着将豆角和面条混合均匀，撒点大蒜末与豆角焖面更配噢；如果家里人有吃不惯大蒜的，就别放啦，单独啃几瓣算了\n",
          "image_width" : 1500,
          "thumb" : "https:\/\/i1.douguo.com\/upload\/caiku\/1\/a\/6\/140_1a408b437f21a8f32ae578948c0a7d46.jpg"
        },
        {
          "frame" : "-1",
          "thumb" : "https:\/\/i1.douguo.com\/upload\/caiku\/7\/a\/6\/140_7a9912a1f012025bfe3c0b1d19c66b36.jpg",
          "image_width" : 1500,
          "image" : "https:\/\/i1.douguo.com\/upload\/caiku\/7\/a\/6\/7a9912a1f012025bfe3c0b1d19c66b36.jpg",
          "position" : 10,
          "image_height" : 1000,
          "content" : "吃时就几瓣大蒜，和豆角焖面是绝配\n"
        }
      ],
      "ssu" : "",
      "rdsps" : [

      ],
      "recommended" : 0,
      "collect_status" : 0,
      "mid_mdsp" : [

      ],
      "user" : {
        "dishes_count" : 0,
        "user_large_photo" : "http:\/\/tx1.douguo.net\/upload\/photo\/a\/6\/6\/yuan_u27727127410622225643.jpeg",
        "age" : "",
        "fc" : 0,
        "is_prime" : 0,
        "gender" : 2,
        "qq_weibo_nick" : "",
        "userid" : "8753046",
        "email" : "",
        "following_count" : 0,
        "nick" : "meggy跳舞的苹果",
        "user_cover" : "",
        "verified_image" : "https:\/\/i1.douguo.com\/upload\/note\/d\/a\/a\/da84247847aebe48d9dd0fcdac88862a.png",
        "diaries_count" : 0,
        "location" : 0,
        "subscription_article_count" : 0,
        "lvl" : 8,
        "weibo_nick" : "",
        "birthday" : "",
        "favorites_count" : 0,
        "qzone_nick" : "",
        "favor_diaries_count" : 0,
        "followers_count" : 0,
        "recipes_count" : 0,
        "coursecount" : 0,
        "progress_image" : "",
        "verified_url" : "https:\/\/m.douguo.com\/user\/prodesc",
        "mobile" : "",
        "point" : 0,
        "verified" : 1,
        "sign" : "",
        "introduction" : "",
        "lv" : 0,
        "pc" : 0,
        "regist_time" : "",
        "subscription" : 0,
        "avatar_medium" : "http:\/\/tx1.douguo.net\/upload\/photo\/a\/6\/6\/140_u27727127410622225643.jpeg",
        "user_id" : "8753046",
        "user_photo" : "http:\/\/tx1.douguo.net\/upload\/photo\/a\/6\/6\/70_u27727127410622225643.jpeg",
        "setted_email" : 0
      },
      "su" : "",
      "eu" : "recipes:\/\/www.douguo.com\/postdetail?id=242016",
      "ipci" : "",
      "old_comments" : [

      ],
      "dish_count" : 2,
      "tags" : [

      ],
      "v_u" : "",
      "levelid" : 2,
      "share_info" : {
        "s_d" : "豆角焖面#单挑夏天-会做饭很酷!",
        "mini_program" : [

        ],
        "infos" : [
          {
            "s_d" : "#学做饭用豆果美食# 会做饭真是好酷啊！我在@豆果美食 分享了【豆角焖面#单挑夏天-会做饭很酷!】，快来康康我这道菜做的怎么样～美味停不下来！查看图片了解菜谱（你喜欢的美食都在这里！https:\/\/m.weibo.cn\/p\/100404i33631）",
            "object_id" : "1583239",
            "s_u" : "",
            "name" : "豆角焖面#单挑夏天-会做饭很酷!",
            "image" : "https:\/\/cp1.douguo.com\/upload\/caiku\/1\/9\/7\/19b1c5860ebc3b7792bffa574e62ab07.jpg",
            "channel" : "1",
            "qr_image" : "",
            "mini_program" : [

            ]
          },
          {
            "s_d" : "豆角焖面#单挑夏天-会做饭很酷!",
            "object_id" : "1583239",
            "mini_program" : [

            ],
            "s_u" : "http:\/\/m.douguo.com\/cookbook\/1583239.html",
            "qr_image" : "",
            "name" : "豆角焖面#单挑夏天-会做饭很酷!",
            "channel" : "7",
            "image" : "https:\/\/cp1.douguo.com\/upload\/caiku\/1\/9\/7\/19b1c5860ebc3b7792bffa574e62ab07.jpg"
          },
          {
            "s_d" : "豆角焖面#单挑夏天-会做饭很酷!",
            "name" : "豆角焖面#单挑夏天-会做饭很酷!",
            "image" : "https:\/\/cp1.douguo.com\/upload\/caiku\/1\/9\/7\/19b1c5860ebc3b7792bffa574e62ab07.jpg",
            "channel" : "8",
            "mini_program" : [

            ],
            "qr_image" : "",
            "s_u" : "http:\/\/m.douguo.com\/cookbook\/1583239.html",
            "object_id" : "1583239"
          }
        ],
        "image" : "https:\/\/cp1.douguo.com\/upload\/caiku\/1\/9\/7\/19b1c5860ebc3b7792bffa574e62ab07.jpg",
        "object_id" : "1583239",
        "qr_image" : "",
        "s_u" : "http:\/\/m.douguo.com\/cookbook\/1583239.html",
        "name" : "豆角焖面#单挑夏天-会做饭很酷!"
      },
      "dish_count_text" : "2",
      "sr" : "",
      "pw" : 800,
      "recommend_label" : "2人学做",
      "major" : [
        {
          "title" : "牛肉",
          "tu" : "https:\/\/m.douguo.com\/ingredients\/牛肉\/detailmaterial",
          "note" : "300克"
        },
        {
          "title" : "豆角",
          "note" : "一盆",
          "tu" : "https:\/\/m.douguo.com\/ingredients\/豆角\/detailmaterial"
        },
        {
          "title" : "手擀面",
          "note" : "适量"
        }
      ],
      "original_photo_path" : "http:\/\/i1.douguo.net\/upload\/caiku\/1\/9\/7\/yuan_19b1c5860ebc3b7792bffa574e62ab07.jpg",
      "author_id" : 8753046,
      "cook_time" : "",
      "title_ad" : [

      ],
      "tips" : "炒豆角的步骤跟普通的炒法一样，只是水要多加些，盐要多放点儿；手擀面或者机压的湿面条都成，放进锅中不要翻动，防止汤将面条糊化； 大蒜与豆角焖面是绝配，建议起锅前放大蒜末或者啃几瓣，不但独具风味，在夏天更有杀菌的功效。",
      "guide_image" : "",
      "hqu" : "recipes:\/\/www.douguo.com\/notedetail?id=21162253",
      "thumb_path" : "https:\/\/i1.douguo.com\/upload\/caiku\/1\/9\/7\/300_19b1c5860ebc3b7792bffa574e62ab07.jpg",
      "cookstory" : "豆角是夏天常见的蔬菜，鲜嫩还有点甜，炒炖都好吃。天热没有胃口，也不爱做饭，凑合一顿两顿还成，天天喝粥拌小凉菜，虽然体重暂时会减下来，但是睡得晚、起得早、再加上出汗多，体内流失的营养太多了。不管家里认做饭，厨房里油烟的困扰确实是夏天比较难挨的。所以简单快手有滋味的饭菜一锅最受欢迎了。\n这道豆角焖面是一道传统的家常饭菜一锅端。面条是上午天凉快的时候手擀的。虽然家里有面条机，但是家人还是喜欢吃手擀面，不管粗细，觉得比机压的更滋润，吃进嘴里更柔韧，我想这便是让人难以割舍的家的味道吧！以往都是老妈揉面、擀面、切面，她老人家都70多了，所以这活儿现在我给拾起来了。论手艺，那是比不上老妈了，但是老公和儿子吃得依然很香！",
      "minor" : [
        "{\n    note = \"\\U9002\\U91cf\";\n    title = \"\\U690d\\U7269\\U6cb9\";\n    tu = \"https:\/\/https:\/\/m.douguo.com\/ingredients\/\\U690d\\U7269\\U6cb9\/detailmaterial\";\n}",
        "{\n    note = \"\\U9002\\U91cf\";\n    title = \"\\U76d0\";\n    tu = \"https:\/\/https:\/\/m.douguo.com\/ingredients\/\\U76d0\/detailmaterial\";\n}",
        "{\n    note = \"\\U4e00\\U5c0f\\U52fa\";\n    title = \"\\U6dc0\\U7c89\";\n}",
        "{\n    note = \"\\U5c11\\U8bb8\";\n    title = \"\\U6599\\U9152\";\n    tu = \"https:\/\/https:\/\/m.douguo.com\/ingredients\/\\U6599\\U9152\/detailmaterial\";\n}",
        "{\n    note = \"\\U9002\\U91cf\";\n    title = \"\\U9171\\U6cb9\";\n    tu = \"https:\/\/https:\/\/m.douguo.com\/ingredients\/\\U9171\\U6cb9\/detailmaterial\";\n}",
        "{\n    note = \"\\U6570\\U74e3\";\n    title = \"\\U5927\\U849c\";\n    tu = \"https:\/\/https:\/\/m.douguo.com\/ingredients\/\\U5927\\U849c\/detailmaterial\";\n}"
      ],
      "vfurl" : "",
      "act_des" : "",
      "btm_dsp" : [

      ],
      "cook_id" : "1583239",
      "ipia" : [

      ],
      "comments_count_text" : "4",
      "cook_difficulty_image" : "",
      "views_count_text" : "57.1万",
      "author_verified" : 1,
      "comments_count" : 4,
      "ipit" : 0,
      "display_ingredient" : 1,
      "rpst" : "",
      "ipurl" : "",
      "story_dsp" : [

      ],
      "rate_show" : 0,
      "rate" : 5,
      "create_time" : "2017-07-25 00:01:13",
      "vc" : "570858",
      "recent_comments" : [

      ],
      "bs" : [

      ],
      "ipt" : "",
      "ph" : 533,
      "title" : "豆角焖面#单挑夏天",
      "cookwares" : [

      ],
      "ecs" : 0,
      "author_photo" : "http:\/\/tx1.douguo.net\/upload\/photo\/a\/6\/6\/70_u27727127410622225643.jpeg",
      "vu" : "",
      "purl" : "",
      "rewarded_video_dsp" : [

      ],
      "recommendation_tag" : "",
      "sc" : 0,
      "advice" : {
        "has" : [
          {
            "url" : "recipes:\/\/www.douguo.com\/simplerecipelist?t=富含蛋白质&id=富含蛋白质",
            "t" : "富含蛋白质"
          }
        ],
        "da" : {
          "url" : "https:\/\/m.douguo.com\/recipe\/nutrient_self\/1583239",
          "iu" : "https:\/\/i1.douguo.com\/upload\/banner\/f\/4\/d\/f48877e53c37759bc12ac494be82ec8d.png",
          "t" : "查看详细分析"
        },
        "at" : "有助于构成或修复人体组织～"
      },
      "recipe_tags" : [

      ],
      "packages_id" : [

      ],
      "photo_path" : "https:\/\/i1.douguo.com\/upload\/caiku\/1\/9\/7\/600_19b1c5860ebc3b7792bffa574e62ab07.jpg",
      "rpid" : 0,
      "recipe_list_tags" : [
        {
          "text" : "关注的人",
          "background_start_color" : "#F4F5F5",
          "right_image" : "",
          "background_end_color" : "#F4F5F5",
          "text_color" : "#141515",
          "background_border_color" : "",
          "jump_url" : ""
        },
        {
          "background_end_color" : "#F4F5F5",
          "jump_url" : "",
          "text_color" : "#141515",
          "background_start_color" : "#F4F5F5",
          "background_border_color" : "",
          "right_image" : "",
          "text" : "内容详细"
        }
      ],
      "cook_time_image" : "",
      "ss" : [

      ],
      "author" : "meggy跳舞的苹果",
      "thumb_height" : 0,
      "related_ads" : [

      ],
      "rpt" : "",
      "cookstorys" : [
        {
          "id" : 0,
          "c" : "豆角是夏天常见的蔬菜，鲜嫩还有点甜，炒炖都好吃。天热没有胃口，也不爱做饭，凑合一顿两顿还成，天天喝粥拌小凉菜，虽然体重暂时会减下来，但是睡得晚、起得早、再加上出汗多，体内流失的营养太多了。不管家里认做饭，厨房里油烟的困扰确实是夏天比较难挨的。所以简单快手有滋味的饭菜一锅最受欢迎了。\n这道豆角焖面是一道传统的家常饭菜一锅端。面条是上午天凉快的时候手擀的。虽然家里有面条机，但是家人还是喜欢吃手擀面，不管粗细，觉得比机压的更滋润，吃进嘴里更柔韧，我想这便是让人难以割舍的家的味道吧！以往都是老妈揉面、擀面、切面，她老人家都70多了，所以这活儿现在我给拾起来了。论手艺，那是比不上老妈了，但是老公和儿子吃得依然很香！",
          "color" : "",
          "icon" : "",
          "u" : "",
          "type" : 0
        }
      ],
      "favo_counts" : 2353,
      "rcs" : [

      ],
      "rsm" : "该功能暂停使用"
    }
  },
  "status" : 0,
  "state" : "success"
}