{
  "state" : "success",
  "status" : 0,
  "result" : {
    "recipe" : {
      "major" : [
        {
          "tu" : "https:\/\/m.douguo.com\/ingredients\/螃蟹\/detailmaterial",
          "title" : "螃蟹",
          "note" : "四只"
        },
        {
          "note" : "五个",
          "title" : "肉馅饺子"
        },
        {
          "title" : "姜",
          "note" : "适量",
          "tu" : "https:\/\/m.douguo.com\/ingredients\/姜\/detailmaterial"
        },
        {
          "tu" : "https:\/\/m.douguo.com\/ingredients\/蒜\/detailmaterial",
          "note" : "适量",
          "title" : "蒜"
        },
        {
          "tu" : "https:\/\/m.douguo.com\/ingredients\/酱油\/detailmaterial",
          "title" : "酱油",
          "note" : "适量"
        },
        {
          "tu" : "https:\/\/m.douguo.com\/ingredients\/白糖\/detailmaterial",
          "note" : "半匙",
          "title" : "白糖"
        },
        {
          "tu" : "https:\/\/m.douguo.com\/ingredients\/鸡精\/detailmaterial",
          "note" : "适量",
          "title" : "鸡精"
        },
        {
          "note" : "适量",
          "tu" : "https:\/\/m.douguo.com\/ingredients\/油\/detailmaterial",
          "title" : "油"
        },
        {
          "note" : "适量",
          "title" : "芹菜",
          "tu" : "https:\/\/m.douguo.com\/ingredients\/芹菜\/detailmaterial"
        }
      ],
      "ipurl" : "",
      "favo_counts" : 116,
      "author_verified" : 0,
      "rsm" : "该功能暂停使用",
      "recommend_label" : "2.3万人看过",
      "bs" : [

      ],
      "recipe_tags" : [

      ],
      "sc" : 0,
      "cookstorys" : [
        {
          "icon" : "",
          "id" : 0,
          "c" : "跟老公一起包饺子",
          "color" : "",
          "type" : 0,
          "u" : ""
        }
      ],
      "cook_time" : "10~30分钟",
      "rpt" : "",
      "recommended" : 0,
      "ipia" : [

      ],
      "display_ingredient" : 1,
      "rate" : 0,
      "rrps" : [

      ],
      "create_time" : "2017-12-17 22:06:07",
      "clicks" : "19067",
      "v_u" : "",
      "ssu" : "",
      "ipci" : "",
      "purl" : "",
      "cook_difficulty" : "切墩(初级)",
      "rrpt" : "",
      "advice" : {
        "has" : [
          {
            "url" : "recipes:\/\/www.douguo.com\/simplerecipelist?t=0胆固醇&id=0胆固醇",
            "t" : "0胆固醇"
          },
          {
            "url" : "recipes:\/\/www.douguo.com\/simplerecipelist?t=高盐&id=高盐",
            "t" : "高盐"
          }
        ],
        "da" : {
          "t" : "查看详细分析",
          "url" : "https:\/\/m.douguo.com\/recipe\/nutrient_self\/1636315",
          "iu" : "https:\/\/i1.douguo.com\/upload\/banner\/f\/4\/d\/f48877e53c37759bc12ac494be82ec8d.png"
        },
        "at" : "适合三高人群哦～"
      },
      "story_dsp" : [

      ],
      "rate_count" : 0,
      "dishes" : [

      ],
      "minor" : [

      ],
      "recommendation_tag" : "",
      "recent_comments" : [

      ],
      "sr" : "",
      "ph" : 1067,
      "hq" : 0,
      "vu" : "",
      "share_info" : {
        "infos" : [
          {
            "channel" : "1",
            "s_d" : "#学做饭用豆果美食# 会做饭真是太酷了！我在@豆果美食 分享了【河虾虾饺-会做饭很酷!】，看着是不是馋到不行呢～快来跟我学学吧！查看图片了解菜谱，（想要获取更多美食就看这https:\/\/m.weibo.cn\/p\/100404i33631）",
            "image" : "https:\/\/cp1.douguo.com\/upload\/caiku\/a\/7\/4\/a70b9b7bd21aa939b1294f2079605114.jpeg",
            "s_u" : "",
            "object_id" : "1636315",
            "mini_program" : [

            ],
            "qr_image" : "",
            "name" : "河虾虾饺-会做饭很酷!"
          },
          {
            "object_id" : "1636315",
            "qr_image" : "",
            "mini_program" : [

            ],
            "s_d" : "河虾虾饺-会做饭很酷!",
            "channel" : "7",
            "s_u" : "http:\/\/m.douguo.com\/cookbook\/1636315.html",
            "name" : "河虾虾饺-会做饭很酷!",
            "image" : "https:\/\/cp1.douguo.com\/upload\/caiku\/a\/7\/4\/a70b9b7bd21aa939b1294f2079605114.jpeg"
          },
          {
            "image" : "https:\/\/cp1.douguo.com\/upload\/caiku\/a\/7\/4\/a70b9b7bd21aa939b1294f2079605114.jpeg",
            "mini_program" : [

            ],
            "qr_image" : "",
            "name" : "河虾虾饺-会做饭很酷!",
            "s_d" : "河虾虾饺-会做饭很酷!",
            "object_id" : "1636315",
            "channel" : "8",
            "s_u" : "http:\/\/m.douguo.com\/cookbook\/1636315.html"
          }
        ],
        "image" : "https:\/\/cp1.douguo.com\/upload\/caiku\/a\/7\/4\/a70b9b7bd21aa939b1294f2079605114.jpeg",
        "qr_image" : "",
        "s_u" : "http:\/\/m.douguo.com\/cookbook\/1636315.html",
        "object_id" : "1636315",
        "name" : "河虾虾饺-会做饭很酷!",
        "s_d" : "河虾虾饺-会做饭很酷!",
        "mini_program" : [

        ]
      },
      "old_comments" : [

      ],
      "top_mdsp" : [

      ],
      "rpst" : "",
      "pw" : 800,
      "rips" : 0,
      "author_id" : 21339396,
      "guide_image" : "",
      "su" : "",
      "rewarded_video_dsp" : [

      ],
      "first_level_comment_count" : 8,
      "notes" : [

      ],
      "ipoi" : "",
      "rcs" : [

      ],
      "related_ads" : [

      ],
      "dish_count" : 0,
      "comments" : [
        "{\n    ac = \"#999999\";\n    at = \"\";\n    ccc = 0;\n    \"child_comments\" =     (\n    );\n    city = \"\";\n    cmc = 2;\n    content =     (\n                {\n            c = \"\\U997f~\\U7684~\\U4e0d~\\U884c~\\U4e86~\";\n        }\n    );\n    ia = 0;\n    id = 5770274;\n    \"ip_address_location\" = \"\";\n    like = 0;\n    \"like_count\" = 0;\n    \"reply_id\" = 0;\n    \"sticker_icon\" =     (\n    );\n    time = \"2018-06-14 22:07:43\";\n    u =     {\n        \"followers_count_text\" = \"\";\n        id = 18580445;\n        \"is_prime\" = 0;\n        lv = 0;\n        lvl = 6;\n        n = \"\\U5468\\U54682000\";\n        p = \"http:\/\/tx1.douguo.net\/upload\/photo\/f\/f\/0\/70_u01283416314735234414.jpg\";\n        \"progress_image\" = \"\";\n        \"recipes_count_text\" = \"\";\n        relationship = \"-1\";\n        title = \"\";\n        v = 0;\n        \"verified_image\" = \"\";\n    };\n}",
        "{\n    ac = \"#999999\";\n    at = \"\";\n    ccc = 0;\n    \"child_comments\" =     (\n    );\n    city = \"\";\n    cmc = 2;\n    content =     (\n                {\n            c = \"\\U54c7\\U8d85\\U559c\\U6b22\\U8fd9\\U4e2a\\U7684~\";\n        }\n    );\n    ia = 0;\n    id = 5770270;\n    \"ip_address_location\" = \"\";\n    like = 0;\n    \"like_count\" = 0;\n    \"reply_id\" = 0;\n    \"sticker_icon\" =     (\n    );\n    time = \"2018-06-14 22:06:20\";\n    u =     {\n        \"followers_count_text\" = \"\";\n        id = 18539207;\n        \"is_prime\" = 0;\n        lv = 0;\n        lvl = 6;\n        n = \"\\U5a03\\U5a03*^_^*\";\n        p = \"http:\/\/tx1.douguo.net\/upload\/photo\/c\/7\/2\/70_u8495226517332203233.jpg\";\n        \"progress_image\" = \"\";\n        \"recipes_count_text\" = \"\";\n        relationship = \"-1\";\n        title = \"\";\n        v = 0;\n        \"verified_image\" = \"\";\n    };\n}",
        "{\n    ac = \"#999999\";\n    at = \"\";\n    ccc = 0;\n    \"child_comments\" =     (\n    );\n    city = \"\";\n    cmc = 2;\n    content =     (\n                {\n            c = \"\\U5927\\U8d5e\\Uff01\\U8d5e\\U8d5e\\U8d5e\\U8d5e\\Uff01\";\n        }\n    );\n    ia = 0;\n    id = 5401539;\n    \"ip_address_location\" = \"\";\n    like = 0;\n    \"like_count\" = 0;\n    \"reply_id\" = 0;\n    \"sticker_icon\" =     (\n    );\n    time = \"2018-02-23 19:45:43\";\n    u =     {\n        \"followers_count_text\" = \"\";\n        id = 18461011;\n        \"is_prime\" = 0;\n        lv = 0;\n        lvl = 4;\n        n = \"\\U957f\\U57a3\\U5c0f\\U6768\";\n        p = \"http:\/\/tx1.douguo.net\/upload\/photo\/2\/d\/4\/70_u83221653771590201512.jpg\";\n        \"progress_image\" = \"\";\n        \"recipes_count_text\" = \"\";\n        relationship = \"-1\";\n        title = \"\";\n        v = 0;\n        \"verified_image\" = \"\";\n    };\n}"
      ],
      "thumb_path" : "https:\/\/i1.douguo.com\/upload\/caiku\/a\/7\/4\/300_a70b9b7bd21aa939b1294f2079605114.jpeg",
      "cookstory" : "跟老公一起包饺子",
      "dish_count_text" : "",
      "btm_dsp" : [

      ],
      "vfurl" : "",
      "packages_id" : [

      ],
      "photo_path" : "https:\/\/i1.douguo.com\/upload\/caiku\/a\/7\/4\/600_a70b9b7bd21aa939b1294f2079605114.jpeg",
      "ss" : [

      ],
      "cookwares" : [

      ],
      "rpid" : 0,
      "cook_time_image" : "https:\/\/i1.douguo.com\/upload\/banner\/1551424341.png",
      "vc" : "22590",
      "views_count_text" : "2.3万",
      "levelid" : 3,
      "act_des" : "",
      "ipt" : "",
      "comments_count_text" : "8",
      "eu" : "recipes:\/\/www.douguo.com\/postdetail?id=242016",
      "tips" : "",
      "hqu" : "recipes:\/\/www.douguo.com\/notedetail?id=21162253",
      "favo_counts_text" : "116",
      "author" : "吃的生活",
      "recipe_list_tags" : [

      ],
      "rate_show" : 0,
      "cook_difficulty_image" : "https:\/\/i1.douguo.com\/upload\/banner\/1551424390.png",
      "title" : "河虾虾饺",
      "cook_id" : "1636315",
      "user" : {
        "user_large_photo" : "http:\/\/tx1.douguo.net\/upload\/photo\/6\/d\/d\/yuan_u11485239621246172125.jpeg",
        "setted_email" : 0,
        "lv" : 0,
        "userid" : "21339396",
        "birthday" : "",
        "fc" : 0,
        "progress_image" : "",
        "user_photo" : "http:\/\/tx1.douguo.net\/upload\/photo\/6\/d\/d\/70_u11485239621246172125.jpeg",
        "verified_image" : "",
        "is_prime" : 0,
        "subscription" : 0,
        "regist_time" : "",
        "subscription_article_count" : 0,
        "pc" : 0,
        "weibo_nick" : "",
        "favorites_count" : 0,
        "point" : 0,
        "coursecount" : 0,
        "qzone_nick" : "",
        "user_id" : "21339396",
        "nick" : "吃的生活",
        "sign" : "",
        "favor_diaries_count" : 0,
        "recipes_count" : 0,
        "following_count" : 0,
        "diaries_count" : 0,
        "lvl" : 5,
        "qq_weibo_nick" : "",
        "followers_count" : 0,
        "mobile" : "",
        "age" : "",
        "introduction" : "",
        "email" : "",
        "verified_url" : "https:\/\/m.douguo.com\/user\/prodesc",
        "verified" : 0,
        "dishes_count" : 0,
        "location" : 0,
        "gender" : 2,
        "avatar_medium" : "http:\/\/tx1.douguo.net\/upload\/photo\/6\/d\/d\/140_u11485239621246172125.jpeg",
        "user_cover" : ""
      },
      "ipit" : 0,
      "rdsps" : [

      ],
      "brand_day_dsp" : [

      ],
      "cookstep" : [
        {
          "thumb" : "https:\/\/i1.douguo.com\/upload\/caiku\/1\/a\/a\/140_1a4de3672619165ecc7b9230725dbdba.jpeg",
          "frame" : "-1",
          "image_width" : 800,
          "image_height" : 1067,
          "position" : 1,
          "image" : "https:\/\/i1.douguo.com\/upload\/caiku\/1\/a\/a\/1a4de3672619165ecc7b9230725dbdba.jpeg",
          "content" : "择菜，挑虾线，炖肉馅，加入适量调料拌匀即可。"
        },
        {
          "thumb" : "https:\/\/i1.douguo.com\/upload\/caiku\/4\/5\/e\/140_45dc5067fddd0a29fe9c85c7e782ea1e.jpeg",
          "image_height" : 1067,
          "image_width" : 800,
          "position" : 2,
          "content" : "包好的饺子上屉蒸10分钟即可。",
          "image" : "https:\/\/i1.douguo.com\/upload\/caiku\/4\/5\/e\/45dc5067fddd0a29fe9c85c7e782ea1e.jpeg",
          "frame" : "-1"
        },
        {
          "image_height" : 1067,
          "frame" : "-1",
          "image" : "https:\/\/i1.douguo.com\/upload\/caiku\/2\/a\/6\/2a96f50b9b91b0cd40961c9f1a6753a6.jpeg",
          "thumb" : "https:\/\/i1.douguo.com\/upload\/caiku\/2\/a\/6\/140_2a96f50b9b91b0cd40961c9f1a6753a6.jpeg",
          "content" : "河虾虾饺，与海虾味道不同，家人都喜欢。",
          "image_width" : 800,
          "position" : 3
        }
      ],
      "ecs" : 0,
      "tags" : [

      ],
      "mid_mdsp" : [

      ],
      "image" : "http:\/\/i1.douguo.net\/upload\/caiku\/a\/7\/4\/300_a70b9b7bd21aa939b1294f2079605114.jpeg",
      "release_time" : "",
      "comments_count" : 8,
      "original_photo_path" : "http:\/\/i1.douguo.net\/upload\/caiku\/a\/7\/4\/yuan_a70b9b7bd21aa939b1294f2079605114.jpeg",
      "author_photo" : "http:\/\/tx1.douguo.net\/upload\/photo\/6\/d\/d\/70_u11485239621246172125.jpeg",
      "thumb_height" : 0,
      "title_ad" : [

      ],
      "collect_status" : 0
    }
  }
}