{
  "state" : "success",
  "result" : {
    "recipe" : {
      "ecs" : 1,
      "cook_difficulty_image" : "https:\/\/i1.douguo.com\/upload\/banner\/1551424390.png",
      "old_comments" : [

      ],
      "story_dsp" : [

      ],
      "ph" : 1080,
      "eu" : "recipes:\/\/www.douguo.com\/postdetail?id=242016",
      "sr" : "",
      "minor" : [

      ],
      "mid_mdsp" : [

      ],
      "rrpt" : "",
      "thumb_path" : "https:\/\/i1.douguo.com\/upload\/caiku\/e\/4\/9\/300_e47d92961d5d2e9e44e1588687a1cf89.jpeg",
      "favo_counts_text" : "4319",
      "comments_count" : 10,
      "rate" : 5,
      "tips" : "",
      "vfurl" : "",
      "share_info" : {
        "s_u" : "http:\/\/m.douguo.com\/cookbook\/3253550.html",
        "qr_image" : "",
        "s_d" : "黑椒土豆饼（小孩子喜欢的不得了）-会做饭很酷!",
        "image" : "https:\/\/cp1.douguo.com\/upload\/caiku\/e\/4\/9\/e47d92961d5d2e9e44e1588687a1cf89.jpeg",
        "object_id" : "3253550",
        "infos" : [
          {
            "name" : "黑椒土豆饼（小孩子喜欢的不得了）-会做饭很酷!",
            "channel" : "1",
            "mini_program" : [

            ],
            "image" : "https:\/\/cp1.douguo.com\/upload\/caiku\/e\/4\/9\/e47d92961d5d2e9e44e1588687a1cf89.jpeg",
            "object_id" : "3253550",
            "s_u" : "",
            "s_d" : "#学做饭用豆果美食# 我在@豆果美食 分享了【黑椒土豆饼（小孩子喜欢的不得了）-会做饭很酷!】，哟，集美们～你看这是神仙美味～快跟着我做一份，做一份！查看图片了解菜谱（更多美食秘籍点击https:\/\/m.weibo.cn\/p\/100404i33631获取）#会做饭很酷# ",
            "qr_image" : ""
          },
          {
            "qr_image" : "",
            "image" : "https:\/\/cp1.douguo.com\/upload\/caiku\/e\/4\/9\/e47d92961d5d2e9e44e1588687a1cf89.jpeg",
            "channel" : "7",
            "object_id" : "3253550",
            "name" : "黑椒土豆饼（小孩子喜欢的不得了）-会做饭很酷!",
            "s_u" : "http:\/\/m.douguo.com\/cookbook\/3253550.html",
            "mini_program" : [

            ],
            "s_d" : "黑椒土豆饼（小孩子喜欢的不得了）-会做饭很酷!"
          },
          {
            "mini_program" : [

            ],
            "image" : "https:\/\/cp1.douguo.com\/upload\/caiku\/e\/4\/9\/e47d92961d5d2e9e44e1588687a1cf89.jpeg",
            "channel" : "8",
            "name" : "黑椒土豆饼（小孩子喜欢的不得了）-会做饭很酷!",
            "s_u" : "http:\/\/m.douguo.com\/cookbook\/3253550.html",
            "qr_image" : "",
            "object_id" : "3253550",
            "s_d" : "黑椒土豆饼（小孩子喜欢的不得了）-会做饭很酷!"
          }
        ],
        "mini_program" : [

        ],
        "name" : "黑椒土豆饼（小孩子喜欢的不得了）-会做饭很酷!"
      },
      "vu" : "",
      "image" : "http:\/\/i1.douguo.net\/upload\/caiku\/e\/4\/9\/300_e47d92961d5d2e9e44e1588687a1cf89.jpeg",
      "ipit" : 0,
      "recommended" : 0,
      "cook_difficulty" : "切墩(初级)",
      "top_mdsp" : [

      ],
      "recipe_tags" : [

      ],
      "cook_id" : "3253550",
      "cookwares" : [

      ],
      "rsm" : "该功能暂停使用",
      "advice" : {
        "at" : "能有效控制体重～",
        "da" : {
          "iu" : "https:\/\/i1.douguo.com\/upload\/banner\/f\/4\/d\/f48877e53c37759bc12ac494be82ec8d.png",
          "url" : "https:\/\/m.douguo.com\/recipe\/nutrient_self\/3253550",
          "t" : "查看详细分析"
        },
        "has" : [
          {
            "url" : "recipes:\/\/www.douguo.com\/simplerecipelist?t=低脂&id=低脂",
            "t" : "低脂"
          }
        ]
      },
      "title" : "黑椒土豆饼（小孩子喜欢的不得了）",
      "rpid" : 0,
      "major" : [
        {
          "note" : "6-8个",
          "tu" : "https:\/\/m.douguo.com\/ingredients\/土豆\/detailmaterial",
          "title" : "土豆"
        },
        {
          "tu" : "https:\/\/m.douguo.com\/ingredients\/玉米淀粉\/detailmaterial",
          "note" : "15克",
          "title" : "玉米淀粉"
        },
        {
          "tu" : "https:\/\/m.douguo.com\/ingredients\/黑胡椒\/detailmaterial",
          "note" : "3-5克",
          "title" : "黑胡椒"
        },
        {
          "title" : "盐",
          "note" : "3克",
          "tu" : "https:\/\/m.douguo.com\/ingredients\/盐\/detailmaterial"
        }
      ],
      "dish_count" : 4,
      "author_id" : 27522600,
      "comments" : [
        "{\n    ac = \"#999999\";\n    at = \"\";\n    ccc = 4;\n    \"child_comments\" =     (\n                {\n            ac = \"#999999\";\n            at = \"\";\n            ccc = 0;\n            city = \"\";\n            cmc = 2;\n            content =             (\n                                {\n                    c = \" \\U521a\\U5b66\\U7740\\U505a\\U4e86\\Uff0c\\U771f\\U597d\\U5403\";\n                }\n            );\n            ia = 0;\n            id = 9030312;\n            \"ip_address_location\" = \"\\U6cb3\\U5317\";\n            like = 0;\n            \"like_count\" = 0;\n            \"reply_id\" = 9029744;\n            \"reply_user\" =             {\n                \"followers_count_text\" = \"\";\n                id = 27522600;\n                \"is_prime\" = 0;\n                lv = 0;\n                lvl = 3;\n                n = \"\\U6674\\U513f\\U751f\\U6d3b\\U7f8e\\U5b66\\U7231\\U597d\\U8005\";\n                p = \"http:\/\/tx1.douguo.net\/upload\/photo\/6\/4\/2\/70_64d710b598f095e4bc4c0b1763efe962.jpeg\";\n                \"progress_image\" = \"\";\n                \"recipes_count_text\" = \"\";\n                relationship = \"-1\";\n                title = \"\";\n                v = 0;\n                \"verified_image\" = \"\";\n            };\n            \"sticker_icon\" =             (\n            );\n            time = \"2023-05-30 09:29:18\";\n            u =             {\n                \"followers_count_text\" = \"\";\n                id = 20611350;\n                \"is_prime\" = 0;\n                lv = 0;\n                lvl = 2;\n                n = \"\\U5411\\U6167\\U800c\\U751f\";\n                p = \"http:\/\/tx1.douguo.net\/upload\/photo\/d\/1\/3\/70_d1df5d6a134f3054f4e56c256d282b33.jpg\";\n                \"progress_image\" = \"\";\n                \"recipes_count_text\" = \"\";\n                relationship = \"-1\";\n                title = \"\";\n                v = 0;\n                \"verified_image\" = \"\";\n            };\n        },\n                {\n            ac = \"#999999\";\n            at = \"\\U676d\\U5dde\\U5e02\";\n            ccc = 0;\n            city = \"\\U676d\\U5dde\\U5e02\";\n            cmc = 2;\n            content =             (\n                                {\n                    c = \" \\U54c8\\U54c8\\U592a\\U597d\\U4e86\\Ud83d\\Ude0b\\Ud83d\\Udc4f\";\n                }\n            );\n            ia = 1;\n            id = 9030337;\n            \"ip_address_location\" = \"\\U6d59\\U6c5f\\U7701\";\n            like = 0;\n            \"like_count\" = 0;\n            \"reply_id\" = 9030312;\n            \"reply_user\" =             {\n                \"followers_count_text\" = \"\";\n                id = 20611350;\n                \"is_prime\" = 0;\n                lv = 0;\n                lvl = 2;\n                n = \"\\U5411\\U6167\\U800c\\U751f\";\n                p = \"http:\/\/tx1.douguo.net\/upload\/photo\/d\/1\/3\/70_d1df5d6a134f3054f4e56c256d282b33.jpg\";\n                \"progress_image\" = \"\";\n                \"recipes_count_text\" = \"\";\n                relationship = \"-1\";\n                title = \"\";\n                v = 0;\n                \"verified_image\" = \"\";\n            };\n            \"sticker_icon\" =             (\n            );\n            time = \"2023-05-30 12:26:32\";\n            u =             {\n                \"followers_count_text\" = \"\";\n                id = 27522600;\n                \"is_prime\" = 0;\n                lv = 0;\n                lvl = 3;\n                n = \"\\U6674\\U513f\\U751f\\U6d3b\\U7f8e\\U5b66\\U7231\\U597d\\U8005\";\n                p = \"http:\/\/tx1.douguo.net\/upload\/photo\/6\/4\/2\/70_64d710b598f095e4bc4c0b1763efe962.jpeg\";\n                \"progress_image\" = \"\";\n                \"recipes_count_text\" = \"\";\n                relationship = \"-1\";\n                title = \"\";\n                v = 0;\n                \"verified_image\" = \"\";\n            };\n        }\n    );\n    city = \"\";\n    cmc = 2;\n    content =     (\n                {\n            c = \"\\U70b8\\U7684\\U65f6\\U5019\\U8010\\U5fc3\\U4e00\\U70b9\\Uff0c\\U5c0f\\U706b\\U6162\\U70b8\\Uff0c\\U70b8\\U5230\\U4e24\\U9762\\U91d1\\U9ec4\\Uff0c\\U8fd9\\U6837\\U624d\\U9165\\U8106\\U9999\\U3002\";\n        }\n    );\n    ia = 1;\n    id = 9029744;\n    \"ip_address_location\" = \"\\U6d59\\U6c5f\";\n    like = 0;\n    \"like_count\" = 1;\n    \"reply_id\" = 0;\n    \"sticker_icon\" =     (\n    );\n    time = \"2023-05-27 10:16:38\";\n    u =     {\n        \"followers_count_text\" = \"\";\n        id = 27522600;\n        \"is_prime\" = 0;\n        lv = 0;\n        lvl = 3;\n        n = \"\\U6674\\U513f\\U751f\\U6d3b\\U7f8e\\U5b66\\U7231\\U597d\\U8005\";\n        p = \"http:\/\/tx1.douguo.net\/upload\/photo\/6\/4\/2\/70_64d710b598f095e4bc4c0b1763efe962.jpeg\";\n        \"progress_image\" = \"\";\n        \"recipes_count_text\" = \"\";\n        relationship = \"-1\";\n        title = \"\";\n        v = 0;\n        \"verified_image\" = \"\";\n    };\n}",
        "{\n    ac = \"#999999\";\n    at = \"\\U6b66\\U6c49\\U5e02\";\n    ccc = 1;\n    \"child_comments\" =     (\n                {\n            ac = \"#999999\";\n            at = \"\\U676d\\U5dde\\U5e02\";\n            ccc = 0;\n            city = \"\\U676d\\U5dde\\U5e02\";\n            cmc = 2;\n            content =             (\n                                {\n                    c = \" \\U4f60\\U653e\\U51c9\\U4e86\\Uff0c\\U518d\\U52a0\\U6dc0\\U7c89\\Uff0c\\U4e0d\\U4f1a\\U7c98\\U624b\\U7684\\U3002\\U8981\\U653e\\U51c9\\U3002\";\n                }\n            );\n            ia = 1;\n            id = 9032091;\n            \"ip_address_location\" = \"\\U6d59\\U6c5f\";\n            like = 0;\n            \"like_count\" = 0;\n            \"reply_id\" = 9031987;\n            \"reply_user\" =             {\n                \"followers_count_text\" = \"\";\n                id = 25626311;\n                \"is_prime\" = 0;\n                lv = 0;\n                lvl = 2;\n                n = \"\\U67d4\\U548c\\U7684\\U82dc\\U84ff\\U5f88\\U5f88\\U77ee\";\n                p = \"http:\/\/tx1.douguo.net\/upload\/photo\/1\/1\/1\/70_b7827e1b7bb12aeee0eb5eb4d2726f73.png\";\n                \"progress_image\" = \"\";\n                \"recipes_count_text\" = \"\";\n                relationship = \"-1\";\n                title = \"\";\n                v = 0;\n                \"verified_image\" = \"\";\n            };\n            \"sticker_icon\" =             (\n            );\n            time = \"2023-06-05 17:30:49\";\n            u =             {\n                \"followers_count_text\" = \"\";\n                id = 27522600;\n                \"is_prime\" = 0;\n                lv = 0;\n                lvl = 3;\n                n = \"\\U6674\\U513f\\U751f\\U6d3b\\U7f8e\\U5b66\\U7231\\U597d\\U8005\";\n                p = \"http:\/\/tx1.douguo.net\/upload\/photo\/6\/4\/2\/70_64d710b598f095e4bc4c0b1763efe962.jpeg\";\n                \"progress_image\" = \"\";\n                \"recipes_count_text\" = \"\";\n                relationship = \"-1\";\n                title = \"\";\n                v = 0;\n                \"verified_image\" = \"\";\n            };\n        }\n    );\n    city = \"\\U6b66\\U6c49\\U5e02\";\n    cmc = 2;\n    content =     (\n                {\n            c = \"\\U65e0\\U8bba\\U52a0\\U591a\\U5c11\\U6dc0\\U7c89\\U90fd\\U7c98\\U624b\\Uff0c\\U6210\\U4e86\\U70b8\\U4e38\\U5b50\";\n        }\n    );\n    ia = 0;\n    id = 9031987;\n    \"ip_address_location\" = \"\\U6e56\\U5317\";\n    like = 0;\n    \"like_count\" = 0;\n    \"reply_id\" = 0;\n    \"sticker_icon\" =     (\n    );\n    time = \"2023-06-04 16:33:53\";\n    u =     {\n        \"followers_count_text\" = \"\";\n        id = 25626311;\n        \"is_prime\" = 0;\n        lv = 0;\n        lvl = 2;\n        n = \"\\U67d4\\U548c\\U7684\\U82dc\\U84ff\\U5f88\\U5f88\\U77ee\";\n        p = \"http:\/\/tx1.douguo.net\/upload\/photo\/1\/1\/1\/70_b7827e1b7bb12aeee0eb5eb4d2726f73.png\";\n        \"progress_image\" = \"\";\n        \"recipes_count_text\" = \"\";\n        relationship = \"-1\";\n        title = \"\";\n        v = 0;\n        \"verified_image\" = \"\";\n    };\n}",
        "{\n    ac = \"#999999\";\n    at = \"\";\n    ccc = 1;\n    \"child_comments\" =     (\n                {\n            ac = \"#999999\";\n            at = \"\\U676d\\U5dde\\U5e02\";\n            ccc = 0;\n            city = \"\\U676d\\U5dde\\U5e02\";\n            cmc = 2;\n            content =             (\n                                {\n                    c = \" \\Ud83d\\Udc4f\";\n                }\n            );\n            ia = 1;\n            id = 9030336;\n            \"ip_address_location\" = \"\\U6d59\\U6c5f\\U7701\";\n            like = 0;\n            \"like_count\" = 0;\n            \"reply_id\" = 9030314;\n            \"reply_user\" =             {\n                \"followers_count_text\" = \"\";\n                id = 20611350;\n                \"is_prime\" = 0;\n                lv = 0;\n                lvl = 2;\n                n = \"\\U5411\\U6167\\U800c\\U751f\";\n                p = \"http:\/\/tx1.douguo.net\/upload\/photo\/d\/1\/3\/70_d1df5d6a134f3054f4e56c256d282b33.jpg\";\n                \"progress_image\" = \"\";\n                \"recipes_count_text\" = \"\";\n                relationship = \"-1\";\n                title = \"\";\n                v = 0;\n                \"verified_image\" = \"\";\n            };\n            \"sticker_icon\" =             (\n            );\n            time = \"2023-05-30 12:26:09\";\n            u =             {\n                \"followers_count_text\" = \"\";\n                id = 27522600;\n                \"is_prime\" = 0;\n                lv = 0;\n                lvl = 3;\n                n = \"\\U6674\\U513f\\U751f\\U6d3b\\U7f8e\\U5b66\\U7231\\U597d\\U8005\";\n                p = \"http:\/\/tx1.douguo.net\/upload\/photo\/6\/4\/2\/70_64d710b598f095e4bc4c0b1763efe962.jpeg\";\n                \"progress_image\" = \"\";\n                \"recipes_count_text\" = \"\";\n                relationship = \"-1\";\n                title = \"\";\n                v = 0;\n                \"verified_image\" = \"\";\n            };\n        }\n    );\n    city = \"\";\n    cmc = 2;\n    content =     (\n                {\n            c = \"\\U5c31\\U662f\\U505a\\U7684\\U65f6\\U5019\\U4f1a\\U7c98\\U624b\\Uff0c\\U63c9\\U51e0\\U4e2a\\U5c31\\U5f97\\U6d17\\U4e00\\U4e0b\\U624b\\Ud83d\\Ude0b\";\n        }\n    );\n    ia = 0;\n    id = 9030314;\n    \"ip_address_location\" = \"\\U6cb3\\U5317\";\n    like = 0;\n    \"like_count\" = 0;\n    \"reply_id\" = 0;\n    \"sticker_icon\" =     (\n    );\n    time = \"2023-05-30 09:32:28\";\n    u =     {\n        \"followers_count_text\" = \"\";\n        id = 20611350;\n        \"is_prime\" = 0;\n        lv = 0;\n        lvl = 2;\n        n = \"\\U5411\\U6167\\U800c\\U751f\";\n        p = \"http:\/\/tx1.douguo.net\/upload\/photo\/d\/1\/3\/70_d1df5d6a134f3054f4e56c256d282b33.jpg\";\n        \"progress_image\" = \"\";\n        \"recipes_count_text\" = \"\";\n        relationship = \"-1\";\n        title = \"\";\n        v = 0;\n        \"verified_image\" = \"\";\n    };\n}"
      ],
      "cookstory" : "",
      "release_time" : "",
      "ipoi" : "",
      "ss" : [

      ],
      "author_photo" : "http:\/\/tx1.douguo.net\/upload\/photo\/6\/4\/2\/70_64d710b598f095e4bc4c0b1763efe962.jpeg",
      "sc" : 0,
      "clicks" : "1",
      "comments_count_text" : "10",
      "act_des" : "",
      "rdsps" : [

      ],
      "vc" : "294106",
      "recent_comments" : [

      ],
      "thumb_height" : 0,
      "cookstorys" : [
        {
          "icon" : "",
          "u" : "",
          "color" : "",
          "id" : 0,
          "type" : 0,
          "c" : "参与活动:"
        },
        {
          "u" : "https:\/\/m.douguo.com\/activity\/ncpzj\/detail\/3784?isapp=1&open=0&_vs=1000300&&dg_refreshkey=publishnote",
          "icon" : "",
          "type" : 0,
          "c" : "#东古525掌勺节 致敬了不起的掌勺人#",
          "id" : 0
        }
      ],
      "user" : {
        "weibo_nick" : "",
        "sign" : "",
        "nick" : "晴儿生活美学爱好者",
        "qzone_nick" : "",
        "mobile" : "",
        "regist_time" : "",
        "lvl" : 3,
        "gender" : 2,
        "following_count" : 0,
        "verified_image" : "",
        "dishes_count" : 0,
        "pc" : 0,
        "point" : 0,
        "age" : "",
        "coursecount" : 0,
        "verified" : 0,
        "birthday" : "",
        "subscription_article_count" : 0,
        "email" : "",
        "setted_email" : 0,
        "verified_url" : "https:\/\/m.douguo.com\/user\/prodesc",
        "is_prime" : 0,
        "avatar_medium" : "http:\/\/tx1.douguo.net\/upload\/photo\/6\/4\/2\/140_64d710b598f095e4bc4c0b1763efe962.jpeg",
        "user_cover" : "",
        "favor_diaries_count" : 0,
        "user_id" : "27522600",
        "fc" : 0,
        "lv" : 0,
        "qq_weibo_nick" : "",
        "userid" : "27522600",
        "favorites_count" : 0,
        "diaries_count" : 0,
        "user_photo" : "http:\/\/tx1.douguo.net\/upload\/photo\/6\/4\/2\/70_64d710b598f095e4bc4c0b1763efe962.jpeg",
        "subscription" : 0,
        "recipes_count" : 0,
        "location" : 0,
        "introduction" : "",
        "user_large_photo" : "http:\/\/tx1.douguo.net\/upload\/photo\/6\/4\/2\/yuan_64d710b598f095e4bc4c0b1763efe962.jpeg",
        "progress_image" : "",
        "followers_count" : 0
      },
      "favo_counts" : 4319,
      "author" : "晴儿生活美学爱好者",
      "rips" : 0,
      "levelid" : 2,
      "dish_count_text" : "4",
      "ipia" : [

      ],
      "tags" : [

      ],
      "brand_day_dsp" : [

      ],
      "event" : {
        "url" : "https:\/\/m.douguo.com\/activity\/ncpzj\/detail\/3784?isapp=1&open=0&_vs=1000300&&dg_refreshkey=publishnote",
        "id" : 3784,
        "name" : "东古525掌勺节 致敬了不起的掌勺人"
      },
      "photo_path" : "https:\/\/i1.douguo.com\/upload\/caiku\/e\/4\/9\/600_e47d92961d5d2e9e44e1588687a1cf89.jpeg",
      "guide_image" : "",
      "recommend_label" : "4人学做",
      "bs" : [

      ],
      "purl" : "",
      "rewarded_video_dsp" : [

      ],
      "display_ingredient" : 1,
      "rpt" : "",
      "hq" : 1,
      "v_u" : "",
      "cook_time" : "10~30分钟",
      "rate_count" : 4,
      "pw" : 1616,
      "collect_status" : 0,
      "cook_time_image" : "https:\/\/i1.douguo.com\/upload\/banner\/1551424341.png",
      "ipci" : "",
      "ssu" : "",
      "first_level_comment_count" : 4,
      "su" : "",
      "cookstep" : [
        {
          "content" : "土豆上蒸锅蒸12分钟蒸熟",
          "position" : 1,
          "image" : "https:\/\/i1.douguo.com\/upload\/caiku\/5\/3\/b\/53eb1fe16e5036680588939def814ebb.jpeg",
          "image_width" : 3840,
          "thumb" : "https:\/\/i1.douguo.com\/upload\/caiku\/5\/3\/b\/140_53eb1fe16e5036680588939def814ebb.jpeg",
          "image_height" : 2565,
          "frame" : "-1"
        },
        {
          "frame" : "-1",
          "position" : 2,
          "image" : "https:\/\/i1.douguo.com\/upload\/caiku\/0\/7\/f\/07a73fc332db6379c823763c45c9e6ff.jpeg",
          "content" : "用擀面杖或者勺子把土豆压碎",
          "image_width" : 3840,
          "image_height" : 2565,
          "thumb" : "https:\/\/i1.douguo.com\/upload\/caiku\/0\/7\/f\/140_07a73fc332db6379c823763c45c9e6ff.jpeg"
        },
        {
          "content" : "加入盐、黑胡椒粉、玉米淀粉",
          "image" : "https:\/\/i1.douguo.com\/upload\/caiku\/e\/7\/6\/e763a96fcaee8ce5d7982d6f9735d036.jpeg",
          "image_height" : 2565,
          "image_width" : 3840,
          "thumb" : "https:\/\/i1.douguo.com\/upload\/caiku\/e\/7\/6\/140_e763a96fcaee8ce5d7982d6f9735d036.jpeg",
          "frame" : "-1",
          "position" : 3
        },
        {
          "image" : "https:\/\/i1.douguo.com\/upload\/caiku\/3\/0\/1\/30de51872195e0be88363cbca1f012f1.jpeg",
          "thumb" : "https:\/\/i1.douguo.com\/upload\/caiku\/3\/0\/1\/140_30de51872195e0be88363cbca1f012f1.jpeg",
          "position" : 4,
          "frame" : "-1",
          "content" : "用手揉搓成团",
          "image_width" : 3840,
          "image_height" : 2565
        },
        {
          "position" : 5,
          "content" : "油烧7层热，炸土豆饼",
          "image" : "https:\/\/i1.douguo.com\/upload\/caiku\/a\/4\/6\/a4adf61fc3fb92c59856c192f5b857d6.jpeg",
          "image_width" : 3840,
          "thumb" : "https:\/\/i1.douguo.com\/upload\/caiku\/a\/4\/6\/140_a4adf61fc3fb92c59856c192f5b857d6.jpeg",
          "frame" : "-1",
          "image_height" : 2565
        },
        {
          "content" : "炸成两面金黄起锅装盘，小朋友太喜欢了，一口气吃一盘，再也不惦记肯德基的薯条了，哈哈。",
          "frame" : "-1",
          "position" : 6,
          "image_height" : 2565,
          "image_width" : 3840,
          "thumb" : "https:\/\/i1.douguo.com\/upload\/caiku\/2\/4\/f\/140_2401be80dfbc7e42a2ca7951948c7d6f.jpeg",
          "image" : "https:\/\/i1.douguo.com\/upload\/caiku\/2\/4\/f\/2401be80dfbc7e42a2ca7951948c7d6f.jpeg"
        }
      ],
      "related_ads" : [

      ],
      "btm_dsp" : [

      ],
      "author_verified" : 0,
      "dishes" : [

      ],
      "recommendation_tag" : "",
      "hqu" : "recipes:\/\/www.douguo.com\/notedetail?id=21162253",
      "views_count_text" : "29.4万",
      "rrps" : [

      ],
      "packages_id" : [

      ],
      "rcs" : [

      ],
      "rate_show" : 0,
      "create_time" : "2023-05-26 13:35:57",
      "original_photo_path" : "http:\/\/i1.douguo.net\/upload\/caiku\/e\/4\/9\/yuan_e47d92961d5d2e9e44e1588687a1cf89.jpeg",
      "ipurl" : "",
      "title_ad" : [

      ],
      "recipe_list_tags" : [
        {
          "jump_url" : "",
          "text" : "关注的人",
          "background_start_color" : "#F4F5F5",
          "background_border_color" : "",
          "text_color" : "#141515",
          "right_image" : "",
          "background_end_color" : "#F4F5F5"
        }
      ],
      "rpst" : "",
      "notes" : [

      ],
      "ipt" : ""
    }
  },
  "status" : 0
}