{
  "status" : 0,
  "result" : {
    "recipe" : {
      "dish_count" : 44,
      "thumb_path" : "https:\/\/i1.douguo.com\/upload\/caiku\/1\/f\/5\/300_1f300c8b2bba954b90f0cc76dd085335.jpg",
      "display_ingredient" : 1,
      "rate_count" : 38,
      "original_photo_path" : "http:\/\/i1.douguo.net\/upload\/caiku\/1\/f\/5\/yuan_1f300c8b2bba954b90f0cc76dd085335.jpg",
      "story_dsp" : [

      ],
      "rrpt" : "",
      "rcs" : [

      ],
      "recent_comments" : [

      ],
      "photo_path" : "https:\/\/i1.douguo.com\/upload\/caiku\/1\/f\/5\/600_1f300c8b2bba954b90f0cc76dd085335.jpg",
      "comments_count" : 41,
      "rate_show" : 1,
      "ecs" : 0,
      "rsm" : "该功能暂停使用",
      "purl" : "",
      "rdsps" : [

      ],
      "author" : "zy宝妈小厨",
      "ipurl" : "",
      "cook_difficulty_image" : "https:\/\/i1.douguo.com\/upload\/banner\/1551424390.png",
      "vc" : "8924490",
      "cook_time_image" : "https:\/\/i1.douguo.com\/upload\/banner\/1551424358.png",
      "eu" : "recipes:\/\/www.douguo.com\/postdetail?id=242016",
      "recommendation_tag" : "",
      "hq" : 1,
      "advice" : {
        "at" : "能帮助你减脂、控血糖～",
        "has" : [
          {
            "url" : "recipes:\/\/www.douguo.com\/simplerecipelist?t=低糖&id=低糖",
            "t" : "低糖"
          }
        ],
        "da" : {
          "t" : "查看详细分析",
          "iu" : "https:\/\/i1.douguo.com\/upload\/banner\/f\/4\/d\/f48877e53c37759bc12ac494be82ec8d.png",
          "url" : "https:\/\/m.douguo.com\/recipe\/nutrient_self\/2383881"
        }
      },
      "release_time" : "",
      "bs" : [

      ],
      "guide_image" : "",
      "ipia" : [

      ],
      "ipit" : 0,
      "vu" : "",
      "rate" : 5,
      "create_time" : "2019-12-12 16:18:42",
      "ssu" : "",
      "btm_dsp" : [

      ],
      "cookstory" : "小的时候，妈妈做的菜总是要比外面吃的软一些，长大了自己有了家才知道，家里有老人和孩子，口味和口感得紧着老的和小的，所以我现在做饭，尽量做到饭菜符合老少口味，还要营养丰富，他们身体好才是家人最大的幸福。\n天气冷了，推荐一款适合老人和孩子的蔬菜，它就是菜花，也叫花椰菜，质地细嫩，味甘鲜美，它的嫩茎纤维，烹炒后会变得更加柔嫩可口，食后非常好消化易吸收，很适合老人小孩和脾胃虚弱、消化功能不强者食用。\n菜花炒肉，制作的要点肉要够嫩，怎样才能做到，“腌制”很重要，所以别偷懒，好吃、家人爱吃才是硬道理，咋做都是做，干嘛不做得好吃呢？",
      "rpst" : "",
      "favo_counts" : 42609,
      "ipci" : "",
      "comments" : [
        "{\n    ac = \"#999999\";\n    at = \"\\U961c\\U9633\\U5e02\";\n    ccc = 3;\n    \"child_comments\" =     (\n                {\n            ac = \"#999999\";\n            at = \"\\U5317\\U4eac\\U5e02\";\n            ccc = 0;\n            city = \"\\U5317\\U4eac\\U5e02\";\n            cmc = 2;\n            content =             (\n                                {\n                    c = \" \\U56e0\\U4e3a\\U80a5\\U8089\\U5438\\U6c34\\U4e86\";\n                }\n            );\n            ia = 0;\n            id = 8967876;\n            \"ip_address_location\" = \"\\U5317\\U4eac\\U5e02\";\n            like = 0;\n            \"like_count\" = 0;\n            \"reply_id\" = 8767446;\n            \"reply_user\" =             {\n                \"followers_count_text\" = \"\";\n                id = 24733097;\n                \"is_prime\" = 0;\n                lv = 0;\n                lvl = 1;\n                n = \"\\U5fc3\\U75db\\U7684\\U68d8\\U80f8\\U86d9\";\n                p = \"http:\/\/tx1.douguo.net\/upload\/photo\/1\/1\/1\/70_4575960c439b1aaa30146ef26bd56ba5.png\";\n                \"progress_image\" = \"\";\n                \"recipes_count_text\" = \"\";\n                relationship = \"-1\";\n                title = \"\";\n                v = 0;\n                \"verified_image\" = \"\";\n            };\n            \"sticker_icon\" =             (\n            );\n            time = \"2022-09-06 20:21:34\";\n            u =             {\n                \"followers_count_text\" = \"\";\n                id = 27284226;\n                \"is_prime\" = 0;\n                lv = 0;\n                lvl = 1;\n                n = \"\\U7cbe\\U7f8e\\U7684\\U767e\\U9999\\U679c\\U5f88\\U6c89\\U601d\";\n                p = \"http:\/\/tx1.douguo.net\/upload\/photo\/1\/1\/1\/70_07220b4b85fcb8ef15a2785fc98258f3.png\";\n                \"progress_image\" = \"\";\n                \"recipes_count_text\" = \"\";\n                relationship = \"-1\";\n                title = \"\";\n                v = 0;\n                \"verified_image\" = \"\";\n            };\n        },\n                {\n            ac = \"#999999\";\n            at = \"\";\n            ccc = 0;\n            city = \"\";\n            cmc = 2;\n            content =             (\n                                {\n                    c = \" \\U4e0d\\U653e\\U6599\\U9152\\U5c31\\U597d\\U4e86\\Uff0c\\U6216\\U8005\\U6599\\U9152\\U6539\\U6210\\U7c73\\U9152\\U6216\\U8005\\U767d\\U9152\\U3002\\U6211\\U662f\\U5403\\U4e0d\\U60ef\\U6599\\U9152\\U7092\\U51fa\\U6765\\U7684\\U5473\\U9053\\Uff0c\\U602a\\U602a\\U7684\";\n                }\n            );\n            ia = 0;\n            id = 9015946;\n            \"ip_address_location\" = \"\\U5e7f\\U4e1c\\U7701\";\n            like = 0;\n            \"like_count\" = 0;\n            \"reply_id\" = 8767446;\n            \"reply_user\" =             {\n                \"followers_count_text\" = \"\";\n                id = 24733097;\n                \"is_prime\" = 0;\n                lv = 0;\n                lvl = 1;\n                n = \"\\U5fc3\\U75db\\U7684\\U68d8\\U80f8\\U86d9\";\n                p = \"http:\/\/tx1.douguo.net\/upload\/photo\/1\/1\/1\/70_4575960c439b1aaa30146ef26bd56ba5.png\";\n                \"progress_image\" = \"\";\n                \"recipes_count_text\" = \"\";\n                relationship = \"-1\";\n                title = \"\";\n                v = 0;\n                \"verified_image\" = \"\";\n            };\n            \"sticker_icon\" =             (\n            );\n            time = \"2023-04-01 23:59:40\";\n            u =             {\n                \"followers_count_text\" = \"\";\n                id = 26326421;\n                \"is_prime\" = 0;\n                lv = 0;\n                lvl = 1;\n                n = \"Links\\U8042\\U535a\\U701a\";\n                p = \"http:\/\/tx1.douguo.net\/upload\/photo\/1\/1\/1\/70_5d22755e62c0dd3e387738493de1129d.png\";\n                \"progress_image\" = \"\";\n                \"recipes_count_text\" = \"\";\n                relationship = \"-1\";\n                title = \"\";\n                v = 0;\n                \"verified_image\" = \"\";\n            };\n        }\n    );\n    city = \"\\U961c\\U9633\\U5e02\";\n    cmc = 2;\n    content =     (\n                {\n            c = \"\\U6211\\U505a\\U8d77\\U6765\\U8089\\U600e\\U4e48\\U6709\\U4e00\\U80a1\\U5473\\U9053\\Uff0c\\U8089\\U662f\\U65b0\\U4e70\\U7684\";\n        }\n    );\n    ia = 0;\n    id = 8767446;\n    \"ip_address_location\" = \"\";\n    like = 0;\n    \"like_count\" = 2;\n    \"reply_id\" = 0;\n    \"sticker_icon\" =     (\n    );\n    time = \"2021-08-24 19:54:15\";\n    u =     {\n        \"followers_count_text\" = \"\";\n        id = 24733097;\n        \"is_prime\" = 0;\n        lv = 0;\n        lvl = 1;\n        n = \"\\U5fc3\\U75db\\U7684\\U68d8\\U80f8\\U86d9\";\n        p = \"http:\/\/tx1.douguo.net\/upload\/photo\/1\/1\/1\/70_4575960c439b1aaa30146ef26bd56ba5.png\";\n        \"progress_image\" = \"\";\n        \"recipes_count_text\" = \"\";\n        relationship = \"-1\";\n        title = \"\";\n        v = 0;\n        \"verified_image\" = \"\";\n    };\n}",
        "{\n    ac = \"#999999\";\n    at = \"\";\n    ccc = 2;\n    \"child_comments\" =     (\n                {\n            ac = \"#999999\";\n            at = \"\\U5e7f\\U5dde\\U5e02\";\n            ccc = 0;\n            city = \"\\U5e7f\\U5dde\\U5e02\";\n            cmc = 2;\n            content =             (\n                                {\n                    c = \" \\U6211\\U4e5f\\U597d\\U5947\\U2026\";\n                }\n            );\n            ia = 0;\n            id = 8914538;\n            \"ip_address_location\" = \"\";\n            like = 0;\n            \"like_count\" = 0;\n            \"reply_id\" = 7910135;\n            \"reply_user\" =             {\n                \"followers_count_text\" = \"\";\n                id = 25415847;\n                \"is_prime\" = 0;\n                lv = 0;\n                lvl = 1;\n                n = \"\\U6b22\\U4e50\\U9a6cjftp\";\n                p = \"http:\/\/tx1.douguo.net\/upload\/photo\/1\/1\/1\/70_3e722480ce22148d611912fb1e7f1dcb.png\";\n                \"progress_image\" = \"\";\n                \"recipes_count_text\" = \"\";\n                relationship = \"-1\";\n                title = \"\";\n                v = 0;\n                \"verified_image\" = \"\";\n            };\n            \"sticker_icon\" =             (\n            );\n            time = \"2022-02-09 16:39:42\";\n            u =             {\n                \"followers_count_text\" = \"\";\n                id = 25568033;\n                \"is_prime\" = 0;\n                lv = 0;\n                lvl = 3;\n                n = \"\\U718a\\U732b\\U6bd4\\U57fa\\U65af\";\n                p = \"http:\/\/tx1.douguo.net\/upload\/photo\/c\/4\/6\/70_c41d21666ddf7ced96b249039f85dc86.jpeg\";\n                \"progress_image\" = \"\";\n                \"recipes_count_text\" = \"\";\n                relationship = \"-1\";\n                title = \"\";\n                v = 0;\n                \"verified_image\" = \"\";\n            };\n        },\n                {\n            ac = \"#999999\";\n            at = \"\";\n            ccc = 0;\n            city = \"\";\n            cmc = 2;\n            content =             (\n                                {\n                    c = \" \\U4e0d\\U7528\";\n                }\n            );\n            ia = 0;\n            id = 8991698;\n            \"ip_address_location\" = \"\\U5c71\\U4e1c\";\n            like = 0;\n            \"like_count\" = 0;\n            \"reply_id\" = 7910135;\n            \"reply_user\" =             {\n                \"followers_count_text\" = \"\";\n                id = 25415847;\n                \"is_prime\" = 0;\n                lv = 0;\n                lvl = 1;\n                n = \"\\U6b22\\U4e50\\U9a6cjftp\";\n                p = \"http:\/\/tx1.douguo.net\/upload\/photo\/1\/1\/1\/70_3e722480ce22148d611912fb1e7f1dcb.png\";\n                \"progress_image\" = \"\";\n                \"recipes_count_text\" = \"\";\n                relationship = \"-1\";\n                title = \"\";\n                v = 0;\n                \"verified_image\" = \"\";\n            };\n            \"sticker_icon\" =             (\n            );\n            time = \"2022-12-25 19:56:44\";\n            u =             {\n                \"followers_count_text\" = \"\";\n                id = 27422467;\n                \"is_prime\" = 0;\n                lv = 0;\n                lvl = 1;\n                n = \"\\U72e1\\U733e\\U7684\\U6728\\U74dc\\U5f88\\U7cbe\\U7f8e\";\n                p = \"http:\/\/tx1.douguo.net\/upload\/photo\/8\/b\/f\/70_u71683101827478201146.jpeg\";\n                \"progress_image\" = \"\";\n                \"recipes_count_text\" = \"\";\n                relationship = \"-1\";\n                title = \"\";\n                v = 0;\n                \"verified_image\" = \"\";\n            };\n        }\n    );\n    city = \"\";\n    cmc = 2;\n    content =     (\n                {\n            c = \"\\U4e0d\\U7528\\U751f\\U59dc\\U5927\\U849c\\U5417\\n\";\n        }\n    );\n    ia = 0;\n    id = 7910135;\n    \"ip_address_location\" = \"\";\n    like = 0;\n    \"like_count\" = 2;\n    \"reply_id\" = 0;\n    \"sticker_icon\" =     (\n    );\n    time = \"2020-04-24 09:35:47\";\n    u =     {\n        \"followers_count_text\" = \"\";\n        id = 25415847;\n        \"is_prime\" = 0;\n        lv = 0;\n        lvl = 1;\n        n = \"\\U6b22\\U4e50\\U9a6cjftp\";\n        p = \"http:\/\/tx1.douguo.net\/upload\/photo\/1\/1\/1\/70_3e722480ce22148d611912fb1e7f1dcb.png\";\n        \"progress_image\" = \"\";\n        \"recipes_count_text\" = \"\";\n        relationship = \"-1\";\n        title = \"\";\n        v = 0;\n        \"verified_image\" = \"\";\n    };\n}",
        "{\n    ac = \"#999999\";\n    at = \"\\U6d77\\U53e3\\U5e02\";\n    ccc = 0;\n    \"child_comments\" =     (\n    );\n    city = \"\\U6d77\\U53e3\\U5e02\";\n    cmc = 2;\n    content =     (\n                {\n            c = \"\\U6309\\U4f60\\U8bf4\\U7684\\U8fd9\\U4e9b\\U6599\\U814c\\U51fa\\U6765\\U7684\\U8089\\U4e00\\U80a1\\U602a\\U5473\\Uff0c\\U6076\\U5fc3\\U6b7b\\U4e86\\Uff0c\\U771f\\U5751\\U4eba\";\n        }\n    );\n    ia = 0;\n    id = 8945989;\n    \"ip_address_location\" = \"\";\n    like = 0;\n    \"like_count\" = 2;\n    \"reply_id\" = 0;\n    \"sticker_icon\" =     (\n    );\n    time = \"2022-05-29 14:28:10\";\n    u =     {\n        \"followers_count_text\" = \"\";\n        id = 19779338;\n        \"is_prime\" = 0;\n        lv = 0;\n        lvl = 1;\n        n = \"\\U6843\\U3001\\U592d\\U592d\";\n        p = \"http:\/\/tx1.douguo.net\/upload\/photo\/5\/8\/6\/70_u88686761650378231843.jpeg\";\n        \"progress_image\" = \"\";\n        \"recipes_count_text\" = \"\";\n        relationship = \"-1\";\n        title = \"\";\n        v = 0;\n        \"verified_image\" = \"\";\n    };\n}"
      ],
      "minor" : [

      ],
      "comments_count_text" : "41",
      "rrps" : [

      ],
      "act_des" : "",
      "notes" : [

      ],
      "major" : [
        {
          "note" : "300克",
          "title" : "菜花",
          "tu" : "https:\/\/m.douguo.com\/ingredients\/菜花\/detailmaterial"
        },
        {
          "note" : "150克",
          "title" : "猪瘦肉"
        },
        {
          "tu" : "https:\/\/m.douguo.com\/ingredients\/料酒\/detailmaterial",
          "title" : "料酒",
          "note" : "1勺"
        },
        {
          "tu" : "https:\/\/m.douguo.com\/ingredients\/生抽\/detailmaterial",
          "note" : "1勺",
          "title" : "生抽"
        },
        {
          "tu" : "https:\/\/m.douguo.com\/ingredients\/老抽\/detailmaterial",
          "title" : "老抽",
          "note" : "半勺"
        },
        {
          "note" : "半勺",
          "title" : "蚝油",
          "tu" : "https:\/\/m.douguo.com\/ingredients\/蚝油\/detailmaterial"
        },
        {
          "note" : "1克",
          "title" : "白胡椒粉"
        },
        {
          "note" : "1克",
          "title" : "白糖",
          "tu" : "https:\/\/m.douguo.com\/ingredients\/白糖\/detailmaterial"
        },
        {
          "note" : "1勺",
          "title" : "玉米淀粉",
          "tu" : "https:\/\/m.douguo.com\/ingredients\/玉米淀粉\/detailmaterial"
        },
        {
          "note" : "1勺",
          "title" : "味极鲜酱油"
        },
        {
          "tu" : "https:\/\/m.douguo.com\/ingredients\/盐\/detailmaterial",
          "note" : "5克",
          "title" : "盐"
        },
        {
          "title" : "植物油",
          "note" : "3-4勺",
          "tu" : "https:\/\/m.douguo.com\/ingredients\/植物油\/detailmaterial"
        }
      ],
      "cook_time" : "10分钟左右",
      "ph" : 960,
      "old_comments" : [

      ],
      "levelid" : 2,
      "mid_mdsp" : [

      ],
      "rips" : 0,
      "recipe_list_tags" : [
        {
          "right_image" : "https:\/\/i1.douguo.com\/upload\/caiku\/0\/a\/b\/0a317d98c713e7e7d0d47ed003f2d93b.png",
          "background_border_color" : "",
          "text_color" : "#413C32",
          "text" : "减脂菜谱",
          "background_end_color" : "#F5D39F",
          "jump_url" : "recipes:\/\/www.douguo.com\/introdietitian",
          "background_start_color" : "#FAE9CD"
        },
        {
          "text_color" : "#141515",
          "background_end_color" : "#F4F5F5",
          "background_border_color" : "",
          "text" : "关注的人",
          "right_image" : "",
          "background_start_color" : "#F4F5F5",
          "jump_url" : ""
        },
        {
          "right_image" : "",
          "background_end_color" : "#F4F5F5",
          "jump_url" : "",
          "background_start_color" : "#F4F5F5",
          "text" : "内容详细",
          "background_border_color" : "",
          "text_color" : "#141515"
        }
      ],
      "ss" : [

      ],
      "rpid" : 0,
      "cookwares" : [

      ],
      "title_ad" : [

      ],
      "thumb_height" : 0,
      "sr" : "",
      "recommend_label" : "44人学做",
      "tips" : "1 肉片腌制一下不腥，而且入味更滑嫩，老人和孩子都咬的动\n2 食材里的猪肉也可以换成鸡胸肉，腌制方法一样",
      "tags" : [

      ],
      "cookstep" : [
        {
          "content" : "菜花剪成小朵，放入淡盐水中浸泡5分钟后换水洗净，控水备用；",
          "thumb" : "https:\/\/i1.douguo.com\/upload\/caiku\/4\/f\/8\/140_4f8740da1cc65d6373b1957b6d997cc8.jpg",
          "image_width" : 3168,
          "position" : 1,
          "frame" : "-1",
          "image" : "https:\/\/i1.douguo.com\/upload\/caiku\/4\/f\/8\/4f8740da1cc65d6373b1957b6d997cc8.jpg",
          "image_height" : 2184
        },
        {
          "thumb" : "https:\/\/i1.douguo.com\/upload\/caiku\/2\/8\/d\/140_28b3496913ca115ea90fe9c5a56533dd.jpg",
          "content" : "先处理猪肉：猪瘦肉切片，用清水清洗两遍攥干水分，加入1克盐、白胡椒粉、生抽、料酒、蚝油、白糖、老抽抓匀、抓粘，分两次加入少许清水抓匀，让肉丝吃饱水分后放入玉米淀粉继续抓匀，最后倒入少许植物油封住水分，腌制10分钟；",
          "position" : 2,
          "frame" : "-1",
          "image_width" : 3264,
          "image" : "https:\/\/i1.douguo.com\/upload\/caiku\/2\/8\/d\/28b3496913ca115ea90fe9c5a56533dd.jpg",
          "image_height" : 2448
        },
        {
          "thumb" : "https:\/\/i1.douguo.com\/upload\/caiku\/e\/2\/1\/140_e2703e496ca27711c111bf1376eeabe1.jpg",
          "frame" : "-1",
          "content" : "腌肉的时间再处理别的：煮锅加水烧开放少许植物油和1克盐，放入菜花焯水，再次开锅继续煮2分钟后关火，捞出冲凉，控水备用",
          "image_width" : 3264,
          "image" : "https:\/\/i1.douguo.com\/upload\/caiku\/e\/2\/1\/e2703e496ca27711c111bf1376eeabe1.jpg",
          "position" : 3,
          "image_height" : 2448
        },
        {
          "position" : 4,
          "content" : "炒锅烧热放植物油，油温4成热，放入腌制好的肉片煸炒",
          "image" : "https:\/\/i1.douguo.com\/upload\/caiku\/c\/5\/9\/c5bf552e3cfbf3eee49bddc93d079849.jpg",
          "image_height" : 2448,
          "thumb" : "https:\/\/i1.douguo.com\/upload\/caiku\/c\/5\/9\/140_c5bf552e3cfbf3eee49bddc93d079849.jpg",
          "image_width" : 3264,
          "frame" : "-1"
        },
        {
          "position" : 5,
          "image_width" : 3264,
          "content" : "待肉片变色，放入控干水分的菜花翻炒",
          "image_height" : 2448,
          "image" : "https:\/\/i1.douguo.com\/upload\/caiku\/a\/6\/f\/a603c5a17416641d50b98e0d9544614f.jpg",
          "frame" : "-1",
          "thumb" : "https:\/\/i1.douguo.com\/upload\/caiku\/a\/6\/f\/140_a603c5a17416641d50b98e0d9544614f.jpg"
        },
        {
          "content" : "加入味极鲜酱油炒匀",
          "image_height" : 2448,
          "frame" : "-1",
          "image" : "https:\/\/i1.douguo.com\/upload\/caiku\/a\/e\/b\/aecd06432757b9bc1735c8e0eb6898fb.jpg",
          "thumb" : "https:\/\/i1.douguo.com\/upload\/caiku\/a\/e\/b\/140_aecd06432757b9bc1735c8e0eb6898fb.jpg",
          "position" : 6,
          "image_width" : 3264
        },
        {
          "image_width" : 3264,
          "image" : "https:\/\/i1.douguo.com\/upload\/caiku\/9\/b\/f\/9bc1944c430bc9cae6cb6303894aaaef.jpg",
          "frame" : "-1",
          "content" : "加3克盐调个味，翻炒均匀即可关火装盘",
          "image_height" : 2448,
          "thumb" : "https:\/\/i1.douguo.com\/upload\/caiku\/9\/b\/f\/140_9bc1944c430bc9cae6cb6303894aaaef.jpg",
          "position" : 7
        }
      ],
      "author_photo" : "http:\/\/tx1.douguo.net\/upload\/photo\/b\/b\/e\/70_u48254017813031170743.jpg",
      "author_verified" : 1,
      "brand_day_dsp" : [

      ],
      "dishes" : [

      ],
      "packages_id" : [

      ],
      "recipe_tags" : [
        "{\n    \"background_border_color\" = \"\";\n    \"background_end_color\" = \"#F5D39F\";\n    \"background_start_color\" = \"#FAE9CD\";\n    \"jump_url\" = \"recipes:\/\/www.douguo.com\/introdietitian\";\n    \"left_image\" = \"https:\/\/i1.douguo.com\/upload\/caiku\/4\/e\/8\/4ec0a3547dfdb0e8541ff7b7b61b2578.png\";\n    \"right_image\" = \"https:\/\/i1.douguo.com\/upload\/caiku\/0\/a\/b\/0a317d98c713e7e7d0d47ed003f2d93b.png\";\n    text = \"\\U51cf\\U8102\\U83dc\\U8c31\";\n    \"text_color\" = \"#413C32\";\n}"
      ],
      "sc" : 0,
      "rpt" : "",
      "rewarded_video_dsp" : [

      ],
      "v_u" : "",
      "recommended" : 0,
      "dish_count_text" : "44",
      "vfurl" : "",
      "share_info" : {
        "image" : "https:\/\/cp1.douguo.com\/upload\/caiku\/1\/f\/5\/1f300c8b2bba954b90f0cc76dd085335.jpg",
        "qr_image" : "",
        "object_id" : "2383881",
        "mini_program" : [

        ],
        "s_u" : "http:\/\/m.douguo.com\/cookbook\/2383881.html",
        "infos" : [
          {
            "name" : "下饭菜~菜花炒肉-会做饭很酷!",
            "object_id" : "2383881",
            "s_u" : "",
            "qr_image" : "",
            "mini_program" : [

            ],
            "channel" : "1",
            "image" : "https:\/\/cp1.douguo.com\/upload\/caiku\/1\/f\/5\/1f300c8b2bba954b90f0cc76dd085335.jpg",
            "s_d" : "#学做饭用豆果美食# 会做饭好酷啊！我在@豆果美食 分享了【下饭菜~菜花炒肉-会做饭很酷!】，今天也是厨艺满满的一天呢，快来和我一起学做美食吧！查看图片了解菜谱（更多美食秘籍点击https:\/\/m.weibo.cn\/p\/100404i33631获取）"
          },
          {
            "qr_image" : "",
            "image" : "https:\/\/cp1.douguo.com\/upload\/caiku\/1\/f\/5\/1f300c8b2bba954b90f0cc76dd085335.jpg",
            "object_id" : "2383881",
            "channel" : "7",
            "mini_program" : [

            ],
            "s_u" : "http:\/\/m.douguo.com\/cookbook\/2383881.html",
            "name" : "下饭菜~菜花炒肉-会做饭很酷!",
            "s_d" : "下饭菜~菜花炒肉-会做饭很酷!"
          },
          {
            "s_d" : "下饭菜~菜花炒肉-会做饭很酷!",
            "channel" : "8",
            "s_u" : "http:\/\/m.douguo.com\/cookbook\/2383881.html",
            "object_id" : "2383881",
            "name" : "下饭菜~菜花炒肉-会做饭很酷!",
            "qr_image" : "",
            "mini_program" : [

            ],
            "image" : "https:\/\/cp1.douguo.com\/upload\/caiku\/1\/f\/5\/1f300c8b2bba954b90f0cc76dd085335.jpg"
          }
        ],
        "s_d" : "下饭菜~菜花炒肉-会做饭很酷!",
        "name" : "下饭菜~菜花炒肉-会做饭很酷!"
      },
      "pw" : 1440,
      "hqu" : "recipes:\/\/www.douguo.com\/notedetail?id=21162253",
      "top_mdsp" : [

      ],
      "image" : "http:\/\/i1.douguo.net\/upload\/caiku\/1\/f\/5\/300_1f300c8b2bba954b90f0cc76dd085335.jpg",
      "cook_id" : "2383881",
      "title" : "下饭菜~菜花炒肉",
      "collect_status" : 0,
      "ipoi" : "",
      "favo_counts_text" : "4.3万",
      "user" : {
        "favor_diaries_count" : 0,
        "verified_url" : "https:\/\/m.douguo.com\/user\/prodesc",
        "verified_image" : "https:\/\/i1.douguo.com\/upload\/note\/d\/a\/a\/da84247847aebe48d9dd0fcdac88862a.png",
        "recipes_count" : 0,
        "location" : 0,
        "birthday" : "",
        "subscription_article_count" : 0,
        "qzone_nick" : "",
        "subscription" : 0,
        "followers_count" : 0,
        "coursecount" : 0,
        "user_large_photo" : "http:\/\/tx1.douguo.net\/upload\/photo\/b\/b\/e\/yuan_u48254017813031170743.jpg",
        "verified" : 1,
        "weibo_nick" : "",
        "user_id" : "15593762",
        "pc" : 0,
        "dishes_count" : 0,
        "avatar_medium" : "http:\/\/tx1.douguo.net\/upload\/photo\/b\/b\/e\/140_u48254017813031170743.jpg",
        "following_count" : 0,
        "userid" : "15593762",
        "gender" : 2,
        "point" : 0,
        "nick" : "zy宝妈小厨",
        "mobile" : "",
        "progress_image" : "",
        "age" : "",
        "user_cover" : "",
        "fc" : 0,
        "lvl" : 6,
        "setted_email" : 0,
        "diaries_count" : 0,
        "introduction" : "",
        "user_photo" : "http:\/\/tx1.douguo.net\/upload\/photo\/b\/b\/e\/70_u48254017813031170743.jpg",
        "favorites_count" : 0,
        "qq_weibo_nick" : "",
        "sign" : "",
        "lv" : 0,
        "email" : "",
        "regist_time" : "",
        "is_prime" : 0
      },
      "views_count_text" : "892.4万",
      "cookstorys" : [
        {
          "u" : "",
          "type" : 0,
          "icon" : "",
          "color" : "",
          "c" : "小的时候，妈妈做的菜总是要比外面吃的软一些，长大了自己有了家才知道，家里有老人和孩子，口味和口感得紧着老的和小的，所以我现在做饭，尽量做到饭菜符合老少口味，还要营养丰富，他们身体好才是家人最大的幸福。\n天气冷了，推荐一款适合老人和孩子的蔬菜，它就是菜花，也叫花椰菜，质地细嫩，味甘鲜美，它的嫩茎纤维，烹炒后会变得更加柔嫩可口，食后非常好消化易吸收，很适合老人小孩和脾胃虚弱、消化功能不强者食用。\n菜花炒肉，制作的要点肉要够嫩，怎样才能做到，“腌制”很重要，所以别偷懒，好吃、家人爱吃才是硬道理，咋做都是做，干嘛不做得好吃呢？",
          "id" : 0
        }
      ],
      "first_level_comment_count" : 36,
      "related_ads" : [

      ],
      "ipt" : "",
      "su" : "",
      "author_id" : 15593762,
      "cook_difficulty" : "切墩(初级)",
      "clicks" : "8345307"
    }
  },
  "state" : "success"
}