{
  "status" : 0,
  "result" : {
    "recipe" : {
      "recommend_label" : "4人学做",
      "thumb_height" : 0,
      "advice" : {
        "has" : [
          {
            "url" : "recipes:\/\/www.douguo.com\/simplerecipelist?t=低饱和脂肪&id=低饱和脂肪",
            "t" : "低饱和脂肪"
          },
          {
            "url" : "recipes:\/\/www.douguo.com\/simplerecipelist?t=低胆固醇&id=低胆固醇",
            "t" : "低胆固醇"
          }
        ],
        "at" : "可以预防血栓形成～",
        "da" : {
          "iu" : "https:\/\/i1.douguo.com\/upload\/banner\/f\/4\/d\/f48877e53c37759bc12ac494be82ec8d.png",
          "url" : "https:\/\/m.douguo.com\/recipe\/nutrient_self\/1106234",
          "t" : "查看详细分析"
        }
      },
      "rewarded_video_dsp" : [

      ],
      "dish_count" : 4,
      "ipci" : "",
      "author_verified" : 0,
      "event" : {
        "id" : 0
      },
      "favo_counts" : 360,
      "first_level_comment_count" : 3,
      "comments_count" : 6,
      "cook_time_image" : "https:\/\/i1.douguo.com\/upload\/banner\/1551424341.png",
      "rdsps" : [

      ],
      "levelid" : 2,
      "ssu" : "",
      "image" : "http:\/\/i1.douguo.net\/upload\/caiku\/e\/4\/5\/300_e4a274e8632163d3c6336d4e55c89c35.jpg",
      "rpt" : "",
      "vfurl" : "",
      "vc" : "54647",
      "rrps" : [

      ],
      "guide_image" : "",
      "eu" : "recipes:\/\/www.douguo.com\/postdetail?id=242016",
      "ipia" : [

      ],
      "mid_mdsp" : [

      ],
      "rate_count" : 1,
      "major" : [
        {
          "note" : "若干",
          "title" : "牛肉片"
        },
        {
          "note" : "200g",
          "title" : "手抓饼"
        },
        {
          "note" : "半根",
          "title" : "胡萝卜",
          "tu" : "https:\/\/m.douguo.com\/ingredients\/胡萝卜\/detailmaterial"
        },
        {
          "title" : "圆葱",
          "note" : "半个"
        }
      ],
      "btm_dsp" : [

      ],
      "ipt" : "",
      "sr" : "",
      "release_time" : "",
      "rips" : 0,
      "cookstorys" : [

      ],
      "hq" : 1,
      "share_info" : {
        "object_id" : "1106234",
        "infos" : [
          {
            "s_u" : "",
            "mini_program" : [

            ],
            "channel" : "1",
            "image" : "https:\/\/cp1.douguo.com\/upload\/caiku\/e\/4\/5\/e4a274e8632163d3c6336d4e55c89c35.jpg",
            "name" : "牛肉炒饼-会做饭很酷!",
            "qr_image" : "",
            "object_id" : "1106234",
            "s_d" : "#学做饭用豆果美食# 我在@豆果美食 分享了【牛肉炒饼-会做饭很酷!】，哟，集美们～你看这是神仙美味～快跟着我做一份，做一份！查看图片了解菜谱（更多美食秘籍点击https:\/\/m.weibo.cn\/p\/100404i33631获取）#会做饭很酷# "
          },
          {
            "qr_image" : "",
            "s_u" : "http:\/\/m.douguo.com\/cookbook\/1106234.html",
            "channel" : "7",
            "mini_program" : [

            ],
            "name" : "牛肉炒饼-会做饭很酷!",
            "s_d" : "牛肉炒饼-会做饭很酷!",
            "object_id" : "1106234",
            "image" : "https:\/\/cp1.douguo.com\/upload\/caiku\/e\/4\/5\/e4a274e8632163d3c6336d4e55c89c35.jpg"
          },
          {
            "object_id" : "1106234",
            "s_d" : "牛肉炒饼-会做饭很酷!",
            "mini_program" : [

            ],
            "channel" : "8",
            "qr_image" : "",
            "s_u" : "http:\/\/m.douguo.com\/cookbook\/1106234.html",
            "name" : "牛肉炒饼-会做饭很酷!",
            "image" : "https:\/\/cp1.douguo.com\/upload\/caiku\/e\/4\/5\/e4a274e8632163d3c6336d4e55c89c35.jpg"
          }
        ],
        "s_u" : "http:\/\/m.douguo.com\/cookbook\/1106234.html",
        "name" : "牛肉炒饼-会做饭很酷!",
        "image" : "https:\/\/cp1.douguo.com\/upload\/caiku\/e\/4\/5\/e4a274e8632163d3c6336d4e55c89c35.jpg",
        "mini_program" : [

        ],
        "s_d" : "牛肉炒饼-会做饭很酷!",
        "qr_image" : ""
      },
      "ph" : 530,
      "tips" : "以上炒饼过程中没有放味精和盐，主要是因为生抽已起到提鲜的作用，饼里亦带咸味，也是为了健康起见。",
      "author_photo" : "http:\/\/tx1.douguo.net\/upload\/photo\/9\/1\/c\/70_u16582789654023163253.jpg",
      "ipoi" : "",
      "related_ads" : [

      ],
      "old_comments" : [

      ],
      "tags" : [
        "{\n    text = \"\\U4e3b\\U98df\";\n}",
        "{\n    text = \"\\U997c\";\n}",
        "{\n    text = \"\\U7092\\U997c\";\n}",
        "{\n    text = \"\\U7092\";\n}",
        "{\n    text = \"\\U9999\";\n}",
        "{\n    text = \"\\U5355\\U8eab\\U98df\\U8c31\";\n}"
      ],
      "story_dsp" : [

      ],
      "recipe_tags" : [

      ],
      "recipe_list_tags" : [
        {
          "text_color" : "#141515",
          "right_image" : "",
          "jump_url" : "",
          "background_border_color" : "",
          "background_start_color" : "#F4F5F5",
          "text" : "关注的人",
          "background_end_color" : "#F4F5F5"
        }
      ],
      "clicks" : "49195",
      "bs" : [

      ],
      "favo_counts_text" : "360",
      "cook_time" : "10-30分钟",
      "comments" : [
        "{\n    ac = \"#999999\";\n    at = \"\";\n    ccc = 1;\n    \"child_comments\" =     (\n                {\n            ac = \"#999999\";\n            at = \"\";\n            ccc = 0;\n            city = \"\";\n            cmc = 2;\n            content =             (\n                                {\n                    c = \" \\U51fa\\U9505\\U524d\\U5c11\\U653e\\U4e00\\U4e9b\\U6405\\U62cc\\U5747\\U5300\\U5c31\\U53ef\\U4ee5\\U5566\\Uff5e\";\n                }\n            );\n            ia = 1;\n            id = 2233476;\n            \"ip_address_location\" = \"\";\n            like = 0;\n            \"like_count\" = 0;\n            \"reply_id\" = 2233149;\n            \"reply_user\" =             {\n                \"followers_count_text\" = \"\";\n                id = 8852510;\n                \"is_prime\" = 0;\n                lv = 0;\n                lvl = 1;\n                n = \"\\U5e0c\\U5e0c51\";\n                p = \"\";\n                \"progress_image\" = \"\";\n                \"recipes_count_text\" = \"\";\n                relationship = \"-1\";\n                title = \"\";\n                v = 0;\n                \"verified_image\" = \"\";\n            };\n            \"sticker_icon\" =             (\n            );\n            time = \"2015-05-04 13:48:09\";\n            u =             {\n                \"followers_count_text\" = \"\";\n                id = 7095887;\n                \"is_prime\" = 0;\n                lv = 0;\n                lvl = 4;\n                n = \"\\U7d2b\\U591c\\U68a7\\U6850\";\n                p = \"http:\/\/tx1.douguo.net\/upload\/photo\/9\/1\/c\/70_u16582789654023163253.jpg\";\n                \"progress_image\" = \"\";\n                \"recipes_count_text\" = \"\";\n                relationship = \"-1\";\n                title = \"\";\n                v = 0;\n                \"verified_image\" = \"\";\n            };\n        }\n    );\n    city = \"\";\n    cmc = 2;\n    content =     (\n                {\n            c = \"\\U5b5c\\U7136\\U4ec0\\U4e48\\U65f6\\U5019\\U653e\\U554a\";\n        }\n    );\n    ia = 0;\n    id = 2233149;\n    \"ip_address_location\" = \"\";\n    like = 0;\n    \"like_count\" = 0;\n    \"reply_id\" = 0;\n    \"sticker_icon\" =     (\n    );\n    time = \"2015-05-04 11:38:34\";\n    u =     {\n        \"followers_count_text\" = \"\";\n        id = 8852510;\n        \"is_prime\" = 0;\n        lv = 0;\n        lvl = 1;\n        n = \"\\U5e0c\\U5e0c51\";\n        p = \"\";\n        \"progress_image\" = \"\";\n        \"recipes_count_text\" = \"\";\n        relationship = \"-1\";\n        title = \"\";\n        v = 0;\n        \"verified_image\" = \"\";\n    };\n}",
        "{\n    ac = \"#999999\";\n    at = \"\";\n    ccc = 1;\n    \"child_comments\" =     (\n                {\n            ac = \"#999999\";\n            at = \"\";\n            ccc = 0;\n            city = \"\";\n            cmc = 2;\n            content =             (\n                                {\n                    c = \" \\U62b1\\U6b49\\U554a\\Uff0c\\U6f0f\\U4e86\\U4e00\\U6b65\\Uff0c\\U5706\\U8471\\U548c\\U80e1\\U841d\\U535c\\U7092\\U8f6f\\U540e\\U653e\\U725b\\U8089\\U7247\\Uff0c\\U8f7b\\U8f7b\\U7092\\U51e0\\U4e0b\\U5373\\U53ef\\U653e\\U624b\\U6293\\U997c\\U4e86\\U3002 \";\n                }\n            );\n            ia = 1;\n            id = 1986361;\n            \"ip_address_location\" = \"\";\n            like = 0;\n            \"like_count\" = 0;\n            \"reply_id\" = 1986040;\n            \"reply_user\" =             {\n                \"followers_count_text\" = \"\";\n                id = 7968634;\n                \"is_prime\" = 0;\n                lv = 0;\n                lvl = 1;\n                n = \"\\U6768\\U632f\\U94ed\\U94ed\\U94ed\";\n                p = \"http:\/\/tx1.douguo.net\/upload\/photo\/0\/2\/4\/70_u22245419174735173239.jpg\";\n                \"progress_image\" = \"\";\n                \"recipes_count_text\" = \"\";\n                relationship = \"-1\";\n                title = \"\";\n                v = 0;\n                \"verified_image\" = \"\";\n            };\n            \"sticker_icon\" =             (\n            );\n            time = \"2015-01-26 11:17:05\";\n            u =             {\n                \"followers_count_text\" = \"\";\n                id = 7095887;\n                \"is_prime\" = 0;\n                lv = 0;\n                lvl = 4;\n                n = \"\\U7d2b\\U591c\\U68a7\\U6850\";\n                p = \"http:\/\/tx1.douguo.net\/upload\/photo\/9\/1\/c\/70_u16582789654023163253.jpg\";\n                \"progress_image\" = \"\";\n                \"recipes_count_text\" = \"\";\n                relationship = \"-1\";\n                title = \"\";\n                v = 0;\n                \"verified_image\" = \"\";\n            };\n        }\n    );\n    city = \"\";\n    cmc = 2;\n    content =     (\n                {\n            c = \"\\U5bf9\\U554a   \\U725b\\U8089\\U548b\\U6574\";\n        }\n    );\n    ia = 0;\n    id = 1986040;\n    \"ip_address_location\" = \"\";\n    like = 0;\n    \"like_count\" = 0;\n    \"reply_id\" = 0;\n    \"sticker_icon\" =     (\n    );\n    time = \"2015-01-26 09:35:50\";\n    u =     {\n        \"followers_count_text\" = \"\";\n        id = 7968634;\n        \"is_prime\" = 0;\n        lv = 0;\n        lvl = 1;\n        n = \"\\U6768\\U632f\\U94ed\\U94ed\\U94ed\";\n        p = \"http:\/\/tx1.douguo.net\/upload\/photo\/0\/2\/4\/70_u22245419174735173239.jpg\";\n        \"progress_image\" = \"\";\n        \"recipes_count_text\" = \"\";\n        relationship = \"-1\";\n        title = \"\";\n        v = 0;\n        \"verified_image\" = \"\";\n    };\n}",
        "{\n    ac = \"#999999\";\n    at = \"\";\n    ccc = 1;\n    \"child_comments\" =     (\n                {\n            ac = \"#999999\";\n            at = \"\";\n            ccc = 0;\n            city = \"\";\n            cmc = 2;\n            content =             (\n                                {\n                    c = \" \\U62b1\\U6b49\\U554a\\Uff0c\\U6f0f\\U4e86\\U4e00\\U6b65\\Uff0c\\U5706\\U8471\\U548c\\U80e1\\U841d\\U535c\\U7092\\U8f6f\\U540e\\U653e\\U725b\\U8089\\U7247\\Uff0c\\U8f7b\\U8f7b\\U7092\\U51e0\\U4e0b\\U5373\\U53ef\\U653e\\U624b\\U6293\\U997c\\U4e86\\U3002 \";\n                }\n            );\n            ia = 1;\n            id = 1986359;\n            \"ip_address_location\" = \"\";\n            like = 0;\n            \"like_count\" = 0;\n            \"reply_id\" = 1985734;\n            \"reply_user\" =             {\n                \"followers_count_text\" = \"\";\n                id = 3091460;\n                \"is_prime\" = 0;\n                lv = 0;\n                lvl = 1;\n                n = \"\\U8df3\\U7f8a\\U89d2\\U7403\";\n                p = \"http:\/\/tx1.douguo.net\/upload\/photo\/2\/0\/5\/70_u76091676341508124644.jpg\";\n                \"progress_image\" = \"\";\n                \"recipes_count_text\" = \"\";\n                relationship = \"-1\";\n                title = \"\";\n                v = 0;\n                \"verified_image\" = \"\";\n            };\n            \"sticker_icon\" =             (\n            );\n            time = \"2015-01-26 11:16:36\";\n            u =             {\n                \"followers_count_text\" = \"\";\n                id = 7095887;\n                \"is_prime\" = 0;\n                lv = 0;\n                lvl = 4;\n                n = \"\\U7d2b\\U591c\\U68a7\\U6850\";\n                p = \"http:\/\/tx1.douguo.net\/upload\/photo\/9\/1\/c\/70_u16582789654023163253.jpg\";\n                \"progress_image\" = \"\";\n                \"recipes_count_text\" = \"\";\n                relationship = \"-1\";\n                title = \"\";\n                v = 0;\n                \"verified_image\" = \"\";\n            };\n        }\n    );\n    city = \"\";\n    cmc = 2;\n    content =     (\n                {\n            c = \"\\U6ca1\\U8bf4\\U4ec0\\U4e48\\U65f6\\U5019\\U653e\\U725b\\U8089\\U5440\\Uff1f\";\n        }\n    );\n    ia = 0;\n    id = 1985734;\n    \"ip_address_location\" = \"\";\n    like = 0;\n    \"like_count\" = 0;\n    \"reply_id\" = 0;\n    \"sticker_icon\" =     (\n    );\n    time = \"2015-01-26 08:00:07\";\n    u =     {\n        \"followers_count_text\" = \"\";\n        id = 3091460;\n        \"is_prime\" = 0;\n        lv = 0;\n        lvl = 1;\n        n = \"\\U8df3\\U7f8a\\U89d2\\U7403\";\n        p = \"http:\/\/tx1.douguo.net\/upload\/photo\/2\/0\/5\/70_u76091676341508124644.jpg\";\n        \"progress_image\" = \"\";\n        \"recipes_count_text\" = \"\";\n        relationship = \"-1\";\n        title = \"\";\n        v = 0;\n        \"verified_image\" = \"\";\n    };\n}"
      ],
      "notes" : [

      ],
      "v_u" : "",
      "packages_id" : [

      ],
      "minor" : [
        "{\n    note = \"\\U4e00\\U52fa\";\n    title = \"\\U751f\\U62bd\";\n    tu = \"https:\/\/https:\/\/m.douguo.com\/ingredients\/\\U751f\\U62bd\/detailmaterial\";\n}",
        "{\n    note = \"\\U5c11\\U8bb8\";\n    title = \"\\U5b5c\\U7136\";\n}"
      ],
      "cook_id" : "1106234",
      "comments_count_text" : "6",
      "title_ad" : [

      ],
      "cookwares" : [

      ],
      "views_count_text" : "5.5万",
      "cookstory" : "",
      "top_mdsp" : [

      ],
      "recommendation_tag" : "",
      "purl" : "",
      "rpid" : 0,
      "original_photo_path" : "http:\/\/i1.douguo.net\/upload\/caiku\/e\/4\/5\/yuan_e4a274e8632163d3c6336d4e55c89c35.jpg",
      "rsm" : "该功能暂停使用",
      "rrpt" : "",
      "act_des" : "",
      "su" : "",
      "rcs" : [

      ],
      "title" : "牛肉炒饼",
      "sc" : 0,
      "ipit" : 0,
      "brand_day_dsp" : [

      ],
      "recommended" : 0,
      "vu" : "",
      "collect_status" : 0,
      "create_time" : "2015-01-26 14:11:15",
      "author" : "紫夜梧桐",
      "cookstep" : [
        {
          "frame" : "-1",
          "image_width" : 3328,
          "image_height" : 1872,
          "image" : "https:\/\/i1.douguo.com\/upload\/caiku\/8\/b\/8\/8baaa9d81fa6e7a6da8c3741a667bd58.jpg",
          "thumb" : "https:\/\/i1.douguo.com\/upload\/caiku\/8\/b\/8\/140_8baaa9d81fa6e7a6da8c3741a667bd58.jpg",
          "position" : 1,
          "content" : "圆葱胡萝卜切丝备用"
        },
        {
          "image" : "https:\/\/i1.douguo.com\/upload\/caiku\/8\/a\/9\/8aa14c615102d0bb50c8b53f4002cf39.jpg",
          "position" : 2,
          "frame" : "-1",
          "thumb" : "https:\/\/i1.douguo.com\/upload\/caiku\/8\/a\/9\/140_8aa14c615102d0bb50c8b53f4002cf39.jpg",
          "content" : "牛肉片焯水去除血水和浮沫后，捞出沥干备用",
          "image_width" : 3328,
          "image_height" : 1872
        },
        {
          "frame" : "-1",
          "image_width" : 3328,
          "image_height" : 1872,
          "thumb" : "https:\/\/i1.douguo.com\/upload\/caiku\/e\/a\/0\/140_eac90930986fa7c97e58a7302bafba60.jpg",
          "content" : "锅内放少许油，六成热时下胡萝卜圆葱丝，加少许生抽翻炒",
          "position" : 3,
          "image" : "https:\/\/i1.douguo.com\/upload\/caiku\/e\/a\/0\/eac90930986fa7c97e58a7302bafba60.jpg"
        },
        {
          "image" : "https:\/\/i1.douguo.com\/upload\/caiku\/2\/4\/8\/24bbd2024fc50d001b9b90954f30bb58.jpg",
          "image_width" : 3328,
          "position" : 4,
          "thumb" : "https:\/\/i1.douguo.com\/upload\/caiku\/2\/4\/8\/140_24bbd2024fc50d001b9b90954f30bb58.jpg",
          "frame" : "-1",
          "content" : "圆葱胡萝卜丝炒软后加入牛肉，稍稍炒一会后便加入手抓饼继续翻炒，炒饼过程中若太干可添加少许水",
          "image_height" : 1872
        },
        {
          "thumb" : "https:\/\/i1.douguo.com\/upload\/caiku\/f\/e\/1\/140_fe991226411099bc31ed4370e1dfca01.jpg",
          "content" : "完成，出锅喽~~",
          "position" : 5,
          "image_height" : 530,
          "frame" : "-1",
          "image" : "https:\/\/i1.douguo.com\/upload\/caiku\/f\/e\/1\/fe991226411099bc31ed4370e1dfca01.jpg",
          "image_width" : 800
        }
      ],
      "display_ingredient" : 1,
      "dish_count_text" : "4",
      "ss" : [

      ],
      "ipurl" : "",
      "rate" : 5,
      "cook_difficulty" : "切墩(初级)",
      "recent_comments" : [

      ],
      "cook_difficulty_image" : "https:\/\/i1.douguo.com\/upload\/banner\/1551424390.png",
      "user" : {
        "location" : 0,
        "sign" : "",
        "coursecount" : 0,
        "gender" : 2,
        "user_photo" : "http:\/\/tx1.douguo.net\/upload\/photo\/9\/1\/c\/70_u16582789654023163253.jpg",
        "lv" : 0,
        "nick" : "紫夜梧桐",
        "user_large_photo" : "http:\/\/tx1.douguo.net\/upload\/photo\/9\/1\/c\/yuan_u16582789654023163253.jpg",
        "fc" : 0,
        "recipes_count" : 0,
        "setted_email" : 0,
        "is_prime" : 0,
        "mobile" : "",
        "qzone_nick" : "",
        "verified_image" : "",
        "user_id" : "7095887",
        "user_cover" : "",
        "verified" : 0,
        "subscription_article_count" : 0,
        "subscription" : 0,
        "email" : "",
        "verified_url" : "https:\/\/m.douguo.com\/user\/prodesc",
        "birthday" : "",
        "dishes_count" : 0,
        "favor_diaries_count" : 0,
        "followers_count" : 0,
        "point" : 0,
        "progress_image" : "",
        "age" : "",
        "pc" : 0,
        "avatar_medium" : "http:\/\/tx1.douguo.net\/upload\/photo\/9\/1\/c\/140_u16582789654023163253.jpg",
        "lvl" : 4,
        "diaries_count" : 0,
        "weibo_nick" : "",
        "favorites_count" : 0,
        "following_count" : 0,
        "introduction" : "",
        "regist_time" : "",
        "qq_weibo_nick" : "",
        "userid" : "7095887"
      },
      "pw" : 800,
      "ecs" : 0,
      "rpst" : "",
      "hqu" : "recipes:\/\/www.douguo.com\/notedetail?id=21162253",
      "thumb_path" : "https:\/\/i1.douguo.com\/upload\/caiku\/e\/4\/5\/300_e4a274e8632163d3c6336d4e55c89c35.jpg",
      "photo_path" : "https:\/\/i1.douguo.com\/upload\/caiku\/e\/4\/5\/600_e4a274e8632163d3c6336d4e55c89c35.jpg",
      "rate_show" : 0,
      "author_id" : 7095887,
      "dishes" : [

      ]
    }
  },
  "state" : "success"
}