{
  "state" : "success",
  "result" : {
    "recipe" : {
      "story_dsp" : [

      ],
      "guide_image" : "",
      "cookstep" : [
        {
          "frame" : "-1",
          "image_width" : 1280,
          "thumb" : "https:\/\/i1.douguo.com\/upload\/caiku\/0\/c\/a\/140_0c463006e99dc37d7c67ae774bb8cbea.jpeg",
          "image" : "https:\/\/i1.douguo.com\/upload\/caiku\/0\/c\/a\/0c463006e99dc37d7c67ae774bb8cbea.jpeg",
          "image_height" : 1706,
          "content" : "鲜活鲍鱼",
          "position" : 1
        },
        {
          "frame" : "-1",
          "image_height" : 1706,
          "content" : "清理好粪便，肉壳分离",
          "thumb" : "https:\/\/i1.douguo.com\/upload\/caiku\/0\/3\/b\/140_0361e2a3a0cfcfa391c9dd6583fdc59b.jpeg",
          "image" : "https:\/\/i1.douguo.com\/upload\/caiku\/0\/3\/b\/0361e2a3a0cfcfa391c9dd6583fdc59b.jpeg",
          "position" : 2,
          "image_width" : 1280
        },
        {
          "image_height" : 1706,
          "frame" : "-1",
          "position" : 3,
          "image" : "https:\/\/i1.douguo.com\/upload\/caiku\/8\/c\/1\/8c6d6231199643ae240540c7e4661a21.jpeg",
          "thumb" : "https:\/\/i1.douguo.com\/upload\/caiku\/8\/c\/1\/140_8c6d6231199643ae240540c7e4661a21.jpeg",
          "content" : "用刀刨成片",
          "image_width" : 1280
        },
        {
          "frame" : "-1",
          "thumb" : "https:\/\/i1.douguo.com\/upload\/caiku\/8\/f\/3\/140_8f568629a9125f645af44ee3c99d8e33.jpeg",
          "image" : "https:\/\/i1.douguo.com\/upload\/caiku\/8\/f\/3\/8f568629a9125f645af44ee3c99d8e33.jpeg",
          "content" : "加上切好的姜丝",
          "position" : 4,
          "image_height" : 1706,
          "image_width" : 1280
        },
        {
          "position" : 5,
          "image_height" : 1706,
          "image_width" : 1280,
          "content" : "尖椒和干辣椒一起炒好",
          "image" : "https:\/\/i1.douguo.com\/upload\/caiku\/9\/5\/a\/95c6424b4b8f8aab77c4d0a031182ffa.jpeg",
          "frame" : "-1",
          "thumb" : "https:\/\/i1.douguo.com\/upload\/caiku\/9\/5\/a\/140_95c6424b4b8f8aab77c4d0a031182ffa.jpeg"
        },
        {
          "image_height" : 1706,
          "thumb" : "https:\/\/i1.douguo.com\/upload\/caiku\/a\/9\/4\/140_a90f471261e29af520741e0df5ef0c14.jpeg",
          "image" : "https:\/\/i1.douguo.com\/upload\/caiku\/a\/9\/4\/a90f471261e29af520741e0df5ef0c14.jpeg",
          "position" : 6,
          "frame" : "-1",
          "image_width" : 1280,
          "content" : "再炒鲍鱼片"
        },
        {
          "content" : "一起翻炒",
          "image" : "https:\/\/i1.douguo.com\/upload\/caiku\/9\/3\/4\/93b3306e66f99856a01106ff5d107da4.jpeg",
          "frame" : "-1",
          "thumb" : "https:\/\/i1.douguo.com\/upload\/caiku\/9\/3\/4\/140_93b3306e66f99856a01106ff5d107da4.jpeg",
          "image_width" : 1280,
          "image_height" : 1706,
          "position" : 7
        },
        {
          "image_width" : 1280,
          "thumb" : "https:\/\/i1.douguo.com\/upload\/caiku\/b\/4\/2\/140_b42e3c5aa042c9618ac85c7dfaea17d2.jpeg",
          "position" : 8,
          "content" : "出锅装盘",
          "image_height" : 1706,
          "frame" : "-1",
          "image" : "https:\/\/i1.douguo.com\/upload\/caiku\/b\/4\/2\/b42e3c5aa042c9618ac85c7dfaea17d2.jpeg"
        }
      ],
      "cookwares" : [

      ],
      "rrps" : [

      ],
      "release_time" : "",
      "ipt" : "",
      "hqu" : "recipes:\/\/www.douguo.com\/notedetail?id=21162253",
      "thumb_path" : "https:\/\/i1.douguo.com\/upload\/caiku\/3\/9\/d\/300_395582618a296cda914094f8fad3c0ad.jpeg",
      "notes" : [

      ],
      "first_level_comment_count" : 2,
      "thumb_height" : 0,
      "act_des" : "",
      "tips" : "鲍鱼刨片时刀要锋利，不然不好片",
      "rewarded_video_dsp" : [

      ],
      "sc" : 0,
      "user" : {
        "verified_image" : "",
        "fc" : 0,
        "recipes_count" : 0,
        "setted_email" : 0,
        "following_count" : 0,
        "diaries_count" : 0,
        "point" : 0,
        "user_photo" : "http:\/\/tx1.douguo.net\/upload\/photo\/f\/f\/6\/70_u84701331754126221900.jpeg",
        "favor_diaries_count" : 0,
        "email" : "",
        "nick" : "曾家厨房",
        "sign" : "",
        "verified" : 0,
        "qzone_nick" : "",
        "lv" : 0,
        "is_prime" : 0,
        "coursecount" : 0,
        "dishes_count" : 0,
        "progress_image" : "",
        "verified_url" : "https:\/\/m.douguo.com\/user\/prodesc",
        "userid" : "25202534",
        "age" : "",
        "pc" : 0,
        "subscription_article_count" : 0,
        "followers_count" : 0,
        "introduction" : "",
        "birthday" : "",
        "user_large_photo" : "http:\/\/tx1.douguo.net\/upload\/photo\/f\/f\/6\/yuan_u84701331754126221900.jpeg",
        "location" : 0,
        "mobile" : "",
        "avatar_medium" : "http:\/\/tx1.douguo.net\/upload\/photo\/f\/f\/6\/140_u84701331754126221900.jpeg",
        "weibo_nick" : "",
        "lvl" : 5,
        "user_cover" : "",
        "user_id" : "25202534",
        "qq_weibo_nick" : "",
        "subscription" : 0,
        "regist_time" : "",
        "gender" : 2,
        "favorites_count" : 0
      },
      "display_ingredient" : 1,
      "cook_time_image" : "https:\/\/i1.douguo.com\/upload\/banner\/1551424358.png",
      "ipci" : "",
      "author_id" : 25202534,
      "author" : "曾家厨房",
      "rpt" : "",
      "rrpt" : "",
      "old_comments" : [

      ],
      "vfurl" : "",
      "cookstorys" : [
        {
          "color" : "",
          "u" : "",
          "c" : "马云家的盒马最近鲍鱼便宜，再来个爆炒的",
          "type" : 0,
          "icon" : "",
          "id" : 0
        }
      ],
      "favo_counts" : 1568,
      "rsm" : "该功能暂停使用",
      "sr" : "",
      "pw" : 600,
      "purl" : "",
      "dish_count" : 2,
      "rpid" : 0,
      "btm_dsp" : [

      ],
      "title_ad" : [

      ],
      "major" : [
        {
          "note" : "30个",
          "tu" : "https:\/\/m.douguo.com\/ingredients\/鲍鱼\/detailmaterial",
          "title" : "鲍鱼"
        },
        {
          "tu" : "https:\/\/m.douguo.com\/ingredients\/姜\/detailmaterial",
          "title" : "姜",
          "note" : "1快"
        },
        {
          "title" : "青尖椒",
          "note" : "5个"
        },
        {
          "title" : "红干辣椒",
          "note" : "3个"
        }
      ],
      "author_photo" : "http:\/\/tx1.douguo.net\/upload\/photo\/f\/f\/6\/70_u84701331754126221900.jpeg",
      "ipit" : 0,
      "vc" : "326893",
      "cook_id" : "2465569",
      "recent_comments" : [

      ],
      "recipe_list_tags" : [
        {
          "text_color" : "#141515",
          "text" : "关注的人",
          "right_image" : "",
          "background_end_color" : "#F4F5F5",
          "background_start_color" : "#F4F5F5",
          "jump_url" : "",
          "background_border_color" : ""
        },
        {
          "background_border_color" : "",
          "right_image" : "",
          "text_color" : "#141515",
          "background_end_color" : "#F4F5F5",
          "background_start_color" : "#F4F5F5",
          "text" : "内容详细",
          "jump_url" : ""
        }
      ],
      "top_mdsp" : [

      ],
      "ecs" : 1,
      "rdsps" : [

      ],
      "related_ads" : [

      ],
      "favo_counts_text" : "1568",
      "rips" : 0,
      "recommendation_tag" : "",
      "recommend_label" : "2人学做",
      "ipurl" : "",
      "recipe_tags" : [

      ],
      "v_u" : "",
      "dish_count_text" : "2",
      "minor" : [

      ],
      "mid_mdsp" : [

      ],
      "photo_path" : "https:\/\/i1.douguo.com\/upload\/caiku\/3\/9\/d\/600_395582618a296cda914094f8fad3c0ad.jpeg",
      "comments_count" : 2,
      "create_time" : "2020-04-16 12:06:45",
      "image" : "http:\/\/i1.douguo.net\/upload\/caiku\/3\/9\/d\/300_395582618a296cda914094f8fad3c0ad.jpeg",
      "cook_difficulty" : "切墩(初级)",
      "rate_show" : 0,
      "ssu" : "",
      "brand_day_dsp" : [

      ],
      "cook_time" : "10分钟左右",
      "levelid" : 2,
      "rcs" : [

      ],
      "ipoi" : "",
      "ph" : 800,
      "cook_difficulty_image" : "https:\/\/i1.douguo.com\/upload\/banner\/1551424390.png",
      "packages_id" : [

      ],
      "rpst" : "",
      "rate" : 5,
      "tags" : [

      ],
      "recommended" : 0,
      "collect_status" : 0,
      "clicks" : "302814",
      "hq" : 1,
      "views_count_text" : "32.7万",
      "vu" : "",
      "rate_count" : 2,
      "bs" : [

      ],
      "comments_count_text" : "2",
      "su" : "",
      "ipia" : [

      ],
      "original_photo_path" : "http:\/\/i1.douguo.net\/upload\/caiku\/3\/9\/d\/yuan_395582618a296cda914094f8fad3c0ad.jpeg",
      "cookstory" : "马云家的盒马最近鲍鱼便宜，再来个爆炒的",
      "ss" : [

      ],
      "eu" : "recipes:\/\/www.douguo.com\/postdetail?id=242016",
      "author_verified" : 0,
      "dishes" : [

      ],
      "title" : "爆炒鲍鱼片",
      "comments" : [
        "{\n    ac = \"#999999\";\n    at = \"\\U5317\\U4eac\\U5e02\";\n    ccc = 0;\n    \"child_comments\" =     (\n    );\n    city = \"\\U5317\\U4eac\\U5e02\";\n    cmc = 2;\n    content =     (\n                {\n            c = \"\\Ud83d\\Udc4f\\Ud83d\\Udc4f\\Ud83d\\Udc4f\";\n        }\n    );\n    ia = 0;\n    id = 7888307;\n    \"ip_address_location\" = \"\";\n    like = 0;\n    \"like_count\" = 0;\n    \"reply_id\" = 0;\n    \"sticker_icon\" =     (\n    );\n    time = \"2020-04-16 15:31:49\";\n    u =     {\n        \"followers_count_text\" = \"\";\n        id = 25206120;\n        \"is_prime\" = 0;\n        lv = 0;\n        lvl = 5;\n        n = \"\\U5a1f\\U59d1\\U5a18\\U7f8e\\U5c0f\\U53a8\";\n        p = \"http:\/\/tx1.douguo.net\/upload\/photo\/a\/6\/7\/70_a685bfa0e60ceee210377052b7720607.jpg\";\n        \"progress_image\" = \"\";\n        \"recipes_count_text\" = \"\";\n        relationship = \"-1\";\n        title = \"\";\n        v = 0;\n        \"verified_image\" = \"\";\n    };\n}",
        "{\n    ac = \"#999999\";\n    at = \"\";\n    ccc = 0;\n    \"child_comments\" =     (\n    );\n    city = \"\";\n    cmc = 2;\n    content =     (\n                {\n            c = \"\\U8fd9\\U4e2a\\U4e0d\\U653e\\U4efb\\U4f55\\U8c03\\U6599\\U8c03\\U5473\\U9053\\U5417\\Uff1f\";\n        }\n    );\n    ia = 0;\n    id = 7888195;\n    \"ip_address_location\" = \"\";\n    like = 0;\n    \"like_count\" = 0;\n    \"reply_id\" = 0;\n    \"sticker_icon\" =     (\n    );\n    time = \"2020-04-16 14:50:01\";\n    u =     {\n        \"followers_count_text\" = \"\";\n        id = 2046951;\n        \"is_prime\" = 0;\n        lv = 0;\n        lvl = 3;\n        n = \"\\U9ea5\\U502a\\Uff0c\\U5c0f\\U53f3\";\n        p = \"http:\/\/tx1.douguo.net\/upload\/photo\/3\/5\/d\/70_u49745768912243092250.jpg\";\n        \"progress_image\" = \"\";\n        \"recipes_count_text\" = \"\";\n        relationship = \"-1\";\n        title = \"\";\n        v = 0;\n        \"verified_image\" = \"\";\n    };\n}"
      ],
      "share_info" : {
        "mini_program" : [

        ],
        "s_d" : "爆炒鲍鱼片-会做饭很酷!",
        "image" : "https:\/\/cp1.douguo.com\/upload\/caiku\/3\/9\/d\/395582618a296cda914094f8fad3c0ad.jpeg",
        "qr_image" : "",
        "object_id" : "2465569",
        "name" : "爆炒鲍鱼片-会做饭很酷!",
        "s_u" : "http:\/\/m.douguo.com\/cookbook\/2465569.html",
        "infos" : [
          {
            "name" : "爆炒鲍鱼片-会做饭很酷!",
            "image" : "https:\/\/cp1.douguo.com\/upload\/caiku\/3\/9\/d\/395582618a296cda914094f8fad3c0ad.jpeg",
            "object_id" : "2465569",
            "qr_image" : "",
            "mini_program" : [

            ],
            "s_u" : "",
            "channel" : "1",
            "s_d" : "#学做饭用豆果美食# 我在@豆果美食 分享了【爆炒鲍鱼片-会做饭很酷!】，哟，集美们～你看这是神仙美味～快跟着我做一份，做一份！查看图片了解菜谱（更多美食秘籍点击https:\/\/m.weibo.cn\/p\/100404i33631获取）#会做饭很酷# "
          },
          {
            "s_d" : "爆炒鲍鱼片-会做饭很酷!",
            "mini_program" : [

            ],
            "qr_image" : "",
            "channel" : "7",
            "s_u" : "http:\/\/m.douguo.com\/cookbook\/2465569.html",
            "name" : "爆炒鲍鱼片-会做饭很酷!",
            "image" : "https:\/\/cp1.douguo.com\/upload\/caiku\/3\/9\/d\/395582618a296cda914094f8fad3c0ad.jpeg",
            "object_id" : "2465569"
          },
          {
            "object_id" : "2465569",
            "name" : "爆炒鲍鱼片-会做饭很酷!",
            "image" : "https:\/\/cp1.douguo.com\/upload\/caiku\/3\/9\/d\/395582618a296cda914094f8fad3c0ad.jpeg",
            "s_d" : "爆炒鲍鱼片-会做饭很酷!",
            "qr_image" : "",
            "mini_program" : [

            ],
            "s_u" : "http:\/\/m.douguo.com\/cookbook\/2465569.html",
            "channel" : "8"
          }
        ]
      }
    }
  },
  "status" : 0
}