{
  "result" : {
    "recipe" : {
      "cookwares" : [

      ],
      "comments" : [
        "{\n    ac = \"#999999\";\n    at = \"\\U5317\\U4eac\\U5e02\";\n    ccc = 1;\n    \"child_comments\" =     (\n                {\n            ac = \"#999999\";\n            at = \"\\U957f\\U6c99\\U5e02\";\n            ccc = 0;\n            city = \"\\U957f\\U6c99\\U5e02\";\n            cmc = 2;\n            content =             (\n                                {\n                    c = \" \\U53ef\\U4ee5\";\n                }\n            );\n            ia = 1;\n            id = 6512988;\n            \"ip_address_location\" = \"\";\n            like = 0;\n            \"like_count\" = 0;\n            \"reply_id\" = 6512223;\n            \"reply_user\" =             {\n                \"followers_count_text\" = \"\";\n                id = 17941846;\n                \"is_prime\" = 0;\n                lv = 0;\n                lvl = 2;\n                n = \"\\U9017\\U6bd4\\U6b22\\U4e50\\U591aypwz\";\n                p = \"http:\/\/tx1.douguo.net\/upload\/photo\/d\/c\/d\/70_u67968535983556162909.jpeg\";\n                \"progress_image\" = \"\";\n                \"recipes_count_text\" = \"\";\n                relationship = \"-1\";\n                title = \"\";\n                v = 0;\n                \"verified_image\" = \"\";\n            };\n            \"sticker_icon\" =             (\n            );\n            time = \"2019-04-15 21:21:12\";\n            u =             {\n                \"followers_count_text\" = \"\";\n                id = 7607249;\n                \"is_prime\" = 0;\n                lv = 0;\n                lvl = 6;\n                n = \"\\U51ac\\U65e5\\U7684\\U5411\\U65e5\\U8475\";\n                p = \"http:\/\/tx1.douguo.net\/upload\/photo\/7\/3\/f\/70_u19730136739726083244.jpg\";\n                \"progress_image\" = \"\";\n                \"recipes_count_text\" = \"\";\n                relationship = \"-1\";\n                title = \"\";\n                v = 1;\n                \"verified_image\" = \"\";\n            };\n        }\n    );\n    city = \"\\U5317\\U4eac\\U5e02\";\n    cmc = 2;\n    content =     (\n                {\n            c = \"\\U53ef\\U4ee5\\U7528\\U829d\\U58eb\\U505a\\U5417\";\n        }\n    );\n    ia = 0;\n    id = 6512223;\n    \"ip_address_location\" = \"\";\n    like = 0;\n    \"like_count\" = 0;\n    \"reply_id\" = 0;\n    \"sticker_icon\" =     (\n    );\n    time = \"2019-04-15 16:21:32\";\n    u =     {\n        \"followers_count_text\" = \"\";\n        id = 17941846;\n        \"is_prime\" = 0;\n        lv = 0;\n        lvl = 2;\n        n = \"\\U9017\\U6bd4\\U6b22\\U4e50\\U591aypwz\";\n        p = \"http:\/\/tx1.douguo.net\/upload\/photo\/d\/c\/d\/70_u67968535983556162909.jpeg\";\n        \"progress_image\" = \"\";\n        \"recipes_count_text\" = \"\";\n        relationship = \"-1\";\n        title = \"\";\n        v = 0;\n        \"verified_image\" = \"\";\n    };\n}",
        "{\n    ac = \"#999999\";\n    at = \"\\U5317\\U4eac\\U5e02\";\n    ccc = 1;\n    \"child_comments\" =     (\n                {\n            ac = \"#999999\";\n            at = \"\\U957f\\U6c99\\U5e02\";\n            ccc = 0;\n            city = \"\\U957f\\U6c99\\U5e02\";\n            cmc = 2;\n            content =             (\n                                {\n                    c = \" \\U8fd9\\U4e2a\\U6211\\U4e5f\\U6ca1\\U6709\\U8bd5\\U8fc7\\U554a\\Uff0c\\U4e0d\\U77e5\\U9053\\U884c\\U4e0d\\U884c\\Uff0c\\U4e0d\\U8fc7\\U70e4\\U76d8\\U7684\\U74f7\\U90fd\\U6bd4\\U8f83\\U539a\";\n                }\n            );\n            ia = 1;\n            id = 5672500;\n            \"ip_address_location\" = \"\";\n            like = 0;\n            \"like_count\" = 0;\n            \"reply_id\" = 5672438;\n            \"reply_user\" =             {\n                \"followers_count_text\" = \"\";\n                id = 20848946;\n                \"is_prime\" = 0;\n                lv = 0;\n                lvl = 2;\n                n = AV1994;\n                p = \"http:\/\/tx1.douguo.net\/upload\/photo\/0\/b\/3\/70_u02719026649107215811.jpeg\";\n                \"progress_image\" = \"\";\n                \"recipes_count_text\" = \"\";\n                relationship = \"-1\";\n                title = \"\";\n                v = 0;\n                \"verified_image\" = \"\";\n            };\n            \"sticker_icon\" =             (\n            );\n            time = \"2018-05-09 10:50:40\";\n            u =             {\n                \"followers_count_text\" = \"\";\n                id = 7607249;\n                \"is_prime\" = 0;\n                lv = 0;\n                lvl = 6;\n                n = \"\\U51ac\\U65e5\\U7684\\U5411\\U65e5\\U8475\";\n                p = \"http:\/\/tx1.douguo.net\/upload\/photo\/7\/3\/f\/70_u19730136739726083244.jpg\";\n                \"progress_image\" = \"\";\n                \"recipes_count_text\" = \"\";\n                relationship = \"-1\";\n                title = \"\";\n                v = 1;\n                \"verified_image\" = \"\";\n            };\n        }\n    );\n    city = \"\\U5317\\U4eac\\U5e02\";\n    cmc = 2;\n    content =     (\n                {\n            c = \"\\U666e\\U901a\\U5403\\U996d\\U7684\\U74f7\\U7897 \\U80fd\\U653e\\U70e4\\U7bb1\\U91cc\\U5417\\Uff1f\\Uff1f\";\n        }\n    );\n    ia = 0;\n    id = 5672438;\n    \"ip_address_location\" = \"\";\n    like = 0;\n    \"like_count\" = 0;\n    \"reply_id\" = 0;\n    \"sticker_icon\" =     (\n    );\n    time = \"2018-05-09 10:11:13\";\n    u =     {\n        \"followers_count_text\" = \"\";\n        id = 20848946;\n        \"is_prime\" = 0;\n        lv = 0;\n        lvl = 2;\n        n = AV1994;\n        p = \"http:\/\/tx1.douguo.net\/upload\/photo\/0\/b\/3\/70_u02719026649107215811.jpeg\";\n        \"progress_image\" = \"\";\n        \"recipes_count_text\" = \"\";\n        relationship = \"-1\";\n        title = \"\";\n        v = 0;\n        \"verified_image\" = \"\";\n    };\n}",
        "{\n    ac = \"#999999\";\n    at = \"\";\n    ccc = 1;\n    \"child_comments\" =     (\n                {\n            ac = \"#999999\";\n            at = \"\\U957f\\U6c99\\U5e02\";\n            ccc = 0;\n            city = \"\\U957f\\U6c99\\U5e02\";\n            cmc = 2;\n            content =             (\n                                {\n                    c = \" \\U8c22\\U8c22\\U4eb2\";\n                }\n            );\n            ia = 1;\n            id = 5667035;\n            \"ip_address_location\" = \"\";\n            like = 0;\n            \"like_count\" = 0;\n            \"reply_id\" = 5666655;\n            \"reply_user\" =             {\n                \"followers_count_text\" = \"\";\n                id = 18559418;\n                \"is_prime\" = 0;\n                lv = 0;\n                lvl = 6;\n                n = \"\\U516b\\U53f7\\U60a3\\U8005\";\n                p = \"http:\/\/tx1.douguo.net\/upload\/photo\/d\/f\/f\/70_u93079984152416103333.jpg\";\n                \"progress_image\" = \"\";\n                \"recipes_count_text\" = \"\";\n                relationship = \"-1\";\n                title = \"\";\n                v = 0;\n                \"verified_image\" = \"\";\n            };\n            \"sticker_icon\" =             (\n            );\n            time = \"2018-05-06 17:49:30\";\n            u =             {\n                \"followers_count_text\" = \"\";\n                id = 7607249;\n                \"is_prime\" = 0;\n                lv = 0;\n                lvl = 6;\n                n = \"\\U51ac\\U65e5\\U7684\\U5411\\U65e5\\U8475\";\n                p = \"http:\/\/tx1.douguo.net\/upload\/photo\/7\/3\/f\/70_u19730136739726083244.jpg\";\n                \"progress_image\" = \"\";\n                \"recipes_count_text\" = \"\";\n                relationship = \"-1\";\n                title = \"\";\n                v = 1;\n                \"verified_image\" = \"\";\n            };\n        }\n    );\n    city = \"\";\n    cmc = 2;\n    content =     (\n                {\n            c = \"\\U8fd9\\U4e2a\\U597d\\U770b\";\n        }\n    );\n    ia = 0;\n    id = 5666655;\n    \"ip_address_location\" = \"\";\n    like = 0;\n    \"like_count\" = 0;\n    \"reply_id\" = 0;\n    \"sticker_icon\" =     (\n    );\n    time = \"2018-05-06 15:02:23\";\n    u =     {\n        \"followers_count_text\" = \"\";\n        id = 18559418;\n        \"is_prime\" = 0;\n        lv = 0;\n        lvl = 6;\n        n = \"\\U516b\\U53f7\\U60a3\\U8005\";\n        p = \"http:\/\/tx1.douguo.net\/upload\/photo\/d\/f\/f\/70_u93079984152416103333.jpg\";\n        \"progress_image\" = \"\";\n        \"recipes_count_text\" = \"\";\n        relationship = \"-1\";\n        title = \"\";\n        v = 0;\n        \"verified_image\" = \"\";\n    };\n}"
      ],
      "ecs" : 0,
      "author_id" : 7607249,
      "rips" : 0,
      "rate_count" : 5,
      "thumb_height" : 0,
      "ipci" : "",
      "rpid" : 0,
      "sr" : "",
      "mid_mdsp" : [

      ],
      "vu" : "",
      "cookstory" : "菠萝饭好吃，菠萝焗饭更好吃，浓浓的香味，热热的饭，一下就可以消灭一大碗",
      "cook_time" : "",
      "first_level_comment_count" : 8,
      "image" : "http:\/\/i1.douguo.net\/upload\/caiku\/b\/0\/c\/300_b0a8c4ac38869aed74c4f2064d8bfeac.jpg",
      "cookstorys" : [
        {
          "type" : 0,
          "color" : "",
          "id" : 0,
          "u" : "",
          "icon" : "",
          "c" : "菠萝饭好吃，菠萝焗饭更好吃，浓浓的香味，热热的饭，一下就可以消灭一大碗"
        }
      ],
      "author_verified" : 1,
      "dishes" : [

      ],
      "advice" : {
        "has" : [

        ],
        "da" : {
          "t" : "查看详细分析",
          "iu" : "https:\/\/i1.douguo.com\/upload\/banner\/f\/4\/d\/f48877e53c37759bc12ac494be82ec8d.png",
          "url" : "https:\/\/m.douguo.com\/recipe\/nutrient_self\/1672475"
        }
      },
      "user" : {
        "qq_weibo_nick" : "",
        "progress_image" : "",
        "user_cover" : "",
        "following_count" : 0,
        "user_id" : "7607249",
        "coursecount" : 0,
        "point" : 0,
        "subscription" : 0,
        "lv" : 0,
        "favorites_count" : 0,
        "qzone_nick" : "",
        "fc" : 0,
        "nick" : "冬日的向日葵",
        "followers_count" : 0,
        "verified" : 1,
        "setted_email" : 0,
        "dishes_count" : 0,
        "verified_image" : "https:\/\/i1.douguo.com\/upload\/note\/d\/a\/a\/da84247847aebe48d9dd0fcdac88862a.png",
        "regist_time" : "",
        "is_prime" : 0,
        "weibo_nick" : "",
        "user_photo" : "http:\/\/tx1.douguo.net\/upload\/photo\/7\/3\/f\/70_u19730136739726083244.jpg",
        "userid" : "7607249",
        "pc" : 0,
        "user_large_photo" : "http:\/\/tx1.douguo.net\/upload\/photo\/7\/3\/f\/yuan_u19730136739726083244.jpg",
        "mobile" : "",
        "email" : "",
        "favor_diaries_count" : 0,
        "avatar_medium" : "http:\/\/tx1.douguo.net\/upload\/photo\/7\/3\/f\/140_u19730136739726083244.jpg",
        "age" : "",
        "gender" : 2,
        "lvl" : 6,
        "birthday" : "",
        "verified_url" : "https:\/\/m.douguo.com\/user\/prodesc",
        "subscription_article_count" : 0,
        "location" : 0,
        "diaries_count" : 0,
        "sign" : "",
        "introduction" : "",
        "recipes_count" : 0
      },
      "rate_show" : 0,
      "ipia" : [

      ],
      "favo_counts" : 3108,
      "tags" : [

      ],
      "cook_time_image" : "",
      "title" : "芝士菠萝焗饭",
      "notes" : [

      ],
      "rpt" : "",
      "views_count_text" : "101.7万",
      "ph" : 600,
      "original_photo_path" : "http:\/\/i1.douguo.net\/upload\/caiku\/b\/0\/c\/yuan_b0a8c4ac38869aed74c4f2064d8bfeac.jpg",
      "rrpt" : "",
      "recent_comments" : [

      ],
      "recipe_list_tags" : [
        {
          "background_end_color" : "#F4F5F5",
          "text" : "关注的人",
          "jump_url" : "",
          "text_color" : "#141515",
          "background_border_color" : "",
          "right_image" : "",
          "background_start_color" : "#F4F5F5"
        },
        {
          "text" : "内容详细",
          "background_border_color" : "",
          "background_end_color" : "#F4F5F5",
          "background_start_color" : "#F4F5F5",
          "jump_url" : "",
          "right_image" : "",
          "text_color" : "#141515"
        }
      ],
      "create_time" : "2018-05-06 07:36:30",
      "clicks" : "1007458",
      "top_mdsp" : [

      ],
      "ssu" : "",
      "story_dsp" : [

      ],
      "thumb_path" : "https:\/\/i1.douguo.com\/upload\/caiku\/b\/0\/c\/300_b0a8c4ac38869aed74c4f2064d8bfeac.jpg",
      "hqu" : "recipes:\/\/www.douguo.com\/notedetail?id=21162253",
      "major" : [
        {
          "tu" : "https:\/\/m.douguo.com\/ingredients\/菠萝\/detailmaterial",
          "note" : "半个",
          "title" : "菠萝"
        },
        {
          "title" : "安佳奶酪",
          "note" : "两片"
        },
        {
          "title" : "白米饭",
          "note" : "一碗"
        },
        {
          "note" : "一小根",
          "title" : "胡萝卜",
          "tu" : "https:\/\/m.douguo.com\/ingredients\/胡萝卜\/detailmaterial"
        },
        {
          "note" : "一个",
          "tu" : "https:\/\/m.douguo.com\/ingredients\/鸡蛋\/detailmaterial",
          "title" : "鸡蛋"
        },
        {
          "note" : "30克",
          "title" : "甜豆"
        },
        {
          "title" : "烤肠",
          "note" : "两小根"
        },
        {
          "title" : "盐",
          "tu" : "https:\/\/m.douguo.com\/ingredients\/盐\/detailmaterial",
          "note" : "2克"
        },
        {
          "tu" : "https:\/\/m.douguo.com\/ingredients\/油\/detailmaterial",
          "title" : "油",
          "note" : "30克"
        }
      ],
      "ipurl" : "",
      "rsm" : "该功能暂停使用",
      "title_ad" : [

      ],
      "ipit" : 0,
      "rcs" : [

      ],
      "purl" : "",
      "guide_image" : "",
      "recipe_tags" : [

      ],
      "photo_path" : "https:\/\/i1.douguo.com\/upload\/caiku\/b\/0\/c\/600_b0a8c4ac38869aed74c4f2064d8bfeac.jpg",
      "rate" : 4,
      "rpst" : "",
      "cookstep" : [
        {
          "position" : 1,
          "image" : "https:\/\/i1.douguo.com\/upload\/caiku\/0\/4\/1\/047102ac02a8ee7605dfa377d03d50c1.jpg",
          "frame" : "-1",
          "image_width" : 800,
          "thumb" : "https:\/\/i1.douguo.com\/upload\/caiku\/0\/4\/1\/140_047102ac02a8ee7605dfa377d03d50c1.jpg",
          "image_height" : 600,
          "content" : "把胡萝卜、烤肠、菠萝都切好"
        },
        {
          "image_width" : 1920,
          "position" : 2,
          "image" : "https:\/\/i1.douguo.com\/upload\/caiku\/c\/d\/a\/cdd3adee25c4a1506d1e6deef779309a.jpg",
          "thumb" : "https:\/\/i1.douguo.com\/upload\/caiku\/c\/d\/a\/140_cdd3adee25c4a1506d1e6deef779309a.jpg",
          "image_height" : 1440,
          "frame" : "-1",
          "content" : "锅里放油炒入鸡蛋，再放甜豆、烤肠、胡萝卜、盐翻炒几分钟"
        },
        {
          "image_width" : 800,
          "frame" : "-1",
          "thumb" : "https:\/\/i1.douguo.com\/upload\/caiku\/0\/0\/e\/140_0012483ac4a0d3d5917395e10dfd046e.jpg",
          "image_height" : 600,
          "position" : 3,
          "image" : "https:\/\/i1.douguo.com\/upload\/caiku\/0\/0\/e\/0012483ac4a0d3d5917395e10dfd046e.jpg",
          "content" : "放入米饭，炒散米饭"
        },
        {
          "position" : 4,
          "content" : "出锅前放入菠萝丁，炒匀关火",
          "image_height" : 600,
          "frame" : "-1",
          "image_width" : 800,
          "thumb" : "https:\/\/i1.douguo.com\/upload\/caiku\/0\/7\/3\/140_07540b2644592f4dda17fcd799f75de3.jpg",
          "image" : "https:\/\/i1.douguo.com\/upload\/caiku\/0\/7\/3\/07540b2644592f4dda17fcd799f75de3.jpg"
        },
        {
          "image_width" : 800,
          "frame" : "-1",
          "content" : "装入八寸的焗饭陶瓷盘里",
          "image" : "https:\/\/i1.douguo.com\/upload\/caiku\/f\/a\/8\/faefdd2af1a3654a5b14521ae7cf0828.jpg",
          "image_height" : 600,
          "thumb" : "https:\/\/i1.douguo.com\/upload\/caiku\/f\/a\/8\/140_faefdd2af1a3654a5b14521ae7cf0828.jpg",
          "position" : 5
        },
        {
          "frame" : "-1",
          "image_height" : 600,
          "thumb" : "https:\/\/i1.douguo.com\/upload\/caiku\/b\/7\/f\/140_b7495f605447d331b44daeb89e2d23bf.jpg",
          "image" : "https:\/\/i1.douguo.com\/upload\/caiku\/b\/7\/f\/b7495f605447d331b44daeb89e2d23bf.jpg",
          "image_width" : 800,
          "position" : 6,
          "content" : "把奶酪片切成条放入，烤箱180度预热好，放入后中上层烤十分钟"
        },
        {
          "content" : "成品图一",
          "position" : 7,
          "frame" : "-1",
          "thumb" : "https:\/\/i1.douguo.com\/upload\/caiku\/b\/2\/e\/140_b2705d63c8c53e44d14a9ed56aa732de.jpg",
          "image" : "https:\/\/i1.douguo.com\/upload\/caiku\/b\/2\/e\/b2705d63c8c53e44d14a9ed56aa732de.jpg",
          "image_height" : 600,
          "image_width" : 800
        },
        {
          "image_width" : 800,
          "frame" : "-1",
          "position" : 8,
          "image" : "https:\/\/i1.douguo.com\/upload\/caiku\/a\/4\/a\/a429fab381bc5cc27c2163eb508559fa.jpg",
          "thumb" : "https:\/\/i1.douguo.com\/upload\/caiku\/a\/4\/a\/140_a429fab381bc5cc27c2163eb508559fa.jpg",
          "image_height" : 600,
          "content" : "成品图二"
        }
      ],
      "display_ingredient" : 1,
      "rrps" : [

      ],
      "collect_status" : 0,
      "vc" : "1016547",
      "recommend_label" : "7人学做",
      "act_des" : "",
      "ipt" : "",
      "release_time" : "",
      "btm_dsp" : [

      ],
      "comments_count" : 15,
      "su" : "",
      "ss" : [

      ],
      "rewarded_video_dsp" : [

      ],
      "sc" : 0,
      "eu" : "recipes:\/\/www.douguo.com\/postdetail?id=242016",
      "pw" : 800,
      "old_comments" : [

      ],
      "favo_counts_text" : "3108",
      "ipoi" : "",
      "rdsps" : [

      ],
      "share_info" : {
        "s_u" : "http:\/\/m.douguo.com\/cookbook\/1672475.html",
        "infos" : [
          {
            "image" : "https:\/\/cp1.douguo.com\/upload\/caiku\/b\/0\/c\/b0a8c4ac38869aed74c4f2064d8bfeac.jpg",
            "qr_image" : "",
            "mini_program" : [

            ],
            "name" : "芝士菠萝焗饭-会做饭很酷!",
            "s_d" : "#学做饭用豆果美食# 会做饭真是太酷了！我在@豆果美食 分享了【芝士菠萝焗饭-会做饭很酷!】，看着是不是馋到不行呢～快来跟我学学吧！查看图片了解菜谱，（想要获取更多美食就看这https:\/\/m.weibo.cn\/p\/100404i33631）",
            "object_id" : "1672475",
            "channel" : "1",
            "s_u" : ""
          },
          {
            "mini_program" : [

            ],
            "qr_image" : "",
            "image" : "https:\/\/cp1.douguo.com\/upload\/caiku\/b\/0\/c\/b0a8c4ac38869aed74c4f2064d8bfeac.jpg",
            "object_id" : "1672475",
            "channel" : "7",
            "s_d" : "芝士菠萝焗饭-会做饭很酷!",
            "s_u" : "http:\/\/m.douguo.com\/cookbook\/1672475.html",
            "name" : "芝士菠萝焗饭-会做饭很酷!"
          },
          {
            "mini_program" : [

            ],
            "image" : "https:\/\/cp1.douguo.com\/upload\/caiku\/b\/0\/c\/b0a8c4ac38869aed74c4f2064d8bfeac.jpg",
            "s_u" : "http:\/\/m.douguo.com\/cookbook\/1672475.html",
            "qr_image" : "",
            "channel" : "8",
            "name" : "芝士菠萝焗饭-会做饭很酷!",
            "s_d" : "芝士菠萝焗饭-会做饭很酷!",
            "object_id" : "1672475"
          }
        ],
        "qr_image" : "",
        "s_d" : "芝士菠萝焗饭-会做饭很酷!",
        "name" : "芝士菠萝焗饭-会做饭很酷!",
        "image" : "https:\/\/cp1.douguo.com\/upload\/caiku\/b\/0\/c\/b0a8c4ac38869aed74c4f2064d8bfeac.jpg",
        "object_id" : "1672475",
        "mini_program" : [

        ]
      },
      "bs" : [

      ],
      "tips" : "1.菠萝丁要提前泡下淡盐水\n2.盐和奶酪片的量可以按自己口味调整",
      "dish_count_text" : "7",
      "recommended" : 0,
      "hq" : 1,
      "packages_id" : [

      ],
      "cook_difficulty_image" : "",
      "cook_id" : "1672475",
      "levelid" : 2,
      "cook_difficulty" : "",
      "v_u" : "",
      "related_ads" : [

      ],
      "minor" : [

      ],
      "recommendation_tag" : "",
      "brand_day_dsp" : [

      ],
      "comments_count_text" : "15",
      "vfurl" : "",
      "author_photo" : "http:\/\/tx1.douguo.net\/upload\/photo\/7\/3\/f\/70_u19730136739726083244.jpg",
      "dish_count" : 7,
      "author" : "冬日的向日葵"
    }
  },
  "status" : 0,
  "state" : "success"
}