{
  "status" : 0,
  "result" : {
    "recipe" : {
      "vfurl" : "",
      "image" : "http:\/\/i1.douguo.net\/upload\/caiku\/1\/f\/9\/300_1f8db0a79ba6305e8b192ea1137765e9.jpg",
      "views_count_text" : "13.2万",
      "vu" : "",
      "vc" : "132472",
      "purl" : "",
      "su" : "",
      "minor" : [
        "{\n    note = \"\\U534a\\U4e2a\";\n    title = \"\\U7ea2\\U8fa3\\U6912\";\n}",
        "{\n    note = \"3\\U7247\";\n    title = \"\\U59dc\\U849c\";\n}",
        "{\n    note = \"1\\U5c0f\\U52fa\";\n    title = \"\\U6dc0\\U7c89\";\n}",
        "{\n    note = \"1\\U52fa\";\n    title = \"\\U6599\\U9152\";\n    tu = \"https:\/\/https:\/\/m.douguo.com\/ingredients\/\\U6599\\U9152\/detailmaterial\";\n}",
        "{\n    note = \"1\\U52fa\";\n    title = \"\\U751f\\U62bd\";\n    tu = \"https:\/\/https:\/\/m.douguo.com\/ingredients\/\\U751f\\U62bd\/detailmaterial\";\n}",
        "{\n    note = \"\\U9002\\U91cf\";\n    title = \"\\U6cb9\\U76d0\";\n}"
      ],
      "sr" : "",
      "story_dsp" : [

      ],
      "eu" : "recipes:\/\/www.douguo.com\/postdetail?id=242016",
      "original_photo_path" : "http:\/\/i1.douguo.net\/upload\/caiku\/1\/f\/9\/yuan_1f8db0a79ba6305e8b192ea1137765e9.jpg",
      "cook_difficulty" : "",
      "author" : "斯佳丽",
      "favo_counts_text" : "922",
      "comments_count" : 2,
      "clicks" : "116905",
      "user" : {
        "following_count" : 0,
        "gender" : 2,
        "subscription" : 0,
        "regist_time" : "",
        "qzone_nick" : "",
        "dishes_count" : 0,
        "point" : 0,
        "user_id" : "1912354",
        "subscription_article_count" : 0,
        "birthday" : "",
        "verified_image" : "https:\/\/i1.douguo.com\/upload\/note\/d\/a\/a\/da84247847aebe48d9dd0fcdac88862a.png",
        "user_photo" : "http:\/\/tx1.douguo.net\/upload\/photo\/7\/4\/f\/70_u45644637165875105753.jpg",
        "is_prime" : 0,
        "user_large_photo" : "http:\/\/tx1.douguo.net\/upload\/photo\/7\/4\/f\/yuan_u45644637165875105753.jpg",
        "location" : 0,
        "followers_count" : 0,
        "favor_diaries_count" : 0,
        "mobile" : "",
        "userid" : "1912354",
        "verified" : 1,
        "lvl" : 7,
        "user_cover" : "",
        "sign" : "",
        "recipes_count" : 0,
        "avatar_medium" : "http:\/\/tx1.douguo.net\/upload\/photo\/7\/4\/f\/140_u45644637165875105753.jpg",
        "diaries_count" : 0,
        "nick" : "斯佳丽",
        "fc" : 0,
        "progress_image" : "",
        "weibo_nick" : "",
        "qq_weibo_nick" : "",
        "pc" : 0,
        "favorites_count" : 0,
        "setted_email" : 0,
        "lv" : 0,
        "introduction" : "",
        "verified_url" : "https:\/\/m.douguo.com\/user\/prodesc",
        "email" : "",
        "age" : "",
        "coursecount" : 0
      },
      "share_info" : {
        "name" : "豆角炒猪心-会做饭很酷!",
        "infos" : [
          {
            "name" : "豆角炒猪心-会做饭很酷!",
            "channel" : "1",
            "s_u" : "",
            "qr_image" : "",
            "image" : "https:\/\/cp1.douguo.com\/upload\/caiku\/1\/f\/9\/1f8db0a79ba6305e8b192ea1137765e9.jpg",
            "s_d" : "#学做饭用豆果美食# 会做饭真是太酷了！我在@豆果美食 分享了【豆角炒猪心-会做饭很酷!】，看着是不是馋到不行呢～快来跟我学学吧！查看图片了解菜谱，（想要获取更多美食就看这https:\/\/m.weibo.cn\/p\/100404i33631）",
            "mini_program" : [

            ],
            "object_id" : "1401479"
          },
          {
            "s_u" : "http:\/\/m.douguo.com\/cookbook\/1401479.html",
            "qr_image" : "",
            "object_id" : "1401479",
            "image" : "https:\/\/cp1.douguo.com\/upload\/caiku\/1\/f\/9\/1f8db0a79ba6305e8b192ea1137765e9.jpg",
            "s_d" : "豆角炒猪心-会做饭很酷!",
            "mini_program" : [

            ],
            "name" : "豆角炒猪心-会做饭很酷!",
            "channel" : "7"
          },
          {
            "mini_program" : [

            ],
            "s_d" : "豆角炒猪心-会做饭很酷!",
            "name" : "豆角炒猪心-会做饭很酷!",
            "qr_image" : "",
            "channel" : "8",
            "object_id" : "1401479",
            "image" : "https:\/\/cp1.douguo.com\/upload\/caiku\/1\/f\/9\/1f8db0a79ba6305e8b192ea1137765e9.jpg",
            "s_u" : "http:\/\/m.douguo.com\/cookbook\/1401479.html"
          }
        ],
        "qr_image" : "",
        "object_id" : "1401479",
        "image" : "https:\/\/cp1.douguo.com\/upload\/caiku\/1\/f\/9\/1f8db0a79ba6305e8b192ea1137765e9.jpg",
        "s_u" : "http:\/\/m.douguo.com\/cookbook\/1401479.html",
        "mini_program" : [

        ],
        "s_d" : "豆角炒猪心-会做饭很酷!"
      },
      "ipt" : "",
      "advice" : {
        "da" : {
          "t" : "查看详细分析",
          "iu" : "https:\/\/i1.douguo.com\/upload\/banner\/f\/4\/d\/f48877e53c37759bc12ac494be82ec8d.png",
          "url" : "https:\/\/m.douguo.com\/recipe\/nutrient_self\/1401479"
        },
        "at" : "能有效控制体重～",
        "has" : [
          {
            "t" : "低热量",
            "url" : "recipes:\/\/www.douguo.com\/simplerecipelist?t=低热量&id=低热量"
          },
          {
            "url" : "recipes:\/\/www.douguo.com\/simplerecipelist?t=低脂&id=低脂",
            "t" : "低脂"
          }
        ]
      },
      "rpst" : "",
      "cookstorys" : [
        {
          "id" : 0,
          "color" : "",
          "type" : 0,
          "c" : "自古即有\"以脏补脏\"\"以心补心\"的说法，猪心能补心，治疗心悸、心跳、怔忡。猪心的做法有很多种，可以炖汤，可以爆炒，今天就搭配这个季节新鲜上市的豆角来炒它。\n \n        豆角炒猪心，一款下酒送饭都很不错的家常小炒，猪心因为加入了蚝油爆炒，很鲜香脆嫩；而豆角色泽翠绿，荤素搭配，香味浓厚，白红相间。简单美味的小炒菜具有养血安神、补血及增强心肌营养等功效，可以帮助我们在这炎热的夏季养心安神，改善睡眠质量，让能一夜好梦。。。",
          "icon" : "",
          "u" : ""
        }
      ],
      "brand_day_dsp" : [

      ],
      "ph" : 533,
      "photo_path" : "https:\/\/i1.douguo.com\/upload\/caiku\/1\/f\/9\/600_1f8db0a79ba6305e8b192ea1137765e9.jpg",
      "recipe_list_tags" : [
        {
          "text" : "关注的人",
          "background_start_color" : "#F4F5F5",
          "right_image" : "",
          "background_end_color" : "#F4F5F5",
          "text_color" : "#141515",
          "background_border_color" : "",
          "jump_url" : ""
        },
        {
          "background_end_color" : "#F4F5F5",
          "jump_url" : "",
          "text_color" : "#141515",
          "background_start_color" : "#F4F5F5",
          "background_border_color" : "",
          "right_image" : "",
          "text" : "内容详细"
        }
      ],
      "v_u" : "",
      "display_ingredient" : 1,
      "tags" : [
        "{\n    text = \"\\U5bb6\\U5e38\\U83dc\";\n}",
        "{\n    text = \"\\U4e0b\\U996d\\U83dc\";\n}",
        "{\n    text = \"\\U8089\\U7c7b\";\n}",
        "{\n    text = \"\\U5feb\\U624b\\U83dc\";\n}",
        "{\n    text = \"\\U4e0b\\U9152\\U83dc\";\n}",
        "{\n    text = \"\\U7092\";\n}",
        "{\n    text = \"\\U54b8\";\n}",
        "{\n    text = \"\\U9999\";\n}",
        "{\n    text = \"\\U5348\\U9910\";\n}",
        "{\n    text = \"\\U665a\\U9910\";\n}"
      ],
      "cook_time_image" : "",
      "comments" : [
        "{\n    ac = \"#999999\";\n    at = \"\\U82cf\\U5dde\\U5e02\";\n    ccc = 0;\n    \"child_comments\" =     (\n    );\n    city = \"\\U82cf\\U5dde\\U5e02\";\n    cmc = 2;\n    content =     (\n                {\n            c = \"\\U6ca1\\U6709\\U6dc0\\U7c89\\Uff0c\\U9762\\U7c89\\U884c\\U4e0d\\U884c\";\n        }\n    );\n    ia = 0;\n    id = 8990503;\n    \"ip_address_location\" = \"\\U6c5f\\U82cf\\U7701\";\n    like = 0;\n    \"like_count\" = 0;\n    \"reply_id\" = 0;\n    \"sticker_icon\" =     (\n    );\n    time = \"2022-12-20 11:21:39\";\n    u =     {\n        \"followers_count_text\" = \"\";\n        id = 21223394;\n        \"is_prime\" = 0;\n        lv = 0;\n        lvl = 1;\n        n = \"\\U3006\\U7d0d\\U75db\\Uff0c\\U4f9d\\U7136\\U7336\\U5b58\\U3002cmlo\";\n        p = \"http:\/\/tx1.douguo.net\/upload\/photo\/4\/2\/b\/70_u08830407211235201828.jpg\";\n        \"progress_image\" = \"\";\n        \"recipes_count_text\" = \"\";\n        relationship = \"-1\";\n        title = \"\";\n        v = 0;\n        \"verified_image\" = \"\";\n    };\n}",
        "{\n    ac = \"#999999\";\n    at = \"\";\n    ccc = 0;\n    \"child_comments\" =     (\n    );\n    city = \"\";\n    cmc = 2;\n    content =     (\n                {\n            c = \"\\U770b\\U8d77\\U6765\\U5f88\\U4e0d\\U9519\\U5462 \";\n        }\n    );\n    ia = 0;\n    id = 3759631;\n    \"ip_address_location\" = \"\";\n    like = 0;\n    \"like_count\" = 0;\n    \"reply_id\" = 0;\n    \"sticker_icon\" =     (\n    );\n    time = \"2016-06-28 01:53:44\";\n    u =     {\n        \"followers_count_text\" = \"\";\n        id = 17117942;\n        \"is_prime\" = 0;\n        lv = 0;\n        lvl = 6;\n        n = \"0\\U51af\\U5c0f\\U59d00\";\n        p = \"http:\/\/tx1.douguo.net\/upload\/photo\/1\/5\/0\/70_u60296849123047080455.jpeg\";\n        \"progress_image\" = \"\";\n        \"recipes_count_text\" = \"\";\n        relationship = \"-1\";\n        title = \"\";\n        v = 0;\n        \"verified_image\" = \"\";\n    };\n}"
      ],
      "old_comments" : [

      ],
      "btm_dsp" : [

      ],
      "ssu" : "",
      "dish_count_text" : "4",
      "cook_difficulty_image" : "",
      "rate_count" : 3,
      "rips" : 0,
      "recommended" : 0,
      "rrpt" : "",
      "comments_count_text" : "2",
      "pw" : 800,
      "ipurl" : "",
      "notes" : [

      ],
      "rate_show" : 0,
      "guide_image" : "",
      "levelid" : 2,
      "cook_time" : "",
      "thumb_path" : "https:\/\/i1.douguo.com\/upload\/caiku\/1\/f\/9\/300_1f8db0a79ba6305e8b192ea1137765e9.jpg",
      "rate" : 5,
      "release_time" : "",
      "ecs" : 0,
      "rdsps" : [

      ],
      "thumb_height" : 0,
      "hq" : 1,
      "title" : "豆角炒猪心",
      "ipci" : "",
      "tips" : "1. 豆角须提前焯水，加入几滴油和少许盐能让豆角更翠绿；将豆角焯煮到七、八成熟；\n2. 猪心加入盐等调味料提前腌制一下，猪心爆炒时间不宜过长，避免炒的过老。",
      "hqu" : "recipes:\/\/www.douguo.com\/notedetail?id=21162253",
      "create_time" : "2016-06-27 22:51:19",
      "rewarded_video_dsp" : [

      ],
      "packages_id" : [

      ],
      "cook_id" : "1401479",
      "bs" : [

      ],
      "recommendation_tag" : "",
      "rrps" : [

      ],
      "act_des" : "",
      "ss" : [

      ],
      "recent_comments" : [

      ],
      "dishes" : [

      ],
      "collect_status" : 0,
      "related_ads" : [

      ],
      "top_mdsp" : [

      ],
      "author_photo" : "http:\/\/tx1.douguo.net\/upload\/photo\/7\/4\/f\/70_u45644637165875105753.jpg",
      "major" : [
        {
          "note" : "半个",
          "tu" : "https:\/\/m.douguo.com\/ingredients\/猪心\/detailmaterial",
          "title" : "猪心"
        },
        {
          "note" : "150克",
          "tu" : "https:\/\/m.douguo.com\/ingredients\/豆角\/detailmaterial",
          "title" : "豆角"
        }
      ],
      "recommend_label" : "4人学做",
      "author_id" : 1912354,
      "title_ad" : [

      ],
      "ipit" : 0,
      "cookstep" : [
        {
          "image" : "https:\/\/i1.douguo.com\/upload\/caiku\/1\/7\/5\/17600dca9d30ec77bf0a14aa611d7c85.jpg",
          "image_width" : 1600,
          "image_height" : 1200,
          "thumb" : "https:\/\/i1.douguo.com\/upload\/caiku\/1\/7\/5\/140_17600dca9d30ec77bf0a14aa611d7c85.jpg",
          "content" : "准备好原材料； ",
          "position" : 1,
          "frame" : "-1"
        },
        {
          "thumb" : "https:\/\/i1.douguo.com\/upload\/caiku\/7\/a\/b\/140_7a7b7d3b0f10e8e92efd0b8ab344f63b.jpg",
          "content" : "  烧锅开水， 加入适量的盐和少许油， 下入豆角进去焯水， 直至豆角煮至七、八成熟；",
          "image" : "https:\/\/i1.douguo.com\/upload\/caiku\/7\/a\/b\/7a7b7d3b0f10e8e92efd0b8ab344f63b.jpg",
          "frame" : "-1",
          "image_height" : 1200,
          "image_width" : 1600,
          "position" : 2
        },
        {
          "image_width" : 1600,
          "image_height" : 1200,
          "position" : 3,
          "content" : "  猪心切成薄片， 加入盐、姜丝、料酒、淀粉和生抽， 拌均匀腌制一下",
          "image" : "https:\/\/i1.douguo.com\/upload\/caiku\/8\/c\/0\/8c8f0cfd42547d458552fc212bc6edb0.jpg",
          "frame" : "-1",
          "thumb" : "https:\/\/i1.douguo.com\/upload\/caiku\/8\/c\/0\/140_8c8f0cfd42547d458552fc212bc6edb0.jpg"
        },
        {
          "image_width" : 1600,
          "position" : 4,
          "thumb" : "https:\/\/i1.douguo.com\/upload\/caiku\/d\/f\/d\/140_df1703f64807c11b78c7d2cb2ac2fbfd.jpg",
          "image" : "https:\/\/i1.douguo.com\/upload\/caiku\/d\/f\/d\/df1703f64807c11b78c7d2cb2ac2fbfd.jpg",
          "content" : "烧热锅， 加入适量的油， 下入蒜片煸炒；",
          "frame" : "-1",
          "image_height" : 1200
        },
        {
          "frame" : "-1",
          "image" : "https:\/\/i1.douguo.com\/upload\/caiku\/d\/4\/f\/d43ba26a8ede66e88832f181231a4e8f.jpg",
          "image_height" : 1200,
          "image_width" : 1600,
          "content" : "蒜片爆香后下入腌制过的猪心进去煸炒；",
          "position" : 5,
          "thumb" : "https:\/\/i1.douguo.com\/upload\/caiku\/d\/4\/f\/140_d43ba26a8ede66e88832f181231a4e8f.jpg"
        },
        {
          "image" : "https:\/\/i1.douguo.com\/upload\/caiku\/d\/f\/e\/df1252dc48107caac0732b03e4dd49ce.jpg",
          "frame" : "-1",
          "image_height" : 1200,
          "position" : 6,
          "image_width" : 1600,
          "content" : " 猪心煸炒变色后下入豆角进去翻炒；",
          "thumb" : "https:\/\/i1.douguo.com\/upload\/caiku\/d\/f\/e\/140_df1252dc48107caac0732b03e4dd49ce.jpg"
        },
        {
          "content" : " 煸炒几下后加入盐调味翻炒均匀； ",
          "thumb" : "https:\/\/i1.douguo.com\/upload\/caiku\/1\/2\/b\/140_12de72c380225cd8f2a5823d3533aecb.jpg",
          "image_height" : 1200,
          "position" : 7,
          "image" : "https:\/\/i1.douguo.com\/upload\/caiku\/1\/2\/b\/12de72c380225cd8f2a5823d3533aecb.jpg",
          "frame" : "-1",
          "image_width" : 1600
        },
        {
          "position" : 8,
          "thumb" : "https:\/\/i1.douguo.com\/upload\/caiku\/0\/7\/3\/140_0757cb70df6a7bd78b531a376d093843.jpg",
          "content" : "最后加入红椒丝继续翻炒几下即可；",
          "image" : "https:\/\/i1.douguo.com\/upload\/caiku\/0\/7\/3\/0757cb70df6a7bd78b531a376d093843.jpg",
          "frame" : "-1",
          "image_height" : 1200,
          "image_width" : 1600
        },
        {
          "position" : 9,
          "frame" : "-1",
          "content" : "盛入盘中。",
          "thumb" : "https:\/\/i1.douguo.com\/upload\/caiku\/d\/7\/8\/140_d7cdc30690a40fbbb29f49b21a630548.jpg",
          "image" : "https:\/\/i1.douguo.com\/upload\/caiku\/d\/7\/8\/d7cdc30690a40fbbb29f49b21a630548.jpg",
          "image_height" : 485,
          "image_width" : 728
        }
      ],
      "cookstory" : "自古即有\"以脏补脏\"\"以心补心\"的说法，猪心能补心，治疗心悸、心跳、怔忡。猪心的做法有很多种，可以炖汤，可以爆炒，今天就搭配这个季节新鲜上市的豆角来炒它。\n \n        豆角炒猪心，一款下酒送饭都很不错的家常小炒，猪心因为加入了蚝油爆炒，很鲜香脆嫩；而豆角色泽翠绿，荤素搭配，香味浓厚，白红相间。简单美味的小炒菜具有养血安神、补血及增强心肌营养等功效，可以帮助我们在这炎热的夏季养心安神，改善睡眠质量，让能一夜好梦。。。",
      "rpid" : 0,
      "cookwares" : [

      ],
      "author_verified" : 1,
      "rsm" : "该功能暂停使用",
      "favo_counts" : 922,
      "ipia" : [

      ],
      "ipoi" : "",
      "rcs" : [

      ],
      "rpt" : "",
      "mid_mdsp" : [

      ],
      "dish_count" : 4,
      "sc" : 0,
      "first_level_comment_count" : 2,
      "recipe_tags" : [

      ]
    }
  },
  "state" : "success"
}