{
  "result" : {
    "recipe" : {
      "rate_show" : 0,
      "cookstorys" : [
        {
          "type" : 0,
          "u" : "",
          "icon" : "",
          "color" : "",
          "c" : "参与活动:",
          "id" : 0
        },
        {
          "icon" : "",
          "type" : 0,
          "id" : 0,
          "u" : "https:\/\/m.douguo.com\/activity\/ncpzj\/detail\/3541?isapp=1&open=0&_vs=1000300&&dg_refreshkey=publishnote",
          "c" : "#金龙鱼橄榄调和油 橄想橄做，就是中国味#"
        }
      ],
      "cook_difficulty_image" : "https:\/\/i1.douguo.com\/upload\/banner\/1551424390.png",
      "sc" : 0,
      "recommendation_tag" : "",
      "ipurl" : "",
      "rpid" : 0,
      "comments_count" : 0,
      "vc" : "121782",
      "ph" : 960,
      "levelid" : 2,
      "comments" : [

      ],
      "rrps" : [

      ],
      "advice" : {
        "has" : [
          {
            "url" : "recipes:\/\/www.douguo.com\/simplerecipelist?t=低脂&id=低脂",
            "t" : "低脂"
          },
          {
            "url" : "recipes:\/\/www.douguo.com\/simplerecipelist?t=高盐&id=高盐",
            "t" : "高盐"
          }
        ],
        "da" : {
          "url" : "https:\/\/m.douguo.com\/recipe\/nutrient_self\/3210139",
          "iu" : "https:\/\/i1.douguo.com\/upload\/banner\/f\/4\/d\/f48877e53c37759bc12ac494be82ec8d.png",
          "t" : "查看详细分析"
        },
        "at" : "能有效控制体重～"
      },
      "thumb_path" : "https:\/\/i1.douguo.com\/upload\/caiku\/0\/a\/4\/300_0a84d1c0a54cfcb939e43e871285a7d4.jpg",
      "create_time" : "2022-08-21 13:03:39",
      "title" : "私房菜南乳空心菜梗暴炒板筋肉丝",
      "comments_count_text" : "",
      "title_ad" : [

      ],
      "rsm" : "该功能暂停使用",
      "image" : "http:\/\/i1.douguo.net\/upload\/caiku\/0\/a\/4\/300_0a84d1c0a54cfcb939e43e871285a7d4.jpg",
      "first_level_comment_count" : 0,
      "share_info" : {
        "s_d" : "#橄想橄做，就是中国味#私房菜南乳空心菜梗暴炒板筋肉丝-会做饭很酷!",
        "infos" : [
          {
            "channel" : "1",
            "s_u" : "",
            "qr_image" : "",
            "s_d" : "#学做饭用豆果美食# 我在@豆果美食 分享了【#橄想橄做，就是中国味#私房菜南乳空心菜梗暴炒板筋肉丝-会做饭很酷!】，这菜真的很好吃，而且做法简单不难学，还不快来跟我学～查看图片了解菜谱（每天限量免费课程，想跟大师学厨艺就来这https:\/\/m.weibo.cn\/p\/100404i33631）#会做饭很酷# ",
            "image" : "https:\/\/cp1.douguo.com\/upload\/caiku\/0\/a\/4\/0a84d1c0a54cfcb939e43e871285a7d4.jpg",
            "mini_program" : [

            ],
            "object_id" : "3210139",
            "name" : "#橄想橄做，就是中国味#私房菜南乳空心菜梗暴炒板筋肉丝-会做饭很酷!"
          },
          {
            "image" : "https:\/\/cp1.douguo.com\/upload\/caiku\/0\/a\/4\/0a84d1c0a54cfcb939e43e871285a7d4.jpg",
            "s_d" : "#橄想橄做，就是中国味#私房菜南乳空心菜梗暴炒板筋肉丝-会做饭很酷!",
            "object_id" : "3210139",
            "channel" : "7",
            "mini_program" : [

            ],
            "name" : "#橄想橄做，就是中国味#私房菜南乳空心菜梗暴炒板筋肉丝-会做饭很酷!",
            "s_u" : "http:\/\/m.douguo.com\/cookbook\/3210139.html",
            "qr_image" : ""
          },
          {
            "s_u" : "http:\/\/m.douguo.com\/cookbook\/3210139.html",
            "channel" : "8",
            "object_id" : "3210139",
            "qr_image" : "",
            "image" : "https:\/\/cp1.douguo.com\/upload\/caiku\/0\/a\/4\/0a84d1c0a54cfcb939e43e871285a7d4.jpg",
            "mini_program" : [

            ],
            "name" : "#橄想橄做，就是中国味#私房菜南乳空心菜梗暴炒板筋肉丝-会做饭很酷!",
            "s_d" : "#橄想橄做，就是中国味#私房菜南乳空心菜梗暴炒板筋肉丝-会做饭很酷!"
          }
        ],
        "image" : "https:\/\/cp1.douguo.com\/upload\/caiku\/0\/a\/4\/0a84d1c0a54cfcb939e43e871285a7d4.jpg",
        "s_u" : "http:\/\/m.douguo.com\/cookbook\/3210139.html",
        "object_id" : "3210139",
        "qr_image" : "",
        "mini_program" : [

        ],
        "name" : "#橄想橄做，就是中国味#私房菜南乳空心菜梗暴炒板筋肉丝-会做饭很酷!"
      },
      "clicks" : "1",
      "hq" : 1,
      "thumb_height" : 0,
      "dish_count_text" : "",
      "tags" : [

      ],
      "minor" : [

      ],
      "rcs" : [

      ],
      "eu" : "recipes:\/\/www.douguo.com\/postdetail?id=242016",
      "cookstep" : [
        {
          "content" : "空心菜梗",
          "image_height" : 960,
          "image" : "https:\/\/i1.douguo.com\/upload\/caiku\/c\/9\/c\/c944667b9fa2b5c3befe2a438ec7462c.jpg",
          "image_width" : 1280,
          "thumb" : "https:\/\/i1.douguo.com\/upload\/caiku\/c\/9\/c\/140_c944667b9fa2b5c3befe2a438ec7462c.jpg",
          "position" : 1,
          "frame" : "-1"
        },
        {
          "thumb" : "https:\/\/i1.douguo.com\/upload\/caiku\/8\/d\/3\/140_8d79606d1fe2da491b3adfa365fbd7e3.jpg",
          "image" : "https:\/\/i1.douguo.com\/upload\/caiku\/8\/d\/3\/8d79606d1fe2da491b3adfa365fbd7e3.jpg",
          "frame" : "-1",
          "image_width" : 1280,
          "image_height" : 960,
          "position" : 2,
          "content" : "板筋丝"
        },
        {
          "image_width" : 1280,
          "content" : "空心菜梗过水",
          "image_height" : 960,
          "image" : "https:\/\/i1.douguo.com\/upload\/caiku\/9\/9\/f\/994f86291cc77beb0bd1b6e136f1330f.jpg",
          "frame" : "-1",
          "thumb" : "https:\/\/i1.douguo.com\/upload\/caiku\/9\/9\/f\/140_994f86291cc77beb0bd1b6e136f1330f.jpg",
          "position" : 3
        },
        {
          "image_height" : 960,
          "image_width" : 1280,
          "thumb" : "https:\/\/i1.douguo.com\/upload\/caiku\/6\/0\/7\/140_60bd7ce4d12fc1e84e215af12521e2a7.jpg",
          "content" : "板筋过油",
          "image" : "https:\/\/i1.douguo.com\/upload\/caiku\/6\/0\/7\/60bd7ce4d12fc1e84e215af12521e2a7.jpg",
          "position" : 4,
          "frame" : "-1"
        },
        {
          "image" : "https:\/\/i1.douguo.com\/upload\/caiku\/3\/5\/8\/35ef96e9e549f2c5db3ea8674da43b08.jpg",
          "frame" : "-1",
          "position" : 5,
          "thumb" : "https:\/\/i1.douguo.com\/upload\/caiku\/3\/5\/8\/140_35ef96e9e549f2c5db3ea8674da43b08.jpg",
          "content" : "起锅烧油下蒜蓉，姜片，板筋肉",
          "image_width" : 1280,
          "image_height" : 960
        },
        {
          "content" : "下空心菜梗",
          "frame" : "-1",
          "image" : "https:\/\/i1.douguo.com\/upload\/caiku\/9\/5\/0\/95e776d47efaab6c2d073468c7ea4550.jpg",
          "thumb" : "https:\/\/i1.douguo.com\/upload\/caiku\/9\/5\/0\/140_95e776d47efaab6c2d073468c7ea4550.jpg",
          "position" : 6,
          "image_width" : 1280,
          "image_height" : 960
        },
        {
          "image_height" : 960,
          "frame" : "-1",
          "thumb" : "https:\/\/i1.douguo.com\/upload\/caiku\/3\/e\/d\/140_3e186311c145e22166b9f21f3b5726dd.jpg",
          "position" : 7,
          "content" : "下调料",
          "image" : "https:\/\/i1.douguo.com\/upload\/caiku\/3\/e\/d\/3e186311c145e22166b9f21f3b5726dd.jpg",
          "image_width" : 1280
        },
        {
          "image_height" : 960,
          "content" : "暴炒",
          "frame" : "-1",
          "thumb" : "https:\/\/i1.douguo.com\/upload\/caiku\/2\/4\/9\/140_24177b2356657ab54943adc871f26719.jpg",
          "image" : "https:\/\/i1.douguo.com\/upload\/caiku\/2\/4\/9\/24177b2356657ab54943adc871f26719.jpg",
          "image_width" : 1280,
          "position" : 8
        },
        {
          "position" : 9,
          "frame" : "-1",
          "image_height" : 960,
          "image_width" : 1280,
          "content" : "出锅",
          "thumb" : "https:\/\/i1.douguo.com\/upload\/caiku\/8\/a\/3\/140_8a18703549fe380c86f743ab900d7813.jpg",
          "image" : "https:\/\/i1.douguo.com\/upload\/caiku\/8\/a\/3\/8a18703549fe380c86f743ab900d7813.jpg"
        }
      ],
      "hqu" : "recipes:\/\/www.douguo.com\/notedetail?id=21162253",
      "brand_day_dsp" : [

      ],
      "user" : {
        "qzone_nick" : "",
        "lvl" : 7,
        "birthday" : "",
        "user_cover" : "",
        "sign" : "",
        "favor_diaries_count" : 0,
        "diaries_count" : 0,
        "user_id" : "17130938",
        "subscription" : 0,
        "user_large_photo" : "http:\/\/tx1.douguo.net\/upload\/photo\/d\/f\/1\/yuan_u60436584739709032218.jpg",
        "fc" : 0,
        "userid" : "17130938",
        "dishes_count" : 0,
        "following_count" : 0,
        "age" : "",
        "qq_weibo_nick" : "",
        "introduction" : "",
        "coursecount" : 0,
        "avatar_medium" : "http:\/\/tx1.douguo.net\/upload\/photo\/d\/f\/1\/140_u60436584739709032218.jpg",
        "point" : 0,
        "weibo_nick" : "",
        "verified_url" : "https:\/\/m.douguo.com\/user\/prodesc",
        "user_photo" : "http:\/\/tx1.douguo.net\/upload\/photo\/d\/f\/1\/70_u60436584739709032218.jpg",
        "regist_time" : "",
        "verified" : 0,
        "followers_count" : 0,
        "location" : 0,
        "pc" : 0,
        "lv" : 0,
        "is_prime" : 0,
        "mobile" : "",
        "gender" : 1,
        "subscription_article_count" : 0,
        "verified_image" : "",
        "setted_email" : 0,
        "email" : "",
        "recipes_count" : 0,
        "nick" : "寿司之男",
        "progress_image" : "",
        "favorites_count" : 0
      },
      "recommend_label" : "3584人刚刚收藏过",
      "ipia" : [

      ],
      "cook_time_image" : "https:\/\/i1.douguo.com\/upload\/banner\/1551424358.png",
      "rate_count" : 0,
      "cookwares" : [

      ],
      "ecs" : 1,
      "rrpt" : "",
      "author" : "寿司之男",
      "favo_counts" : 3584,
      "vfurl" : "",
      "views_count_text" : "12.2万",
      "sr" : "",
      "author_verified" : 0,
      "mid_mdsp" : [

      ],
      "dish_count" : 0,
      "author_photo" : "http:\/\/tx1.douguo.net\/upload\/photo\/d\/f\/1\/70_u60436584739709032218.jpg",
      "rips" : 0,
      "vu" : "",
      "tips" : "",
      "cook_id" : "3210139",
      "old_comments" : [

      ],
      "notes" : [

      ],
      "rdsps" : [

      ],
      "ipci" : "",
      "ipit" : 0,
      "su" : "",
      "release_time" : "",
      "recipe_list_tags" : [
        {
          "text" : "关注的人",
          "background_border_color" : "",
          "background_start_color" : "#F4F5F5",
          "text_color" : "#141515",
          "right_image" : "",
          "background_end_color" : "#F4F5F5",
          "jump_url" : ""
        }
      ],
      "rewarded_video_dsp" : [

      ],
      "event" : {
        "name" : "金龙鱼橄榄调和油 橄想橄做，就是中国味",
        "url" : "https:\/\/m.douguo.com\/activity\/ncpzj\/detail\/3541?isapp=1&open=0&_vs=1000300&&dg_refreshkey=publishnote",
        "id" : 3541
      },
      "related_ads" : [

      ],
      "recent_comments" : [

      ],
      "purl" : "",
      "major" : [
        {
          "note" : "1把",
          "title" : "空心菜梗"
        },
        {
          "note" : "适量",
          "title" : "指天椒"
        },
        {
          "note" : "2瓣",
          "title" : "蒜头",
          "tu" : "https:\/\/m.douguo.com\/ingredients\/蒜头\/detailmaterial"
        },
        {
          "note" : "1勺",
          "title" : "生抽",
          "tu" : "https:\/\/m.douguo.com\/ingredients\/生抽\/detailmaterial"
        },
        {
          "note" : "少许",
          "title" : "食盐",
          "tu" : "https:\/\/m.douguo.com\/ingredients\/食盐\/detailmaterial"
        },
        {
          "note" : "少许",
          "title" : "耗油",
          "tu" : "https:\/\/m.douguo.com\/ingredients\/耗油\/detailmaterial"
        }
      ],
      "guide_image" : "",
      "collect_status" : 0,
      "ss" : [

      ],
      "display_ingredient" : 1,
      "v_u" : "",
      "story_dsp" : [

      ],
      "ssu" : "",
      "rpst" : "",
      "cookstory" : "",
      "photo_path" : "https:\/\/i1.douguo.com\/upload\/caiku\/0\/a\/4\/600_0a84d1c0a54cfcb939e43e871285a7d4.jpg",
      "author_id" : 17130938,
      "bs" : [

      ],
      "btm_dsp" : [

      ],
      "recipe_tags" : [

      ],
      "original_photo_path" : "http:\/\/i1.douguo.net\/upload\/caiku\/0\/a\/4\/yuan_0a84d1c0a54cfcb939e43e871285a7d4.jpg",
      "rate" : 0,
      "ipoi" : "",
      "cook_time" : "10分钟左右",
      "ipt" : "",
      "favo_counts_text" : "3584",
      "cook_difficulty" : "切墩(初级)",
      "packages_id" : [

      ],
      "recommended" : 0,
      "top_mdsp" : [

      ],
      "pw" : 1280,
      "rpt" : "",
      "act_des" : "",
      "dishes" : [

      ]
    }
  },
  "state" : "success",
  "status" : 0
}