{
  "status" : 0,
  "result" : {
    "recipe" : {
      "ecs" : 1,
      "rate_show" : 0,
      "ipia" : [

      ],
      "notes" : [

      ],
      "rsm" : "该功能暂停使用",
      "rpid" : 0,
      "eu" : "recipes:\/\/www.douguo.com\/postdetail?id=242016",
      "sr" : "",
      "dish_count_text" : "",
      "old_comments" : [

      ],
      "event" : {
        "id" : 2690,
        "url" : "https:\/\/m.douguo.com\/activity\/ncpzj\/detail\/2690?isapp=1&open=0&_vs=1000300&&dg_refreshkey=publishnote",
        "name" : "全电厨王料理挑战赛热力开战！"
      },
      "ph" : 853,
      "v_u" : "",
      "image" : "http:\/\/i1.douguo.net\/upload\/caiku\/7\/b\/9\/300_7b34f041b84a0317339da3ec326480f9.jpg",
      "photo_path" : "https:\/\/i1.douguo.com\/upload\/caiku\/7\/b\/9\/600_7b34f041b84a0317339da3ec326480f9.jpg",
      "btm_dsp" : [

      ],
      "rrps" : [

      ],
      "rcs" : [

      ],
      "title" : "微波炉美食→美味鸡翅",
      "related_ads" : [

      ],
      "brand_day_dsp" : [

      ],
      "thumb_path" : "https:\/\/i1.douguo.com\/upload\/caiku\/7\/b\/9\/300_7b34f041b84a0317339da3ec326480f9.jpg",
      "cookstorys" : [
        {
          "type" : 0,
          "c" : "超简单的懒人菜谱",
          "id" : 0,
          "icon" : "",
          "u" : "",
          "color" : ""
        },
        {
          "u" : "",
          "icon" : "",
          "type" : 0,
          "c" : "\n参与活动:",
          "color" : "",
          "id" : 0
        },
        {
          "icon" : "",
          "type" : 0,
          "c" : "#全电厨王料理挑战赛热力开战！#",
          "id" : 0,
          "u" : "https:\/\/m.douguo.com\/activity\/ncpzj\/detail\/2690?isapp=1&open=0&_vs=1000300&&dg_refreshkey=publishnote"
        }
      ],
      "favo_counts_text" : "4371",
      "packages_id" : [

      ],
      "comments_count" : 0,
      "ipit" : 0,
      "major" : [
        {
          "note" : "4只",
          "title" : "鸡中翅"
        },
        {
          "tu" : "https:\/\/m.douguo.com\/ingredients\/酱油\/detailmaterial",
          "note" : "适量",
          "title" : "酱油"
        },
        {
          "tu" : "https:\/\/m.douguo.com\/ingredients\/盐\/detailmaterial",
          "title" : "盐",
          "note" : "适量"
        },
        {
          "note" : "适量",
          "title" : "糖",
          "tu" : "https:\/\/m.douguo.com\/ingredients\/糖\/detailmaterial"
        },
        {
          "tu" : "https:\/\/m.douguo.com\/ingredients\/油\/detailmaterial",
          "title" : "油",
          "note" : "不用（≧∇≦）"
        }
      ],
      "create_time" : "2015-10-08 20:53:18",
      "recommend_label" : "4371人刚刚收藏过",
      "rdsps" : [

      ],
      "rrpt" : "",
      "vu" : "",
      "favo_counts" : 4371,
      "su" : "",
      "display_ingredient" : 1,
      "recommendation_tag" : "",
      "comments" : [

      ],
      "recipe_list_tags" : [
        {
          "right_image" : "",
          "background_end_color" : "#F4F5F5",
          "jump_url" : "",
          "background_start_color" : "#F4F5F5",
          "background_border_color" : "",
          "text" : "关注的人",
          "text_color" : "#141515"
        }
      ],
      "rate_count" : 0,
      "rate" : 0,
      "pw" : 640,
      "cook_difficulty" : "",
      "release_time" : "",
      "rewarded_video_dsp" : [

      ],
      "author_verified" : 0,
      "comments_count_text" : "",
      "dish_count" : 0,
      "purl" : "",
      "clicks" : "197646",
      "ipoi" : "",
      "levelid" : 2,
      "cookstory" : "超简单的懒人菜谱",
      "collect_status" : 0,
      "ipurl" : "",
      "sc" : 0,
      "tags" : [

      ],
      "mid_mdsp" : [

      ],
      "cook_difficulty_image" : "",
      "views_count_text" : "21.1万",
      "recommended" : 0,
      "guide_image" : "",
      "cookstep" : [
        {
          "image" : "https:\/\/i1.douguo.com\/upload\/caiku\/f\/e\/b\/feb1de52aa357d6cc19944aacd39960b.jpg",
          "image_height" : 480,
          "content" : "将鸡翅解冻后，洗净。",
          "image_width" : 640,
          "thumb" : "https:\/\/i1.douguo.com\/upload\/caiku\/f\/e\/b\/140_feb1de52aa357d6cc19944aacd39960b.jpg",
          "frame" : "-1",
          "position" : 1
        },
        {
          "image_width" : 640,
          "image" : "https:\/\/i1.douguo.com\/upload\/caiku\/a\/8\/3\/a893e020e677af3bc3d5143dce6b60f3.jpg",
          "position" : 2,
          "thumb" : "https:\/\/i1.douguo.com\/upload\/caiku\/a\/8\/3\/140_a893e020e677af3bc3d5143dce6b60f3.jpg",
          "image_height" : 853,
          "frame" : "-1",
          "content" : "放入微波炉，按烤鸡即可。"
        },
        {
          "image_width" : 640,
          "thumb" : "https:\/\/i1.douguo.com\/upload\/caiku\/a\/0\/8\/140_a04c8e5eabe84786469a32b29e2479f8.jpg",
          "image_height" : 853,
          "position" : 3,
          "frame" : "-1",
          "content" : "考到中段，将鸡翅拿出来。",
          "image" : "https:\/\/i1.douguo.com\/upload\/caiku\/a\/0\/8\/a04c8e5eabe84786469a32b29e2479f8.jpg"
        },
        {
          "image" : "https:\/\/i1.douguo.com\/upload\/caiku\/7\/b\/f\/7b5edbfbdbbd93d0b244db63fb7feadf.jpg",
          "image_height" : 853,
          "position" : 4,
          "thumb" : "https:\/\/i1.douguo.com\/upload\/caiku\/7\/b\/f\/140_7b5edbfbdbbd93d0b244db63fb7feadf.jpg",
          "frame" : "-1",
          "image_width" : 640,
          "content" : "鸡翅中有很多鸡油，所以千万不要放油，按自己喜欢放生抽、糖涂在鸡翅上，之后再放回微波炉继续烤煮。"
        },
        {
          "thumb" : "https:\/\/i1.douguo.com\/upload\/caiku\/c\/9\/e\/140_c9ba48a589740e97846e0475aacf60ee.jpg",
          "image_width" : 640,
          "position" : 5,
          "content" : "美味可口的鸡翅完成了（≧∇≦）好简单。",
          "frame" : "-1",
          "image_height" : 853,
          "image" : "https:\/\/i1.douguo.com\/upload\/caiku\/c\/9\/e\/c9ba48a589740e97846e0475aacf60ee.jpg"
        }
      ],
      "rpt" : "",
      "user" : {
        "user_id" : "11620379",
        "avatar_medium" : "http:\/\/tx1.douguo.net\/upload\/photo\/6\/8\/a\/140_u44220045559320121445.jpeg",
        "qzone_nick" : "",
        "setted_email" : 0,
        "user_large_photo" : "http:\/\/tx1.douguo.net\/upload\/photo\/6\/8\/a\/yuan_u44220045559320121445.jpeg",
        "coursecount" : 0,
        "diaries_count" : 0,
        "verified_url" : "https:\/\/m.douguo.com\/user\/prodesc",
        "qq_weibo_nick" : "",
        "progress_image" : "",
        "weibo_nick" : "",
        "mobile" : "",
        "userid" : "11620379",
        "user_photo" : "http:\/\/tx1.douguo.net\/upload\/photo\/6\/8\/a\/70_u44220045559320121445.jpeg",
        "email" : "",
        "dishes_count" : 0,
        "lvl" : 6,
        "following_count" : 0,
        "is_prime" : 0,
        "location" : 0,
        "subscription" : 0,
        "point" : 0,
        "sign" : "",
        "favor_diaries_count" : 0,
        "introduction" : "",
        "fc" : 0,
        "nick" : "Cheyenne_guan",
        "favorites_count" : 0,
        "recipes_count" : 0,
        "user_cover" : "",
        "followers_count" : 0,
        "age" : "",
        "subscription_article_count" : 0,
        "lv" : 0,
        "verified" : 0,
        "gender" : 2,
        "verified_image" : "",
        "pc" : 0,
        "regist_time" : "",
        "birthday" : ""
      },
      "ipt" : "",
      "share_info" : {
        "qr_image" : "",
        "mini_program" : [

        ],
        "object_id" : "1268346",
        "name" : "#全电厨王料理挑战赛热力开战！#微波炉美食→美味鸡翅-会做饭很酷!",
        "s_u" : "http:\/\/m.douguo.com\/cookbook\/1268346.html",
        "s_d" : "#全电厨王料理挑战赛热力开战！#微波炉美食→美味鸡翅-会做饭很酷!",
        "infos" : [
          {
            "mini_program" : [

            ],
            "object_id" : "1268346",
            "image" : "https:\/\/cp1.douguo.com\/upload\/caiku\/7\/b\/9\/7b34f041b84a0317339da3ec326480f9.jpg",
            "qr_image" : "",
            "channel" : "1",
            "s_u" : "",
            "s_d" : "#学做饭用豆果美食# 会做饭真是太酷了！我在@豆果美食 分享了【#全电厨王料理挑战赛热力开战！#微波炉美食→美味鸡翅-会做饭很酷!】，这道菜真的神仙美味！喜欢的一定要试试绝对不会错的！～查看图片了解菜谱（快来点击https:\/\/m.weibo.cn\/p\/100404i33631和我一起修炼厨艺吧）",
            "name" : "#全电厨王料理挑战赛热力开战！#微波炉美食→美味鸡翅-会做饭很酷!"
          },
          {
            "channel" : "7",
            "s_u" : "http:\/\/m.douguo.com\/cookbook\/1268346.html",
            "mini_program" : [

            ],
            "s_d" : "#全电厨王料理挑战赛热力开战！#微波炉美食→美味鸡翅-会做饭很酷!",
            "object_id" : "1268346",
            "image" : "https:\/\/cp1.douguo.com\/upload\/caiku\/7\/b\/9\/7b34f041b84a0317339da3ec326480f9.jpg",
            "name" : "#全电厨王料理挑战赛热力开战！#微波炉美食→美味鸡翅-会做饭很酷!",
            "qr_image" : ""
          },
          {
            "s_u" : "http:\/\/m.douguo.com\/cookbook\/1268346.html",
            "channel" : "8",
            "s_d" : "#全电厨王料理挑战赛热力开战！#微波炉美食→美味鸡翅-会做饭很酷!",
            "name" : "#全电厨王料理挑战赛热力开战！#微波炉美食→美味鸡翅-会做饭很酷!",
            "qr_image" : "",
            "image" : "https:\/\/cp1.douguo.com\/upload\/caiku\/7\/b\/9\/7b34f041b84a0317339da3ec326480f9.jpg",
            "mini_program" : [

            ],
            "object_id" : "1268346"
          }
        ],
        "image" : "https:\/\/cp1.douguo.com\/upload\/caiku\/7\/b\/9\/7b34f041b84a0317339da3ec326480f9.jpg"
      },
      "vc" : "211217",
      "hq" : 1,
      "original_photo_path" : "http:\/\/i1.douguo.net\/upload\/caiku\/7\/b\/9\/yuan_7b34f041b84a0317339da3ec326480f9.jpg",
      "thumb_height" : 0,
      "author_photo" : "http:\/\/tx1.douguo.net\/upload\/photo\/6\/8\/a\/70_u44220045559320121445.jpeg",
      "recent_comments" : [

      ],
      "cookwares" : [

      ],
      "ipci" : "",
      "act_des" : "",
      "ssu" : "",
      "tips" : "",
      "dishes" : [

      ],
      "advice" : {
        "da" : {
          "t" : "查看详细分析",
          "url" : "https:\/\/m.douguo.com\/recipe\/nutrient_self\/1268346",
          "iu" : "https:\/\/i1.douguo.com\/upload\/banner\/f\/4\/d\/f48877e53c37759bc12ac494be82ec8d.png"
        },
        "at" : "可以提供多种氨基酸～",
        "has" : [
          {
            "t" : "富含蛋白质",
            "url" : "recipes:\/\/www.douguo.com\/simplerecipelist?t=富含蛋白质&id=富含蛋白质"
          }
        ]
      },
      "vfurl" : "",
      "bs" : [

      ],
      "recipe_tags" : [

      ],
      "rips" : 0,
      "first_level_comment_count" : 0,
      "story_dsp" : [

      ],
      "top_mdsp" : [

      ],
      "hqu" : "recipes:\/\/www.douguo.com\/notedetail?id=21162253",
      "author_id" : 11620379,
      "minor" : [

      ],
      "cook_time" : "10分钟左右",
      "cook_id" : "1268346",
      "cook_time_image" : "https:\/\/i1.douguo.com\/upload\/banner\/1551424358.png",
      "ss" : [

      ],
      "author" : "Cheyenne_guan",
      "rpst" : "",
      "title_ad" : [

      ]
    }
  },
  "state" : "success"
}