{
  "state" : "success",
  "status" : 0,
  "result" : {
    "recipe" : {
      "photo_path" : "https:\/\/i1.douguo.com\/upload\/caiku\/a\/f\/d\/600_af56c6fe6703353314b77e980d43ff4d.png",
      "collect_status" : 0,
      "ipt" : "",
      "author_id" : 2839088,
      "cook_time" : "",
      "rips" : 0,
      "cook_id" : "1499388",
      "ipurl" : "",
      "eu" : "recipes:\/\/www.douguo.com\/postdetail?id=242016",
      "thumb_path" : "https:\/\/i1.douguo.com\/upload\/caiku\/a\/f\/d\/300_af56c6fe6703353314b77e980d43ff4d.png",
      "author_photo" : "http:\/\/tx1.douguo.net\/upload\/photo\/d\/6\/b\/70_u7060417732822801280909.jpg",
      "dishes" : [

      ],
      "rate" : 0,
      "recent_comments" : [

      ],
      "ss" : [

      ],
      "cook_time_image" : "",
      "share_info" : {
        "s_d" : "小羽私厨之油焖茭白-会做饭很酷!",
        "infos" : [
          {
            "name" : "小羽私厨之油焖茭白-会做饭很酷!",
            "mini_program" : [

            ],
            "object_id" : "1499388",
            "s_u" : "",
            "image" : "https:\/\/cp1.douguo.com\/upload\/caiku\/a\/f\/d\/af56c6fe6703353314b77e980d43ff4d.png",
            "s_d" : "#学做饭用豆果美食# 我在@豆果美食 分享了【小羽私厨之油焖茭白-会做饭很酷!】，这菜真的很好吃，而且做法简单不难学，还不快来跟我学～查看图片了解菜谱（每天限量免费课程，想跟大师学厨艺就来这https:\/\/m.weibo.cn\/p\/100404i33631）#会做饭很酷# ",
            "qr_image" : "",
            "channel" : "1"
          },
          {
            "object_id" : "1499388",
            "qr_image" : "",
            "channel" : "7",
            "mini_program" : [

            ],
            "s_d" : "小羽私厨之油焖茭白-会做饭很酷!",
            "s_u" : "http:\/\/m.douguo.com\/cookbook\/1499388.html",
            "name" : "小羽私厨之油焖茭白-会做饭很酷!",
            "image" : "https:\/\/cp1.douguo.com\/upload\/caiku\/a\/f\/d\/af56c6fe6703353314b77e980d43ff4d.png"
          },
          {
            "mini_program" : [

            ],
            "s_u" : "http:\/\/m.douguo.com\/cookbook\/1499388.html",
            "qr_image" : "",
            "channel" : "8",
            "name" : "小羽私厨之油焖茭白-会做饭很酷!",
            "image" : "https:\/\/cp1.douguo.com\/upload\/caiku\/a\/f\/d\/af56c6fe6703353314b77e980d43ff4d.png",
            "s_d" : "小羽私厨之油焖茭白-会做饭很酷!",
            "object_id" : "1499388"
          }
        ],
        "s_u" : "http:\/\/m.douguo.com\/cookbook\/1499388.html",
        "image" : "https:\/\/cp1.douguo.com\/upload\/caiku\/a\/f\/d\/af56c6fe6703353314b77e980d43ff4d.png",
        "object_id" : "1499388",
        "mini_program" : [

        ],
        "qr_image" : "",
        "name" : "小羽私厨之油焖茭白-会做饭很酷!"
      },
      "recipe_tags" : [

      ],
      "hq" : 1,
      "tags" : [

      ],
      "rate_count" : 0,
      "btm_dsp" : [

      ],
      "image" : "http:\/\/i1.douguo.net\/upload\/caiku\/a\/f\/d\/300_af56c6fe6703353314b77e980d43ff4d.png",
      "cook_difficulty_image" : "",
      "favo_counts_text" : "915",
      "ssu" : "",
      "v_u" : "",
      "major" : [
        {
          "tu" : "https:\/\/m.douguo.com\/ingredients\/茭白\/detailmaterial",
          "note" : "4根",
          "title" : "茭白"
        },
        {
          "note" : "适量",
          "title" : "姜片",
          "tu" : "https:\/\/m.douguo.com\/ingredients\/姜片\/detailmaterial"
        },
        {
          "note" : "5g",
          "tu" : "https:\/\/m.douguo.com\/ingredients\/蜂蜜\/detailmaterial",
          "title" : "蜂蜜"
        },
        {
          "title" : "蒸鱼豉油",
          "note" : "15g"
        }
      ],
      "views_count_text" : "23.2万",
      "comments" : [
        "{\n    ac = \"#999999\";\n    at = \"\\U82cf\\U5dde\\U5e02\";\n    ccc = 0;\n    \"child_comments\" =     (\n    );\n    city = \"\\U82cf\\U5dde\\U5e02\";\n    cmc = 2;\n    content =     (\n                {\n            c = \"\\U4e0d\\U52a0\\U8702\\U871c\\U597d\\U5403\\U5417\";\n        }\n    );\n    ia = 0;\n    id = 6622330;\n    \"ip_address_location\" = \"\";\n    like = 0;\n    \"like_count\" = 0;\n    \"reply_id\" = 0;\n    \"sticker_icon\" =     (\n    );\n    time = \"2019-05-28 17:29:56\";\n    u =     {\n        \"followers_count_text\" = \"\";\n        id = 17159854;\n        \"is_prime\" = 0;\n        lv = 0;\n        lvl = 1;\n        n = Sumer99;\n        p = \"http:\/\/tx1.douguo.net\/upload\/photo\/3\/3\/6\/70_u60706481912983175327.jpg\";\n        \"progress_image\" = \"\";\n        \"recipes_count_text\" = \"\";\n        relationship = \"-1\";\n        title = \"\";\n        v = 0;\n        \"verified_image\" = \"\";\n    };\n}",
        "{\n    ac = \"#999999\";\n    at = \"\";\n    ccc = 0;\n    \"child_comments\" =     (\n    );\n    city = \"\";\n    cmc = 2;\n    content =     (\n                {\n            c = \"\\U8bd5\\U505a\\U4e86\\Uff0c\\U5f88\\U597d\\U5403\";\n        }\n    );\n    ia = 0;\n    id = 5031632;\n    \"ip_address_location\" = \"\";\n    like = 0;\n    \"like_count\" = 0;\n    \"reply_id\" = 0;\n    \"sticker_icon\" =     (\n    );\n    time = \"2017-08-31 03:33:09\";\n    u =     {\n        \"followers_count_text\" = \"\";\n        id = 20952882;\n        \"is_prime\" = 0;\n        lv = 0;\n        lvl = 1;\n        n = \"\\U6731\\U5b9d\\U5b9d_Julie\";\n        p = \"http:\/\/tx1.douguo.net\/upload\/photo\/a\/2\/4\/70_u04150189516710090847.jpeg\";\n        \"progress_image\" = \"\";\n        \"recipes_count_text\" = \"\";\n        relationship = \"-1\";\n        title = \"\";\n        v = 0;\n        \"verified_image\" = \"\";\n    };\n}"
      ],
      "act_des" : "",
      "ipoi" : "",
      "recommended" : 0,
      "title" : "小羽私厨之油焖茭白",
      "old_comments" : [

      ],
      "levelid" : 2,
      "rrpt" : "",
      "create_time" : "2017-01-05 14:10:01",
      "ecs" : 0,
      "first_level_comment_count" : 2,
      "cookwares" : [

      ],
      "mid_mdsp" : [

      ],
      "rcs" : [

      ],
      "vc" : "231515",
      "recipe_list_tags" : [
        {
          "text" : "关注的人",
          "jump_url" : "",
          "background_start_color" : "#F4F5F5",
          "text_color" : "#141515",
          "background_end_color" : "#F4F5F5",
          "right_image" : "",
          "background_border_color" : ""
        }
      ],
      "ipia" : [

      ],
      "title_ad" : [

      ],
      "minor" : [
        "{\n    note = 2g;\n    title = \"\\U76d0\";\n    tu = \"https:\/\/https:\/\/m.douguo.com\/ingredients\/\\U76d0\/detailmaterial\";\n}",
        "{\n    note = 5g;\n    title = \"\\U6599\\U9152\";\n    tu = \"https:\/\/https:\/\/m.douguo.com\/ingredients\/\\U6599\\U9152\/detailmaterial\";\n}",
        "{\n    note = 30g;\n    title = \"\\U6c34\";\n    tu = \"https:\/\/https:\/\/m.douguo.com\/ingredients\/\\U6c34\/detailmaterial\";\n}"
      ],
      "related_ads" : [

      ],
      "comments_count" : 2,
      "rpid" : 0,
      "tips" : "",
      "packages_id" : [

      ],
      "rpt" : "",
      "story_dsp" : [

      ],
      "thumb_height" : 0,
      "bs" : [

      ],
      "dish_count_text" : "1",
      "rdsps" : [

      ],
      "sc" : 0,
      "purl" : "",
      "user" : {
        "favor_diaries_count" : 0,
        "userid" : "2839088",
        "point" : 0,
        "birthday" : "",
        "user_large_photo" : "http:\/\/tx1.douguo.net\/upload\/photo\/d\/6\/b\/yuan_u7060417732822801280909.jpg",
        "diaries_count" : 0,
        "avatar_medium" : "http:\/\/tx1.douguo.net\/upload\/photo\/d\/6\/b\/140_u7060417732822801280909.jpg",
        "user_photo" : "http:\/\/tx1.douguo.net\/upload\/photo\/d\/6\/b\/70_u7060417732822801280909.jpg",
        "mobile" : "",
        "weibo_nick" : "",
        "introduction" : "",
        "user_cover" : "",
        "subscription" : 0,
        "following_count" : 0,
        "sign" : "",
        "favorites_count" : 0,
        "verified" : 1,
        "location" : 0,
        "setted_email" : 0,
        "regist_time" : "",
        "fc" : 0,
        "age" : "",
        "nick" : "小羽私厨",
        "gender" : 2,
        "qq_weibo_nick" : "",
        "dishes_count" : 0,
        "progress_image" : "",
        "followers_count" : 0,
        "lv" : 0,
        "recipes_count" : 0,
        "lvl" : 7,
        "verified_image" : "https:\/\/i1.douguo.com\/upload\/note\/d\/a\/a\/da84247847aebe48d9dd0fcdac88862a.png",
        "subscription_article_count" : 0,
        "pc" : 0,
        "is_prime" : 0,
        "qzone_nick" : "",
        "user_id" : "2839088",
        "email" : "",
        "verified_url" : "https:\/\/m.douguo.com\/user\/prodesc",
        "coursecount" : 0
      },
      "vfurl" : "https:\/\/vplay.douguo.com\/'XMTkwOTM4OTg0OA==__640x356.mp4",
      "recommend_label" : "1人学做",
      "guide_image" : "",
      "cook_difficulty" : "",
      "pw" : 800,
      "rsm" : "该功能暂停使用",
      "release_time" : "",
      "rate_show" : 0,
      "rrps" : [

      ],
      "ipci" : "",
      "cookstep" : [
        {
          "image_width" : 1410,
          "content" : "▲ 我们先来调一下料汁：1小勺的蜂蜜、1大勺的蒸鱼豉油、一点点盐、1小勺料酒、3大勺的水调匀。",
          "image" : "https:\/\/i1.douguo.com\/upload\/caiku\/f\/9\/c\/f97c4c59bc5734f190d3a25f1d7893ac.png",
          "thumb" : "https:\/\/i1.douguo.com\/upload\/caiku\/f\/9\/c\/140_f97c4c59bc5734f190d3a25f1d7893ac.png",
          "position" : 1,
          "image_height" : 791,
          "frame" : "-1"
        },
        {
          "frame" : "-1",
          "image_width" : 1024,
          "content" : "▲茭白的外皮剥掉之后，切成滚刀块。",
          "image" : "https:\/\/i1.douguo.com\/upload\/caiku\/9\/c\/4\/9c1bbf74cf9ca8a7fa6aee3140f54ff4.png",
          "thumb" : "https:\/\/i1.douguo.com\/upload\/caiku\/9\/c\/4\/140_9c1bbf74cf9ca8a7fa6aee3140f54ff4.png",
          "position" : 2,
          "image_height" : 681
        },
        {
          "position" : 3,
          "frame" : "-1",
          "image_height" : 961,
          "content" : "▲炒锅烧热倒油，油要多一点，油热之后放入姜片炒出香味。\n",
          "image" : "https:\/\/i1.douguo.com\/upload\/caiku\/7\/1\/3\/71350a216344db1bcdf3956a23f0af93.png",
          "image_width" : 1716,
          "thumb" : "https:\/\/i1.douguo.com\/upload\/caiku\/7\/1\/3\/140_71350a216344db1bcdf3956a23f0af93.png"
        },
        {
          "image" : "https:\/\/i1.douguo.com\/upload\/caiku\/6\/b\/f\/6bdada89ea55a5597160ef75be9d369f.gif",
          "content" : "▲把茭白块放进去，翻炒一会儿，一直炒到茭白块的边上有点变色就可以了。\n",
          "position" : 4,
          "image_width" : 640,
          "frame" : "-1",
          "thumb" : "https:\/\/i1.douguo.com\/upload\/caiku\/6\/b\/f\/6bdada89ea55a5597160ef75be9d369f.gif",
          "image_height" : 360
        },
        {
          "image" : "https:\/\/i1.douguo.com\/upload\/caiku\/d\/c\/b\/dc577ea67e2662919a2ba1deaa6a953b.gif",
          "thumb" : "https:\/\/i1.douguo.com\/upload\/caiku\/d\/c\/b\/dc577ea67e2662919a2ba1deaa6a953b.gif",
          "image_height" : 225,
          "content" : "▲把之前调好的料汁倒进去，翻炒几下。",
          "image_width" : 400,
          "position" : 5,
          "frame" : "-1"
        },
        {
          "content" : "▲盖上锅盖焖上5分钟。",
          "thumb" : "https:\/\/i1.douguo.com\/upload\/caiku\/7\/f\/f\/140_7f8097220f22d4e4e1cc0fece0c85fff.png",
          "frame" : "-1",
          "position" : 6,
          "image_width" : 1412,
          "image_height" : 787,
          "image" : "https:\/\/i1.douguo.com\/upload\/caiku\/7\/f\/f\/7f8097220f22d4e4e1cc0fece0c85fff.png"
        },
        {
          "thumb" : "https:\/\/i1.douguo.com\/upload\/caiku\/b\/6\/c\/b6f1470ceb7a6fe07227a4877d2152ec.gif",
          "image" : "https:\/\/i1.douguo.com\/upload\/caiku\/b\/6\/c\/b6f1470ceb7a6fe07227a4877d2152ec.gif",
          "content" : "▲开盖，把汤汁收浓，茭白上色，就可以啦。",
          "image_height" : 360,
          "position" : 7,
          "image_width" : 640,
          "frame" : "-1"
        },
        {
          "content" : "▲焖的时候还可以加上点火腿丝，就是豪华版的了。爱吃辣的，可以适当加点儿辣椒。你做好了之后记得拍照给我，在微博上@小羽私厨的桐小羽，我会选出棒棒的作品赠送小礼物呀。\n",
          "frame" : "-1",
          "image_height" : 576,
          "thumb" : "https:\/\/i1.douguo.com\/upload\/caiku\/b\/7\/4\/140_b7b89e22d927fa212040bd09d5dd0074.png",
          "image_width" : 1024,
          "position" : 8,
          "image" : "https:\/\/i1.douguo.com\/upload\/caiku\/b\/7\/4\/b7b89e22d927fa212040bd09d5dd0074.png"
        }
      ],
      "favo_counts" : 915,
      "ipit" : 0,
      "advice" : {
        "at" : "能有效控制体重～",
        "has" : [
          {
            "t" : "低热量",
            "url" : "recipes:\/\/www.douguo.com\/simplerecipelist?t=低热量&id=低热量"
          },
          {
            "url" : "recipes:\/\/www.douguo.com\/simplerecipelist?t=低脂&id=低脂",
            "t" : "低脂"
          }
        ],
        "da" : {
          "url" : "https:\/\/m.douguo.com\/recipe\/nutrient_self\/1499388",
          "t" : "查看详细分析",
          "iu" : "https:\/\/i1.douguo.com\/upload\/banner\/f\/4\/d\/f48877e53c37759bc12ac494be82ec8d.png"
        }
      },
      "cookstory" : "小羽私厨系列菜谱视频之《油焖茭白》",
      "brand_day_dsp" : [

      ],
      "author_verified" : 1,
      "hqu" : "recipes:\/\/www.douguo.com\/notedetail?id=21162253",
      "original_photo_path" : "http:\/\/i1.douguo.net\/upload\/caiku\/a\/f\/d\/yuan_af56c6fe6703353314b77e980d43ff4d.png",
      "su" : "",
      "recommendation_tag" : "",
      "clicks" : "227123",
      "rewarded_video_dsp" : [

      ],
      "ph" : 450,
      "display_ingredient" : 1,
      "vu" : "http:\/\/player.youku.com\/embed\/XMTkwOTM4OTg0OA==",
      "rpst" : "",
      "cookstorys" : [
        {
          "id" : 0,
          "c" : "小羽私厨系列菜谱视频之《油焖茭白》",
          "type" : 0,
          "color" : "",
          "icon" : "",
          "u" : ""
        }
      ],
      "dish_count" : 1,
      "top_mdsp" : [

      ],
      "author" : "小羽私厨",
      "notes" : [

      ],
      "sr" : "",
      "comments_count_text" : "2"
    }
  }
}