{
  "status" : 0,
  "result" : {
    "recipe" : {
      "tips" : "",
      "su" : "",
      "photo_path" : "https:\/\/i1.douguo.com\/upload\/caiku\/8\/c\/8\/600_8c7a0ea2f4c1dff9b77de80307387c98.jpg",
      "recommend_label" : "111人学做",
      "cook_difficulty" : "",
      "major" : [
        {
          "tu" : "https:\/\/m.douguo.com\/ingredients\/虾仁\/detailmaterial",
          "note" : "200g",
          "title" : "虾仁"
        },
        {
          "tu" : "https:\/\/m.douguo.com\/ingredients\/鸡蛋\/detailmaterial",
          "title" : "鸡蛋",
          "note" : "3个"
        },
        {
          "title" : "葱叶",
          "note" : "2根"
        },
        {
          "title" : "油",
          "note" : "适量",
          "tu" : "https:\/\/m.douguo.com\/ingredients\/油\/detailmaterial"
        },
        {
          "title" : "盐",
          "note" : "适量",
          "tu" : "https:\/\/m.douguo.com\/ingredients\/盐\/detailmaterial"
        },
        {
          "note" : "适量",
          "tu" : "https:\/\/m.douguo.com\/ingredients\/料酒\/detailmaterial",
          "title" : "料酒"
        },
        {
          "title" : "白胡椒粉",
          "note" : "适量"
        },
        {
          "title" : "淀粉",
          "note" : "适量"
        }
      ],
      "minor" : [

      ],
      "favo_counts" : 44110,
      "recipe_list_tags" : [
        {
          "jump_url" : "",
          "background_border_color" : "",
          "right_image" : "",
          "background_start_color" : "#F4F5F5",
          "text" : "关注的人",
          "text_color" : "#141515",
          "background_end_color" : "#F4F5F5"
        }
      ],
      "brand_day_dsp" : [

      ],
      "recent_comments" : [

      ],
      "comments_count" : 18,
      "packages_id" : [

      ],
      "hqu" : "recipes:\/\/www.douguo.com\/notedetail?id=21162253",
      "recommended" : 0,
      "ph" : 535,
      "title" : "虾仁炒蛋",
      "vfurl" : "",
      "comments" : [
        "{\n    ac = \"#999999\";\n    at = \"\";\n    ccc = 2;\n    \"child_comments\" =     (\n                {\n            ac = \"#999999\";\n            at = \"\\U5510\\U5c71\\U5e02\";\n            ccc = 0;\n            city = \"\\U5510\\U5c71\\U5e02\";\n            cmc = 2;\n            content =             (\n                                {\n                    c = \" ffdpfgcc\";\n                }\n            );\n            ia = 0;\n            id = 8722237;\n            \"ip_address_location\" = \"\";\n            like = 0;\n            \"like_count\" = 0;\n            \"reply_id\" = 4911801;\n            \"reply_user\" =             {\n                \"followers_count_text\" = \"\";\n                id = 17576133;\n                \"is_prime\" = 0;\n                lv = 0;\n                lvl = 2;\n                n = \"\\U6ce1\\U8299\\U5c0f\\U59d0gemini\";\n                p = \"http:\/\/tx1.douguo.net\/upload\/photo\/a\/2\/6\/70_u64608856975819214953.jpg\";\n                \"progress_image\" = \"\";\n                \"recipes_count_text\" = \"\";\n                relationship = \"-1\";\n                title = \"\";\n                v = 0;\n                \"verified_image\" = \"\";\n            };\n            \"sticker_icon\" =             (\n            );\n            time = \"2021-06-28 18:58:27\";\n            u =             {\n                \"followers_count_text\" = \"\";\n                id = 19700568;\n                \"is_prime\" = 0;\n                lv = 0;\n                lvl = 1;\n                n = \"\\U8d24\\U6668\";\n                p = \"\";\n                \"progress_image\" = \"\";\n                \"recipes_count_text\" = \"\";\n                relationship = \"-1\";\n                title = \"\";\n                v = 0;\n                \"verified_image\" = \"\";\n            };\n        },\n                {\n            ac = \"#999999\";\n            at = \"\\U4e0a\\U6d77\\U5e02\";\n            ccc = 0;\n            city = \"\\U4e0a\\U6d77\\U5e02\";\n            cmc = 2;\n            content =             (\n                                {\n                    c = \" \\U4f60\";\n                }\n            );\n            ia = 0;\n            id = 8790153;\n            \"ip_address_location\" = \"\";\n            like = 0;\n            \"like_count\" = 0;\n            \"reply_id\" = 4911801;\n            \"reply_user\" =             {\n                \"followers_count_text\" = \"\";\n                id = 17576133;\n                \"is_prime\" = 0;\n                lv = 0;\n                lvl = 2;\n                n = \"\\U6ce1\\U8299\\U5c0f\\U59d0gemini\";\n                p = \"http:\/\/tx1.douguo.net\/upload\/photo\/a\/2\/6\/70_u64608856975819214953.jpg\";\n                \"progress_image\" = \"\";\n                \"recipes_count_text\" = \"\";\n                relationship = \"-1\";\n                title = \"\";\n                v = 0;\n                \"verified_image\" = \"\";\n            };\n            \"sticker_icon\" =             (\n            );\n            time = \"2021-09-19 12:34:44\";\n            u =             {\n                \"followers_count_text\" = \"\";\n                id = 22351761;\n                \"is_prime\" = 0;\n                lv = 0;\n                lvl = 2;\n                n = \"\\U8c46\\U7c89640030ksqu\";\n                p = \"http:\/\/tx1.douguo.net\/upload\/photo\/9\/a\/3\/70_u31640030377041112313.jpeg\";\n                \"progress_image\" = \"\";\n                \"recipes_count_text\" = \"\";\n                relationship = \"-1\";\n                title = \"\";\n                v = 0;\n                \"verified_image\" = \"\";\n            };\n        }\n    );\n    city = \"\";\n    cmc = 2;\n    content =     (\n                {\n            c = \"\\U660e\\U5929\\U505a\\U8fd9\\U4e2a~~\";\n        }\n    );\n    ia = 0;\n    id = 4911801;\n    \"ip_address_location\" = \"\";\n    like = 0;\n    \"like_count\" = 3;\n    \"reply_id\" = 0;\n    \"sticker_icon\" =     (\n    );\n    time = \"2017-07-14 15:09:43\";\n    u =     {\n        \"followers_count_text\" = \"\";\n        id = 17576133;\n        \"is_prime\" = 0;\n        lv = 0;\n        lvl = 2;\n        n = \"\\U6ce1\\U8299\\U5c0f\\U59d0gemini\";\n        p = \"http:\/\/tx1.douguo.net\/upload\/photo\/a\/2\/6\/70_u64608856975819214953.jpg\";\n        \"progress_image\" = \"\";\n        \"recipes_count_text\" = \"\";\n        relationship = \"-1\";\n        title = \"\";\n        v = 0;\n        \"verified_image\" = \"\";\n    };\n}",
        "{\n    ac = \"#999999\";\n    at = \"\\U7ef5\\U9633\\U5e02\";\n    ccc = 0;\n    \"child_comments\" =     (\n    );\n    city = \"\\U7ef5\\U9633\\U5e02\";\n    cmc = 2;\n    content =     (\n                {\n            c = \"\\U8fd8\\U53ef\\U4ee5\";\n        }\n    );\n    ia = 0;\n    id = 6734320;\n    \"ip_address_location\" = \"\";\n    like = 0;\n    \"like_count\" = 6;\n    \"reply_id\" = 0;\n    \"sticker_icon\" =     (\n    );\n    time = \"2019-07-04 13:09:19\";\n    u =     {\n        \"followers_count_text\" = \"\";\n        id = 17982976;\n        \"is_prime\" = 0;\n        lv = 0;\n        lvl = 1;\n        n = \"\\U60c5\\U4f55\\U4ee5\\U73c2\\U3001\";\n        p = \"\";\n        \"progress_image\" = \"\";\n        \"recipes_count_text\" = \"\";\n        relationship = \"-1\";\n        title = \"\";\n        v = 0;\n        \"verified_image\" = \"\";\n    };\n}",
        "{\n    ac = \"#999999\";\n    at = \"\";\n    ccc = 0;\n    \"child_comments\" =     (\n    );\n    city = \"\";\n    cmc = 2;\n    content =     (\n                {\n            c = \"\\U6211\\U4e5f\\U8d85\\U7231\";\n        }\n    );\n    ia = 0;\n    id = 4910377;\n    \"ip_address_location\" = \"\";\n    like = 0;\n    \"like_count\" = 2;\n    \"reply_id\" = 0;\n    \"sticker_icon\" =     (\n    );\n    time = \"2017-07-14 04:07:05\";\n    u =     {\n        \"followers_count_text\" = \"\";\n        id = 18486406;\n        \"is_prime\" = 0;\n        lv = 0;\n        lvl = 4;\n        n = \"\\U82b1\\U800c\\U4e0d\\U65f61\";\n        p = \"http:\/\/tx1.douguo.net\/upload\/photo\/4\/f\/4\/70_u07938354161419215918.jpg\";\n        \"progress_image\" = \"\";\n        \"recipes_count_text\" = \"\";\n        relationship = \"-1\";\n        title = \"\";\n        v = 0;\n        \"verified_image\" = \"\";\n    };\n}"
      ],
      "ipci" : "",
      "cookstorys" : [

      ],
      "v_u" : "",
      "eu" : "recipes:\/\/www.douguo.com\/postdetail?id=242016",
      "cook_time_image" : "",
      "sc" : 0,
      "author" : "姝susie",
      "rpt" : "",
      "comments_count_text" : "18",
      "cook_time" : "",
      "related_ads" : [

      ],
      "cook_id" : "1578014",
      "ipt" : "",
      "ssu" : "",
      "cookstep" : [
        {
          "thumb" : "https:\/\/i1.douguo.com\/upload\/caiku\/9\/f\/9\/140_9faf66c9476550679dbce150aa470339.jpg",
          "image_height" : 535,
          "image" : "https:\/\/i1.douguo.com\/upload\/caiku\/9\/f\/9\/9faf66c9476550679dbce150aa470339.jpg",
          "position" : 1,
          "image_width" : 800,
          "content" : "准备材料。",
          "frame" : "-1"
        },
        {
          "frame" : "-1",
          "thumb" : "https:\/\/i1.douguo.com\/upload\/caiku\/c\/6\/7\/140_c61d61e68aa979bf3f21105d7f455507.jpg",
          "position" : 2,
          "content" : "虾仁洗净，用盐、白胡椒粉、15ml料酒和淀粉抓匀后腌制10分钟；鸡蛋打散成蛋液，加入盐、料酒和清水拌匀；葱叶洗净，切段。",
          "image_height" : 535,
          "image" : "https:\/\/i1.douguo.com\/upload\/caiku\/c\/6\/7\/c61d61e68aa979bf3f21105d7f455507.jpg",
          "image_width" : 800
        },
        {
          "image" : "https:\/\/i1.douguo.com\/upload\/caiku\/9\/0\/6\/90ceefc2dee6c8d9668c6d7c3c9af2f6.jpg",
          "thumb" : "https:\/\/i1.douguo.com\/upload\/caiku\/9\/0\/6\/140_90ceefc2dee6c8d9668c6d7c3c9af2f6.jpg",
          "frame" : "-1",
          "position" : 3,
          "image_height" : 600,
          "content" : "热锅放油，放入蛋液，待底部凝固后炒散成块，盛出备用。",
          "image_width" : 800
        },
        {
          "position" : 4,
          "image_width" : 800,
          "image_height" : 623,
          "frame" : "-1",
          "thumb" : "https:\/\/i1.douguo.com\/upload\/caiku\/0\/9\/8\/140_099b3f872c5acdd72ac1bf7117d20928.jpg",
          "image" : "https:\/\/i1.douguo.com\/upload\/caiku\/0\/9\/8\/099b3f872c5acdd72ac1bf7117d20928.jpg",
          "content" : "热锅放油，放入虾仁，翻炒约1分钟至变色。"
        },
        {
          "thumb" : "https:\/\/i1.douguo.com\/upload\/caiku\/d\/0\/7\/140_d036da902c17897f7d28814c45017857.jpg",
          "image" : "https:\/\/i1.douguo.com\/upload\/caiku\/d\/0\/7\/d036da902c17897f7d28814c45017857.jpg",
          "content" : "加入蛋、水淀粉和葱段，炒匀即可。",
          "image_width" : 800,
          "position" : 5,
          "frame" : "-1",
          "image_height" : 600
        }
      ],
      "mid_mdsp" : [

      ],
      "clicks" : "8890598",
      "vc" : "9345377",
      "rpid" : 0,
      "ipoi" : "",
      "author_verified" : 0,
      "rate_show" : 1,
      "rips" : 0,
      "thumb_path" : "https:\/\/i1.douguo.com\/upload\/caiku\/8\/c\/8\/300_8c7a0ea2f4c1dff9b77de80307387c98.jpg",
      "act_des" : "",
      "original_photo_path" : "http:\/\/i1.douguo.net\/upload\/caiku\/8\/c\/8\/yuan_8c7a0ea2f4c1dff9b77de80307387c98.jpg",
      "recommendation_tag" : "",
      "share_info" : {
        "infos" : [
          {
            "name" : "虾仁炒蛋-会做饭很酷!",
            "image" : "https:\/\/cp1.douguo.com\/upload\/caiku\/8\/c\/8\/8c7a0ea2f4c1dff9b77de80307387c98.jpg",
            "object_id" : "1578014",
            "mini_program" : [

            ],
            "qr_image" : "",
            "s_u" : "",
            "s_d" : "#学做饭用豆果美食# 我在@豆果美食 分享了【虾仁炒蛋-会做饭很酷!】，色香味俱全说的就是这道菜！查看图片了解菜谱（快来点击https:\/\/m.weibo.cn\/p\/100404i33631和我一起修炼厨艺吧）#会做饭很酷# ",
            "channel" : "1"
          },
          {
            "image" : "https:\/\/cp1.douguo.com\/upload\/caiku\/8\/c\/8\/8c7a0ea2f4c1dff9b77de80307387c98.jpg",
            "channel" : "7",
            "object_id" : "1578014",
            "s_u" : "http:\/\/m.douguo.com\/cookbook\/1578014.html",
            "qr_image" : "",
            "mini_program" : [

            ],
            "s_d" : "虾仁炒蛋-会做饭很酷!",
            "name" : "虾仁炒蛋-会做饭很酷!"
          },
          {
            "image" : "https:\/\/cp1.douguo.com\/upload\/caiku\/8\/c\/8\/8c7a0ea2f4c1dff9b77de80307387c98.jpg",
            "s_u" : "http:\/\/m.douguo.com\/cookbook\/1578014.html",
            "qr_image" : "",
            "mini_program" : [

            ],
            "channel" : "8",
            "object_id" : "1578014",
            "name" : "虾仁炒蛋-会做饭很酷!",
            "s_d" : "虾仁炒蛋-会做饭很酷!"
          }
        ],
        "mini_program" : [

        ],
        "object_id" : "1578014",
        "name" : "虾仁炒蛋-会做饭很酷!",
        "qr_image" : "",
        "s_d" : "虾仁炒蛋-会做饭很酷!",
        "image" : "https:\/\/cp1.douguo.com\/upload\/caiku\/8\/c\/8\/8c7a0ea2f4c1dff9b77de80307387c98.jpg",
        "s_u" : "http:\/\/m.douguo.com\/cookbook\/1578014.html"
      },
      "bs" : [

      ],
      "cookstory" : "",
      "views_count_text" : "934.5万",
      "rewarded_video_dsp" : [

      ],
      "collect_status" : 0,
      "sr" : "",
      "story_dsp" : [

      ],
      "hq" : 1,
      "first_level_comment_count" : 16,
      "thumb_height" : 0,
      "ipurl" : "",
      "author_id" : 9603352,
      "dishes" : [

      ],
      "ipia" : [

      ],
      "cookwares" : [

      ],
      "dish_count" : 111,
      "old_comments" : [

      ],
      "title_ad" : [

      ],
      "rsm" : "该功能暂停使用",
      "release_time" : "",
      "ss" : [

      ],
      "image" : "http:\/\/i1.douguo.net\/upload\/caiku\/8\/c\/8\/300_8c7a0ea2f4c1dff9b77de80307387c98.jpg",
      "top_mdsp" : [

      ],
      "create_time" : "2017-07-14 11:34:52",
      "rrps" : [

      ],
      "vu" : "",
      "user" : {
        "weibo_nick" : "",
        "lv" : 0,
        "subscription" : 0,
        "pc" : 0,
        "qzone_nick" : "",
        "progress_image" : "",
        "gender" : 2,
        "sign" : "",
        "following_count" : 0,
        "avatar_medium" : "http:\/\/tx1.douguo.net\/upload\/photo\/4\/e\/4\/140_u32740257537425223425.jpeg",
        "age" : "",
        "user_id" : "9603352",
        "user_photo" : "http:\/\/tx1.douguo.net\/upload\/photo\/4\/e\/4\/70_u32740257537425223425.jpeg",
        "lvl" : 6,
        "introduction" : "",
        "verified_image" : "",
        "subscription_article_count" : 0,
        "is_prime" : 0,
        "user_large_photo" : "http:\/\/tx1.douguo.net\/upload\/photo\/4\/e\/4\/yuan_u32740257537425223425.jpeg",
        "recipes_count" : 0,
        "nick" : "姝susie",
        "favor_diaries_count" : 0,
        "point" : 0,
        "qq_weibo_nick" : "",
        "followers_count" : 0,
        "dishes_count" : 0,
        "coursecount" : 0,
        "diaries_count" : 0,
        "fc" : 0,
        "location" : 0,
        "email" : "",
        "mobile" : "",
        "verified" : 0,
        "favorites_count" : 0,
        "user_cover" : "",
        "birthday" : "",
        "regist_time" : "",
        "setted_email" : 0,
        "verified_url" : "https:\/\/m.douguo.com\/user\/prodesc",
        "userid" : "9603352"
      },
      "levelid" : 2,
      "guide_image" : "",
      "purl" : "",
      "pw" : 800,
      "cook_difficulty_image" : "",
      "ipit" : 0,
      "btm_dsp" : [

      ],
      "recipe_tags" : [

      ],
      "notes" : [

      ],
      "favo_counts_text" : "4.4万",
      "rcs" : [

      ],
      "dish_count_text" : "111",
      "ecs" : 0,
      "display_ingredient" : 1,
      "author_photo" : "http:\/\/tx1.douguo.net\/upload\/photo\/4\/e\/4\/70_u32740257537425223425.jpeg",
      "rate" : 4,
      "rate_count" : 97,
      "rpst" : "",
      "rdsps" : [

      ],
      "advice" : {
        "has" : [

        ],
        "da" : {
          "iu" : "https:\/\/i1.douguo.com\/upload\/banner\/f\/4\/d\/f48877e53c37759bc12ac494be82ec8d.png",
          "url" : "https:\/\/m.douguo.com\/recipe\/nutrient_self\/1578014",
          "t" : "查看详细分析"
        }
      },
      "rrpt" : "",
      "tags" : [

      ]
    }
  },
  "state" : "success"
}