{
  "result" : {
    "recipe" : {
      "rate_show" : 0,
      "ipci" : "",
      "recipe_tags" : [

      ],
      "guide_image" : "",
      "photo_path" : "https:\/\/i1.douguo.com\/upload\/caiku\/b\/b\/d\/600_bb6b2d0a0e8b7f05d19f21934a6cdfad.jpeg",
      "eu" : "recipes:\/\/www.douguo.com\/postdetail?id=242016",
      "rsm" : "该功能暂停使用",
      "vfurl" : "",
      "packages_id" : [

      ],
      "recommend_label" : "5人学做",
      "brand_day_dsp" : [

      ],
      "vc" : "1135472",
      "release_time" : "",
      "create_time" : "2020-03-22 16:40:17",
      "rcs" : [

      ],
      "ipt" : "",
      "rpid" : 0,
      "cookstorys" : [
        {
          "color" : "",
          "type" : 0,
          "icon" : "",
          "c" : "大火煸炒，鲜嫩诱人！这个季节的海鲜最肥美，里面还有墨鱼蛋，可以另外再炒一道菜了！",
          "id" : 0,
          "u" : ""
        }
      ],
      "rips" : 0,
      "favo_counts_text" : "7371",
      "comments_count_text" : "",
      "title" : "酱烧墨鱼仔",
      "notes" : [

      ],
      "recent_comments" : [

      ],
      "share_info" : {
        "name" : "#餐桌上的春日限定#酱烧墨鱼仔-会做饭很酷!",
        "mini_program" : [

        ],
        "infos" : [
          {
            "qr_image" : "",
            "s_u" : "",
            "object_id" : "2440009",
            "image" : "https:\/\/cp1.douguo.com\/upload\/caiku\/b\/b\/d\/bb6b2d0a0e8b7f05d19f21934a6cdfad.jpeg",
            "mini_program" : [

            ],
            "channel" : "1",
            "name" : "#餐桌上的春日限定#酱烧墨鱼仔-会做饭很酷!",
            "s_d" : "#学做饭用豆果美食# 我在@豆果美食 分享了【#餐桌上的春日限定#酱烧墨鱼仔-会做饭很酷!】，色香味俱全说的就是这道菜！查看图片了解菜谱（快来点击https:\/\/m.weibo.cn\/p\/100404i33631和我一起修炼厨艺吧）#会做饭很酷# "
          },
          {
            "s_d" : "#餐桌上的春日限定#酱烧墨鱼仔-会做饭很酷!",
            "object_id" : "2440009",
            "s_u" : "http:\/\/m.douguo.com\/cookbook\/2440009.html",
            "image" : "https:\/\/cp1.douguo.com\/upload\/caiku\/b\/b\/d\/bb6b2d0a0e8b7f05d19f21934a6cdfad.jpeg",
            "channel" : "7",
            "name" : "#餐桌上的春日限定#酱烧墨鱼仔-会做饭很酷!",
            "qr_image" : "",
            "mini_program" : [

            ]
          },
          {
            "name" : "#餐桌上的春日限定#酱烧墨鱼仔-会做饭很酷!",
            "s_u" : "http:\/\/m.douguo.com\/cookbook\/2440009.html",
            "s_d" : "#餐桌上的春日限定#酱烧墨鱼仔-会做饭很酷!",
            "qr_image" : "",
            "channel" : "8",
            "object_id" : "2440009",
            "mini_program" : [

            ],
            "image" : "https:\/\/cp1.douguo.com\/upload\/caiku\/b\/b\/d\/bb6b2d0a0e8b7f05d19f21934a6cdfad.jpeg"
          }
        ],
        "s_d" : "#餐桌上的春日限定#酱烧墨鱼仔-会做饭很酷!",
        "qr_image" : "",
        "image" : "https:\/\/cp1.douguo.com\/upload\/caiku\/b\/b\/d\/bb6b2d0a0e8b7f05d19f21934a6cdfad.jpeg",
        "s_u" : "http:\/\/m.douguo.com\/cookbook\/2440009.html",
        "object_id" : "2440009"
      },
      "recommendation_tag" : "",
      "rrpt" : "",
      "levelid" : 2,
      "cook_time" : "10分钟左右",
      "thumb_path" : "https:\/\/i1.douguo.com\/upload\/caiku\/b\/b\/d\/300_bb6b2d0a0e8b7f05d19f21934a6cdfad.jpeg",
      "ph" : 562,
      "rpst" : "",
      "user" : {
        "regist_time" : "",
        "verified" : 0,
        "is_prime" : 0,
        "coursecount" : 0,
        "user_large_photo" : "http:\/\/tx1.douguo.net\/upload\/photo\/5\/8\/6\/yuan_u42664514275514083117.jpeg",
        "favorites_count" : 0,
        "dishes_count" : 0,
        "gender" : 2,
        "age" : "",
        "sign" : "",
        "userid" : "11388298",
        "user_photo" : "http:\/\/tx1.douguo.net\/upload\/photo\/5\/8\/6\/70_u42664514275514083117.jpeg",
        "weibo_nick" : "",
        "following_count" : 0,
        "avatar_medium" : "http:\/\/tx1.douguo.net\/upload\/photo\/5\/8\/6\/140_u42664514275514083117.jpeg",
        "setted_email" : 0,
        "verified_image" : "",
        "user_id" : "11388298",
        "recipes_count" : 0,
        "lvl" : 6,
        "qq_weibo_nick" : "",
        "point" : 0,
        "lv" : 0,
        "pc" : 0,
        "progress_image" : "",
        "favor_diaries_count" : 0,
        "mobile" : "",
        "diaries_count" : 0,
        "verified_url" : "https:\/\/m.douguo.com\/user\/prodesc",
        "user_cover" : "",
        "followers_count" : 0,
        "email" : "",
        "fc" : 0,
        "nick" : "莫问syl",
        "subscription" : 0,
        "birthday" : "",
        "subscription_article_count" : 0,
        "introduction" : "",
        "location" : 0,
        "qzone_nick" : ""
      },
      "rate" : 5,
      "dishes" : [

      ],
      "su" : "",
      "original_photo_path" : "http:\/\/i1.douguo.net\/upload\/caiku\/b\/b\/d\/yuan_bb6b2d0a0e8b7f05d19f21934a6cdfad.jpeg",
      "hqu" : "recipes:\/\/www.douguo.com\/notedetail?id=21162253",
      "pw" : 600,
      "comments_count" : 0,
      "dish_count_text" : "5",
      "clicks" : "1118841",
      "advice" : {
        "at" : "能有效控制体重～",
        "has" : [
          {
            "t" : "低脂",
            "url" : "recipes:\/\/www.douguo.com\/simplerecipelist?t=低脂&id=低脂"
          },
          {
            "url" : "recipes:\/\/www.douguo.com\/simplerecipelist?t=低糖&id=低糖",
            "t" : "低糖"
          }
        ],
        "da" : {
          "t" : "查看详细分析",
          "url" : "https:\/\/m.douguo.com\/recipe\/nutrient_self\/2440009",
          "iu" : "https:\/\/i1.douguo.com\/upload\/banner\/f\/4\/d\/f48877e53c37759bc12ac494be82ec8d.png"
        }
      },
      "ss" : [

      ],
      "first_level_comment_count" : 0,
      "ipia" : [

      ],
      "sc" : 0,
      "thumb_height" : 0,
      "rewarded_video_dsp" : [

      ],
      "comments" : [

      ],
      "dish_count" : 5,
      "tags" : [

      ],
      "rate_count" : 4,
      "act_des" : "",
      "vu" : "",
      "author_verified" : 0,
      "ecs" : 0,
      "major" : [
        {
          "title" : "洋葱",
          "tu" : "https:\/\/m.douguo.com\/ingredients\/洋葱\/detailmaterial",
          "note" : "半个"
        },
        {
          "title" : "墨鱼仔",
          "note" : "800克"
        },
        {
          "tu" : "https:\/\/m.douguo.com\/ingredients\/大蒜\/detailmaterial",
          "title" : "大蒜",
          "note" : "几瓣"
        },
        {
          "title" : "生姜",
          "tu" : "https:\/\/m.douguo.com\/ingredients\/生姜\/detailmaterial",
          "note" : "几片"
        },
        {
          "note" : "适量",
          "title" : "料酒",
          "tu" : "https:\/\/m.douguo.com\/ingredients\/料酒\/detailmaterial"
        },
        {
          "note" : "适量",
          "title" : "食用油",
          "tu" : "https:\/\/m.douguo.com\/ingredients\/食用油\/detailmaterial"
        },
        {
          "tu" : "https:\/\/m.douguo.com\/ingredients\/生抽\/detailmaterial",
          "title" : "生抽",
          "note" : "2勺"
        },
        {
          "tu" : "https:\/\/m.douguo.com\/ingredients\/蚝油\/detailmaterial",
          "note" : "1小勺",
          "title" : "蚝油"
        },
        {
          "tu" : "https:\/\/m.douguo.com\/ingredients\/清水\/detailmaterial",
          "note" : "少许",
          "title" : "清水"
        },
        {
          "title" : "辣酱",
          "note" : "1大勺"
        },
        {
          "tu" : "https:\/\/m.douguo.com\/ingredients\/糖\/detailmaterial",
          "title" : "糖",
          "note" : "少许"
        },
        {
          "title" : "干辣椒",
          "tu" : "https:\/\/m.douguo.com\/ingredients\/干辣椒\/detailmaterial",
          "note" : "1个"
        }
      ],
      "ipoi" : "",
      "image" : "http:\/\/i1.douguo.net\/upload\/caiku\/b\/b\/d\/300_bb6b2d0a0e8b7f05d19f21934a6cdfad.jpeg",
      "event" : {
        "id" : 0
      },
      "views_count_text" : "113.5万",
      "ipurl" : "",
      "ipit" : 0,
      "related_ads" : [

      ],
      "author_id" : 11388298,
      "display_ingredient" : 1,
      "btm_dsp" : [

      ],
      "sr" : "",
      "tips" : "大火爆炒，火候要大，翻炒要勤快！不能炒时间太长，墨鱼仔会老掉的！",
      "v_u" : "",
      "old_comments" : [

      ],
      "top_mdsp" : [

      ],
      "cook_id" : "2440009",
      "collect_status" : 0,
      "story_dsp" : [

      ],
      "recipe_list_tags" : [
        {
          "jump_url" : "",
          "background_border_color" : "",
          "text" : "关注的人",
          "text_color" : "#141515",
          "background_end_color" : "#F4F5F5",
          "right_image" : "",
          "background_start_color" : "#F4F5F5"
        },
        {
          "right_image" : "",
          "background_border_color" : "",
          "jump_url" : "",
          "background_start_color" : "#F4F5F5",
          "text" : "内容详细",
          "text_color" : "#141515",
          "background_end_color" : "#F4F5F5"
        }
      ],
      "cookstep" : [
        {
          "image_height" : 1706,
          "frame" : "-1",
          "thumb" : "https:\/\/i1.douguo.com\/upload\/caiku\/b\/f\/9\/140_bfaa70b43094e729a34c0713b83ebe39.jpeg",
          "image" : "https:\/\/i1.douguo.com\/upload\/caiku\/b\/f\/9\/bfaa70b43094e729a34c0713b83ebe39.jpeg",
          "image_width" : 1280,
          "position" : 1,
          "content" : "刚买回来的墨鱼仔"
        },
        {
          "frame" : "-1",
          "image" : "https:\/\/i1.douguo.com\/upload\/caiku\/8\/3\/b\/83e4d4c548b6ecb08e16f5b712bb693b.jpeg",
          "content" : "清洗要花点时间的，要把皮剥掉，里面内脏清洗干净",
          "thumb" : "https:\/\/i1.douguo.com\/upload\/caiku\/8\/3\/b\/140_83e4d4c548b6ecb08e16f5b712bb693b.jpeg",
          "position" : 2,
          "image_width" : 1280,
          "image_height" : 1706
        },
        {
          "image" : "https:\/\/i1.douguo.com\/upload\/caiku\/2\/d\/e\/2d7bf611169ffa1aed8a7299aaddac1e.jpeg",
          "thumb" : "https:\/\/i1.douguo.com\/upload\/caiku\/2\/d\/e\/140_2d7bf611169ffa1aed8a7299aaddac1e.jpeg",
          "image_width" : 1280,
          "position" : 3,
          "frame" : "-1",
          "image_height" : 1706,
          "content" : "洗净沥干水分后，放入料酒，姜片，少许盐，腌制一下"
        },
        {
          "image" : "https:\/\/i1.douguo.com\/upload\/caiku\/c\/2\/f\/c27aa5fb54953b1bf8b129e3d2bc7edf.jpeg",
          "thumb" : "https:\/\/i1.douguo.com\/upload\/caiku\/c\/2\/f\/140_c27aa5fb54953b1bf8b129e3d2bc7edf.jpeg",
          "content" : "酱汁所需的料",
          "position" : 4,
          "image_height" : 1706,
          "image_width" : 1280,
          "frame" : "-1"
        },
        {
          "thumb" : "https:\/\/i1.douguo.com\/upload\/caiku\/9\/f\/e\/140_9fa90bc9b72d867db8c9b15c66f0078e.jpeg",
          "position" : 5,
          "image" : "https:\/\/i1.douguo.com\/upload\/caiku\/9\/f\/e\/9fa90bc9b72d867db8c9b15c66f0078e.jpeg",
          "frame" : "-1",
          "content" : "加入少许清水，搅拌均匀备用",
          "image_width" : 1280,
          "image_height" : 1706
        },
        {
          "image_height" : 1706,
          "content" : "蒜切成片，洋葱切成块，干辣椒切成段",
          "image_width" : 1280,
          "frame" : "-1",
          "image" : "https:\/\/i1.douguo.com\/upload\/caiku\/f\/b\/6\/fb190eba00701cb27cff2b42b0182bc6.jpeg",
          "position" : 6,
          "thumb" : "https:\/\/i1.douguo.com\/upload\/caiku\/f\/b\/6\/140_fb190eba00701cb27cff2b42b0182bc6.jpeg"
        },
        {
          "frame" : "-1",
          "content" : "锅中放入水煮沸，放入墨鱼仔煮30秒捞出",
          "position" : 7,
          "image" : "https:\/\/i1.douguo.com\/upload\/caiku\/3\/c\/d\/3c6d3b151a7d9255c21f024c87c0fb3d.jpeg",
          "thumb" : "https:\/\/i1.douguo.com\/upload\/caiku\/3\/c\/d\/140_3c6d3b151a7d9255c21f024c87c0fb3d.jpeg",
          "image_width" : 1280,
          "image_height" : 1706
        },
        {
          "image_height" : 1706,
          "thumb" : "https:\/\/i1.douguo.com\/upload\/caiku\/0\/f\/e\/140_0f176cecb10865104502e5ae823e533e.jpeg",
          "frame" : "-1",
          "position" : 8,
          "image_width" : 1280,
          "content" : "沥干水分备用",
          "image" : "https:\/\/i1.douguo.com\/upload\/caiku\/0\/f\/e\/0f176cecb10865104502e5ae823e533e.jpeg"
        },
        {
          "frame" : "-1",
          "thumb" : "https:\/\/i1.douguo.com\/upload\/caiku\/6\/a\/3\/140_6ad8bc0993d1b0438eae5466b59d59d3.jpeg",
          "image_width" : 1280,
          "image_height" : 1706,
          "position" : 9,
          "image" : "https:\/\/i1.douguo.com\/upload\/caiku\/6\/a\/3\/6ad8bc0993d1b0438eae5466b59d59d3.jpeg",
          "content" : "起油锅，放入干辣椒，蒜片煸炒"
        },
        {
          "image" : "https:\/\/i1.douguo.com\/upload\/caiku\/a\/8\/6\/a801c998ef477675219cdf5be5217a06.jpeg",
          "image_height" : 1706,
          "frame" : "-1",
          "thumb" : "https:\/\/i1.douguo.com\/upload\/caiku\/a\/8\/6\/140_a801c998ef477675219cdf5be5217a06.jpeg",
          "content" : "放入洋葱翻炒出香味",
          "image_width" : 1280,
          "position" : 10
        },
        {
          "frame" : "-1",
          "image" : "https:\/\/i1.douguo.com\/upload\/caiku\/3\/d\/0\/3ded14db516e4f5d1b2927c257f29010.jpeg",
          "position" : 11,
          "content" : "倒入墨鱼仔大火翻炒",
          "image_height" : 1706,
          "thumb" : "https:\/\/i1.douguo.com\/upload\/caiku\/3\/d\/0\/140_3ded14db516e4f5d1b2927c257f29010.jpeg",
          "image_width" : 1280
        },
        {
          "image_height" : 1706,
          "frame" : "-1",
          "image_width" : 1280,
          "content" : "倒入调好的酱汁",
          "position" : 12,
          "image" : "https:\/\/i1.douguo.com\/upload\/caiku\/c\/f\/f\/cf22c0bb2efc2e128ffa51ab9ea7bfaf.jpeg",
          "thumb" : "https:\/\/i1.douguo.com\/upload\/caiku\/c\/f\/f\/140_cf22c0bb2efc2e128ffa51ab9ea7bfaf.jpeg"
        },
        {
          "image_width" : 1280,
          "image" : "https:\/\/i1.douguo.com\/upload\/caiku\/2\/f\/d\/2f3a70c3a12e52809096ea39167e9e1d.jpeg",
          "position" : 13,
          "content" : "煸炒收汁",
          "thumb" : "https:\/\/i1.douguo.com\/upload\/caiku\/2\/f\/d\/140_2f3a70c3a12e52809096ea39167e9e1d.jpeg",
          "image_height" : 1706,
          "frame" : "-1"
        },
        {
          "image_height" : 1706,
          "thumb" : "https:\/\/i1.douguo.com\/upload\/caiku\/0\/4\/e\/140_046e8c16d3750d6b51942febf051720e.jpeg",
          "image" : "https:\/\/i1.douguo.com\/upload\/caiku\/0\/4\/e\/046e8c16d3750d6b51942febf051720e.jpeg",
          "content" : "撒上葱花",
          "position" : 14,
          "frame" : "-1",
          "image_width" : 1280
        },
        {
          "position" : 15,
          "thumb" : "https:\/\/i1.douguo.com\/upload\/caiku\/8\/a\/4\/140_8a677c9badf70d1992621aa174c5fe34.jpeg",
          "content" : "出锅装盘",
          "image" : "https:\/\/i1.douguo.com\/upload\/caiku\/8\/a\/4\/8a677c9badf70d1992621aa174c5fe34.jpeg",
          "image_height" : 960,
          "frame" : "-1",
          "image_width" : 1280
        }
      ],
      "cookstory" : "大火煸炒，鲜嫩诱人！这个季节的海鲜最肥美，里面还有墨鱼蛋，可以另外再炒一道菜了！",
      "author_photo" : "http:\/\/tx1.douguo.net\/upload\/photo\/5\/8\/6\/70_u42664514275514083117.jpeg",
      "rrps" : [

      ],
      "author" : "莫问syl",
      "title_ad" : [

      ],
      "purl" : "",
      "recommended" : 0,
      "cook_time_image" : "https:\/\/i1.douguo.com\/upload\/banner\/1551424358.png",
      "ssu" : "",
      "minor" : [

      ],
      "favo_counts" : 7371,
      "hq" : 1,
      "cookwares" : [

      ],
      "bs" : [

      ],
      "cook_difficulty_image" : "https:\/\/i1.douguo.com\/upload\/banner\/1551424390.png",
      "rpt" : "",
      "mid_mdsp" : [

      ],
      "rdsps" : [

      ],
      "cook_difficulty" : "切墩(初级)"
    }
  },
  "state" : "success",
  "status" : 0
}