{
  "state" : "success",
  "status" : 0,
  "result" : {
    "recipe" : {
      "cook_time_image" : "https:\/\/i1.douguo.com\/upload\/banner\/1551424358.png",
      "ipt" : "",
      "release_time" : "",
      "recommended" : 0,
      "share_info" : {
        "mini_program" : [

        ],
        "object_id" : "3111393",
        "name" : "吃不胖的水果冰淇淋 清爽无冰渣#夏日开胃餐#-会做饭很酷!",
        "s_d" : "吃不胖的水果冰淇淋 清爽无冰渣#夏日开胃餐#-会做饭很酷!",
        "s_u" : "http:\/\/m.douguo.com\/cookbook\/3111393.html",
        "image" : "https:\/\/cp1.douguo.com\/upload\/caiku\/d\/d\/e\/ddb36a114751f5d7aef2d744d22f9bae.PNG",
        "qr_image" : "",
        "infos" : [
          {
            "channel" : "1",
            "s_u" : "",
            "qr_image" : "",
            "s_d" : "#学做饭用豆果美食# 会做饭好酷啊！我在@豆果美食 分享了【吃不胖的水果冰淇淋 清爽无冰渣#夏日开胃餐#-会做饭很酷!】，今天也是厨艺满满的一天呢，快来和我一起学做美食吧！查看图片了解菜谱（更多美食秘籍点击https:\/\/m.weibo.cn\/p\/100404i33631获取）",
            "image" : "https:\/\/cp1.douguo.com\/upload\/caiku\/d\/d\/e\/ddb36a114751f5d7aef2d744d22f9bae.PNG",
            "mini_program" : [

            ],
            "object_id" : "3111393",
            "name" : "吃不胖的水果冰淇淋 清爽无冰渣#夏日开胃餐#-会做饭很酷!"
          },
          {
            "qr_image" : "",
            "s_d" : "吃不胖的水果冰淇淋 清爽无冰渣#夏日开胃餐#-会做饭很酷!",
            "image" : "https:\/\/cp1.douguo.com\/upload\/caiku\/d\/d\/e\/ddb36a114751f5d7aef2d744d22f9bae.PNG",
            "object_id" : "3111393",
            "name" : "吃不胖的水果冰淇淋 清爽无冰渣#夏日开胃餐#-会做饭很酷!",
            "s_u" : "http:\/\/m.douguo.com\/cookbook\/3111393.html",
            "mini_program" : [

            ],
            "channel" : "7"
          },
          {
            "mini_program" : [

            ],
            "channel" : "8",
            "object_id" : "3111393",
            "image" : "https:\/\/cp1.douguo.com\/upload\/caiku\/d\/d\/e\/ddb36a114751f5d7aef2d744d22f9bae.PNG",
            "s_u" : "http:\/\/m.douguo.com\/cookbook\/3111393.html",
            "s_d" : "吃不胖的水果冰淇淋 清爽无冰渣#夏日开胃餐#-会做饭很酷!",
            "qr_image" : "",
            "name" : "吃不胖的水果冰淇淋 清爽无冰渣#夏日开胃餐#-会做饭很酷!"
          }
        ]
      },
      "ipoi" : "",
      "act_des" : "",
      "title" : "吃不胖的水果冰淇淋 清爽无冰渣",
      "author" : "一只小雪梨_",
      "recent_comments" : [

      ],
      "rrpt" : "",
      "cookstep" : [
        {
          "thumb" : "https:\/\/i1.douguo.com\/upload\/caiku\/7\/0\/a\/140_701ce0fbc2c6363e4e62b288841c888a.PNG",
          "image" : "https:\/\/i1.douguo.com\/upload\/caiku\/7\/0\/a\/701ce0fbc2c6363e4e62b288841c888a.PNG",
          "image_height" : 0,
          "frame" : "-1",
          "position" : 1,
          "content" : "喜欢的水果切块冷冻一夜 建议选甜水果 水分含量少的冰渣就少 \r\n我准备了西瓜 蜜瓜 香蕉 火龙果 芒果",
          "image_width" : 0
        },
        {
          "thumb" : "https:\/\/i1.douguo.com\/upload\/caiku\/d\/8\/4\/140_d82743807b4749c36a02558236595434.PNG",
          "content" : "芒果200 香蕉1根或半根 酸奶100g\r\n香蕉主要起增稠 增甜的作用\r\n可以根据个人口味调整比例用量",
          "position" : 2,
          "image_width" : 0,
          "frame" : "-1",
          "image" : "https:\/\/i1.douguo.com\/upload\/caiku\/d\/8\/4\/d82743807b4749c36a02558236595434.PNG",
          "image_height" : 0
        },
        {
          "image" : "https:\/\/i1.douguo.com\/upload\/caiku\/6\/3\/1\/634f9fc2d309b7bf0b0688c11547e811.PNG",
          "content" : "搅打均匀",
          "image_width" : 0,
          "thumb" : "https:\/\/i1.douguo.com\/upload\/caiku\/6\/3\/1\/140_634f9fc2d309b7bf0b0688c11547e811.PNG",
          "image_height" : 0,
          "frame" : "-1",
          "position" : 3
        },
        {
          "position" : 4,
          "image_height" : 0,
          "image_width" : 0,
          "image" : "https:\/\/i1.douguo.com\/upload\/caiku\/5\/3\/b\/533420ef00e372173683f0b6c981abbb.PNG",
          "thumb" : "https:\/\/i1.douguo.com\/upload\/caiku\/5\/3\/b\/140_533420ef00e372173683f0b6c981abbb.PNG",
          "frame" : "-1",
          "content" : "直接吃像雪泥，继续冻到质地绵密就是冰沙，冻到硬就是冰沙"
        },
        {
          "thumb" : "https:\/\/i1.douguo.com\/upload\/caiku\/e\/0\/a\/140_e0e5fe8ee58fb8a9b2942d6aab77d81a.PNG",
          "image_height" : 0,
          "content" : "这质地！不说是水果我都以为是真冰淇淋了\r\n直接吃或挖球都可以",
          "image" : "https:\/\/i1.douguo.com\/upload\/caiku\/e\/0\/a\/e0e5fe8ee58fb8a9b2942d6aab77d81a.PNG",
          "image_width" : 0,
          "frame" : "-1",
          "position" : 5
        },
        {
          "thumb" : "https:\/\/i1.douguo.com\/upload\/caiku\/5\/b\/1\/140_5b5fe4737b23e22b1b6534d9cbee5c41.PNG",
          "content" : "冻过头了可以放几分钟回温一下质地就软了",
          "image_width" : 0,
          "image" : "https:\/\/i1.douguo.com\/upload\/caiku\/5\/b\/1\/5b5fe4737b23e22b1b6534d9cbee5c41.PNG",
          "position" : 6,
          "image_height" : 0,
          "frame" : "-1"
        }
      ],
      "v_u" : "",
      "cook_time" : "10分钟左右",
      "rips" : 0,
      "minor" : [

      ],
      "bs" : [

      ],
      "hq" : 1,
      "photo_path" : "https:\/\/i1.douguo.com\/upload\/caiku\/d\/d\/e\/600_ddb36a114751f5d7aef2d744d22f9bae.PNG",
      "cookwares" : [

      ],
      "author_id" : 3725326,
      "rpid" : 0,
      "vfurl" : "https:\/\/vplay.douguo.com\/lrbfnQwNw0EfGtsdIZgnyp1WA1W8__640x360.mp4",
      "packages_id" : [

      ],
      "clicks" : "136716",
      "user" : {
        "user_cover" : "",
        "lvl" : 6,
        "regist_time" : "",
        "age" : "",
        "point" : 0,
        "followers_count" : 0,
        "nick" : "一只小雪梨_",
        "location" : 0,
        "favor_diaries_count" : 0,
        "pc" : 0,
        "dishes_count" : 0,
        "birthday" : "",
        "following_count" : 0,
        "mobile" : "",
        "user_id" : "3725326",
        "coursecount" : 0,
        "qzone_nick" : "",
        "setted_email" : 0,
        "is_prime" : 0,
        "user_photo" : "http:\/\/tx1.douguo.net\/upload\/photo\/e\/7\/d\/70_e7197e6434bb36d00fca7df4e188804d.jpeg",
        "subscription" : 0,
        "email" : "",
        "diaries_count" : 0,
        "verified_image" : "https:\/\/i1.douguo.com\/upload\/note\/d\/a\/a\/da84247847aebe48d9dd0fcdac88862a.png",
        "fc" : 0,
        "avatar_medium" : "http:\/\/tx1.douguo.net\/upload\/photo\/e\/7\/d\/140_e7197e6434bb36d00fca7df4e188804d.jpeg",
        "favorites_count" : 0,
        "qq_weibo_nick" : "",
        "introduction" : "",
        "subscription_article_count" : 0,
        "lv" : 0,
        "weibo_nick" : "",
        "userid" : "3725326",
        "verified" : 1,
        "user_large_photo" : "http:\/\/tx1.douguo.net\/upload\/photo\/e\/7\/d\/yuan_e7197e6434bb36d00fca7df4e188804d.jpeg",
        "progress_image" : "",
        "recipes_count" : 0,
        "verified_url" : "https:\/\/m.douguo.com\/user\/prodesc",
        "gender" : 2,
        "sign" : ""
      },
      "recipe_list_tags" : [
        {
          "background_end_color" : "#F4F5F5",
          "text" : "关注的人",
          "jump_url" : "",
          "right_image" : "",
          "background_border_color" : "",
          "text_color" : "#141515",
          "background_start_color" : "#F4F5F5"
        },
        {
          "background_border_color" : "",
          "text_color" : "#141515",
          "jump_url" : "",
          "right_image" : "",
          "text" : "内容详细",
          "background_start_color" : "#F4F5F5",
          "background_end_color" : "#F4F5F5"
        }
      ],
      "vu" : "https:\/\/vplay.douguo.com\/lrbfnQwNw0EfGtsdIZgnyp1WA1W8",
      "rcs" : [

      ],
      "eu" : "recipes:\/\/www.douguo.com\/postdetail?id=242016",
      "ipit" : 0,
      "rate_count" : 0,
      "guide_image" : "",
      "purl" : "",
      "ipia" : [

      ],
      "event" : {
        "id" : 3184,
        "url" : "https:\/\/m.douguo.com\/activity\/ncpzj\/detail\/3184?isapp=1&open=0&_vs=1000300&&dg_refreshkey=publishnote",
        "name" : "菜谱征集活动丨夏日开胃餐"
      },
      "title_ad" : [

      ],
      "comments_count_text" : "3",
      "favo_counts" : 3637,
      "create_time" : "2021-07-14 15:11:52",
      "ph" : 1242,
      "author_photo" : "http:\/\/tx1.douguo.net\/upload\/photo\/e\/7\/d\/70_e7197e6434bb36d00fca7df4e188804d.jpeg",
      "mid_mdsp" : [

      ],
      "old_comments" : [

      ],
      "dish_count_text" : "",
      "rate_show" : 0,
      "hqu" : "recipes:\/\/www.douguo.com\/notedetail?id=21162253",
      "ssu" : "",
      "recommendation_tag" : "",
      "major" : [
        {
          "note" : "",
          "title" : "喜欢的水果块200香蕉1根酸奶100g"
        }
      ],
      "cook_difficulty_image" : "https:\/\/i1.douguo.com\/upload\/banner\/1551424390.png",
      "author_verified" : 1,
      "recipe_tags" : [

      ],
      "original_photo_path" : "http:\/\/i1.douguo.net\/upload\/caiku\/d\/d\/e\/yuan_ddb36a114751f5d7aef2d744d22f9bae.PNG",
      "cook_difficulty" : "切墩(初级)",
      "ipurl" : "",
      "cookstorys" : [
        {
          "type" : 0,
          "c" : "吃不胖的水果冰淇淋 清爽无冰渣 简单又解暑，懒人建议试试冻水果 尤其西瓜yyds",
          "color" : "",
          "id" : 0,
          "u" : "",
          "icon" : ""
        },
        {
          "c" : "\n参与活动:",
          "color" : "",
          "icon" : "",
          "type" : 0,
          "u" : "",
          "id" : 0
        },
        {
          "id" : 0,
          "u" : "https:\/\/m.douguo.com\/activity\/ncpzj\/detail\/3184?isapp=1&open=0&_vs=1000300&&dg_refreshkey=publishnote",
          "icon" : "",
          "c" : "#菜谱征集活动丨夏日开胃餐#",
          "type" : 0
        }
      ],
      "recommend_label" : "3637人刚刚收藏过",
      "rdsps" : [

      ],
      "top_mdsp" : [

      ],
      "rpst" : "",
      "sr" : "",
      "notes" : [

      ],
      "related_ads" : [

      ],
      "rewarded_video_dsp" : [

      ],
      "story_dsp" : [

      ],
      "ecs" : 0,
      "collect_status" : 0,
      "views_count_text" : "14.8万",
      "su" : "",
      "dishes" : [

      ],
      "pw" : 2208,
      "rate" : 0,
      "btm_dsp" : [

      ],
      "cookstory" : "吃不胖的水果冰淇淋 清爽无冰渣 简单又解暑，懒人建议试试冻水果 尤其西瓜yyds",
      "ss" : [

      ],
      "thumb_path" : "https:\/\/i1.douguo.com\/upload\/caiku\/d\/d\/e\/300_ddb36a114751f5d7aef2d744d22f9bae.PNG",
      "brand_day_dsp" : [

      ],
      "cook_id" : "3111393",
      "rpt" : "",
      "tips" : "都在菜谱和视频里了哦",
      "favo_counts_text" : "3637",
      "vc" : "147951",
      "comments_count" : 3,
      "rrps" : [

      ],
      "first_level_comment_count" : 3,
      "display_ingredient" : 1,
      "sc" : 0,
      "ipci" : "",
      "levelid" : 2,
      "dish_count" : 0,
      "comments" : [
        "{\n    ac = \"#999999\";\n    at = \"\\U79e6\\U7687\\U5c9b\\U5e02\";\n    ccc = 0;\n    \"child_comments\" =     (\n    );\n    city = \"\\U79e6\\U7687\\U5c9b\\U5e02\";\n    cmc = 2;\n    content =     (\n                {\n            c = \"\\U590f\\U5929\\U5403\\U80af\\U5b9a\\U723d\";\n        }\n    );\n    ia = 0;\n    id = 9006680;\n    \"ip_address_location\" = \"\\U6cb3\\U5317\";\n    like = 0;\n    \"like_count\" = 0;\n    \"reply_id\" = 0;\n    \"sticker_icon\" =     (\n    );\n    time = \"2023-03-01 07:42:00\";\n    u =     {\n        \"followers_count_text\" = \"\";\n        id = 27408445;\n        \"is_prime\" = 0;\n        lv = 0;\n        lvl = 6;\n        n = \"\\U5411\\U5f80\\U7684\\U8d1d\\U5f88\\U5570\\U91cc\\U5570\\U55e6\";\n        p = \"http:\/\/tx1.douguo.net\/upload\/photo\/5\/5\/7\/70_u70057666588769022246.jpg\";\n        \"progress_image\" = \"\";\n        \"recipes_count_text\" = \"\";\n        relationship = \"-1\";\n        title = \"\";\n        v = 0;\n        \"verified_image\" = \"\";\n    };\n}",
        "{\n    ac = \"#999999\";\n    at = \"\";\n    ccc = 0;\n    \"child_comments\" =     (\n    );\n    city = \"\";\n    cmc = 2;\n    content =     (\n                {\n            c = ni;\n        }\n    );\n    ia = 0;\n    id = 8919098;\n    \"ip_address_location\" = \"\";\n    like = 0;\n    \"like_count\" = 0;\n    \"reply_id\" = 0;\n    \"sticker_icon\" =     (\n    );\n    time = \"2022-02-28 19:46:21\";\n    u =     {\n        \"followers_count_text\" = \"\";\n        id = 27116997;\n        \"is_prime\" = 0;\n        lv = 0;\n        lvl = 2;\n        n = \"\\U8d6b\\U654f\\U7684\\U7c89\\U4e1d\";\n        p = \"http:\/\/tx1.douguo.net\/upload\/photo\/9\/1\/2\/70_u45020928476174082028.jpeg\";\n        \"progress_image\" = \"\";\n        \"recipes_count_text\" = \"\";\n        relationship = \"-1\";\n        title = \"\";\n        v = 0;\n        \"verified_image\" = \"\";\n    };\n}",
        "{\n    ac = \"#999999\";\n    at = \"\";\n    ccc = 0;\n    \"child_comments\" =     (\n    );\n    city = \"\";\n    cmc = 2;\n    content =     (\n                {\n            c = \"\\U6211\\U60f3\\U505a\\U8fd9\\U4e2a\";\n        }\n    );\n    ia = 0;\n    id = 8735134;\n    \"ip_address_location\" = \"\";\n    like = 0;\n    \"like_count\" = 0;\n    \"reply_id\" = 0;\n    \"sticker_icon\" =     (\n    );\n    time = \"2021-07-14 15:22:23\";\n    u =     {\n        \"followers_count_text\" = \"\";\n        id = 23595835;\n        \"is_prime\" = 0;\n        lv = 0;\n        lvl = 4;\n        n = \"Z\\U5148\\U751fawbo\";\n        p = \"http:\/\/tx1.douguo.net\/upload\/photo\/7\/7\/b\/70_u5815626193730329214244.jpg\";\n        \"progress_image\" = \"\";\n        \"recipes_count_text\" = \"\";\n        relationship = \"-1\";\n        title = \"\";\n        v = 0;\n        \"verified_image\" = \"\";\n    };\n}"
      ],
      "thumb_height" : 0,
      "tags" : [

      ],
      "image" : "http:\/\/i1.douguo.net\/upload\/caiku\/d\/d\/e\/300_ddb36a114751f5d7aef2d744d22f9bae.PNG",
      "rsm" : "该功能暂停使用"
    }
  }
}