{
  "state" : "success",
  "status" : 0,
  "result" : {
    "recipe" : {
      "ecs" : 0,
      "rate_show" : 0,
      "ipia" : [

      ],
      "rsm" : "该功能暂停使用",
      "eu" : "recipes:\/\/www.douguo.com\/postdetail?id=242016",
      "rpid" : 0,
      "notes" : [

      ],
      "sr" : "",
      "dish_count_text" : "",
      "old_comments" : [

      ],
      "event" : {
        "id" : 0
      },
      "ph" : 1079,
      "v_u" : "",
      "image" : "http:\/\/i1.douguo.net\/upload\/caiku\/0\/6\/5\/300_06c321b244ef3f37bbe3bb8ac40787c5.jpeg",
      "photo_path" : "https:\/\/i1.douguo.com\/upload\/caiku\/0\/6\/5\/600_06c321b244ef3f37bbe3bb8ac40787c5.jpeg",
      "rrps" : [

      ],
      "btm_dsp" : [

      ],
      "title" : " 蒜蓉烤花蛤虾",
      "rcs" : [

      ],
      "related_ads" : [

      ],
      "brand_day_dsp" : [

      ],
      "thumb_path" : "https:\/\/i1.douguo.com\/upload\/caiku\/0\/6\/5\/300_06c321b244ef3f37bbe3bb8ac40787c5.jpeg",
      "cookstorys" : [
        {
          "color" : "",
          "c" : "炎炎夏日来临，开着空调，吃着烤好的花蛤虾，看着剧，再配一杯冰饮，简直了……爽啊！",
          "id" : 0,
          "type" : 0,
          "icon" : "",
          "u" : ""
        }
      ],
      "favo_counts_text" : "5774",
      "packages_id" : [

      ],
      "comments_count" : 9,
      "ipit" : 0,
      "major" : [
        {
          "tu" : "https:\/\/m.douguo.com\/ingredients\/基围虾\/detailmaterial",
          "note" : "300克",
          "title" : "基围虾"
        },
        {
          "note" : "300克",
          "tu" : "https:\/\/m.douguo.com\/ingredients\/花蛤\/detailmaterial",
          "title" : "花蛤"
        },
        {
          "title" : "蒜",
          "tu" : "https:\/\/m.douguo.com\/ingredients\/蒜\/detailmaterial",
          "note" : "2头"
        },
        {
          "tu" : "https:\/\/m.douguo.com\/ingredients\/盐\/detailmaterial",
          "note" : "适量",
          "title" : "盐"
        },
        {
          "note" : "少许",
          "title" : "糖",
          "tu" : "https:\/\/m.douguo.com\/ingredients\/糖\/detailmaterial"
        },
        {
          "note" : "3勺",
          "title" : "蒸鱼鼓油"
        },
        {
          "note" : "1勺",
          "title" : "料酒",
          "tu" : "https:\/\/m.douguo.com\/ingredients\/料酒\/detailmaterial"
        },
        {
          "note" : "3片",
          "title" : "姜",
          "tu" : "https:\/\/m.douguo.com\/ingredients\/姜\/detailmaterial"
        },
        {
          "note" : "适量",
          "tu" : "https:\/\/m.douguo.com\/ingredients\/油\/detailmaterial",
          "title" : "油"
        }
      ],
      "create_time" : "2019-07-21 14:37:51",
      "recommend_label" : "5774人刚刚收藏过",
      "rdsps" : [

      ],
      "rrpt" : "",
      "vu" : "",
      "favo_counts" : 5774,
      "su" : "",
      "display_ingredient" : 1,
      "recommendation_tag" : "",
      "comments" : [
        "{\n    ac = \"#999999\";\n    at = \"\";\n    ccc = 0;\n    \"child_comments\" =     (\n    );\n    city = \"\";\n    cmc = 2;\n    content =     (\n                {\n            c = \"\\U8ddf\\U5356\\U7684\\U6ca1\\U5dee\\U522b\\Uff0c\\U4e0b\\U6b21\\U8bd5\\U8bd5\\Uff01\";\n        }\n    );\n    ia = 0;\n    id = 6802980;\n    \"ip_address_location\" = \"\";\n    like = 0;\n    \"like_count\" = 0;\n    \"reply_id\" = 0;\n    \"sticker_icon\" =     (\n    );\n    time = \"2019-07-21 18:00:48\";\n    u =     {\n        \"followers_count_text\" = \"\";\n        id = 18486286;\n        \"is_prime\" = 0;\n        lv = 0;\n        lvl = 6;\n        n = \"\\U7231\\U5403\\U96f6\\U98df\\U554a\";\n        p = \"http:\/\/tx1.douguo.net\/upload\/photo\/7\/d\/4\/70_u0791077689999110133.jpg\";\n        \"progress_image\" = \"\";\n        \"recipes_count_text\" = \"\";\n        relationship = \"-1\";\n        title = \"\";\n        v = 0;\n        \"verified_image\" = \"\";\n    };\n}",
        "{\n    ac = \"#999999\";\n    at = \"\";\n    ccc = 0;\n    \"child_comments\" =     (\n    );\n    city = \"\";\n    cmc = 2;\n    content =     (\n                {\n            c = \"\\U8d5e\\Uff0c\\U597d\\U5403\";\n        }\n    );\n    ia = 0;\n    id = 6802595;\n    \"ip_address_location\" = \"\";\n    like = 0;\n    \"like_count\" = 0;\n    \"reply_id\" = 0;\n    \"sticker_icon\" =     (\n    );\n    time = \"2019-07-21 16:40:10\";\n    u =     {\n        \"followers_count_text\" = \"\";\n        id = 23620967;\n        \"is_prime\" = 0;\n        lv = 0;\n        lvl = 3;\n        n = \"\\U8c46\\U7c89943312kdzr\";\n        p = \"http:\/\/tx1.douguo.net\/upload\/photo\/7\/2\/0\/70_u8317430129990330010046.jpg\";\n        \"progress_image\" = \"\";\n        \"recipes_count_text\" = \"\";\n        relationship = \"-1\";\n        title = \"\";\n        v = 0;\n        \"verified_image\" = \"\";\n    };\n}",
        "{\n    ac = \"#999999\";\n    at = \"\";\n    ccc = 0;\n    \"child_comments\" =     (\n    );\n    city = \"\";\n    cmc = 2;\n    content =     (\n                {\n            c = \"\\U770b\\U7740\\U5f88\\U68d2~ \";\n        }\n    );\n    ia = 0;\n    id = 6802308;\n    \"ip_address_location\" = \"\";\n    like = 0;\n    \"like_count\" = 0;\n    \"reply_id\" = 0;\n    \"sticker_icon\" =     (\n    );\n    time = \"2019-07-21 16:14:06\";\n    u =     {\n        \"followers_count_text\" = \"\";\n        id = 18480093;\n        \"is_prime\" = 0;\n        lv = 0;\n        lvl = 4;\n        n = \"\\U9678\\U5c0f\\U59d0_\";\n        p = \"http:\/\/tx1.douguo.net\/upload\/photo\/6\/9\/e\/70_u05176915407250100242.jpg\";\n        \"progress_image\" = \"\";\n        \"recipes_count_text\" = \"\";\n        relationship = \"-1\";\n        title = \"\";\n        v = 0;\n        \"verified_image\" = \"\";\n    };\n}"
      ],
      "recipe_list_tags" : [
        {
          "text" : "关注的人",
          "background_start_color" : "#F4F5F5",
          "background_border_color" : "",
          "background_end_color" : "#F4F5F5",
          "jump_url" : "",
          "text_color" : "#141515",
          "right_image" : ""
        }
      ],
      "rewarded_video_dsp" : [

      ],
      "rate_count" : 0,
      "pw" : 1440,
      "cook_difficulty" : "切墩(初级)",
      "release_time" : "",
      "rate" : 0,
      "author_verified" : 1,
      "comments_count_text" : "9",
      "dish_count" : 0,
      "purl" : "",
      "clicks" : "295322",
      "ipoi" : "",
      "levelid" : 2,
      "sc" : 0,
      "collect_status" : 0,
      "cookstory" : "炎炎夏日来临，开着空调，吃着烤好的花蛤虾，看着剧，再配一杯冰饮，简直了……爽啊！",
      "ipurl" : "",
      "tags" : [

      ],
      "mid_mdsp" : [

      ],
      "cook_difficulty_image" : "https:\/\/i1.douguo.com\/upload\/banner\/1551424390.png",
      "views_count_text" : "30.8万",
      "recommended" : 0,
      "guide_image" : "",
      "cookstep" : [
        {
          "position" : 1,
          "image_width" : 1280,
          "content" : "花蛤清洗干净，水烧开，加入盐，下花蛤，大概2分钟，花蛤基本都开口了，挑出小部分坏的",
          "frame" : "-1",
          "thumb" : "https:\/\/i1.douguo.com\/upload\/caiku\/f\/e\/c\/140_fe069de13af5176d51596ff8b24e982c.jpeg",
          "image" : "https:\/\/i1.douguo.com\/upload\/caiku\/f\/e\/c\/fe069de13af5176d51596ff8b24e982c.jpeg",
          "image_height" : 959
        },
        {
          "image_height" : 959,
          "frame" : "-1",
          "position" : 2,
          "thumb" : "https:\/\/i1.douguo.com\/upload\/caiku\/d\/e\/e\/140_de42944086b14d7ea8be5e0028552d1e.jpeg",
          "content" : "捞出备用",
          "image" : "https:\/\/i1.douguo.com\/upload\/caiku\/d\/e\/e\/de42944086b14d7ea8be5e0028552d1e.jpeg",
          "image_width" : 1280
        },
        {
          "image_width" : 1280,
          "frame" : "-1",
          "position" : 3,
          "content" : "虾洗干净，开背去虾线",
          "thumb" : "https:\/\/i1.douguo.com\/upload\/caiku\/6\/f\/e\/140_6fcd15c9370c61dca86733902399af9e.jpeg",
          "image_height" : 959,
          "image" : "https:\/\/i1.douguo.com\/upload\/caiku\/6\/f\/e\/6fcd15c9370c61dca86733902399af9e.jpeg"
        },
        {
          "thumb" : "https:\/\/i1.douguo.com\/upload\/caiku\/f\/5\/a\/140_f5d834fb2879f6e565467e52577877ea.jpeg",
          "frame" : "-1",
          "content" : "加入姜，蒜片，盐，糖，蒸鱼鼓油，料酒腌制30分钟",
          "image_width" : 1280,
          "image" : "https:\/\/i1.douguo.com\/upload\/caiku\/f\/5\/a\/f5d834fb2879f6e565467e52577877ea.jpeg",
          "position" : 4,
          "image_height" : 959
        },
        {
          "thumb" : "https:\/\/i1.douguo.com\/upload\/caiku\/6\/6\/f\/140_66f513ddf4c76a087504ceeb75d7728f.jpeg",
          "image_height" : 959,
          "image" : "https:\/\/i1.douguo.com\/upload\/caiku\/6\/6\/f\/66f513ddf4c76a087504ceeb75d7728f.jpeg",
          "frame" : "-1",
          "position" : 5,
          "image_width" : 1280,
          "content" : "锅内倒入油，油烧热加入蒜泥"
        },
        {
          "image" : "https:\/\/i1.douguo.com\/upload\/caiku\/9\/8\/b\/987e5b289c7ecd2e43692e41be986cab.jpeg",
          "frame" : "-1",
          "thumb" : "https:\/\/i1.douguo.com\/upload\/caiku\/9\/8\/b\/140_987e5b289c7ecd2e43692e41be986cab.jpeg",
          "content" : "煸出蒜香",
          "image_height" : 959,
          "image_width" : 1280,
          "position" : 6
        },
        {
          "position" : 7,
          "image" : "https:\/\/i1.douguo.com\/upload\/caiku\/2\/d\/c\/2d660f7a3c8ef419985b5205dbcdf8ac.jpeg",
          "image_width" : 1280,
          "thumb" : "https:\/\/i1.douguo.com\/upload\/caiku\/2\/d\/c\/140_2d660f7a3c8ef419985b5205dbcdf8ac.jpeg",
          "image_height" : 959,
          "frame" : "-1",
          "content" : "倒入碗中备用，喜欢辣的可以在煸炒中加入红椒，烤箱200度预热"
        },
        {
          "image_height" : 959,
          "position" : 8,
          "content" : "烤盘铺好锡纸，倒入花蛤，摆好虾，背朝上放置，再在虾背上码好蒜泥，我因为蒜泥剁少了，所以在花蛤和虾表面又淋了点蒸鱼鼓油",
          "thumb" : "https:\/\/i1.douguo.com\/upload\/caiku\/c\/0\/a\/140_c04b80b33abb3709194bbf4bd6fe2b4a.jpeg",
          "image" : "https:\/\/i1.douguo.com\/upload\/caiku\/c\/0\/a\/c04b80b33abb3709194bbf4bd6fe2b4a.jpeg",
          "image_width" : 1280,
          "frame" : "-1"
        },
        {
          "image_width" : 1280,
          "thumb" : "https:\/\/i1.douguo.com\/upload\/caiku\/0\/b\/7\/140_0ba399d24958b0413d98f9d045598c37.jpeg",
          "frame" : "-1",
          "position" : 9,
          "image_height" : 959,
          "content" : "烤箱中层，200度烤了15分钟",
          "image" : "https:\/\/i1.douguo.com\/upload\/caiku\/0\/b\/7\/0ba399d24958b0413d98f9d045598c37.jpeg"
        },
        {
          "image_height" : 959,
          "image_width" : 1280,
          "content" : "出锅啦！",
          "position" : 10,
          "image" : "https:\/\/i1.douguo.com\/upload\/caiku\/4\/3\/8\/43f3578f2930a187ecd45a9e88512b58.jpeg",
          "frame" : "-1",
          "thumb" : "https:\/\/i1.douguo.com\/upload\/caiku\/4\/3\/8\/140_43f3578f2930a187ecd45a9e88512b58.jpeg"
        },
        {
          "frame" : "-1",
          "image_width" : 1280,
          "thumb" : "https:\/\/i1.douguo.com\/upload\/caiku\/5\/b\/c\/140_5b9967ee4ec76869c7be2ef0f8c7284c.jpeg",
          "position" : 11,
          "content" : "摆盘拍照，唯一缺陷，家里没有葱……表面再撒点葱花就更完美啦！",
          "image_height" : 959,
          "image" : "https:\/\/i1.douguo.com\/upload\/caiku\/5\/b\/c\/5b9967ee4ec76869c7be2ef0f8c7284c.jpeg"
        },
        {
          "frame" : "-1",
          "image" : "https:\/\/i1.douguo.com\/upload\/caiku\/a\/e\/c\/ae88ce9f02d7c2a4337b6183d527dadc.jpeg",
          "content" : "吃的很爽啊！",
          "thumb" : "https:\/\/i1.douguo.com\/upload\/caiku\/a\/e\/c\/140_ae88ce9f02d7c2a4337b6183d527dadc.jpeg",
          "position" : 12,
          "image_width" : 1080,
          "image_height" : 1440
        }
      ],
      "rpt" : "",
      "user" : {
        "qq_weibo_nick" : "",
        "birthday" : "",
        "mobile" : "",
        "diaries_count" : 0,
        "regist_time" : "",
        "recipes_count" : 0,
        "point" : 0,
        "verified_image" : "https:\/\/i1.douguo.com\/upload\/note\/d\/a\/a\/da84247847aebe48d9dd0fcdac88862a.png",
        "email" : "",
        "sign" : "",
        "lv" : 0,
        "coursecount" : 0,
        "location" : 0,
        "verified_url" : "https:\/\/m.douguo.com\/user\/prodesc",
        "progress_image" : "",
        "dishes_count" : 0,
        "lvl" : 6,
        "gender" : 2,
        "qzone_nick" : "",
        "favorites_count" : 0,
        "user_id" : "21326027",
        "setted_email" : 0,
        "user_large_photo" : "http:\/\/tx1.douguo.net\/upload\/photo\/3\/f\/f\/yuan_u11083585484562183535.jpeg",
        "favor_diaries_count" : 0,
        "user_photo" : "http:\/\/tx1.douguo.net\/upload\/photo\/3\/f\/f\/70_u11083585484562183535.jpeg",
        "userid" : "21326027",
        "fc" : 0,
        "subscription_article_count" : 0,
        "nick" : "Pretty的幸福美食",
        "age" : "",
        "is_prime" : 0,
        "followers_count" : 0,
        "subscription" : 0,
        "pc" : 0,
        "user_cover" : "",
        "verified" : 1,
        "introduction" : "",
        "following_count" : 0,
        "weibo_nick" : "",
        "avatar_medium" : "http:\/\/tx1.douguo.net\/upload\/photo\/3\/f\/f\/140_u11083585484562183535.jpeg"
      },
      "ipt" : "",
      "share_info" : {
        "name" : "#一人一道拿手菜# 蒜蓉烤花蛤虾-会做饭很酷!",
        "s_u" : "http:\/\/m.douguo.com\/cookbook\/2320833.html",
        "object_id" : "2320833",
        "s_d" : "#一人一道拿手菜# 蒜蓉烤花蛤虾-会做饭很酷!",
        "image" : "https:\/\/cp1.douguo.com\/upload\/caiku\/0\/6\/5\/06c321b244ef3f37bbe3bb8ac40787c5.jpeg",
        "infos" : [
          {
            "channel" : "1",
            "name" : "#一人一道拿手菜# 蒜蓉烤花蛤虾-会做饭很酷!",
            "qr_image" : "",
            "s_u" : "",
            "s_d" : "#学做饭用豆果美食# 我在@豆果美食 分享了【#一人一道拿手菜# 蒜蓉烤花蛤虾-会做饭很酷!】，哟，集美们～你看这是神仙美味～快跟着我做一份，做一份！查看图片了解菜谱（更多美食秘籍点击https:\/\/m.weibo.cn\/p\/100404i33631获取）#会做饭很酷# ",
            "mini_program" : [

            ],
            "image" : "https:\/\/cp1.douguo.com\/upload\/caiku\/0\/6\/5\/06c321b244ef3f37bbe3bb8ac40787c5.jpeg",
            "object_id" : "2320833"
          },
          {
            "mini_program" : [

            ],
            "object_id" : "2320833",
            "name" : "#一人一道拿手菜# 蒜蓉烤花蛤虾-会做饭很酷!",
            "image" : "https:\/\/cp1.douguo.com\/upload\/caiku\/0\/6\/5\/06c321b244ef3f37bbe3bb8ac40787c5.jpeg",
            "s_d" : "#一人一道拿手菜# 蒜蓉烤花蛤虾-会做饭很酷!",
            "channel" : "7",
            "qr_image" : "",
            "s_u" : "http:\/\/m.douguo.com\/cookbook\/2320833.html"
          },
          {
            "mini_program" : [

            ],
            "s_u" : "http:\/\/m.douguo.com\/cookbook\/2320833.html",
            "image" : "https:\/\/cp1.douguo.com\/upload\/caiku\/0\/6\/5\/06c321b244ef3f37bbe3bb8ac40787c5.jpeg",
            "s_d" : "#一人一道拿手菜# 蒜蓉烤花蛤虾-会做饭很酷!",
            "name" : "#一人一道拿手菜# 蒜蓉烤花蛤虾-会做饭很酷!",
            "qr_image" : "",
            "object_id" : "2320833",
            "channel" : "8"
          }
        ],
        "qr_image" : "",
        "mini_program" : [

        ]
      },
      "vc" : "307650",
      "hq" : 1,
      "thumb_height" : 0,
      "original_photo_path" : "http:\/\/i1.douguo.net\/upload\/caiku\/0\/6\/5\/yuan_06c321b244ef3f37bbe3bb8ac40787c5.jpeg",
      "author_photo" : "http:\/\/tx1.douguo.net\/upload\/photo\/3\/f\/f\/70_u11083585484562183535.jpeg",
      "recent_comments" : [

      ],
      "cookwares" : [

      ],
      "ipci" : "",
      "ssu" : "",
      "dishes" : [

      ],
      "tips" : "",
      "act_des" : "",
      "advice" : {
        "at" : "对血管有保护作用～",
        "da" : {
          "t" : "查看详细分析",
          "url" : "https:\/\/m.douguo.com\/recipe\/nutrient_self\/2320833",
          "iu" : "https:\/\/i1.douguo.com\/upload\/banner\/f\/4\/d\/f48877e53c37759bc12ac494be82ec8d.png"
        },
        "has" : [
          {
            "t" : "低饱和脂肪",
            "url" : "recipes:\/\/www.douguo.com\/simplerecipelist?t=低饱和脂肪&id=低饱和脂肪"
          }
        ]
      },
      "vfurl" : "",
      "bs" : [

      ],
      "recipe_tags" : [

      ],
      "first_level_comment_count" : 9,
      "rips" : 0,
      "story_dsp" : [

      ],
      "top_mdsp" : [

      ],
      "hqu" : "recipes:\/\/www.douguo.com\/notedetail?id=21162253",
      "author_id" : 21326027,
      "minor" : [

      ],
      "cook_time" : "30~60分钟",
      "cook_id" : "2320833",
      "cook_time_image" : "https:\/\/i1.douguo.com\/upload\/banner\/1551424318.png",
      "ss" : [

      ],
      "rpst" : "",
      "author" : "Pretty的幸福美食",
      "title_ad" : [

      ]
    }
  }
}