{
  "status" : 0,
  "result" : {
    "recipe" : {
      "cook_difficulty_image" : "https:\/\/i1.douguo.com\/upload\/banner\/1551424390.png",
      "comments_count" : 48,
      "vu" : "",
      "thumb_path" : "https:\/\/i1.douguo.com\/upload\/caiku\/c\/2\/b\/300_c28db7b8a9da56062505c3877773cd1b.jpg",
      "dishes" : [

      ],
      "tips" : "蔬菜尽量挑选粗细相似的 ，这样切出来才会美",
      "vc" : "286636",
      "major" : [
        {
          "title" : "番茄泥（没有可以切碎去皮的西红柿加番茄酱）",
          "note" : "一碗的量"
        },
        {
          "title" : "橄榄油",
          "note" : "",
          "tu" : "https:\/\/m.douguo.com\/ingredients\/橄榄油\/detailmaterial"
        },
        {
          "title" : "帕马森芝士Parmesan cheese",
          "note" : ""
        },
        {
          "note" : "4大瓣",
          "tu" : "https:\/\/m.douguo.com\/ingredients\/蒜\/detailmaterial",
          "title" : "蒜"
        },
        {
          "note" : "一个",
          "title" : "西红柿",
          "tu" : "https:\/\/m.douguo.com\/ingredients\/西红柿\/detailmaterial"
        },
        {
          "note" : "1个",
          "title" : "长茄子"
        },
        {
          "tu" : "https:\/\/m.douguo.com\/ingredients\/西葫芦\/detailmaterial",
          "title" : "西葫芦",
          "note" : "1个"
        },
        {
          "note" : "1根",
          "title" : "黄瓜",
          "tu" : "https:\/\/m.douguo.com\/ingredients\/黄瓜\/detailmaterial"
        },
        {
          "title" : "百里香Thyme",
          "note" : ""
        },
        {
          "note" : "",
          "title" : "盐",
          "tu" : "https:\/\/m.douguo.com\/ingredients\/盐\/detailmaterial"
        },
        {
          "title" : "黑胡椒",
          "note" : "",
          "tu" : "https:\/\/m.douguo.com\/ingredients\/黑胡椒\/detailmaterial"
        }
      ],
      "ipia" : [

      ],
      "author" : "V_Ve",
      "hq" : 1,
      "dish_count_text" : "12",
      "advice" : {
        "has" : [
          {
            "url" : "recipes:\/\/www.douguo.com\/simplerecipelist?t=低脂&id=低脂",
            "t" : "低脂"
          },
          {
            "url" : "recipes:\/\/www.douguo.com\/simplerecipelist?t=低糖&id=低糖",
            "t" : "低糖"
          }
        ],
        "at" : "能有效控制体重～",
        "da" : {
          "t" : "查看详细分析",
          "url" : "https:\/\/m.douguo.com\/recipe\/nutrient_self\/1126860",
          "iu" : "https:\/\/i1.douguo.com\/upload\/banner\/f\/4\/d\/f48877e53c37759bc12ac494be82ec8d.png"
        }
      },
      "bs" : [

      ],
      "btm_dsp" : [

      ],
      "first_level_comment_count" : 23,
      "act_des" : "",
      "ssu" : "",
      "collect_status" : 0,
      "sc" : 0,
      "recipe_tags" : [

      ],
      "cookwares" : [

      ],
      "ipoi" : "",
      "cookstory" : "这道菜是完全对着【料理鼠王】还原的，再跟着几本法国烹饪书做的还原，我想小老鼠做的肯定比我的惊艳，我还要继续努力(￣∇￣)普罗旺斯乡村炖菜是法国家喻户晓的家常菜，类似于我们的西红柿炒鸡蛋，地三鲜的节奏。",
      "user" : {
        "lvl" : 4,
        "location" : 0,
        "lv" : 0,
        "nick" : "V_Ve",
        "birthday" : "",
        "email" : "",
        "point" : 0,
        "followers_count" : 0,
        "dishes_count" : 0,
        "verified_image" : "",
        "setted_email" : 0,
        "favor_diaries_count" : 0,
        "verified_url" : "https:\/\/m.douguo.com\/user\/prodesc",
        "userid" : "5166836",
        "is_prime" : 0,
        "gender" : 2,
        "recipes_count" : 0,
        "user_cover" : "",
        "mobile" : "",
        "coursecount" : 0,
        "regist_time" : "",
        "verified" : 0,
        "weibo_nick" : "",
        "pc" : 0,
        "avatar_medium" : "http:\/\/tx1.douguo.net\/upload\/photo\/b\/4\/4\/140_u07757886427233141715.jpg",
        "diaries_count" : 0,
        "age" : "",
        "subscription_article_count" : 0,
        "user_photo" : "http:\/\/tx1.douguo.net\/upload\/photo\/b\/4\/4\/70_u07757886427233141715.jpg",
        "fc" : 0,
        "progress_image" : "",
        "introduction" : "",
        "user_large_photo" : "http:\/\/tx1.douguo.net\/upload\/photo\/b\/4\/4\/yuan_u07757886427233141715.jpg",
        "subscription" : 0,
        "sign" : "",
        "qzone_nick" : "",
        "following_count" : 0,
        "user_id" : "5166836",
        "qq_weibo_nick" : "",
        "favorites_count" : 0
      },
      "rate_show" : 0,
      "rcs" : [

      ],
      "v_u" : "",
      "cook_time_image" : "https:\/\/i1.douguo.com\/upload\/banner\/1551424318.png",
      "rpst" : "",
      "cook_id" : "1126860",
      "create_time" : "2015-03-01 20:15:12",
      "mid_mdsp" : [

      ],
      "recommended" : 0,
      "tags" : [
        "{\n    text = \"\\U6cd5\\U56fd\\U83dc\";\n}",
        "{\n    text = \"\\U7096\";\n}",
        "{\n    text = \"\\U5348\\U9910\";\n}",
        "{\n    text = \"\\U665a\\U9910\";\n}",
        "{\n    text = \"\\U670b\\U53cb\\U805a\\U9910\";\n}",
        "{\n    text = \"\\U4e00\\U5bb6\\U4e09\\U53e3\";\n}"
      ],
      "su" : "",
      "levelid" : 2,
      "views_count_text" : "28.7万",
      "rrps" : [

      ],
      "recommend_label" : "12人学做",
      "purl" : "",
      "favo_counts" : 3187,
      "rrpt" : "",
      "author_id" : 5166836,
      "cookstorys" : [
        {
          "id" : 0,
          "color" : "",
          "type" : 0,
          "c" : "这道菜是完全对着【料理鼠王】还原的，再跟着几本法国烹饪书做的还原，我想小老鼠做的肯定比我的惊艳，我还要继续努力(￣∇￣)普罗旺斯乡村炖菜是法国家喻户晓的家常菜，类似于我们的西红柿炒鸡蛋，地三鲜的节奏。",
          "icon" : "",
          "u" : ""
        }
      ],
      "rips" : 0,
      "old_comments" : [

      ],
      "comments" : [
        "{\n    ac = \"#999999\";\n    at = \"\";\n    ccc = 4;\n    \"child_comments\" =     (\n                {\n            ac = \"#999999\";\n            at = \"\";\n            ccc = 0;\n            city = \"\";\n            cmc = 2;\n            content =             (\n                                {\n                    c = \" \";\n                }\n            );\n            ia = 1;\n            id = 2074886;\n            \"ip_address_location\" = \"\";\n            like = 0;\n            \"like_count\" = 0;\n            \"reply_id\" = 2073403;\n            \"reply_user\" =             {\n                \"followers_count_text\" = \"\";\n                id = 7921361;\n                \"is_prime\" = 0;\n                lv = 0;\n                lvl = 1;\n                n = \"_Misaki_L\";\n                p = \"http:\/\/tx1.douguo.net\/upload\/photo\/c\/3\/a\/70_u21929500154771202504.jpg\";\n                \"progress_image\" = \"\";\n                \"recipes_count_text\" = \"\";\n                relationship = \"-1\";\n                title = \"\";\n                v = 0;\n                \"verified_image\" = \"\";\n            };\n            \"sticker_icon\" =             (\n            );\n            time = \"2015-03-03 16:19:16\";\n            u =             {\n                \"followers_count_text\" = \"\";\n                id = 5166836;\n                \"is_prime\" = 0;\n                lv = 0;\n                lvl = 4;\n                n = \"V_Ve\";\n                p = \"http:\/\/tx1.douguo.net\/upload\/photo\/b\/4\/4\/70_u07757886427233141715.jpg\";\n                \"progress_image\" = \"\";\n                \"recipes_count_text\" = \"\";\n                relationship = \"-1\";\n                title = \"\";\n                v = 0;\n                \"verified_image\" = \"\";\n            };\n        },\n                {\n            ac = \"#999999\";\n            at = \"\";\n            ccc = 0;\n            city = \"\";\n            cmc = 2;\n            content =             (\n                                {\n                    c = \" \\U5c31\\U662f\\U6446\\U597d\\U4e86\\U4e4b\\U540e\\U5c0f\\U706b\\U714e\\U719f\\U5373\\U53ef\\Uff1f\\U8fd8\\U662f\\Uff1f\";\n                }\n            );\n            ia = 0;\n            id = 2075233;\n            \"ip_address_location\" = \"\";\n            like = 0;\n            \"like_count\" = 0;\n            \"reply_id\" = 2074886;\n            \"reply_user\" =             {\n                \"followers_count_text\" = \"\";\n                id = 5166836;\n                \"is_prime\" = 0;\n                lv = 0;\n                lvl = 4;\n                n = \"V_Ve\";\n                p = \"http:\/\/tx1.douguo.net\/upload\/photo\/b\/4\/4\/70_u07757886427233141715.jpg\";\n                \"progress_image\" = \"\";\n                \"recipes_count_text\" = \"\";\n                relationship = \"-1\";\n                title = \"\";\n                v = 0;\n                \"verified_image\" = \"\";\n            };\n            \"sticker_icon\" =             (\n            );\n            time = \"2015-03-04 00:20:45\";\n            u =             {\n                \"followers_count_text\" = \"\";\n                id = 7921361;\n                \"is_prime\" = 0;\n                lv = 0;\n                lvl = 1;\n                n = \"_Misaki_L\";\n                p = \"http:\/\/tx1.douguo.net\/upload\/photo\/c\/3\/a\/70_u21929500154771202504.jpg\";\n                \"progress_image\" = \"\";\n                \"recipes_count_text\" = \"\";\n                relationship = \"-1\";\n                title = \"\";\n                v = 0;\n                \"verified_image\" = \"\";\n            };\n        }\n    );\n    city = \"\";\n    cmc = 2;\n    content =     (\n                {\n            c = \"\\U6ca1\\U6709\\U70e4\\U7bb1\\U600e\\U4e48\\U529e...\";\n        }\n    );\n    ia = 0;\n    id = 2073403;\n    \"ip_address_location\" = \"\";\n    like = 0;\n    \"like_count\" = 1;\n    \"reply_id\" = 0;\n    \"sticker_icon\" =     (\n    );\n    time = \"2015-03-03 09:19:27\";\n    u =     {\n        \"followers_count_text\" = \"\";\n        id = 7921361;\n        \"is_prime\" = 0;\n        lv = 0;\n        lvl = 1;\n        n = \"_Misaki_L\";\n        p = \"http:\/\/tx1.douguo.net\/upload\/photo\/c\/3\/a\/70_u21929500154771202504.jpg\";\n        \"progress_image\" = \"\";\n        \"recipes_count_text\" = \"\";\n        relationship = \"-1\";\n        title = \"\";\n        v = 0;\n        \"verified_image\" = \"\";\n    };\n}",
        "{\n    ac = \"#999999\";\n    at = \"\";\n    ccc = 4;\n    \"child_comments\" =     (\n                {\n            ac = \"#999999\";\n            at = \"\";\n            ccc = 0;\n            city = \"\";\n            cmc = 2;\n            content =             (\n                                {\n                    c = \" \";\n                }\n            );\n            ia = 1;\n            id = 2074891;\n            \"ip_address_location\" = \"\";\n            like = 0;\n            \"like_count\" = 0;\n            \"reply_id\" = 2073342;\n            \"reply_user\" =             {\n                \"followers_count_text\" = \"\";\n                id = 7325304;\n                \"is_prime\" = 0;\n                lv = 0;\n                lvl = 3;\n                n = \"koala_&_\\U8d75\\U5a9b\";\n                p = \"http:\/\/tx1.douguo.net\/upload\/photo\/9\/5\/6\/70_95c7f61376848ca8a36e3b584a482746.jpg\";\n                \"progress_image\" = \"\";\n                \"recipes_count_text\" = \"\";\n                relationship = \"-1\";\n                title = \"\";\n                v = 0;\n                \"verified_image\" = \"\";\n            };\n            \"sticker_icon\" =             (\n            );\n            time = \"2015-03-03 16:20:43\";\n            u =             {\n                \"followers_count_text\" = \"\";\n                id = 5166836;\n                \"is_prime\" = 0;\n                lv = 0;\n                lvl = 4;\n                n = \"V_Ve\";\n                p = \"http:\/\/tx1.douguo.net\/upload\/photo\/b\/4\/4\/70_u07757886427233141715.jpg\";\n                \"progress_image\" = \"\";\n                \"recipes_count_text\" = \"\";\n                relationship = \"-1\";\n                title = \"\";\n                v = 0;\n                \"verified_image\" = \"\";\n            };\n        },\n                {\n            ac = \"#999999\";\n            at = \"\";\n            ccc = 0;\n            city = \"\";\n            cmc = 2;\n            content =             (\n                                {\n                    c = \" \\U55ef \\U55ef \\U55ef \\U6240\\U4ee5\\U662f\\U94fa\\U5728\\U83dc\\U4e0a\\U5c42\\U7684 \\U4f46\\U662f\\U8981\\U5f04\\U5c42\\U9521\\U7eb8 \\U662f\\U4e0d\\U662f\\U989c\\U8272\\U4e0d\\U4f1a\\U4e0a\\U90a3\\U4e48\\U6df1\\U5427\";\n                }\n            );\n            ia = 0;\n            id = 2078822;\n            \"ip_address_location\" = \"\";\n            like = 0;\n            \"like_count\" = 0;\n            \"reply_id\" = 2074891;\n            \"reply_user\" =             {\n                \"followers_count_text\" = \"\";\n                id = 5166836;\n                \"is_prime\" = 0;\n                lv = 0;\n                lvl = 4;\n                n = \"V_Ve\";\n                p = \"http:\/\/tx1.douguo.net\/upload\/photo\/b\/4\/4\/70_u07757886427233141715.jpg\";\n                \"progress_image\" = \"\";\n                \"recipes_count_text\" = \"\";\n                relationship = \"-1\";\n                title = \"\";\n                v = 0;\n                \"verified_image\" = \"\";\n            };\n            \"sticker_icon\" =             (\n            );\n            time = \"2015-03-05 09:38:23\";\n            u =             {\n                \"followers_count_text\" = \"\";\n                id = 7325304;\n                \"is_prime\" = 0;\n                lv = 0;\n                lvl = 3;\n                n = \"koala_&_\\U8d75\\U5a9b\";\n                p = \"http:\/\/tx1.douguo.net\/upload\/photo\/9\/5\/6\/70_95c7f61376848ca8a36e3b584a482746.jpg\";\n                \"progress_image\" = \"\";\n                \"recipes_count_text\" = \"\";\n                relationship = \"-1\";\n                title = \"\";\n                v = 0;\n                \"verified_image\" = \"\";\n            };\n        }\n    );\n    city = \"\";\n    cmc = 2;\n    content =     (\n                {\n            c = \"\\U4e3a\\U4f55\\U662f\\U9762\\U5305\\U7eb8\\U76d6\\U4e0a\\U4e0d\\U662f\\U9521\\U7eb8\\U5462\";\n        }\n    );\n    ia = 0;\n    id = 2073342;\n    \"ip_address_location\" = \"\";\n    like = 0;\n    \"like_count\" = 0;\n    \"reply_id\" = 0;\n    \"sticker_icon\" =     (\n    );\n    time = \"2015-03-03 09:11:04\";\n    u =     {\n        \"followers_count_text\" = \"\";\n        id = 7325304;\n        \"is_prime\" = 0;\n        lv = 0;\n        lvl = 3;\n        n = \"koala_&_\\U8d75\\U5a9b\";\n        p = \"http:\/\/tx1.douguo.net\/upload\/photo\/9\/5\/6\/70_95c7f61376848ca8a36e3b584a482746.jpg\";\n        \"progress_image\" = \"\";\n        \"recipes_count_text\" = \"\";\n        relationship = \"-1\";\n        title = \"\";\n        v = 0;\n        \"verified_image\" = \"\";\n    };\n}",
        "{\n    ac = \"#999999\";\n    at = \"\";\n    ccc = 3;\n    \"child_comments\" =     (\n                {\n            ac = \"#999999\";\n            at = \"\";\n            ccc = 0;\n            city = \"\";\n            cmc = 2;\n            content =             (\n                                {\n                    c = \" \\U597d\\U60f3\\U597d\\U60f3\\U5403\";\n                }\n            );\n            ia = 0;\n            id = 2073792;\n            \"ip_address_location\" = \"\";\n            like = 0;\n            \"like_count\" = 0;\n            \"reply_id\" = 2073669;\n            \"reply_user\" =             {\n                \"followers_count_text\" = \"\";\n                id = 4942098;\n                \"is_prime\" = 0;\n                lv = 0;\n                lvl = 4;\n                n = \"Kuki\\U5c0f\\U9b41\";\n                p = \"http:\/\/tx1.douguo.net\/upload\/photo\/1\/4\/7\/70_u06299469976191193221.jpg\";\n                \"progress_image\" = \"\";\n                \"recipes_count_text\" = \"\";\n                relationship = \"-1\";\n                title = \"\";\n                v = 0;\n                \"verified_image\" = \"\";\n            };\n            \"sticker_icon\" =             (\n            );\n            time = \"2015-03-03 11:06:41\";\n            u =             {\n                \"followers_count_text\" = \"\";\n                id = 3641003;\n                \"is_prime\" = 0;\n                lv = 0;\n                lvl = 1;\n                n = \"\\U866b\\U866b_\\U5988\\U5988\";\n                p = \"http:\/\/tx1.douguo.net\/upload\/photo\/0\/5\/b\/70_u85109382465450142931.jpg\";\n                \"progress_image\" = \"\";\n                \"recipes_count_text\" = \"\";\n                relationship = \"-1\";\n                title = \"\";\n                v = 0;\n                \"verified_image\" = \"\";\n            };\n        },\n                {\n            ac = \"#999999\";\n            at = \"\";\n            ccc = 0;\n            city = \"\";\n            cmc = 2;\n            content =             (\n                                {\n                    c = \" \";\n                }\n            );\n            ia = 1;\n            id = 2074870;\n            \"ip_address_location\" = \"\";\n            like = 0;\n            \"like_count\" = 0;\n            \"reply_id\" = 2073792;\n            \"reply_user\" =             {\n                \"followers_count_text\" = \"\";\n                id = 3641003;\n                \"is_prime\" = 0;\n                lv = 0;\n                lvl = 1;\n                n = \"\\U866b\\U866b_\\U5988\\U5988\";\n                p = \"http:\/\/tx1.douguo.net\/upload\/photo\/0\/5\/b\/70_u85109382465450142931.jpg\";\n                \"progress_image\" = \"\";\n                \"recipes_count_text\" = \"\";\n                relationship = \"-1\";\n                title = \"\";\n                v = 0;\n                \"verified_image\" = \"\";\n            };\n            \"sticker_icon\" =             (\n            );\n            time = \"2015-03-03 16:16:16\";\n            u =             {\n                \"followers_count_text\" = \"\";\n                id = 5166836;\n                \"is_prime\" = 0;\n                lv = 0;\n                lvl = 4;\n                n = \"V_Ve\";\n                p = \"http:\/\/tx1.douguo.net\/upload\/photo\/b\/4\/4\/70_u07757886427233141715.jpg\";\n                \"progress_image\" = \"\";\n                \"recipes_count_text\" = \"\";\n                relationship = \"-1\";\n                title = \"\";\n                v = 0;\n                \"verified_image\" = \"\";\n            };\n        }\n    );\n    city = \"\";\n    cmc = 2;\n    content =     (\n                {\n            c = \"\\U5bf9\\U5462\\U5bf9\\U5462~\\U597d\\U559c\\U6b22\\U8fd9\\U90e8\\U7535\\U5f71~\\U597d\\U957f\\U4e00\\U6bb5\\U65f6\\U95f4\\U90fd\\U8bb0\\U5f97\\U4ed6\\U8bf4\\U8fc7\\U624b\\U8981\\U7528\\U6765\\U505a\\U83dc\\U5403\\U4e1c\\U897f\\Uff0c\\U6240\\U4ee5\\U8981\\U7ad9\\U7740\\U8d70\\U8def~\";\n        }\n    );\n    ia = 0;\n    id = 2073669;\n    \"ip_address_location\" = \"\";\n    like = 0;\n    \"like_count\" = 0;\n    \"reply_id\" = 0;\n    \"sticker_icon\" =     (\n    );\n    time = \"2015-03-03 10:29:32\";\n    u =     {\n        \"followers_count_text\" = \"\";\n        id = 4942098;\n        \"is_prime\" = 0;\n        lv = 0;\n        lvl = 4;\n        n = \"Kuki\\U5c0f\\U9b41\";\n        p = \"http:\/\/tx1.douguo.net\/upload\/photo\/1\/4\/7\/70_u06299469976191193221.jpg\";\n        \"progress_image\" = \"\";\n        \"recipes_count_text\" = \"\";\n        relationship = \"-1\";\n        title = \"\";\n        v = 0;\n        \"verified_image\" = \"\";\n    };\n}"
      ],
      "image" : "http:\/\/i1.douguo.net\/upload\/caiku\/c\/2\/b\/300_c28db7b8a9da56062505c3877773cd1b.jpg",
      "title" : "【Ratarouille】料理鼠王版普罗旺斯乡村炖菜",
      "guide_image" : "",
      "ipt" : "",
      "cook_time" : "30–60分钟",
      "thumb_height" : 0,
      "ipit" : 0,
      "sr" : "",
      "dish_count" : 12,
      "share_info" : {
        "qr_image" : "",
        "infos" : [
          {
            "s_d" : "#学做饭用豆果美食# 会做饭好酷啊！我在@豆果美食 分享了【【Ratarouille】料理鼠王版普罗旺斯乡村炖菜-会做饭很酷!】，今天也是厨艺满满的一天呢，快来和我一起学做美食吧！查看图片了解菜谱（更多美食秘籍点击https:\/\/m.weibo.cn\/p\/100404i33631获取）",
            "mini_program" : [

            ],
            "qr_image" : "",
            "object_id" : "1126860",
            "s_u" : "",
            "image" : "https:\/\/cp1.douguo.com\/upload\/caiku\/c\/2\/b\/c28db7b8a9da56062505c3877773cd1b.jpg",
            "name" : "【Ratarouille】料理鼠王版普罗旺斯乡村炖菜-会做饭很酷!",
            "channel" : "1"
          },
          {
            "name" : "【Ratarouille】料理鼠王版普罗旺斯乡村炖菜-会做饭很酷!",
            "channel" : "7",
            "qr_image" : "",
            "s_d" : "【Ratarouille】料理鼠王版普罗旺斯乡村炖菜-会做饭很酷!",
            "mini_program" : [

            ],
            "image" : "https:\/\/cp1.douguo.com\/upload\/caiku\/c\/2\/b\/c28db7b8a9da56062505c3877773cd1b.jpg",
            "s_u" : "http:\/\/m.douguo.com\/cookbook\/1126860.html",
            "object_id" : "1126860"
          },
          {
            "mini_program" : [

            ],
            "name" : "【Ratarouille】料理鼠王版普罗旺斯乡村炖菜-会做饭很酷!",
            "qr_image" : "",
            "channel" : "8",
            "s_d" : "【Ratarouille】料理鼠王版普罗旺斯乡村炖菜-会做饭很酷!",
            "s_u" : "http:\/\/m.douguo.com\/cookbook\/1126860.html",
            "object_id" : "1126860",
            "image" : "https:\/\/cp1.douguo.com\/upload\/caiku\/c\/2\/b\/c28db7b8a9da56062505c3877773cd1b.jpg"
          }
        ],
        "image" : "https:\/\/cp1.douguo.com\/upload\/caiku\/c\/2\/b\/c28db7b8a9da56062505c3877773cd1b.jpg",
        "object_id" : "1126860",
        "s_u" : "http:\/\/m.douguo.com\/cookbook\/1126860.html",
        "mini_program" : [

        ],
        "s_d" : "【Ratarouille】料理鼠王版普罗旺斯乡村炖菜-会做饭很酷!",
        "name" : "【Ratarouille】料理鼠王版普罗旺斯乡村炖菜-会做饭很酷!"
      },
      "minor" : [

      ],
      "title_ad" : [

      ],
      "photo_path" : "https:\/\/i1.douguo.com\/upload\/caiku\/c\/2\/b\/600_c28db7b8a9da56062505c3877773cd1b.jpg",
      "event" : {
        "id" : 0
      },
      "top_mdsp" : [

      ],
      "brand_day_dsp" : [

      ],
      "comments_count_text" : "48",
      "rate" : 5,
      "packages_id" : [

      ],
      "cook_difficulty" : "切墩(初级)",
      "rdsps" : [

      ],
      "author_photo" : "http:\/\/tx1.douguo.net\/upload\/photo\/b\/4\/4\/70_u07757886427233141715.jpg",
      "release_time" : "",
      "hqu" : "recipes:\/\/www.douguo.com\/notedetail?id=21162253",
      "ecs" : 0,
      "display_ingredient" : 1,
      "ss" : [

      ],
      "clicks" : "275632",
      "rate_count" : 3,
      "rpt" : "",
      "story_dsp" : [

      ],
      "eu" : "recipes:\/\/www.douguo.com\/postdetail?id=242016",
      "original_photo_path" : "http:\/\/i1.douguo.net\/upload\/caiku\/c\/2\/b\/yuan_c28db7b8a9da56062505c3877773cd1b.jpg",
      "rewarded_video_dsp" : [

      ],
      "related_ads" : [

      ],
      "favo_counts_text" : "3187",
      "notes" : [

      ],
      "rpid" : 0,
      "pw" : 800,
      "author_verified" : 0,
      "recent_comments" : [

      ],
      "rsm" : "该功能暂停使用",
      "ipci" : "",
      "ph" : 687,
      "vfurl" : "",
      "recipe_list_tags" : [
        {
          "jump_url" : "",
          "text" : "关注的人",
          "background_border_color" : "",
          "background_start_color" : "#F4F5F5",
          "right_image" : "",
          "text_color" : "#141515",
          "background_end_color" : "#F4F5F5"
        },
        {
          "text" : "内容详细",
          "jump_url" : "",
          "background_start_color" : "#F4F5F5",
          "background_end_color" : "#F4F5F5",
          "background_border_color" : "",
          "text_color" : "#141515",
          "right_image" : ""
        }
      ],
      "ipurl" : "",
      "recommendation_tag" : "",
      "cookstep" : [
        {
          "content" : "我今天偷赖用了成罐的番茄泥，10元左右，thyme是从英国tesco里买的，国内的超市开始有了，黑胡椒我用的豆现磨，味道比较好",
          "image" : "https:\/\/i1.douguo.com\/upload\/caiku\/2\/0\/7\/201b453387c1ef38488ddfcf4180b977.jpg",
          "image_width" : 800,
          "thumb" : "https:\/\/i1.douguo.com\/upload\/caiku\/2\/0\/7\/140_201b453387c1ef38488ddfcf4180b977.jpg",
          "frame" : "-1",
          "position" : 1,
          "image_height" : 600
        },
        {
          "position" : 2,
          "image" : "https:\/\/i1.douguo.com\/upload\/caiku\/a\/9\/3\/a9d6645ab4eaef4bf7cdcdaff8e60cd3.jpg",
          "image_height" : 600,
          "thumb" : "https:\/\/i1.douguo.com\/upload\/caiku\/a\/9\/3\/140_a9d6645ab4eaef4bf7cdcdaff8e60cd3.jpg",
          "image_width" : 800,
          "frame" : "-1",
          "content" : "茄子、西红柿、西葫芦、黄瓜用擦子擦片，没有的就切薄一点。"
        },
        {
          "image_width" : 799,
          "image_height" : 450,
          "thumb" : "https:\/\/i1.douguo.com\/upload\/caiku\/5\/5\/4\/140_5529112f1166130f4a1fdd6a6dca2be4.jpg",
          "content" : "电影的擦子(￣∇￣)",
          "image" : "https:\/\/i1.douguo.com\/upload\/caiku\/5\/5\/4\/5529112f1166130f4a1fdd6a6dca2be4.jpg",
          "position" : 3,
          "frame" : "-1"
        },
        {
          "frame" : "-1",
          "thumb" : "https:\/\/i1.douguo.com\/upload\/caiku\/0\/1\/0\/140_01312b78a978f9766cff532606369180.jpg",
          "position" : 4,
          "content" : "烧热橄榄油，下蒜碎炒香，加入番茄泥，用黑胡椒、盐调味，起锅撒上百里香和帕马森芝士。",
          "image_width" : 800,
          "image_height" : 600,
          "image" : "https:\/\/i1.douguo.com\/upload\/caiku\/0\/1\/0\/01312b78a978f9766cff532606369180.jpg"
        },
        {
          "thumb" : "https:\/\/i1.douguo.com\/upload\/caiku\/6\/3\/8\/140_6391dca7c2456bc87c12bba69cedc3f8.jpg",
          "frame" : "-1",
          "image" : "https:\/\/i1.douguo.com\/upload\/caiku\/6\/3\/8\/6391dca7c2456bc87c12bba69cedc3f8.jpg",
          "position" : 5,
          "image_height" : 600,
          "content" : "均匀的涂抹在烤盘底部，我又撒了点帕马森。",
          "image_width" : 800
        },
        {
          "image_width" : 799,
          "image" : "https:\/\/i1.douguo.com\/upload\/caiku\/8\/a\/8\/8adc6f9e8e539e63e10ff18efca4aaa8.jpg",
          "image_height" : 450,
          "frame" : "-1",
          "thumb" : "https:\/\/i1.douguo.com\/upload\/caiku\/8\/a\/8\/140_8adc6f9e8e539e63e10ff18efca4aaa8.jpg",
          "content" : "我们俩的铲子都一样哇，差点把锅mauviel买了(>﹏<)幸好制止住了",
          "position" : 6
        },
        {
          "thumb" : "https:\/\/i1.douguo.com\/upload\/caiku\/f\/7\/5\/140_f70eff78ca68f50f3ee86d8538721d05.jpg",
          "content" : "把蔬菜一片片排进去淋一圈橄榄油，我又撒了点帕马森……可以不撒，用黑胡椒和盐调味，盖上一层剪好的烤纸，入烤箱180度25分钟",
          "image_width" : 800,
          "image" : "https:\/\/i1.douguo.com\/upload\/caiku\/f\/7\/5\/f70eff78ca68f50f3ee86d8538721d05.jpg",
          "position" : 7,
          "frame" : "-1",
          "image_height" : 600
        },
        {
          "image" : "https:\/\/i1.douguo.com\/upload\/caiku\/b\/a\/4\/ba6e746da5a5c893f1969b5901d77434.jpg",
          "position" : 8,
          "image_width" : 800,
          "frame" : "-1",
          "content" : "出炉(￣∇￣)再淋一圈橄榄油就可以上桌啦",
          "image_height" : 600,
          "thumb" : "https:\/\/i1.douguo.com\/upload\/caiku\/b\/a\/4\/140_ba6e746da5a5c893f1969b5901d77434.jpg"
        },
        {
          "frame" : "-1",
          "image" : "https:\/\/i1.douguo.com\/upload\/caiku\/7\/f\/e\/7fbc90e97c65e0a1c6fbbb925b79e1ce.jpg",
          "content" : "电影",
          "position" : 9,
          "image_width" : 799,
          "image_height" : 450,
          "thumb" : "https:\/\/i1.douguo.com\/upload\/caiku\/7\/f\/e\/140_7fbc90e97c65e0a1c6fbbb925b79e1ce.jpg"
        },
        {
          "frame" : "-1",
          "image_width" : 800,
          "thumb" : "https:\/\/i1.douguo.com\/upload\/caiku\/2\/9\/3\/140_292c52ad6aca9810e85641200472cf53.jpg",
          "content" : "装盘……我的还是不够薄……摆不了那么美……",
          "position" : 10,
          "image" : "https:\/\/i1.douguo.com\/upload\/caiku\/2\/9\/3\/292c52ad6aca9810e85641200472cf53.jpg",
          "image_height" : 600
        },
        {
          "image_width" : 799,
          "frame" : "-1",
          "image" : "https:\/\/i1.douguo.com\/upload\/caiku\/3\/b\/e\/3b2bc7f9f0ab028bd05a22bbc228628e.jpg",
          "position" : 11,
          "thumb" : "https:\/\/i1.douguo.com\/upload\/caiku\/3\/b\/e\/140_3b2bc7f9f0ab028bd05a22bbc228628e.jpg",
          "content" : "电影的 超级薄",
          "image_height" : 450
        },
        {
          "frame" : "-1",
          "thumb" : "https:\/\/i1.douguo.com\/upload\/caiku\/6\/e\/8\/140_6e2e4bc1c5d927fbf227e848b7ad6218.jpg",
          "image_width" : 800,
          "image" : "https:\/\/i1.douguo.com\/upload\/caiku\/6\/e\/8\/6e2e4bc1c5d927fbf227e848b7ad6218.jpg",
          "image_height" : 687,
          "position" : 12,
          "content" : "(￣∇￣)"
        }
      ]
    }
  },
  "state" : "success"
}