{
  "result" : {
    "recipe" : {
      "image" : "http:\/\/i1.douguo.net\/upload\/caiku\/4\/0\/9\/300_40d0a21f286d3126daa37636053fd729.jpg",
      "title_ad" : [

      ],
      "ss" : [

      ],
      "eu" : "recipes:\/\/www.douguo.com\/postdetail?id=242016",
      "act_des" : "",
      "rewarded_video_dsp" : [

      ],
      "cook_id" : "2424449",
      "purl" : "",
      "levelid" : 2,
      "release_time" : "",
      "photo_path" : "https:\/\/i1.douguo.com\/upload\/caiku\/4\/0\/9\/600_40d0a21f286d3126daa37636053fd729.jpg",
      "thumb_path" : "https:\/\/i1.douguo.com\/upload\/caiku\/4\/0\/9\/300_40d0a21f286d3126daa37636053fd729.jpg",
      "advice" : {
        "has" : [
          {
            "url" : "recipes:\/\/www.douguo.com\/simplerecipelist?t=低饱和脂肪&id=低饱和脂肪",
            "t" : "低饱和脂肪"
          },
          {
            "t" : "低胆固醇",
            "url" : "recipes:\/\/www.douguo.com\/simplerecipelist?t=低胆固醇&id=低胆固醇"
          }
        ],
        "da" : {
          "t" : "查看详细分析",
          "url" : "https:\/\/m.douguo.com\/recipe\/nutrient_self\/2424449",
          "iu" : "https:\/\/i1.douguo.com\/upload\/banner\/f\/4\/d\/f48877e53c37759bc12ac494be82ec8d.png"
        },
        "at" : "可以预防血栓形成～"
      },
      "create_time" : "2020-03-07 14:56:50",
      "rate_count" : 1,
      "ph" : 900,
      "cook_time" : "30~60分钟",
      "cook_difficulty" : "切墩(初级)",
      "btm_dsp" : [

      ],
      "ipia" : [

      ],
      "display_ingredient" : 1,
      "tips" : "这是双人份，大家可以自行调整，加油!",
      "dish_count_text" : "2",
      "rpst" : "",
      "share_info" : {
        "name" : "来一碗咖喱穿肠意大利面，爱上它-会做饭很酷!",
        "qr_image" : "",
        "mini_program" : [

        ],
        "s_u" : "http:\/\/m.douguo.com\/cookbook\/2424449.html",
        "s_d" : "来一碗咖喱穿肠意大利面，爱上它-会做饭很酷!",
        "object_id" : "2424449",
        "infos" : [
          {
            "object_id" : "2424449",
            "channel" : "1",
            "s_d" : "#学做饭用豆果美食# 我在@豆果美食 分享了【来一碗咖喱穿肠意大利面，爱上它-会做饭很酷!】，哟，集美们～你看这是神仙美味～快跟着我做一份，做一份！查看图片了解菜谱（更多美食秘籍点击https:\/\/m.weibo.cn\/p\/100404i33631获取）#会做饭很酷# ",
            "qr_image" : "",
            "image" : "https:\/\/cp1.douguo.com\/upload\/caiku\/4\/0\/9\/40d0a21f286d3126daa37636053fd729.jpg",
            "name" : "来一碗咖喱穿肠意大利面，爱上它-会做饭很酷!",
            "mini_program" : [

            ],
            "s_u" : ""
          },
          {
            "name" : "来一碗咖喱穿肠意大利面，爱上它-会做饭很酷!",
            "s_d" : "来一碗咖喱穿肠意大利面，爱上它-会做饭很酷!",
            "s_u" : "http:\/\/m.douguo.com\/cookbook\/2424449.html",
            "image" : "https:\/\/cp1.douguo.com\/upload\/caiku\/4\/0\/9\/40d0a21f286d3126daa37636053fd729.jpg",
            "qr_image" : "",
            "object_id" : "2424449",
            "mini_program" : [

            ],
            "channel" : "7"
          },
          {
            "channel" : "8",
            "s_u" : "http:\/\/m.douguo.com\/cookbook\/2424449.html",
            "object_id" : "2424449",
            "qr_image" : "",
            "image" : "https:\/\/cp1.douguo.com\/upload\/caiku\/4\/0\/9\/40d0a21f286d3126daa37636053fd729.jpg",
            "mini_program" : [

            ],
            "name" : "来一碗咖喱穿肠意大利面，爱上它-会做饭很酷!",
            "s_d" : "来一碗咖喱穿肠意大利面，爱上它-会做饭很酷!"
          }
        ],
        "image" : "https:\/\/cp1.douguo.com\/upload\/caiku\/4\/0\/9\/40d0a21f286d3126daa37636053fd729.jpg"
      },
      "sc" : 0,
      "bs" : [

      ],
      "title" : "来一碗咖喱穿肠意大利面，爱上它",
      "hq" : 1,
      "ssu" : "",
      "favo_counts_text" : "2251",
      "ipurl" : "",
      "ipit" : 0,
      "sr" : "",
      "guide_image" : "",
      "vfurl" : "",
      "dish_count" : 2,
      "original_photo_path" : "http:\/\/i1.douguo.net\/upload\/caiku\/4\/0\/9\/yuan_40d0a21f286d3126daa37636053fd729.jpg",
      "user" : {
        "qq_weibo_nick" : "",
        "userid" : "15632485",
        "coursecount" : 0,
        "setted_email" : 0,
        "regist_time" : "",
        "diaries_count" : 0,
        "verified_url" : "https:\/\/m.douguo.com\/user\/prodesc",
        "user_cover" : "",
        "following_count" : 0,
        "mobile" : "",
        "sign" : "",
        "lvl" : 5,
        "birthday" : "",
        "verified" : 0,
        "progress_image" : "",
        "age" : "",
        "user_id" : "15632485",
        "qzone_nick" : "",
        "is_prime" : 0,
        "favorites_count" : 0,
        "introduction" : "",
        "pc" : 0,
        "point" : 0,
        "subscription_article_count" : 0,
        "user_large_photo" : "http:\/\/tx1.douguo.net\/upload\/photo\/8\/1\/1\/yuan_u48612621607452094916.jpg",
        "avatar_medium" : "http:\/\/tx1.douguo.net\/upload\/photo\/8\/1\/1\/140_u48612621607452094916.jpg",
        "recipes_count" : 0,
        "gender" : 2,
        "email" : "",
        "location" : 0,
        "followers_count" : 0,
        "dishes_count" : 0,
        "lv" : 0,
        "verified_image" : "",
        "subscription" : 0,
        "favor_diaries_count" : 0,
        "weibo_nick" : "",
        "fc" : 0,
        "user_photo" : "http:\/\/tx1.douguo.net\/upload\/photo\/8\/1\/1\/70_u48612621607452094916.jpg",
        "nick" : "炖肉丸子"
      },
      "recommendation_tag" : "",
      "su" : "",
      "major" : [
        {
          "tu" : "https:\/\/m.douguo.com\/ingredients\/意大利面\/detailmaterial",
          "note" : "200克",
          "title" : "意大利面"
        },
        {
          "tu" : "https:\/\/m.douguo.com\/ingredients\/盐\/detailmaterial",
          "title" : "盐",
          "note" : "4克"
        },
        {
          "note" : "4块",
          "title" : "咖喱块"
        },
        {
          "tu" : "https:\/\/m.douguo.com\/ingredients\/火腿肠\/detailmaterial",
          "title" : "火腿肠",
          "note" : "2根"
        },
        {
          "tu" : "https:\/\/m.douguo.com\/ingredients\/洋葱\/detailmaterial",
          "note" : "半个",
          "title" : "洋葱"
        },
        {
          "tu" : "https:\/\/m.douguo.com\/ingredients\/豌豆\/detailmaterial",
          "note" : "100克",
          "title" : "豌豆"
        },
        {
          "title" : "土豆",
          "tu" : "https:\/\/m.douguo.com\/ingredients\/土豆\/detailmaterial",
          "note" : "2个"
        },
        {
          "title" : "胡萝卜",
          "tu" : "https:\/\/m.douguo.com\/ingredients\/胡萝卜\/detailmaterial",
          "note" : "1根"
        },
        {
          "note" : "适量",
          "tu" : "https:\/\/m.douguo.com\/ingredients\/橄榄油\/detailmaterial",
          "title" : "橄榄油"
        }
      ],
      "hqu" : "recipes:\/\/www.douguo.com\/notedetail?id=21162253",
      "rpid" : 0,
      "vc" : "353526",
      "packages_id" : [

      ],
      "recipe_list_tags" : [
        {
          "text" : "关注的人",
          "right_image" : "",
          "background_border_color" : "",
          "text_color" : "#141515",
          "jump_url" : "",
          "background_start_color" : "#F4F5F5",
          "background_end_color" : "#F4F5F5"
        },
        {
          "text" : "内容详细",
          "jump_url" : "",
          "right_image" : "",
          "background_start_color" : "#F4F5F5",
          "background_end_color" : "#F4F5F5",
          "background_border_color" : "",
          "text_color" : "#141515"
        }
      ],
      "recipe_tags" : [

      ],
      "tags" : [

      ],
      "rate_show" : 0,
      "ecs" : 1,
      "cook_difficulty_image" : "https:\/\/i1.douguo.com\/upload\/banner\/1551424390.png",
      "story_dsp" : [

      ],
      "favo_counts" : 2251,
      "rrps" : [

      ],
      "recommended" : 0,
      "pw" : 600,
      "ipoi" : "",
      "vu" : "",
      "ipt" : "",
      "comments_count" : 7,
      "cookwares" : [

      ],
      "cookstep" : [
        {
          "position" : 1,
          "content" : "灌肠。，把火腿肠切成小坨，然后把你要吃的意大利面分别穿进火腿肠。当然可能觉得我多事，可以不要这步",
          "thumb" : "https:\/\/i1.douguo.com\/upload\/caiku\/9\/1\/2\/140_9116d01709ab19cc2d65ca03032b3632.jpg",
          "frame" : "-1",
          "image_height" : 1707,
          "image" : "https:\/\/i1.douguo.com\/upload\/caiku\/9\/1\/2\/9116d01709ab19cc2d65ca03032b3632.jpg",
          "image_width" : 1280
        },
        {
          "frame" : "-1",
          "thumb" : "https:\/\/i1.douguo.com\/upload\/caiku\/8\/4\/4\/140_849cbf91f3e7446581b65dbe6a976454.jpg",
          "image" : "https:\/\/i1.douguo.com\/upload\/caiku\/8\/4\/4\/849cbf91f3e7446581b65dbe6a976454.jpg",
          "image_width" : 1280,
          "position" : 2,
          "image_height" : 960,
          "content" : "准备配菜。把洋葱切丝，胡萝卜土豆切滚刀块，豌豆洗净，咖喱块准备好，不过没吃到过辣咖喱，一直很想尝试。"
        },
        {
          "image" : "https:\/\/i1.douguo.com\/upload\/caiku\/8\/7\/9\/87fa22ac61f0c990282f3d3d4a317409.jpg",
          "content" : "煮意大利面。锅里烧水，加盐，水开后放进意大利面，煮6分钟。",
          "image_height" : 1707,
          "thumb" : "https:\/\/i1.douguo.com\/upload\/caiku\/8\/7\/9\/140_87fa22ac61f0c990282f3d3d4a317409.jpg",
          "position" : 3,
          "image_width" : 1280,
          "frame" : "-1"
        },
        {
          "image_height" : 1707,
          "thumb" : "https:\/\/i1.douguo.com\/upload\/caiku\/5\/4\/a\/140_54470e5ec030c581895e34a48e2884ea.jpg",
          "position" : 4,
          "image_width" : 1280,
          "content" : "别煮熟，把意大利面捞出。",
          "image" : "https:\/\/i1.douguo.com\/upload\/caiku\/5\/4\/a\/54470e5ec030c581895e34a48e2884ea.jpg",
          "frame" : "-1"
        },
        {
          "image_width" : 1280,
          "image_height" : 1707,
          "image" : "https:\/\/i1.douguo.com\/upload\/caiku\/3\/0\/0\/30d83b6040cd216fc1e1ef770843fb20.jpg",
          "content" : "炒。锅里加橄榄油，放入洋葱和2块咖喱块翻炒。",
          "thumb" : "https:\/\/i1.douguo.com\/upload\/caiku\/3\/0\/0\/140_30d83b6040cd216fc1e1ef770843fb20.jpg",
          "frame" : "-1",
          "position" : 5
        },
        {
          "image_width" : 800,
          "image" : "https:\/\/i1.douguo.com\/upload\/caiku\/3\/d\/c\/3dbdcfa5514e78650a2cb6f42ca63b0c.jpg",
          "content" : "把土豆，胡萝卜，豌豆放进锅里翻炒，然后加水，煮至胡萝卜基本熟，下意大利面在煮一下，都熟了后，进行下一步。",
          "position" : 6,
          "frame" : "-1",
          "thumb" : "https:\/\/i1.douguo.com\/upload\/caiku\/3\/d\/c\/140_3dbdcfa5514e78650a2cb6f42ca63b0c.jpg",
          "image_height" : 1067
        },
        {
          "image" : "https:\/\/i1.douguo.com\/upload\/caiku\/2\/8\/5\/2848931219f46f0406d0a2db67366525.jpg",
          "frame" : "-1",
          "image_width" : 1280,
          "content" : "最后放两块咖喱收汁。小火搅拌至咖喱全化，然后翻炒均匀。",
          "position" : 7,
          "thumb" : "https:\/\/i1.douguo.com\/upload\/caiku\/2\/8\/5\/140_2848931219f46f0406d0a2db67366525.jpg",
          "image_height" : 1707
        },
        {
          "image" : "https:\/\/i1.douguo.com\/upload\/caiku\/0\/3\/2\/03604a34b29da9c14b38e968d17e8fc2.jpg",
          "thumb" : "https:\/\/i1.douguo.com\/upload\/caiku\/0\/3\/2\/140_03604a34b29da9c14b38e968d17e8fc2.jpg",
          "content" : "出品。铛铛铛，真的超赞，对咖喱极其爱好的我，把它吃光了，你呢？",
          "image_width" : 1280,
          "frame" : "-1",
          "image_height" : 1707,
          "position" : 8
        }
      ],
      "cookstory" : "一直做的最多就是番茄肉酱意大利面，这次终于有突破，换了，味道和成品颜值都很在线，感觉可以喊外面店家推出这个口味，超简单，，咖喱饭不只是咖喱饭了快试试",
      "first_level_comment_count" : 4,
      "cook_time_image" : "https:\/\/i1.douguo.com\/upload\/banner\/1551424318.png",
      "collect_status" : 0,
      "comments_count_text" : "7",
      "minor" : [

      ],
      "recent_comments" : [

      ],
      "recommend_label" : "2人学做",
      "views_count_text" : "35.4万",
      "brand_day_dsp" : [

      ],
      "author" : "炖肉丸子",
      "related_ads" : [

      ],
      "ipci" : "",
      "notes" : [

      ],
      "rsm" : "该功能暂停使用",
      "rate" : 5,
      "old_comments" : [

      ],
      "mid_mdsp" : [

      ],
      "rcs" : [

      ],
      "clicks" : "333974",
      "dishes" : [

      ],
      "author_id" : 15632485,
      "thumb_height" : 0,
      "v_u" : "",
      "author_verified" : 0,
      "rips" : 0,
      "rrpt" : "",
      "author_photo" : "http:\/\/tx1.douguo.net\/upload\/photo\/8\/1\/1\/70_u48612621607452094916.jpg",
      "rpt" : "",
      "top_mdsp" : [

      ],
      "comments" : [
        "{\n    ac = \"#999999\";\n    at = \"\";\n    ccc = 1;\n    \"child_comments\" =     (\n                {\n            ac = \"#999999\";\n            at = \"\\U91cd\\U5e86\\U5e02\";\n            ccc = 0;\n            city = \"\\U91cd\\U5e86\\U5e02\";\n            cmc = 2;\n            content =             (\n                                {\n                    c = \" \\U662f\\U7684\\Uff0c\\U8d85\\U7b80\\U5355\\Ud83d\\Ude1c\";\n                }\n            );\n            ia = 1;\n            id = 7752505;\n            \"ip_address_location\" = \"\";\n            like = 0;\n            \"like_count\" = 0;\n            \"reply_id\" = 7751877;\n            \"reply_user\" =             {\n                \"followers_count_text\" = \"\";\n                id = 24635256;\n                \"is_prime\" = 0;\n                lv = 0;\n                lvl = 1;\n                n = \"\\U7eff\\U53f6ogsqy\";\n                p = \"http:\/\/tx1.douguo.net\/upload\/photo\/c\/0\/a\/70_u73512222760067210743.jpg\";\n                \"progress_image\" = \"\";\n                \"recipes_count_text\" = \"\";\n                relationship = \"-1\";\n                title = \"\";\n                v = 0;\n                \"verified_image\" = \"\";\n            };\n            \"sticker_icon\" =             (\n            );\n            time = \"2020-03-07 16:06:40\";\n            u =             {\n                \"followers_count_text\" = \"\";\n                id = 15632485;\n                \"is_prime\" = 0;\n                lv = 0;\n                lvl = 5;\n                n = \"\\U7096\\U8089\\U4e38\\U5b50\";\n                p = \"http:\/\/tx1.douguo.net\/upload\/photo\/8\/1\/1\/70_u48612621607452094916.jpg\";\n                \"progress_image\" = \"\";\n                \"recipes_count_text\" = \"\";\n                relationship = \"-1\";\n                title = \"\";\n                v = 0;\n                \"verified_image\" = \"\";\n            };\n        }\n    );\n    city = \"\";\n    cmc = 2;\n    content =     (\n                {\n            c = \"\\U7b80\\U5355\\U5feb\\U624b~\";\n        }\n    );\n    ia = 0;\n    id = 7751877;\n    \"ip_address_location\" = \"\";\n    like = 0;\n    \"like_count\" = 0;\n    \"reply_id\" = 0;\n    \"sticker_icon\" =     (\n    );\n    time = \"2020-03-07 15:08:35\";\n    u =     {\n        \"followers_count_text\" = \"\";\n        id = 24635256;\n        \"is_prime\" = 0;\n        lv = 0;\n        lvl = 1;\n        n = \"\\U7eff\\U53f6ogsqy\";\n        p = \"http:\/\/tx1.douguo.net\/upload\/photo\/c\/0\/a\/70_u73512222760067210743.jpg\";\n        \"progress_image\" = \"\";\n        \"recipes_count_text\" = \"\";\n        relationship = \"-1\";\n        title = \"\";\n        v = 0;\n        \"verified_image\" = \"\";\n    };\n}",
        "{\n    ac = \"#999999\";\n    at = \"\\U6df1\\U5733\\U5e02\";\n    ccc = 1;\n    \"child_comments\" =     (\n                {\n            ac = \"#999999\";\n            at = \"\";\n            ccc = 0;\n            city = \"\";\n            cmc = 2;\n            content =             (\n                                {\n                    c = \" \\U5df2\\U505a\\Uff0c\\U6ca1\\U52a0\\U9999\\U80a0\\Uff0c\\U4e0d\\U8fc7\\U8d85\\U7ea7\\U597d\\U5403\\Ud83d\\Ude0b\";\n                }\n            );\n            ia = 0;\n            id = 8918835;\n            \"ip_address_location\" = \"\";\n            like = 0;\n            \"like_count\" = 0;\n            \"reply_id\" = 8181619;\n            \"reply_user\" =             {\n                \"followers_count_text\" = \"\";\n                id = 16155114;\n                \"is_prime\" = 0;\n                lv = 0;\n                lvl = 1;\n                n = \"\\U9662\\U957f\\U968f\\U98ce\\U98d8\\U6447\";\n                p = \"\";\n                \"progress_image\" = \"\";\n                \"recipes_count_text\" = \"\";\n                relationship = \"-1\";\n                title = \"\";\n                v = 0;\n                \"verified_image\" = \"\";\n            };\n            \"sticker_icon\" =             (\n            );\n            time = \"2022-02-27 18:34:12\";\n            u =             {\n                \"followers_count_text\" = \"\";\n                id = 27128947;\n                \"is_prime\" = 0;\n                lv = 0;\n                lvl = 1;\n                n = \"\\U5446\\U5446\\U7684\\U849c\\U82d7\\U5f88\\U4e0d\\U7231\\U5403\";\n                p = \"http:\/\/tx1.douguo.net\/upload\/photo\/1\/1\/1\/70_36e82d2839518d8228210e4227bf623d.png\";\n                \"progress_image\" = \"\";\n                \"recipes_count_text\" = \"\";\n                relationship = \"-1\";\n                title = \"\";\n                v = 0;\n                \"verified_image\" = \"\";\n            };\n        }\n    );\n    city = \"\\U6df1\\U5733\\U5e02\";\n    cmc = 2;\n    content =     (\n                {\n            c = \"\\U5389\\U5bb3\\U4e86\";\n        }\n    );\n    ia = 0;\n    id = 8181619;\n    \"ip_address_location\" = \"\";\n    like = 0;\n    \"like_count\" = 0;\n    \"reply_id\" = 0;\n    \"sticker_icon\" =     (\n    );\n    time = \"2020-08-03 18:52:25\";\n    u =     {\n        \"followers_count_text\" = \"\";\n        id = 16155114;\n        \"is_prime\" = 0;\n        lv = 0;\n        lvl = 1;\n        n = \"\\U9662\\U957f\\U968f\\U98ce\\U98d8\\U6447\";\n        p = \"\";\n        \"progress_image\" = \"\";\n        \"recipes_count_text\" = \"\";\n        relationship = \"-1\";\n        title = \"\";\n        v = 0;\n        \"verified_image\" = \"\";\n    };\n}",
        "{\n    ac = \"#999999\";\n    at = \"\\U53f0\\U5dde\\U5e02\";\n    ccc = 0;\n    \"child_comments\" =     (\n    );\n    city = \"\\U53f0\\U5dde\\U5e02\";\n    cmc = 2;\n    content =     (\n                {\n            c = \"\\U521b\\U610f\\U5f88\\U597d\\Uff0c\\U9999\\U80a0\\U91cc\\U9762\\U7684\\U9762\\U8fd8\\U662f\\U751f\\U7684\";\n        }\n    );\n    ia = 0;\n    id = 8255628;\n    \"ip_address_location\" = \"\";\n    like = 0;\n    \"like_count\" = 1;\n    \"reply_id\" = 0;\n    \"sticker_icon\" =     (\n    );\n    time = \"2020-09-19 11:45:49\";\n    u =     {\n        \"followers_count_text\" = \"\";\n        id = 4262181;\n        \"is_prime\" = 0;\n        lv = 0;\n        lvl = 3;\n        n = lrz19821006;\n        p = \"http:\/\/tx1.douguo.net\/upload\/photo\/3\/6\/b\/70_u97827627213923183019.jpg\";\n        \"progress_image\" = \"\";\n        \"recipes_count_text\" = \"\";\n        relationship = \"-1\";\n        title = \"\";\n        v = 0;\n        \"verified_image\" = \"\";\n    };\n}"
      ],
      "rdsps" : [

      ],
      "cookstorys" : [
        {
          "id" : 0,
          "color" : "",
          "type" : 0,
          "u" : "",
          "icon" : "",
          "c" : "一直做的最多就是番茄肉酱意大利面，这次终于有突破，换了，味道和成品颜值都很在线，感觉可以喊外面店家推出这个口味，超简单，，咖喱饭不只是咖喱饭了快试试"
        }
      ]
    }
  },
  "state" : "success",
  "status" : 0
}