{
  "status" : 0,
  "result" : {
    "recipe" : {
      "cook_difficulty" : "",
      "old_comments" : [

      ],
      "ipit" : 0,
      "cook_time" : "",
      "ipt" : "",
      "ph" : 1080,
      "recent_comments" : [

      ],
      "purl" : "",
      "recipe_list_tags" : [
        {
          "background_start_color" : "#F4F5F5",
          "text_color" : "#141515",
          "text" : "关注的人",
          "background_border_color" : "",
          "background_end_color" : "#F4F5F5",
          "jump_url" : "",
          "right_image" : ""
        }
      ],
      "vfurl" : "",
      "cookstep" : [
        {
          "thumb" : "https:\/\/i1.douguo.com\/upload\/caiku\/c\/c\/2\/140_cce6bc94d41a56f053177f09cad613d2.jpeg",
          "image" : "https:\/\/i1.douguo.com\/upload\/caiku\/c\/c\/2\/cce6bc94d41a56f053177f09cad613d2.jpeg",
          "frame" : "-1",
          "image_width" : 1280,
          "image_height" : 960,
          "position" : 1,
          "content" : "藕切片，葱姜切末备用。"
        },
        {
          "image_width" : 1280,
          "frame" : "-1",
          "thumb" : "https:\/\/i1.douguo.com\/upload\/caiku\/d\/2\/2\/140_d2d5d8e23a0933e6a92ce0c2e9b3c692.jpeg",
          "image" : "https:\/\/i1.douguo.com\/upload\/caiku\/d\/2\/2\/d2d5d8e23a0933e6a92ce0c2e9b3c692.jpeg",
          "image_height" : 960,
          "position" : 2,
          "content" : "热锅热油。"
        },
        {
          "position" : 3,
          "frame" : "-1",
          "image_height" : 959,
          "image" : "https:\/\/i1.douguo.com\/upload\/caiku\/e\/6\/c\/e6ec45ac8594bb8501fe28d4da5ece6c.jpeg",
          "image_width" : 1280,
          "thumb" : "https:\/\/i1.douguo.com\/upload\/caiku\/e\/6\/c\/140_e6ec45ac8594bb8501fe28d4da5ece6c.jpeg",
          "content" : "放入姜末和葱白炒出香味。"
        },
        {
          "image_width" : 1280,
          "content" : "倒入藕片，放入盐，生抽，醋，鸡精。",
          "image_height" : 960,
          "image" : "https:\/\/i1.douguo.com\/upload\/caiku\/9\/7\/7\/97c14b3b9ae5081bd3a3d49726f89df7.jpeg",
          "frame" : "-1",
          "position" : 4,
          "thumb" : "https:\/\/i1.douguo.com\/upload\/caiku\/9\/7\/7\/140_97c14b3b9ae5081bd3a3d49726f89df7.jpeg"
        },
        {
          "content" : "加入少许水，放入葱叶，大火炒至汤汁快收干。",
          "frame" : "-1",
          "image" : "https:\/\/i1.douguo.com\/upload\/caiku\/b\/6\/1\/b6f5275de5a1c0c2da85049065e1c581.jpeg",
          "thumb" : "https:\/\/i1.douguo.com\/upload\/caiku\/b\/6\/1\/140_b6f5275de5a1c0c2da85049065e1c581.jpeg",
          "position" : 5,
          "image_width" : 1280,
          "image_height" : 960
        },
        {
          "image" : "https:\/\/i1.douguo.com\/upload\/caiku\/b\/d\/6\/bd33e7145e0d9d22f3f61036fae90126.jpeg",
          "frame" : "-1",
          "position" : 6,
          "content" : "出锅。",
          "image_width" : 1280,
          "thumb" : "https:\/\/i1.douguo.com\/upload\/caiku\/b\/d\/6\/140_bd33e7145e0d9d22f3f61036fae90126.jpeg",
          "image_height" : 960
        }
      ],
      "ipurl" : "",
      "rrpt" : "",
      "author" : "牛儿妈咪爱做饭",
      "top_mdsp" : [

      ],
      "ssu" : "",
      "recommendation_tag" : "",
      "cookwares" : [

      ],
      "thumb_height" : 0,
      "collect_status" : 0,
      "cook_id" : "2338718",
      "v_u" : "",
      "hqu" : "recipes:\/\/www.douguo.com\/notedetail?id=21162253",
      "dish_count" : 28,
      "recommended" : 0,
      "story_dsp" : [

      ],
      "ecs" : 1,
      "tips" : "1.藕越嫩越好。",
      "vc" : "5654307",
      "advice" : {
        "has" : [
          {
            "url" : "recipes:\/\/www.douguo.com\/simplerecipelist?t=低饱和脂肪&id=低饱和脂肪",
            "t" : "低饱和脂肪"
          },
          {
            "url" : "recipes:\/\/www.douguo.com\/simplerecipelist?t=富含铁&id=富含铁",
            "t" : "富含铁"
          }
        ],
        "da" : {
          "t" : "查看详细分析",
          "url" : "https:\/\/m.douguo.com\/recipe\/nutrient_self\/2338718",
          "iu" : "https:\/\/i1.douguo.com\/upload\/banner\/f\/4\/d\/f48877e53c37759bc12ac494be82ec8d.png"
        },
        "at" : "对血管有保护作用～"
      },
      "rpid" : 0,
      "guide_image" : "",
      "minor" : [

      ],
      "ipoi" : "",
      "image" : "http:\/\/i1.douguo.net\/upload\/caiku\/d\/a\/e\/300_daba26e06ad1fb1d28e0e3f69200c5ae.jpeg",
      "rate" : 5,
      "clicks" : "5384486",
      "cookstory" : "",
      "rips" : 0,
      "dish_count_text" : "28",
      "ipia" : [

      ],
      "related_ads" : [

      ],
      "major" : [
        {
          "note" : "1节（约400克）",
          "title" : "藕",
          "tu" : "https:\/\/m.douguo.com\/ingredients\/藕\/detailmaterial"
        },
        {
          "tu" : "https:\/\/m.douguo.com\/ingredients\/姜片\/detailmaterial",
          "note" : "3片",
          "title" : "姜片"
        },
        {
          "note" : "3根",
          "title" : "葱",
          "tu" : "https:\/\/m.douguo.com\/ingredients\/葱\/detailmaterial"
        },
        {
          "tu" : "https:\/\/m.douguo.com\/ingredients\/生抽\/detailmaterial",
          "note" : "半勺",
          "title" : "生抽"
        },
        {
          "note" : "半勺",
          "title" : "醋",
          "tu" : "https:\/\/m.douguo.com\/ingredients\/醋\/detailmaterial"
        },
        {
          "title" : "盐",
          "tu" : "https:\/\/m.douguo.com\/ingredients\/盐\/detailmaterial",
          "note" : "半勺"
        },
        {
          "note" : "半勺",
          "title" : "鸡精",
          "tu" : "https:\/\/m.douguo.com\/ingredients\/鸡精\/detailmaterial"
        },
        {
          "title" : "油",
          "tu" : "https:\/\/m.douguo.com\/ingredients\/油\/detailmaterial",
          "note" : "两勺"
        }
      ],
      "packages_id" : [

      ],
      "sc" : 0,
      "recipe_tags" : [

      ],
      "cookstorys" : [

      ],
      "share_info" : {
        "name" : "清炒藕片-会做饭很酷!",
        "qr_image" : "",
        "s_d" : "清炒藕片-会做饭很酷!",
        "object_id" : "2338718",
        "infos" : [
          {
            "object_id" : "2338718",
            "image" : "https:\/\/cp1.douguo.com\/upload\/caiku\/d\/a\/e\/daba26e06ad1fb1d28e0e3f69200c5ae.jpeg",
            "s_u" : "",
            "qr_image" : "",
            "channel" : "1",
            "mini_program" : [

            ],
            "name" : "清炒藕片-会做饭很酷!",
            "s_d" : "#学做饭用豆果美食# 会做饭真是太酷了！我在@豆果美食 分享了【清炒藕片-会做饭很酷!】，看着是不是馋到不行呢～快来跟我学学吧！查看图片了解菜谱，（想要获取更多美食就看这https:\/\/m.weibo.cn\/p\/100404i33631）"
          },
          {
            "s_d" : "清炒藕片-会做饭很酷!",
            "object_id" : "2338718",
            "image" : "https:\/\/cp1.douguo.com\/upload\/caiku\/d\/a\/e\/daba26e06ad1fb1d28e0e3f69200c5ae.jpeg",
            "mini_program" : [

            ],
            "s_u" : "http:\/\/m.douguo.com\/cookbook\/2338718.html",
            "channel" : "7",
            "qr_image" : "",
            "name" : "清炒藕片-会做饭很酷!"
          },
          {
            "image" : "https:\/\/cp1.douguo.com\/upload\/caiku\/d\/a\/e\/daba26e06ad1fb1d28e0e3f69200c5ae.jpeg",
            "channel" : "8",
            "object_id" : "2338718",
            "mini_program" : [

            ],
            "s_u" : "http:\/\/m.douguo.com\/cookbook\/2338718.html",
            "qr_image" : "",
            "name" : "清炒藕片-会做饭很酷!",
            "s_d" : "清炒藕片-会做饭很酷!"
          }
        ],
        "mini_program" : [

        ],
        "s_u" : "http:\/\/m.douguo.com\/cookbook\/2338718.html",
        "image" : "https:\/\/cp1.douguo.com\/upload\/caiku\/d\/a\/e\/daba26e06ad1fb1d28e0e3f69200c5ae.jpeg"
      },
      "thumb_path" : "https:\/\/i1.douguo.com\/upload\/caiku\/d\/a\/e\/300_daba26e06ad1fb1d28e0e3f69200c5ae.jpeg",
      "eu" : "recipes:\/\/www.douguo.com\/postdetail?id=242016",
      "rpst" : "",
      "pw" : 1440,
      "views_count_text" : "565.4万",
      "recommend_label" : "28人学做",
      "author_id" : 16345074,
      "bs" : [

      ],
      "favo_counts_text" : "2.6万",
      "brand_day_dsp" : [

      ],
      "notes" : [

      ],
      "comments_count_text" : "29",
      "levelid" : 3,
      "rate_show" : 1,
      "title_ad" : [

      ],
      "comments" : [
        "{\n    ac = \"#999999\";\n    at = \"\";\n    ccc = 1;\n    \"child_comments\" =     (\n                {\n            ac = \"#999999\";\n            at = \"\\U6b66\\U6c49\\U5e02\";\n            ccc = 0;\n            city = \"\\U6b66\\U6c49\\U5e02\";\n            cmc = 2;\n            content =             (\n                                {\n                    c = \" \\U597d\\U54a7\\Ud83d\\Ude1c\";\n                }\n            );\n            ia = 1;\n            id = 7035160;\n            \"ip_address_location\" = \"\";\n            like = 0;\n            \"like_count\" = 0;\n            \"reply_id\" = 7024465;\n            \"reply_user\" =             {\n                \"followers_count_text\" = \"\";\n                id = 18532959;\n                \"is_prime\" = 0;\n                lv = 0;\n                lvl = 4;\n                n = \"\\U6bdb\\U513f\\U7231\\U679c\\U5b50\";\n                p = \"http:\/\/tx1.douguo.net\/upload\/photo\/f\/e\/a\/70_u19053532750710408205430.jpg\";\n                \"progress_image\" = \"\";\n                \"recipes_count_text\" = \"\";\n                relationship = \"-1\";\n                title = \"\";\n                v = 0;\n                \"verified_image\" = \"\";\n            };\n            \"sticker_icon\" =             (\n            );\n            time = \"2019-09-09 20:45:18\";\n            u =             {\n                \"followers_count_text\" = \"\";\n                id = 16345074;\n                \"is_prime\" = 0;\n                lv = 0;\n                lvl = 6;\n                n = \"\\U725b\\U513f\\U5988\\U54aa\\U7231\\U505a\\U996d\";\n                p = \"http:\/\/tx1.douguo.net\/upload\/photo\/b\/0\/3\/70_u53553943488505134150.jpeg\";\n                \"progress_image\" = \"\";\n                \"recipes_count_text\" = \"\";\n                relationship = \"-1\";\n                title = \"\";\n                v = 0;\n                \"verified_image\" = \"\";\n            };\n        }\n    );\n    city = \"\";\n    cmc = 2;\n    content =     (\n                {\n            c = \"\\U770b\\U7740\\U771f\\U6709\\U98df\\U6b32\\Uff0c\\U6709\\U65f6\\U95f4\\U6211\\U4e5f\\U53bb\\U505a\\U4e00\\U4e0b\";\n        }\n    );\n    ia = 0;\n    id = 7024465;\n    \"ip_address_location\" = \"\";\n    like = 0;\n    \"like_count\" = 1;\n    \"reply_id\" = 0;\n    \"sticker_icon\" =     (\n    );\n    time = \"2019-09-07 14:10:34\";\n    u =     {\n        \"followers_count_text\" = \"\";\n        id = 18532959;\n        \"is_prime\" = 0;\n        lv = 0;\n        lvl = 4;\n        n = \"\\U6bdb\\U513f\\U7231\\U679c\\U5b50\";\n        p = \"http:\/\/tx1.douguo.net\/upload\/photo\/f\/e\/a\/70_u19053532750710408205430.jpg\";\n        \"progress_image\" = \"\";\n        \"recipes_count_text\" = \"\";\n        relationship = \"-1\";\n        title = \"\";\n        v = 0;\n        \"verified_image\" = \"\";\n    };\n}",
        "{\n    ac = \"#999999\";\n    at = \"\\U6dee\\U5b89\\U5e02\";\n    ccc = 1;\n    \"child_comments\" =     (\n                {\n            ac = \"#999999\";\n            at = \"\\U6b66\\U6c49\\U5e02\";\n            ccc = 0;\n            city = \"\\U6b66\\U6c49\\U5e02\";\n            cmc = 2;\n            content =             (\n                                {\n                    c = \" \\U6211\\U7528\\U7684\\U662f\\U9999\\U918b\\Ud83d\\Ude00\";\n                }\n            );\n            ia = 1;\n            id = 7791580;\n            \"ip_address_location\" = \"\";\n            like = 0;\n            \"like_count\" = 0;\n            \"reply_id\" = 7783078;\n            \"reply_user\" =             {\n                \"followers_count_text\" = \"\";\n                id = 24792411;\n                \"is_prime\" = 0;\n                lv = 0;\n                lvl = 1;\n                n = \"\\U4e3b\\U52a8\\U5fb7\";\n                p = \"http:\/\/tx1.douguo.net\/upload\/photo\/1\/1\/1\/70_6a99cb588b890f75d8fd8b385347c2b5.png\";\n                \"progress_image\" = \"\";\n                \"recipes_count_text\" = \"\";\n                relationship = \"-1\";\n                title = \"\";\n                v = 0;\n                \"verified_image\" = \"\";\n            };\n            \"sticker_icon\" =             (\n            );\n            time = \"2020-03-18 14:50:35\";\n            u =             {\n                \"followers_count_text\" = \"\";\n                id = 16345074;\n                \"is_prime\" = 0;\n                lv = 0;\n                lvl = 6;\n                n = \"\\U725b\\U513f\\U5988\\U54aa\\U7231\\U505a\\U996d\";\n                p = \"http:\/\/tx1.douguo.net\/upload\/photo\/b\/0\/3\/70_u53553943488505134150.jpeg\";\n                \"progress_image\" = \"\";\n                \"recipes_count_text\" = \"\";\n                relationship = \"-1\";\n                title = \"\";\n                v = 0;\n                \"verified_image\" = \"\";\n            };\n        }\n    );\n    city = \"\\U6dee\\U5b89\\U5e02\";\n    cmc = 2;\n    content =     (\n                {\n            c = \"\\U8bf7\\U95ee \\U918b\\U662f\\U767d\\U918b\\U8fd8\\U662f\\U9999\\U918b\\U554a\";\n        }\n    );\n    ia = 0;\n    id = 7783078;\n    \"ip_address_location\" = \"\";\n    like = 0;\n    \"like_count\" = 0;\n    \"reply_id\" = 0;\n    \"sticker_icon\" =     (\n    );\n    time = \"2020-03-15 19:11:49\";\n    u =     {\n        \"followers_count_text\" = \"\";\n        id = 24792411;\n        \"is_prime\" = 0;\n        lv = 0;\n        lvl = 1;\n        n = \"\\U4e3b\\U52a8\\U5fb7\";\n        p = \"http:\/\/tx1.douguo.net\/upload\/photo\/1\/1\/1\/70_6a99cb588b890f75d8fd8b385347c2b5.png\";\n        \"progress_image\" = \"\";\n        \"recipes_count_text\" = \"\";\n        relationship = \"-1\";\n        title = \"\";\n        v = 0;\n        \"verified_image\" = \"\";\n    };\n}",
        "{\n    ac = \"#999999\";\n    at = \"\";\n    ccc = 1;\n    \"child_comments\" =     (\n                {\n            ac = \"#999999\";\n            at = \"\\U6b66\\U6c49\\U5e02\";\n            ccc = 0;\n            city = \"\\U6b66\\U6c49\\U5e02\";\n            cmc = 2;\n            content =             (\n                                {\n                    c = \" \\U54c8\\U54c8\\U54c8\\Uff0c\\U8c22\\U8c22\\Ud83d\\Ude4f\";\n                }\n            );\n            ia = 1;\n            id = 7035159;\n            \"ip_address_location\" = \"\";\n            like = 0;\n            \"like_count\" = 0;\n            \"reply_id\" = 7024470;\n            \"reply_user\" =             {\n                \"followers_count_text\" = \"\";\n                id = 18465405;\n                \"is_prime\" = 0;\n                lv = 0;\n                lvl = 4;\n                n = \"\\U9ea6\\U9ea6\\U70d8\\U7119\";\n                p = \"http:\/\/tx1.douguo.net\/upload\/photo\/6\/e\/3\/70_u12323338166850408140907.jpg\";\n                \"progress_image\" = \"\";\n                \"recipes_count_text\" = \"\";\n                relationship = \"-1\";\n                title = \"\";\n                v = 0;\n                \"verified_image\" = \"\";\n            };\n            \"sticker_icon\" =             (\n            );\n            time = \"2019-09-09 20:44:57\";\n            u =             {\n                \"followers_count_text\" = \"\";\n                id = 16345074;\n                \"is_prime\" = 0;\n                lv = 0;\n                lvl = 6;\n                n = \"\\U725b\\U513f\\U5988\\U54aa\\U7231\\U505a\\U996d\";\n                p = \"http:\/\/tx1.douguo.net\/upload\/photo\/b\/0\/3\/70_u53553943488505134150.jpeg\";\n                \"progress_image\" = \"\";\n                \"recipes_count_text\" = \"\";\n                relationship = \"-1\";\n                title = \"\";\n                v = 0;\n                \"verified_image\" = \"\";\n            };\n        }\n    );\n    city = \"\";\n    cmc = 2;\n    content =     (\n                {\n            c = \"\\U7231\\U505a\\U996d\\U7684\\U4eba\\U771f\\U597d~\";\n        }\n    );\n    ia = 0;\n    id = 7024470;\n    \"ip_address_location\" = \"\";\n    like = 0;\n    \"like_count\" = 0;\n    \"reply_id\" = 0;\n    \"sticker_icon\" =     (\n    );\n    time = \"2019-09-07 14:11:51\";\n    u =     {\n        \"followers_count_text\" = \"\";\n        id = 18465405;\n        \"is_prime\" = 0;\n        lv = 0;\n        lvl = 4;\n        n = \"\\U9ea6\\U9ea6\\U70d8\\U7119\";\n        p = \"http:\/\/tx1.douguo.net\/upload\/photo\/6\/e\/3\/70_u12323338166850408140907.jpg\";\n        \"progress_image\" = \"\";\n        \"recipes_count_text\" = \"\";\n        relationship = \"-1\";\n        title = \"\";\n        v = 0;\n        \"verified_image\" = \"\";\n    };\n}"
      ],
      "photo_path" : "https:\/\/i1.douguo.com\/upload\/caiku\/d\/a\/e\/600_daba26e06ad1fb1d28e0e3f69200c5ae.jpeg",
      "rewarded_video_dsp" : [

      ],
      "ss" : [

      ],
      "ipci" : "",
      "release_time" : "",
      "rcs" : [

      ],
      "sr" : "",
      "cook_time_image" : "",
      "vu" : "",
      "favo_counts" : 25844,
      "rpt" : "",
      "display_ingredient" : 1,
      "first_level_comment_count" : 18,
      "rate_count" : 25,
      "author_verified" : 0,
      "su" : "",
      "mid_mdsp" : [

      ],
      "cook_difficulty_image" : "",
      "btm_dsp" : [

      ],
      "rsm" : "该功能暂停使用",
      "rdsps" : [

      ],
      "act_des" : "",
      "comments_count" : 29,
      "create_time" : "2019-09-03 22:03:36",
      "user" : {
        "recipes_count" : 0,
        "user_large_photo" : "http:\/\/tx1.douguo.net\/upload\/photo\/b\/0\/3\/yuan_u53553943488505134150.jpeg",
        "fc" : 0,
        "favor_diaries_count" : 0,
        "subscription" : 0,
        "user_photo" : "http:\/\/tx1.douguo.net\/upload\/photo\/b\/0\/3\/70_u53553943488505134150.jpeg",
        "mobile" : "",
        "verified_image" : "",
        "location" : 0,
        "email" : "",
        "nick" : "牛儿妈咪爱做饭",
        "setted_email" : 0,
        "coursecount" : 0,
        "user_id" : "16345074",
        "qzone_nick" : "",
        "verified" : 0,
        "lv" : 0,
        "introduction" : "",
        "verified_url" : "https:\/\/m.douguo.com\/user\/prodesc",
        "point" : 0,
        "dishes_count" : 0,
        "gender" : 2,
        "diaries_count" : 0,
        "is_prime" : 0,
        "followers_count" : 0,
        "weibo_nick" : "",
        "qq_weibo_nick" : "",
        "avatar_medium" : "http:\/\/tx1.douguo.net\/upload\/photo\/b\/0\/3\/140_u53553943488505134150.jpeg",
        "user_cover" : "",
        "regist_time" : "",
        "age" : "",
        "favorites_count" : 0,
        "following_count" : 0,
        "birthday" : "",
        "pc" : 0,
        "progress_image" : "",
        "userid" : "16345074",
        "lvl" : 6,
        "subscription_article_count" : 0,
        "sign" : ""
      },
      "tags" : [

      ],
      "title" : "清炒藕片",
      "dishes" : [

      ],
      "hq" : 0,
      "author_photo" : "http:\/\/tx1.douguo.net\/upload\/photo\/b\/0\/3\/70_u53553943488505134150.jpeg",
      "original_photo_path" : "http:\/\/i1.douguo.net\/upload\/caiku\/d\/a\/e\/yuan_daba26e06ad1fb1d28e0e3f69200c5ae.jpeg",
      "rrps" : [

      ]
    }
  },
  "state" : "success"
}