{
  "status" : 0,
  "result" : {
    "recipe" : {
      "rpst" : "",
      "collect_status" : 0,
      "dishes" : [

      ],
      "author" : "雨润海棠",
      "tips" : "鹅蛋煮熟后用凉水泡一会容易去壳",
      "rrps" : [

      ],
      "tags" : [

      ],
      "ipci" : "",
      "ssu" : "",
      "major" : [
        {
          "tu" : "https:\/\/m.douguo.com\/ingredients\/鹅蛋\/detailmaterial",
          "title" : "鹅蛋",
          "note" : "2个"
        },
        {
          "tu" : "https:\/\/m.douguo.com\/ingredients\/西红柿\/detailmaterial",
          "note" : "200g",
          "title" : "西红柿"
        },
        {
          "tu" : "https:\/\/m.douguo.com\/ingredients\/香油\/detailmaterial",
          "title" : "香油",
          "note" : "10ml"
        },
        {
          "tu" : "https:\/\/m.douguo.com\/ingredients\/葱\/detailmaterial",
          "title" : "葱",
          "note" : "20g"
        },
        {
          "title" : "香菜",
          "note" : "20g",
          "tu" : "https:\/\/m.douguo.com\/ingredients\/香菜\/detailmaterial"
        },
        {
          "title" : "柠檬沙拉汁",
          "note" : "15ml"
        },
        {
          "title" : "胡萝卜",
          "note" : "10g",
          "tu" : "https:\/\/m.douguo.com\/ingredients\/胡萝卜\/detailmaterial"
        },
        {
          "tu" : "https:\/\/m.douguo.com\/ingredients\/黑芝麻\/detailmaterial",
          "title" : "黑芝麻",
          "note" : "少量"
        },
        {
          "title" : "白芝麻",
          "note" : "少量",
          "tu" : "https:\/\/m.douguo.com\/ingredients\/白芝麻\/detailmaterial"
        }
      ],
      "guide_image" : "",
      "first_level_comment_count" : 15,
      "rcs" : [

      ],
      "hqu" : "recipes:\/\/www.douguo.com\/notedetail?id=21162253",
      "notes" : [

      ],
      "author_photo" : "http:\/\/tx1.douguo.net\/upload\/photo\/f\/f\/9\/70_u32204152604041053209.jpg",
      "ph" : 600,
      "rpt" : "",
      "old_comments" : [

      ],
      "cook_id" : "1436169",
      "mid_mdsp" : [

      ],
      "comments_count_text" : "15",
      "btm_dsp" : [

      ],
      "favo_counts_text" : "129",
      "sr" : "",
      "pw" : 800,
      "recipe_list_tags" : [
        {
          "right_image" : "",
          "background_end_color" : "#F4F5F5",
          "background_border_color" : "",
          "text_color" : "#141515",
          "jump_url" : "",
          "background_start_color" : "#F4F5F5",
          "text" : "关注的人"
        },
        {
          "jump_url" : "",
          "text" : "内容详细",
          "text_color" : "#141515",
          "right_image" : "",
          "background_start_color" : "#F4F5F5",
          "background_border_color" : "",
          "background_end_color" : "#F4F5F5"
        }
      ],
      "recommended" : 0,
      "rdsps" : [

      ],
      "ipurl" : "",
      "create_time" : "2016-08-25 20:03:54",
      "image" : "http:\/\/i1.douguo.net\/upload\/caiku\/0\/6\/b\/300_066c9785a5ea4502214503caed2239ab.jpg",
      "cook_difficulty_image" : "https:\/\/i1.douguo.com\/upload\/banner\/1551424390.png",
      "recommend_label" : "1人学做",
      "cookstory" : "鹅蛋的营养价值很高，煮熟后拌着吃美味极了!",
      "rsm" : "该功能暂停使用",
      "cookstep" : [
        {
          "content" : "准备食材:鹅蛋煮熟后去壳，酱油，香油和柠檬沙拉汁调匀",
          "image" : "https:\/\/i1.douguo.com\/upload\/caiku\/1\/1\/8\/11e571b9a20809d5c14b60322834fa18.jpg",
          "thumb" : "https:\/\/i1.douguo.com\/upload\/caiku\/1\/1\/8\/140_11e571b9a20809d5c14b60322834fa18.jpg",
          "image_height" : 600,
          "image_width" : 800,
          "position" : 1,
          "frame" : "-1"
        },
        {
          "image_width" : 800,
          "position" : 2,
          "image" : "https:\/\/i1.douguo.com\/upload\/caiku\/6\/f\/d\/6f2844f8bdea96abc28dd902666ab5fd.jpg",
          "image_height" : 600,
          "content" : "西红柿和鹅蛋切块摆入盘中",
          "thumb" : "https:\/\/i1.douguo.com\/upload\/caiku\/6\/f\/d\/140_6f2844f8bdea96abc28dd902666ab5fd.jpg",
          "frame" : "-1"
        },
        {
          "image" : "https:\/\/i1.douguo.com\/upload\/caiku\/6\/1\/6\/615152e85baf68bcad94fb791f2d2376.jpg",
          "image_width" : 800,
          "thumb" : "https:\/\/i1.douguo.com\/upload\/caiku\/6\/1\/6\/140_615152e85baf68bcad94fb791f2d2376.jpg",
          "frame" : "-1",
          "content" : "放入香菜和葱花",
          "position" : 3,
          "image_height" : 600
        },
        {
          "content" : "放入芝麻",
          "image_height" : 600,
          "image" : "https:\/\/i1.douguo.com\/upload\/caiku\/3\/c\/d\/3c6df6806a99dc7154ac61548c0addfd.jpg",
          "thumb" : "https:\/\/i1.douguo.com\/upload\/caiku\/3\/c\/d\/140_3c6df6806a99dc7154ac61548c0addfd.jpg",
          "position" : 4,
          "image_width" : 800,
          "frame" : "-1"
        },
        {
          "frame" : "-1",
          "content" : "放入调好的料汁，颜色鲜艳，味道不错哟!",
          "image_height" : 600,
          "thumb" : "https:\/\/i1.douguo.com\/upload\/caiku\/9\/a\/7\/140_9a9b4ee193fcc9e1e6c27512fdc915e7.jpg",
          "position" : 5,
          "image_width" : 800,
          "image" : "https:\/\/i1.douguo.com\/upload\/caiku\/9\/a\/7\/9a9b4ee193fcc9e1e6c27512fdc915e7.jpg"
        }
      ],
      "purl" : "",
      "release_time" : "",
      "clicks" : "23686",
      "levelid" : 3,
      "author_id" : 9518001,
      "packages_id" : [

      ],
      "dish_count_text" : "1",
      "ipia" : [

      ],
      "cookwares" : [

      ],
      "story_dsp" : [

      ],
      "cook_difficulty" : "切墩(初级)",
      "top_mdsp" : [

      ],
      "advice" : {
        "da" : {
          "iu" : "https:\/\/i1.douguo.com\/upload\/banner\/f\/4\/d\/f48877e53c37759bc12ac494be82ec8d.png",
          "url" : "https:\/\/m.douguo.com\/recipe\/nutrient_self\/1436169",
          "t" : "查看详细分析"
        },
        "at" : "能帮助你减脂、控血糖～",
        "has" : [
          {
            "t" : "低糖",
            "url" : "recipes:\/\/www.douguo.com\/simplerecipelist?t=低糖&id=低糖"
          },
          {
            "t" : "低盐",
            "url" : "recipes:\/\/www.douguo.com\/simplerecipelist?t=低盐&id=低盐"
          }
        ]
      },
      "vu" : "",
      "hq" : 0,
      "ipoi" : "",
      "thumb_path" : "https:\/\/i1.douguo.com\/upload\/caiku\/0\/6\/b\/300_066c9785a5ea4502214503caed2239ab.jpg",
      "ipit" : 0,
      "v_u" : "",
      "event" : {
        "id" : 0
      },
      "comments" : [
        "{\n    ac = \"#999999\";\n    at = \"\";\n    ccc = 0;\n    \"child_comments\" =     (\n    );\n    city = \"\";\n    cmc = 2;\n    content =     (\n                {\n            c = \"\\U5e26\\U4e00\\U6ce2\\U8282\\U594f~\\U8fd9\\U83dc\\U8c31\\U8bf7\\U7ed9\\U6211\\U6765\\U5341\\U4e2a\\Uff01\\U8c22\\U8c22\\Uff01\";\n        }\n    );\n    ia = 0;\n    id = 6354411;\n    \"ip_address_location\" = \"\";\n    like = 0;\n    \"like_count\" = 0;\n    \"reply_id\" = 0;\n    \"sticker_icon\" =     (\n    );\n    time = \"2019-01-20 01:01:35\";\n    u =     {\n        \"followers_count_text\" = \"\";\n        id = 18441899;\n        \"is_prime\" = 0;\n        lv = 0;\n        lvl = 4;\n        n = lovevijo;\n        p = \"http:\/\/tx1.douguo.net\/upload\/photo\/8\/c\/7\/70_u1005045358160408113603.jpg\";\n        \"progress_image\" = \"\";\n        \"recipes_count_text\" = \"\";\n        relationship = \"-1\";\n        title = \"\";\n        v = 0;\n        \"verified_image\" = \"\";\n    };\n}",
        "{\n    ac = \"#999999\";\n    at = \"\";\n    ccc = 0;\n    \"child_comments\" =     (\n    );\n    city = \"\";\n    cmc = 2;\n    content =     (\n                {\n            c = 180;\n        }\n    );\n    ia = 0;\n    id = 4093913;\n    \"ip_address_location\" = \"\";\n    like = 0;\n    \"like_count\" = 0;\n    \"reply_id\" = 0;\n    \"sticker_icon\" =     (\n    );\n    time = \"2016-09-11 12:34:37\";\n    u =     {\n        \"followers_count_text\" = \"\";\n        id = 7546062;\n        \"is_prime\" = 0;\n        lv = 0;\n        lvl = 7;\n        n = \"\\U9ea6\\U5b50\\U8001\\U5988\";\n        p = \"http:\/\/tx1.douguo.net\/upload\/photo\/9\/8\/3\/70_u19253402664605225322.jpeg\";\n        \"progress_image\" = \"\";\n        \"recipes_count_text\" = \"\";\n        relationship = \"-1\";\n        title = \"\";\n        v = 1;\n        \"verified_image\" = \"\";\n    };\n}",
        "{\n    ac = \"#999999\";\n    at = \"\";\n    ccc = 0;\n    \"child_comments\" =     (\n    );\n    city = \"\";\n    cmc = 2;\n    content =     (\n                {\n            c = \"\\U4e92\\U6295\\U6bcf\\U5929\\U4e0d\\U7559\\U8a00\";\n        }\n    );\n    ia = 0;\n    id = 4053134;\n    \"ip_address_location\" = \"\";\n    like = 0;\n    \"like_count\" = 0;\n    \"reply_id\" = 0;\n    \"sticker_icon\" =     (\n    );\n    time = \"2016-08-30 14:34:59\";\n    u =     {\n        \"followers_count_text\" = \"\";\n        id = 16073850;\n        \"is_prime\" = 0;\n        lv = 0;\n        lvl = 5;\n        n = \"\\U7231\\U5403\\U6a59\\U5b50\\U5154\\U5b50\";\n        p = \"http:\/\/tx1.douguo.net\/upload\/photo\/e\/4\/4\/70_u51481453467708052108.jpg\";\n        \"progress_image\" = \"\";\n        \"recipes_count_text\" = \"\";\n        relationship = \"-1\";\n        title = \"\";\n        v = 0;\n        \"verified_image\" = \"\";\n    };\n}"
      ],
      "rewarded_video_dsp" : [

      ],
      "comments_count" : 15,
      "thumb_height" : 0,
      "rpid" : 0,
      "original_photo_path" : "http:\/\/i1.douguo.net\/upload\/caiku\/0\/6\/b\/yuan_066c9785a5ea4502214503caed2239ab.jpg",
      "cookstorys" : [
        {
          "type" : 0,
          "c" : "鹅蛋的营养价值很高，煮熟后拌着吃美味极了!",
          "id" : 0,
          "icon" : "",
          "u" : "",
          "color" : ""
        }
      ],
      "author_verified" : 1,
      "rrpt" : "",
      "views_count_text" : "2.6万",
      "recent_comments" : [

      ],
      "ecs" : 0,
      "rate" : 0,
      "photo_path" : "https:\/\/i1.douguo.com\/upload\/caiku\/0\/6\/b\/600_066c9785a5ea4502214503caed2239ab.jpg",
      "minor" : [

      ],
      "vc" : "25795",
      "cook_time_image" : "https:\/\/i1.douguo.com\/upload\/banner\/1551424358.png",
      "ss" : [

      ],
      "share_info" : {
        "image" : "https:\/\/cp1.douguo.com\/upload\/caiku\/0\/6\/b\/066c9785a5ea4502214503caed2239ab.jpg",
        "s_d" : "葱香番茄鹅蛋#我买新鲜味#-会做饭很酷!",
        "qr_image" : "",
        "s_u" : "http:\/\/m.douguo.com\/cookbook\/1436169.html",
        "infos" : [
          {
            "image" : "https:\/\/cp1.douguo.com\/upload\/caiku\/0\/6\/b\/066c9785a5ea4502214503caed2239ab.jpg",
            "s_d" : "#学做饭用豆果美食# 我在@豆果美食 分享了【葱香番茄鹅蛋#我买新鲜味#-会做饭很酷!】，哟，集美们～你看这是神仙美味～快跟着我做一份，做一份！查看图片了解菜谱（更多美食秘籍点击https:\/\/m.weibo.cn\/p\/100404i33631获取）#会做饭很酷# ",
            "s_u" : "",
            "object_id" : "1436169",
            "channel" : "1",
            "name" : "葱香番茄鹅蛋#我买新鲜味#-会做饭很酷!",
            "qr_image" : "",
            "mini_program" : [

            ]
          },
          {
            "s_u" : "http:\/\/m.douguo.com\/cookbook\/1436169.html",
            "s_d" : "葱香番茄鹅蛋#我买新鲜味#-会做饭很酷!",
            "channel" : "7",
            "qr_image" : "",
            "mini_program" : [

            ],
            "image" : "https:\/\/cp1.douguo.com\/upload\/caiku\/0\/6\/b\/066c9785a5ea4502214503caed2239ab.jpg",
            "name" : "葱香番茄鹅蛋#我买新鲜味#-会做饭很酷!",
            "object_id" : "1436169"
          },
          {
            "object_id" : "1436169",
            "qr_image" : "",
            "mini_program" : [

            ],
            "name" : "葱香番茄鹅蛋#我买新鲜味#-会做饭很酷!",
            "image" : "https:\/\/cp1.douguo.com\/upload\/caiku\/0\/6\/b\/066c9785a5ea4502214503caed2239ab.jpg",
            "s_u" : "http:\/\/m.douguo.com\/cookbook\/1436169.html",
            "channel" : "8",
            "s_d" : "葱香番茄鹅蛋#我买新鲜味#-会做饭很酷!"
          }
        ],
        "object_id" : "1436169",
        "name" : "葱香番茄鹅蛋#我买新鲜味#-会做饭很酷!",
        "mini_program" : [

        ]
      },
      "rips" : 0,
      "act_des" : "",
      "rate_show" : 0,
      "brand_day_dsp" : [

      ],
      "dish_count" : 1,
      "vfurl" : "",
      "bs" : [

      ],
      "title_ad" : [

      ],
      "cook_time" : "10分钟左右",
      "user" : {
        "fc" : 0,
        "lvl" : 6,
        "recipes_count" : 0,
        "email" : "",
        "following_count" : 0,
        "diaries_count" : 0,
        "user_photo" : "http:\/\/tx1.douguo.net\/upload\/photo\/f\/f\/9\/70_u32204152604041053209.jpg",
        "point" : 0,
        "qq_weibo_nick" : "",
        "birthday" : "",
        "age" : "",
        "regist_time" : "",
        "introduction" : "",
        "verified" : 1,
        "is_prime" : 0,
        "weibo_nick" : "",
        "subscription_article_count" : 0,
        "subscription" : 0,
        "coursecount" : 0,
        "nick" : "雨润海棠",
        "qzone_nick" : "",
        "favorites_count" : 0,
        "user_large_photo" : "http:\/\/tx1.douguo.net\/upload\/photo\/f\/f\/9\/yuan_u32204152604041053209.jpg",
        "sign" : "",
        "lv" : 0,
        "followers_count" : 0,
        "setted_email" : 0,
        "progress_image" : "",
        "avatar_medium" : "http:\/\/tx1.douguo.net\/upload\/photo\/f\/f\/9\/140_u32204152604041053209.jpg",
        "dishes_count" : 0,
        "mobile" : "",
        "gender" : 2,
        "userid" : "9518001",
        "verified_image" : "https:\/\/i1.douguo.com\/upload\/note\/d\/a\/a\/da84247847aebe48d9dd0fcdac88862a.png",
        "user_id" : "9518001",
        "verified_url" : "https:\/\/m.douguo.com\/user\/prodesc",
        "pc" : 0,
        "favor_diaries_count" : 0,
        "user_cover" : "",
        "location" : 0
      },
      "recommendation_tag" : "",
      "recipe_tags" : [

      ],
      "related_ads" : [

      ],
      "su" : "",
      "favo_counts" : 129,
      "eu" : "recipes:\/\/www.douguo.com\/postdetail?id=242016",
      "title" : "葱香番茄鹅蛋",
      "ipt" : "",
      "display_ingredient" : 1,
      "sc" : 0,
      "rate_count" : 0
    }
  },
  "state" : "success"
}