{
  "result" : {
    "recipe" : {
      "cook_id" : "2501757",
      "author_id" : 5015776,
      "rewarded_video_dsp" : [

      ],
      "vc" : "28304",
      "btm_dsp" : [

      ],
      "ipurl" : "",
      "author" : "僖儿2005",
      "cookwares" : [

      ],
      "eu" : "recipes:\/\/www.douguo.com\/postdetail?id=242016",
      "tags" : [

      ],
      "levelid" : 2,
      "vu" : "",
      "story_dsp" : [

      ],
      "create_time" : "2020-05-31 12:25:43",
      "release_time" : "",
      "ipt" : "",
      "recommend_label" : "2.8万人看过",
      "dish_count_text" : "",
      "su" : "",
      "rcs" : [

      ],
      "thumb_path" : "https:\/\/i1.douguo.com\/upload\/caiku\/d\/a\/5\/300_da03920672377f88c32ed792373dd185.jpg",
      "cook_time" : "10-30分钟",
      "ipit" : 0,
      "original_photo_path" : "http:\/\/i1.douguo.net\/upload\/caiku\/d\/a\/5\/yuan_da03920672377f88c32ed792373dd185.jpg",
      "author_photo" : "http:\/\/tx1.douguo.net\/upload\/photo\/f\/b\/3\/70_u06872617824541110900.jpeg",
      "rrps" : [

      ],
      "comments_count" : 2,
      "dishes" : [

      ],
      "rate" : 0,
      "title" : "送给小孩子的儿童节礼物：星星抹茶夹心饼干",
      "act_des" : "",
      "v_u" : "",
      "vfurl" : "",
      "notes" : [

      ],
      "cookstory" : "从上次去广州学习回来，老师给的沙布列酥饼方子到现在都没时间去练习练习，中午买的黄油到货了，下去楼下拿快递后，想着要不就来做这款酥饼吧！当时在学校做的时候觉得特别的好吃，它不同于我们平时吃到的黄油饼干，比黄油饼干更酥松，却又不像酥饼那么不好做造型，应该是有点介于饼干和酥饼之间的口感。",
      "old_comments" : [

      ],
      "favo_counts_text" : "442",
      "ipia" : [

      ],
      "rpt" : "",
      "minor" : [

      ],
      "cookstorys" : [
        {
          "icon" : "",
          "type" : 0,
          "id" : 0,
          "u" : "",
          "color" : "",
          "c" : "从上次去广州学习回来，老师给的沙布列酥饼方子到现在都没时间去练习练习，中午买的黄油到货了，下去楼下拿快递后，想着要不就来做这款酥饼吧！当时在学校做的时候觉得特别的好吃，它不同于我们平时吃到的黄油饼干，比黄油饼干更酥松，却又不像酥饼那么不好做造型，应该是有点介于饼干和酥饼之间的口感。"
        }
      ],
      "rate_show" : 0,
      "pw" : 0,
      "rpid" : 0,
      "author_verified" : 1,
      "display_ingredient" : 1,
      "bs" : [

      ],
      "comments_count_text" : "2",
      "related_ads" : [

      ],
      "rsm" : "该功能暂停使用",
      "clicks" : "17887",
      "views_count_text" : "2.8万",
      "favo_counts" : 442,
      "image" : "http:\/\/i1.douguo.net\/upload\/caiku\/d\/a\/5\/300_da03920672377f88c32ed792373dd185.jpg",
      "guide_image" : "",
      "user" : {
        "sign" : "",
        "user_id" : "5015776",
        "gender" : 2,
        "subscription_article_count" : 0,
        "is_prime" : 0,
        "userid" : "5015776",
        "user_cover" : "",
        "setted_email" : 0,
        "verified" : 1,
        "progress_image" : "",
        "lv" : 0,
        "birthday" : "",
        "lvl" : 6,
        "user_photo" : "http:\/\/tx1.douguo.net\/upload\/photo\/f\/b\/3\/70_u06872617824541110900.jpeg",
        "qzone_nick" : "",
        "avatar_medium" : "http:\/\/tx1.douguo.net\/upload\/photo\/f\/b\/3\/140_u06872617824541110900.jpeg",
        "pc" : 0,
        "introduction" : "",
        "favorites_count" : 0,
        "coursecount" : 0,
        "favor_diaries_count" : 0,
        "point" : 0,
        "nick" : "僖儿2005",
        "age" : "",
        "user_large_photo" : "http:\/\/tx1.douguo.net\/upload\/photo\/f\/b\/3\/yuan_u06872617824541110900.jpeg",
        "fc" : 0,
        "diaries_count" : 0,
        "verified_image" : "https:\/\/i1.douguo.com\/upload\/note\/d\/a\/a\/da84247847aebe48d9dd0fcdac88862a.png",
        "recipes_count" : 0,
        "verified_url" : "https:\/\/m.douguo.com\/user\/prodesc",
        "weibo_nick" : "",
        "qq_weibo_nick" : "",
        "regist_time" : "",
        "followers_count" : 0,
        "mobile" : "",
        "email" : "",
        "dishes_count" : 0,
        "subscription" : 0,
        "following_count" : 0,
        "location" : 0
      },
      "title_ad" : [

      ],
      "thumb_height" : 0,
      "cook_difficulty" : "切墩(初级)",
      "ssu" : "",
      "sc" : 0,
      "dish_count" : 0,
      "mid_mdsp" : [

      ],
      "recommended" : 0,
      "photo_path" : "https:\/\/i1.douguo.com\/upload\/caiku\/d\/a\/5\/600_da03920672377f88c32ed792373dd185.jpg",
      "top_mdsp" : [

      ],
      "brand_day_dsp" : [

      ],
      "rpst" : "",
      "advice" : {
        "has" : [
          {
            "url" : "recipes:\/\/www.douguo.com\/simplerecipelist?t=高热量&id=高热量",
            "t" : "高热量"
          },
          {
            "url" : "recipes:\/\/www.douguo.com\/simplerecipelist?t=高脂肪&id=高脂肪",
            "t" : "高脂肪"
          }
        ],
        "at" : "适量即可～",
        "da" : {
          "t" : "查看详细分析",
          "url" : "https:\/\/m.douguo.com\/recipe\/nutrient_self\/2501757",
          "iu" : "https:\/\/i1.douguo.com\/upload\/banner\/f\/4\/d\/f48877e53c37759bc12ac494be82ec8d.png"
        }
      },
      "ph" : 0,
      "ss" : [

      ],
      "ipoi" : "",
      "recent_comments" : [

      ],
      "ipci" : "",
      "share_info" : {
        "infos" : [
          {
            "image" : "https:\/\/cp1.douguo.com\/upload\/caiku\/d\/a\/5\/da03920672377f88c32ed792373dd185.jpg",
            "s_d" : "#学做饭用豆果美食# 会做饭真是太酷了！我在@豆果美食 分享了【送给小孩子的儿童节礼物：星星抹茶夹心饼干-会做饭很酷!】，看着是不是馋到不行呢～快来跟我学学吧！查看图片了解菜谱，（想要获取更多美食就看这https:\/\/m.weibo.cn\/p\/100404i33631）",
            "name" : "送给小孩子的儿童节礼物：星星抹茶夹心饼干-会做饭很酷!",
            "s_u" : "",
            "mini_program" : [

            ],
            "channel" : "1",
            "qr_image" : "",
            "object_id" : "2501757"
          },
          {
            "s_u" : "http:\/\/m.douguo.com\/cookbook\/2501757.html",
            "name" : "送给小孩子的儿童节礼物：星星抹茶夹心饼干-会做饭很酷!",
            "channel" : "7",
            "image" : "https:\/\/cp1.douguo.com\/upload\/caiku\/d\/a\/5\/da03920672377f88c32ed792373dd185.jpg",
            "s_d" : "送给小孩子的儿童节礼物：星星抹茶夹心饼干-会做饭很酷!",
            "qr_image" : "",
            "object_id" : "2501757",
            "mini_program" : [

            ]
          },
          {
            "name" : "送给小孩子的儿童节礼物：星星抹茶夹心饼干-会做饭很酷!",
            "mini_program" : [

            ],
            "s_d" : "送给小孩子的儿童节礼物：星星抹茶夹心饼干-会做饭很酷!",
            "qr_image" : "",
            "image" : "https:\/\/cp1.douguo.com\/upload\/caiku\/d\/a\/5\/da03920672377f88c32ed792373dd185.jpg",
            "channel" : "8",
            "object_id" : "2501757",
            "s_u" : "http:\/\/m.douguo.com\/cookbook\/2501757.html"
          }
        ],
        "image" : "https:\/\/cp1.douguo.com\/upload\/caiku\/d\/a\/5\/da03920672377f88c32ed792373dd185.jpg",
        "qr_image" : "",
        "name" : "送给小孩子的儿童节礼物：星星抹茶夹心饼干-会做饭很酷!",
        "object_id" : "2501757",
        "s_u" : "http:\/\/m.douguo.com\/cookbook\/2501757.html",
        "s_d" : "送给小孩子的儿童节礼物：星星抹茶夹心饼干-会做饭很酷!",
        "mini_program" : [

        ]
      },
      "tips" : "",
      "cook_time_image" : "https:\/\/i1.douguo.com\/upload\/banner\/1551424341.png",
      "packages_id" : [

      ],
      "recipe_list_tags" : [
        {
          "text" : "关注的人",
          "background_end_color" : "#F4F5F5",
          "text_color" : "#141515",
          "background_start_color" : "#F4F5F5",
          "background_border_color" : "",
          "jump_url" : "",
          "right_image" : ""
        }
      ],
      "major" : [
        {
          "tu" : "https:\/\/m.douguo.com\/ingredients\/黄油\/detailmaterial",
          "title" : "黄油",
          "note" : "110克"
        },
        {
          "tu" : "https:\/\/m.douguo.com\/ingredients\/低筋面粉\/detailmaterial",
          "title" : "低筋面粉",
          "note" : "113克"
        },
        {
          "title" : "红曲粉",
          "note" : "4克"
        },
        {
          "title" : "盐",
          "tu" : "https:\/\/m.douguo.com\/ingredients\/盐\/detailmaterial",
          "note" : "1克"
        },
        {
          "tu" : "https:\/\/m.douguo.com\/ingredients\/糖粉\/detailmaterial",
          "note" : "40克",
          "title" : "糖粉"
        },
        {
          "title" : "蛋黄",
          "tu" : "https:\/\/m.douguo.com\/ingredients\/蛋黄\/detailmaterial",
          "note" : "18克"
        },
        {
          "note" : "65克",
          "title" : "白巧克力（夹心）"
        },
        {
          "note" : "20克",
          "title" : "黄油（夹心）"
        },
        {
          "title" : "抹茶粉",
          "note" : "5克",
          "tu" : "https:\/\/m.douguo.com\/ingredients\/抹茶粉\/detailmaterial"
        }
      ],
      "rrpt" : "",
      "hq" : 1,
      "rdsps" : [

      ],
      "rips" : 0,
      "rate_count" : 0,
      "sr" : "",
      "recipe_tags" : [

      ],
      "ecs" : 0,
      "comments" : [
        "{\n    ac = \"#999999\";\n    at = \"\";\n    ccc = 0;\n    \"child_comments\" =     (\n    );\n    city = \"\";\n    cmc = 2;\n    content =     (\n                {\n            c = \"\\U8fd9\\U7b80\\U76f4\\U53ef\\U4ee5\\U5f00\\U996d\\U9986\\U5566\";\n        }\n    );\n    ia = 0;\n    id = 8030631;\n    \"ip_address_location\" = \"\";\n    like = 0;\n    \"like_count\" = 0;\n    \"reply_id\" = 0;\n    \"sticker_icon\" =     (\n    );\n    time = \"2020-05-31 14:17:05\";\n    u =     {\n        \"followers_count_text\" = \"\";\n        id = 23569312;\n        \"is_prime\" = 0;\n        lv = 0;\n        lvl = 3;\n        n = \"\\U7f8e\\U96eaorwm\";\n        p = \"http:\/\/tx1.douguo.net\/upload\/photo\/e\/8\/d\/70_u3176321086890329173810.jpg\";\n        \"progress_image\" = \"\";\n        \"recipes_count_text\" = \"\";\n        relationship = \"-1\";\n        title = \"\";\n        v = 0;\n        \"verified_image\" = \"\";\n    };\n}",
        "{\n    ac = \"#999999\";\n    at = \"\";\n    ccc = 0;\n    \"child_comments\" =     (\n    );\n    city = \"\";\n    cmc = 2;\n    content =     (\n                {\n            c = \"\\U505a\\U7ed9\\U8001\\U5a46\\U5403\\U3002\";\n        }\n    );\n    ia = 0;\n    id = 8030348;\n    \"ip_address_location\" = \"\";\n    like = 0;\n    \"like_count\" = 0;\n    \"reply_id\" = 0;\n    \"sticker_icon\" =     (\n    );\n    time = \"2020-05-31 12:38:05\";\n    u =     {\n        \"followers_count_text\" = \"\";\n        id = 24545046;\n        \"is_prime\" = 0;\n        lv = 0;\n        lvl = 1;\n        n = \"ove You\\Uff0c     \\U5c0f\\U96eao\";\n        p = \"http:\/\/tx1.douguo.net\/upload\/photo\/4\/2\/6\/70_u98976501802932021235.jpg\";\n        \"progress_image\" = \"\";\n        \"recipes_count_text\" = \"\";\n        relationship = \"-1\";\n        title = \"\";\n        v = 0;\n        \"verified_image\" = \"\";\n    };\n}"
      ],
      "first_level_comment_count" : 2,
      "purl" : "",
      "recommendation_tag" : "",
      "hqu" : "recipes:\/\/www.douguo.com\/notedetail?id=21162253",
      "collect_status" : 0,
      "cook_difficulty_image" : "https:\/\/i1.douguo.com\/upload\/banner\/1551424390.png",
      "cookstep" : [
        {
          "frame" : "-1",
          "image" : "https:\/\/i1.douguo.com\/upload\/caiku\/8\/e\/2\/8ecdef6b485e057f0f752d4f2a2bd772.JPG",
          "content" : "黄油无需软化，直接冷藏取出切成小块，放入打蛋盆内。",
          "thumb" : "https:\/\/i1.douguo.com\/upload\/caiku\/8\/e\/2\/140_8ecdef6b485e057f0f752d4f2a2bd772.JPG",
          "position" : 1,
          "image_width" : 6240,
          "image_height" : 4160
        },
        {
          "image" : "https:\/\/i1.douguo.com\/upload\/caiku\/8\/f\/3\/8fd8ef5e456be30063879a7ecc462033.JPG",
          "content" : "红曲粉和低筋面粉混合过筛入黄油内。",
          "position" : 2,
          "image_width" : 6240,
          "frame" : "-1",
          "thumb" : "https:\/\/i1.douguo.com\/upload\/caiku\/8\/f\/3\/140_8fd8ef5e456be30063879a7ecc462033.JPG",
          "image_height" : 4160
        },
        {
          "content" : "用刮刀刮拌的方法拌均。",
          "image" : "https:\/\/i1.douguo.com\/upload\/caiku\/a\/f\/8\/af5ed2ac04ca6729126b00abcc897998.JPG",
          "image_width" : 6240,
          "position" : 3,
          "image_height" : 4160,
          "frame" : "-1",
          "thumb" : "https:\/\/i1.douguo.com\/upload\/caiku\/a\/f\/8\/140_af5ed2ac04ca6729126b00abcc897998.JPG"
        },
        {
          "position" : 4,
          "image_width" : 6240,
          "thumb" : "https:\/\/i1.douguo.com\/upload\/caiku\/6\/9\/7\/140_69d8a6e2d2e83d0ade930cf64393b067.JPG",
          "content" : "筛入糖粉和盐，拌匀。",
          "frame" : "-1",
          "image_height" : 4160,
          "image" : "https:\/\/i1.douguo.com\/upload\/caiku\/6\/9\/7\/69d8a6e2d2e83d0ade930cf64393b067.JPG"
        },
        {
          "image" : "https:\/\/i1.douguo.com\/upload\/caiku\/5\/2\/3\/52b28c6b976fa215a6bc0692a4309253.JPG",
          "image_width" : 6240,
          "position" : 5,
          "image_height" : 4160,
          "content" : "一次性加入蛋黄。",
          "frame" : "-1",
          "thumb" : "https:\/\/i1.douguo.com\/upload\/caiku\/5\/2\/3\/140_52b28c6b976fa215a6bc0692a4309253.JPG"
        },
        {
          "thumb" : "https:\/\/i1.douguo.com\/upload\/caiku\/1\/8\/4\/140_18a6fd764a06e1f1c1166afa4ae54144.JPG",
          "content" : "如同一样的刮拌手法将蛋液混合到完全溶解到面糊内。",
          "frame" : "-1",
          "position" : 6,
          "image_width" : 6240,
          "image_height" : 4160,
          "image" : "https:\/\/i1.douguo.com\/upload\/caiku\/1\/8\/4\/18a6fd764a06e1f1c1166afa4ae54144.JPG"
        },
        {
          "thumb" : "https:\/\/i1.douguo.com\/upload\/caiku\/c\/b\/f\/140_cbd202a164ee88cb2146f9dc4552825f.JPG",
          "image" : "https:\/\/i1.douguo.com\/upload\/caiku\/c\/b\/f\/cbd202a164ee88cb2146f9dc4552825f.JPG",
          "content" : "准备一张油纸，放入面糊，压成薄片，放入冰箱冷冻15分钟。",
          "image_height" : 4160,
          "position" : 7,
          "image_width" : 6240,
          "frame" : "-1"
        },
        {
          "image_width" : 5554,
          "thumb" : "https:\/\/i1.douguo.com\/upload\/caiku\/b\/b\/1\/140_bbd64688f03112d7032615b691f7d551.JPG",
          "position" : 8,
          "frame" : "-1",
          "image" : "https:\/\/i1.douguo.com\/upload\/caiku\/b\/b\/1\/bbd64688f03112d7032615b691f7d551.JPG",
          "image_height" : 3702,
          "content" : "取出面团，再次擀平面团，大概厚度为3-5毫米，用五角星饼干切成切好五角星形状，放在透气垫上。"
        },
        {
          "image_height" : 4160,
          "content" : "再用小的五角星如同切好几个空心的五角星。（如果面团变软可以重复地放入冰箱冷冻）",
          "thumb" : "https:\/\/i1.douguo.com\/upload\/caiku\/7\/b\/d\/140_7b34046aaaea99decffb0bf3102d547d.JPG",
          "position" : 9,
          "frame" : "-1",
          "image" : "https:\/\/i1.douguo.com\/upload\/caiku\/7\/b\/d\/7b34046aaaea99decffb0bf3102d547d.JPG",
          "image_width" : 6240
        },
        {
          "thumb" : "https:\/\/i1.douguo.com\/upload\/caiku\/2\/9\/9\/140_29cf0fbb97b839e57f7ae309847da549.JPG",
          "image_width" : 6240,
          "image" : "https:\/\/i1.douguo.com\/upload\/caiku\/2\/9\/9\/29cf0fbb97b839e57f7ae309847da549.JPG",
          "image_height" : 4160,
          "frame" : "-1",
          "content" : "卡士750烤箱设置上下火烘烤功能，温度150度，时间16分钟。",
          "position" : 10
        },
        {
          "thumb" : "https:\/\/i1.douguo.com\/upload\/caiku\/7\/3\/1\/140_73706e8879a11e58aa26e05509b138d1.JPG",
          "content" : "出炉的饼干放至凉透，一块实心和一块空心的饼干配对。",
          "image_height" : 3882,
          "image" : "https:\/\/i1.douguo.com\/upload\/caiku\/7\/3\/1\/73706e8879a11e58aa26e05509b138d1.JPG",
          "frame" : "-1",
          "image_width" : 5819,
          "position" : 11
        },
        {
          "image_width" : 5132,
          "position" : 12,
          "content" : "白巧克力隔50度内的热水融化，加入抹茶粉、黄油一起混合均匀，装入裱花袋内。",
          "frame" : "-1",
          "image_height" : 3422,
          "thumb" : "https:\/\/i1.douguo.com\/upload\/caiku\/d\/0\/f\/140_d0b0dc2902c82d8d8e227db5134287df.JPG",
          "image" : "https:\/\/i1.douguo.com\/upload\/caiku\/d\/0\/f\/d0b0dc2902c82d8d8e227db5134287df.JPG"
        },
        {
          "image_height" : 3819,
          "image" : "https:\/\/i1.douguo.com\/upload\/caiku\/6\/e\/d\/6e39d44766313034b77e53c396b7922d.JPG",
          "position" : 13,
          "thumb" : "https:\/\/i1.douguo.com\/upload\/caiku\/6\/e\/d\/140_6e39d44766313034b77e53c396b7922d.JPG",
          "frame" : "-1",
          "image_width" : 5733,
          "content" : "挤在实心五角星饼干上面，抹平。"
        },
        {
          "image_width" : 6240,
          "image" : "https:\/\/i1.douguo.com\/upload\/caiku\/a\/7\/d\/a787ee8ae7804c322f8b2ed882795e8d.JPG",
          "position" : 14,
          "content" : "将空心的五角星轻轻地压在上面，记得要轻哦！特别的酥脆。",
          "thumb" : "https:\/\/i1.douguo.com\/upload\/caiku\/a\/7\/d\/140_a787ee8ae7804c322f8b2ed882795e8d.JPG",
          "image_height" : 4160,
          "frame" : "-1"
        },
        {
          "image" : "https:\/\/i1.douguo.com\/upload\/caiku\/0\/6\/6\/06250671e468d558b5c0b0947b463246.jpg",
          "position" : 15,
          "frame" : "-1",
          "content" : "成品",
          "thumb" : "https:\/\/i1.douguo.com\/upload\/caiku\/0\/6\/6\/140_06250671e468d558b5c0b0947b463246.jpg",
          "image_height" : 4032,
          "image_width" : 2688
        }
      ]
    }
  },
  "status" : 0,
  "state" : "success"
}