{
  "status" : 0,
  "state" : "success",
  "result" : {
    "recipe" : {
      "hqu" : "recipes:\/\/www.douguo.com\/notedetail?id=21162253",
      "ph" : 419,
      "tags" : [
        "{\n    text = \"\\U70d8\\U7119\";\n}",
        "{\n    text = \"\\U9762\\U5305\";\n}",
        "{\n    text = \"\\U751c\";\n}",
        "{\n    text = \"\\U9999\";\n}",
        "{\n    text = \"\\U4e0b\\U5348\\U8336\";\n}"
      ],
      "related_ads" : [

      ],
      "cookstory" : "今天第一次做了热狗面包，滋味真的是好极了\\(^o^)\/~前一天晚上醒发好面团，第二天进行二发和烤制，拍完照没忍住，吃了一块儿，味道真心不错，so ，推荐给大家~",
      "ipoi" : "",
      "sc" : 0,
      "rate" : 0,
      "rate_show" : 0,
      "rrpt" : "",
      "pw" : 722,
      "rpt" : "",
      "dish_count" : 2,
      "notes" : [

      ],
      "dishes" : [

      ],
      "author_verified" : 1,
      "ssu" : "",
      "rpid" : 0,
      "ipit" : 0,
      "vu" : "",
      "collect_status" : 0,
      "title_ad" : [

      ],
      "guide_image" : "",
      "ss" : [

      ],
      "ipt" : "",
      "cookstep" : [
        {
          "thumb" : "https:\/\/i1.douguo.com\/upload\/caiku\/f\/9\/d\/140_f9a5db0a7200d5add10592586edf445d.jpg",
          "image" : "https:\/\/i1.douguo.com\/upload\/caiku\/f\/9\/d\/f9a5db0a7200d5add10592586edf445d.jpg",
          "frame" : "-1",
          "image_width" : 1872,
          "image_height" : 3328,
          "position" : 1,
          "content" : "高粉和低粉放入面包桶中，加入食盐。"
        },
        {
          "content" : "适量的清水或牛奶，开始第一次和面程序。",
          "image_height" : 3328,
          "image" : "https:\/\/i1.douguo.com\/upload\/caiku\/6\/a\/1\/6a5ff9ae8e826610b3eda48e0c58f401.jpg",
          "image_width" : 1872,
          "thumb" : "https:\/\/i1.douguo.com\/upload\/caiku\/6\/a\/1\/140_6a5ff9ae8e826610b3eda48e0c58f401.jpg",
          "position" : 2,
          "frame" : "-1"
        },
        {
          "position" : 3,
          "frame" : "-1",
          "image_height" : 3328,
          "image" : "https:\/\/i1.douguo.com\/upload\/caiku\/8\/2\/3\/827879c91c66d5dcdbd523a73bdc1623.jpg",
          "image_width" : 1872,
          "thumb" : "https:\/\/i1.douguo.com\/upload\/caiku\/8\/2\/3\/140_827879c91c66d5dcdbd523a73bdc1623.jpg",
          "content" : "和好的面团静置30分钟，让面团出筋。"
        },
        {
          "image_width" : 1872,
          "frame" : "-1",
          "thumb" : "https:\/\/i1.douguo.com\/upload\/caiku\/c\/e\/8\/140_ce1a3ba58960e53f9cfccea9ce7f1e28.jpg",
          "image" : "https:\/\/i1.douguo.com\/upload\/caiku\/c\/e\/8\/ce1a3ba58960e53f9cfccea9ce7f1e28.jpg",
          "image_height" : 3328,
          "position" : 4,
          "content" : "放入白砂糖和酵母。"
        },
        {
          "image_width" : 1872,
          "content" : "开始第二次和面程序。",
          "image_height" : 3328,
          "image" : "https:\/\/i1.douguo.com\/upload\/caiku\/2\/a\/3\/2a85737efaf1db4af8c56273bd3ef283.jpg",
          "frame" : "-1",
          "thumb" : "https:\/\/i1.douguo.com\/upload\/caiku\/2\/a\/3\/140_2a85737efaf1db4af8c56273bd3ef283.jpg",
          "position" : 5
        },
        {
          "image" : "https:\/\/i1.douguo.com\/upload\/caiku\/1\/3\/2\/13ca0bc7405a44371d93f72dc2e14c82.jpg",
          "frame" : "-1",
          "position" : 6,
          "thumb" : "https:\/\/i1.douguo.com\/upload\/caiku\/1\/3\/2\/140_13ca0bc7405a44371d93f72dc2e14c82.jpg",
          "content" : "程序结束后可以拉扯出薄膜。",
          "image_width" : 1872,
          "image_height" : 3328
        },
        {
          "content" : "放入室温软化好的黄油，开始第三次程序。",
          "image" : "https:\/\/i1.douguo.com\/upload\/caiku\/7\/b\/3\/7be08bf758223a39d9e5c57a31541c33.jpg",
          "frame" : "-1",
          "thumb" : "https:\/\/i1.douguo.com\/upload\/caiku\/7\/b\/3\/140_7be08bf758223a39d9e5c57a31541c33.jpg",
          "position" : 7,
          "image_width" : 1872,
          "image_height" : 3328
        },
        {
          "image_height" : 3328,
          "image_width" : 1872,
          "thumb" : "https:\/\/i1.douguo.com\/upload\/caiku\/1\/3\/7\/140_135b065ae179eaa87aaaee816803d607.jpg",
          "content" : "和好的面很光滑不粘。",
          "image" : "https:\/\/i1.douguo.com\/upload\/caiku\/1\/3\/7\/135b065ae179eaa87aaaee816803d607.jpg",
          "position" : 8,
          "frame" : "-1"
        },
        {
          "position" : 9,
          "frame" : "-1",
          "image_height" : 3328,
          "image_width" : 1872,
          "content" : "可以轻易的套出手膜。",
          "thumb" : "https:\/\/i1.douguo.com\/upload\/caiku\/c\/c\/f\/140_cc106492bbf2ecdf7d9afad858e9af5f.jpg",
          "image" : "https:\/\/i1.douguo.com\/upload\/caiku\/c\/c\/f\/cc106492bbf2ecdf7d9afad858e9af5f.jpg"
        },
        {
          "image" : "https:\/\/i1.douguo.com\/upload\/caiku\/7\/1\/6\/7115982a6ee7e8e23dc31dad153a33c6.jpg",
          "content" : "放到温暖的地方醒发至原来的两倍大小。",
          "image_height" : 3328,
          "thumb" : "https:\/\/i1.douguo.com\/upload\/caiku\/7\/1\/6\/140_7115982a6ee7e8e23dc31dad153a33c6.jpg",
          "frame" : "-1",
          "image_width" : 1872,
          "position" : 10
        },
        {
          "image_height" : 3328,
          "frame" : "-1",
          "image" : "https:\/\/i1.douguo.com\/upload\/caiku\/e\/7\/a\/e7dd0e09440a796835387fd4ed0a4a8a.jpg",
          "thumb" : "https:\/\/i1.douguo.com\/upload\/caiku\/e\/7\/a\/140_e7dd0e09440a796835387fd4ed0a4a8a.jpg",
          "content" : "拿出来面团排气。",
          "position" : 11,
          "image_width" : 1872
        },
        {
          "image_width" : 1872,
          "position" : 12,
          "image_height" : 3328,
          "thumb" : "https:\/\/i1.douguo.com\/upload\/caiku\/9\/c\/5\/140_9c84fcd497b421306d6469e8c8e7ae45.jpg",
          "image" : "https:\/\/i1.douguo.com\/upload\/caiku\/9\/c\/5\/9c84fcd497b421306d6469e8c8e7ae45.jpg",
          "content" : "分成四个小面团松弛20分钟。",
          "frame" : "-1"
        },
        {
          "frame" : "-1",
          "image" : "https:\/\/i1.douguo.com\/upload\/caiku\/4\/e\/0\/4ee3fa666ff1f851685ec4eee6679b50.jpg",
          "image_height" : 3328,
          "content" : "擀成橄榄状。",
          "image_width" : 1872,
          "thumb" : "https:\/\/i1.douguo.com\/upload\/caiku\/4\/e\/0\/140_4ee3fa666ff1f851685ec4eee6679b50.jpg",
          "position" : 13
        },
        {
          "content" : "从上至下卷起来，卷的时候两边稍微收一下口，长度大概和香肠长度相同。",
          "image" : "https:\/\/i1.douguo.com\/upload\/caiku\/a\/6\/8\/a6d4be582f78ebc07637d2966402d538.jpg",
          "image_height" : 3328,
          "thumb" : "https:\/\/i1.douguo.com\/upload\/caiku\/a\/6\/8\/140_a6d4be582f78ebc07637d2966402d538.jpg",
          "frame" : "-1",
          "image_width" : 1872,
          "position" : 14
        },
        {
          "content" : "做好所有的。",
          "image_width" : 1872,
          "frame" : "-1",
          "position" : 15,
          "image_height" : 3328,
          "image" : "https:\/\/i1.douguo.com\/upload\/caiku\/1\/3\/0\/1349af63446deddf8bbab30e050603b0.jpg",
          "thumb" : "https:\/\/i1.douguo.com\/upload\/caiku\/1\/3\/0\/140_1349af63446deddf8bbab30e050603b0.jpg"
        },
        {
          "image_width" : 1872,
          "content" : "放入烤箱中，下面放一碗热水，进行二发。",
          "image" : "https:\/\/i1.douguo.com\/upload\/caiku\/f\/4\/b\/f462aea68647679f87b928d43cf7504b.jpg",
          "thumb" : "https:\/\/i1.douguo.com\/upload\/caiku\/f\/4\/b\/140_f462aea68647679f87b928d43cf7504b.jpg",
          "position" : 16,
          "frame" : "-1",
          "image_height" : 3328
        },
        {
          "image_height" : 3328,
          "position" : 17,
          "image" : "https:\/\/i1.douguo.com\/upload\/caiku\/5\/1\/f\/51617b72736a227cb78f8616d75c35af.jpg",
          "content" : "面包呈原来的两倍大小。",
          "thumb" : "https:\/\/i1.douguo.com\/upload\/caiku\/5\/1\/f\/140_51617b72736a227cb78f8616d75c35af.jpg",
          "image_width" : 1872,
          "frame" : "-1"
        },
        {
          "content" : "刷一层蛋液。",
          "image_width" : 1872,
          "image" : "https:\/\/i1.douguo.com\/upload\/caiku\/7\/0\/b\/704fc20e4ed5e9f35883d269ce68ad5b.jpg",
          "frame" : "-1",
          "thumb" : "https:\/\/i1.douguo.com\/upload\/caiku\/7\/0\/b\/140_704fc20e4ed5e9f35883d269ce68ad5b.jpg",
          "image_height" : 3328,
          "position" : 18
        },
        {
          "position" : 19,
          "content" : "撒上黑白芝麻装饰。",
          "frame" : "-1",
          "image_width" : 1872,
          "image" : "https:\/\/i1.douguo.com\/upload\/caiku\/b\/6\/f\/b6ae804b8d920b4ded0681853bc1576f.jpg",
          "thumb" : "https:\/\/i1.douguo.com\/upload\/caiku\/b\/6\/f\/140_b6ae804b8d920b4ded0681853bc1576f.jpg",
          "image_height" : 3328
        },
        {
          "position" : 20,
          "image_width" : 1872,
          "thumb" : "https:\/\/i1.douguo.com\/upload\/caiku\/9\/d\/4\/140_9d0455a12206f34367f6576649d05884.jpg",
          "image_height" : 3328,
          "frame" : "-1",
          "image" : "https:\/\/i1.douguo.com\/upload\/caiku\/9\/d\/4\/9d0455a12206f34367f6576649d05884.jpg",
          "content" : "预热烤箱，上下火180度20分钟即可。"
        },
        {
          "image_width" : 1872,
          "frame" : "-1",
          "thumb" : "https:\/\/i1.douguo.com\/upload\/caiku\/d\/1\/9\/140_d1c56e42f02f3abdef531c346ea9bed9.jpg",
          "position" : 21,
          "content" : "烤好以后再焖5分钟，取出。",
          "image_height" : 3328,
          "image" : "https:\/\/i1.douguo.com\/upload\/caiku\/d\/1\/9\/d1c56e42f02f3abdef531c346ea9bed9.jpg"
        },
        {
          "image" : "https:\/\/i1.douguo.com\/upload\/caiku\/e\/b\/7\/eb6c081e4892325b978068f06519a227.jpg",
          "content" : "准备好配菜。",
          "image_width" : 1872,
          "image_height" : 3328,
          "position" : 22,
          "thumb" : "https:\/\/i1.douguo.com\/upload\/caiku\/e\/b\/7\/140_eb6c081e4892325b978068f06519a227.jpg",
          "frame" : "-1"
        },
        {
          "image_height" : 3328,
          "frame" : "-1",
          "image" : "https:\/\/i1.douguo.com\/upload\/caiku\/e\/2\/4\/e23b153e7973910fd9ea6caa0530fbd4.jpg",
          "image_width" : 1872,
          "content" : "倒入橄榄油。",
          "position" : 23,
          "thumb" : "https:\/\/i1.douguo.com\/upload\/caiku\/e\/2\/4\/140_e23b153e7973910fd9ea6caa0530fbd4.jpg"
        },
        {
          "content" : "放入香肠和洋葱小火煎一下。",
          "thumb" : "https:\/\/i1.douguo.com\/upload\/caiku\/1\/7\/9\/140_178d69ecc73b5745bd42d4d386585b89.jpg",
          "image" : "https:\/\/i1.douguo.com\/upload\/caiku\/1\/7\/9\/178d69ecc73b5745bd42d4d386585b89.jpg",
          "frame" : "-1",
          "image_width" : 1872,
          "position" : 24,
          "image_height" : 3328
        },
        {
          "image_height" : 3328,
          "thumb" : "https:\/\/i1.douguo.com\/upload\/caiku\/d\/3\/f\/140_d3194138f6aac0aeb8707f00b5ab3d6f.jpg",
          "frame" : "-1",
          "content" : "面包从中间对半切开，不切断。",
          "image_width" : 1872,
          "position" : 25,
          "image" : "https:\/\/i1.douguo.com\/upload\/caiku\/d\/3\/f\/d3194138f6aac0aeb8707f00b5ab3d6f.jpg"
        },
        {
          "image_width" : 1872,
          "thumb" : "https:\/\/i1.douguo.com\/upload\/caiku\/7\/0\/4\/140_70bddbb3fa35b51b5c25d718e04ff674.jpg",
          "position" : 26,
          "content" : "加入蔬菜和香肠。",
          "image" : "https:\/\/i1.douguo.com\/upload\/caiku\/7\/0\/4\/70bddbb3fa35b51b5c25d718e04ff674.jpg",
          "image_height" : 3328,
          "frame" : "-1"
        },
        {
          "frame" : "-1",
          "content" : "挤入沙拉酱和番茄酱。",
          "image_width" : 450,
          "image" : "https:\/\/i1.douguo.com\/upload\/caiku\/3\/3\/e\/3399fed256786407d992427b78b645ce.jpg",
          "image_height" : 658,
          "position" : 27,
          "thumb" : "https:\/\/i1.douguo.com\/upload\/caiku\/3\/3\/e\/140_3399fed256786407d992427b78b645ce.jpg"
        },
        {
          "content" : "开吃吧~",
          "image_height" : 728,
          "image" : "https:\/\/i1.douguo.com\/upload\/caiku\/b\/0\/f\/b0ab9ee6c86012c534c79e4344b890ff.jpg",
          "thumb" : "https:\/\/i1.douguo.com\/upload\/caiku\/b\/0\/f\/140_b0ab9ee6c86012c534c79e4344b890ff.jpg",
          "image_width" : 450,
          "position" : 28,
          "frame" : "-1"
        },
        {
          "image_width" : 450,
          "thumb" : "https:\/\/i1.douguo.com\/upload\/caiku\/b\/d\/1\/140_bd9faf71ba589af8fe59f916b3be5e31.jpg",
          "image" : "https:\/\/i1.douguo.com\/upload\/caiku\/b\/d\/1\/bd9faf71ba589af8fe59f916b3be5e31.jpg",
          "position" : 29,
          "content" : "配一杯咖啡",
          "frame" : "-1",
          "image_height" : 629
        },
        {
          "content" : "营养早餐！",
          "image_height" : 678,
          "image" : "https:\/\/i1.douguo.com\/upload\/caiku\/0\/6\/7\/062a09fb26e7711abf6ab64e3fc3b597.jpg",
          "position" : 30,
          "thumb" : "https:\/\/i1.douguo.com\/upload\/caiku\/0\/6\/7\/140_062a09fb26e7711abf6ab64e3fc3b597.jpg",
          "image_width" : 450,
          "frame" : "-1"
        }
      ],
      "purl" : "",
      "rrps" : [

      ],
      "photo_path" : "https:\/\/i1.douguo.com\/upload\/caiku\/b\/c\/6\/600_bcad58e931096a2b01610aaa134b5016.jpg",
      "cookwares" : [

      ],
      "recommend_label" : "2人学做",
      "release_time" : "",
      "first_level_comment_count" : 8,
      "views_count_text" : "4.5万",
      "old_comments" : [

      ],
      "original_photo_path" : "http:\/\/i1.douguo.net\/upload\/caiku\/b\/c\/6\/yuan_bcad58e931096a2b01610aaa134b5016.jpg",
      "comments_count" : 15,
      "tips" : "烤箱设置仅供参考",
      "cook_id" : "1320427",
      "thumb_height" : 0,
      "mid_mdsp" : [

      ],
      "cookstorys" : [
        {
          "u" : "",
          "type" : 0,
          "c" : "今天第一次做了热狗面包，滋味真的是好极了\\(^o^)\/~前一天晚上醒发好面团，第二天进行二发和烤制，拍完照没忍住，吃了一块儿，味道真心不错，so ，推荐给大家~",
          "id" : 0,
          "icon" : "",
          "color" : ""
        }
      ],
      "author_id" : 8942164,
      "author" : "吃好吃的喽aici君",
      "major" : [
        {
          "note" : "150g",
          "title" : "高筋面粉",
          "tu" : "https:\/\/m.douguo.com\/ingredients\/高筋面粉\/detailmaterial"
        },
        {
          "note" : "30g",
          "title" : "低级面粉"
        },
        {
          "note" : "1棵",
          "title" : "生菜",
          "tu" : "https:\/\/m.douguo.com\/ingredients\/生菜\/detailmaterial"
        },
        {
          "note" : "半个",
          "title" : "西红柿",
          "tu" : "https:\/\/m.douguo.com\/ingredients\/西红柿\/detailmaterial"
        },
        {
          "tu" : "https:\/\/m.douguo.com\/ingredients\/洋葱\/detailmaterial",
          "note" : "5g",
          "title" : "洋葱"
        },
        {
          "title" : "香肠",
          "note" : "4根",
          "tu" : "https:\/\/m.douguo.com\/ingredients\/香肠\/detailmaterial"
        }
      ],
      "recommended" : 0,
      "levelid" : 2,
      "rcs" : [

      ],
      "comments_count_text" : "15",
      "hq" : 1,
      "rsm" : "该功能暂停使用",
      "story_dsp" : [

      ],
      "comments" : [
        "{\n    ac = \"#999999\";\n    at = \"\";\n    ccc = 2;\n    \"child_comments\" =     (\n                {\n            ac = \"#999999\";\n            at = \"\";\n            ccc = 0;\n            city = \"\";\n            cmc = 2;\n            content =             (\n                                {\n                    c = \" \\U548c\\U9762\\U7684\\U65f6\\U5019\\U8981\\U4e00\\U8fb9\\U6454\\U6253\\U4e00\\U8fb9\\U63c9\\U8ba9\\U9762\\U56e2\\U51fa\\U7b4b\\Uff0c\\U8fd9\\U4e2a\\U5f88\\U8d39\\U529b\\U6c14\\U7684\\Uff0c\\U800c\\U4e14\\U8017\\U65f6 \";\n                }\n            );\n            ia = 1;\n            id = 3757333;\n            \"ip_address_location\" = \"\";\n            like = 0;\n            \"like_count\" = 0;\n            \"reply_id\" = 3748430;\n            \"reply_user\" =             {\n                \"followers_count_text\" = \"\";\n                id = 16819589;\n                \"is_prime\" = 0;\n                lv = 0;\n                lvl = 3;\n                n = \"\\U8c46\\U7c89677489\";\n                p = \"\";\n                \"progress_image\" = \"\";\n                \"recipes_count_text\" = \"\";\n                relationship = \"-1\";\n                title = \"\";\n                v = 0;\n                \"verified_image\" = \"\";\n            };\n            \"sticker_icon\" =             (\n            );\n            time = \"2016-06-27 04:57:18\";\n            u =             {\n                \"followers_count_text\" = \"\";\n                id = 8942164;\n                \"is_prime\" = 0;\n                lv = 0;\n                lvl = 6;\n                n = \"\\U5403\\U597d\\U5403\\U7684\\U55bdaici\\U541b\";\n                p = \"http:\/\/tx1.douguo.net\/upload\/photo\/a\/2\/1\/70_u2890298993436140402.jpg\";\n                \"progress_image\" = \"\";\n                \"recipes_count_text\" = \"\";\n                relationship = \"-1\";\n                title = \"\";\n                v = 1;\n                \"verified_image\" = \"\";\n            };\n        },\n                {\n            ac = \"#999999\";\n            at = \"\";\n            ccc = 0;\n            city = \"\";\n            cmc = 2;\n            content =             (\n                                {\n                    c = \" \\U54e6\\U3001\\U770b\\U6765\\U6709\\U5fc5\\U8981\\U4e70\\U4e2a\\U63c9\\U9762\\U673a\\Uff0c\\U8c22\\U8c22\";\n                }\n            );\n            ia = 0;\n            id = 3758403;\n            \"ip_address_location\" = \"\";\n            like = 0;\n            \"like_count\" = 0;\n            \"reply_id\" = 3757333;\n            \"reply_user\" =             {\n                \"followers_count_text\" = \"\";\n                id = 8942164;\n                \"is_prime\" = 0;\n                lv = 0;\n                lvl = 6;\n                n = \"\\U5403\\U597d\\U5403\\U7684\\U55bdaici\\U541b\";\n                p = \"http:\/\/tx1.douguo.net\/upload\/photo\/a\/2\/1\/70_u2890298993436140402.jpg\";\n                \"progress_image\" = \"\";\n                \"recipes_count_text\" = \"\";\n                relationship = \"-1\";\n                title = \"\";\n                v = 1;\n                \"verified_image\" = \"\";\n            };\n            \"sticker_icon\" =             (\n            );\n            time = \"2016-06-27 12:04:06\";\n            u =             {\n                \"followers_count_text\" = \"\";\n                id = 16819589;\n                \"is_prime\" = 0;\n                lv = 0;\n                lvl = 3;\n                n = \"\\U8c46\\U7c89677489\";\n                p = \"\";\n                \"progress_image\" = \"\";\n                \"recipes_count_text\" = \"\";\n                relationship = \"-1\";\n                title = \"\";\n                v = 0;\n                \"verified_image\" = \"\";\n            };\n        }\n    );\n    city = \"\";\n    cmc = 2;\n    content =     (\n                {\n            c = \"\\U6211\\U624b\\U548c\\U7684\\U9762\\U3001\\U7d2f\\U6b7b\\U6211\\U4e5f\\U5957\\U4e0d\\U51fa\\U624b\\U819c\\U554a\\Uff1f\\U662f\\U548c\\U7684\\U8fd8\\U4e0d\\U591f\\U5417\\Uff1f\\U8fd8\\U662f\\U9762\\U7c89\\Uff1f\\U8bf7\\U6559\";\n        }\n    );\n    ia = 0;\n    id = 3748430;\n    \"ip_address_location\" = \"\";\n    like = 0;\n    \"like_count\" = 0;\n    \"reply_id\" = 0;\n    \"sticker_icon\" =     (\n    );\n    time = \"2016-06-24 04:53:55\";\n    u =     {\n        \"followers_count_text\" = \"\";\n        id = 16819589;\n        \"is_prime\" = 0;\n        lv = 0;\n        lvl = 3;\n        n = \"\\U8c46\\U7c89677489\";\n        p = \"\";\n        \"progress_image\" = \"\";\n        \"recipes_count_text\" = \"\";\n        relationship = \"-1\";\n        title = \"\";\n        v = 0;\n        \"verified_image\" = \"\";\n    };\n}",
        "{\n    ac = \"#999999\";\n    at = \"\";\n    ccc = 2;\n    \"child_comments\" =     (\n                {\n            ac = \"#999999\";\n            at = \"\";\n            ccc = 0;\n            city = \"\";\n            cmc = 2;\n            content =             (\n                                {\n                    c = \" \\U662f\\U6ef4\\Uff0c\\U7b2c\\U4e00\\U6b21\\U9192\\U53d1\\U662f\\U8981\\U8ba9\\U9762\\U56e2\\U51fa\\U7b4b\\Uff0c\\U5982\\U679c\\U52a0\\U5165\\U4e86\\U9175\\U6bcd\\U7c89\\U4f1a\\U9192\\U53d1\\U7684\\Uff0c\\U6240\\U4ee5\\U8981\\U7b2c\\U4e8c\\U6b21\\U52a0 \";\n                }\n            );\n            ia = 1;\n            id = 3748286;\n            \"ip_address_location\" = \"\";\n            like = 0;\n            \"like_count\" = 0;\n            \"reply_id\" = 3743473;\n            \"reply_user\" =             {\n                \"followers_count_text\" = \"\";\n                id = 16819589;\n                \"is_prime\" = 0;\n                lv = 0;\n                lvl = 3;\n                n = \"\\U8c46\\U7c89677489\";\n                p = \"\";\n                \"progress_image\" = \"\";\n                \"recipes_count_text\" = \"\";\n                relationship = \"-1\";\n                title = \"\";\n                v = 0;\n                \"verified_image\" = \"\";\n            };\n            \"sticker_icon\" =             (\n            );\n            time = \"2016-06-24 04:20:22\";\n            u =             {\n                \"followers_count_text\" = \"\";\n                id = 8942164;\n                \"is_prime\" = 0;\n                lv = 0;\n                lvl = 6;\n                n = \"\\U5403\\U597d\\U5403\\U7684\\U55bdaici\\U541b\";\n                p = \"http:\/\/tx1.douguo.net\/upload\/photo\/a\/2\/1\/70_u2890298993436140402.jpg\";\n                \"progress_image\" = \"\";\n                \"recipes_count_text\" = \"\";\n                relationship = \"-1\";\n                title = \"\";\n                v = 1;\n                \"verified_image\" = \"\";\n            };\n        },\n                {\n            ac = \"#999999\";\n            at = \"\";\n            ccc = 0;\n            city = \"\";\n            cmc = 2;\n            content =             (\n                                {\n                    c = \" \\U8c22\\U8c22\\U3002\\U7b2c\\U4e8c\\U6b21\\U7b2c\\U4e09\\U5929\\U6211\\U53c8\\U52a0\\U4e86\\U70b9\\U9762\\U7c89\\U53ef\\U4ee5\\U5417\\Uff1f\\U56e0\\U4e3a\\U6709\\U70b9\\U7c98\\U3001\";\n                }\n            );\n            ia = 0;\n            id = 3748384;\n            \"ip_address_location\" = \"\";\n            like = 0;\n            \"like_count\" = 0;\n            \"reply_id\" = 3748286;\n            \"reply_user\" =             {\n                \"followers_count_text\" = \"\";\n                id = 8942164;\n                \"is_prime\" = 0;\n                lv = 0;\n                lvl = 6;\n                n = \"\\U5403\\U597d\\U5403\\U7684\\U55bdaici\\U541b\";\n                p = \"http:\/\/tx1.douguo.net\/upload\/photo\/a\/2\/1\/70_u2890298993436140402.jpg\";\n                \"progress_image\" = \"\";\n                \"recipes_count_text\" = \"\";\n                relationship = \"-1\";\n                title = \"\";\n                v = 1;\n                \"verified_image\" = \"\";\n            };\n            \"sticker_icon\" =             (\n            );\n            time = \"2016-06-24 04:39:15\";\n            u =             {\n                \"followers_count_text\" = \"\";\n                id = 16819589;\n                \"is_prime\" = 0;\n                lv = 0;\n                lvl = 3;\n                n = \"\\U8c46\\U7c89677489\";\n                p = \"\";\n                \"progress_image\" = \"\";\n                \"recipes_count_text\" = \"\";\n                relationship = \"-1\";\n                title = \"\";\n                v = 0;\n                \"verified_image\" = \"\";\n            };\n        }\n    );\n    city = \"\";\n    cmc = 2;\n    content =     (\n                {\n            c = \"\\U9175\\U6bcd\\U7b2c\\U4e8c\\U6b21\\U624d\\U653e\\U5165\\Uff1f\\U4e0d\\U662f\\U7b2c\\U4e00\\U6b21\\U548c\\U9762\\U76f4\\U63a5\\U653e\\Uff1f\";\n        }\n    );\n    ia = 0;\n    id = 3743473;\n    \"ip_address_location\" = \"\";\n    like = 0;\n    \"like_count\" = 0;\n    \"reply_id\" = 0;\n    \"sticker_icon\" =     (\n    );\n    time = \"2016-06-22 14:37:56\";\n    u =     {\n        \"followers_count_text\" = \"\";\n        id = 16819589;\n        \"is_prime\" = 0;\n        lv = 0;\n        lvl = 3;\n        n = \"\\U8c46\\U7c89677489\";\n        p = \"\";\n        \"progress_image\" = \"\";\n        \"recipes_count_text\" = \"\";\n        relationship = \"-1\";\n        title = \"\";\n        v = 0;\n        \"verified_image\" = \"\";\n    };\n}",
        "{\n    ac = \"#999999\";\n    at = \"\";\n    ccc = 1;\n    \"child_comments\" =     (\n                {\n            ac = \"#999999\";\n            at = \"\";\n            ccc = 0;\n            city = \"\";\n            cmc = 2;\n            content =             (\n                                {\n                    c = \" \\U6839\\U636e\\U9762\\U7c89\\U7684\\U5438\\U6c34\\U6027\\U6765\\U6dfb\\U52a0\\U6c34 \";\n                }\n            );\n            ia = 1;\n            id = 3748288;\n            \"ip_address_location\" = \"\";\n            like = 0;\n            \"like_count\" = 0;\n            \"reply_id\" = 3734926;\n            \"reply_user\" =             {\n                \"followers_count_text\" = \"\";\n                id = 8803211;\n                \"is_prime\" = 0;\n                lv = 0;\n                lvl = 2;\n                n = \"\\U8001\\U6bcd\\U4eb2\\U7684\\U5c0f\\U98df\\U5149\";\n                p = \"http:\/\/tx1.douguo.net\/upload\/photo\/5\/c\/e\/70_u28030479793717215312.jpeg\";\n                \"progress_image\" = \"\";\n                \"recipes_count_text\" = \"\";\n                relationship = \"-1\";\n                title = \"\";\n                v = 0;\n                \"verified_image\" = \"\";\n            };\n            \"sticker_icon\" =             (\n            );\n            time = \"2016-06-24 04:20:44\";\n            u =             {\n                \"followers_count_text\" = \"\";\n                id = 8942164;\n                \"is_prime\" = 0;\n                lv = 0;\n                lvl = 6;\n                n = \"\\U5403\\U597d\\U5403\\U7684\\U55bdaici\\U541b\";\n                p = \"http:\/\/tx1.douguo.net\/upload\/photo\/a\/2\/1\/70_u2890298993436140402.jpg\";\n                \"progress_image\" = \"\";\n                \"recipes_count_text\" = \"\";\n                relationship = \"-1\";\n                title = \"\";\n                v = 1;\n                \"verified_image\" = \"\";\n            };\n        }\n    );\n    city = \"\";\n    cmc = 2;\n    content =     (\n                {\n            c = \"\\U591a\\U5c11\\U6c34\\Uff1f\";\n        }\n    );\n    ia = 0;\n    id = 3734926;\n    \"ip_address_location\" = \"\";\n    like = 0;\n    \"like_count\" = 0;\n    \"reply_id\" = 0;\n    \"sticker_icon\" =     (\n    );\n    time = \"2016-06-20 08:22:46\";\n    u =     {\n        \"followers_count_text\" = \"\";\n        id = 8803211;\n        \"is_prime\" = 0;\n        lv = 0;\n        lvl = 2;\n        n = \"\\U8001\\U6bcd\\U4eb2\\U7684\\U5c0f\\U98df\\U5149\";\n        p = \"http:\/\/tx1.douguo.net\/upload\/photo\/5\/c\/e\/70_u28030479793717215312.jpeg\";\n        \"progress_image\" = \"\";\n        \"recipes_count_text\" = \"\";\n        relationship = \"-1\";\n        title = \"\";\n        v = 0;\n        \"verified_image\" = \"\";\n    };\n}"
      ],
      "advice" : {
        "has" : [
          {
            "t" : "富含蛋白质",
            "url" : "recipes:\/\/www.douguo.com\/simplerecipelist?t=富含蛋白质&id=富含蛋白质"
          },
          {
            "url" : "recipes:\/\/www.douguo.com\/simplerecipelist?t=高盐&id=高盐",
            "t" : "高盐"
          }
        ],
        "da" : {
          "url" : "https:\/\/m.douguo.com\/recipe\/nutrient_self\/1320427",
          "t" : "查看详细分析",
          "iu" : "https:\/\/i1.douguo.com\/upload\/banner\/f\/4\/d\/f48877e53c37759bc12ac494be82ec8d.png"
        },
        "at" : "有助于组织的形成和生长～"
      },
      "favo_counts" : 1025,
      "rips" : 0,
      "rdsps" : [

      ],
      "create_time" : "2016-01-16 19:53:55",
      "v_u" : "",
      "share_info" : {
        "s_d" : "香肠热狗面包-会做饭很酷!",
        "infos" : [
          {
            "s_u" : "",
            "name" : "香肠热狗面包-会做饭很酷!",
            "s_d" : "#学做饭用豆果美食#  我在@豆果美食 分享了【香肠热狗面包-会做饭很酷!】，制作美食的过程承载了我生活中的热情，和我一起感受这份小确幸吧！查看图片了解菜谱（你喜欢的美食都在这里！https:\/\/m.weibo.cn\/p\/100404i33631）#会做饭很酷# ",
            "image" : "https:\/\/cp1.douguo.com\/upload\/caiku\/b\/c\/6\/bcad58e931096a2b01610aaa134b5016.jpg",
            "qr_image" : "",
            "channel" : "1",
            "mini_program" : [

            ],
            "object_id" : "1320427"
          },
          {
            "s_d" : "香肠热狗面包-会做饭很酷!",
            "name" : "香肠热狗面包-会做饭很酷!",
            "mini_program" : [

            ],
            "channel" : "7",
            "s_u" : "http:\/\/m.douguo.com\/cookbook\/1320427.html",
            "image" : "https:\/\/cp1.douguo.com\/upload\/caiku\/b\/c\/6\/bcad58e931096a2b01610aaa134b5016.jpg",
            "object_id" : "1320427",
            "qr_image" : ""
          },
          {
            "s_u" : "http:\/\/m.douguo.com\/cookbook\/1320427.html",
            "image" : "https:\/\/cp1.douguo.com\/upload\/caiku\/b\/c\/6\/bcad58e931096a2b01610aaa134b5016.jpg",
            "object_id" : "1320427",
            "qr_image" : "",
            "channel" : "8",
            "s_d" : "香肠热狗面包-会做饭很酷!",
            "name" : "香肠热狗面包-会做饭很酷!",
            "mini_program" : [

            ]
          }
        ],
        "object_id" : "1320427",
        "qr_image" : "",
        "mini_program" : [

        ],
        "name" : "香肠热狗面包-会做饭很酷!",
        "image" : "https:\/\/cp1.douguo.com\/upload\/caiku\/b\/c\/6\/bcad58e931096a2b01610aaa134b5016.jpg",
        "s_u" : "http:\/\/m.douguo.com\/cookbook\/1320427.html"
      },
      "recipe_tags" : [

      ],
      "cook_time" : "1小时以上",
      "rewarded_video_dsp" : [

      ],
      "dish_count_text" : "2",
      "minor" : [
        "{\n    note = 1g;\n    title = \"\\U98df\\U76d0\";\n    tu = \"https:\/\/https:\/\/m.douguo.com\/ingredients\/\\U98df\\U76d0\/detailmaterial\";\n}",
        "{\n    note = 2g;\n    title = \"\\U9175\\U6bcd\";\n    tu = \"https:\/\/https:\/\/m.douguo.com\/ingredients\/\\U9175\\U6bcd\/detailmaterial\";\n}",
        "{\n    note = 8g;\n    title = \"\\U9ec4\\U6cb9\";\n    tu = \"https:\/\/https:\/\/m.douguo.com\/ingredients\/\\U9ec4\\U6cb9\/detailmaterial\";\n}",
        "{\n    note = 5g;\n    title = \"\\U86cb\\U6db2\";\n}",
        "{\n    note = 5g;\n    title = \"\\U9ed1\\U829d\\U9ebb\";\n    tu = \"https:\/\/https:\/\/m.douguo.com\/ingredients\/\\U9ed1\\U829d\\U9ebb\/detailmaterial\";\n}",
        "{\n    note = 5g;\n    title = \"\\U767d\\U829d\\U9ebb\";\n    tu = \"https:\/\/https:\/\/m.douguo.com\/ingredients\/\\U767d\\U829d\\U9ebb\/detailmaterial\";\n}",
        "{\n    note = 2g;\n    title = \"\\U6a44\\U6984\\U6cb9\";\n    tu = \"https:\/\/https:\/\/m.douguo.com\/ingredients\/\\U6a44\\U6984\\U6cb9\/detailmaterial\";\n}"
      ],
      "bs" : [

      ],
      "packages_id" : [

      ],
      "ecs" : 0,
      "image" : "http:\/\/i1.douguo.net\/upload\/caiku\/b\/c\/6\/300_bcad58e931096a2b01610aaa134b5016.jpg",
      "brand_day_dsp" : [

      ],
      "sr" : "",
      "vfurl" : "",
      "cook_time_image" : "https:\/\/i1.douguo.com\/upload\/banner\/1551423815.png",
      "recent_comments" : [

      ],
      "recipe_list_tags" : [
        {
          "text" : "关注的人",
          "background_start_color" : "#F4F5F5",
          "background_end_color" : "#F4F5F5",
          "jump_url" : "",
          "text_color" : "#141515",
          "right_image" : "",
          "background_border_color" : ""
        },
        {
          "jump_url" : "",
          "text" : "内容详细",
          "background_end_color" : "#F4F5F5",
          "background_border_color" : "",
          "text_color" : "#141515",
          "right_image" : "",
          "background_start_color" : "#F4F5F5"
        }
      ],
      "user" : {
        "diaries_count" : 0,
        "subscription" : 0,
        "dishes_count" : 0,
        "lvl" : 6,
        "qzone_nick" : "",
        "user_large_photo" : "http:\/\/tx1.douguo.net\/upload\/photo\/a\/2\/1\/yuan_u2890298993436140402.jpg",
        "mobile" : "",
        "favorites_count" : 0,
        "qq_weibo_nick" : "",
        "user_cover" : "",
        "recipes_count" : 0,
        "nick" : "吃好吃的喽aici君",
        "location" : 0,
        "introduction" : "",
        "following_count" : 0,
        "favor_diaries_count" : 0,
        "verified_url" : "https:\/\/m.douguo.com\/user\/prodesc",
        "is_prime" : 0,
        "subscription_article_count" : 0,
        "regist_time" : "",
        "lv" : 0,
        "setted_email" : 0,
        "birthday" : "",
        "pc" : 0,
        "userid" : "8942164",
        "avatar_medium" : "http:\/\/tx1.douguo.net\/upload\/photo\/a\/2\/1\/140_u2890298993436140402.jpg",
        "followers_count" : 0,
        "verified" : 1,
        "fc" : 0,
        "user_id" : "8942164",
        "verified_image" : "https:\/\/i1.douguo.com\/upload\/note\/d\/a\/a\/da84247847aebe48d9dd0fcdac88862a.png",
        "sign" : "",
        "email" : "",
        "weibo_nick" : "",
        "user_photo" : "http:\/\/tx1.douguo.net\/upload\/photo\/a\/2\/1\/70_u2890298993436140402.jpg",
        "point" : 0,
        "gender" : 2,
        "coursecount" : 0,
        "progress_image" : "",
        "age" : ""
      },
      "ipia" : [

      ],
      "rpst" : "",
      "ipurl" : "",
      "rate_count" : 0,
      "favo_counts_text" : "1025",
      "author_photo" : "http:\/\/tx1.douguo.net\/upload\/photo\/a\/2\/1\/70_u2890298993436140402.jpg",
      "top_mdsp" : [

      ],
      "display_ingredient" : 1,
      "act_des" : "",
      "title" : "香肠热狗面包",
      "eu" : "recipes:\/\/www.douguo.com\/postdetail?id=242016",
      "clicks" : "37363",
      "vc" : "45302",
      "cook_difficulty" : "切墩(初级)",
      "btm_dsp" : [

      ],
      "recommendation_tag" : "",
      "su" : "",
      "ipci" : "",
      "cook_difficulty_image" : "https:\/\/i1.douguo.com\/upload\/banner\/1551424390.png",
      "event" : {
        "id" : 0
      },
      "thumb_path" : "https:\/\/i1.douguo.com\/upload\/caiku\/b\/c\/6\/300_bcad58e931096a2b01610aaa134b5016.jpg"
    }
  }
}