{
  "result" : {
    "recipe" : {
      "comments" : [

      ],
      "notes" : [

      ],
      "ipia" : [

      ],
      "dish_count" : 0,
      "rrps" : [

      ],
      "vu" : "",
      "recipe_tags" : [

      ],
      "cook_difficulty_image" : "https:\/\/i1.douguo.com\/upload\/banner\/1551424390.png",
      "author_id" : 22948190,
      "share_info" : {
        "mini_program" : [

        ],
        "object_id" : "3218127",
        "image" : "https:\/\/cp1.douguo.com\/upload\/caiku\/3\/4\/5\/3454758320a0d0c7875e25ba306da435.jpg",
        "s_u" : "http:\/\/m.douguo.com\/cookbook\/3218127.html",
        "s_d" : "鱼头煲-会做饭很酷!",
        "infos" : [
          {
            "channel" : "1",
            "s_u" : "",
            "qr_image" : "",
            "s_d" : "#学做饭用豆果美食# 我在@豆果美食 分享了【鱼头煲-会做饭很酷!】，哟，集美们～你看这是神仙美味～快跟着我做一份，做一份！查看图片了解菜谱（更多美食秘籍点击https:\/\/m.weibo.cn\/p\/100404i33631获取）#会做饭很酷# ",
            "image" : "https:\/\/cp1.douguo.com\/upload\/caiku\/3\/4\/5\/3454758320a0d0c7875e25ba306da435.jpg",
            "mini_program" : [

            ],
            "object_id" : "3218127",
            "name" : "鱼头煲-会做饭很酷!"
          },
          {
            "qr_image" : "",
            "s_d" : "鱼头煲-会做饭很酷!",
            "image" : "https:\/\/cp1.douguo.com\/upload\/caiku\/3\/4\/5\/3454758320a0d0c7875e25ba306da435.jpg",
            "object_id" : "3218127",
            "name" : "鱼头煲-会做饭很酷!",
            "s_u" : "http:\/\/m.douguo.com\/cookbook\/3218127.html",
            "mini_program" : [

            ],
            "channel" : "7"
          },
          {
            "channel" : "8",
            "mini_program" : [

            ],
            "object_id" : "3218127",
            "name" : "鱼头煲-会做饭很酷!",
            "s_d" : "鱼头煲-会做饭很酷!",
            "image" : "https:\/\/cp1.douguo.com\/upload\/caiku\/3\/4\/5\/3454758320a0d0c7875e25ba306da435.jpg",
            "qr_image" : "",
            "s_u" : "http:\/\/m.douguo.com\/cookbook\/3218127.html"
          }
        ],
        "qr_image" : "",
        "name" : "鱼头煲-会做饭很酷!"
      },
      "ipci" : "",
      "brand_day_dsp" : [

      ],
      "bs" : [

      ],
      "hq" : 1,
      "comments_count_text" : "",
      "mid_mdsp" : [

      ],
      "tags" : [

      ],
      "eu" : "recipes:\/\/www.douguo.com\/postdetail?id=242016",
      "cook_difficulty" : "切墩(初级)",
      "ipt" : "",
      "ssu" : "",
      "rpt" : "",
      "recommended" : 0,
      "old_comments" : [

      ],
      "rdsps" : [

      ],
      "cook_id" : "3218127",
      "create_time" : "2022-10-08 14:58:01",
      "rewarded_video_dsp" : [

      ],
      "ph" : 1000,
      "dish_count_text" : "",
      "thumb_path" : "https:\/\/i1.douguo.com\/upload\/caiku\/3\/4\/5\/300_3454758320a0d0c7875e25ba306da435.jpg",
      "rate" : 0,
      "vfurl" : "",
      "author" : "蜜桃厨房",
      "cookstorys" : [
        {
          "u" : "",
          "type" : 0,
          "icon" : "",
          "id" : 0,
          "color" : "",
          "c" : "生啫鱼头煲，广东的经典吃法。\r\n\r\n高温烧焗，烈火烹油拌以葱姜蒜，焦香中迫出了鱼鲜味，滋滋作响！\r\n\r\n这次我煲的是胖头鱼，也就是鳙鱼。鱼界著名的“大头选手”，以头大富有胶质、脑满肉肥而称霸餐桌。\r\n\r\n李时珍在《本草纲目》中夸赞：“鳙之美在头。”吃过它的人，无不夸其嫩滑味美。\r\n\r\n鱼头不仅好吃，还富含卵磷脂和不饱和脂肪，可以增强免疫跟促进大脑发育。\r\n\r\n对于有小孩老人的家庭来说，是不错的纯天然“保健品”。就是市场的鱼头紧俏，想买还得赶早哦~"
        }
      ],
      "minor" : [

      ],
      "ipoi" : "",
      "su" : "",
      "ss" : [

      ],
      "rcs" : [

      ],
      "rips" : 0,
      "rate_show" : 0,
      "title" : "鱼头煲",
      "photo_path" : "https:\/\/i1.douguo.com\/upload\/caiku\/3\/4\/5\/600_3454758320a0d0c7875e25ba306da435.jpg",
      "author_photo" : "http:\/\/tx1.douguo.net\/upload\/photo\/c\/2\/e\/70_c2fe4992d2ba91046837a236e33003ae.jpg",
      "favo_counts_text" : "401",
      "pw" : 1497,
      "recommendation_tag" : "",
      "cookwares" : [

      ],
      "clicks" : "1",
      "rrpt" : "",
      "cookstep" : [
        {
          "thumb" : "https:\/\/i1.douguo.com\/upload\/caiku\/6\/7\/1\/67faa9ebb92b46c834397326cd68c551.gif",
          "image" : "https:\/\/i1.douguo.com\/upload\/caiku\/6\/7\/1\/67faa9ebb92b46c834397326cd68c551.gif",
          "image_width" : 480,
          "position" : 1,
          "image_height" : 270,
          "frame" : "-1",
          "content" : "腌鱼酱料制作：热锅倒油，将姜碎、蒜碎、葱白加入炒香，再加入泡椒、豆豉翻炒1分钟\r\n\r\n再加入盐、糖、白胡椒粉、生抽、蚝油翻拌均匀，最后淋入水淀粉煮至浓稠即可盛出放凉备用"
        },
        {
          "content" : "鱼头洗净沥干水分，斩成大块盛入碗中，加入放凉的腌鱼酱料和生粉搅拌均匀腌制15分钟备用",
          "image" : "https:\/\/i1.douguo.com\/upload\/caiku\/8\/b\/d\/8bfe55b2a4ecbe6e5c18553f781c4fed.gif",
          "frame" : "-1",
          "image_height" : 270,
          "thumb" : "https:\/\/i1.douguo.com\/upload\/caiku\/8\/b\/d\/8bfe55b2a4ecbe6e5c18553f781c4fed.gif",
          "image_width" : 480,
          "position" : 2
        },
        {
          "image" : "https:\/\/i1.douguo.com\/upload\/caiku\/a\/2\/1\/a2e348a4a9d9a551feb04a5451b5e6f1.gif",
          "thumb" : "https:\/\/i1.douguo.com\/upload\/caiku\/a\/2\/1\/a2e348a4a9d9a551feb04a5451b5e6f1.gif",
          "content" : "蒜1开2，姜切大粒，干葱头1开2备用",
          "image_height" : 270,
          "position" : 3,
          "frame" : "-1",
          "image_width" : 480
        },
        {
          "image_height" : 270,
          "content" : "准备一口砂锅，热锅倒油，加入蒜粒、姜粒、干葱头翻炒出香味，平铺放入腌制好的鱼头块，盖上锅盖，淋上一圈料酒，中火焗12分钟",
          "position" : 4,
          "frame" : "-1",
          "image" : "https:\/\/i1.douguo.com\/upload\/caiku\/6\/b\/4\/6bebe72b47522a098db47900ff723e24.gif",
          "thumb" : "https:\/\/i1.douguo.com\/upload\/caiku\/6\/b\/4\/6bebe72b47522a098db47900ff723e24.gif",
          "image_width" : 480
        },
        {
          "thumb" : "https:\/\/i1.douguo.com\/upload\/caiku\/3\/7\/9\/37ae506663a35402be692b5de4f72689.gif",
          "image_width" : 480,
          "content" : "开盖撒上香菜段、青葱段、小米椒圈即可",
          "image" : "https:\/\/i1.douguo.com\/upload\/caiku\/3\/7\/9\/37ae506663a35402be692b5de4f72689.gif",
          "image_height" : 270,
          "frame" : "-1",
          "position" : 5
        }
      ],
      "user" : {
        "fc" : 0,
        "diaries_count" : 0,
        "setted_email" : 0,
        "sign" : "",
        "user_photo" : "http:\/\/tx1.douguo.net\/upload\/photo\/c\/2\/e\/70_c2fe4992d2ba91046837a236e33003ae.jpg",
        "recipes_count" : 0,
        "subscription_article_count" : 0,
        "verified" : 1,
        "gender" : 2,
        "qq_weibo_nick" : "",
        "mobile" : "",
        "point" : 0,
        "qzone_nick" : "",
        "avatar_medium" : "http:\/\/tx1.douguo.net\/upload\/photo\/c\/2\/e\/140_c2fe4992d2ba91046837a236e33003ae.jpg",
        "verified_url" : "https:\/\/m.douguo.com\/user\/prodesc",
        "favor_diaries_count" : 0,
        "coursecount" : 0,
        "is_prime" : 0,
        "location" : 0,
        "lv" : 0,
        "user_id" : "22948190",
        "user_cover" : "",
        "nick" : "蜜桃厨房",
        "introduction" : "",
        "verified_image" : "https:\/\/i1.douguo.com\/upload\/note\/d\/a\/a\/da84247847aebe48d9dd0fcdac88862a.png",
        "birthday" : "",
        "pc" : 0,
        "age" : "",
        "lvl" : 7,
        "progress_image" : "",
        "userid" : "22948190",
        "followers_count" : 0,
        "dishes_count" : 0,
        "user_large_photo" : "http:\/\/tx1.douguo.net\/upload\/photo\/c\/2\/e\/yuan_c2fe4992d2ba91046837a236e33003ae.jpg",
        "regist_time" : "",
        "email" : "",
        "subscription" : 0,
        "weibo_nick" : "",
        "favorites_count" : 0,
        "following_count" : 0
      },
      "recipe_list_tags" : [
        {
          "jump_url" : "",
          "text" : "关注的人",
          "background_border_color" : "",
          "right_image" : "",
          "background_end_color" : "#F4F5F5",
          "background_start_color" : "#F4F5F5",
          "text_color" : "#141515"
        },
        {
          "background_start_color" : "#F4F5F5",
          "background_border_color" : "",
          "background_end_color" : "#F4F5F5",
          "text" : "内容详细",
          "right_image" : "",
          "jump_url" : "",
          "text_color" : "#141515"
        }
      ],
      "guide_image" : "",
      "tips" : "1.这里用的是大头鱼鱼头，买不到也可以用草鱼鱼头或其他鱼头制作\r\n2.腌鱼的酱料可以根据个人口味做调整，喜欢吃辣的小伙伴可以加多点辣椒，不喜欢可以不放\r\n3.腌鱼酱料炒过后会比较香，嫌麻烦的也可以不炒，直接加入到鱼头块腌制就好",
      "first_level_comment_count" : 0,
      "packages_id" : [

      ],
      "rsm" : "该功能暂停使用",
      "cookstory" : "生啫鱼头煲，广东的经典吃法。\r\n\r\n高温烧焗，烈火烹油拌以葱姜蒜，焦香中迫出了鱼鲜味，滋滋作响！\r\n\r\n这次我煲的是胖头鱼，也就是鳙鱼。鱼界著名的“大头选手”，以头大富有胶质、脑满肉肥而称霸餐桌。\r\n\r\n李时珍在《本草纲目》中夸赞：“鳙之美在头。”吃过它的人，无不夸其嫩滑味美。\r\n\r\n鱼头不仅好吃，还富含卵磷脂和不饱和脂肪，可以增强免疫跟促进大脑发育。\r\n\r\n对于有小孩老人的家庭来说，是不错的纯天然“保健品”。就是市场的鱼头紧俏，想买还得赶早哦~",
      "rpid" : 0,
      "sc" : 0,
      "rpst" : "",
      "advice" : {
        "da" : {
          "t" : "查看详细分析",
          "iu" : "https:\/\/i1.douguo.com\/upload\/banner\/f\/4\/d\/f48877e53c37759bc12ac494be82ec8d.png",
          "url" : "https:\/\/m.douguo.com\/recipe\/nutrient_self\/3218127"
        },
        "at" : "能有效控制体重～",
        "has" : [
          {
            "url" : "recipes:\/\/www.douguo.com\/simplerecipelist?t=低脂&id=低脂",
            "t" : "低脂"
          }
        ]
      },
      "top_mdsp" : [

      ],
      "ipit" : 0,
      "act_des" : "",
      "story_dsp" : [

      ],
      "rate_count" : 0,
      "ecs" : 0,
      "vc" : "23031",
      "comments_count" : 0,
      "recent_comments" : [

      ],
      "release_time" : "",
      "purl" : "",
      "major" : [
        {
          "title" : "腌鱼酱料：姜碎",
          "note" : "20g"
        },
        {
          "title" : "蒜碎",
          "note" : "20g"
        },
        {
          "title" : "葱白",
          "note" : "15g"
        },
        {
          "note" : "20g",
          "title" : "豆豉"
        },
        {
          "note" : "20g",
          "title" : "红泡椒碎"
        },
        {
          "note" : "2g",
          "title" : "盐",
          "tu" : "https:\/\/m.douguo.com\/ingredients\/盐\/detailmaterial"
        },
        {
          "tu" : "https:\/\/m.douguo.com\/ingredients\/白糖\/detailmaterial",
          "note" : "5g",
          "title" : "白糖"
        },
        {
          "note" : "0.5g",
          "title" : "白胡椒粉"
        },
        {
          "tu" : "https:\/\/m.douguo.com\/ingredients\/生抽\/detailmaterial",
          "note" : "20g",
          "title" : "生抽"
        },
        {
          "title" : "蚝油",
          "note" : "15g",
          "tu" : "https:\/\/m.douguo.com\/ingredients\/蚝油\/detailmaterial"
        },
        {
          "note" : "5g（加清水40g调成水淀粉）",
          "title" : "淀粉"
        },
        {
          "note" : "800g",
          "title" : "腌鱼头：鱼头块"
        },
        {
          "title" : "腌鱼酱料",
          "note" : "全部"
        },
        {
          "note" : "5g",
          "tu" : "https:\/\/m.douguo.com\/ingredients\/生粉\/detailmaterial",
          "title" : "生粉"
        },
        {
          "note" : "80g",
          "title" : "配菜：蒜粒"
        },
        {
          "title" : "姜粒",
          "note" : "80g"
        },
        {
          "note" : "80g",
          "title" : "干葱头"
        },
        {
          "note" : "25g",
          "title" : "料酒",
          "tu" : "https:\/\/m.douguo.com\/ingredients\/料酒\/detailmaterial"
        },
        {
          "note" : "少许",
          "title" : "香菜段"
        },
        {
          "note" : "少许",
          "title" : "青葱段"
        },
        {
          "note" : "少许",
          "title" : "小米椒圈"
        }
      ],
      "thumb_height" : 0,
      "original_photo_path" : "http:\/\/i1.douguo.net\/upload\/caiku\/3\/4\/5\/yuan_3454758320a0d0c7875e25ba306da435.jpg",
      "related_ads" : [

      ],
      "cook_time_image" : "https:\/\/i1.douguo.com\/upload\/banner\/1551424341.png",
      "sr" : "",
      "cook_time" : "10-30分钟",
      "ipurl" : "",
      "author_verified" : 1,
      "image" : "http:\/\/i1.douguo.net\/upload\/caiku\/3\/4\/5\/300_3454758320a0d0c7875e25ba306da435.jpg",
      "btm_dsp" : [

      ],
      "v_u" : "",
      "recommend_label" : "2.3万人看过",
      "hqu" : "recipes:\/\/www.douguo.com\/notedetail?id=21162253",
      "views_count_text" : "2.3万",
      "display_ingredient" : 1,
      "favo_counts" : 401,
      "levelid" : 2,
      "title_ad" : [

      ],
      "dishes" : [

      ],
      "collect_status" : 0
    }
  },
  "state" : "success",
  "status" : 0
}