{
  "status" : 0,
  "result" : {
    "recipe" : {
      "cook_difficulty" : "切墩(初级)",
      "old_comments" : [

      ],
      "ipit" : 0,
      "author_photo" : "http:\/\/tx1.douguo.net\/upload\/photo\/a\/2\/b\/70_u6853409670007140609.jpg",
      "ipt" : "",
      "ph" : 1620,
      "recent_comments" : [

      ],
      "cookstep" : [
        {
          "image_height" : 536,
          "content" : "准备一台沙冰机，加入两片芒果肉",
          "frame" : "-1",
          "position" : 1,
          "thumb" : "https:\/\/i1.douguo.com\/upload\/caiku\/1\/b\/2\/140_1b536915efb76b01ff30ff1f68de9e32.jpg",
          "image" : "https:\/\/i1.douguo.com\/upload\/caiku\/1\/b\/2\/1b536915efb76b01ff30ff1f68de9e32.jpg",
          "image_width" : 507
        },
        {
          "position" : 2,
          "image_width" : 506,
          "content" : "加入芒果果酱",
          "image" : "https:\/\/i1.douguo.com\/upload\/caiku\/1\/5\/3\/15a884b884b7d55fee3cf784413f2dd3.jpg",
          "thumb" : "https:\/\/i1.douguo.com\/upload\/caiku\/1\/5\/3\/140_15a884b884b7d55fee3cf784413f2dd3.jpg",
          "image_height" : 539,
          "frame" : "-1"
        },
        {
          "position" : 3,
          "image_width" : 505,
          "thumb" : "https:\/\/i1.douguo.com\/upload\/caiku\/a\/7\/7\/140_a77a5e38b4bd616b584db2178ece1e97.jpg",
          "frame" : "-1",
          "image_height" : 536,
          "image" : "https:\/\/i1.douguo.com\/upload\/caiku\/a\/7\/7\/a77a5e38b4bd616b584db2178ece1e97.jpg",
          "content" : "倒入冰块"
        },
        {
          "image" : "https:\/\/i1.douguo.com\/upload\/caiku\/3\/f\/e\/3ffbb47dc935736c6097f29d6bafe5ee.jpg",
          "position" : 4,
          "frame" : "-1",
          "content" : "倒入冰水",
          "thumb" : "https:\/\/i1.douguo.com\/upload\/caiku\/3\/f\/e\/140_3ffbb47dc935736c6097f29d6bafe5ee.jpg",
          "image_width" : 505,
          "image_height" : 540
        },
        {
          "content" : "启动沙冰机，打至绵绸",
          "image_height" : 542,
          "image" : "https:\/\/i1.douguo.com\/upload\/caiku\/1\/9\/8\/192c45abc6deb009799abd09f7c614b8.jpg",
          "image_width" : 501,
          "thumb" : "https:\/\/i1.douguo.com\/upload\/caiku\/1\/9\/8\/140_192c45abc6deb009799abd09f7c614b8.jpg",
          "position" : 5,
          "frame" : "-1"
        },
        {
          "thumb" : "https:\/\/i1.douguo.com\/upload\/caiku\/5\/8\/5\/140_582df0f7a14936d3c3802132e657abd5.jpg",
          "image" : "https:\/\/i1.douguo.com\/upload\/caiku\/5\/8\/5\/582df0f7a14936d3c3802132e657abd5.jpg",
          "frame" : "-1",
          "image_width" : 506,
          "image_height" : 560,
          "position" : 6,
          "content" : "准备一个出品杯，加入芒果布丁"
        },
        {
          "image_width" : 505,
          "frame" : "-1",
          "thumb" : "https:\/\/i1.douguo.com\/upload\/caiku\/4\/0\/8\/140_40ad44b5cffe141d6cbb0b7369ca8838.jpg",
          "image" : "https:\/\/i1.douguo.com\/upload\/caiku\/4\/0\/8\/40ad44b5cffe141d6cbb0b7369ca8838.jpg",
          "image_height" : 567,
          "position" : 7,
          "content" : "加入小芋圆"
        },
        {
          "position" : 8,
          "frame" : "-1",
          "image_height" : 561,
          "image" : "https:\/\/i1.douguo.com\/upload\/caiku\/5\/6\/0\/565c5800f320414016099f2b637c29c0.jpg",
          "image_width" : 506,
          "thumb" : "https:\/\/i1.douguo.com\/upload\/caiku\/5\/6\/0\/140_565c5800f320414016099f2b637c29c0.jpg",
          "content" : "把沙冰机中芒果沙冰倒入"
        },
        {
          "image_width" : 505,
          "content" : "再铺上奶盖，芋圆芝士芒芒完成了！",
          "image_height" : 569,
          "image" : "https:\/\/i1.douguo.com\/upload\/caiku\/1\/1\/b\/11afd1fb003e12194a4828ea1e8f378b.jpg",
          "frame" : "-1",
          "thumb" : "https:\/\/i1.douguo.com\/upload\/caiku\/1\/1\/b\/140_11afd1fb003e12194a4828ea1e8f378b.jpg",
          "position" : 9
        }
      ],
      "recipe_list_tags" : [
        {
          "background_border_color" : "",
          "right_image" : "",
          "text_color" : "#141515",
          "background_start_color" : "#F4F5F5",
          "background_end_color" : "#F4F5F5",
          "text" : "关注的人",
          "jump_url" : ""
        },
        {
          "background_end_color" : "#F4F5F5",
          "right_image" : "",
          "background_start_color" : "#F4F5F5",
          "text_color" : "#141515",
          "jump_url" : "",
          "text" : "内容详细",
          "background_border_color" : ""
        }
      ],
      "vfurl" : "",
      "purl" : "",
      "author" : "轻餐国际",
      "rrpt" : "",
      "ipurl" : "",
      "recommendation_tag" : "",
      "ssu" : "",
      "top_mdsp" : [

      ],
      "cookwares" : [

      ],
      "thumb_height" : 0,
      "collect_status" : 0,
      "cook_id" : "2499423",
      "v_u" : "",
      "hqu" : "recipes:\/\/www.douguo.com\/notedetail?id=21162253",
      "recommended" : 0,
      "dish_count" : 0,
      "ecs" : 0,
      "story_dsp" : [

      ],
      "vc" : "34773",
      "tips" : "芒果受到不少人的青睐，除了口味独特，其营养价值也是不容小觑的。芒果果实含有糖、蛋白质、粗纤维，以及所有水果中少见的维生素A的前体胡萝卜素，维生素C含量也不低哦~",
      "guide_image" : "",
      "minor" : [

      ],
      "rpid" : 0,
      "ipoi" : "",
      "image" : "http:\/\/i1.douguo.net\/upload\/caiku\/e\/0\/d\/300_e010a84657984d1d0caa1ed64b27536d.jpg",
      "rate" : 0,
      "clicks" : "32383",
      "cookstory" : "立夏之后的日子，没有比一杯芋圆芝士芒芒的陪伴来得更舒心的了。芒果的绵密和芝士奶盖的香醇完美地融合，温柔得快要融到人的心坎里，再加上高颜值的小芋圆会心一击，没有理由不让你心动！",
      "rips" : 0,
      "share_info" : {
        "image" : "https:\/\/cp1.douguo.com\/upload\/caiku\/e\/0\/d\/e010a84657984d1d0caa1ed64b27536d.jpg",
        "object_id" : "2499423",
        "mini_program" : [

        ],
        "s_u" : "http:\/\/m.douguo.com\/cookbook\/2499423.html",
        "qr_image" : "",
        "name" : "芋圆芝士芒芒-会做饭很酷!",
        "s_d" : "芋圆芝士芒芒-会做饭很酷!",
        "infos" : [
          {
            "object_id" : "2499423",
            "image" : "https:\/\/cp1.douguo.com\/upload\/caiku\/e\/0\/d\/e010a84657984d1d0caa1ed64b27536d.jpg",
            "qr_image" : "",
            "s_u" : "",
            "channel" : "1",
            "mini_program" : [

            ],
            "name" : "芋圆芝士芒芒-会做饭很酷!",
            "s_d" : "#学做饭用豆果美食# 我在@豆果美食 分享了【芋圆芝士芒芒-会做饭很酷!】，帅哥美眉们～你们喜欢的美食来咯！快来跟我一起做吧～查看图片了解菜谱（想要获取更多美食就看这https:\/\/m.weibo.cn\/p\/100404i33631）#会做饭很酷#"
          },
          {
            "s_d" : "芋圆芝士芒芒-会做饭很酷!",
            "image" : "https:\/\/cp1.douguo.com\/upload\/caiku\/e\/0\/d\/e010a84657984d1d0caa1ed64b27536d.jpg",
            "channel" : "7",
            "object_id" : "2499423",
            "name" : "芋圆芝士芒芒-会做饭很酷!",
            "s_u" : "http:\/\/m.douguo.com\/cookbook\/2499423.html",
            "qr_image" : "",
            "mini_program" : [

            ]
          },
          {
            "channel" : "8",
            "qr_image" : "",
            "s_u" : "http:\/\/m.douguo.com\/cookbook\/2499423.html",
            "image" : "https:\/\/cp1.douguo.com\/upload\/caiku\/e\/0\/d\/e010a84657984d1d0caa1ed64b27536d.jpg",
            "name" : "芋圆芝士芒芒-会做饭很酷!",
            "object_id" : "2499423",
            "mini_program" : [

            ],
            "s_d" : "芋圆芝士芒芒-会做饭很酷!"
          }
        ]
      },
      "ipia" : [

      ],
      "dish_count_text" : "",
      "related_ads" : [

      ],
      "sc" : 0,
      "packages_id" : [

      ],
      "recipe_tags" : [

      ],
      "cookstorys" : [
        {
          "type" : 0,
          "u" : "",
          "id" : 0,
          "c" : "立夏之后的日子，没有比一杯芋圆芝士芒芒的陪伴来得更舒心的了。芒果的绵密和芝士奶盖的香醇完美地融合，温柔得快要融到人的心坎里，再加上高颜值的小芋圆会心一击，没有理由不让你心动！",
          "color" : "",
          "icon" : ""
        }
      ],
      "major" : [
        {
          "note" : "30g",
          "title" : "芒果肉"
        },
        {
          "note" : "20ml",
          "title" : "芒果果酱"
        },
        {
          "note" : "150g",
          "title" : "冰块"
        },
        {
          "note" : "50ml",
          "title" : "冰水"
        },
        {
          "note" : "50g",
          "title" : "芒果布丁"
        },
        {
          "note" : "50g",
          "title" : "小芋圆"
        },
        {
          "note" : "适量",
          "title" : "奶盖"
        }
      ],
      "thumb_path" : "https:\/\/i1.douguo.com\/upload\/caiku\/e\/0\/d\/300_e010a84657984d1d0caa1ed64b27536d.jpg",
      "eu" : "recipes:\/\/www.douguo.com\/postdetail?id=242016",
      "rpst" : "",
      "pw" : 1080,
      "views_count_text" : "3.5万",
      "recommend_label" : "3.5万人看过",
      "author_id" : 24264764,
      "title_ad" : [

      ],
      "brand_day_dsp" : [

      ],
      "notes" : [

      ],
      "rewarded_video_dsp" : [

      ],
      "rate_show" : 0,
      "comments_count_text" : "",
      "cook_time_image" : "https:\/\/i1.douguo.com\/upload\/banner\/1551424358.png",
      "tags" : [

      ],
      "comments" : [

      ],
      "photo_path" : "https:\/\/i1.douguo.com\/upload\/caiku\/e\/0\/d\/600_e010a84657984d1d0caa1ed64b27536d.jpg",
      "bs" : [

      ],
      "ss" : [

      ],
      "levelid" : 2,
      "release_time" : "",
      "rpt" : "",
      "mid_mdsp" : [

      ],
      "rcs" : [

      ],
      "vu" : "",
      "favo_counts" : 239,
      "sr" : "",
      "first_level_comment_count" : 0,
      "display_ingredient" : 1,
      "author_verified" : 0,
      "ipci" : "",
      "su" : "",
      "rate_count" : 0,
      "cook_difficulty_image" : "https:\/\/i1.douguo.com\/upload\/banner\/1551424390.png",
      "btm_dsp" : [

      ],
      "rdsps" : [

      ],
      "rsm" : "该功能暂停使用",
      "act_des" : "",
      "comments_count" : 0,
      "user" : {
        "coursecount" : 0,
        "lv" : 0,
        "user_photo" : "http:\/\/tx1.douguo.net\/upload\/photo\/a\/2\/b\/70_u6853409670007140609.jpg",
        "birthday" : "",
        "age" : "",
        "userid" : "24264764",
        "weibo_nick" : "",
        "progress_image" : "",
        "diaries_count" : 0,
        "pc" : 0,
        "mobile" : "",
        "fc" : 0,
        "following_count" : 0,
        "point" : 0,
        "favorites_count" : 0,
        "favor_diaries_count" : 0,
        "is_prime" : 0,
        "verified" : 0,
        "avatar_medium" : "http:\/\/tx1.douguo.net\/upload\/photo\/a\/2\/b\/140_u6853409670007140609.jpg",
        "sign" : "",
        "subscription" : 0,
        "setted_email" : 0,
        "user_large_photo" : "http:\/\/tx1.douguo.net\/upload\/photo\/a\/2\/b\/yuan_u6853409670007140609.jpg",
        "verified_url" : "https:\/\/m.douguo.com\/user\/prodesc",
        "qq_weibo_nick" : "",
        "location" : 0,
        "user_cover" : "",
        "gender" : 1,
        "followers_count" : 0,
        "lvl" : 6,
        "introduction" : "",
        "qzone_nick" : "",
        "recipes_count" : 0,
        "nick" : "轻餐国际",
        "regist_time" : "",
        "email" : "",
        "subscription_article_count" : 0,
        "verified_image" : "",
        "dishes_count" : 0,
        "user_id" : "24264764"
      },
      "create_time" : "2020-05-28 12:03:34",
      "favo_counts_text" : "239",
      "title" : "芋圆芝士芒芒",
      "dishes" : [

      ],
      "hq" : 1,
      "cook_time" : "10分钟左右",
      "original_photo_path" : "http:\/\/i1.douguo.net\/upload\/caiku\/e\/0\/d\/yuan_e010a84657984d1d0caa1ed64b27536d.jpg",
      "rrps" : [

      ]
    }
  },
  "state" : "success"
}