{
  "status" : 0,
  "state" : "success",
  "result" : {
    "recipe" : {
      "cook_time_image" : "",
      "thumb_height" : 0,
      "rate_show" : 0,
      "guide_image" : "",
      "rips" : 0,
      "recommended" : 0,
      "first_level_comment_count" : 46,
      "dish_count_text" : "1",
      "brand_day_dsp" : [

      ],
      "rrpt" : "",
      "rcs" : [

      ],
      "cook_time" : "",
      "bs" : [

      ],
      "share_info" : {
        "mini_program" : [

        ],
        "object_id" : "1540524",
        "image" : "https:\/\/cp1.douguo.com\/upload\/caiku\/3\/7\/c\/374037fca93102a2269f0ae8b91c8eac.jpg",
        "s_u" : "http:\/\/m.douguo.com\/cookbook\/1540524.html",
        "s_d" : "鲜蒸武昌鱼#鲜香滋味，搞定萌娃#-会做饭很酷!",
        "infos" : [
          {
            "channel" : "1",
            "mini_program" : [

            ],
            "object_id" : "1540524",
            "name" : "鲜蒸武昌鱼#鲜香滋味，搞定萌娃#-会做饭很酷!",
            "s_d" : "#学做饭用豆果美食# 我在@豆果美食 分享了【鲜蒸武昌鱼#鲜香滋味，搞定萌娃#-会做饭很酷!】，这菜真的很好吃，而且做法简单不难学，还不快来跟我学～查看图片了解菜谱（每天限量免费课程，想跟大师学厨艺就来这https:\/\/m.weibo.cn\/p\/100404i33631）#会做饭很酷# ",
            "image" : "https:\/\/cp1.douguo.com\/upload\/caiku\/3\/7\/c\/374037fca93102a2269f0ae8b91c8eac.jpg",
            "qr_image" : "",
            "s_u" : ""
          },
          {
            "qr_image" : "",
            "s_d" : "鲜蒸武昌鱼#鲜香滋味，搞定萌娃#-会做饭很酷!",
            "image" : "https:\/\/cp1.douguo.com\/upload\/caiku\/3\/7\/c\/374037fca93102a2269f0ae8b91c8eac.jpg",
            "name" : "鲜蒸武昌鱼#鲜香滋味，搞定萌娃#-会做饭很酷!",
            "object_id" : "1540524",
            "s_u" : "http:\/\/m.douguo.com\/cookbook\/1540524.html",
            "mini_program" : [

            ],
            "channel" : "7"
          },
          {
            "channel" : "8",
            "s_u" : "http:\/\/m.douguo.com\/cookbook\/1540524.html",
            "qr_image" : "",
            "s_d" : "鲜蒸武昌鱼#鲜香滋味，搞定萌娃#-会做饭很酷!",
            "image" : "https:\/\/cp1.douguo.com\/upload\/caiku\/3\/7\/c\/374037fca93102a2269f0ae8b91c8eac.jpg",
            "mini_program" : [

            ],
            "name" : "鲜蒸武昌鱼#鲜香滋味，搞定萌娃#-会做饭很酷!",
            "object_id" : "1540524"
          }
        ],
        "qr_image" : "",
        "name" : "鲜蒸武昌鱼#鲜香滋味，搞定萌娃#-会做饭很酷!"
      },
      "create_time" : "2017-04-20 16:03:46",
      "author_id" : 6819101,
      "comments_count_text" : "48",
      "recommendation_tag" : "",
      "mid_mdsp" : [

      ],
      "rpid" : 0,
      "related_ads" : [

      ],
      "ss" : [

      ],
      "cookstorys" : [
        {
          "type" : 0,
          "u" : "",
          "icon" : "",
          "color" : "",
          "c" : "小小武昌鱼，用鲜香的家乐热炒鲜露下锅热一下调味菜，然后淋在鱼身上，味道是特别不错的哦，鲜香美味",
          "id" : 0
        }
      ],
      "recommend_label" : "1人学做",
      "author" : "瑗瑗baby",
      "ipt" : "",
      "ecs" : 0,
      "cook_difficulty_image" : "",
      "cookstory" : "小小武昌鱼，用鲜香的家乐热炒鲜露下锅热一下调味菜，然后淋在鱼身上，味道是特别不错的哦，鲜香美味",
      "ipit" : 0,
      "rewarded_video_dsp" : [

      ],
      "user" : {
        "sign" : "",
        "introduction" : "",
        "subscription" : 0,
        "pc" : 0,
        "verified_url" : "https:\/\/m.douguo.com\/user\/prodesc",
        "setted_email" : 0,
        "qzone_nick" : "",
        "is_prime" : 0,
        "coursecount" : 0,
        "fc" : 0,
        "point" : 0,
        "subscription_article_count" : 0,
        "nick" : "瑗瑗baby",
        "followers_count" : 0,
        "birthday" : "",
        "dishes_count" : 0,
        "user_large_photo" : "http:\/\/tx1.douguo.net\/upload\/photo\/3\/8\/2\/yuan_u15082527494417215915.jpeg",
        "favor_diaries_count" : 0,
        "gender" : 2,
        "user_cover" : "",
        "user_id" : "6819101",
        "user_photo" : "http:\/\/tx1.douguo.net\/upload\/photo\/3\/8\/2\/70_u15082527494417215915.jpeg",
        "email" : "",
        "verified_image" : "https:\/\/i1.douguo.com\/upload\/note\/d\/a\/a\/da84247847aebe48d9dd0fcdac88862a.png",
        "lvl" : 8,
        "lv" : 0,
        "recipes_count" : 0,
        "regist_time" : "",
        "favorites_count" : 0,
        "weibo_nick" : "",
        "diaries_count" : 0,
        "avatar_medium" : "http:\/\/tx1.douguo.net\/upload\/photo\/3\/8\/2\/140_u15082527494417215915.jpeg",
        "age" : "",
        "mobile" : "",
        "progress_image" : "",
        "userid" : "6819101",
        "verified" : 1,
        "following_count" : 0,
        "location" : 0,
        "qq_weibo_nick" : ""
      },
      "title" : "鲜蒸武昌鱼",
      "favo_counts_text" : "230",
      "ph" : 600,
      "tags" : [

      ],
      "cookwares" : [

      ],
      "rate_count" : 1,
      "packages_id" : [

      ],
      "sr" : "",
      "ipia" : [

      ],
      "thumb_path" : "https:\/\/i1.douguo.com\/upload\/caiku\/3\/7\/c\/300_374037fca93102a2269f0ae8b91c8eac.jpg",
      "act_des" : "",
      "ipci" : "",
      "vu" : "",
      "old_comments" : [

      ],
      "sc" : 0,
      "dish_count" : 1,
      "hqu" : "recipes:\/\/www.douguo.com\/notedetail?id=21162253",
      "collect_status" : 0,
      "tips" : "",
      "ssu" : "",
      "clicks" : "38341",
      "v_u" : "",
      "favo_counts" : 230,
      "rpst" : "",
      "recent_comments" : [

      ],
      "title_ad" : [

      ],
      "event" : {
        "id" : 0
      },
      "cookstep" : [
        {
          "image_height" : 2448,
          "image_width" : 3264,
          "thumb" : "https:\/\/i1.douguo.com\/upload\/caiku\/5\/d\/c\/140_5d8636d9f00758bf77eab896f5c3998c.jpg",
          "content" : "准备好材料",
          "image" : "https:\/\/i1.douguo.com\/upload\/caiku\/5\/d\/c\/5d8636d9f00758bf77eab896f5c3998c.jpg",
          "position" : 1,
          "frame" : "-1"
        },
        {
          "content" : "武昌鱼洗净后放入蒸锅中蒸15分钟",
          "image" : "https:\/\/i1.douguo.com\/upload\/caiku\/d\/1\/c\/d169d385318fda072e1873e2dff5cdec.jpg",
          "frame" : "-1",
          "thumb" : "https:\/\/i1.douguo.com\/upload\/caiku\/d\/1\/c\/140_d169d385318fda072e1873e2dff5cdec.jpg",
          "position" : 2,
          "image_width" : 3264,
          "image_height" : 2448
        },
        {
          "image" : "https:\/\/i1.douguo.com\/upload\/caiku\/4\/9\/9\/492105b7c806a932d3a19b255fdd7c09.jpg",
          "frame" : "-1",
          "position" : 3,
          "content" : "锅里热油后放入蒜末爆香",
          "thumb" : "https:\/\/i1.douguo.com\/upload\/caiku\/4\/9\/9\/140_492105b7c806a932d3a19b255fdd7c09.jpg",
          "image_width" : 3264,
          "image_height" : 2448
        },
        {
          "image_height" : 2448,
          "frame" : "-1",
          "content" : "然后放入家乐热炒鲜露和盐",
          "thumb" : "https:\/\/i1.douguo.com\/upload\/caiku\/c\/f\/c\/140_cf72afcaa64d4184adeda2f2a0748e8c.jpg",
          "position" : 4,
          "image" : "https:\/\/i1.douguo.com\/upload\/caiku\/c\/f\/c\/cf72afcaa64d4184adeda2f2a0748e8c.jpg",
          "image_width" : 3264
        },
        {
          "position" : 5,
          "frame" : "-1",
          "image_height" : 2448,
          "image_width" : 3264,
          "content" : "放入葱花",
          "thumb" : "https:\/\/i1.douguo.com\/upload\/caiku\/0\/d\/9\/140_0d2aaf47688da7a741352fd859893c59.jpg",
          "image" : "https:\/\/i1.douguo.com\/upload\/caiku\/0\/d\/9\/0d2aaf47688da7a741352fd859893c59.jpg"
        },
        {
          "content" : "最后放入红辣椒（我不喜欢吃太辣，所以红辣椒在最后放，喜欢吃辣的可以在爆香蒜末时一起放了）",
          "image" : "https:\/\/i1.douguo.com\/upload\/caiku\/6\/d\/c\/6d042b58e885e3795959495555f3181c.jpg",
          "image_height" : 2448,
          "thumb" : "https:\/\/i1.douguo.com\/upload\/caiku\/6\/d\/c\/140_6d042b58e885e3795959495555f3181c.jpg",
          "image_width" : 3264,
          "frame" : "-1",
          "position" : 6
        },
        {
          "content" : "将调制好的酱料淋入武昌鱼上",
          "image" : "https:\/\/i1.douguo.com\/upload\/caiku\/c\/f\/2\/cf6dcf288eb0ed00c059af984c3f1012.jpg",
          "image_width" : 2448,
          "image_height" : 1836,
          "thumb" : "https:\/\/i1.douguo.com\/upload\/caiku\/c\/f\/2\/140_cf6dcf288eb0ed00c059af984c3f1012.jpg",
          "position" : 7,
          "frame" : "-1"
        },
        {
          "image_width" : 2448,
          "content" : "完成",
          "image" : "https:\/\/i1.douguo.com\/upload\/caiku\/1\/8\/3\/180b13b585bb023b5ba3b3770ad30b23.jpg",
          "thumb" : "https:\/\/i1.douguo.com\/upload\/caiku\/1\/8\/3\/140_180b13b585bb023b5ba3b3770ad30b23.jpg",
          "position" : 8,
          "frame" : "-1",
          "image_height" : 1836
        },
        {
          "image_height" : 1836,
          "position" : 9,
          "content" : "鲜香",
          "image" : "https:\/\/i1.douguo.com\/upload\/caiku\/7\/b\/3\/7bc7df726541e2765f5f1ba8dae53f33.jpg",
          "thumb" : "https:\/\/i1.douguo.com\/upload\/caiku\/7\/b\/3\/140_7bc7df726541e2765f5f1ba8dae53f33.jpg",
          "image_width" : 2448,
          "frame" : "-1"
        },
        {
          "content" : "近看",
          "image_width" : 1081,
          "image" : "https:\/\/i1.douguo.com\/upload\/caiku\/5\/3\/a\/53c54a1f3ea821043b108dfa65c2f50a.jpg",
          "frame" : "-1",
          "thumb" : "https:\/\/i1.douguo.com\/upload\/caiku\/5\/3\/a\/140_53c54a1f3ea821043b108dfa65c2f50a.jpg",
          "image_height" : 1081,
          "position" : 10
        }
      ],
      "comments" : [
        "{\n    ac = \"#999999\";\n    at = \"\";\n    ccc = 1;\n    \"child_comments\" =     (\n                {\n            ac = \"#999999\";\n            at = \"\";\n            ccc = 0;\n            city = \"\";\n            cmc = 2;\n            content =             (\n                                {\n                    c = \" \\U8c22\\U8c22\\U4eb2\\U7231\\U7684\\U5938\\U8d5e\";\n                }\n            );\n            ia = 1;\n            id = 4657766;\n            \"ip_address_location\" = \"\";\n            like = 0;\n            \"like_count\" = 0;\n            \"reply_id\" = 4657291;\n            \"reply_user\" =             {\n                \"followers_count_text\" = \"\";\n                id = 11694814;\n                \"is_prime\" = 0;\n                lv = 0;\n                lvl = 7;\n                n = \"\\U679c\\U5988\\U79c1\\U623f\\U83dc\";\n                p = \"http:\/\/tx1.douguo.net\/upload\/photo\/c\/5\/9\/70_c595f457498284d1ffcc8defceb0a919.jpg\";\n                \"progress_image\" = \"\";\n                \"recipes_count_text\" = \"\";\n                relationship = \"-1\";\n                title = \"\";\n                v = 1;\n                \"verified_image\" = \"\";\n            };\n            \"sticker_icon\" =             (\n            );\n            time = \"2017-04-20 13:31:06\";\n            u =             {\n                \"followers_count_text\" = \"\";\n                id = 6819101;\n                \"is_prime\" = 0;\n                lv = 0;\n                lvl = 8;\n                n = \"\\U7457\\U7457baby\";\n                p = \"http:\/\/tx1.douguo.net\/upload\/photo\/3\/8\/2\/70_u15082527494417215915.jpeg\";\n                \"progress_image\" = \"\";\n                \"recipes_count_text\" = \"\";\n                relationship = \"-1\";\n                title = \"\";\n                v = 1;\n                \"verified_image\" = \"\";\n            };\n        }\n    );\n    city = \"\";\n    cmc = 2;\n    content =     (\n                {\n            c = \"\\U597d\\U7f8e\\U5473\\U7684\\U9c7c\\Uff0c6\";\n        }\n    );\n    ia = 0;\n    id = 4657291;\n    \"ip_address_location\" = \"\";\n    like = 0;\n    \"like_count\" = 0;\n    \"reply_id\" = 0;\n    \"sticker_icon\" =     (\n    );\n    time = \"2017-04-20 10:43:12\";\n    u =     {\n        \"followers_count_text\" = \"\";\n        id = 11694814;\n        \"is_prime\" = 0;\n        lv = 0;\n        lvl = 7;\n        n = \"\\U679c\\U5988\\U79c1\\U623f\\U83dc\";\n        p = \"http:\/\/tx1.douguo.net\/upload\/photo\/c\/5\/9\/70_c595f457498284d1ffcc8defceb0a919.jpg\";\n        \"progress_image\" = \"\";\n        \"recipes_count_text\" = \"\";\n        relationship = \"-1\";\n        title = \"\";\n        v = 1;\n        \"verified_image\" = \"\";\n    };\n}",
        "{\n    ac = \"#999999\";\n    at = \"\";\n    ccc = 1;\n    \"child_comments\" =     (\n                {\n            ac = \"#999999\";\n            at = \"\";\n            ccc = 0;\n            city = \"\";\n            cmc = 2;\n            content =             (\n                                {\n                    c = \" \\U8c22\\U8c22\\U4eb2\\U7231\\U7684\\U8d5e\";\n                }\n            );\n            ia = 1;\n            id = 4657763;\n            \"ip_address_location\" = \"\";\n            like = 0;\n            \"like_count\" = 0;\n            \"reply_id\" = 4657216;\n            \"reply_user\" =             {\n                \"followers_count_text\" = \"\";\n                id = 18572104;\n                \"is_prime\" = 0;\n                lv = 0;\n                lvl = 5;\n                n = \"\\U6de1\\U7136\\U7684\\U82f9\\U679c\\U9171\";\n                p = \"http:\/\/tx1.douguo.net\/upload\/photo\/1\/1\/1\/70_7e512de9e5a44489cf7660ae8052be76.png\";\n                \"progress_image\" = \"\";\n                \"recipes_count_text\" = \"\";\n                relationship = \"-1\";\n                title = \"\";\n                v = 0;\n                \"verified_image\" = \"\";\n            };\n            \"sticker_icon\" =             (\n            );\n            time = \"2017-04-20 13:30:45\";\n            u =             {\n                \"followers_count_text\" = \"\";\n                id = 6819101;\n                \"is_prime\" = 0;\n                lv = 0;\n                lvl = 8;\n                n = \"\\U7457\\U7457baby\";\n                p = \"http:\/\/tx1.douguo.net\/upload\/photo\/3\/8\/2\/70_u15082527494417215915.jpeg\";\n                \"progress_image\" = \"\";\n                \"recipes_count_text\" = \"\";\n                relationship = \"-1\";\n                title = \"\";\n                v = 1;\n                \"verified_image\" = \"\";\n            };\n        }\n    );\n    city = \"\";\n    cmc = 2;\n    content =     (\n                {\n            c = \"\\U5fc5\\U987b\\U7ed9\\U4f60\\U70b9\\U4e2a\\U8d5e\\Uff0c\\U59a5\\U59a5\\U7684\\U5927\\U9910\\U554a~\";\n        }\n    );\n    ia = 0;\n    id = 4657216;\n    \"ip_address_location\" = \"\";\n    like = 0;\n    \"like_count\" = 0;\n    \"reply_id\" = 0;\n    \"sticker_icon\" =     (\n    );\n    time = \"2017-04-20 10:07:05\";\n    u =     {\n        \"followers_count_text\" = \"\";\n        id = 18572104;\n        \"is_prime\" = 0;\n        lv = 0;\n        lvl = 5;\n        n = \"\\U6de1\\U7136\\U7684\\U82f9\\U679c\\U9171\";\n        p = \"http:\/\/tx1.douguo.net\/upload\/photo\/1\/1\/1\/70_7e512de9e5a44489cf7660ae8052be76.png\";\n        \"progress_image\" = \"\";\n        \"recipes_count_text\" = \"\";\n        relationship = \"-1\";\n        title = \"\";\n        v = 0;\n        \"verified_image\" = \"\";\n    };\n}",
        "{\n    ac = \"#999999\";\n    at = \"\";\n    ccc = 0;\n    \"child_comments\" =     (\n    );\n    city = \"\";\n    cmc = 2;\n    content =     (\n                {\n            c = \"\\U4f60\\U7684\\U7f8e\\U98df\\U4fd8\\U864f\\U4e86\\U6211\";\n        }\n    );\n    ia = 0;\n    id = 5524688;\n    \"ip_address_location\" = \"\";\n    like = 0;\n    \"like_count\" = 0;\n    \"reply_id\" = 0;\n    \"sticker_icon\" =     (\n    );\n    time = \"2018-03-28 13:07:22\";\n    u =     {\n        \"followers_count_text\" = \"\";\n        id = 18552592;\n        \"is_prime\" = 0;\n        lv = 0;\n        lvl = 6;\n        n = \"\\U840d135\";\n        p = \"http:\/\/tx1.douguo.net\/upload\/photo\/c\/5\/5\/70_u20138035971100408222344.jpg\";\n        \"progress_image\" = \"\";\n        \"recipes_count_text\" = \"\";\n        relationship = \"-1\";\n        title = \"\";\n        v = 0;\n        \"verified_image\" = \"\";\n    };\n}"
      ],
      "vc" : "39674",
      "display_ingredient" : 1,
      "author_photo" : "http:\/\/tx1.douguo.net\/upload\/photo\/3\/8\/2\/70_u15082527494417215915.jpeg",
      "rrps" : [

      ],
      "cook_difficulty" : "",
      "comments_count" : 48,
      "eu" : "recipes:\/\/www.douguo.com\/postdetail?id=242016",
      "ipurl" : "",
      "notes" : [

      ],
      "su" : "",
      "photo_path" : "https:\/\/i1.douguo.com\/upload\/caiku\/3\/7\/c\/600_374037fca93102a2269f0ae8b91c8eac.jpg",
      "major" : [
        {
          "tu" : "https:\/\/m.douguo.com\/ingredients\/武昌鱼\/detailmaterial",
          "title" : "武昌鱼",
          "note" : "3条"
        },
        {
          "note" : "适量",
          "title" : "蒜末"
        },
        {
          "tu" : "https:\/\/m.douguo.com\/ingredients\/姜丝\/detailmaterial",
          "note" : "适量",
          "title" : "姜丝"
        },
        {
          "note" : "适量",
          "title" : "葱花",
          "tu" : "https:\/\/m.douguo.com\/ingredients\/葱花\/detailmaterial"
        },
        {
          "note" : "1根",
          "title" : "香菜",
          "tu" : "https:\/\/m.douguo.com\/ingredients\/香菜\/detailmaterial"
        },
        {
          "note" : "1个",
          "title" : "红辣椒"
        }
      ],
      "release_time" : "",
      "rdsps" : [

      ],
      "vfurl" : "",
      "top_mdsp" : [

      ],
      "advice" : {
        "at" : "有助于组织的形成和生长～",
        "has" : [
          {
            "t" : "富含蛋白质",
            "url" : "recipes:\/\/www.douguo.com\/simplerecipelist?t=富含蛋白质&id=富含蛋白质"
          },
          {
            "t" : "低饱和脂肪",
            "url" : "recipes:\/\/www.douguo.com\/simplerecipelist?t=低饱和脂肪&id=低饱和脂肪"
          }
        ],
        "da" : {
          "iu" : "https:\/\/i1.douguo.com\/upload\/banner\/f\/4\/d\/f48877e53c37759bc12ac494be82ec8d.png",
          "t" : "查看详细分析",
          "url" : "https:\/\/m.douguo.com\/recipe\/nutrient_self\/1540524"
        }
      },
      "author_verified" : 1,
      "pw" : 800,
      "hq" : 1,
      "rate" : 5,
      "dishes" : [

      ],
      "btm_dsp" : [

      ],
      "levelid" : 2,
      "purl" : "",
      "recipe_tags" : [

      ],
      "original_photo_path" : "http:\/\/i1.douguo.net\/upload\/caiku\/3\/7\/c\/yuan_374037fca93102a2269f0ae8b91c8eac.jpg",
      "image" : "http:\/\/i1.douguo.net\/upload\/caiku\/3\/7\/c\/300_374037fca93102a2269f0ae8b91c8eac.jpg",
      "ipoi" : "",
      "cook_id" : "1540524",
      "recipe_list_tags" : [
        {
          "text_color" : "#141515",
          "text" : "关注的人",
          "background_border_color" : "",
          "background_end_color" : "#F4F5F5",
          "jump_url" : "",
          "right_image" : "",
          "background_start_color" : "#F4F5F5"
        }
      ],
      "story_dsp" : [

      ],
      "minor" : [
        "{\n    note = 30ml;\n    title = \"\\U5bb6\\U4e50\\U70ed\\U7092\\U9c9c\\U9732\";\n}",
        "{\n    note = 3g;\n    title = \"\\U76d0\";\n    tu = \"https:\/\/https:\/\/m.douguo.com\/ingredients\/\\U76d0\/detailmaterial\";\n}",
        "{\n    note = \"\\U9002\\U91cf\";\n    title = \"\\U6cb9\";\n    tu = \"https:\/\/https:\/\/m.douguo.com\/ingredients\/\\U6cb9\/detailmaterial\";\n}"
      ],
      "rsm" : "该功能暂停使用",
      "rpt" : "",
      "views_count_text" : "4.0万"
    }
  }
}