{
  "status" : 0,
  "state" : "success",
  "result" : {
    "recipe" : {
      "rate_show" : 0,
      "cookstorys" : [
        {
          "type" : 0,
          "u" : "",
          "icon" : "",
          "color" : "",
          "c" : "银耳糖水，补充胶原蛋白，俗称“平民燕窝”，女人必喝！",
          "id" : 0
        }
      ],
      "btm_dsp" : [

      ],
      "author_id" : 27102822,
      "bs" : [

      ],
      "title_ad" : [

      ],
      "tips" : "",
      "original_photo_path" : "http:\/\/i1.douguo.net\/upload\/caiku\/3\/9\/2\/yuan_39ef655ad1978deed394fbbf699399f2.jpg",
      "top_mdsp" : [

      ],
      "cook_time" : "1小时以上",
      "sc" : 0,
      "story_dsp" : [

      ],
      "collect_status" : 0,
      "vfurl" : "",
      "notes" : [

      ],
      "levelid" : 2,
      "clicks" : "1",
      "pw" : 1050,
      "ss" : [

      ],
      "old_comments" : [

      ],
      "guide_image" : "",
      "recent_comments" : [

      ],
      "vc" : "33829",
      "advice" : {
        "da" : {
          "iu" : "https:\/\/i1.douguo.com\/upload\/banner\/f\/4\/d\/f48877e53c37759bc12ac494be82ec8d.png",
          "t" : "查看详细分析",
          "url" : "https:\/\/m.douguo.com\/recipe\/nutrient_self\/3173145"
        },
        "at" : "对血管有保护作用～",
        "has" : [
          {
            "url" : "recipes:\/\/www.douguo.com\/simplerecipelist?t=低饱和脂肪&id=低饱和脂肪",
            "t" : "低饱和脂肪"
          },
          {
            "url" : "recipes:\/\/www.douguo.com\/simplerecipelist?t=富含膳食纤维&id=富含膳食纤维",
            "t" : "富含膳食纤维"
          }
        ]
      },
      "author_verified" : 0,
      "dish_count" : 0,
      "brand_day_dsp" : [

      ],
      "cook_difficulty" : "切墩(初级)",
      "release_time" : "",
      "rdsps" : [

      ],
      "ipt" : "",
      "ssu" : "",
      "act_des" : "",
      "rpst" : "",
      "purl" : "",
      "hq" : 1,
      "rips" : 0,
      "rate_count" : 0,
      "favo_counts" : 269,
      "create_time" : "2022-03-07 19:30:48",
      "su" : "",
      "rsm" : "该功能暂停使用",
      "recipe_list_tags" : [
        {
          "jump_url" : "",
          "text" : "关注的人",
          "right_image" : "",
          "background_start_color" : "#F4F5F5",
          "text_color" : "#141515",
          "background_end_color" : "#F4F5F5",
          "background_border_color" : ""
        }
      ],
      "cookwares" : [

      ],
      "cookstep" : [
        {
          "position" : 1,
          "frame" : "-1",
          "image_height" : 1400,
          "image" : "https:\/\/i1.douguo.com\/upload\/caiku\/4\/4\/4\/44ee794dce0301b217cf493a919ecce4.jpg",
          "image_width" : 1050,
          "thumb" : "https:\/\/i1.douguo.com\/upload\/caiku\/4\/4\/4\/140_44ee794dce0301b217cf493a919ecce4.jpg",
          "content" : "取适量银耳，用清水浸泡"
        },
        {
          "thumb" : "https:\/\/i1.douguo.com\/upload\/caiku\/8\/3\/8\/140_833927bbdda3b01d23c517dbe7a61308.jpg",
          "image" : "https:\/\/i1.douguo.com\/upload\/caiku\/8\/3\/8\/833927bbdda3b01d23c517dbe7a61308.jpg",
          "frame" : "-1",
          "image_width" : 1050,
          "image_height" : 1400,
          "position" : 2,
          "content" : "清水浸泡银耳1-2小时"
        },
        {
          "content" : "将银耳剪成小块，碗里加入适量清水，放入锅中",
          "image_height" : 1400,
          "image" : "https:\/\/i1.douguo.com\/upload\/caiku\/b\/0\/0\/b0694789c173a9a58657ad47cf57a9c0.jpg",
          "image_width" : 1050,
          "thumb" : "https:\/\/i1.douguo.com\/upload\/caiku\/b\/0\/0\/140_b0694789c173a9a58657ad47cf57a9c0.jpg",
          "position" : 3,
          "frame" : "-1"
        },
        {
          "image_width" : 1050,
          "content" : "煮1小时后，加入几颗枸杞和冰糖，再煮10分钟后，开吃！",
          "image_height" : 1400,
          "image" : "https:\/\/i1.douguo.com\/upload\/caiku\/c\/3\/0\/c3f37beaa39c7bb7be5ca95c4258b7c0.jpg",
          "frame" : "-1",
          "position" : 4,
          "thumb" : "https:\/\/i1.douguo.com\/upload\/caiku\/c\/3\/0\/140_c3f37beaa39c7bb7be5ca95c4258b7c0.jpg"
        },
        {
          "image_height" : 1400,
          "image_width" : 1050,
          "thumb" : "https:\/\/i1.douguo.com\/upload\/caiku\/4\/9\/5\/140_49039de76ba89337f38b25f83d8c7e45.jpg",
          "content" : "入口香甜丝滑，是zui好喝的养生糖水",
          "image" : "https:\/\/i1.douguo.com\/upload\/caiku\/4\/9\/5\/49039de76ba89337f38b25f83d8c7e45.jpg",
          "position" : 5,
          "frame" : "-1"
        }
      ],
      "cook_id" : "3173145",
      "recipe_tags" : [

      ],
      "related_ads" : [

      ],
      "dishes" : [

      ],
      "photo_path" : "https:\/\/i1.douguo.com\/upload\/caiku\/3\/9\/2\/600_39ef655ad1978deed394fbbf699399f2.jpg",
      "major" : [
        {
          "note" : "一小朵",
          "title" : "银耳",
          "tu" : "https:\/\/m.douguo.com\/ingredients\/银耳\/detailmaterial"
        },
        {
          "note" : "6-8颗",
          "title" : "枸杞",
          "tu" : "https:\/\/m.douguo.com\/ingredients\/枸杞\/detailmaterial"
        },
        {
          "note" : "适量",
          "title" : "冰糖（蜂蜜）"
        }
      ],
      "recommend_label" : "3.4万人看过",
      "ipia" : [

      ],
      "dish_count_text" : "",
      "minor" : [

      ],
      "recommendation_tag" : "",
      "author_photo" : "http:\/\/tx1.douguo.net\/upload\/photo\/a\/b\/a\/70_abb4f7e0c62df1350e3a39b3fefc194a.jpg",
      "rate" : 0,
      "sr" : "",
      "ipoi" : "",
      "views_count_text" : "3.4万",
      "ecs" : 0,
      "ph" : 1400,
      "hqu" : "recipes:\/\/www.douguo.com\/notedetail?id=21162253",
      "rrps" : [

      ],
      "ipurl" : "",
      "thumb_height" : 0,
      "packages_id" : [

      ],
      "ipit" : 0,
      "rpt" : "",
      "cook_difficulty_image" : "https:\/\/i1.douguo.com\/upload\/banner\/1551424390.png",
      "v_u" : "",
      "thumb_path" : "https:\/\/i1.douguo.com\/upload\/caiku\/3\/9\/2\/300_39ef655ad1978deed394fbbf699399f2.jpg",
      "rrpt" : "",
      "image" : "http:\/\/i1.douguo.net\/upload\/caiku\/3\/9\/2\/300_39ef655ad1978deed394fbbf699399f2.jpg",
      "display_ingredient" : 1,
      "recommended" : 0,
      "author" : "卡卡又饿了",
      "ipci" : "",
      "share_info" : {
        "image" : "https:\/\/cp1.douguo.com\/upload\/caiku\/3\/9\/2\/39ef655ad1978deed394fbbf699399f2.jpg",
        "object_id" : "3173145",
        "mini_program" : [

        ],
        "s_u" : "http:\/\/m.douguo.com\/cookbook\/3173145.html",
        "qr_image" : "",
        "name" : "炒鸡简单的银耳糖水，补充胶原蛋白❗❗-会做饭很酷!",
        "s_d" : "炒鸡简单的银耳糖水，补充胶原蛋白❗❗-会做饭很酷!",
        "infos" : [
          {
            "channel" : "1",
            "mini_program" : [

            ],
            "object_id" : "3173145",
            "name" : "炒鸡简单的银耳糖水，补充胶原蛋白❗❗-会做饭很酷!",
            "s_d" : "#学做饭用豆果美食# 我在@豆果美食 分享了【炒鸡简单的银耳糖水，补充胶原蛋白❗❗-会做饭很酷!】，哟，集美们～你看这是神仙美味～快跟着我做一份，做一份！查看图片了解菜谱（更多美食秘籍点击https:\/\/m.weibo.cn\/p\/100404i33631获取）#会做饭很酷# ",
            "s_u" : "",
            "qr_image" : "",
            "image" : "https:\/\/cp1.douguo.com\/upload\/caiku\/3\/9\/2\/39ef655ad1978deed394fbbf699399f2.jpg"
          },
          {
            "s_d" : "炒鸡简单的银耳糖水，补充胶原蛋白❗❗-会做饭很酷!",
            "image" : "https:\/\/cp1.douguo.com\/upload\/caiku\/3\/9\/2\/39ef655ad1978deed394fbbf699399f2.jpg",
            "channel" : "7",
            "object_id" : "3173145",
            "name" : "炒鸡简单的银耳糖水，补充胶原蛋白❗❗-会做饭很酷!",
            "s_u" : "http:\/\/m.douguo.com\/cookbook\/3173145.html",
            "qr_image" : "",
            "mini_program" : [

            ]
          },
          {
            "channel" : "8",
            "qr_image" : "",
            "s_u" : "http:\/\/m.douguo.com\/cookbook\/3173145.html",
            "image" : "https:\/\/cp1.douguo.com\/upload\/caiku\/3\/9\/2\/39ef655ad1978deed394fbbf699399f2.jpg",
            "name" : "炒鸡简单的银耳糖水，补充胶原蛋白❗❗-会做饭很酷!",
            "object_id" : "3173145",
            "mini_program" : [

            ],
            "s_d" : "炒鸡简单的银耳糖水，补充胶原蛋白❗❗-会做饭很酷!"
          }
        ]
      },
      "title" : "炒鸡简单的银耳糖水，补充胶原蛋白❗❗",
      "tags" : [

      ],
      "rewarded_video_dsp" : [

      ],
      "rcs" : [

      ],
      "comments_count_text" : "1",
      "first_level_comment_count" : 1,
      "vu" : "",
      "cook_time_image" : "https:\/\/i1.douguo.com\/upload\/banner\/1551423815.png",
      "favo_counts_text" : "269",
      "cookstory" : "银耳糖水，补充胶原蛋白，俗称“平民燕窝”，女人必喝！",
      "eu" : "recipes:\/\/www.douguo.com\/postdetail?id=242016",
      "user" : {
        "fc" : 0,
        "nick" : "卡卡又饿了",
        "email" : "",
        "point" : 0,
        "subscription" : 0,
        "diaries_count" : 0,
        "sign" : "",
        "pc" : 0,
        "regist_time" : "",
        "weibo_nick" : "",
        "verified_url" : "https:\/\/m.douguo.com\/user\/prodesc",
        "setted_email" : 0,
        "avatar_medium" : "http:\/\/tx1.douguo.net\/upload\/photo\/a\/b\/a\/140_abb4f7e0c62df1350e3a39b3fefc194a.jpg",
        "qzone_nick" : "",
        "gender" : 2,
        "following_count" : 0,
        "user_large_photo" : "http:\/\/tx1.douguo.net\/upload\/photo\/a\/b\/a\/yuan_abb4f7e0c62df1350e3a39b3fefc194a.jpg",
        "location" : 0,
        "verified_image" : "",
        "user_id" : "27102822",
        "age" : "",
        "coursecount" : 0,
        "lvl" : 5,
        "mobile" : "",
        "progress_image" : "",
        "userid" : "27102822",
        "qq_weibo_nick" : "",
        "followers_count" : 0,
        "favorites_count" : 0,
        "dishes_count" : 0,
        "recipes_count" : 0,
        "verified" : 0,
        "is_prime" : 0,
        "lv" : 0,
        "subscription_article_count" : 0,
        "birthday" : "",
        "user_photo" : "http:\/\/tx1.douguo.net\/upload\/photo\/a\/b\/a\/70_abb4f7e0c62df1350e3a39b3fefc194a.jpg",
        "user_cover" : "",
        "favor_diaries_count" : 0,
        "introduction" : ""
      },
      "comments" : [
        "{\n    ac = \"#999999\";\n    at = \"\\U9633\\U6c5f\\U5e02\";\n    ccc = 0;\n    \"child_comments\" =     (\n    );\n    city = \"\\U9633\\U6c5f\\U5e02\";\n    cmc = 2;\n    content =     (\n                {\n            c = \"\\U4e00\\U5c0f\\U65f6\\U80fd\\U51fa\\U80f6\\U5417\";\n        }\n    );\n    ia = 0;\n    id = 8953557;\n    \"ip_address_location\" = \"\";\n    like = 0;\n    \"like_count\" = 0;\n    \"reply_id\" = 0;\n    \"sticker_icon\" =     (\n    );\n    time = \"2022-07-04 22:53:25\";\n    u =     {\n        \"followers_count_text\" = \"\";\n        id = 19747656;\n        \"is_prime\" = 0;\n        lv = 0;\n        lvl = 1;\n        n = \"\\U73cd\\U73cdthaz\";\n        p = \"\";\n        \"progress_image\" = \"\";\n        \"recipes_count_text\" = \"\";\n        relationship = \"-1\";\n        title = \"\";\n        v = 0;\n        \"verified_image\" = \"\";\n    };\n}"
      ],
      "rpid" : 0,
      "comments_count" : 1,
      "mid_mdsp" : [

      ]
    }
  }
}