{
  "status" : 0,
  "result" : {
    "recipe" : {
      "rpst" : "",
      "cook_time_image" : "https:\/\/i1.douguo.com\/upload\/banner\/1551424341.png",
      "guide_image" : "",
      "bs" : [

      ],
      "ipurl" : "",
      "ipit" : 0,
      "old_comments" : [

      ],
      "mid_mdsp" : [

      ],
      "brand_day_dsp" : [

      ],
      "notes" : [

      ],
      "cook_difficulty_image" : "https:\/\/i1.douguo.com\/upload\/banner\/1551424390.png",
      "eu" : "recipes:\/\/www.douguo.com\/postdetail?id=242016",
      "title" : "自制炸油条",
      "author_photo" : "http:\/\/tx1.douguo.net\/upload\/photo\/3\/e\/4\/70_u28896533674117150249.jpg",
      "vfurl" : "",
      "favo_counts_text" : "1.6万",
      "dishes" : [

      ],
      "recommendation_tag" : "",
      "recent_comments" : [

      ],
      "ssu" : "",
      "vu" : "",
      "rrps" : [

      ],
      "recommended" : 0,
      "cookstep" : [
        {
          "thumb" : "https:\/\/i1.douguo.com\/upload\/caiku\/3\/1\/2\/140_31911b5a5ea3c8d75d0e76f08343fd92.jpg",
          "frame" : "-1",
          "image_height" : 1080,
          "image_width" : 810,
          "image" : "https:\/\/i1.douguo.com\/upload\/caiku\/3\/1\/2\/31911b5a5ea3c8d75d0e76f08343fd92.jpg",
          "position" : 1,
          "content" : "在面包桶里加入油条粉和清水。"
        },
        {
          "thumb" : "https:\/\/i1.douguo.com\/upload\/caiku\/4\/1\/2\/140_41d0b94ddd955b1c43efc7a771096ec2.jpg",
          "image_width" : 810,
          "image" : "https:\/\/i1.douguo.com\/upload\/caiku\/4\/1\/2\/41d0b94ddd955b1c43efc7a771096ec2.jpg",
          "position" : 2,
          "frame" : "-1",
          "content" : "开启一个和面程序揉成光滑的面团。",
          "image_height" : 1080
        },
        {
          "image_width" : 810,
          "image" : "https:\/\/i1.douguo.com\/upload\/caiku\/7\/0\/e\/70798ee9275d4b5d546d574e4d8467fe.jpg",
          "image_height" : 1080,
          "position" : 3,
          "content" : "揉好的面团用保鲜膜包住放冰箱冷藏静置30分钟。",
          "thumb" : "https:\/\/i1.douguo.com\/upload\/caiku\/7\/0\/e\/140_70798ee9275d4b5d546d574e4d8467fe.jpg",
          "frame" : "-1"
        },
        {
          "frame" : "-1",
          "content" : "静置好的面团放到案板上，擀成你需要的大小。",
          "image_width" : 810,
          "image" : "https:\/\/i1.douguo.com\/upload\/caiku\/0\/4\/8\/04c43fe3022818d997e806b0e64f75b8.jpg",
          "thumb" : "https:\/\/i1.douguo.com\/upload\/caiku\/0\/4\/8\/140_04c43fe3022818d997e806b0e64f75b8.jpg",
          "image_height" : 1080,
          "position" : 4
        },
        {
          "frame" : "-1",
          "thumb" : "https:\/\/i1.douguo.com\/upload\/caiku\/b\/8\/b\/140_b8ed9fdfccdda89048a80f232b2bc97b.jpg",
          "image_height" : 1080,
          "position" : 5,
          "content" : "切条。",
          "image_width" : 810,
          "image" : "https:\/\/i1.douguo.com\/upload\/caiku\/b\/8\/b\/b8ed9fdfccdda89048a80f232b2bc97b.jpg"
        },
        {
          "image_height" : 1080,
          "thumb" : "https:\/\/i1.douguo.com\/upload\/caiku\/d\/2\/7\/140_d2cf8f65dddd35df4931666075c7e4f7.jpg",
          "position" : 6,
          "image" : "https:\/\/i1.douguo.com\/upload\/caiku\/d\/2\/7\/d2cf8f65dddd35df4931666075c7e4f7.jpg",
          "image_width" : 810,
          "content" : "将两个剂子叠加，中间用棍子压一下。",
          "frame" : "-1"
        },
        {
          "content" : "油条胚就做好了。",
          "image" : "https:\/\/i1.douguo.com\/upload\/caiku\/8\/c\/3\/8c053fe6d034fe3fb79392bafc4bad83.jpg",
          "position" : 7,
          "frame" : "-1",
          "image_width" : 810,
          "thumb" : "https:\/\/i1.douguo.com\/upload\/caiku\/8\/c\/3\/140_8c053fe6d034fe3fb79392bafc4bad83.jpg",
          "image_height" : 1080
        },
        {
          "frame" : "-1",
          "image" : "https:\/\/i1.douguo.com\/upload\/caiku\/3\/f\/1\/3f37eef321bb757115d044d4da7d08b1.jpg",
          "thumb" : "https:\/\/i1.douguo.com\/upload\/caiku\/3\/f\/1\/140_3f37eef321bb757115d044d4da7d08b1.jpg",
          "image_height" : 1080,
          "image_width" : 810,
          "content" : "锅中倒入适量的油，中火加热，当扔一小块面团，立即浮起且产生很多油泡时，双手拿起油条胚的两端，拧一下放入锅中。",
          "position" : 8
        },
        {
          "image" : "https:\/\/i1.douguo.com\/upload\/caiku\/e\/c\/9\/ecafbf4c94c497ecc82a10f459eab639.jpg",
          "image_width" : 810,
          "frame" : "-1",
          "position" : 9,
          "image_height" : 1080,
          "thumb" : "https:\/\/i1.douguo.com\/upload\/caiku\/e\/c\/9\/140_ecafbf4c94c497ecc82a10f459eab639.jpg",
          "content" : "待一面膨胀炸至金黄色后翻面，炸至两面金黄色即可。"
        },
        {
          "frame" : "-1",
          "content" : "捞出放在厨房纸上沥油即可。",
          "image" : "https:\/\/i1.douguo.com\/upload\/caiku\/5\/9\/3\/597fd8a3f42e77ef6b752e432d1f5cc3.jpg",
          "thumb" : "https:\/\/i1.douguo.com\/upload\/caiku\/5\/9\/3\/140_597fd8a3f42e77ef6b752e432d1f5cc3.jpg",
          "image_width" : 810,
          "position" : 10,
          "image_height" : 1080
        },
        {
          "image_height" : 1080,
          "position" : 11,
          "content" : "成品图。",
          "image" : "https:\/\/i1.douguo.com\/upload\/caiku\/0\/4\/d\/045e85b6467e06948a2d034437f9016d.jpg",
          "thumb" : "https:\/\/i1.douguo.com\/upload\/caiku\/0\/4\/d\/140_045e85b6467e06948a2d034437f9016d.jpg",
          "image_width" : 810,
          "frame" : "-1"
        },
        {
          "frame" : "-1",
          "thumb" : "https:\/\/i1.douguo.com\/upload\/caiku\/7\/0\/4\/140_70339ec4999524db053ffd747b716e64.jpg",
          "image_width" : 810,
          "image_height" : 1080,
          "position" : 12,
          "image" : "https:\/\/i1.douguo.com\/upload\/caiku\/7\/0\/4\/70339ec4999524db053ffd747b716e64.jpg",
          "content" : "成品图。"
        },
        {
          "image" : "https:\/\/i1.douguo.com\/upload\/caiku\/c\/e\/e\/ce7abb42b52ab21513f3f58c8de8e2ee.jpg",
          "image_height" : 1080,
          "frame" : "-1",
          "content" : "成品图。",
          "thumb" : "https:\/\/i1.douguo.com\/upload\/caiku\/c\/e\/e\/140_ce7abb42b52ab21513f3f58c8de8e2ee.jpg",
          "image_width" : 810,
          "position" : 13
        },
        {
          "frame" : "-1",
          "image" : "https:\/\/i1.douguo.com\/upload\/caiku\/1\/a\/f\/1a916d5e1e77f9329f53cc04363cfa8f.jpg",
          "position" : 14,
          "content" : "成品图。",
          "image_height" : 1080,
          "thumb" : "https:\/\/i1.douguo.com\/upload\/caiku\/1\/a\/f\/140_1a916d5e1e77f9329f53cc04363cfa8f.jpg",
          "image_width" : 810
        },
        {
          "frame" : "-1",
          "image_height" : 1080,
          "image_width" : 810,
          "content" : "成品图。",
          "position" : 15,
          "image" : "https:\/\/i1.douguo.com\/upload\/caiku\/b\/8\/a\/b81c8e4a0975ffccba3321018ec1dc4a.jpg",
          "thumb" : "https:\/\/i1.douguo.com\/upload\/caiku\/b\/8\/a\/140_b81c8e4a0975ffccba3321018ec1dc4a.jpg"
        }
      ],
      "thumb_height" : 0,
      "ss" : [

      ],
      "ph" : 810,
      "cook_difficulty" : "切墩(初级)",
      "hq" : 0,
      "rcs" : [

      ],
      "cook_time" : "10-30分钟",
      "create_time" : "2018-06-17 18:59:57",
      "v_u" : "",
      "rate" : 5,
      "ipia" : [

      ],
      "recommend_label" : "13人学做",
      "first_level_comment_count" : 12,
      "ecs" : 0,
      "rips" : 0,
      "recipe_tags" : [

      ],
      "rdsps" : [

      ],
      "levelid" : 3,
      "comments" : [
        "{\n    ac = \"#999999\";\n    at = \"\\U5510\\U5c71\\U5e02\";\n    ccc = 0;\n    \"child_comments\" =     (\n    );\n    city = \"\\U5510\\U5c71\\U5e02\";\n    cmc = 2;\n    content =     (\n                {\n            c = \"\\U4f60\\U786e\\U5b9a\\U8fd9\\U4e0d\\U662f\\U5931\\U8d25\\U7684\\U4f5c\\U54c1\\U5417\";\n        }\n    );\n    ia = 0;\n    id = 7762369;\n    \"ip_address_location\" = \"\";\n    like = 0;\n    \"like_count\" = 5;\n    \"reply_id\" = 0;\n    \"sticker_icon\" =     (\n    );\n    time = \"2020-03-09 20:16:36\";\n    u =     {\n        \"followers_count_text\" = \"\";\n        id = 3816804;\n        \"is_prime\" = 0;\n        lv = 0;\n        lvl = 2;\n        n = ellen258;\n        p = \"http:\/\/tx1.douguo.net\/upload\/photo\/e\/9\/4\/70_u88108742140297195220.jpg\";\n        \"progress_image\" = \"\";\n        \"recipes_count_text\" = \"\";\n        relationship = \"-1\";\n        title = \"\";\n        v = 0;\n        \"verified_image\" = \"\";\n    };\n}",
        "{\n    ac = \"#999999\";\n    at = \"\";\n    ccc = 0;\n    \"child_comments\" =     (\n    );\n    city = \"\";\n    cmc = 2;\n    content =     (\n                {\n            c = \"\\U8fd9\\U505a\\U7684\\U771f\\U662f\\U6ca1shei\\U4e86\\Uff01\";\n        }\n    );\n    ia = 0;\n    id = 6350945;\n    \"ip_address_location\" = \"\";\n    like = 0;\n    \"like_count\" = 4;\n    \"reply_id\" = 0;\n    \"sticker_icon\" =     (\n    );\n    time = \"2019-01-17 23:14:46\";\n    u =     {\n        \"followers_count_text\" = \"\";\n        id = 18514787;\n        \"is_prime\" = 0;\n        lv = 0;\n        lvl = 4;\n        n = \"\\U83ab\\U85b0\\U73af\";\n        p = \"http:\/\/tx1.douguo.net\/upload\/photo\/4\/9\/1\/70_u17244189068040408191107.jpg\";\n        \"progress_image\" = \"\";\n        \"recipes_count_text\" = \"\";\n        relationship = \"-1\";\n        title = \"\";\n        v = 0;\n        \"verified_image\" = \"\";\n    };\n}",
        "{\n    ac = \"#999999\";\n    at = \"\\U5170\\U5dde\\U5e02\";\n    ccc = 0;\n    \"child_comments\" =     (\n    );\n    city = \"\\U5170\\U5dde\\U5e02\";\n    cmc = 2;\n    content =     (\n                {\n            c = \"\\U4f60\\U8fd9\\U4e2a\\U4f30\\U8ba1\\U8c01\\U505a\\U8c01\\U5931\\U8d25\\Uff0c\\U6d41\\U7a0b\\U770b\\U7740\\U5c31\\U5b8c\\U5168\\U4e0d\\U5408\\U7406\";\n        }\n    );\n    ia = 0;\n    id = 7729482;\n    \"ip_address_location\" = \"\";\n    like = 0;\n    \"like_count\" = 3;\n    \"reply_id\" = 0;\n    \"sticker_icon\" =     (\n    );\n    time = \"2020-03-04 23:07:57\";\n    u =     {\n        \"followers_count_text\" = \"\";\n        id = 24987802;\n        \"is_prime\" = 0;\n        lv = 0;\n        lvl = 1;\n        n = \"\\U768e\\U6d01\\U7684\\U767d\\U8c46\";\n        p = \"http:\/\/tx1.douguo.net\/upload\/photo\/1\/1\/1\/70_004976861ec13b4af62b1d8db8c5c9f7.png\";\n        \"progress_image\" = \"\";\n        \"recipes_count_text\" = \"\";\n        relationship = \"-1\";\n        title = \"\";\n        v = 0;\n        \"verified_image\" = \"\";\n    };\n}"
      ],
      "share_info" : {
        "infos" : [
          {
            "object_id" : "1684350",
            "s_u" : "",
            "channel" : "1",
            "qr_image" : "",
            "image" : "https:\/\/cp1.douguo.com\/upload\/caiku\/1\/7\/b\/17594f40360b6254f3ceaad40b6f62db.jpg",
            "name" : "自制炸油条-会做饭很酷!",
            "s_d" : "#学做饭用豆果美食#  我在@豆果美食 分享了【自制炸油条-会做饭很酷!】，制作美食的过程承载了我生活中的热情，和我一起感受这份小确幸吧！查看图片了解菜谱（你喜欢的美食都在这里！https:\/\/m.weibo.cn\/p\/100404i33631）#会做饭很酷# ",
            "mini_program" : [

            ]
          },
          {
            "qr_image" : "",
            "object_id" : "1684350",
            "name" : "自制炸油条-会做饭很酷!",
            "s_d" : "自制炸油条-会做饭很酷!",
            "channel" : "7",
            "s_u" : "http:\/\/m.douguo.com\/cookbook\/1684350.html",
            "mini_program" : [

            ],
            "image" : "https:\/\/cp1.douguo.com\/upload\/caiku\/1\/7\/b\/17594f40360b6254f3ceaad40b6f62db.jpg"
          },
          {
            "s_u" : "http:\/\/m.douguo.com\/cookbook\/1684350.html",
            "image" : "https:\/\/cp1.douguo.com\/upload\/caiku\/1\/7\/b\/17594f40360b6254f3ceaad40b6f62db.jpg",
            "name" : "自制炸油条-会做饭很酷!",
            "mini_program" : [

            ],
            "channel" : "8",
            "object_id" : "1684350",
            "qr_image" : "",
            "s_d" : "自制炸油条-会做饭很酷!"
          }
        ],
        "qr_image" : "",
        "s_d" : "自制炸油条-会做饭很酷!",
        "mini_program" : [

        ],
        "object_id" : "1684350",
        "name" : "自制炸油条-会做饭很酷!",
        "s_u" : "http:\/\/m.douguo.com\/cookbook\/1684350.html",
        "image" : "https:\/\/cp1.douguo.com\/upload\/caiku\/1\/7\/b\/17594f40360b6254f3ceaad40b6f62db.jpg"
      },
      "story_dsp" : [

      ],
      "release_time" : "",
      "rewarded_video_dsp" : [

      ],
      "btm_dsp" : [

      ],
      "title_ad" : [

      ],
      "ipoi" : "",
      "rpt" : "",
      "ipt" : "",
      "top_mdsp" : [

      ],
      "thumb_path" : "https:\/\/i1.douguo.com\/upload\/caiku\/1\/7\/b\/300_17594f40360b6254f3ceaad40b6f62db.jpg",
      "tags" : [

      ],
      "display_ingredient" : 1,
      "tips" : "1.炸油条的油温最少要200度以上，把握不好，就扔一小块面团，立即浮起且产生很多油泡就行。\n2.如果感觉粘手，手上抹点油。",
      "collect_status" : 0,
      "sr" : "",
      "packages_id" : [

      ],
      "pw" : 1080,
      "rrpt" : "",
      "comments_count" : 12,
      "purl" : "",
      "favo_counts" : 16404,
      "dish_count_text" : "13",
      "rate_show" : 0,
      "ipci" : "",
      "user" : {
        "regist_time" : "",
        "verified" : 0,
        "is_prime" : 0,
        "coursecount" : 0,
        "user_large_photo" : "http:\/\/tx1.douguo.net\/upload\/photo\/3\/e\/4\/yuan_u28896533674117150249.jpg",
        "dishes_count" : 0,
        "favorites_count" : 0,
        "age" : "",
        "gender" : 2,
        "userid" : "8941025",
        "sign" : "",
        "user_photo" : "http:\/\/tx1.douguo.net\/upload\/photo\/3\/e\/4\/70_u28896533674117150249.jpg",
        "weibo_nick" : "",
        "following_count" : 0,
        "avatar_medium" : "http:\/\/tx1.douguo.net\/upload\/photo\/3\/e\/4\/140_u28896533674117150249.jpg",
        "setted_email" : 0,
        "verified_image" : "",
        "recipes_count" : 0,
        "user_id" : "8941025",
        "lvl" : 5,
        "point" : 0,
        "lv" : 0,
        "progress_image" : "",
        "qq_weibo_nick" : "",
        "pc" : 0,
        "favor_diaries_count" : 0,
        "mobile" : "",
        "diaries_count" : 0,
        "verified_url" : "https:\/\/m.douguo.com\/user\/prodesc",
        "user_cover" : "",
        "followers_count" : 0,
        "email" : "",
        "fc" : 0,
        "nick" : "丶吖頭",
        "subscription" : 0,
        "birthday" : "",
        "subscription_article_count" : 0,
        "introduction" : "",
        "location" : 0,
        "qzone_nick" : ""
      },
      "sc" : 0,
      "hqu" : "recipes:\/\/www.douguo.com\/notedetail?id=21162253",
      "photo_path" : "https:\/\/i1.douguo.com\/upload\/caiku\/1\/7\/b\/600_17594f40360b6254f3ceaad40b6f62db.jpg",
      "clicks" : "3339300",
      "author" : "丶吖頭",
      "author_verified" : 0,
      "dish_count" : 13,
      "rsm" : "该功能暂停使用",
      "major" : [
        {
          "note" : "200g",
          "title" : "油条粉"
        },
        {
          "note" : "135g",
          "title" : "清水",
          "tu" : "https:\/\/m.douguo.com\/ingredients\/清水\/detailmaterial"
        },
        {
          "tu" : "https:\/\/m.douguo.com\/ingredients\/油\/detailmaterial",
          "title" : "油",
          "note" : "适量"
        }
      ],
      "views_count_text" : "345.4万",
      "comments_count_text" : "12",
      "minor" : [

      ],
      "cookstorys" : [
        {
          "color" : "",
          "u" : "",
          "type" : 0,
          "id" : 0,
          "c" : "油条，是一种古老的中式面食，长条形中空的油炸食品，口感松脆有韧劲，中国传统的早点之一。",
          "icon" : ""
        }
      ],
      "original_photo_path" : "http:\/\/i1.douguo.net\/upload\/caiku\/1\/7\/b\/yuan_17594f40360b6254f3ceaad40b6f62db.jpg",
      "advice" : {
        "has" : [

        ],
        "da" : {
          "t" : "查看详细分析",
          "iu" : "https:\/\/i1.douguo.com\/upload\/banner\/f\/4\/d\/f48877e53c37759bc12ac494be82ec8d.png",
          "url" : "https:\/\/m.douguo.com\/recipe\/nutrient_self\/1684350"
        }
      },
      "cookwares" : [

      ],
      "rate_count" : 10,
      "recipe_list_tags" : [
        {
          "background_start_color" : "#F4F5F5",
          "right_image" : "",
          "jump_url" : "",
          "background_end_color" : "#F4F5F5",
          "text" : "关注的人",
          "background_border_color" : "",
          "text_color" : "#141515"
        },
        {
          "jump_url" : "",
          "text_color" : "#141515",
          "right_image" : "",
          "background_end_color" : "#F4F5F5",
          "background_border_color" : "",
          "background_start_color" : "#F4F5F5",
          "text" : "内容详细"
        }
      ],
      "author_id" : 8941025,
      "act_des" : "",
      "rpid" : 0,
      "cookstory" : "油条，是一种古老的中式面食，长条形中空的油炸食品，口感松脆有韧劲，中国传统的早点之一。",
      "image" : "http:\/\/i1.douguo.net\/upload\/caiku\/1\/7\/b\/300_17594f40360b6254f3ceaad40b6f62db.jpg",
      "vc" : "3453679",
      "related_ads" : [

      ],
      "cook_id" : "1684350",
      "su" : ""
    }
  },
  "state" : "success"
}