{
  "status" : 0,
  "state" : "success",
  "result" : {
    "recipe" : {
      "collect_status" : 0,
      "recipe_tags" : [

      ],
      "first_level_comment_count" : 2,
      "packages_id" : [

      ],
      "author_id" : 17278098,
      "display_ingredient" : 1,
      "minor" : [

      ],
      "brand_day_dsp" : [

      ],
      "rcs" : [

      ],
      "favo_counts" : 409,
      "rrps" : [

      ],
      "author_verified" : 0,
      "release_time" : "",
      "vc" : "63219",
      "ipci" : "",
      "original_photo_path" : "http:\/\/i1.douguo.net\/upload\/caiku\/f\/a\/a\/yuan_fa207419d342435999071efe9c42c8ca.jpg",
      "sr" : "",
      "comments_count" : 2,
      "share_info" : {
        "s_u" : "http:\/\/m.douguo.com\/cookbook\/1368892.html",
        "object_id" : "1368892",
        "s_d" : "八宝粥（电炖盅）-会做饭很酷!",
        "mini_program" : [

        ],
        "image" : "https:\/\/cp1.douguo.com\/upload\/caiku\/f\/a\/a\/fa207419d342435999071efe9c42c8ca.jpg",
        "infos" : [
          {
            "qr_image" : "",
            "object_id" : "1368892",
            "image" : "https:\/\/cp1.douguo.com\/upload\/caiku\/f\/a\/a\/fa207419d342435999071efe9c42c8ca.jpg",
            "s_u" : "",
            "s_d" : "#学做饭用豆果美食# 我在@豆果美食 分享了【八宝粥（电炖盅）-会做饭很酷!】，色香味俱全说的就是这道菜！查看图片了解菜谱（快来点击https:\/\/m.weibo.cn\/p\/100404i33631和我一起修炼厨艺吧）#会做饭很酷# ",
            "mini_program" : [

            ],
            "name" : "八宝粥（电炖盅）-会做饭很酷!",
            "channel" : "1"
          },
          {
            "channel" : "7",
            "s_u" : "http:\/\/m.douguo.com\/cookbook\/1368892.html",
            "s_d" : "八宝粥（电炖盅）-会做饭很酷!",
            "qr_image" : "",
            "mini_program" : [

            ],
            "object_id" : "1368892",
            "image" : "https:\/\/cp1.douguo.com\/upload\/caiku\/f\/a\/a\/fa207419d342435999071efe9c42c8ca.jpg",
            "name" : "八宝粥（电炖盅）-会做饭很酷!"
          },
          {
            "s_d" : "八宝粥（电炖盅）-会做饭很酷!",
            "qr_image" : "",
            "object_id" : "1368892",
            "channel" : "8",
            "image" : "https:\/\/cp1.douguo.com\/upload\/caiku\/f\/a\/a\/fa207419d342435999071efe9c42c8ca.jpg",
            "s_u" : "http:\/\/m.douguo.com\/cookbook\/1368892.html",
            "name" : "八宝粥（电炖盅）-会做饭很酷!",
            "mini_program" : [

            ]
          }
        ],
        "qr_image" : "",
        "name" : "八宝粥（电炖盅）-会做饭很酷!"
      },
      "comments_count_text" : "2",
      "ipoi" : "",
      "thumb_path" : "https:\/\/i1.douguo.com\/upload\/caiku\/f\/a\/a\/300_fa207419d342435999071efe9c42c8ca.jpg",
      "rrpt" : "",
      "eu" : "recipes:\/\/www.douguo.com\/postdetail?id=242016",
      "rsm" : "该功能暂停使用",
      "levelid" : 3,
      "cookstory" : "把食材（除了红枣外）泡了一晚上，然后按了电炖盅的宝宝粥功能～就等着第二天早上吃吧～",
      "author_photo" : "",
      "cook_time_image" : "https:\/\/i1.douguo.com\/upload\/banner\/1551424341.png",
      "old_comments" : [

      ],
      "recommendation_tag" : "",
      "ipurl" : "",
      "rate_count" : 0,
      "rate" : 0,
      "rips" : 0,
      "notes" : [

      ],
      "ph" : 483,
      "cookstorys" : [
        {
          "u" : "",
          "color" : "",
          "icon" : "",
          "c" : "把食材（除了红枣外）泡了一晚上，然后按了电炖盅的宝宝粥功能～就等着第二天早上吃吧～",
          "id" : 0,
          "type" : 0
        }
      ],
      "create_time" : "2016-04-28 11:34:03",
      "vu" : "",
      "ecs" : 0,
      "rewarded_video_dsp" : [

      ],
      "major" : [
        {
          "title" : "超市买的八宝粥杂粮",
          "note" : "大概两抓"
        },
        {
          "note" : "2颗",
          "tu" : "https:\/\/m.douguo.com\/ingredients\/冰糖\/detailmaterial",
          "title" : "冰糖"
        },
        {
          "title" : "新疆红枣",
          "note" : "2个"
        },
        {
          "title" : "水",
          "tu" : "https:\/\/m.douguo.com\/ingredients\/水\/detailmaterial",
          "note" : "食材的6倍"
        }
      ],
      "ipia" : [

      ],
      "ipit" : 0,
      "su" : "",
      "recommended" : 0,
      "btm_dsp" : [

      ],
      "title_ad" : [

      ],
      "cook_difficulty_image" : "https:\/\/i1.douguo.com\/upload\/banner\/1551424390.png",
      "mid_mdsp" : [

      ],
      "story_dsp" : [

      ],
      "dishes" : [

      ],
      "cook_id" : "1368892",
      "recipe_list_tags" : [
        {
          "background_end_color" : "#F4F5F5",
          "text_color" : "#141515",
          "right_image" : "",
          "background_start_color" : "#F4F5F5",
          "jump_url" : "",
          "background_border_color" : "",
          "text" : "关注的人"
        }
      ],
      "recommend_label" : "6.3万人看过",
      "rpst" : "",
      "hqu" : "recipes:\/\/www.douguo.com\/notedetail?id=21162253",
      "title" : "八宝粥（电炖盅）",
      "ipt" : "",
      "favo_counts_text" : "409",
      "related_ads" : [

      ],
      "purl" : "",
      "cookwares" : [

      ],
      "image" : "http:\/\/i1.douguo.net\/upload\/caiku\/f\/a\/a\/300_fa207419d342435999071efe9c42c8ca.jpg",
      "comments" : [
        "{\n    ac = \"#999999\";\n    at = \"\";\n    ccc = 0;\n    \"child_comments\" =     (\n    );\n    city = \"\";\n    cmc = 2;\n    content =     (\n                {\n            c = \"\\U6211\\U5bb6\\U4e5f\\U505a\\U8fc7\\U7c7b\\U4f3c\\U7684~\\U5f88\\U597d\\U5403\";\n        }\n    );\n    ia = 0;\n    id = 5394883;\n    \"ip_address_location\" = \"\";\n    like = 0;\n    \"like_count\" = 0;\n    \"reply_id\" = 0;\n    \"sticker_icon\" =     (\n    );\n    time = \"2018-02-20 04:44:56\";\n    u =     {\n        \"followers_count_text\" = \"\";\n        id = 18456467;\n        \"is_prime\" = 0;\n        lv = 0;\n        lvl = 6;\n        n = \".\\U6155\\U5c0f\\U7433.\\Uff5e\";\n        p = \"http:\/\/tx1.douguo.net\/upload\/photo\/3\/a\/a\/70_u79513142208768174854.jpg\";\n        \"progress_image\" = \"\";\n        \"recipes_count_text\" = \"\";\n        relationship = \"-1\";\n        title = \"\";\n        v = 0;\n        \"verified_image\" = \"\";\n    };\n}",
        "{\n    ac = \"#999999\";\n    at = \"\";\n    ccc = 0;\n    \"child_comments\" =     (\n    );\n    city = \"\";\n    cmc = 2;\n    content =     (\n                {\n            c = \"\\U65f6\\U95f4\\U662f\\U591a\\U4e45\\Uff1f\";\n        }\n    );\n    ia = 0;\n    id = 4220910;\n    \"ip_address_location\" = \"\";\n    like = 0;\n    \"like_count\" = 0;\n    \"reply_id\" = 0;\n    \"sticker_icon\" =     (\n    );\n    time = \"2016-10-29 05:27:36\";\n    u =     {\n        \"followers_count_text\" = \"\";\n        id = 9605307;\n        \"is_prime\" = 0;\n        lv = 0;\n        lvl = 1;\n        n = \"\\U5f90\\U5c0f\\U707f\\U70c2\";\n        p = \"http:\/\/tx1.douguo.net\/upload\/photo\/1\/d\/b\/70_u3277263234804111328.jpg\";\n        \"progress_image\" = \"\";\n        \"recipes_count_text\" = \"\";\n        relationship = \"-1\";\n        title = \"\";\n        v = 0;\n        \"verified_image\" = \"\";\n    };\n}"
      ],
      "ss" : [

      ],
      "ssu" : "",
      "vfurl" : "",
      "bs" : [

      ],
      "rate_show" : 0,
      "cook_time" : "10-30分钟",
      "rpid" : 0,
      "cookstep" : [
        {
          "frame" : "-1",
          "image_width" : 800,
          "content" : "超市买的材料，把除红枣和冰糖的食材泡一个晚上。",
          "position" : 1,
          "image_height" : 1067,
          "thumb" : "https:\/\/i1.douguo.com\/upload\/caiku\/7\/1\/7\/140_71ee7a72888c65a79d1879498aecafa7.jpg",
          "image" : "https:\/\/i1.douguo.com\/upload\/caiku\/7\/1\/7\/71ee7a72888c65a79d1879498aecafa7.jpg"
        },
        {
          "image" : "https:\/\/i1.douguo.com\/upload\/caiku\/1\/7\/c\/17bd0f493d54716383adb0c0253e5bdc.jpg",
          "image_width" : 800,
          "image_height" : 1067,
          "position" : 2,
          "content" : "在炖 ，冰糖和红枣大概半小时出锅前放进去～",
          "frame" : "-1",
          "thumb" : "https:\/\/i1.douguo.com\/upload\/caiku\/1\/7\/c\/140_17bd0f493d54716383adb0c0253e5bdc.jpg"
        },
        {
          "image_height" : 1067,
          "frame" : "-1",
          "thumb" : "https:\/\/i1.douguo.com\/upload\/caiku\/e\/2\/1\/140_e20f775d7d0888544900080e41818841.jpg",
          "position" : 3,
          "content" : "成品～",
          "image" : "https:\/\/i1.douguo.com\/upload\/caiku\/e\/2\/1\/e20f775d7d0888544900080e41818841.jpg",
          "image_width" : 800
        }
      ],
      "recent_comments" : [

      ],
      "guide_image" : "",
      "v_u" : "",
      "views_count_text" : "6.3万",
      "tips" : "我第一次煮的时候放水少所以特别稠，下次还是水放多点，食材放少点好。",
      "hq" : 0,
      "user" : {
        "following_count" : 0,
        "mobile" : "",
        "avatar_medium" : "",
        "favorites_count" : 0,
        "lvl" : 1,
        "user_cover" : "",
        "is_prime" : 0,
        "nick" : "安抓啦",
        "lv" : 0,
        "favor_diaries_count" : 0,
        "user_photo" : "",
        "qzone_nick" : "",
        "birthday" : "",
        "introduction" : "",
        "weibo_nick" : "",
        "sign" : "",
        "dishes_count" : 0,
        "coursecount" : 0,
        "verified_url" : "https:\/\/m.douguo.com\/user\/prodesc",
        "verified" : 0,
        "qq_weibo_nick" : "",
        "point" : 0,
        "user_large_photo" : "",
        "fc" : 0,
        "progress_image" : "",
        "age" : "",
        "user_id" : "17278098",
        "verified_image" : "",
        "pc" : 0,
        "location" : 0,
        "gender" : 2,
        "email" : "",
        "recipes_count" : 0,
        "regist_time" : "",
        "userid" : "17278098",
        "setted_email" : 0,
        "followers_count" : 0,
        "diaries_count" : 0,
        "subscription_article_count" : 0,
        "subscription" : 0
      },
      "tags" : [

      ],
      "top_mdsp" : [

      ],
      "rpt" : "",
      "author" : "安抓啦",
      "rdsps" : [

      ],
      "act_des" : "",
      "dish_count_text" : "",
      "clicks" : "56049",
      "dish_count" : 0,
      "sc" : 0,
      "cook_difficulty" : "切墩(初级)",
      "photo_path" : "https:\/\/i1.douguo.com\/upload\/caiku\/f\/a\/a\/600_fa207419d342435999071efe9c42c8ca.jpg",
      "pw" : 799,
      "thumb_height" : 0
    }
  }
}