{
  "result" : {
    "recipe" : {
      "cook_difficulty" : "",
      "old_comments" : [

      ],
      "ipit" : 0,
      "rrps" : [

      ],
      "ipt" : "",
      "ph" : 1554,
      "recent_comments" : [

      ],
      "cookstep" : [
        {
          "content" : "先做芒果奶油馅。\n取一个无水无油的干净容器，放入室温软化好的奶油奶酪和室温的芒果泥搅拌均匀。",
          "image_height" : 4014,
          "image_width" : 3840,
          "image" : "https:\/\/i1.douguo.com\/upload\/caiku\/2\/e\/f\/2e06a3a6b8b420176f2ca4cedab1d6ff.jpeg",
          "thumb" : "https:\/\/i1.douguo.com\/upload\/caiku\/2\/e\/f\/140_2e06a3a6b8b420176f2ca4cedab1d6ff.jpeg",
          "position" : 1,
          "frame" : "-1"
        },
        {
          "thumb" : "https:\/\/i1.douguo.com\/upload\/caiku\/5\/a\/a\/140_5a74e8f15a7f9e89bbb2779d5b0d2a9a.jpeg",
          "image" : "https:\/\/i1.douguo.com\/upload\/caiku\/5\/a\/a\/5a74e8f15a7f9e89bbb2779d5b0d2a9a.jpeg",
          "image_width" : 3840,
          "frame" : "-1",
          "image_height" : 3867,
          "position" : 2,
          "content" : "加入细砂糖和淡奶油。"
        },
        {
          "position" : 3,
          "frame" : "-1",
          "thumb" : "https:\/\/i1.douguo.com\/upload\/caiku\/1\/4\/0\/140_140294b3e62119278f8257bf5f02a190.jpeg",
          "image" : "https:\/\/i1.douguo.com\/upload\/caiku\/1\/4\/0\/140294b3e62119278f8257bf5f02a190.jpeg",
          "image_height" : 3780,
          "image_width" : 3840,
          "content" : "电动打蛋器打发到硬挺，打蛋头提起来是一个尖角，奶油不会流动的状态就可以。"
        },
        {
          "position" : 4,
          "frame" : "-1",
          "image_height" : 1858,
          "image" : "https:\/\/i1.douguo.com\/upload\/caiku\/d\/b\/c\/db9f1fffc7a936a3087107de24f1f72c.jpeg",
          "image_width" : 1248,
          "thumb" : "https:\/\/i1.douguo.com\/upload\/caiku\/d\/b\/c\/140_db9f1fffc7a936a3087107de24f1f72c.jpeg",
          "content" : "装入裱花袋，套一个泡芙裱花嘴，冰箱冷藏备用。"
        },
        {
          "image_width" : 3840,
          "content" : "现在来制作面团。\n所有面团材料放入揉面缸中。\n这里需要注意盐糖不要直接接触酵母。\n所有液体材料需要用冷藏的。\n我家今天室温30度，我还绑了冰袋揉面。\n新手牛奶需要预留10-15克，看面团吸水情况再决定要不要加入。",
          "image_height" : 5118,
          "image" : "https:\/\/i1.douguo.com\/upload\/caiku\/b\/5\/d\/b598b817b70a6353e4f0995a3f61251d.jpeg",
          "frame" : "-1",
          "thumb" : "https:\/\/i1.douguo.com\/upload\/caiku\/b\/5\/d\/140_b598b817b70a6353e4f0995a3f61251d.jpeg",
          "position" : 5
        },
        {
          "content" : "厨师机中速揉面大概13-17分钟，出现手套膜就可以了。",
          "image" : "https:\/\/i1.douguo.com\/upload\/caiku\/2\/2\/6\/22cdaea1b6cfdae2a77f66195211f9a6.jpeg",
          "frame" : "-1",
          "thumb" : "https:\/\/i1.douguo.com\/upload\/caiku\/2\/2\/6\/140_22cdaea1b6cfdae2a77f66195211f9a6.jpeg",
          "position" : 6,
          "image_width" : 1242,
          "image_height" : 1000
        },
        {
          "image_height" : 5118,
          "image_width" : 3840,
          "thumb" : "https:\/\/i1.douguo.com\/upload\/caiku\/0\/0\/3\/140_00b016e19844e96edd5972f3934a59a3.jpeg",
          "content" : "面团整理光滑放入抹了油的容器中，盖上保鲜膜，发酵到两倍大。",
          "image" : "https:\/\/i1.douguo.com\/upload\/caiku\/0\/0\/3\/00b016e19844e96edd5972f3934a59a3.jpeg",
          "position" : 7,
          "frame" : "-1"
        },
        {
          "image" : "https:\/\/i1.douguo.com\/upload\/caiku\/f\/9\/6\/f95b9f61f5e3a6535c408618ed5d7376.jpeg",
          "frame" : "-1",
          "position" : 8,
          "thumb" : "https:\/\/i1.douguo.com\/upload\/caiku\/f\/9\/6\/140_f95b9f61f5e3a6535c408618ed5d7376.jpeg",
          "content" : "室温30度，我大概发酵了一小时。\n发酵好的面团手指沾面粉戳一个洞不回缩或者缓慢回缩就可以了。",
          "image_width" : 3840,
          "image_height" : 5118
        },
        {
          "image_height" : 5118,
          "frame" : "-1",
          "thumb" : "https:\/\/i1.douguo.com\/upload\/caiku\/6\/9\/e\/140_69c4fef1faadaf58b8d789d06ccb559e.jpeg",
          "position" : 9,
          "content" : "平均分成五份，排气搓圆，盖上保鲜膜松弛二十分钟。",
          "image" : "https:\/\/i1.douguo.com\/upload\/caiku\/6\/9\/e\/69c4fef1faadaf58b8d789d06ccb559e.jpeg",
          "image_width" : 3840
        },
        {
          "position" : 10,
          "frame" : "-1",
          "image_width" : 3840,
          "image_height" : 5118,
          "content" : "取一个松弛好的面团，光滑面朝上，两边收窄一点擀长到大概15-20公分。",
          "thumb" : "https:\/\/i1.douguo.com\/upload\/caiku\/9\/1\/0\/140_913d23c5ccd8eecc0a1c76ae9fa88570.jpeg",
          "image" : "https:\/\/i1.douguo.com\/upload\/caiku\/9\/1\/0\/913d23c5ccd8eecc0a1c76ae9fa88570.jpeg"
        },
        {
          "content" : "翻过来，光滑面朝下，底边打薄，从上往下卷起来，封口捏紧。",
          "image" : "https:\/\/i1.douguo.com\/upload\/caiku\/d\/d\/7\/dd364c53e2fff7ffabdfdc0956f29d57.jpeg",
          "image_width" : 3840,
          "thumb" : "https:\/\/i1.douguo.com\/upload\/caiku\/d\/d\/7\/140_dd364c53e2fff7ffabdfdc0956f29d57.jpeg",
          "image_height" : 5118,
          "frame" : "-1",
          "position" : 11
        },
        {
          "image_width" : 3840,
          "position" : 12,
          "image_height" : 2880,
          "thumb" : "https:\/\/i1.douguo.com\/upload\/caiku\/9\/0\/9\/140_90eee19e28fb2805275dbb2f9829e359.jpeg",
          "content" : "全部操作完盖上保鲜膜松弛五分钟。",
          "image" : "https:\/\/i1.douguo.com\/upload\/caiku\/9\/0\/9\/90eee19e28fb2805275dbb2f9829e359.jpeg",
          "frame" : "-1"
        },
        {
          "frame" : "-1",
          "image" : "https:\/\/i1.douguo.com\/upload\/caiku\/f\/7\/6\/f70a84d27139cd999de3516171490a26.jpeg",
          "image_height" : 5118,
          "content" : "取一个松弛好的面团。",
          "image_width" : 3840,
          "thumb" : "https:\/\/i1.douguo.com\/upload\/caiku\/f\/7\/6\/140_f70a84d27139cd999de3516171490a26.jpeg",
          "position" : 13
        },
        {
          "content" : "搓长到大概15-20公分。",
          "image" : "https:\/\/i1.douguo.com\/upload\/caiku\/c\/6\/f\/c6e8be6bce4b2eef8d942aa2554b0c2f.jpeg",
          "image_height" : 2880,
          "thumb" : "https:\/\/i1.douguo.com\/upload\/caiku\/c\/6\/f\/140_c6e8be6bce4b2eef8d942aa2554b0c2f.jpeg",
          "image_width" : 3840,
          "frame" : "-1",
          "position" : 14
        },
        {
          "content" : "操作好的面团表面喷水沾上一层卡夫芝士粉，可以不沾。\n盖上保鲜膜发酵到两倍大。\n快发酵好的时候预热烤箱上下火200度，10分钟。",
          "image_width" : 3840,
          "frame" : "-1",
          "position" : 15,
          "image_height" : 2880,
          "thumb" : "https:\/\/i1.douguo.com\/upload\/caiku\/4\/6\/c\/140_468b9c27c558b5640824a432f24fdedc.jpeg",
          "image" : "https:\/\/i1.douguo.com\/upload\/caiku\/4\/6\/c\/468b9c27c558b5640824a432f24fdedc.jpeg"
        },
        {
          "image_width" : 3840,
          "content" : "室温30度，我大概发酵了一小时。\n发酵好的面团表面筛一层面粉，割三刀。\n放入烤箱最下层烤制，时间根据自家烤箱情况灵活调整。\n烤到面团上下都金黄上色就可以了，我烤了十分钟。",
          "image" : "https:\/\/i1.douguo.com\/upload\/caiku\/5\/3\/d\/534316246234dc5083d4821b601da43d.jpeg",
          "thumb" : "https:\/\/i1.douguo.com\/upload\/caiku\/5\/3\/d\/140_534316246234dc5083d4821b601da43d.jpeg",
          "position" : 16,
          "frame" : "-1",
          "image_height" : 2880
        },
        {
          "image_height" : 3030,
          "position" : 17,
          "content" : "出炉震一震，放凉以后拿筷子戳一个洞，挤入之前冷藏的奶油馅就可以了。",
          "image" : "https:\/\/i1.douguo.com\/upload\/caiku\/c\/0\/2\/c03dd2aa7b9f3f94aafb70a84741e462.jpeg",
          "thumb" : "https:\/\/i1.douguo.com\/upload\/caiku\/c\/0\/2\/140_c03dd2aa7b9f3f94aafb70a84741e462.jpeg",
          "image_width" : 3840,
          "frame" : "-1"
        },
        {
          "content" : "高温快烤的面包，表面金黄酥脆，内心柔软。",
          "image_width" : 3840,
          "image" : "https:\/\/i1.douguo.com\/upload\/caiku\/c\/7\/7\/c7ef594ac291e3d683b2fb4660152987.jpeg",
          "frame" : "-1",
          "image_height" : 3042,
          "thumb" : "https:\/\/i1.douguo.com\/upload\/caiku\/c\/7\/7\/140_c7ef594ac291e3d683b2fb4660152987.jpeg",
          "position" : 18
        },
        {
          "position" : 19,
          "content" : "满满的内馅。",
          "frame" : "-1",
          "image_width" : 1242,
          "image" : "https:\/\/i1.douguo.com\/upload\/caiku\/f\/1\/0\/f1a841a3c2b5a87a93f23142d0062a30.jpeg",
          "image_height" : 1028,
          "thumb" : "https:\/\/i1.douguo.com\/upload\/caiku\/f\/1\/0\/140_f1a841a3c2b5a87a93f23142d0062a30.jpeg"
        },
        {
          "position" : 20,
          "frame" : "-1",
          "image_width" : 1242,
          "image_height" : 1056,
          "thumb" : "https:\/\/i1.douguo.com\/upload\/caiku\/4\/5\/5\/140_458762b17d12b52956ec20076bce3e65.jpeg",
          "image" : "https:\/\/i1.douguo.com\/upload\/caiku\/4\/5\/5\/458762b17d12b52956ec20076bce3e65.jpeg",
          "content" : "内馅满满，非常好吃。\n吃不完的密封冷冻保存，下次吃的时候直接放入烤箱中层200度，烤5-7分钟就可以了。"
        }
      ],
      "purl" : "",
      "vfurl" : "",
      "recipe_list_tags" : [
        {
          "text" : "关注的人",
          "background_border_color" : "",
          "background_start_color" : "#F4F5F5",
          "background_end_color" : "#F4F5F5",
          "jump_url" : "",
          "right_image" : "",
          "text_color" : "#141515"
        }
      ],
      "rrpt" : "",
      "ipurl" : "",
      "author" : "石头Kido_Kido",
      "recommendation_tag" : "",
      "top_mdsp" : [

      ],
      "ssu" : "",
      "thumb_height" : 0,
      "cookwares" : [

      ],
      "collect_status" : 0,
      "cook_id" : "3201775",
      "v_u" : "",
      "dish_count" : 0,
      "hqu" : "recipes:\/\/www.douguo.com\/notedetail?id=21162253",
      "recommended" : 0,
      "story_dsp" : [

      ],
      "ecs" : 1,
      "tips" : "",
      "vc" : "469140",
      "advice" : {
        "has" : [

        ],
        "da" : {
          "iu" : "https:\/\/i1.douguo.com\/upload\/banner\/f\/4\/d\/f48877e53c37759bc12ac494be82ec8d.png",
          "t" : "查看详细分析",
          "url" : "https:\/\/m.douguo.com\/recipe\/nutrient_self\/3201775"
        }
      },
      "rpid" : 0,
      "ipoi" : "",
      "minor" : [

      ],
      "guide_image" : "",
      "image" : "http:\/\/i1.douguo.net\/upload\/caiku\/3\/9\/b\/300_391e3761205a5c75b5c5c3ffd9c4efeb.jpeg",
      "rate" : 0,
      "clicks" : "1",
      "cookstory" : "今天和大家分享芒芒乳酪冰法棍的做法。\n天气越来越热了，非常适合吃一些冰冰的面包。传统的冰淇淋包吃腻了，可以试试今天的这款冰法棍。这款面包的面包体用了法棍的做法，水量大，外皮酥脆，内心柔软。内馅我用了芒果和乳酪，芒果的果香和乳酪的奶香完美结合，清爽不腻。这款面包的最佳吃法是冷冻密封保存，冻硬以后，再用烤箱200度烤5-7分钟。复烤的面包，外皮酥脆掉渣，内馅就像冰淇淋一样，非常好吃。\n喜欢的朋友们可以试着做起来！",
      "rips" : 0,
      "share_info" : {
        "qr_image" : "",
        "object_id" : "3201775",
        "mini_program" : [

        ],
        "s_d" : "芒芒乳酪冰法棍-会做饭很酷!",
        "infos" : [
          {
            "name" : "芒芒乳酪冰法棍-会做饭很酷!",
            "s_u" : "",
            "s_d" : "#学做饭用豆果美食#  我在@豆果美食 分享了【芒芒乳酪冰法棍-会做饭很酷!】，制作美食的过程承载了我生活中的热情，和我一起感受这份小确幸吧！查看图片了解菜谱（你喜欢的美食都在这里！https:\/\/m.weibo.cn\/p\/100404i33631）#会做饭很酷# ",
            "object_id" : "3201775",
            "channel" : "1",
            "mini_program" : [

            ],
            "qr_image" : "",
            "image" : "https:\/\/cp1.douguo.com\/upload\/caiku\/3\/9\/b\/391e3761205a5c75b5c5c3ffd9c4efeb.jpeg"
          },
          {
            "image" : "https:\/\/cp1.douguo.com\/upload\/caiku\/3\/9\/b\/391e3761205a5c75b5c5c3ffd9c4efeb.jpeg",
            "qr_image" : "",
            "mini_program" : [

            ],
            "object_id" : "3201775",
            "name" : "芒芒乳酪冰法棍-会做饭很酷!",
            "channel" : "7",
            "s_u" : "http:\/\/m.douguo.com\/cookbook\/3201775.html",
            "s_d" : "芒芒乳酪冰法棍-会做饭很酷!"
          },
          {
            "channel" : "8",
            "mini_program" : [

            ],
            "name" : "芒芒乳酪冰法棍-会做饭很酷!",
            "qr_image" : "",
            "object_id" : "3201775",
            "image" : "https:\/\/cp1.douguo.com\/upload\/caiku\/3\/9\/b\/391e3761205a5c75b5c5c3ffd9c4efeb.jpeg",
            "s_d" : "芒芒乳酪冰法棍-会做饭很酷!",
            "s_u" : "http:\/\/m.douguo.com\/cookbook\/3201775.html"
          }
        ],
        "image" : "https:\/\/cp1.douguo.com\/upload\/caiku\/3\/9\/b\/391e3761205a5c75b5c5c3ffd9c4efeb.jpeg",
        "name" : "芒芒乳酪冰法棍-会做饭很酷!",
        "s_u" : "http:\/\/m.douguo.com\/cookbook\/3201775.html"
      },
      "ipia" : [

      ],
      "related_ads" : [

      ],
      "major" : [
        {
          "note" : "---------",
          "title" : "-----"
        },
        {
          "note" : "",
          "title" : "芒果奶油馅"
        },
        {
          "note" : "50克",
          "title" : "芒果泥"
        },
        {
          "note" : "50克",
          "title" : "奶油奶酪",
          "tu" : "https:\/\/m.douguo.com\/ingredients\/奶油奶酪\/detailmaterial"
        },
        {
          "note" : "10克",
          "title" : "细砂糖",
          "tu" : "https:\/\/m.douguo.com\/ingredients\/细砂糖\/detailmaterial"
        },
        {
          "note" : "70克",
          "title" : "淡奶油",
          "tu" : "https:\/\/m.douguo.com\/ingredients\/淡奶油\/detailmaterial"
        },
        {
          "note" : "---------",
          "title" : "-----"
        },
        {
          "note" : "",
          "title" : "面团材料"
        },
        {
          "tu" : "https:\/\/m.douguo.com\/ingredients\/高筋面粉\/detailmaterial",
          "note" : "150克",
          "title" : "高筋面粉"
        },
        {
          "title" : "盐",
          "tu" : "https:\/\/m.douguo.com\/ingredients\/盐\/detailmaterial",
          "note" : "2克"
        },
        {
          "note" : "15克",
          "title" : "细砂糖",
          "tu" : "https:\/\/m.douguo.com\/ingredients\/细砂糖\/detailmaterial"
        },
        {
          "note" : "8克",
          "title" : "奶粉",
          "tu" : "https:\/\/m.douguo.com\/ingredients\/奶粉\/detailmaterial"
        },
        {
          "note" : "2克",
          "title" : "酵母",
          "tu" : "https:\/\/m.douguo.com\/ingredients\/酵母\/detailmaterial"
        },
        {
          "note" : "130毫升",
          "title" : "牛奶",
          "tu" : "https:\/\/m.douguo.com\/ingredients\/牛奶\/detailmaterial"
        },
        {
          "title" : "奶油奶酪",
          "tu" : "https:\/\/m.douguo.com\/ingredients\/奶油奶酪\/detailmaterial",
          "note" : "10克"
        },
        {
          "note" : "10克",
          "title" : "黄油",
          "tu" : "https:\/\/m.douguo.com\/ingredients\/黄油\/detailmaterial"
        },
        {
          "title" : "-----",
          "note" : "---------"
        }
      ],
      "sc" : 0,
      "dish_count_text" : "",
      "recipe_tags" : [

      ],
      "cookstorys" : [
        {
          "c" : "今天和大家分享芒芒乳酪冰法棍的做法。\n天气越来越热了，非常适合吃一些冰冰的面包。传统的冰淇淋包吃腻了，可以试试今天的这款冰法棍。这款面包的面包体用了法棍的做法，水量大，外皮酥脆，内心柔软。内馅我用了芒果和乳酪，芒果的果香和乳酪的奶香完美结合，清爽不腻。这款面包的最佳吃法是冷冻密封保存，冻硬以后，再用烤箱200度烤5-7分钟。复烤的面包，外皮酥脆掉渣，内馅就像冰淇淋一样，非常好吃。\n喜欢的朋友们可以试着做起来！",
          "color" : "",
          "icon" : "",
          "type" : 0,
          "u" : "",
          "id" : 0
        }
      ],
      "packages_id" : [

      ],
      "thumb_path" : "https:\/\/i1.douguo.com\/upload\/caiku\/3\/9\/b\/300_391e3761205a5c75b5c5c3ffd9c4efeb.jpeg",
      "eu" : "recipes:\/\/www.douguo.com\/postdetail?id=242016",
      "rpst" : "",
      "pw" : 1920,
      "views_count_text" : "46.9万",
      "recommend_label" : "2.0万人刚刚收藏过",
      "author_id" : 26035758,
      "title_ad" : [

      ],
      "favo_counts_text" : "2.0万",
      "bs" : [

      ],
      "rewarded_video_dsp" : [

      ],
      "rate_show" : 0,
      "comments_count_text" : "",
      "notes" : [

      ],
      "levelid" : 2,
      "brand_day_dsp" : [

      ],
      "photo_path" : "https:\/\/i1.douguo.com\/upload\/caiku\/3\/9\/b\/600_391e3761205a5c75b5c5c3ffd9c4efeb.jpeg",
      "ipci" : "",
      "ss" : [

      ],
      "tags" : [

      ],
      "release_time" : "",
      "rpt" : "",
      "mid_mdsp" : [

      ],
      "rcs" : [

      ],
      "favo_counts" : 20322,
      "sr" : "",
      "vu" : "",
      "first_level_comment_count" : 0,
      "author_verified" : 0,
      "display_ingredient" : 1,
      "rate_count" : 0,
      "su" : "",
      "cook_time_image" : "",
      "cook_difficulty_image" : "",
      "btm_dsp" : [

      ],
      "rdsps" : [

      ],
      "rsm" : "该功能暂停使用",
      "act_des" : "",
      "user" : {
        "coursecount" : 0,
        "lv" : 0,
        "userid" : "26035758",
        "birthday" : "",
        "weibo_nick" : "",
        "user_photo" : "http:\/\/tx1.douguo.net\/upload\/photo\/2\/3\/b\/70_23770f75ea5ee0cd3166dcc63ae4065b.jpeg",
        "age" : "",
        "progress_image" : "",
        "pc" : 0,
        "diaries_count" : 0,
        "mobile" : "",
        "fc" : 0,
        "following_count" : 0,
        "point" : 0,
        "favorites_count" : 0,
        "favor_diaries_count" : 0,
        "is_prime" : 0,
        "verified" : 0,
        "subscription" : 0,
        "sign" : "",
        "avatar_medium" : "http:\/\/tx1.douguo.net\/upload\/photo\/2\/3\/b\/140_23770f75ea5ee0cd3166dcc63ae4065b.jpeg",
        "qq_weibo_nick" : "",
        "user_large_photo" : "http:\/\/tx1.douguo.net\/upload\/photo\/2\/3\/b\/yuan_23770f75ea5ee0cd3166dcc63ae4065b.jpeg",
        "verified_url" : "https:\/\/m.douguo.com\/user\/prodesc",
        "setted_email" : 0,
        "location" : 0,
        "user_cover" : "",
        "gender" : 1,
        "introduction" : "",
        "lvl" : 6,
        "followers_count" : 0,
        "qzone_nick" : "",
        "nick" : "石头Kido_Kido",
        "recipes_count" : 0,
        "regist_time" : "",
        "email" : "",
        "subscription_article_count" : 0,
        "dishes_count" : 0,
        "verified_image" : "",
        "user_id" : "26035758"
      },
      "comments_count" : 0,
      "create_time" : "2022-07-12 16:40:49",
      "comments" : [

      ],
      "dishes" : [

      ],
      "title" : "芒芒乳酪冰法棍",
      "cook_time" : "",
      "hq" : 1,
      "original_photo_path" : "http:\/\/i1.douguo.net\/upload\/caiku\/3\/9\/b\/yuan_391e3761205a5c75b5c5c3ffd9c4efeb.jpeg",
      "author_photo" : "http:\/\/tx1.douguo.net\/upload\/photo\/2\/3\/b\/70_23770f75ea5ee0cd3166dcc63ae4065b.jpeg"
    }
  },
  "state" : "success",
  "status" : 0
}