{
  "status" : 0,
  "result" : {
    "recipe" : {
      "rrps" : [

      ],
      "hq" : 1,
      "packages_id" : [

      ],
      "share_info" : {
        "image" : "https:\/\/cp1.douguo.com\/upload\/caiku\/4\/0\/f\/40747c2e31e9586d389bfaf101a1207f.jpg",
        "qr_image" : "",
        "infos" : [
          {
            "qr_image" : "",
            "channel" : "1",
            "s_u" : "",
            "name" : "#我的养生日常-远离秋燥#醋溜丝瓜-会做饭很酷!",
            "s_d" : "#学做饭用豆果美食# 会做饭真是好酷啊！我在@豆果美食 分享了【#我的养生日常-远离秋燥#醋溜丝瓜-会做饭很酷!】，快来康康我这道菜做的怎么样～美味停不下来！查看图片了解菜谱（你喜欢的美食都在这里！https:\/\/m.weibo.cn\/p\/100404i33631）",
            "object_id" : "3122553",
            "image" : "https:\/\/cp1.douguo.com\/upload\/caiku\/4\/0\/f\/40747c2e31e9586d389bfaf101a1207f.jpg",
            "mini_program" : [

            ]
          },
          {
            "mini_program" : [

            ],
            "qr_image" : "",
            "s_d" : "#我的养生日常-远离秋燥#醋溜丝瓜-会做饭很酷!",
            "s_u" : "http:\/\/m.douguo.com\/cookbook\/3122553.html",
            "name" : "#我的养生日常-远离秋燥#醋溜丝瓜-会做饭很酷!",
            "image" : "https:\/\/cp1.douguo.com\/upload\/caiku\/4\/0\/f\/40747c2e31e9586d389bfaf101a1207f.jpg",
            "channel" : "7",
            "object_id" : "3122553"
          },
          {
            "channel" : "8",
            "object_id" : "3122553",
            "name" : "#我的养生日常-远离秋燥#醋溜丝瓜-会做饭很酷!",
            "mini_program" : [

            ],
            "qr_image" : "",
            "s_d" : "#我的养生日常-远离秋燥#醋溜丝瓜-会做饭很酷!",
            "image" : "https:\/\/cp1.douguo.com\/upload\/caiku\/4\/0\/f\/40747c2e31e9586d389bfaf101a1207f.jpg",
            "s_u" : "http:\/\/m.douguo.com\/cookbook\/3122553.html"
          }
        ],
        "mini_program" : [

        ],
        "name" : "#我的养生日常-远离秋燥#醋溜丝瓜-会做饭很酷!",
        "object_id" : "3122553",
        "s_d" : "#我的养生日常-远离秋燥#醋溜丝瓜-会做饭很酷!",
        "s_u" : "http:\/\/m.douguo.com\/cookbook\/3122553.html"
      },
      "image" : "http:\/\/i1.douguo.net\/upload\/caiku\/4\/0\/f\/300_40747c2e31e9586d389bfaf101a1207f.jpg",
      "ipoi" : "",
      "cook_difficulty_image" : "https:\/\/i1.douguo.com\/upload\/banner\/1551424390.png",
      "sc" : 0,
      "user" : {
        "mobile" : "",
        "email" : "",
        "age" : "",
        "user_photo" : "http:\/\/tx1.douguo.net\/upload\/photo\/e\/b\/1\/70_eb6d54eb5912d1c2452ebd28cc032da1.jpg",
        "lv" : 0,
        "following_count" : 0,
        "fc" : 0,
        "sign" : "",
        "subscription_article_count" : 0,
        "introduction" : "",
        "user_cover" : "",
        "verified" : 1,
        "dishes_count" : 0,
        "regist_time" : "",
        "is_prime" : 0,
        "subscription" : 0,
        "verified_image" : "https:\/\/i1.douguo.com\/upload\/note\/d\/a\/a\/da84247847aebe48d9dd0fcdac88862a.png",
        "point" : 0,
        "setted_email" : 0,
        "recipes_count" : 0,
        "userid" : "17448588",
        "favorites_count" : 0,
        "avatar_medium" : "http:\/\/tx1.douguo.net\/upload\/photo\/e\/b\/1\/140_eb6d54eb5912d1c2452ebd28cc032da1.jpg",
        "diaries_count" : 0,
        "location" : 0,
        "user_id" : "17448588",
        "nick" : "妞妞妈美食",
        "birthday" : "",
        "pc" : 0,
        "coursecount" : 0,
        "user_large_photo" : "http:\/\/tx1.douguo.net\/upload\/photo\/e\/b\/1\/yuan_eb6d54eb5912d1c2452ebd28cc032da1.jpg",
        "qq_weibo_nick" : "",
        "favor_diaries_count" : 0,
        "progress_image" : "",
        "gender" : 2,
        "verified_url" : "https:\/\/m.douguo.com\/user\/prodesc",
        "followers_count" : 0,
        "lvl" : 8,
        "weibo_nick" : "",
        "qzone_nick" : ""
      },
      "major" : [
        {
          "title" : "丝瓜",
          "tu" : "https:\/\/m.douguo.com\/ingredients\/丝瓜\/detailmaterial",
          "note" : "500g"
        },
        {
          "note" : "2瓣",
          "title" : "大蒜",
          "tu" : "https:\/\/m.douguo.com\/ingredients\/大蒜\/detailmaterial"
        },
        {
          "note" : "3个",
          "title" : "干红辣椒"
        },
        {
          "note" : "适量",
          "tu" : "https:\/\/m.douguo.com\/ingredients\/菜籽油\/detailmaterial",
          "title" : "菜籽油"
        },
        {
          "title" : "味达美清香米醋",
          "note" : "1勺"
        },
        {
          "note" : "1勺",
          "title" : "味达美臻品特级生抽"
        },
        {
          "tu" : "https:\/\/m.douguo.com\/ingredients\/糖\/detailmaterial",
          "title" : "糖",
          "note" : "半勺"
        },
        {
          "title" : "盐",
          "note" : "适量",
          "tu" : "https:\/\/m.douguo.com\/ingredients\/盐\/detailmaterial"
        },
        {
          "title" : "鸡精",
          "note" : "少许",
          "tu" : "https:\/\/m.douguo.com\/ingredients\/鸡精\/detailmaterial"
        }
      ],
      "ecs" : 0,
      "top_mdsp" : [

      ],
      "favo_counts_text" : "2139",
      "tips" : "",
      "btm_dsp" : [

      ],
      "ipt" : "",
      "ss" : [

      ],
      "hqu" : "recipes:\/\/www.douguo.com\/notedetail?id=21162253",
      "recommended" : 0,
      "mid_mdsp" : [

      ],
      "rpst" : "",
      "cook_time_image" : "https:\/\/i1.douguo.com\/upload\/banner\/1551424358.png",
      "author" : "妞妞妈美食",
      "create_time" : "2021-08-18 21:40:02",
      "recommendation_tag" : "",
      "vc" : "73985",
      "cookstory" : "秋天就要多吃各种瓜瓜。",
      "cookstep" : [
        {
          "content" : "丝瓜去皮洗干净。",
          "thumb" : "https:\/\/i1.douguo.com\/upload\/caiku\/6\/d\/6\/140_6d13968b54badbe612a0e3307448a7a6.jpg",
          "position" : 1,
          "frame" : "-1",
          "image_height" : 960,
          "image" : "https:\/\/i1.douguo.com\/upload\/caiku\/6\/d\/6\/6d13968b54badbe612a0e3307448a7a6.jpg",
          "image_width" : 1280
        },
        {
          "image_height" : 960,
          "image_width" : 1280,
          "image" : "https:\/\/i1.douguo.com\/upload\/caiku\/8\/0\/a\/80e2d71e1c631fb43222a00ed69d1b1a.jpg",
          "thumb" : "https:\/\/i1.douguo.com\/upload\/caiku\/8\/0\/a\/140_80e2d71e1c631fb43222a00ed69d1b1a.jpg",
          "frame" : "-1",
          "position" : 2,
          "content" : "切成滚刀块。"
        },
        {
          "content" : "大蒜切成片，干红辣椒切成段。",
          "thumb" : "https:\/\/i1.douguo.com\/upload\/caiku\/3\/7\/5\/140_37487b02cb3df62c888bd22db0b68445.jpg",
          "frame" : "-1",
          "image" : "https:\/\/i1.douguo.com\/upload\/caiku\/3\/7\/5\/37487b02cb3df62c888bd22db0b68445.jpg",
          "image_width" : 1280,
          "position" : 3,
          "image_height" : 960
        },
        {
          "thumb" : "https:\/\/i1.douguo.com\/upload\/caiku\/b\/d\/d\/140_bd5e4e312c207223fc69ce47e1a82c2d.jpg",
          "position" : 4,
          "content" : "炒锅内倒适量的菜籽油烧热，下入蒜片和干红辣椒炒香。",
          "image_height" : 960,
          "image_width" : 1280,
          "frame" : "-1",
          "image" : "https:\/\/i1.douguo.com\/upload\/caiku\/b\/d\/d\/bd5e4e312c207223fc69ce47e1a82c2d.jpg"
        },
        {
          "thumb" : "https:\/\/i1.douguo.com\/upload\/caiku\/0\/7\/2\/140_074b569705fb032ac6b5b6ef7d4b2882.jpg",
          "image_height" : 961,
          "content" : "下入丝瓜块。",
          "frame" : "-1",
          "position" : 5,
          "image_width" : 1280,
          "image" : "https:\/\/i1.douguo.com\/upload\/caiku\/0\/7\/2\/074b569705fb032ac6b5b6ef7d4b2882.jpg"
        },
        {
          "image_height" : 960,
          "frame" : "-1",
          "content" : "翻炒均匀。",
          "image_width" : 1280,
          "thumb" : "https:\/\/i1.douguo.com\/upload\/caiku\/5\/b\/5\/140_5b5d19c917dd89547623fa1de8cc5c05.jpg",
          "position" : 6,
          "image" : "https:\/\/i1.douguo.com\/upload\/caiku\/5\/b\/5\/5b5d19c917dd89547623fa1de8cc5c05.jpg"
        },
        {
          "position" : 7,
          "image_width" : 1280,
          "frame" : "-1",
          "thumb" : "https:\/\/i1.douguo.com\/upload\/caiku\/4\/4\/b\/140_4402d22b1b0f7797a5e63f3a5303ef2b.jpg",
          "image" : "https:\/\/i1.douguo.com\/upload\/caiku\/4\/4\/b\/4402d22b1b0f7797a5e63f3a5303ef2b.jpg",
          "content" : "加入一勺味达美清香米醋。",
          "image_height" : 960
        },
        {
          "thumb" : "https:\/\/i1.douguo.com\/upload\/caiku\/9\/4\/a\/140_9424a149e0371a19ba8975b07b99631a.jpg",
          "image_height" : 960,
          "frame" : "-1",
          "content" : "加入一勺味达美臻品特级生抽。",
          "image_width" : 1280,
          "image" : "https:\/\/i1.douguo.com\/upload\/caiku\/9\/4\/a\/9424a149e0371a19ba8975b07b99631a.jpg",
          "position" : 8
        },
        {
          "position" : 9,
          "image_width" : 1280,
          "content" : "大火炒出香味。",
          "image_height" : 960,
          "frame" : "-1",
          "thumb" : "https:\/\/i1.douguo.com\/upload\/caiku\/8\/2\/2\/140_826e5aaffb2061963e22fd0db06cf9a2.jpg",
          "image" : "https:\/\/i1.douguo.com\/upload\/caiku\/8\/2\/2\/826e5aaffb2061963e22fd0db06cf9a2.jpg"
        },
        {
          "thumb" : "https:\/\/i1.douguo.com\/upload\/caiku\/5\/e\/1\/140_5e343e3526850f646e6701575e9c27b1.jpg",
          "image_height" : 960,
          "content" : "放糖和盐调味。",
          "frame" : "-1",
          "image_width" : 1280,
          "position" : 10,
          "image" : "https:\/\/i1.douguo.com\/upload\/caiku\/5\/e\/1\/5e343e3526850f646e6701575e9c27b1.jpg"
        },
        {
          "thumb" : "https:\/\/i1.douguo.com\/upload\/caiku\/a\/4\/f\/140_a41c96be1a9b93fc16c21701206bc10f.jpg",
          "position" : 11,
          "image_height" : 960,
          "image_width" : 1280,
          "image" : "https:\/\/i1.douguo.com\/upload\/caiku\/a\/4\/f\/a41c96be1a9b93fc16c21701206bc10f.jpg",
          "content" : "放鸡精增加口感。",
          "frame" : "-1"
        },
        {
          "position" : 12,
          "content" : "翻炒均匀即可。",
          "image_height" : 960,
          "image_width" : 1280,
          "frame" : "-1",
          "thumb" : "https:\/\/i1.douguo.com\/upload\/caiku\/d\/e\/8\/140_de92f2d706fe30b9e7ee30c401df6d58.jpg",
          "image" : "https:\/\/i1.douguo.com\/upload\/caiku\/d\/e\/8\/de92f2d706fe30b9e7ee30c401df6d58.jpg"
        },
        {
          "image_height" : 961,
          "thumb" : "https:\/\/i1.douguo.com\/upload\/caiku\/4\/4\/5\/140_4406bd752fcf80c098e482e59f5d1e35.jpg",
          "frame" : "-1",
          "image_width" : 1280,
          "content" : "出锅装盘。",
          "position" : 13,
          "image" : "https:\/\/i1.douguo.com\/upload\/caiku\/4\/4\/5\/4406bd752fcf80c098e482e59f5d1e35.jpg"
        },
        {
          "image_height" : 960,
          "image_width" : 1280,
          "image" : "https:\/\/i1.douguo.com\/upload\/caiku\/5\/b\/c\/5b7d38c8c908170aae2cce95bd96f6fc.jpg",
          "frame" : "-1",
          "position" : 14,
          "thumb" : "https:\/\/i1.douguo.com\/upload\/caiku\/5\/b\/c\/140_5b7d38c8c908170aae2cce95bd96f6fc.jpg",
          "content" : "味道特别赞。"
        },
        {
          "image" : "https:\/\/i1.douguo.com\/upload\/caiku\/6\/2\/c\/62919de481d62729f95a96f4823b124c.jpg",
          "image_height" : 960,
          "thumb" : "https:\/\/i1.douguo.com\/upload\/caiku\/6\/2\/c\/140_62919de481d62729f95a96f4823b124c.jpg",
          "frame" : "-1",
          "image_width" : 1280,
          "position" : 15,
          "content" : "好吃不长肉。"
        }
      ],
      "ipit" : 0,
      "guide_image" : "",
      "dish_count_text" : "",
      "recipe_tags" : [

      ],
      "title" : "醋溜丝瓜",
      "cook_time" : "10分钟左右",
      "first_level_comment_count" : 0,
      "views_count_text" : "7.4万",
      "event" : {
        "name" : "我的养生日常——远离秋燥",
        "id" : 3216,
        "url" : "https:\/\/m.douguo.com\/activity\/ncpzj\/detail\/3216?isapp=1&open=0&_vs=1000300&&dg_refreshkey=publishnote"
      },
      "cookstorys" : [
        {
          "color" : "",
          "c" : "秋天就要多吃各种瓜瓜。",
          "icon" : "",
          "u" : "",
          "id" : 0,
          "type" : 0
        },
        {
          "c" : "\n参与活动:",
          "type" : 0,
          "color" : "",
          "id" : 0,
          "icon" : "",
          "u" : ""
        },
        {
          "icon" : "",
          "type" : 0,
          "c" : "#我的养生日常——远离秋燥#",
          "id" : 0,
          "u" : "https:\/\/m.douguo.com\/activity\/ncpzj\/detail\/3216?isapp=1&open=0&_vs=1000300&&dg_refreshkey=publishnote"
        }
      ],
      "tags" : [

      ],
      "vfurl" : "",
      "su" : "",
      "cookwares" : [

      ],
      "title_ad" : [

      ],
      "rcs" : [

      ],
      "recent_comments" : [

      ],
      "recommend_label" : "2139人刚刚收藏过",
      "ipia" : [

      ],
      "advice" : {
        "at" : "可以预防血栓形成～",
        "da" : {
          "iu" : "https:\/\/i1.douguo.com\/upload\/banner\/f\/4\/d\/f48877e53c37759bc12ac494be82ec8d.png",
          "url" : "https:\/\/m.douguo.com\/recipe\/nutrient_self\/3122553",
          "t" : "查看详细分析"
        },
        "has" : [
          {
            "t" : "低饱和脂肪",
            "url" : "recipes:\/\/www.douguo.com\/simplerecipelist?t=低饱和脂肪&id=低饱和脂肪"
          },
          {
            "t" : "0胆固醇",
            "url" : "recipes:\/\/www.douguo.com\/simplerecipelist?t=0胆固醇&id=0胆固醇"
          }
        ]
      },
      "related_ads" : [

      ],
      "author_id" : 17448588,
      "story_dsp" : [

      ],
      "comments" : [

      ],
      "thumb_height" : 0,
      "v_u" : "",
      "photo_path" : "https:\/\/i1.douguo.com\/upload\/caiku\/4\/0\/f\/600_40747c2e31e9586d389bfaf101a1207f.jpg",
      "minor" : [

      ],
      "brand_day_dsp" : [

      ],
      "cook_id" : "3122553",
      "collect_status" : 0,
      "act_des" : "",
      "rdsps" : [

      ],
      "comments_count" : 0,
      "rate_show" : 0,
      "rsm" : "该功能暂停使用",
      "vu" : "",
      "rpid" : 0,
      "original_photo_path" : "http:\/\/i1.douguo.net\/upload\/caiku\/4\/0\/f\/yuan_40747c2e31e9586d389bfaf101a1207f.jpg",
      "clicks" : "68970",
      "rewarded_video_dsp" : [

      ],
      "ssu" : "",
      "rate" : 0,
      "author_photo" : "http:\/\/tx1.douguo.net\/upload\/photo\/e\/b\/1\/70_eb6d54eb5912d1c2452ebd28cc032da1.jpg",
      "rrpt" : "",
      "cook_difficulty" : "切墩(初级)",
      "rate_count" : 0,
      "favo_counts" : 2139,
      "ipurl" : "",
      "sr" : "",
      "dishes" : [

      ],
      "levelid" : 2,
      "notes" : [

      ],
      "rpt" : "",
      "rips" : 0,
      "pw" : 1280,
      "ph" : 960,
      "eu" : "recipes:\/\/www.douguo.com\/postdetail?id=242016",
      "release_time" : "",
      "bs" : [

      ],
      "display_ingredient" : 1,
      "author_verified" : 1,
      "recipe_list_tags" : [
        {
          "background_border_color" : "",
          "jump_url" : "",
          "text_color" : "#141515",
          "text" : "关注的人",
          "right_image" : "",
          "background_end_color" : "#F4F5F5",
          "background_start_color" : "#F4F5F5"
        }
      ],
      "ipci" : "",
      "comments_count_text" : "",
      "purl" : "",
      "dish_count" : 0,
      "thumb_path" : "https:\/\/i1.douguo.com\/upload\/caiku\/4\/0\/f\/300_40747c2e31e9586d389bfaf101a1207f.jpg",
      "old_comments" : [

      ]
    }
  },
  "state" : "success"
}