{
  "result" : {
    "recipe" : {
      "author_photo" : "http:\/\/tx1.douguo.net\/upload\/photo\/9\/e\/3\/70_u82017813699927094212.jpg",
      "rate_show" : 0,
      "title" : "酸萝卜炒鸡胗-酸酸辣辣超下饭又低卡",
      "rpt" : "",
      "ss" : [

      ],
      "rewarded_video_dsp" : [

      ],
      "su" : "",
      "major" : [
        {
          "note" : "250g",
          "tu" : "https:\/\/m.douguo.com\/ingredients\/鸡胗\/detailmaterial",
          "title" : "鸡胗"
        },
        {
          "note" : "250g",
          "title" : "酸萝卜"
        },
        {
          "note" : "5瓣",
          "tu" : "https:\/\/m.douguo.com\/ingredients\/蒜\/detailmaterial",
          "title" : "蒜"
        },
        {
          "note" : "10块",
          "tu" : "https:\/\/m.douguo.com\/ingredients\/生姜\/detailmaterial",
          "title" : "生姜"
        },
        {
          "note" : "半个",
          "title" : "甜椒"
        },
        {
          "title" : "青辣椒",
          "note" : "2个"
        },
        {
          "note" : "3个",
          "tu" : "https:\/\/m.douguo.com\/ingredients\/朝天椒\/detailmaterial",
          "title" : "朝天椒"
        },
        {
          "tu" : "https:\/\/m.douguo.com\/ingredients\/辣椒粉\/detailmaterial",
          "note" : "1勺",
          "title" : "辣椒粉"
        }
      ],
      "v_u" : "",
      "image" : "http:\/\/i1.douguo.net\/upload\/caiku\/d\/b\/1\/300_dbfd685de92548bb92c7614852e95811.jpg",
      "vu" : "",
      "rdsps" : [

      ],
      "cook_time" : "10~30分钟",
      "dish_count_text" : "1",
      "user" : {
        "dishes_count" : 0,
        "introduction" : "",
        "favor_diaries_count" : 0,
        "regist_time" : "",
        "verified_url" : "https:\/\/m.douguo.com\/user\/prodesc",
        "user_photo" : "http:\/\/tx1.douguo.net\/upload\/photo\/9\/e\/3\/70_u82017813699927094212.jpg",
        "user_large_photo" : "http:\/\/tx1.douguo.net\/upload\/photo\/9\/e\/3\/yuan_u82017813699927094212.jpg",
        "pc" : 0,
        "fc" : 0,
        "verified_image" : "",
        "lvl" : 4,
        "sign" : "",
        "email" : "",
        "nick" : "脆弱的西米很快回来",
        "age" : "",
        "verified" : 0,
        "user_cover" : "",
        "qq_weibo_nick" : "",
        "userid" : "25019508",
        "followers_count" : 0,
        "weibo_nick" : "",
        "coursecount" : 0,
        "point" : 0,
        "favorites_count" : 0,
        "subscription_article_count" : 0,
        "recipes_count" : 0,
        "following_count" : 0,
        "progress_image" : "",
        "lv" : 0,
        "is_prime" : 0,
        "avatar_medium" : "http:\/\/tx1.douguo.net\/upload\/photo\/9\/e\/3\/140_u82017813699927094212.jpg",
        "location" : 0,
        "birthday" : "",
        "qzone_nick" : "",
        "diaries_count" : 0,
        "gender" : 2,
        "mobile" : "",
        "user_id" : "25019508",
        "subscription" : 0,
        "setted_email" : 0
      },
      "rcs" : [

      ],
      "thumb_path" : "https:\/\/i1.douguo.com\/upload\/caiku\/d\/b\/1\/300_dbfd685de92548bb92c7614852e95811.jpg",
      "vfurl" : "",
      "story_dsp" : [

      ],
      "rpst" : "",
      "thumb_height" : 0,
      "author_verified" : 0,
      "recommend_label" : "1人学做",
      "collect_status" : 0,
      "first_level_comment_count" : 2,
      "act_des" : "",
      "top_mdsp" : [

      ],
      "ipt" : "",
      "cookstep" : [
        {
          "image_height" : 1280,
          "image_width" : 1280,
          "thumb" : "https:\/\/i1.douguo.com\/upload\/caiku\/8\/f\/3\/140_8f5556d88e9b986758548fb748eddd03.jpg",
          "content" : "处理好的鸡胗，这个是放了生抽盐生粉腌好的",
          "image" : "https:\/\/i1.douguo.com\/upload\/caiku\/8\/f\/3\/8f5556d88e9b986758548fb748eddd03.jpg",
          "position" : 1,
          "frame" : "-1"
        },
        {
          "content" : "之前泡好的酸萝卜切片",
          "image" : "https:\/\/i1.douguo.com\/upload\/caiku\/a\/e\/e\/aea116426490e2cc74be02e9e9b8345e.jpg",
          "frame" : "-1",
          "thumb" : "https:\/\/i1.douguo.com\/upload\/caiku\/a\/e\/e\/140_aea116426490e2cc74be02e9e9b8345e.jpg",
          "position" : 2,
          "image_width" : 1280,
          "image_height" : 1280
        },
        {
          "image_height" : 1280,
          "frame" : "-1",
          "image" : "https:\/\/i1.douguo.com\/upload\/caiku\/a\/1\/4\/a16cfdda11ff4bc27bb756daedd1e104.jpg",
          "position" : 3,
          "thumb" : "https:\/\/i1.douguo.com\/upload\/caiku\/a\/1\/4\/140_a16cfdda11ff4bc27bb756daedd1e104.jpg",
          "content" : "朝天椒生姜蒜沫，家里之前做菜剩下的葱白因为一般炒着都很香，所以我每次都会留下来",
          "image_width" : 1280
        },
        {
          "position" : 4,
          "frame" : "-1",
          "image_width" : 1280,
          "image_height" : 1280,
          "content" : "甜椒青椒切碎",
          "thumb" : "https:\/\/i1.douguo.com\/upload\/caiku\/2\/f\/f\/140_2f145c18c4779d8135871d75dd07772f.jpg",
          "image" : "https:\/\/i1.douguo.com\/upload\/caiku\/2\/f\/f\/2f145c18c4779d8135871d75dd07772f.jpg"
        },
        {
          "image" : "https:\/\/i1.douguo.com\/upload\/caiku\/3\/9\/f\/394790e39d9077ca5d972e13dfbd868f.jpg",
          "image_height" : 1080,
          "image_width" : 1080,
          "frame" : "-1",
          "thumb" : "https:\/\/i1.douguo.com\/upload\/caiku\/3\/9\/f\/140_394790e39d9077ca5d972e13dfbd868f.jpg",
          "content" : "油烧热放一点生姜和蒜沫把鸡胗里面的水分炒出来",
          "position" : 5
        },
        {
          "image_width" : 1080,
          "content" : "这个样子就是差不多了，把水倒出来，重新洗锅烧油",
          "image" : "https:\/\/i1.douguo.com\/upload\/caiku\/6\/8\/f\/680a5850600a8c22b5704ff2b2e5527f.jpg",
          "thumb" : "https:\/\/i1.douguo.com\/upload\/caiku\/6\/8\/f\/140_680a5850600a8c22b5704ff2b2e5527f.jpg",
          "position" : 6,
          "frame" : "-1",
          "image_height" : 1080
        },
        {
          "image_height" : 1080,
          "position" : 7,
          "image" : "https:\/\/i1.douguo.com\/upload\/caiku\/d\/6\/a\/d68fac0fcc32250aac8b5736ba64788a.jpg",
          "content" : "生姜蒜沫朝天椒放油炒香",
          "thumb" : "https:\/\/i1.douguo.com\/upload\/caiku\/d\/6\/a\/140_d68fac0fcc32250aac8b5736ba64788a.jpg",
          "image_width" : 1080,
          "frame" : "-1"
        },
        {
          "content" : "鸡胗放进去，加一点料酒增香去味如果家里有剁椒放一点会更好吃的",
          "image_width" : 1280,
          "image" : "https:\/\/i1.douguo.com\/upload\/caiku\/a\/8\/9\/a82933e9ddae35cfe946dc8fa4d87ec9.jpg",
          "frame" : "-1",
          "thumb" : "https:\/\/i1.douguo.com\/upload\/caiku\/a\/8\/9\/140_a82933e9ddae35cfe946dc8fa4d87ec9.jpg",
          "image_height" : 1280,
          "position" : 8
        },
        {
          "position" : 9,
          "content" : "鸡胗炒一分钟把酸萝卜放进去炒一下",
          "frame" : "-1",
          "image_width" : 1080,
          "image" : "https:\/\/i1.douguo.com\/upload\/caiku\/9\/9\/a\/997d25f76012ea36269f94c4e33d3e7a.jpg",
          "thumb" : "https:\/\/i1.douguo.com\/upload\/caiku\/9\/9\/a\/140_997d25f76012ea36269f94c4e33d3e7a.jpg",
          "image_height" : 1080
        },
        {
          "image_width" : 1080,
          "frame" : "-1",
          "thumb" : "https:\/\/i1.douguo.com\/upload\/caiku\/8\/3\/a\/140_83f669b58bc31171f09a0f25035cd72a.jpg",
          "position" : 10,
          "image_height" : 1080,
          "image" : "https:\/\/i1.douguo.com\/upload\/caiku\/8\/3\/a\/83f669b58bc31171f09a0f25035cd72a.jpg",
          "content" : "接着把青椒红辣椒放进去炒一分钟"
        },
        {
          "frame" : "-1",
          "image_width" : 1080,
          "thumb" : "https:\/\/i1.douguo.com\/upload\/caiku\/5\/c\/b\/140_5c53e3a6950637a015c5abb4dae0cbcb.jpg",
          "position" : 11,
          "image_height" : 1080,
          "content" : "加一点生抽",
          "image" : "https:\/\/i1.douguo.com\/upload\/caiku\/5\/c\/b\/5c53e3a6950637a015c5abb4dae0cbcb.jpg"
        },
        {
          "image" : "https:\/\/i1.douguo.com\/upload\/caiku\/d\/d\/2\/ddec8ccb1d70449507b84ff7d6be7742.jpg",
          "image_width" : 800,
          "content" : "炒几分钟辣椒出红油就放辣椒粉再炒一分钟出锅咯",
          "image_height" : 800,
          "position" : 12,
          "thumb" : "https:\/\/i1.douguo.com\/upload\/caiku\/d\/d\/2\/140_ddec8ccb1d70449507b84ff7d6be7742.jpg",
          "frame" : "-1"
        }
      ],
      "recent_comments" : [

      ],
      "cookstory" : "这道菜最难的可能是怎么处理从菜市场买回来的鸡胗了，我借鉴了百度里面的方法做出来一点腥味也没有了，很好吃。 \n1、刚买回来的鸡胗一定要用水洗干净，去除黄色的表皮和肥油，要把里里外外都翻过来洗干净，再放水里泡一会儿。必要的话，可以放在盘子里撒上盐，戳洗一下。\n2、洗完之后，切小片，加入盐、生抽还有生粉腌制十分钟，这样能去掉部分腥味。\n3、在正式和其他东西一起炒菜之后，先要放油烧热，加入姜末蒜末，再倒入鸡胗炒一会儿。鸡胗受热之后会析出内部的水分，这种水分要是不去除，炒出来的菜会有很大腥味。\n4、等到锅内的水不再增加时，将鸡胗取出沥干，倒掉锅内的水。 ",
      "cook_id" : "2416336",
      "display_ingredient" : 1,
      "advice" : {
        "da" : {
          "iu" : "https:\/\/i1.douguo.com\/upload\/banner\/f\/4\/d\/f48877e53c37759bc12ac494be82ec8d.png",
          "url" : "https:\/\/m.douguo.com\/recipe\/nutrient_self\/2416336",
          "t" : "查看详细分析"
        },
        "at" : "对血管有保护作用～",
        "has" : [
          {
            "url" : "recipes:\/\/www.douguo.com\/simplerecipelist?t=低饱和脂肪&id=低饱和脂肪",
            "t" : "低饱和脂肪"
          },
          {
            "url" : "recipes:\/\/www.douguo.com\/simplerecipelist?t=富含维生素C&id=富含维生素C",
            "t" : "富含维生素C"
          }
        ]
      },
      "clicks" : "262415",
      "eu" : "recipes:\/\/www.douguo.com\/postdetail?id=242016",
      "bs" : [

      ],
      "original_photo_path" : "http:\/\/i1.douguo.net\/upload\/caiku\/d\/b\/1\/yuan_dbfd685de92548bb92c7614852e95811.jpg",
      "favo_counts_text" : "2838",
      "comments_count" : 2,
      "btm_dsp" : [

      ],
      "comments_count_text" : "2",
      "cook_difficulty" : "配菜(中级)",
      "pw" : 600,
      "ipurl" : "",
      "dish_count" : 1,
      "related_ads" : [

      ],
      "sr" : "",
      "recommended" : 0,
      "comments" : [
        "{\n    ac = \"#999999\";\n    at = \"\\U5b9c\\U6625\\U5e02\";\n    ccc = 0;\n    \"child_comments\" =     (\n    );\n    city = \"\\U5b9c\\U6625\\U5e02\";\n    cmc = 2;\n    content =     (\n                {\n            c = \"\\U4f60\\U597d\\Uff0c\\U8bf7\\U95ee\\U8fd9\\U79cd\\U9178\\U841d\\U535c\\U600e\\U4e48\\U814c\\U5236\\U554a\";\n        }\n    );\n    ia = 0;\n    id = 8559778;\n    \"ip_address_location\" = \"\";\n    like = 0;\n    \"like_count\" = 0;\n    \"reply_id\" = 0;\n    \"sticker_icon\" =     (\n    );\n    time = \"2021-03-04 20:29:06\";\n    u =     {\n        \"followers_count_text\" = \"\";\n        id = 19188904;\n        \"is_prime\" = 0;\n        lv = 0;\n        lvl = 1;\n        n = \"\\U5c0f\\U72ee\\U5b50\\U7684\\U6c6a\\U604b\\U604b\";\n        p = \"\";\n        \"progress_image\" = \"\";\n        \"recipes_count_text\" = \"\";\n        relationship = \"-1\";\n        title = \"\";\n        v = 0;\n        \"verified_image\" = \"\";\n    };\n}",
        "{\n    ac = \"#999999\";\n    at = \"\\U4e2d\\U5c71\\U5e02\";\n    ccc = 0;\n    \"child_comments\" =     (\n    );\n    city = \"\\U4e2d\\U5c71\\U5e02\";\n    cmc = 2;\n    content =     (\n                {\n            c = \"\\U6211\\U628a\\U9e21\\U80d7\\U7528\\U76d0\\U6413\\U4e86\\U4e24\\U904d\\U54e6\\Uff0c\\U6240\\U4ee5\\U4e00\\U70b9\\U8165\\U5473\\U90fd\\U6ca1\\U6709\\Uff0c\\U4e4b\\U524d\\U5728\\U5916\\U9762\\U5403\\U7684\\U90fd\\U591a\\U591a\\U5c11\\U5c11\\U6709\\U4e00\\U70b9\\U8165\\U5473\\Uff0c\\U5927\\U5bb6\\U4e5f\\U53ef\\U4ee5\\U8fd9\\U6837\\U8bd5\\U4e00\\U4e0b\";\n        }\n    );\n    ia = 1;\n    id = 7697454;\n    \"ip_address_location\" = \"\";\n    like = 0;\n    \"like_count\" = 0;\n    \"reply_id\" = 0;\n    \"sticker_icon\" =     (\n    );\n    time = \"2020-02-29 21:27:39\";\n    u =     {\n        \"followers_count_text\" = \"\";\n        id = 25019508;\n        \"is_prime\" = 0;\n        lv = 0;\n        lvl = 4;\n        n = \"\\U8106\\U5f31\\U7684\\U897f\\U7c73\\U5f88\\U5feb\\U56de\\U6765\";\n        p = \"http:\/\/tx1.douguo.net\/upload\/photo\/9\/e\/3\/70_u82017813699927094212.jpg\";\n        \"progress_image\" = \"\";\n        \"recipes_count_text\" = \"\";\n        relationship = \"-1\";\n        title = \"\";\n        v = 0;\n        \"verified_image\" = \"\";\n    };\n}"
      ],
      "ipit" : 0,
      "packages_id" : [

      ],
      "rrps" : [

      ],
      "cookstorys" : [
        {
          "c" : "这道菜最难的可能是怎么处理从菜市场买回来的鸡胗了，我借鉴了百度里面的方法做出来一点腥味也没有了，很好吃。 \n1、刚买回来的鸡胗一定要用水洗干净，去除黄色的表皮和肥油，要把里里外外都翻过来洗干净，再放水里泡一会儿。必要的话，可以放在盘子里撒上盐，戳洗一下。\n2、洗完之后，切小片，加入盐、生抽还有生粉腌制十分钟，这样能去掉部分腥味。\n3、在正式和其他东西一起炒菜之后，先要放油烧热，加入姜末蒜末，再倒入鸡胗炒一会儿。鸡胗受热之后会析出内部的水分，这种水分要是不去除，炒出来的菜会有很大腥味。\n4、等到锅内的水不再增加时，将鸡胗取出沥干，倒掉锅内的水。 ",
          "color" : "",
          "icon" : "",
          "type" : 0,
          "u" : "",
          "id" : 0
        }
      ],
      "rate" : 5,
      "minor" : [

      ],
      "dishes" : [

      ],
      "rpid" : 0,
      "ipia" : [

      ],
      "ssu" : "",
      "rsm" : "该功能暂停使用",
      "release_time" : "",
      "cook_time_image" : "https:\/\/i1.douguo.com\/upload\/banner\/1551424341.png",
      "rips" : 0,
      "views_count_text" : "27.1万",
      "ph" : 600,
      "brand_day_dsp" : [

      ],
      "ecs" : 1,
      "sc" : 0,
      "cookwares" : [

      ],
      "levelid" : 2,
      "recipe_tags" : [

      ],
      "tips" : "只要鸡胗处理好了，材料准备到位了就不会出错啦，这个超级下饭很好吃我男票这一个月已经胖了快20斤了",
      "ipci" : "",
      "mid_mdsp" : [

      ],
      "hqu" : "recipes:\/\/www.douguo.com\/notedetail?id=21162253",
      "rrpt" : "",
      "photo_path" : "https:\/\/i1.douguo.com\/upload\/caiku\/d\/b\/1\/600_dbfd685de92548bb92c7614852e95811.jpg",
      "recommendation_tag" : "",
      "cook_difficulty_image" : "https:\/\/i1.douguo.com\/upload\/banner\/1551424413.png",
      "favo_counts" : 2838,
      "guide_image" : "",
      "ipoi" : "",
      "create_time" : "2020-02-29 19:05:34",
      "share_info" : {
        "qr_image" : "",
        "s_d" : "酸萝卜炒鸡胗-酸酸辣辣超下饭又低卡-会做饭很酷!",
        "name" : "酸萝卜炒鸡胗-酸酸辣辣超下饭又低卡-会做饭很酷!",
        "object_id" : "2416336",
        "image" : "https:\/\/cp1.douguo.com\/upload\/caiku\/d\/b\/1\/dbfd685de92548bb92c7614852e95811.jpg",
        "mini_program" : [

        ],
        "s_u" : "http:\/\/m.douguo.com\/cookbook\/2416336.html",
        "infos" : [
          {
            "channel" : "1",
            "mini_program" : [

            ],
            "object_id" : "2416336",
            "name" : "酸萝卜炒鸡胗-酸酸辣辣超下饭又低卡-会做饭很酷!",
            "s_d" : "#学做饭用豆果美食# 会做饭真是太酷了！我在@豆果美食 分享了【酸萝卜炒鸡胗-酸酸辣辣超下饭又低卡-会做饭很酷!】，看着是不是馋到不行呢～快来跟我学学吧！查看图片了解菜谱，（想要获取更多美食就看这https:\/\/m.weibo.cn\/p\/100404i33631）",
            "s_u" : "",
            "image" : "https:\/\/cp1.douguo.com\/upload\/caiku\/d\/b\/1\/dbfd685de92548bb92c7614852e95811.jpg",
            "qr_image" : ""
          },
          {
            "mini_program" : [

            ],
            "object_id" : "2416336",
            "image" : "https:\/\/cp1.douguo.com\/upload\/caiku\/d\/b\/1\/dbfd685de92548bb92c7614852e95811.jpg",
            "s_u" : "http:\/\/m.douguo.com\/cookbook\/2416336.html",
            "channel" : "7",
            "s_d" : "酸萝卜炒鸡胗-酸酸辣辣超下饭又低卡-会做饭很酷!",
            "qr_image" : "",
            "name" : "酸萝卜炒鸡胗-酸酸辣辣超下饭又低卡-会做饭很酷!"
          },
          {
            "s_u" : "http:\/\/m.douguo.com\/cookbook\/2416336.html",
            "channel" : "8",
            "qr_image" : "",
            "s_d" : "酸萝卜炒鸡胗-酸酸辣辣超下饭又低卡-会做饭很酷!",
            "image" : "https:\/\/cp1.douguo.com\/upload\/caiku\/d\/b\/1\/dbfd685de92548bb92c7614852e95811.jpg",
            "mini_program" : [

            ],
            "object_id" : "2416336",
            "name" : "酸萝卜炒鸡胗-酸酸辣辣超下饭又低卡-会做饭很酷!"
          }
        ]
      },
      "rate_count" : 1,
      "tags" : [

      ],
      "hq" : 1,
      "purl" : "",
      "author" : "脆弱的西米很快回来",
      "vc" : "270812",
      "title_ad" : [

      ],
      "recipe_list_tags" : [
        {
          "text_color" : "#141515",
          "text" : "关注的人",
          "background_border_color" : "",
          "background_end_color" : "#F4F5F5",
          "jump_url" : "",
          "right_image" : "",
          "background_start_color" : "#F4F5F5"
        },
        {
          "jump_url" : "",
          "right_image" : "",
          "background_end_color" : "#F4F5F5",
          "text_color" : "#141515",
          "background_border_color" : "",
          "text" : "内容详细",
          "background_start_color" : "#F4F5F5"
        }
      ],
      "notes" : [

      ],
      "old_comments" : [

      ],
      "author_id" : 25019508
    }
  },
  "status" : 0,
  "state" : "success"
}