{
  "result" : {
    "recipe" : {
      "top_mdsp" : [

      ],
      "recent_comments" : [

      ],
      "author_verified" : 1,
      "photo_path" : "https:\/\/i1.douguo.com\/upload\/caiku\/b\/2\/0\/600_b2a902a23b63d3e5bcd9fb3f7ca9ca20.jpeg",
      "hq" : 1,
      "rrps" : [

      ],
      "rcs" : [

      ],
      "related_ads" : [

      ],
      "share_info" : {
        "object_id" : "2391631",
        "s_d" : "#相聚组个局#三丝春卷 年夜饭的压轴-会做饭很酷!",
        "qr_image" : "",
        "infos" : [
          {
            "mini_program" : [

            ],
            "object_id" : "2391631",
            "s_u" : "",
            "channel" : "1",
            "image" : "https:\/\/cp1.douguo.com\/upload\/caiku\/b\/2\/0\/b2a902a23b63d3e5bcd9fb3f7ca9ca20.jpeg",
            "name" : "#相聚组个局#三丝春卷 年夜饭的压轴-会做饭很酷!",
            "s_d" : "#学做饭用豆果美食# 会做饭好酷啊！我在@豆果美食 分享了【#相聚组个局#三丝春卷 年夜饭的压轴-会做饭很酷!】，今天也是厨艺满满的一天呢，快来和我一起学做美食吧！查看图片了解菜谱（更多美食秘籍点击https:\/\/m.weibo.cn\/p\/100404i33631获取）",
            "qr_image" : ""
          },
          {
            "mini_program" : [

            ],
            "image" : "https:\/\/cp1.douguo.com\/upload\/caiku\/b\/2\/0\/b2a902a23b63d3e5bcd9fb3f7ca9ca20.jpeg",
            "s_d" : "#相聚组个局#三丝春卷 年夜饭的压轴-会做饭很酷!",
            "channel" : "7",
            "name" : "#相聚组个局#三丝春卷 年夜饭的压轴-会做饭很酷!",
            "s_u" : "http:\/\/m.douguo.com\/cookbook\/2391631.html",
            "object_id" : "2391631",
            "qr_image" : ""
          },
          {
            "name" : "#相聚组个局#三丝春卷 年夜饭的压轴-会做饭很酷!",
            "qr_image" : "",
            "s_u" : "http:\/\/m.douguo.com\/cookbook\/2391631.html",
            "mini_program" : [

            ],
            "channel" : "8",
            "object_id" : "2391631",
            "s_d" : "#相聚组个局#三丝春卷 年夜饭的压轴-会做饭很酷!",
            "image" : "https:\/\/cp1.douguo.com\/upload\/caiku\/b\/2\/0\/b2a902a23b63d3e5bcd9fb3f7ca9ca20.jpeg"
          }
        ],
        "name" : "#相聚组个局#三丝春卷 年夜饭的压轴-会做饭很酷!",
        "mini_program" : [

        ],
        "image" : "https:\/\/cp1.douguo.com\/upload\/caiku\/b\/2\/0\/b2a902a23b63d3e5bcd9fb3f7ca9ca20.jpeg",
        "s_u" : "http:\/\/m.douguo.com\/cookbook\/2391631.html"
      },
      "vu" : "",
      "cookstep" : [
        {
          "frame" : "-1",
          "image_height" : 958,
          "thumb" : "https:\/\/i1.douguo.com\/upload\/caiku\/9\/9\/d\/140_993e7eba944784059a266c90409cbafd.jpeg",
          "image" : "https:\/\/i1.douguo.com\/upload\/caiku\/9\/9\/d\/993e7eba944784059a266c90409cbafd.jpeg",
          "image_width" : 1280,
          "position" : 1,
          "content" : "里脊肉切丝后，加料酒、生抽和淀粉，抓拌均匀，放置片刻。"
        },
        {
          "thumb" : "https:\/\/i1.douguo.com\/upload\/caiku\/6\/e\/4\/140_6e8bd16b9b2ffbf8e905e9afe9bac184.jpeg",
          "image_height" : 958,
          "image_width" : 1280,
          "frame" : "-1",
          "position" : 2,
          "content" : "冬笋剥壳、削去点老根后，切丝。",
          "image" : "https:\/\/i1.douguo.com\/upload\/caiku\/6\/e\/4\/6e8bd16b9b2ffbf8e905e9afe9bac184.jpeg"
        },
        {
          "position" : 3,
          "content" : "随后水里汆一下，然后用水冲洗后，沥干水分。",
          "image_width" : 1280,
          "image" : "https:\/\/i1.douguo.com\/upload\/caiku\/5\/2\/6\/528031a68512fcee3b2b5b1d88d9cbe6.jpeg",
          "thumb" : "https:\/\/i1.douguo.com\/upload\/caiku\/5\/2\/6\/140_528031a68512fcee3b2b5b1d88d9cbe6.jpeg",
          "frame" : "-1",
          "image_height" : 958
        },
        {
          "image_width" : 1280,
          "image" : "https:\/\/i1.douguo.com\/upload\/caiku\/1\/e\/e\/1e94642bc305438e3cf0557097fec3de.jpeg",
          "thumb" : "https:\/\/i1.douguo.com\/upload\/caiku\/1\/e\/e\/140_1e94642bc305438e3cf0557097fec3de.jpeg",
          "image_height" : 958,
          "position" : 4,
          "frame" : "-1",
          "content" : "胡萝卜、鲜香菇切细丝、切片 。"
        },
        {
          "image_width" : 1280,
          "content" : "大白菜也切一下。",
          "frame" : "-1",
          "image" : "https:\/\/i1.douguo.com\/upload\/caiku\/1\/0\/b\/108a3de9653503c218b75875bea300db.jpeg",
          "position" : 5,
          "image_height" : 958,
          "thumb" : "https:\/\/i1.douguo.com\/upload\/caiku\/1\/0\/b\/140_108a3de9653503c218b75875bea300db.jpeg"
        },
        {
          "content" : "起油锅后，先把肉丝放入，煸炒至变色就可以盛出了。",
          "image" : "https:\/\/i1.douguo.com\/upload\/caiku\/f\/f\/4\/ff2f5075638d85764375d6022ea92f04.jpeg",
          "image_height" : 960,
          "position" : 6,
          "thumb" : "https:\/\/i1.douguo.com\/upload\/caiku\/f\/f\/4\/140_ff2f5075638d85764375d6022ea92f04.jpeg",
          "image_width" : 1280,
          "frame" : "-1"
        },
        {
          "image_height" : 958,
          "position" : 7,
          "image" : "https:\/\/i1.douguo.com\/upload\/caiku\/6\/9\/0\/69f858b2453d27ef676b5ffd1bb16f80.jpeg",
          "frame" : "-1",
          "content" : "接着放入香菇，煸炒至有汁水渗出。",
          "image_width" : 1280,
          "thumb" : "https:\/\/i1.douguo.com\/upload\/caiku\/6\/9\/0\/140_69f858b2453d27ef676b5ffd1bb16f80.jpeg"
        },
        {
          "image_width" : 1280,
          "image_height" : 958,
          "position" : 8,
          "thumb" : "https:\/\/i1.douguo.com\/upload\/caiku\/5\/3\/0\/140_53ef95cce49f0172877e187ef4631cb0.jpeg",
          "frame" : "-1",
          "image" : "https:\/\/i1.douguo.com\/upload\/caiku\/5\/3\/0\/53ef95cce49f0172877e187ef4631cb0.jpeg",
          "content" : "放入胡萝卜丝。"
        },
        {
          "content" : "再接着放入大白菜，翻炒至大白菜有些许瘪下去。",
          "frame" : "-1",
          "thumb" : "https:\/\/i1.douguo.com\/upload\/caiku\/e\/8\/c\/140_e87be8c9d03fe6094fde9dd7d655bc4c.jpeg",
          "image_height" : 958,
          "image_width" : 1280,
          "position" : 9,
          "image" : "https:\/\/i1.douguo.com\/upload\/caiku\/e\/8\/c\/e87be8c9d03fe6094fde9dd7d655bc4c.jpeg"
        },
        {
          "frame" : "-1",
          "content" : "放入煸炒好的肉丝和冬笋丝，翻炒均匀后，盖锅盖3分钟。",
          "image_height" : 958,
          "image_width" : 1280,
          "image" : "https:\/\/i1.douguo.com\/upload\/caiku\/8\/8\/4\/8875ff12af1dd9102def3b77eb246734.jpeg",
          "thumb" : "https:\/\/i1.douguo.com\/upload\/caiku\/8\/8\/4\/140_8875ff12af1dd9102def3b77eb246734.jpeg",
          "position" : 10
        },
        {
          "image" : "https:\/\/i1.douguo.com\/upload\/caiku\/9\/6\/5\/965fa6133134506ecb76c5765fc954e5.jpeg",
          "thumb" : "https:\/\/i1.douguo.com\/upload\/caiku\/9\/6\/5\/140_965fa6133134506ecb76c5765fc954e5.jpeg",
          "content" : "开盖后，根据口味加入适量的盐。",
          "frame" : "-1",
          "image_width" : 1280,
          "image_height" : 958,
          "position" : 11
        },
        {
          "frame" : "-1",
          "thumb" : "https:\/\/i1.douguo.com\/upload\/caiku\/e\/0\/9\/140_e0367c2b900404cd2eb20d2b9f518719.jpeg",
          "image" : "https:\/\/i1.douguo.com\/upload\/caiku\/e\/0\/9\/e0367c2b900404cd2eb20d2b9f518719.jpeg",
          "position" : 12,
          "image_height" : 958,
          "image_width" : 1280,
          "content" : "再放入小葱，炒匀就可以出锅了。"
        },
        {
          "content" : "准备一点点淀粉水。",
          "image_height" : 958,
          "image_width" : 1280,
          "thumb" : "https:\/\/i1.douguo.com\/upload\/caiku\/2\/4\/5\/140_24327084ba4e3cf08938816bc27a8415.jpeg",
          "position" : 13,
          "frame" : "-1",
          "image" : "https:\/\/i1.douguo.com\/upload\/caiku\/2\/4\/5\/24327084ba4e3cf08938816bc27a8415.jpeg"
        },
        {
          "thumb" : "https:\/\/i1.douguo.com\/upload\/caiku\/5\/5\/5\/140_551e2e1d205fe245dbd08c6ecbd04c65.jpeg",
          "position" : 14,
          "image_width" : 1280,
          "content" : "等馅凉透了，就可以开始包了。用的是超市冷冻的那种春卷皮，把馅放在皮子靠下三分之一处。",
          "image_height" : 958,
          "frame" : "-1",
          "image" : "https:\/\/i1.douguo.com\/upload\/caiku\/5\/5\/5\/551e2e1d205fe245dbd08c6ecbd04c65.jpeg"
        },
        {
          "position" : 15,
          "image_height" : 958,
          "image" : "https:\/\/i1.douguo.com\/upload\/caiku\/b\/f\/c\/bf77671f2b6312a9ea411e7771f5a0fc.jpeg",
          "content" : "随后，下面的角往上翻，左右两边的朝中间折。",
          "thumb" : "https:\/\/i1.douguo.com\/upload\/caiku\/b\/f\/c\/140_bf77671f2b6312a9ea411e7771f5a0fc.jpeg",
          "image_width" : 1280,
          "frame" : "-1"
        },
        {
          "position" : 16,
          "content" : "再把下面的往上卷，接口处抹一点淀粉水，防止散开。",
          "thumb" : "https:\/\/i1.douguo.com\/upload\/caiku\/c\/d\/2\/140_cd16cb28bc749e3445b931a3ca33d562.jpeg",
          "frame" : "-1",
          "image_height" : 958,
          "image" : "https:\/\/i1.douguo.com\/upload\/caiku\/c\/d\/2\/cd16cb28bc749e3445b931a3ca33d562.jpeg",
          "image_width" : 1280
        },
        {
          "frame" : "-1",
          "image" : "https:\/\/i1.douguo.com\/upload\/caiku\/8\/1\/9\/810e70a32c527e59c26834920f4fde19.jpeg",
          "thumb" : "https:\/\/i1.douguo.com\/upload\/caiku\/8\/1\/9\/140_810e70a32c527e59c26834920f4fde19.jpeg",
          "image_width" : 1280,
          "position" : 17,
          "image_height" : 958,
          "content" : "全部包好啦。"
        },
        {
          "image" : "https:\/\/i1.douguo.com\/upload\/caiku\/4\/8\/f\/48a4d5642dcd3ac80e79c180e212600f.jpeg",
          "content" : "炸锅准备起来，拿根筷子伸进去，筷子头周边有很多小泡泡出现，就可以把春卷放进去了，中小火慢炸，炸至金黄，捞出。",
          "image_height" : 958,
          "thumb" : "https:\/\/i1.douguo.com\/upload\/caiku\/4\/8\/f\/140_48a4d5642dcd3ac80e79c180e212600f.jpeg",
          "position" : 18,
          "image_width" : 1280,
          "frame" : "-1"
        },
        {
          "image_height" : 958,
          "thumb" : "https:\/\/i1.douguo.com\/upload\/caiku\/9\/5\/e\/140_95dbf67164c6d4a8dfb6a6d733e1b33e.jpeg",
          "position" : 19,
          "image_width" : 1280,
          "content" : "趁热吃，老香的啦！先来个咸的尝尝。",
          "image" : "https:\/\/i1.douguo.com\/upload\/caiku\/9\/5\/e\/95dbf67164c6d4a8dfb6a6d733e1b33e.jpeg",
          "frame" : "-1"
        },
        {
          "image_width" : 1280,
          "image" : "https:\/\/i1.douguo.com\/upload\/caiku\/2\/b\/4\/2b8fa1be1199eceb8c4dd33907df5184.jpeg",
          "image_height" : 958,
          "content" : "再吃个甜的",
          "thumb" : "https:\/\/i1.douguo.com\/upload\/caiku\/2\/b\/4\/140_2b8fa1be1199eceb8c4dd33907df5184.jpeg",
          "frame" : "-1",
          "position" : 20
        },
        {
          "image_width" : 1280,
          "image" : "https:\/\/i1.douguo.com\/upload\/caiku\/c\/1\/5\/c11200b5d7811d041d77f76a49f6e675.jpeg",
          "content" : "完成啦！",
          "position" : 21,
          "thumb" : "https:\/\/i1.douguo.com\/upload\/caiku\/c\/1\/5\/140_c11200b5d7811d041d77f76a49f6e675.jpeg",
          "frame" : "-1",
          "image_height" : 1706
        },
        {
          "image" : "https:\/\/i1.douguo.com\/upload\/caiku\/2\/8\/b\/28ef5f74486e6108b1f10c4a6ecaa59b.jpeg",
          "frame" : "-1",
          "image_width" : 1280,
          "content" : "完成。",
          "position" : 22,
          "thumb" : "https:\/\/i1.douguo.com\/upload\/caiku\/2\/8\/b\/140_28ef5f74486e6108b1f10c4a6ecaa59b.jpeg",
          "image_height" : 960
        }
      ],
      "ipia" : [

      ],
      "packages_id" : [

      ],
      "hqu" : "recipes:\/\/www.douguo.com\/notedetail?id=21162253",
      "major" : [
        {
          "title" : "春卷皮",
          "note" : "40张"
        },
        {
          "title" : "大白菜",
          "tu" : "https:\/\/m.douguo.com\/ingredients\/大白菜\/detailmaterial",
          "note" : "1\/2颗"
        },
        {
          "note" : "1\/2个",
          "title" : "冬笋（大）"
        },
        {
          "note" : "1\/2根",
          "title" : "胡萝卜（大）"
        },
        {
          "note" : "1小把",
          "tu" : "https:\/\/m.douguo.com\/ingredients\/黑木耳\/detailmaterial",
          "title" : "黑木耳"
        },
        {
          "title" : "猪里脊",
          "note" : "200g"
        },
        {
          "title" : "料酒",
          "note" : "1汤匙",
          "tu" : "https:\/\/m.douguo.com\/ingredients\/料酒\/detailmaterial"
        },
        {
          "note" : "1\/2汤匙",
          "title" : "生抽",
          "tu" : "https:\/\/m.douguo.com\/ingredients\/生抽\/detailmaterial"
        },
        {
          "note" : "1\/2汤匙",
          "title" : "淀粉"
        },
        {
          "title" : "盐",
          "tu" : "https:\/\/m.douguo.com\/ingredients\/盐\/detailmaterial",
          "note" : "适量"
        },
        {
          "title" : "小葱",
          "note" : "1小把",
          "tu" : "https:\/\/m.douguo.com\/ingredients\/小葱\/detailmaterial"
        },
        {
          "note" : "4个",
          "title" : "鲜香菇"
        }
      ],
      "rate_show" : 0,
      "cookwares" : [

      ],
      "recommend_label" : "2人学做",
      "rpt" : "",
      "cookstory" : "在我家，年夜饭的压轴，必定是春卷、八宝饭和酒酿圆子，感觉只有吃了这三样，这顿团圆饭就圆满了，同时，这桌酒席呢，也就完美无缺了，哈哈，估计有这个习惯的上海人家还不少。\n这几年，餐饮界的改革步子跨得还是有些大的，黑暗料理层出不穷呀，不过，我还是喜欢那些传统的。传统的才是经典的，是经历过时间考验的，永远比那些个昙花一现的网红能更长久的留存下去。\n所以，春卷还是要吃黄芽菜（大白菜）肉丝馅，甜的就吃豆沙的，自己炒的豆沙，细沙，细腻湿润，超赞",
      "clicks" : "554786",
      "purl" : "",
      "collect_status" : 0,
      "tags" : [

      ],
      "recommended" : 0,
      "recommendation_tag" : "",
      "sc" : 0,
      "cook_time" : "10~30分钟",
      "rate_count" : 2,
      "tips" : "",
      "guide_image" : "",
      "recipe_tags" : [

      ],
      "recipe_list_tags" : [
        {
          "text_color" : "#141515",
          "jump_url" : "",
          "text" : "关注的人",
          "background_start_color" : "#F4F5F5",
          "right_image" : "",
          "background_border_color" : "",
          "background_end_color" : "#F4F5F5"
        }
      ],
      "su" : "",
      "comments" : [
        "{\n    ac = \"#999999\";\n    at = \"\\U5317\\U4eac\\U5e02\";\n    ccc = 1;\n    \"child_comments\" =     (\n                {\n            ac = \"#999999\";\n            at = \"\\U4e0a\\U6d77\\U5e02\";\n            ccc = 0;\n            city = \"\\U4e0a\\U6d77\\U5e02\";\n            cmc = 2;\n            content =             (\n                                {\n                    c = \" \\U6765\\U6765\\U6765\\Uff0c\\U4e00\\U8d77\\U5440\";\n                }\n            );\n            ia = 1;\n            id = 7526290;\n            \"ip_address_location\" = \"\";\n            like = 0;\n            \"like_count\" = 0;\n            \"reply_id\" = 7526161;\n            \"reply_user\" =             {\n                \"followers_count_text\" = \"\";\n                id = 22723607;\n                \"is_prime\" = 0;\n                lv = 0;\n                lvl = 6;\n                n = \"\\U67da\\U5b50\\U5988_\\U5c0f\\U660e\";\n                p = \"http:\/\/tx1.douguo.net\/upload\/photo\/f\/b\/d\/70_u37863433964596001159.jpeg\";\n                \"progress_image\" = \"\";\n                \"recipes_count_text\" = \"\";\n                relationship = \"-1\";\n                title = \"\";\n                v = 0;\n                \"verified_image\" = \"\";\n            };\n            \"sticker_icon\" =             (\n            );\n            time = \"2020-01-10 00:11:25\";\n            u =             {\n                \"followers_count_text\" = \"\";\n                id = 22524167;\n                \"is_prime\" = 0;\n                lv = 0;\n                lvl = 7;\n                n = \"\\U9716\\U7684\\U5403\\U8d27\\U94fa\";\n                p = \"http:\/\/tx1.douguo.net\/upload\/photo\/8\/4\/9\/70_u34258333482244222814.jpeg\";\n                \"progress_image\" = \"\";\n                \"recipes_count_text\" = \"\";\n                relationship = \"-1\";\n                title = \"\";\n                v = 1;\n                \"verified_image\" = \"\";\n            };\n        }\n    );\n    city = \"\\U5317\\U4eac\\U5e02\";\n    cmc = 2;\n    content =     (\n                {\n            c = \"\\U70b8\\U6625\\U5377\\U6211\\U6700\\U7231\\U5403\\U4e86\";\n        }\n    );\n    ia = 0;\n    id = 7526161;\n    \"ip_address_location\" = \"\";\n    like = 0;\n    \"like_count\" = 2;\n    \"reply_id\" = 0;\n    \"sticker_icon\" =     (\n    );\n    time = \"2020-01-09 23:30:18\";\n    u =     {\n        \"followers_count_text\" = \"\";\n        id = 22723607;\n        \"is_prime\" = 0;\n        lv = 0;\n        lvl = 6;\n        n = \"\\U67da\\U5b50\\U5988_\\U5c0f\\U660e\";\n        p = \"http:\/\/tx1.douguo.net\/upload\/photo\/f\/b\/d\/70_u37863433964596001159.jpeg\";\n        \"progress_image\" = \"\";\n        \"recipes_count_text\" = \"\";\n        relationship = \"-1\";\n        title = \"\";\n        v = 0;\n        \"verified_image\" = \"\";\n    };\n}",
        "{\n    ac = \"#999999\";\n    at = \"\";\n    ccc = 1;\n    \"child_comments\" =     (\n                {\n            ac = \"#999999\";\n            at = \"\";\n            ccc = 0;\n            city = \"\";\n            cmc = 2;\n            content =             (\n                                {\n                    c = \" \\U55ef\\U55ef\\Uff0c\\U6bcf\\U4e2a\\U5730\\U65b9\\U90fd\\U4f1a\\U6709\\U6240\\U4e0d\\U540c\\Ud83d\\Ude0a\";\n                }\n            );\n            ia = 1;\n            id = 7563604;\n            \"ip_address_location\" = \"\";\n            like = 0;\n            \"like_count\" = 0;\n            \"reply_id\" = 7563111;\n            \"reply_user\" =             {\n                \"followers_count_text\" = \"\";\n                id = 24864474;\n                \"is_prime\" = 0;\n                lv = 0;\n                lvl = 1;\n                n = \"\\U5ff5\\U65e7\\U7684\\U9e21\\U86cb\\U5f88\\U75af\\U72c2\";\n                p = \"http:\/\/tx1.douguo.net\/upload\/photo\/1\/1\/1\/70_a5f8400664052cdd91d1ad457d121e16.png\";\n                \"progress_image\" = \"\";\n                \"recipes_count_text\" = \"\";\n                relationship = \"-1\";\n                title = \"\";\n                v = 0;\n                \"verified_image\" = \"\";\n            };\n            \"sticker_icon\" =             (\n            );\n            time = \"2020-01-29 12:52:43\";\n            u =             {\n                \"followers_count_text\" = \"\";\n                id = 22524167;\n                \"is_prime\" = 0;\n                lv = 0;\n                lvl = 7;\n                n = \"\\U9716\\U7684\\U5403\\U8d27\\U94fa\";\n                p = \"http:\/\/tx1.douguo.net\/upload\/photo\/8\/4\/9\/70_u34258333482244222814.jpeg\";\n                \"progress_image\" = \"\";\n                \"recipes_count_text\" = \"\";\n                relationship = \"-1\";\n                title = \"\";\n                v = 1;\n                \"verified_image\" = \"\";\n            };\n        }\n    );\n    city = \"\";\n    cmc = 2;\n    content =     (\n                {\n            c = \"\\U6211\\U4eec\\U5403\\U8fd9\\U513f\\U662f\\U7c89\\U4e1d\\U7684\";\n        }\n    );\n    ia = 0;\n    id = 7563111;\n    \"ip_address_location\" = \"\";\n    like = 0;\n    \"like_count\" = 1;\n    \"reply_id\" = 0;\n    \"sticker_icon\" =     (\n    );\n    time = \"2020-01-28 23:32:15\";\n    u =     {\n        \"followers_count_text\" = \"\";\n        id = 24864474;\n        \"is_prime\" = 0;\n        lv = 0;\n        lvl = 1;\n        n = \"\\U5ff5\\U65e7\\U7684\\U9e21\\U86cb\\U5f88\\U75af\\U72c2\";\n        p = \"http:\/\/tx1.douguo.net\/upload\/photo\/1\/1\/1\/70_a5f8400664052cdd91d1ad457d121e16.png\";\n        \"progress_image\" = \"\";\n        \"recipes_count_text\" = \"\";\n        relationship = \"-1\";\n        title = \"\";\n        v = 0;\n        \"verified_image\" = \"\";\n    };\n}",
        "{\n    ac = \"#999999\";\n    at = \"\";\n    ccc = 1;\n    \"child_comments\" =     (\n                {\n            ac = \"#999999\";\n            at = \"\";\n            ccc = 0;\n            city = \"\";\n            cmc = 2;\n            content =             (\n                                {\n                    c = \" \\U54c8\\U54c8\\U54c8\\Uff0c\\Ud83e\\Udd1d\";\n                }\n            );\n            ia = 1;\n            id = 8451728;\n            \"ip_address_location\" = \"\";\n            like = 0;\n            \"like_count\" = 0;\n            \"reply_id\" = 8451226;\n            \"reply_user\" =             {\n                \"followers_count_text\" = \"\";\n                id = 23920590;\n                \"is_prime\" = 0;\n                lv = 0;\n                lvl = 6;\n                n = \"\\U54c6\\U5566A\\U6aac\\U7684\\U9b54\\U6cd5\\U888b\";\n                p = \"http:\/\/tx1.douguo.net\/upload\/photo\/5\/2\/e\/70_u60212326753186190130.jpeg\";\n                \"progress_image\" = \"\";\n                \"recipes_count_text\" = \"\";\n                relationship = \"-1\";\n                title = \"\";\n                v = 1;\n                \"verified_image\" = \"\";\n            };\n            \"sticker_icon\" =             (\n            );\n            time = \"2021-01-12 12:31:55\";\n            u =             {\n                \"followers_count_text\" = \"\";\n                id = 22524167;\n                \"is_prime\" = 0;\n                lv = 0;\n                lvl = 7;\n                n = \"\\U9716\\U7684\\U5403\\U8d27\\U94fa\";\n                p = \"http:\/\/tx1.douguo.net\/upload\/photo\/8\/4\/9\/70_u34258333482244222814.jpeg\";\n                \"progress_image\" = \"\";\n                \"recipes_count_text\" = \"\";\n                relationship = \"-1\";\n                title = \"\";\n                v = 1;\n                \"verified_image\" = \"\";\n            };\n        }\n    );\n    city = \"\";\n    cmc = 2;\n    content =     (\n                {\n            c = \"\\U8fc7\\U5e74\\U5fc5\\U5907\\Uff0c\\U9165\\U8106\\Uff0c\\U5c0f\\U670b\\U53cb\\U6700\\U7231\";\n        }\n    );\n    ia = 0;\n    id = 8451226;\n    \"ip_address_location\" = \"\";\n    like = 0;\n    \"like_count\" = 0;\n    \"reply_id\" = 0;\n    \"sticker_icon\" =     (\n    );\n    time = \"2021-01-12 10:49:21\";\n    u =     {\n        \"followers_count_text\" = \"\";\n        id = 23920590;\n        \"is_prime\" = 0;\n        lv = 0;\n        lvl = 6;\n        n = \"\\U54c6\\U5566A\\U6aac\\U7684\\U9b54\\U6cd5\\U888b\";\n        p = \"http:\/\/tx1.douguo.net\/upload\/photo\/5\/2\/e\/70_u60212326753186190130.jpeg\";\n        \"progress_image\" = \"\";\n        \"recipes_count_text\" = \"\";\n        relationship = \"-1\";\n        title = \"\";\n        v = 1;\n        \"verified_image\" = \"\";\n    };\n}"
      ],
      "create_time" : "2020-01-09 16:35:08",
      "vfurl" : "",
      "favo_counts_text" : "7939",
      "ss" : [

      ],
      "rewarded_video_dsp" : [

      ],
      "levelid" : 2,
      "favo_counts" : 7939,
      "ecs" : 0,
      "vc" : "571202",
      "views_count_text" : "57.1万",
      "eu" : "recipes:\/\/www.douguo.com\/postdetail?id=242016",
      "rdsps" : [

      ],
      "mid_mdsp" : [

      ],
      "rpst" : "",
      "author_id" : 22524167,
      "cook_id" : "2391631",
      "dishes" : [

      ],
      "event" : {
        "id" : 0
      },
      "minor" : [

      ],
      "first_level_comment_count" : 20,
      "comments_count_text" : "24",
      "ipurl" : "",
      "ipt" : "",
      "original_photo_path" : "http:\/\/i1.douguo.net\/upload\/caiku\/b\/2\/0\/yuan_b2a902a23b63d3e5bcd9fb3f7ca9ca20.jpeg",
      "v_u" : "",
      "brand_day_dsp" : [

      ],
      "notes" : [

      ],
      "rips" : 0,
      "comments_count" : 24,
      "cook_difficulty" : "配菜(中级)",
      "author_photo" : "http:\/\/tx1.douguo.net\/upload\/photo\/8\/4\/9\/70_u34258333482244222814.jpeg",
      "cookstorys" : [
        {
          "color" : "",
          "u" : "",
          "type" : 0,
          "id" : 0,
          "icon" : "",
          "c" : "在我家，年夜饭的压轴，必定是春卷、八宝饭和酒酿圆子，感觉只有吃了这三样，这顿团圆饭就圆满了，同时，这桌酒席呢，也就完美无缺了，哈哈，估计有这个习惯的上海人家还不少。\n这几年，餐饮界的改革步子跨得还是有些大的，黑暗料理层出不穷呀，不过，我还是喜欢那些传统的。传统的才是经典的，是经历过时间考验的，永远比那些个昙花一现的网红能更长久的留存下去。\n所以，春卷还是要吃黄芽菜（大白菜）肉丝馅，甜的就吃豆沙的，自己炒的豆沙，细沙，细腻湿润，超赞"
        }
      ],
      "cook_difficulty_image" : "https:\/\/i1.douguo.com\/upload\/banner\/1551424413.png",
      "release_time" : "",
      "pw" : 1920,
      "rate" : 4,
      "title_ad" : [

      ],
      "dish_count_text" : "2",
      "user" : {
        "birthday" : "",
        "qzone_nick" : "",
        "verified" : 1,
        "age" : "",
        "introduction" : "",
        "lv" : 0,
        "user_id" : "22524167",
        "dishes_count" : 0,
        "progress_image" : "",
        "fc" : 0,
        "gender" : 2,
        "user_cover" : "",
        "favor_diaries_count" : 0,
        "followers_count" : 0,
        "user_photo" : "http:\/\/tx1.douguo.net\/upload\/photo\/8\/4\/9\/70_u34258333482244222814.jpeg",
        "is_prime" : 0,
        "email" : "",
        "location" : 0,
        "qq_weibo_nick" : "",
        "lvl" : 7,
        "verified_image" : "https:\/\/i1.douguo.com\/upload\/note\/d\/a\/a\/da84247847aebe48d9dd0fcdac88862a.png",
        "verified_url" : "https:\/\/m.douguo.com\/user\/prodesc",
        "subscription" : 0,
        "weibo_nick" : "",
        "diaries_count" : 0,
        "pc" : 0,
        "recipes_count" : 0,
        "favorites_count" : 0,
        "mobile" : "",
        "avatar_medium" : "http:\/\/tx1.douguo.net\/upload\/photo\/8\/4\/9\/140_u34258333482244222814.jpeg",
        "following_count" : 0,
        "userid" : "22524167",
        "subscription_article_count" : 0,
        "nick" : "霖的吃货铺",
        "regist_time" : "",
        "user_large_photo" : "http:\/\/tx1.douguo.net\/upload\/photo\/8\/4\/9\/yuan_u34258333482244222814.jpeg",
        "coursecount" : 0,
        "point" : 0,
        "sign" : "",
        "setted_email" : 0
      },
      "old_comments" : [

      ],
      "ssu" : "",
      "bs" : [

      ],
      "rsm" : "该功能暂停使用",
      "author" : "霖的吃货铺",
      "rrpt" : "",
      "sr" : "",
      "display_ingredient" : 1,
      "story_dsp" : [

      ],
      "ipit" : 0,
      "thumb_path" : "https:\/\/i1.douguo.com\/upload\/caiku\/b\/2\/0\/300_b2a902a23b63d3e5bcd9fb3f7ca9ca20.jpeg",
      "image" : "http:\/\/i1.douguo.net\/upload\/caiku\/b\/2\/0\/300_b2a902a23b63d3e5bcd9fb3f7ca9ca20.jpeg",
      "title" : "三丝春卷 年夜饭的压轴",
      "cook_time_image" : "https:\/\/i1.douguo.com\/upload\/banner\/1551424341.png",
      "ipci" : "",
      "act_des" : "",
      "thumb_height" : 0,
      "btm_dsp" : [

      ],
      "dish_count" : 2,
      "rpid" : 0,
      "ipoi" : "",
      "ph" : 1440,
      "advice" : {
        "da" : {
          "url" : "https:\/\/m.douguo.com\/recipe\/nutrient_self\/2391631",
          "iu" : "https:\/\/i1.douguo.com\/upload\/banner\/f\/4\/d\/f48877e53c37759bc12ac494be82ec8d.png",
          "t" : "查看详细分析"
        },
        "has" : [
          {
            "t" : "低脂",
            "url" : "recipes:\/\/www.douguo.com\/simplerecipelist?t=低脂&id=低脂"
          },
          {
            "t" : "低饱和脂肪",
            "url" : "recipes:\/\/www.douguo.com\/simplerecipelist?t=低饱和脂肪&id=低饱和脂肪"
          }
        ],
        "at" : "健身人群可以吃～"
      }
    }
  },
  "state" : "success",
  "status" : 0
}