{
  "status" : 0,
  "state" : "success",
  "result" : {
    "recipe" : {
      "hq" : 1,
      "ssu" : "",
      "old_comments" : [

      ],
      "ipoi" : "",
      "tags" : [
        "{\n    text = \"\\U4e3b\\U98df\";\n}",
        "{\n    text = \"\\U521b\\U610f\\U83dc\";\n}",
        "{\n    text = \"\\U716e\";\n}",
        "{\n    text = \"\\U9999\";\n}",
        "{\n    text = \"\\U5348\\U9910\";\n}",
        "{\n    text = \"\\U665a\\U9910\";\n}",
        "{\n    text = \"\\U4e00\\U5bb6\\U4e09\\U53e3\";\n}",
        "{\n    text = \"\\U65e9\\U9910\\U98df\\U8c31\";\n}",
        "{\n    text = \"\\U54b8\";\n}",
        "{\n    text = \"\\U6e05\\U6de1\";\n}",
        "{\n    text = \"\\U54b8\\U9c9c\";\n}",
        "{\n    text = \"\\U5bb6\\U5e38\\U5473\";\n}"
      ],
      "comments_count" : 4,
      "original_photo_path" : "http:\/\/i1.douguo.net\/upload\/caiku\/b\/9\/e\/yuan_b9b4a53acc402fef3a52da0ac08359de.jpeg",
      "rrps" : [

      ],
      "photo_path" : "https:\/\/i1.douguo.com\/upload\/caiku\/b\/9\/e\/600_b9b4a53acc402fef3a52da0ac08359de.jpeg",
      "dishes" : [

      ],
      "release_time" : "",
      "rrpt" : "",
      "rpid" : 0,
      "comments_count_text" : "4",
      "btm_dsp" : [

      ],
      "author_verified" : 1,
      "recommendation_tag" : "",
      "rips" : 0,
      "ipit" : 0,
      "recommend_label" : "12人学做",
      "v_u" : "",
      "hqu" : "recipes:\/\/www.douguo.com\/notedetail?id=21162253",
      "create_time" : "2016-06-19 10:28:51",
      "vu" : "",
      "author" : "薄荷时光",
      "ipurl" : "",
      "packages_id" : [

      ],
      "ecs" : 0,
      "user" : {
        "coursecount" : 0,
        "verified_image" : "https:\/\/i1.douguo.com\/upload\/note\/d\/a\/a\/da84247847aebe48d9dd0fcdac88862a.png",
        "recipes_count" : 0,
        "qq_weibo_nick" : "",
        "age" : "",
        "favor_diaries_count" : 0,
        "user_large_photo" : "http:\/\/tx1.douguo.net\/upload\/photo\/f\/5\/0\/yuan_u35543784479204120008.jpeg",
        "pc" : 0,
        "verified" : 1,
        "following_count" : 0,
        "diaries_count" : 0,
        "introduction" : "",
        "nick" : "薄荷时光",
        "regist_time" : "",
        "point" : 0,
        "progress_image" : "",
        "location" : 0,
        "lv" : 0,
        "mobile" : "",
        "birthday" : "",
        "user_id" : "10099638",
        "weibo_nick" : "",
        "fc" : 0,
        "subscription" : 0,
        "sign" : "",
        "favorites_count" : 0,
        "lvl" : 6,
        "avatar_medium" : "http:\/\/tx1.douguo.net\/upload\/photo\/f\/5\/0\/140_u35543784479204120008.jpeg",
        "email" : "",
        "is_prime" : 0,
        "user_cover" : "",
        "followers_count" : 0,
        "gender" : 2,
        "subscription_article_count" : 0,
        "userid" : "10099638",
        "verified_url" : "https:\/\/m.douguo.com\/user\/prodesc",
        "user_photo" : "http:\/\/tx1.douguo.net\/upload\/photo\/f\/5\/0\/70_u35543784479204120008.jpeg",
        "setted_email" : 0,
        "dishes_count" : 0,
        "qzone_nick" : ""
      },
      "cookstorys" : [
        {
          "icon" : "",
          "color" : "",
          "id" : 0,
          "c" : "这是一只小丑鱼，它叫尼莫，来自海底总动员，是有关一对可爱的父与子的故事。感恩，愿天下所有的父亲节日快乐！身体健康！",
          "type" : 0,
          "u" : ""
        }
      ],
      "cook_time" : "30~60分钟",
      "recent_comments" : [

      ],
      "mid_mdsp" : [

      ],
      "author_photo" : "http:\/\/tx1.douguo.net\/upload\/photo\/f\/5\/0\/70_u35543784479204120008.jpeg",
      "bs" : [

      ],
      "notes" : [

      ],
      "favo_counts" : 1103,
      "cook_time_image" : "https:\/\/i1.douguo.com\/upload\/banner\/1551424318.png",
      "share_info" : {
        "infos" : [
          {
            "qr_image" : "",
            "s_u" : "",
            "name" : "父亲节早餐-会做饭很酷!",
            "mini_program" : [

            ],
            "image" : "https:\/\/cp1.douguo.com\/upload\/caiku\/b\/9\/e\/b9b4a53acc402fef3a52da0ac08359de.jpeg",
            "object_id" : "1396920",
            "channel" : "1",
            "s_d" : "#学做饭用豆果美食# 我在@豆果美食 分享了【父亲节早餐-会做饭很酷!】，帅哥美眉们～你们喜欢的美食来咯！快来跟我一起做吧～查看图片了解菜谱（想要获取更多美食就看这https:\/\/m.weibo.cn\/p\/100404i33631）#会做饭很酷#"
          },
          {
            "channel" : "7",
            "image" : "https:\/\/cp1.douguo.com\/upload\/caiku\/b\/9\/e\/b9b4a53acc402fef3a52da0ac08359de.jpeg",
            "mini_program" : [

            ],
            "name" : "父亲节早餐-会做饭很酷!",
            "s_u" : "http:\/\/m.douguo.com\/cookbook\/1396920.html",
            "object_id" : "1396920",
            "s_d" : "父亲节早餐-会做饭很酷!",
            "qr_image" : ""
          },
          {
            "image" : "https:\/\/cp1.douguo.com\/upload\/caiku\/b\/9\/e\/b9b4a53acc402fef3a52da0ac08359de.jpeg",
            "mini_program" : [

            ],
            "s_d" : "父亲节早餐-会做饭很酷!",
            "s_u" : "http:\/\/m.douguo.com\/cookbook\/1396920.html",
            "qr_image" : "",
            "name" : "父亲节早餐-会做饭很酷!",
            "channel" : "8",
            "object_id" : "1396920"
          }
        ],
        "mini_program" : [

        ],
        "qr_image" : "",
        "object_id" : "1396920",
        "s_u" : "http:\/\/m.douguo.com\/cookbook\/1396920.html",
        "s_d" : "父亲节早餐-会做饭很酷!",
        "name" : "父亲节早餐-会做饭很酷!",
        "image" : "https:\/\/cp1.douguo.com\/upload\/caiku\/b\/9\/e\/b9b4a53acc402fef3a52da0ac08359de.jpeg"
      },
      "pw" : 800,
      "minor" : [

      ],
      "rate" : 5,
      "rate_count" : 2,
      "cookstep" : [
        {
          "image_height" : 800,
          "content" : "准备好做尼莫的材料。",
          "image" : "https:\/\/i1.douguo.com\/upload\/caiku\/5\/e\/b\/5ea111504beec42aa629d3a249490efb.jpeg",
          "image_width" : 800,
          "thumb" : "https:\/\/i1.douguo.com\/upload\/caiku\/5\/e\/b\/140_5ea111504beec42aa629d3a249490efb.jpeg",
          "frame" : "-1",
          "position" : 1
        },
        {
          "content" : "胡萝卜切成图中的形状，加点盐在水里煮开，将胡萝卜放进去过水。",
          "frame" : "-1",
          "position" : 2,
          "image_height" : 800,
          "image_width" : 800,
          "thumb" : "https:\/\/i1.douguo.com\/upload\/caiku\/f\/c\/6\/140_fc70ea538a68abe9f89a512e5c079fb6.jpeg",
          "image" : "https:\/\/i1.douguo.com\/upload\/caiku\/f\/c\/6\/fc70ea538a68abe9f89a512e5c079fb6.jpeg"
        },
        {
          "position" : 3,
          "image_height" : 800,
          "thumb" : "https:\/\/i1.douguo.com\/upload\/caiku\/7\/8\/b\/140_78a0c021ba518c613a9084c7ec5c69cb.jpeg",
          "image_width" : 800,
          "frame" : "-1",
          "image" : "https:\/\/i1.douguo.com\/upload\/caiku\/7\/8\/b\/78a0c021ba518c613a9084c7ec5c69cb.jpeg",
          "content" : "吐司切成小鱼的形状。"
        },
        {
          "content" : "胡萝卜剪好，放在相应的位置。",
          "image_height" : 800,
          "image_width" : 800,
          "position" : 4,
          "image" : "https:\/\/i1.douguo.com\/upload\/caiku\/3\/1\/3\/31673a7ccbe51a5e6314f20781f68793.jpeg",
          "frame" : "-1",
          "thumb" : "https:\/\/i1.douguo.com\/upload\/caiku\/3\/1\/3\/140_31673a7ccbe51a5e6314f20781f68793.jpeg"
        },
        {
          "frame" : "-1",
          "position" : 5,
          "image" : "https:\/\/i1.douguo.com\/upload\/caiku\/7\/8\/c\/78995e61a2f3e5fc4ba500a31bc977bc.jpeg",
          "thumb" : "https:\/\/i1.douguo.com\/upload\/caiku\/7\/8\/c\/140_78995e61a2f3e5fc4ba500a31bc977bc.jpeg",
          "image_height" : 800,
          "content" : "巧克力隔水融化，我是用牙签画的，画上它的花纹。",
          "image_width" : 800
        },
        {
          "thumb" : "https:\/\/i1.douguo.com\/upload\/caiku\/7\/2\/e\/140_720f7710052da4af3527e8f03f49c3ce.jpeg",
          "image" : "https:\/\/i1.douguo.com\/upload\/caiku\/7\/2\/e\/720f7710052da4af3527e8f03f49c3ce.jpeg",
          "image_height" : 800,
          "image_width" : 800,
          "frame" : "-1",
          "position" : 6,
          "content" : "用吐司剪两个圆形，用巧克力画上眼睛。"
        },
        {
          "thumb" : "https:\/\/i1.douguo.com\/upload\/caiku\/f\/b\/1\/140_fbdbc39631da8fd924f56f9863ff2f61.jpeg",
          "position" : 7,
          "image" : "https:\/\/i1.douguo.com\/upload\/caiku\/f\/b\/1\/fbdbc39631da8fd924f56f9863ff2f61.jpeg",
          "image_height" : 800,
          "frame" : "-1",
          "content" : "巧克力画好嘴巴。",
          "image_width" : 800
        },
        {
          "thumb" : "https:\/\/i1.douguo.com\/upload\/caiku\/2\/b\/4\/140_2b3e7338b3ddb19937b31d154c907ac4.jpeg",
          "image" : "https:\/\/i1.douguo.com\/upload\/caiku\/2\/b\/4\/2b3e7338b3ddb19937b31d154c907ac4.jpeg",
          "position" : 8,
          "frame" : "-1",
          "content" : "尼莫做好了。",
          "image_width" : 800,
          "image_height" : 800
        },
        {
          "frame" : "-1",
          "image" : "https:\/\/i1.douguo.com\/upload\/caiku\/d\/c\/e\/dce90bd0a33b0620815effd45c79b0ce.jpeg",
          "thumb" : "https:\/\/i1.douguo.com\/upload\/caiku\/d\/c\/e\/140_dce90bd0a33b0620815effd45c79b0ce.jpeg",
          "image_height" : 800,
          "content" : "接着是一个爱心煎蛋，火腿肠过水拿出，切两半，如图用牙签固定好形状。",
          "image_width" : 800,
          "position" : 9
        },
        {
          "image" : "https:\/\/i1.douguo.com\/upload\/caiku\/5\/d\/3\/5d320888c4144af7827d2da96d86de13.jpeg",
          "image_width" : 800,
          "frame" : "-1",
          "image_height" : 800,
          "position" : 10,
          "thumb" : "https:\/\/i1.douguo.com\/upload\/caiku\/5\/d\/3\/140_5d320888c4144af7827d2da96d86de13.jpeg",
          "content" : "打入一个鸡蛋，小火慢煎，喜欢吃老一点的，可以多煎一会，为了好看，我都没有给它翻面。"
        },
        {
          "frame" : "-1",
          "image_height" : 800,
          "content" : "再配上一杯牛奶。",
          "thumb" : "https:\/\/i1.douguo.com\/upload\/caiku\/3\/5\/0\/140_355b1095830716d74ea52c50e4e1ef50.jpeg",
          "image" : "https:\/\/i1.douguo.com\/upload\/caiku\/3\/5\/0\/355b1095830716d74ea52c50e4e1ef50.jpeg",
          "image_width" : 800,
          "position" : 11
        },
        {
          "image_width" : 800,
          "image_height" : 800,
          "thumb" : "https:\/\/i1.douguo.com\/upload\/caiku\/7\/a\/3\/140_7a64100add2f3f0c8502b8934e5bc2f3.jpeg",
          "position" : 12,
          "content" : "我们的父亲节早餐就做好了，粑粑们，父亲节快乐！",
          "image" : "https:\/\/i1.douguo.com\/upload\/caiku\/7\/a\/3\/7a64100add2f3f0c8502b8934e5bc2f3.jpeg",
          "frame" : "-1"
        }
      ],
      "related_ads" : [

      ],
      "ss" : [

      ],
      "cookstory" : "这是一只小丑鱼，它叫尼莫，来自海底总动员，是有关一对可爱的父与子的故事。感恩，愿天下所有的父亲节日快乐！身体健康！",
      "tips" : "",
      "views_count_text" : "7.3万",
      "first_level_comment_count" : 3,
      "advice" : {
        "has" : [

        ],
        "da" : {
          "t" : "查看详细分析",
          "url" : "https:\/\/m.douguo.com\/recipe\/nutrient_self\/1396920",
          "iu" : "https:\/\/i1.douguo.com\/upload\/banner\/f\/4\/d\/f48877e53c37759bc12ac494be82ec8d.png"
        }
      },
      "ipt" : "",
      "recommended" : 0,
      "su" : "",
      "ph" : 800,
      "rpst" : "",
      "image" : "http:\/\/i1.douguo.net\/upload\/caiku\/b\/9\/e\/300_b9b4a53acc402fef3a52da0ac08359de.jpeg",
      "recipe_list_tags" : [
        {
          "right_image" : "",
          "background_start_color" : "#F4F5F5",
          "background_border_color" : "",
          "text" : "关注的人",
          "jump_url" : "",
          "background_end_color" : "#F4F5F5",
          "text_color" : "#141515"
        }
      ],
      "eu" : "recipes:\/\/www.douguo.com\/postdetail?id=242016",
      "ipci" : "",
      "rewarded_video_dsp" : [

      ],
      "favo_counts_text" : "1103",
      "act_des" : "",
      "major" : [
        {
          "title" : "吐司",
          "note" : "1片",
          "tu" : "https:\/\/m.douguo.com\/ingredients\/吐司\/detailmaterial"
        },
        {
          "note" : "半根",
          "tu" : "https:\/\/m.douguo.com\/ingredients\/胡萝卜\/detailmaterial",
          "title" : "胡萝卜"
        },
        {
          "title" : "巧克力",
          "tu" : "https:\/\/m.douguo.com\/ingredients\/巧克力\/detailmaterial",
          "note" : "1颗"
        },
        {
          "note" : "1个",
          "tu" : "https:\/\/m.douguo.com\/ingredients\/鸡蛋\/detailmaterial",
          "title" : "鸡蛋"
        },
        {
          "tu" : "https:\/\/m.douguo.com\/ingredients\/火腿肠\/detailmaterial",
          "title" : "火腿肠",
          "note" : "1根"
        },
        {
          "tu" : "https:\/\/m.douguo.com\/ingredients\/牛奶\/detailmaterial",
          "note" : "1盒",
          "title" : "牛奶"
        }
      ],
      "thumb_path" : "https:\/\/i1.douguo.com\/upload\/caiku\/b\/9\/e\/300_b9b4a53acc402fef3a52da0ac08359de.jpeg",
      "rate_show" : 0,
      "display_ingredient" : 1,
      "dish_count_text" : "12",
      "title" : "父亲节早餐",
      "purl" : "",
      "recipe_tags" : [

      ],
      "title_ad" : [

      ],
      "brand_day_dsp" : [

      ],
      "cook_difficulty_image" : "https:\/\/i1.douguo.com\/upload\/banner\/1551424390.png",
      "rcs" : [

      ],
      "story_dsp" : [

      ],
      "rsm" : "该功能暂停使用",
      "cook_id" : "1396920",
      "sr" : "",
      "rpt" : "",
      "sc" : 0,
      "dish_count" : 12,
      "ipia" : [

      ],
      "rdsps" : [

      ],
      "vfurl" : "",
      "comments" : [
        "{\n    ac = \"#999999\";\n    at = \"\";\n    ccc = 1;\n    \"child_comments\" =     (\n                {\n            ac = \"#999999\";\n            at = \"\";\n            ccc = 0;\n            city = \"\";\n            cmc = 2;\n            content =             (\n                                {\n                    c = \" \";\n                }\n            );\n            ia = 1;\n            id = 3735795;\n            \"ip_address_location\" = \"\";\n            like = 0;\n            \"like_count\" = 0;\n            \"reply_id\" = 3732208;\n            \"reply_user\" =             {\n                \"followers_count_text\" = \"\";\n                id = 16677801;\n                \"is_prime\" = 0;\n                lv = 0;\n                lvl = 5;\n                n = \"\\U5206\\U4eab\\U6bcf\\U65e5\\U65e9\\U70b9\";\n                p = \"http:\/\/tx1.douguo.net\/upload\/photo\/1\/1\/a\/70_u56398975330895161434.jpg\";\n                \"progress_image\" = \"\";\n                \"recipes_count_text\" = \"\";\n                relationship = \"-1\";\n                title = \"\";\n                v = 0;\n                \"verified_image\" = \"\";\n            };\n            \"sticker_icon\" =             (\n            );\n            time = \"2016-06-20 13:23:08\";\n            u =             {\n                \"followers_count_text\" = \"\";\n                id = 10099638;\n                \"is_prime\" = 0;\n                lv = 0;\n                lvl = 6;\n                n = \"\\U8584\\U8377\\U65f6\\U5149\";\n                p = \"http:\/\/tx1.douguo.net\/upload\/photo\/f\/5\/0\/70_u35543784479204120008.jpeg\";\n                \"progress_image\" = \"\";\n                \"recipes_count_text\" = \"\";\n                relationship = \"-1\";\n                title = \"\";\n                v = 1;\n                \"verified_image\" = \"\";\n            };\n        }\n    );\n    city = \"\";\n    cmc = 2;\n    content =     (\n                {\n            c = \"\\U597d\\U521b\\U610f\\Uff01\\U5386\\U5bb3\\U554a\";\n        }\n    );\n    ia = 0;\n    id = 3732208;\n    \"ip_address_location\" = \"\";\n    like = 0;\n    \"like_count\" = 0;\n    \"reply_id\" = 0;\n    \"sticker_icon\" =     (\n    );\n    time = \"2016-06-19 10:37:15\";\n    u =     {\n        \"followers_count_text\" = \"\";\n        id = 16677801;\n        \"is_prime\" = 0;\n        lv = 0;\n        lvl = 5;\n        n = \"\\U5206\\U4eab\\U6bcf\\U65e5\\U65e9\\U70b9\";\n        p = \"http:\/\/tx1.douguo.net\/upload\/photo\/1\/1\/a\/70_u56398975330895161434.jpg\";\n        \"progress_image\" = \"\";\n        \"recipes_count_text\" = \"\";\n        relationship = \"-1\";\n        title = \"\";\n        v = 0;\n        \"verified_image\" = \"\";\n    };\n}",
        "{\n    ac = \"#999999\";\n    at = \"\";\n    ccc = 0;\n    \"child_comments\" =     (\n    );\n    city = \"\";\n    cmc = 2;\n    content =     (\n                {\n            c = \"\\U592a\\U9633\\U86cb\\U662f\\U4e0d\\U7528\\U7ffb\\U9762\\U7684\";\n        }\n    );\n    ia = 0;\n    id = 3803664;\n    \"ip_address_location\" = \"\";\n    like = 0;\n    \"like_count\" = 0;\n    \"reply_id\" = 0;\n    \"sticker_icon\" =     (\n    );\n    time = \"2016-07-11 12:51:37\";\n    u =     {\n        \"followers_count_text\" = \"\";\n        id = 17969483;\n        \"is_prime\" = 0;\n        lv = 0;\n        lvl = 4;\n        n = \"\\U9752\\U67e0\\U5473\\U7684\\U5c0f\\U74f6\\U76d6\";\n        p = \"http:\/\/tx1.douguo.net\/upload\/photo\/c\/4\/d\/70_u68213887965644214341.jpg\";\n        \"progress_image\" = \"\";\n        \"recipes_count_text\" = \"\";\n        relationship = \"-1\";\n        title = \"\";\n        v = 0;\n        \"verified_image\" = \"\";\n    };\n}",
        "{\n    ac = \"#999999\";\n    at = \"\";\n    ccc = 0;\n    \"child_comments\" =     (\n    );\n    city = \"\";\n    cmc = 2;\n    content =     (\n                {\n            c = \"\\U54c7\\U585e\\Uff0c\\U770b\\U8d77\\U6765\\U597d\\U68d2\\U5440\\Uff01\\Uff01\\Uff01 \";\n        }\n    );\n    ia = 0;\n    id = 3730997;\n    \"ip_address_location\" = \"\";\n    like = 0;\n    \"like_count\" = 0;\n    \"reply_id\" = 0;\n    \"sticker_icon\" =     (\n    );\n    time = \"2016-06-19 03:31:42\";\n    u =     {\n        \"followers_count_text\" = \"\";\n        id = 17150353;\n        \"is_prime\" = 0;\n        lv = 0;\n        lvl = 6;\n        n = \"\\U5948\\U826f\\U5c0f\\U9e7f\";\n        p = \"http:\/\/tx1.douguo.net\/upload\/photo\/6\/a\/3\/70_u60616052496175103819.jpeg\";\n        \"progress_image\" = \"\";\n        \"recipes_count_text\" = \"\";\n        relationship = \"-1\";\n        title = \"\";\n        v = 1;\n        \"verified_image\" = \"\";\n    };\n}"
      ],
      "levelid" : 2,
      "clicks" : "70242",
      "top_mdsp" : [

      ],
      "cook_difficulty" : "切墩(初级)",
      "author_id" : 10099638,
      "vc" : "73290",
      "guide_image" : "",
      "thumb_height" : 0,
      "cookwares" : [

      ],
      "collect_status" : 0
    }
  }
}