{
  "state" : "success",
  "result" : {
    "recipe" : {
      "display_ingredient" : 1,
      "share_info" : {
        "qr_image" : "",
        "image" : "https:\/\/cp1.douguo.com\/upload\/caiku\/3\/1\/b\/31893890f0449f7e93845d550bd9af1b.jpg",
        "s_u" : "http:\/\/m.douguo.com\/cookbook\/1178803.html",
        "s_d" : "红烧扁鱼-会做饭很酷!",
        "name" : "红烧扁鱼-会做饭很酷!",
        "object_id" : "1178803",
        "mini_program" : [

        ],
        "infos" : [
          {
            "object_id" : "1178803",
            "s_u" : "",
            "name" : "红烧扁鱼-会做饭很酷!",
            "qr_image" : "",
            "image" : "https:\/\/cp1.douguo.com\/upload\/caiku\/3\/1\/b\/31893890f0449f7e93845d550bd9af1b.jpg",
            "s_d" : "#学做饭用豆果美食# 我在@豆果美食 分享了【红烧扁鱼-会做饭很酷!】，色香味俱全说的就是这道菜！查看图片了解菜谱（快来点击https:\/\/m.weibo.cn\/p\/100404i33631和我一起修炼厨艺吧）#会做饭很酷# ",
            "mini_program" : [

            ],
            "channel" : "1"
          },
          {
            "channel" : "7",
            "s_u" : "http:\/\/m.douguo.com\/cookbook\/1178803.html",
            "name" : "红烧扁鱼-会做饭很酷!",
            "image" : "https:\/\/cp1.douguo.com\/upload\/caiku\/3\/1\/b\/31893890f0449f7e93845d550bd9af1b.jpg",
            "qr_image" : "",
            "s_d" : "红烧扁鱼-会做饭很酷!",
            "object_id" : "1178803",
            "mini_program" : [

            ]
          },
          {
            "channel" : "8",
            "image" : "https:\/\/cp1.douguo.com\/upload\/caiku\/3\/1\/b\/31893890f0449f7e93845d550bd9af1b.jpg",
            "qr_image" : "",
            "object_id" : "1178803",
            "s_d" : "红烧扁鱼-会做饭很酷!",
            "s_u" : "http:\/\/m.douguo.com\/cookbook\/1178803.html",
            "mini_program" : [

            ],
            "name" : "红烧扁鱼-会做饭很酷!"
          }
        ]
      },
      "recommend_label" : "5人学做",
      "levelid" : 3,
      "dish_count" : 5,
      "dish_count_text" : "5",
      "rdsps" : [

      ],
      "rate_show" : 0,
      "pw" : 800,
      "ssu" : "",
      "recommended" : 0,
      "hqu" : "recipes:\/\/www.douguo.com\/notedetail?id=21162253",
      "rsm" : "该功能暂停使用",
      "ipt" : "",
      "release_time" : "",
      "cookstorys" : [

      ],
      "rate" : 0,
      "ipia" : [

      ],
      "cook_time" : "10-30分钟",
      "top_mdsp" : [

      ],
      "advice" : {
        "da" : {
          "url" : "https:\/\/m.douguo.com\/recipe\/nutrient_self\/1178803",
          "t" : "查看详细分析",
          "iu" : "https:\/\/i1.douguo.com\/upload\/banner\/f\/4\/d\/f48877e53c37759bc12ac494be82ec8d.png"
        },
        "has" : [
          {
            "t" : "不含饱和脂肪",
            "url" : "recipes:\/\/www.douguo.com\/simplerecipelist?t=不含饱和脂肪&id=不含饱和脂肪"
          },
          {
            "url" : "recipes:\/\/www.douguo.com\/simplerecipelist?t=高盐&id=高盐",
            "t" : "高盐"
          }
        ],
        "at" : "可以预防血栓形成～"
      },
      "first_level_comment_count" : 1,
      "comments_count_text" : "1",
      "major" : [
        {
          "title" : "扁鱼",
          "note" : ""
        },
        {
          "note" : "",
          "title" : "姜",
          "tu" : "https:\/\/m.douguo.com\/ingredients\/姜\/detailmaterial"
        },
        {
          "tu" : "https:\/\/m.douguo.com\/ingredients\/葱\/detailmaterial",
          "note" : "",
          "title" : "葱"
        },
        {
          "tu" : "https:\/\/m.douguo.com\/ingredients\/料酒\/detailmaterial",
          "title" : "料酒",
          "note" : ""
        },
        {
          "tu" : "https:\/\/m.douguo.com\/ingredients\/酱油\/detailmaterial",
          "title" : "酱油",
          "note" : ""
        },
        {
          "title" : "醋",
          "note" : "",
          "tu" : "https:\/\/m.douguo.com\/ingredients\/醋\/detailmaterial"
        },
        {
          "note" : "",
          "title" : "盐",
          "tu" : "https:\/\/m.douguo.com\/ingredients\/盐\/detailmaterial"
        },
        {
          "note" : "",
          "title" : "鸡精",
          "tu" : "https:\/\/m.douguo.com\/ingredients\/鸡精\/detailmaterial"
        },
        {
          "tu" : "https:\/\/m.douguo.com\/ingredients\/冰糖\/detailmaterial",
          "title" : "冰糖",
          "note" : ""
        }
      ],
      "author_id" : 3600523,
      "author_verified" : 0,
      "vfurl" : "",
      "title" : "红烧扁鱼",
      "cook_time_image" : "https:\/\/i1.douguo.com\/upload\/banner\/1551424341.png",
      "cook_difficulty_image" : "https:\/\/i1.douguo.com\/upload\/banner\/1551424390.png",
      "rrps" : [

      ],
      "sc" : 0,
      "btm_dsp" : [

      ],
      "related_ads" : [

      ],
      "rips" : 0,
      "sr" : "",
      "recommendation_tag" : "",
      "collect_status" : 0,
      "cookstory" : "",
      "image" : "http:\/\/i1.douguo.net\/upload\/caiku\/3\/1\/b\/300_31893890f0449f7e93845d550bd9af1b.jpg",
      "comments_count" : 1,
      "rewarded_video_dsp" : [

      ],
      "packages_id" : [

      ],
      "cookstep" : [
        {
          "position" : 1,
          "content" : "1.清洗干净鱼后，身上划刀（这样好入味）",
          "frame" : "-1",
          "image_height" : 1423,
          "image" : "https:\/\/i1.douguo.com\/upload\/caiku\/1\/f\/b\/1f174846837a8f37f24defc2df64009b.jpg",
          "image_width" : 800,
          "thumb" : "https:\/\/i1.douguo.com\/upload\/caiku\/1\/f\/b\/140_1f174846837a8f37f24defc2df64009b.jpg"
        },
        {
          "position" : 2,
          "image_width" : 0,
          "image" : "",
          "image_height" : 0,
          "frame" : "-1",
          "content" : "2.锅热油，下姜片，下鱼，两面煎黄，下料酒，酱油，盐，鸡精，冰糖，醋。用锅铲反面推推（以防粘锅）倒入水漫过鱼的半身，等待收汁，自己觉得汁收的差不多时，将鱼盛盘，撒上葱花，将锅里的汁淋在鱼身上即可",
          "thumb" : ""
        }
      ],
      "views_count_text" : "11.7万",
      "purl" : "",
      "comments" : [
        "{\n    ac = \"#999999\";\n    at = \"\";\n    ccc = 0;\n    \"child_comments\" =     (\n    );\n    city = \"\";\n    cmc = 2;\n    content =     (\n                {\n            c = \"\\U6dcb\\U5728\\U9c7c\\U4e0a\\U7684\\U6c41\\U600e\\U4e48\\U505a\\Uff1f\";\n        }\n    );\n    ia = 0;\n    id = 3112682;\n    \"ip_address_location\" = \"\";\n    like = 0;\n    \"like_count\" = 0;\n    \"reply_id\" = 0;\n    \"sticker_icon\" =     (\n    );\n    time = \"2016-02-17 03:34:51\";\n    u =     {\n        \"followers_count_text\" = \"\";\n        id = 16591408;\n        \"is_prime\" = 0;\n        lv = 0;\n        lvl = 1;\n        n = \"\\U6d6a_\\U4e0d\\U5012\";\n        p = \"\";\n        \"progress_image\" = \"\";\n        \"recipes_count_text\" = \"\";\n        relationship = \"-1\";\n        title = \"\";\n        v = 0;\n        \"verified_image\" = \"\";\n    };\n}"
      ],
      "rcs" : [

      ],
      "photo_path" : "https:\/\/i1.douguo.com\/upload\/caiku\/3\/1\/b\/600_31893890f0449f7e93845d550bd9af1b.jpg",
      "su" : "",
      "rrpt" : "",
      "rpt" : "",
      "v_u" : "",
      "vu" : "",
      "clicks" : "104996",
      "act_des" : "",
      "notes" : [

      ],
      "recipe_tags" : [

      ],
      "cook_id" : "1178803",
      "cook_difficulty" : "切墩(初级)",
      "vc" : "117319",
      "guide_image" : "",
      "cookwares" : [

      ],
      "rpst" : "",
      "tags" : [
        "{\n    text = \"\\U5bb6\\U5e38\\U83dc\";\n}",
        "{\n    text = \"\\U6c34\\U4ea7\";\n}",
        "{\n    text = \"\\U7ea2\\U70e7\";\n}",
        "{\n    text = \"\\U5348\\U9910\";\n}"
      ],
      "old_comments" : [

      ],
      "thumb_path" : "https:\/\/i1.douguo.com\/upload\/caiku\/3\/1\/b\/300_31893890f0449f7e93845d550bd9af1b.jpg",
      "author" : "巴黎鐵塔的思緒",
      "create_time" : "2015-05-16 08:24:17",
      "favo_counts" : 810,
      "ipci" : "",
      "ph" : 1423,
      "recipe_list_tags" : [
        {
          "background_start_color" : "#F4F5F5",
          "jump_url" : "",
          "background_border_color" : "",
          "right_image" : "",
          "text" : "关注的人",
          "background_end_color" : "#F4F5F5",
          "text_color" : "#141515"
        }
      ],
      "original_photo_path" : "http:\/\/i1.douguo.net\/upload\/caiku\/3\/1\/b\/yuan_31893890f0449f7e93845d550bd9af1b.jpg",
      "author_photo" : "http:\/\/tx1.douguo.net\/upload\/photo\/1\/0\/d\/70_u84347842277247221809.jpg",
      "brand_day_dsp" : [

      ],
      "dishes" : [

      ],
      "ss" : [

      ],
      "ipurl" : "",
      "recent_comments" : [

      ],
      "minor" : [

      ],
      "ipoi" : "",
      "thumb_height" : 0,
      "story_dsp" : [

      ],
      "rpid" : 0,
      "hq" : 0,
      "ecs" : 0,
      "ipit" : 0,
      "mid_mdsp" : [

      ],
      "rate_count" : 0,
      "user" : {
        "lv" : 0,
        "lvl" : 3,
        "verified" : 0,
        "dishes_count" : 0,
        "userid" : "3600523",
        "birthday" : "",
        "verified_url" : "https:\/\/m.douguo.com\/user\/prodesc",
        "nick" : "巴黎鐵塔的思緒",
        "user_cover" : "",
        "followers_count" : 0,
        "following_count" : 0,
        "diaries_count" : 0,
        "progress_image" : "",
        "coursecount" : 0,
        "is_prime" : 0,
        "setted_email" : 0,
        "introduction" : "",
        "age" : "",
        "verified_image" : "",
        "subscription_article_count" : 0,
        "favorites_count" : 0,
        "point" : 0,
        "qq_weibo_nick" : "",
        "regist_time" : "",
        "weibo_nick" : "",
        "user_id" : "3600523",
        "mobile" : "",
        "location" : 0,
        "qzone_nick" : "",
        "user_large_photo" : "http:\/\/tx1.douguo.net\/upload\/photo\/1\/0\/d\/yuan_u84347842277247221809.jpg",
        "gender" : 2,
        "subscription" : 0,
        "favor_diaries_count" : 0,
        "pc" : 0,
        "sign" : "",
        "recipes_count" : 0,
        "avatar_medium" : "http:\/\/tx1.douguo.net\/upload\/photo\/1\/0\/d\/140_u84347842277247221809.jpg",
        "user_photo" : "http:\/\/tx1.douguo.net\/upload\/photo\/1\/0\/d\/70_u84347842277247221809.jpg",
        "email" : "",
        "fc" : 0
      },
      "favo_counts_text" : "810",
      "eu" : "recipes:\/\/www.douguo.com\/postdetail?id=242016",
      "title_ad" : [

      ],
      "bs" : [

      ],
      "tips" : ""
    }
  },
  "status" : 0
}