{
  "result" : {
    "recipe" : {
      "author_photo" : "http:\/\/tx1.douguo.net\/upload\/photo\/6\/9\/7\/70_u22071277560521135456.jpeg",
      "rate_show" : 0,
      "rpt" : "",
      "title" : "芝士肉丸焗饭",
      "ss" : [

      ],
      "rewarded_video_dsp" : [

      ],
      "major" : [
        {
          "note" : "1人份",
          "title" : "剩米饭"
        },
        {
          "title" : "西红柿",
          "tu" : "https:\/\/m.douguo.com\/ingredients\/西红柿\/detailmaterial",
          "note" : "半个"
        },
        {
          "note" : "半个",
          "title" : "洋葱",
          "tu" : "https:\/\/m.douguo.com\/ingredients\/洋葱\/detailmaterial"
        },
        {
          "title" : "牛肉丸",
          "note" : "5颗"
        },
        {
          "title" : "鲜香菇",
          "note" : "2朵"
        },
        {
          "tu" : "https:\/\/m.douguo.com\/ingredients\/油\/detailmaterial",
          "note" : "2勺",
          "title" : "油"
        },
        {
          "note" : "2勺",
          "tu" : "https:\/\/m.douguo.com\/ingredients\/番茄酱\/detailmaterial",
          "title" : "番茄酱"
        },
        {
          "note" : "适量",
          "title" : "马苏里拉芝士碎"
        },
        {
          "note" : "适量",
          "title" : "罗勒碎"
        },
        {
          "title" : "盐",
          "tu" : "https:\/\/m.douguo.com\/ingredients\/盐\/detailmaterial",
          "note" : "适量"
        }
      ],
      "su" : "",
      "v_u" : "",
      "image" : "http:\/\/i1.douguo.net\/upload\/caiku\/c\/9\/f\/300_c9017a92fa69f589807d2e67c06e0bef.jpeg",
      "vu" : "",
      "rdsps" : [

      ],
      "cook_time" : "10~30分钟",
      "dish_count_text" : "2",
      "vfurl" : "",
      "user" : {
        "dishes_count" : 0,
        "introduction" : "",
        "favor_diaries_count" : 0,
        "regist_time" : "",
        "verified_url" : "https:\/\/m.douguo.com\/user\/prodesc",
        "user_large_photo" : "http:\/\/tx1.douguo.net\/upload\/photo\/6\/9\/7\/yuan_u22071277560521135456.jpeg",
        "email" : "",
        "user_photo" : "http:\/\/tx1.douguo.net\/upload\/photo\/6\/9\/7\/70_u22071277560521135456.jpeg",
        "verified_image" : "",
        "lvl" : 5,
        "fc" : 0,
        "sign" : "",
        "pc" : 0,
        "verified" : 0,
        "age" : "",
        "nick" : "早安记",
        "user_cover" : "",
        "qq_weibo_nick" : "",
        "userid" : "21824178",
        "followers_count" : 0,
        "weibo_nick" : "",
        "coursecount" : 0,
        "point" : 0,
        "favorites_count" : 0,
        "following_count" : 0,
        "recipes_count" : 0,
        "subscription_article_count" : 0,
        "progress_image" : "",
        "lv" : 0,
        "qzone_nick" : "",
        "avatar_medium" : "http:\/\/tx1.douguo.net\/upload\/photo\/6\/9\/7\/140_u22071277560521135456.jpeg",
        "birthday" : "",
        "gender" : 2,
        "location" : 0,
        "diaries_count" : 0,
        "is_prime" : 0,
        "mobile" : "",
        "user_id" : "21824178",
        "subscription" : 0,
        "setted_email" : 0
      },
      "rpst" : "",
      "thumb_path" : "https:\/\/i1.douguo.com\/upload\/caiku\/c\/9\/f\/300_c9017a92fa69f589807d2e67c06e0bef.jpeg",
      "rcs" : [

      ],
      "story_dsp" : [

      ],
      "thumb_height" : 0,
      "author_verified" : 0,
      "recommend_label" : "2人学做",
      "collect_status" : 0,
      "first_level_comment_count" : 4,
      "act_des" : "",
      "cookstep" : [
        {
          "content" : "洋葱切丝、香菇切片、西红柿和肉丸切丁备用。",
          "image_height" : 800,
          "image_width" : 1200,
          "image" : "https:\/\/i1.douguo.com\/upload\/caiku\/9\/7\/b\/977812470fb9a4ef595e40fa1c2b465b.jpeg",
          "thumb" : "https:\/\/i1.douguo.com\/upload\/caiku\/9\/7\/b\/140_977812470fb9a4ef595e40fa1c2b465b.jpeg",
          "position" : 1,
          "frame" : "-1"
        },
        {
          "image_width" : 1200,
          "frame" : "-1",
          "thumb" : "https:\/\/i1.douguo.com\/upload\/caiku\/8\/b\/2\/140_8ba6530899a83aafbcb3e3db0713cd22.jpeg",
          "image" : "https:\/\/i1.douguo.com\/upload\/caiku\/8\/b\/2\/8ba6530899a83aafbcb3e3db0713cd22.jpeg",
          "image_height" : 800,
          "position" : 2,
          "content" : "锅加热放油，倒入洋葱翻炒出香味。"
        },
        {
          "thumb" : "https:\/\/i1.douguo.com\/upload\/caiku\/8\/3\/3\/140_8313b0f4dcba0c88aae043cbd4b08863.jpeg",
          "image" : "https:\/\/i1.douguo.com\/upload\/caiku\/8\/3\/3\/8313b0f4dcba0c88aae043cbd4b08863.jpeg",
          "frame" : "-1",
          "image_width" : 1200,
          "image_height" : 800,
          "position" : 3,
          "content" : "加入西红柿丁炒至断生。"
        },
        {
          "image_width" : 1200,
          "content" : "加入肉丸丁、香菇片、番茄酱（喜欢吃辣的宝贝们加辣酱也是可以的）。",
          "image_height" : 800,
          "image" : "https:\/\/i1.douguo.com\/upload\/caiku\/6\/c\/3\/6c989519a0001ea04fe037c1a8008943.jpeg",
          "frame" : "-1",
          "position" : 4,
          "thumb" : "https:\/\/i1.douguo.com\/upload\/caiku\/6\/c\/3\/140_6c989519a0001ea04fe037c1a8008943.jpeg"
        },
        {
          "image_height" : 800,
          "image_width" : 1200,
          "thumb" : "https:\/\/i1.douguo.com\/upload\/caiku\/f\/a\/8\/140_fae11218527ddeb8570934479f4c2b18.jpeg",
          "content" : "将所有配料翻炒至断生后关火。",
          "image" : "https:\/\/i1.douguo.com\/upload\/caiku\/f\/a\/8\/fae11218527ddeb8570934479f4c2b18.jpeg",
          "position" : 5,
          "frame" : "-1"
        },
        {
          "image" : "https:\/\/i1.douguo.com\/upload\/caiku\/0\/9\/5\/098e37cbbaf2195fec7a92d859ecda35.jpeg",
          "frame" : "-1",
          "position" : 6,
          "image_width" : 1200,
          "content" : "焗盘中放入熟米饭，注意不要压得太实。",
          "thumb" : "https:\/\/i1.douguo.com\/upload\/caiku\/0\/9\/5\/140_098e37cbbaf2195fec7a92d859ecda35.jpeg",
          "image_height" : 800
        },
        {
          "content" : "铺上炒好的配料。",
          "frame" : "-1",
          "image" : "https:\/\/i1.douguo.com\/upload\/caiku\/9\/f\/3\/9f2feb0ecb64bfa3558cdf5cf8f0e6a3.jpeg",
          "thumb" : "https:\/\/i1.douguo.com\/upload\/caiku\/9\/f\/3\/140_9f2feb0ecb64bfa3558cdf5cf8f0e6a3.jpeg",
          "position" : 7,
          "image_width" : 1200,
          "image_height" : 800
        },
        {
          "image" : "https:\/\/i1.douguo.com\/upload\/caiku\/a\/3\/2\/a35f361505f3013cde5ad661f00d36b2.jpeg",
          "image_height" : 800,
          "frame" : "-1",
          "image_width" : 1200,
          "content" : "表面撒上马苏里拉芝士碎、罗勒碎（可省略）。",
          "thumb" : "https:\/\/i1.douguo.com\/upload\/caiku\/a\/3\/2\/140_a35f361505f3013cde5ad661f00d36b2.jpeg",
          "position" : 8
        },
        {
          "image_height" : 800,
          "frame" : "-1",
          "image" : "https:\/\/i1.douguo.com\/upload\/caiku\/c\/c\/4\/cc2480d0a790106c50fd80a692874b54.jpeg",
          "position" : 9,
          "content" : "烤箱预热后，放中层，上下火200℃，约15分钟。",
          "thumb" : "https:\/\/i1.douguo.com\/upload\/caiku\/c\/c\/4\/140_cc2480d0a790106c50fd80a692874b54.jpeg",
          "image_width" : 1200
        },
        {
          "position" : 10,
          "frame" : "-1",
          "image_width" : 1200,
          "image_height" : 800,
          "content" : "趁热享用吧~",
          "thumb" : "https:\/\/i1.douguo.com\/upload\/caiku\/2\/4\/7\/140_2408275b4c5332c3e9400e768501ef97.jpeg",
          "image" : "https:\/\/i1.douguo.com\/upload\/caiku\/2\/4\/7\/2408275b4c5332c3e9400e768501ef97.jpeg"
        }
      ],
      "advice" : {
        "at" : "对血管有保护作用～",
        "has" : [
          {
            "t" : "低饱和脂肪",
            "url" : "recipes:\/\/www.douguo.com\/simplerecipelist?t=低饱和脂肪&id=低饱和脂肪"
          }
        ],
        "da" : {
          "iu" : "https:\/\/i1.douguo.com\/upload\/banner\/f\/4\/d\/f48877e53c37759bc12ac494be82ec8d.png",
          "t" : "查看详细分析",
          "url" : "https:\/\/m.douguo.com\/recipe\/nutrient_self\/2297213"
        }
      },
      "ipt" : "",
      "cookstory" : "吃惯了传统的大米饭，今天换个吃法，做道香浓拉丝的芝士焗饭噢，加上牛肉丸的香气，完美~",
      "cook_id" : "2297213",
      "recent_comments" : [

      ],
      "display_ingredient" : 1,
      "eu" : "recipes:\/\/www.douguo.com\/postdetail?id=242016",
      "clicks" : "309927",
      "top_mdsp" : [

      ],
      "bs" : [

      ],
      "original_photo_path" : "http:\/\/i1.douguo.net\/upload\/caiku\/c\/9\/f\/yuan_c9017a92fa69f589807d2e67c06e0bef.jpeg",
      "favo_counts_text" : "3764",
      "btm_dsp" : [

      ],
      "pw" : 1200,
      "comments_count_text" : "8",
      "cook_difficulty" : "切墩(初级)",
      "comments_count" : 8,
      "ipurl" : "",
      "related_ads" : [

      ],
      "rate" : 5,
      "sr" : "",
      "recommended" : 0,
      "rrps" : [

      ],
      "packages_id" : [

      ],
      "ipit" : 0,
      "comments" : [
        "{\n    ac = \"#999999\";\n    at = \"\\U5317\\U4eac\\U5e02\";\n    ccc = 2;\n    \"child_comments\" =     (\n                {\n            ac = \"#999999\";\n            at = \"\\U6f33\\U5dde\\U5e02\";\n            ccc = 0;\n            city = \"\\U6f33\\U5dde\\U5e02\";\n            cmc = 2;\n            content =             (\n                                {\n                    c = \" \\U563f\\U563f\\Uff0c\\U5976\\U9999\\U548c\\U8089\\U9999\\U6df7\\U5408\\U8d85\\U6ee1\\U8db3\\U6709\\U6ca1\\U6709\\Uff01\";\n                }\n            );\n            ia = 1;\n            id = 6600321;\n            \"ip_address_location\" = \"\";\n            like = 0;\n            \"like_count\" = 0;\n            \"reply_id\" = 6600178;\n            \"reply_user\" =             {\n                \"followers_count_text\" = \"\";\n                id = 23724643;\n                \"is_prime\" = 0;\n                lv = 0;\n                lvl = 1;\n                n = \"\\U8c46\\U7c898241986563\";\n                p = \"\";\n                \"progress_image\" = \"\";\n                \"recipes_count_text\" = \"\";\n                relationship = \"-1\";\n                title = \"\";\n                v = 0;\n                \"verified_image\" = \"\";\n            };\n            \"sticker_icon\" =             (\n            );\n            time = \"2019-05-17 19:29:54\";\n            u =             {\n                \"followers_count_text\" = \"\";\n                id = 21824178;\n                \"is_prime\" = 0;\n                lv = 0;\n                lvl = 5;\n                n = \"\\U65e9\\U5b89\\U8bb0\";\n                p = \"http:\/\/tx1.douguo.net\/upload\/photo\/6\/9\/7\/70_u22071277560521135456.jpeg\";\n                \"progress_image\" = \"\";\n                \"recipes_count_text\" = \"\";\n                relationship = \"-1\";\n                title = \"\";\n                v = 0;\n                \"verified_image\" = \"\";\n            };\n        },\n                {\n            ac = \"#999999\";\n            at = \"\\U5317\\U4eac\\U5e02\";\n            ccc = 0;\n            city = \"\\U5317\\U4eac\\U5e02\";\n            cmc = 2;\n            content =             (\n                                {\n                    c = \" \\U5fc5\\U987b\\U7684 \\U9999\\U5473\\U4e0d\\U8981\\U4e0d\\U8981\\U7684\";\n                }\n            );\n            ia = 0;\n            id = 6602008;\n            \"ip_address_location\" = \"\";\n            like = 0;\n            \"like_count\" = 0;\n            \"reply_id\" = 6600321;\n            \"reply_user\" =             {\n                \"followers_count_text\" = \"\";\n                id = 21824178;\n                \"is_prime\" = 0;\n                lv = 0;\n                lvl = 5;\n                n = \"\\U65e9\\U5b89\\U8bb0\";\n                p = \"http:\/\/tx1.douguo.net\/upload\/photo\/6\/9\/7\/70_u22071277560521135456.jpeg\";\n                \"progress_image\" = \"\";\n                \"recipes_count_text\" = \"\";\n                relationship = \"-1\";\n                title = \"\";\n                v = 0;\n                \"verified_image\" = \"\";\n            };\n            \"sticker_icon\" =             (\n            );\n            time = \"2019-05-18 16:45:50\";\n            u =             {\n                \"followers_count_text\" = \"\";\n                id = 23724643;\n                \"is_prime\" = 0;\n                lv = 0;\n                lvl = 1;\n                n = \"\\U8c46\\U7c898241986563\";\n                p = \"\";\n                \"progress_image\" = \"\";\n                \"recipes_count_text\" = \"\";\n                relationship = \"-1\";\n                title = \"\";\n                v = 0;\n                \"verified_image\" = \"\";\n            };\n        }\n    );\n    city = \"\\U5317\\U4eac\\U5e02\";\n    cmc = 2;\n    content =     (\n                {\n            c = \"\\U8fd9\\U4e2a\\U83dc\\U592a\\U8d5e\\U4e86 \\U6211\\U5bb6\\U70e4\\U7bb1\\U6ca1\\U6709\\U6e29\\U5ea6\\U663e\\U793a \\U5c31\\U662f\\U51ed\\U611f\\U89c9\\U6765\\U5427 \\U7b2c\\U4e00\\U6b21\\U505a\\U7117\\U996d \\U611f\\U8c22\\U5206\\U4eab\\Uff01\";\n        }\n    );\n    ia = 0;\n    id = 6600178;\n    \"ip_address_location\" = \"\";\n    like = 0;\n    \"like_count\" = 0;\n    \"reply_id\" = 0;\n    \"sticker_icon\" =     (\n    );\n    time = \"2019-05-17 18:34:09\";\n    u =     {\n        \"followers_count_text\" = \"\";\n        id = 23724643;\n        \"is_prime\" = 0;\n        lv = 0;\n        lvl = 1;\n        n = \"\\U8c46\\U7c898241986563\";\n        p = \"\";\n        \"progress_image\" = \"\";\n        \"recipes_count_text\" = \"\";\n        relationship = \"-1\";\n        title = \"\";\n        v = 0;\n        \"verified_image\" = \"\";\n    };\n}",
        "{\n    ac = \"#999999\";\n    at = \"\";\n    ccc = 1;\n    \"child_comments\" =     (\n                {\n            ac = \"#999999\";\n            at = \"\\U6f33\\U5dde\\U5e02\";\n            ccc = 0;\n            city = \"\\U6f33\\U5dde\\U5e02\";\n            cmc = 2;\n            content =             (\n                                {\n                    c = \" \\U70e4\\U9762\\U5305\\U70e4\\U86cb\\U7cd5\\U505a\\U83dc\\U54c8\\U54c8\\U54c8\\U54c8\\U54c8\\U54c8\";\n                }\n            );\n            ia = 1;\n            id = 6584842;\n            \"ip_address_location\" = \"\";\n            like = 0;\n            \"like_count\" = 0;\n            \"reply_id\" = 6584317;\n            \"reply_user\" =             {\n                \"followers_count_text\" = \"\";\n                id = 18553560;\n                \"is_prime\" = 0;\n                lv = 0;\n                lvl = 1;\n                n = \"\\U8fa3\\U5988\\U5a23\\U59d0\";\n                p = \"http:\/\/tx1.douguo.net\/upload\/photo\/8\/e\/9\/70_u85273113653217202335.jpg\";\n                \"progress_image\" = \"\";\n                \"recipes_count_text\" = \"\";\n                relationship = \"-1\";\n                title = \"\";\n                v = 0;\n                \"verified_image\" = \"\";\n            };\n            \"sticker_icon\" =             (\n            );\n            time = \"2019-05-10 17:04:49\";\n            u =             {\n                \"followers_count_text\" = \"\";\n                id = 21824178;\n                \"is_prime\" = 0;\n                lv = 0;\n                lvl = 5;\n                n = \"\\U65e9\\U5b89\\U8bb0\";\n                p = \"http:\/\/tx1.douguo.net\/upload\/photo\/6\/9\/7\/70_u22071277560521135456.jpeg\";\n                \"progress_image\" = \"\";\n                \"recipes_count_text\" = \"\";\n                relationship = \"-1\";\n                title = \"\";\n                v = 0;\n                \"verified_image\" = \"\";\n            };\n        }\n    );\n    city = \"\";\n    cmc = 2;\n    content =     (\n                {\n            c = \"\\U5e73\\U5e38\\U70e4\\U7bb1\\U600e\\U4e48\\U4e2a\\U7528\\U6cd5\\Uff1f\";\n        }\n    );\n    ia = 0;\n    id = 6584317;\n    \"ip_address_location\" = \"\";\n    like = 0;\n    \"like_count\" = 0;\n    \"reply_id\" = 0;\n    \"sticker_icon\" =     (\n    );\n    time = \"2019-05-10 12:15:53\";\n    u =     {\n        \"followers_count_text\" = \"\";\n        id = 18553560;\n        \"is_prime\" = 0;\n        lv = 0;\n        lvl = 1;\n        n = \"\\U8fa3\\U5988\\U5a23\\U59d0\";\n        p = \"http:\/\/tx1.douguo.net\/upload\/photo\/8\/e\/9\/70_u85273113653217202335.jpg\";\n        \"progress_image\" = \"\";\n        \"recipes_count_text\" = \"\";\n        relationship = \"-1\";\n        title = \"\";\n        v = 0;\n        \"verified_image\" = \"\";\n    };\n}",
        "{\n    ac = \"#999999\";\n    at = \"\";\n    ccc = 1;\n    \"child_comments\" =     (\n                {\n            ac = \"#999999\";\n            at = \"\\U6f33\\U5dde\\U5e02\";\n            ccc = 0;\n            city = \"\\U6f33\\U5dde\\U5e02\";\n            cmc = 2;\n            content =             (\n                                {\n                    c = \" \\U6211\\U4e5f\\U662f\\U54c8\\U54c8\\U54c8\\U54c8\";\n                }\n            );\n            ia = 1;\n            id = 6582300;\n            \"ip_address_location\" = \"\";\n            like = 0;\n            \"like_count\" = 0;\n            \"reply_id\" = 6581954;\n            \"reply_user\" =             {\n                \"followers_count_text\" = \"\";\n                id = 18498425;\n                \"is_prime\" = 0;\n                lv = 0;\n                lvl = 3;\n                n = wl121;\n                p = \"http:\/\/tx1.douguo.net\/upload\/photo\/f\/8\/8\/70_u15613467160660408172433.jpg\";\n                \"progress_image\" = \"\";\n                \"recipes_count_text\" = \"\";\n                relationship = \"-1\";\n                title = \"\";\n                v = 0;\n                \"verified_image\" = \"\";\n            };\n            \"sticker_icon\" =             (\n            );\n            time = \"2019-05-09 13:41:02\";\n            u =             {\n                \"followers_count_text\" = \"\";\n                id = 21824178;\n                \"is_prime\" = 0;\n                lv = 0;\n                lvl = 5;\n                n = \"\\U65e9\\U5b89\\U8bb0\";\n                p = \"http:\/\/tx1.douguo.net\/upload\/photo\/6\/9\/7\/70_u22071277560521135456.jpeg\";\n                \"progress_image\" = \"\";\n                \"recipes_count_text\" = \"\";\n                relationship = \"-1\";\n                title = \"\";\n                v = 0;\n                \"verified_image\" = \"\";\n            };\n        }\n    );\n    city = \"\";\n    cmc = 2;\n    content =     (\n                {\n            c = \"\\U6bcf\\U5929\\U90fd\\U6765\\U8c46\\U679c\\U8f6c\\U8f6c\\Uff0c\\U8fd9\\U6837\\U5c31\\U80fd\\U7ed9\\U6211\\U7075\\U611f\\U89e3\\U51b3\\U5403\\U4ec0\\U4e48\\U8fd9\\U4e2a\\U4eba\\U751f\\U96be\\U9898\";\n        }\n    );\n    ia = 0;\n    id = 6581954;\n    \"ip_address_location\" = \"\";\n    like = 0;\n    \"like_count\" = 0;\n    \"reply_id\" = 0;\n    \"sticker_icon\" =     (\n    );\n    time = \"2019-05-09 10:42:09\";\n    u =     {\n        \"followers_count_text\" = \"\";\n        id = 18498425;\n        \"is_prime\" = 0;\n        lv = 0;\n        lvl = 3;\n        n = wl121;\n        p = \"http:\/\/tx1.douguo.net\/upload\/photo\/f\/8\/8\/70_u15613467160660408172433.jpg\";\n        \"progress_image\" = \"\";\n        \"recipes_count_text\" = \"\";\n        relationship = \"-1\";\n        title = \"\";\n        v = 0;\n        \"verified_image\" = \"\";\n    };\n}"
      ],
      "dish_count" : 2,
      "cookstorys" : [
        {
          "color" : "",
          "id" : 0,
          "icon" : "",
          "c" : "吃惯了传统的大米饭，今天换个吃法，做道香浓拉丝的芝士焗饭噢，加上牛肉丸的香气，完美~",
          "type" : 0,
          "u" : ""
        }
      ],
      "minor" : [

      ],
      "dishes" : [

      ],
      "ssu" : "",
      "ipia" : [

      ],
      "release_time" : "",
      "rpid" : 0,
      "rsm" : "该功能暂停使用",
      "cook_time_image" : "https:\/\/i1.douguo.com\/upload\/banner\/1551424341.png",
      "rips" : 0,
      "views_count_text" : "31.5万",
      "ph" : 800,
      "brand_day_dsp" : [

      ],
      "ecs" : 0,
      "sc" : 0,
      "cookwares" : [

      ],
      "levelid" : 2,
      "recipe_tags" : [

      ],
      "tips" : "1.炒配料时如果太干可适当加一些水，汤汁渗入到米饭里会更好吃。\n2.牛肉丸可以换成其他丸子或者鸡肉丁等任意你喜欢的肉肉。\n3.由于烤箱温差不同烤的时间也会有些差异，等到芝士表面变得金黄就可以啦。",
      "ipci" : "",
      "mid_mdsp" : [

      ],
      "hqu" : "recipes:\/\/www.douguo.com\/notedetail?id=21162253",
      "rrpt" : "",
      "photo_path" : "https:\/\/i1.douguo.com\/upload\/caiku\/c\/9\/f\/600_c9017a92fa69f589807d2e67c06e0bef.jpeg",
      "recommendation_tag" : "",
      "cook_difficulty_image" : "https:\/\/i1.douguo.com\/upload\/banner\/1551424390.png",
      "hq" : 1,
      "guide_image" : "",
      "favo_counts" : 3764,
      "ipoi" : "",
      "vc" : "315291",
      "create_time" : "2019-05-08 21:28:04",
      "purl" : "",
      "tags" : [

      ],
      "author" : "早安记",
      "share_info" : {
        "s_u" : "http:\/\/m.douguo.com\/cookbook\/2297213.html",
        "infos" : [
          {
            "channel" : "1",
            "mini_program" : [

            ],
            "name" : "芝士肉丸焗饭-会做饭很酷!",
            "qr_image" : "",
            "object_id" : "2297213",
            "image" : "https:\/\/cp1.douguo.com\/upload\/caiku\/c\/9\/f\/c9017a92fa69f589807d2e67c06e0bef.jpeg",
            "s_d" : "#学做饭用豆果美食# 会做饭真是太酷了！我在@豆果美食 分享了【芝士肉丸焗饭-会做饭很酷!】，看着是不是馋到不行呢～快来跟我学学吧！查看图片了解菜谱，（想要获取更多美食就看这https:\/\/m.weibo.cn\/p\/100404i33631）",
            "s_u" : ""
          },
          {
            "qr_image" : "",
            "channel" : "7",
            "object_id" : "2297213",
            "mini_program" : [

            ],
            "s_d" : "芝士肉丸焗饭-会做饭很酷!",
            "image" : "https:\/\/cp1.douguo.com\/upload\/caiku\/c\/9\/f\/c9017a92fa69f589807d2e67c06e0bef.jpeg",
            "name" : "芝士肉丸焗饭-会做饭很酷!",
            "s_u" : "http:\/\/m.douguo.com\/cookbook\/2297213.html"
          },
          {
            "mini_program" : [

            ],
            "qr_image" : "",
            "s_d" : "芝士肉丸焗饭-会做饭很酷!",
            "channel" : "8",
            "s_u" : "http:\/\/m.douguo.com\/cookbook\/2297213.html",
            "name" : "芝士肉丸焗饭-会做饭很酷!",
            "image" : "https:\/\/cp1.douguo.com\/upload\/caiku\/c\/9\/f\/c9017a92fa69f589807d2e67c06e0bef.jpeg",
            "object_id" : "2297213"
          }
        ],
        "qr_image" : "",
        "s_d" : "芝士肉丸焗饭-会做饭很酷!",
        "mini_program" : [

        ],
        "image" : "https:\/\/cp1.douguo.com\/upload\/caiku\/c\/9\/f\/c9017a92fa69f589807d2e67c06e0bef.jpeg",
        "object_id" : "2297213",
        "name" : "芝士肉丸焗饭-会做饭很酷!"
      },
      "rate_count" : 2,
      "title_ad" : [

      ],
      "recipe_list_tags" : [
        {
          "background_start_color" : "#F4F5F5",
          "text_color" : "#141515",
          "right_image" : "",
          "text" : "关注的人",
          "jump_url" : "",
          "background_end_color" : "#F4F5F5",
          "background_border_color" : ""
        },
        {
          "text" : "内容详细",
          "background_start_color" : "#F4F5F5",
          "background_end_color" : "#F4F5F5",
          "right_image" : "",
          "text_color" : "#141515",
          "background_border_color" : "",
          "jump_url" : ""
        }
      ],
      "notes" : [

      ],
      "old_comments" : [

      ],
      "author_id" : 21824178
    }
  },
  "status" : 0,
  "state" : "success"
}