{
  "result" : {
    "recipe" : {
      "user" : {
        "avatar_medium" : "http:\/\/tx1.douguo.net\/upload\/photo\/4\/c\/f\/140_u1692310349721143629.jpg",
        "verified_image" : "https:\/\/i1.douguo.com\/upload\/note\/d\/a\/a\/da84247847aebe48d9dd0fcdac88862a.png",
        "sign" : "",
        "setted_email" : 0,
        "regist_time" : "",
        "fc" : 0,
        "introduction" : "",
        "location" : 0,
        "pc" : 0,
        "is_prime" : 0,
        "point" : 0,
        "dishes_count" : 0,
        "progress_image" : "",
        "gender" : 2,
        "qq_weibo_nick" : "",
        "mobile" : "",
        "lvl" : 7,
        "user_large_photo" : "http:\/\/tx1.douguo.net\/upload\/photo\/4\/c\/f\/yuan_u1692310349721143629.jpg",
        "birthday" : "",
        "verified" : 1,
        "user_cover" : "",
        "user_id" : "7195201",
        "nick" : "宝宝辅食微课堂",
        "favorites_count" : 0,
        "lv" : 0,
        "subscription_article_count" : 0,
        "followers_count" : 0,
        "email" : "",
        "diaries_count" : 0,
        "verified_url" : "https:\/\/m.douguo.com\/user\/prodesc",
        "age" : "",
        "userid" : "7195201",
        "recipes_count" : 0,
        "favor_diaries_count" : 0,
        "following_count" : 0,
        "coursecount" : 0,
        "qzone_nick" : "",
        "subscription" : 0,
        "weibo_nick" : "",
        "user_photo" : "http:\/\/tx1.douguo.net\/upload\/photo\/4\/c\/f\/70_u1692310349721143629.jpg"
      },
      "release_time" : "",
      "rips" : 0,
      "levelid" : 2,
      "ipci" : "",
      "recipe_list_tags" : [
        {
          "text_color" : "#141515",
          "jump_url" : "",
          "background_end_color" : "#F4F5F5",
          "background_border_color" : "",
          "background_start_color" : "#F4F5F5",
          "text" : "关注的人",
          "right_image" : ""
        },
        {
          "background_end_color" : "#F4F5F5",
          "right_image" : "",
          "text" : "内容详细",
          "background_border_color" : "",
          "text_color" : "#141515",
          "jump_url" : "",
          "background_start_color" : "#F4F5F5"
        }
      ],
      "recommended" : 0,
      "recommend_label" : "4人学做",
      "ecs" : 0,
      "sr" : "",
      "rrps" : [

      ],
      "packages_id" : [

      ],
      "cookstory" : "【鸡汁土豆泥】参考月龄：8个月+\n土豆可以说是最接地气、最百搭的食材了。今天我用它做了一道特别有颜值的宝宝版“冰淇淋”，口感绵糯细腻，入口即化，吃上一口，绝对让宝宝立马爱上它！",
      "pw" : 1280,
      "rrpt" : "",
      "ph" : 720,
      "recipe_tags" : [

      ],
      "rate_count" : 4,
      "major" : [
        {
          "note" : "150克",
          "title" : "土豆",
          "tu" : "https:\/\/m.douguo.com\/ingredients\/土豆\/detailmaterial"
        },
        {
          "title" : "鸡胸肉",
          "tu" : "https:\/\/m.douguo.com\/ingredients\/鸡胸肉\/detailmaterial",
          "note" : "20克"
        }
      ],
      "rate" : 4,
      "cook_time" : "",
      "rpid" : 0,
      "rsm" : "该功能暂停使用",
      "cook_difficulty" : "",
      "image" : "http:\/\/i1.douguo.net\/upload\/caiku\/b\/6\/f\/300_b6337735be2ad5fbfacb80c74d70fc9f.jpg",
      "v_u" : "",
      "share_info" : {
        "mini_program" : [

        ],
        "object_id" : "1696188",
        "qr_image" : "",
        "name" : "预防便秘、入口即化！天热吃它比吃冰淇淋健康10倍！-会做饭很酷!",
        "s_d" : "预防便秘、入口即化！天热吃它比吃冰淇淋健康10倍！-会做饭很酷!",
        "image" : "https:\/\/cp1.douguo.com\/upload\/caiku\/b\/6\/f\/b6337735be2ad5fbfacb80c74d70fc9f.jpg",
        "s_u" : "http:\/\/m.douguo.com\/cookbook\/1696188.html",
        "infos" : [
          {
            "mini_program" : [

            ],
            "s_d" : "#学做饭用豆果美食# 我在@豆果美食 分享了【预防便秘、入口即化！天热吃它比吃冰淇淋健康10倍！-会做饭很酷!】，色香味俱全说的就是这道菜！查看图片了解菜谱（快来点击https:\/\/m.weibo.cn\/p\/100404i33631和我一起修炼厨艺吧）#会做饭很酷# ",
            "image" : "https:\/\/cp1.douguo.com\/upload\/caiku\/b\/6\/f\/b6337735be2ad5fbfacb80c74d70fc9f.jpg",
            "name" : "预防便秘、入口即化！天热吃它比吃冰淇淋健康10倍！-会做饭很酷!",
            "object_id" : "1696188",
            "qr_image" : "",
            "channel" : "1",
            "s_u" : ""
          },
          {
            "channel" : "7",
            "qr_image" : "",
            "object_id" : "1696188",
            "mini_program" : [

            ],
            "image" : "https:\/\/cp1.douguo.com\/upload\/caiku\/b\/6\/f\/b6337735be2ad5fbfacb80c74d70fc9f.jpg",
            "s_u" : "http:\/\/m.douguo.com\/cookbook\/1696188.html",
            "name" : "预防便秘、入口即化！天热吃它比吃冰淇淋健康10倍！-会做饭很酷!",
            "s_d" : "预防便秘、入口即化！天热吃它比吃冰淇淋健康10倍！-会做饭很酷!"
          },
          {
            "s_u" : "http:\/\/m.douguo.com\/cookbook\/1696188.html",
            "mini_program" : [

            ],
            "qr_image" : "",
            "image" : "https:\/\/cp1.douguo.com\/upload\/caiku\/b\/6\/f\/b6337735be2ad5fbfacb80c74d70fc9f.jpg",
            "channel" : "8",
            "s_d" : "预防便秘、入口即化！天热吃它比吃冰淇淋健康10倍！-会做饭很酷!",
            "object_id" : "1696188",
            "name" : "预防便秘、入口即化！天热吃它比吃冰淇淋健康10倍！-会做饭很酷!"
          }
        ]
      },
      "hq" : 1,
      "favo_counts_text" : "1.2万",
      "ipt" : "",
      "tags" : [

      ],
      "author_verified" : 1,
      "ss" : [

      ],
      "ipoi" : "",
      "vu" : "",
      "rpt" : "",
      "guide_image" : "",
      "old_comments" : [

      ],
      "comments_count" : 11,
      "notes" : [

      ],
      "top_mdsp" : [

      ],
      "cook_time_image" : "",
      "title_ad" : [

      ],
      "author_id" : 7195201,
      "rdsps" : [

      ],
      "first_level_comment_count" : 9,
      "cookwares" : [

      ],
      "advice" : {
        "da" : {
          "t" : "查看详细分析",
          "url" : "https:\/\/m.douguo.com\/recipe\/nutrient_self\/1696188",
          "iu" : "https:\/\/i1.douguo.com\/upload\/banner\/f\/4\/d\/f48877e53c37759bc12ac494be82ec8d.png"
        },
        "has" : [
          {
            "t" : "低脂",
            "url" : "recipes:\/\/www.douguo.com\/simplerecipelist?t=低脂&id=低脂"
          },
          {
            "url" : "recipes:\/\/www.douguo.com\/simplerecipelist?t=低饱和脂肪&id=低饱和脂肪",
            "t" : "低饱和脂肪"
          }
        ],
        "at" : "健身人群可以吃～"
      },
      "mid_mdsp" : [

      ],
      "collect_status" : 0,
      "minor" : [

      ],
      "comments" : [
        "{\n    ac = \"#999999\";\n    at = \"\\U6f2f\\U6cb3\\U5e02\";\n    ccc = 1;\n    \"child_comments\" =     (\n                {\n            ac = \"#999999\";\n            at = \"\";\n            ccc = 0;\n            city = \"\";\n            cmc = 2;\n            content =             (\n                                {\n                    c = \" \\U4e00\\U5c81\\U4ee5\\U5185\\U90fd\\U4e0d\\U9700\\U8981\\U653e\\U76d0\\Uff01\\U4f60\\U53ef\\U4ee5\\U52a0\\U70b9\\U9999\\U83c7\\U7c89\\Uff0c\\U867e\\U76ae\\U7c89\\U4e4b\\U7c7b\\U7684\\U8c03\\U5473\";\n                }\n            );\n            ia = 0;\n            id = 7821042;\n            \"ip_address_location\" = \"\";\n            like = 0;\n            \"like_count\" = 0;\n            \"reply_id\" = 5943290;\n            \"reply_user\" =             {\n                \"followers_count_text\" = \"\";\n                id = 7591156;\n                \"is_prime\" = 0;\n                lv = 0;\n                lvl = 1;\n                n = \"\\U65b0\\U4e00_\\U5feb\\U5230\\U6000\\U91cc\\U6765\";\n                p = \"\";\n                \"progress_image\" = \"\";\n                \"recipes_count_text\" = \"\";\n                relationship = \"-1\";\n                title = \"\";\n                v = 0;\n                \"verified_image\" = \"\";\n            };\n            \"sticker_icon\" =             (\n            );\n            time = \"2020-03-28 14:22:27\";\n            u =             {\n                \"followers_count_text\" = \"\";\n                id = 25238027;\n                \"is_prime\" = 0;\n                lv = 0;\n                lvl = 1;\n                n = \"\\U5f20\\U5f71\\U624b\\U5de5\\U8f85\\U98df\\U96f6\\U98df\\U963f\\U80f6\\U7cd5\";\n                p = \"http:\/\/tx1.douguo.net\/upload\/photo\/1\/1\/1\/70_004976861ec13b4af62b1d8db8c5c9f7.png\";\n                \"progress_image\" = \"\";\n                \"recipes_count_text\" = \"\";\n                relationship = \"-1\";\n                title = \"\";\n                v = 0;\n                \"verified_image\" = \"\";\n            };\n        }\n    );\n    city = \"\\U6f2f\\U6cb3\\U5e02\";\n    cmc = 2;\n    content =     (\n                {\n            c = \"\\U9700\\U8981\\U653e\\U70b9\\U76d0\\U4e48\\Uff1f\";\n        }\n    );\n    ia = 0;\n    id = 5943290;\n    \"ip_address_location\" = \"\";\n    like = 0;\n    \"like_count\" = 2;\n    \"reply_id\" = 0;\n    \"sticker_icon\" =     (\n    );\n    time = \"2018-08-16 13:18:06\";\n    u =     {\n        \"followers_count_text\" = \"\";\n        id = 7591156;\n        \"is_prime\" = 0;\n        lv = 0;\n        lvl = 1;\n        n = \"\\U65b0\\U4e00_\\U5feb\\U5230\\U6000\\U91cc\\U6765\";\n        p = \"\";\n        \"progress_image\" = \"\";\n        \"recipes_count_text\" = \"\";\n        relationship = \"-1\";\n        title = \"\";\n        v = 0;\n        \"verified_image\" = \"\";\n    };\n}",
        "{\n    ac = \"#999999\";\n    at = \"\\U7126\\U4f5c\\U5e02\";\n    ccc = 1;\n    \"child_comments\" =     (\n                {\n            ac = \"#999999\";\n            at = \"\";\n            ccc = 0;\n            city = \"\";\n            cmc = 2;\n            content =             (\n                                {\n                    c = \" \\U5b9d\\U5b9d\\U4e00\\U5c81\\U524d\\U4e0d\\U80fd\\U5403\\U76d0\";\n                }\n            );\n            ia = 0;\n            id = 8127071;\n            \"ip_address_location\" = \"\";\n            like = 0;\n            \"like_count\" = 0;\n            \"reply_id\" = 7895188;\n            \"reply_user\" =             {\n                \"followers_count_text\" = \"\";\n                id = 25344588;\n                \"is_prime\" = 0;\n                lv = 0;\n                lvl = 1;\n                n = \"\\U5f00\\U4e0d\\U8d77\\U73a9\\U7b11\\U7684\\U732a\\U809a\";\n                p = \"http:\/\/tx1.douguo.net\/upload\/photo\/1\/1\/1\/70_5ca73933f29e59327551fed62986394f.png\";\n                \"progress_image\" = \"\";\n                \"recipes_count_text\" = \"\";\n                relationship = \"-1\";\n                title = \"\";\n                v = 0;\n                \"verified_image\" = \"\";\n            };\n            \"sticker_icon\" =             (\n            );\n            time = \"2020-07-07 16:50:00\";\n            u =             {\n                \"followers_count_text\" = \"\";\n                id = 17395788;\n                \"is_prime\" = 0;\n                lv = 0;\n                lvl = 1;\n                n = \"\\U964c\\U5c1b\\U58a8\";\n                p = \"\";\n                \"progress_image\" = \"\";\n                \"recipes_count_text\" = \"\";\n                relationship = \"-1\";\n                title = \"\";\n                v = 0;\n                \"verified_image\" = \"\";\n            };\n        }\n    );\n    city = \"\\U7126\\U4f5c\\U5e02\";\n    cmc = 2;\n    content =     (\n                {\n            c = \"\\U4e0d\\U7528\\U8c03\\U5473\\U5417\\Uff1f\\n\";\n        }\n    );\n    ia = 0;\n    id = 7895188;\n    \"ip_address_location\" = \"\";\n    like = 0;\n    \"like_count\" = 0;\n    \"reply_id\" = 0;\n    \"sticker_icon\" =     (\n    );\n    time = \"2020-04-19 19:36:15\";\n    u =     {\n        \"followers_count_text\" = \"\";\n        id = 25344588;\n        \"is_prime\" = 0;\n        lv = 0;\n        lvl = 1;\n        n = \"\\U5f00\\U4e0d\\U8d77\\U73a9\\U7b11\\U7684\\U732a\\U809a\";\n        p = \"http:\/\/tx1.douguo.net\/upload\/photo\/1\/1\/1\/70_5ca73933f29e59327551fed62986394f.png\";\n        \"progress_image\" = \"\";\n        \"recipes_count_text\" = \"\";\n        relationship = \"-1\";\n        title = \"\";\n        v = 0;\n        \"verified_image\" = \"\";\n    };\n}",
        "{\n    ac = \"#999999\";\n    at = \"\";\n    ccc = 0;\n    \"child_comments\" =     (\n    );\n    city = \"\";\n    cmc = 2;\n    content =     (\n                {\n            c = \"\\U91cd\\U65b0\\U71c3\\U8d77\\U4e86\\U6211\\U8fdb\\U53a8\\U623f\\U7684\\U5e0c\\U671b\";\n        }\n    );\n    ia = 0;\n    id = 5912256;\n    \"ip_address_location\" = \"\";\n    like = 0;\n    \"like_count\" = 1;\n    \"reply_id\" = 0;\n    \"sticker_icon\" =     (\n    );\n    time = \"2018-08-06 09:19:18\";\n    u =     {\n        \"followers_count_text\" = \"\";\n        id = 18468253;\n        \"is_prime\" = 0;\n        lv = 0;\n        lvl = 3;\n        n = \"\\U5403\\U8d27\\U5c0f\\U767d\\U83dccjy\";\n        p = \"http:\/\/tx1.douguo.net\/upload\/photo\/9\/3\/d\/70_u12607740309760408142459.jpg\";\n        \"progress_image\" = \"\";\n        \"recipes_count_text\" = \"\";\n        relationship = \"-1\";\n        title = \"\";\n        v = 0;\n        \"verified_image\" = \"\";\n    };\n}"
      ],
      "sc" : 0,
      "favo_counts" : 12359,
      "bs" : [

      ],
      "thumb_height" : 0,
      "rate_show" : 0,
      "related_ads" : [

      ],
      "original_photo_path" : "http:\/\/i1.douguo.net\/upload\/caiku\/b\/6\/f\/yuan_b6337735be2ad5fbfacb80c74d70fc9f.jpg",
      "thumb_path" : "https:\/\/i1.douguo.com\/upload\/caiku\/b\/6\/f\/300_b6337735be2ad5fbfacb80c74d70fc9f.jpg",
      "rcs" : [

      ],
      "story_dsp" : [

      ],
      "cookstep" : [
        {
          "frame" : "-1",
          "image_height" : 608,
          "position" : 1,
          "image_width" : 1080,
          "content" : "准备食材：土豆150克，鸡胸肉20克",
          "thumb" : "https:\/\/i1.douguo.com\/upload\/caiku\/7\/1\/9\/140_718c1cce8468a073aa1aef0440ad5b19.jpg",
          "image" : "https:\/\/i1.douguo.com\/upload\/caiku\/7\/1\/9\/718c1cce8468a073aa1aef0440ad5b19.jpg"
        },
        {
          "frame" : "-1",
          "image" : "https:\/\/i1.douguo.com\/upload\/caiku\/0\/9\/9\/0954f31449277b45b20c5f95573a0479.jpg",
          "content" : "土豆切小块。",
          "thumb" : "https:\/\/i1.douguo.com\/upload\/caiku\/0\/9\/9\/140_0954f31449277b45b20c5f95573a0479.jpg",
          "position" : 2,
          "image_width" : 1080,
          "image_height" : 608
        },
        {
          "thumb" : "https:\/\/i1.douguo.com\/upload\/caiku\/5\/f\/9\/140_5fcd8dc1b21377e4f267ab2182116ca9.jpg",
          "image_height" : 608,
          "position" : 3,
          "frame" : "-1",
          "content" : "放入辅食机，蒸20分钟。",
          "image" : "https:\/\/i1.douguo.com\/upload\/caiku\/5\/f\/9\/5fcd8dc1b21377e4f267ab2182116ca9.jpg",
          "image_width" : 1080
        },
        {
          "image_width" : 1080,
          "content" : "鸡胸肉斜切小块。",
          "position" : 4,
          "thumb" : "https:\/\/i1.douguo.com\/upload\/caiku\/a\/0\/3\/140_a0a16ef94d87588d94bb9457a6e6dbf3.jpg",
          "image_height" : 608,
          "frame" : "-1",
          "image" : "https:\/\/i1.douguo.com\/upload\/caiku\/a\/0\/3\/a0a16ef94d87588d94bb9457a6e6dbf3.jpg"
        },
        {
          "image_height" : 608,
          "frame" : "-1",
          "image" : "https:\/\/i1.douguo.com\/upload\/caiku\/0\/d\/1\/0d074b2a7e65a17a3fb9007ba05f4471.jpg",
          "image_width" : 1080,
          "content" : "将切好的鸡胸肉块放入冷水锅中，再放入生姜片。\n\n»放入生姜片可以去腥哦~",
          "thumb" : "https:\/\/i1.douguo.com\/upload\/caiku\/0\/d\/1\/140_0d074b2a7e65a17a3fb9007ba05f4471.jpg",
          "position" : 5
        },
        {
          "frame" : "-1",
          "image_height" : 315,
          "content" : "煮至水开，中途撇去浮沫。",
          "image" : "https:\/\/i1.douguo.com\/upload\/caiku\/3\/6\/d\/364414eb23890319a30f72e65fdfe7fd.gif",
          "image_width" : 560,
          "thumb" : "https:\/\/i1.douguo.com\/upload\/caiku\/3\/6\/d\/364414eb23890319a30f72e65fdfe7fd.gif",
          "position" : 6
        },
        {
          "frame" : "-1",
          "image_height" : 315,
          "image" : "https:\/\/i1.douguo.com\/upload\/caiku\/a\/b\/7\/ab79d8257d3dd67bef2abd27f89eaa57.gif",
          "content" : "再煮5分钟，煮至熟透。\n\n»给宝宝吃的食物，尽量煮熟煮透哦~",
          "position" : 7,
          "image_width" : 560,
          "thumb" : "https:\/\/i1.douguo.com\/upload\/caiku\/a\/b\/7\/ab79d8257d3dd67bef2abd27f89eaa57.gif"
        },
        {
          "image" : "https:\/\/i1.douguo.com\/upload\/caiku\/e\/c\/9\/ec284626a0904ef1c47c17294ba6cfc9.jpg",
          "image_height" : 608,
          "position" : 8,
          "content" : "辅食机内依次倒入土豆、鸡胸肉搅打成泥。",
          "thumb" : "https:\/\/i1.douguo.com\/upload\/caiku\/e\/c\/9\/140_ec284626a0904ef1c47c17294ba6cfc9.jpg",
          "image_width" : 1080,
          "frame" : "-1"
        },
        {
          "position" : 9,
          "frame" : "-1",
          "content" : "搅打后更细腻哦~",
          "image_height" : 315,
          "image_width" : 560,
          "thumb" : "https:\/\/i1.douguo.com\/upload\/caiku\/8\/f\/8\/8fad05511b62a43f33d4fa0b1db591d8.gif",
          "image" : "https:\/\/i1.douguo.com\/upload\/caiku\/8\/f\/8\/8fad05511b62a43f33d4fa0b1db591d8.gif"
        },
        {
          "thumb" : "https:\/\/i1.douguo.com\/upload\/caiku\/c\/0\/b\/140_c0b254f44a687a4465a8b25f1d14ceeb.jpg",
          "frame" : "-1",
          "image_width" : 1080,
          "image" : "https:\/\/i1.douguo.com\/upload\/caiku\/c\/0\/b\/c0b254f44a687a4465a8b25f1d14ceeb.jpg",
          "content" : "将土豆泥装入裱花袋。\n\n»裱花袋中先放入裱花嘴，如果没有的话也可以不放。",
          "position" : 10,
          "image_height" : 608
        },
        {
          "image_height" : 608,
          "image_width" : 1080,
          "image" : "https:\/\/i1.douguo.com\/upload\/caiku\/7\/8\/2\/7836b13cf4bb7eb0421ac26b2d3f3132.jpg",
          "position" : 11,
          "thumb" : "https:\/\/i1.douguo.com\/upload\/caiku\/7\/8\/2\/140_7836b13cf4bb7eb0421ac26b2d3f3132.jpg",
          "frame" : "-1",
          "content" : "剪小口，露出裱花嘴。\n\n»妈妈们注意哦，如果裱花袋没有套裱花嘴，裱花袋剪的口子越小，挤出来的花纹就越小，反之则越粗。"
        },
        {
          "image_height" : 315,
          "frame" : "-1",
          "thumb" : "https:\/\/i1.douguo.com\/upload\/caiku\/a\/d\/1\/ad57057c9dd8106ce1bebd8c57874201.gif",
          "image" : "https:\/\/i1.douguo.com\/upload\/caiku\/a\/d\/1\/ad57057c9dd8106ce1bebd8c57874201.gif",
          "image_width" : 560,
          "position" : 12,
          "content" : "将土豆泥挤入碗中。"
        },
        {
          "image_width" : 1080,
          "content" : "撒点西兰花碎稍微装饰一下。",
          "position" : 13,
          "thumb" : "https:\/\/i1.douguo.com\/upload\/caiku\/7\/8\/c\/140_78b2a665af757208e9461a91e444424c.jpg",
          "frame" : "-1",
          "image_height" : 608,
          "image" : "https:\/\/i1.douguo.com\/upload\/caiku\/7\/8\/c\/78b2a665af757208e9461a91e444424c.jpg"
        },
        {
          "thumb" : "https:\/\/i1.douguo.com\/upload\/caiku\/9\/5\/d\/140_95f5be48887a01629b16ec6ef6af359d.jpg",
          "position" : 14,
          "image_height" : 720,
          "image_width" : 1280,
          "frame" : "-1",
          "image" : "https:\/\/i1.douguo.com\/upload\/caiku\/9\/5\/d\/95f5be48887a01629b16ec6ef6af359d.jpg",
          "content" : "这个土豆泥不仅好吃到爆，制作简单，而且营养也满满的，吃上一口，满嘴的土豆香，还留有鸡肉的味道，让宝宝停不下嘴。"
        }
      ],
      "clicks" : "3060097",
      "dishes" : [

      ],
      "tips" : "添加要领：\n●妈妈们要注意哦，建议先将鸡汁土豆泥放置常温后，再用裱花袋挤花纹，纹路更加清晰好看~\n●土豆泥上面可以加一点自制的番茄酱或者沙拉酱，让“冰淇淋”更漂亮、更美味。\n\n黄妈说：\n在辅食社群里，我经常看到妈妈们的各种吐槽：有的说宝宝只吃肉不爱吃蔬菜；有的宝宝却特爱吃蔬菜不爱吃肉。\n妈妈们要知道肉类和蔬菜一起吃才更健康，所以像今天这样的搭配就可以巧妙的解决这个问题啦：\n1.把肉藏进蔬菜里，不爱吃肉的宝宝就愿意吃啦。\n2.把蔬菜换个造型，变成宝宝当下最爱的“甜品”或“冰淇淋”，宝宝就会“啊呜啊呜”的吃进去啦。\n同样的食物，换个造型，宝宝或许就愿意接受啦！",
      "title" : "预防便秘、入口即化！天热吃它比吃冰淇淋健康10倍！",
      "ssu" : "",
      "ipit" : 0,
      "recent_comments" : [

      ],
      "cookstorys" : [
        {
          "u" : "",
          "type" : 0,
          "color" : "",
          "id" : 0,
          "icon" : "",
          "c" : "【鸡汁土豆泥】参考月龄：8个月+\n土豆可以说是最接地气、最百搭的食材了。今天我用它做了一道特别有颜值的宝宝版“冰淇淋”，口感绵糯细腻，入口即化，吃上一口，绝对让宝宝立马爱上它！"
        }
      ],
      "ipurl" : "",
      "recommendation_tag" : "",
      "brand_day_dsp" : [

      ],
      "views_count_text" : "312.4万",
      "eu" : "recipes:\/\/www.douguo.com\/postdetail?id=242016",
      "rewarded_video_dsp" : [

      ],
      "hqu" : "recipes:\/\/www.douguo.com\/notedetail?id=21162253",
      "ipia" : [

      ],
      "author" : "宝宝辅食微课堂",
      "purl" : "",
      "vfurl" : "",
      "dish_count_text" : "4",
      "comments_count_text" : "11",
      "photo_path" : "https:\/\/i1.douguo.com\/upload\/caiku\/b\/6\/f\/600_b6337735be2ad5fbfacb80c74d70fc9f.jpg",
      "cook_id" : "1696188",
      "vc" : "3124306",
      "btm_dsp" : [

      ],
      "dish_count" : 4,
      "rpst" : "",
      "act_des" : "",
      "author_photo" : "http:\/\/tx1.douguo.net\/upload\/photo\/4\/c\/f\/70_u1692310349721143629.jpg",
      "create_time" : "2018-08-04 16:02:18",
      "su" : "",
      "display_ingredient" : 1,
      "cook_difficulty_image" : ""
    }
  },
  "status" : 0,
  "state" : "success"
}