{
  "status" : 0,
  "result" : {
    "recipe" : {
      "cook_difficulty_image" : "https:\/\/i1.douguo.com\/upload\/banner\/1551424413.png",
      "eu" : "recipes:\/\/www.douguo.com\/postdetail?id=242016",
      "rewarded_video_dsp" : [

      ],
      "cookstep" : [
        {
          "thumb" : "https:\/\/i1.douguo.com\/upload\/caiku\/4\/9\/d\/140_495188ebcd59242fee47eb0f69e23f2d.jpeg",
          "image_height" : 1920,
          "position" : 1,
          "frame" : "-1",
          "image_width" : 1920,
          "content" : "1、鲜蚝放锅中烫下水，看到缩了点就马上捞上来用凉水冲洗一下切成方型小块备用；\n2、五花肉剁碎备用。",
          "image" : "https:\/\/i1.douguo.com\/upload\/caiku\/4\/9\/d\/495188ebcd59242fee47eb0f69e23f2d.jpeg"
        },
        {
          "position" : 2,
          "image_height" : 1920,
          "image_width" : 1920,
          "frame" : "-1",
          "thumb" : "https:\/\/i1.douguo.com\/upload\/caiku\/a\/8\/3\/140_a81ec41e998715dc6226722b23cdfdf3.jpeg",
          "content" : "起油锅（多点油）放蚝爆炒2分钟再放肉末炒至干水，放适量盐、胡椒粉、黑椒粉装起备用",
          "image" : "https:\/\/i1.douguo.com\/upload\/caiku\/a\/8\/3\/a81ec41e998715dc6226722b23cdfdf3.jpeg"
        },
        {
          "position" : 3,
          "frame" : "-1",
          "image_width" : 1920,
          "image_height" : 1920,
          "thumb" : "https:\/\/i1.douguo.com\/upload\/caiku\/9\/6\/3\/140_96a50ab0cb689d111c06165721243f03.jpeg",
          "image" : "https:\/\/i1.douguo.com\/upload\/caiku\/9\/6\/3\/96a50ab0cb689d111c06165721243f03.jpeg",
          "content" : "1、香米要先浸泡30分钟以上；\n2、瓦锅（砂锅）刷上一层底油；\n3、倒米进去，加一点点盐，加适量的水（大约没过米一点点），大火烧开转中火煮大约10分钟左右（要留意水干没有）。"
        },
        {
          "image_height" : 1920,
          "image_width" : 1920,
          "thumb" : "https:\/\/i1.douguo.com\/upload\/caiku\/4\/b\/f\/140_4bb48f6f784b4d4e8a3ad22975717c1f.jpeg",
          "image" : "https:\/\/i1.douguo.com\/upload\/caiku\/4\/b\/f\/4bb48f6f784b4d4e8a3ad22975717c1f.jpeg",
          "content" : "接上一步，看到饭差不多干水了马上关火，把炒好的鲜蚝和肉末铺上去，用小勺子在锅边淋一圈油（猪油最香）盖好盖子。",
          "position" : 4,
          "frame" : "-1"
        },
        {
          "image_width" : 1920,
          "content" : "开中火转，前后左右的转一会锅。",
          "image" : "https:\/\/i1.douguo.com\/upload\/caiku\/8\/9\/8\/89c6bca360cb9a25c773e4d24df9dcf8.jpeg",
          "frame" : "-1",
          "position" : 5,
          "image_height" : 1920,
          "thumb" : "https:\/\/i1.douguo.com\/upload\/caiku\/8\/9\/8\/140_89c6bca360cb9a25c773e4d24df9dcf8.jpeg"
        },
        {
          "image_width" : 1920,
          "content" : "看到有白烟起了开盖往中间淋一勺生抽。",
          "image_height" : 1920,
          "frame" : "-1",
          "image" : "https:\/\/i1.douguo.com\/upload\/caiku\/0\/f\/7\/0f3ec53708cb31946ea85e2c87eacf97.jpeg",
          "position" : 6,
          "thumb" : "https:\/\/i1.douguo.com\/upload\/caiku\/0\/f\/7\/140_0f3ec53708cb31946ea85e2c87eacf97.jpeg"
        },
        {
          "frame" : "-1",
          "thumb" : "https:\/\/i1.douguo.com\/upload\/caiku\/0\/3\/8\/140_032798f3cdf927743fe5f27e162e91c8.jpeg",
          "position" : 7,
          "image" : "https:\/\/i1.douguo.com\/upload\/caiku\/0\/3\/8\/032798f3cdf927743fe5f27e162e91c8.jpeg",
          "content" : "再盖上盖子前后左右每隔10转一下锅，大约2、3分钟左右或闻到有点点焦味马上关火，别开盖子，焖10分钟就可以了。",
          "image_height" : 1920,
          "image_width" : 1920
        },
        {
          "thumb" : "https:\/\/i1.douguo.com\/upload\/caiku\/4\/5\/f\/140_451d12f44f67da5f2c4ec6ec10571daf.jpeg",
          "content" : "撒上香菜、葱就完成了！",
          "position" : 8,
          "image_width" : 1920,
          "frame" : "-1",
          "image_height" : 1920,
          "image" : "https:\/\/i1.douguo.com\/upload\/caiku\/4\/5\/f\/451d12f44f67da5f2c4ec6ec10571daf.jpeg"
        },
        {
          "thumb" : "https:\/\/i1.douguo.com\/upload\/caiku\/1\/4\/b\/140_14516cdf34c6a2a5ed9dbef2747f918b.jpeg",
          "frame" : "-1",
          "image" : "https:\/\/i1.douguo.com\/upload\/caiku\/1\/4\/b\/14516cdf34c6a2a5ed9dbef2747f918b.jpeg",
          "content" : "经过刚才的转锅，锅底下面就有了超香脆脆的黄金饭焦了（锅巴）",
          "position" : 9,
          "image_height" : 1920,
          "image_width" : 1920
        }
      ],
      "btm_dsp" : [

      ],
      "ipurl" : "",
      "author" : "会吃的会吃的鳄鱼",
      "packages_id" : [

      ],
      "recipe_tags" : [

      ],
      "tags" : [

      ],
      "author_id" : 9541811,
      "story_dsp" : [

      ],
      "vu" : "",
      "create_time" : "2018-10-17 21:12:59",
      "release_time" : "",
      "cookwares" : [

      ],
      "dish_count_text" : "",
      "recommend_label" : "5.7万人看过",
      "rcs" : [

      ],
      "su" : "",
      "thumb_path" : "https:\/\/i1.douguo.com\/upload\/caiku\/2\/7\/d\/300_275123b396a4ac98e19e8f023d32d6ed.jpeg",
      "rrps" : [

      ],
      "original_photo_path" : "http:\/\/i1.douguo.net\/upload\/caiku\/2\/7\/d\/yuan_275123b396a4ac98e19e8f023d32d6ed.jpeg",
      "ipit" : 0,
      "author_photo" : "http:\/\/tx1.douguo.net\/upload\/photo\/6\/e\/c\/70_u32365552810198122835.jpeg",
      "cook_time" : "30–60分钟",
      "comments_count" : 13,
      "dishes" : [

      ],
      "rate" : 0,
      "title" : "蚝饭煲仔饭瓦煲饭",
      "act_des" : "",
      "v_u" : "",
      "vfurl" : "",
      "notes" : [

      ],
      "cookstory" : "又到了吃鲜蚝的季节了！而我们广东这边的鲜蚝比较出名，出口世界各地。今天我来分享一下怎么在家做香喷喷的蚝饭！要是有更好更妙的方法请评论一下哦！",
      "old_comments" : [

      ],
      "favo_counts_text" : "340",
      "minor" : [

      ],
      "ipia" : [

      ],
      "rpt" : "",
      "cookstorys" : [
        {
          "icon" : "",
          "u" : "",
          "type" : 0,
          "c" : "又到了吃鲜蚝的季节了！而我们广东这边的鲜蚝比较出名，出口世界各地。今天我来分享一下怎么在家做香喷喷的蚝饭！要是有更好更妙的方法请评论一下哦！",
          "id" : 0,
          "color" : ""
        }
      ],
      "rate_show" : 0,
      "pw" : 1920,
      "author_verified" : 0,
      "rpid" : 0,
      "display_ingredient" : 1,
      "bs" : [

      ],
      "comments_count_text" : "13",
      "related_ads" : [

      ],
      "clicks" : "51948",
      "title_ad" : [

      ],
      "user" : {
        "sign" : "",
        "user_id" : "9541811",
        "gender" : 1,
        "is_prime" : 0,
        "qzone_nick" : "",
        "userid" : "9541811",
        "user_cover" : "",
        "verified" : 0,
        "setted_email" : 0,
        "progress_image" : "",
        "lv" : 0,
        "birthday" : "",
        "lvl" : 2,
        "user_photo" : "http:\/\/tx1.douguo.net\/upload\/photo\/6\/e\/c\/70_u32365552810198122835.jpeg",
        "introduction" : "",
        "avatar_medium" : "http:\/\/tx1.douguo.net\/upload\/photo\/6\/e\/c\/140_u32365552810198122835.jpeg",
        "pc" : 0,
        "subscription_article_count" : 0,
        "favorites_count" : 0,
        "coursecount" : 0,
        "favor_diaries_count" : 0,
        "point" : 0,
        "nick" : "会吃的会吃的鳄鱼",
        "age" : "",
        "user_large_photo" : "http:\/\/tx1.douguo.net\/upload\/photo\/6\/e\/c\/yuan_u32365552810198122835.jpeg",
        "fc" : 0,
        "diaries_count" : 0,
        "verified_image" : "",
        "recipes_count" : 0,
        "verified_url" : "https:\/\/m.douguo.com\/user\/prodesc",
        "qq_weibo_nick" : "",
        "weibo_nick" : "",
        "regist_time" : "",
        "followers_count" : 0,
        "mobile" : "",
        "email" : "",
        "dishes_count" : 0,
        "subscription" : 0,
        "following_count" : 0,
        "location" : 0
      },
      "favo_counts" : 340,
      "views_count_text" : "5.7万",
      "guide_image" : "",
      "rsm" : "该功能暂停使用",
      "image" : "http:\/\/i1.douguo.net\/upload\/caiku\/2\/7\/d\/300_275123b396a4ac98e19e8f023d32d6ed.jpeg",
      "cook_difficulty" : "配菜(中级)",
      "thumb_height" : 0,
      "ssu" : "",
      "sc" : 0,
      "dish_count" : 0,
      "mid_mdsp" : [

      ],
      "recommended" : 0,
      "brand_day_dsp" : [

      ],
      "photo_path" : "https:\/\/i1.douguo.com\/upload\/caiku\/2\/7\/d\/600_275123b396a4ac98e19e8f023d32d6ed.jpeg",
      "top_mdsp" : [

      ],
      "rpst" : "",
      "ph" : 1920,
      "advice" : {
        "at" : "不控制会变胖啊！！～",
        "da" : {
          "url" : "https:\/\/m.douguo.com\/recipe\/nutrient_self\/1710076",
          "iu" : "https:\/\/i1.douguo.com\/upload\/banner\/f\/4\/d\/f48877e53c37759bc12ac494be82ec8d.png",
          "t" : "查看详细分析"
        },
        "has" : [
          {
            "t" : "高脂肪",
            "url" : "recipes:\/\/www.douguo.com\/simplerecipelist?t=高脂肪&id=高脂肪"
          },
          {
            "url" : "recipes:\/\/www.douguo.com\/simplerecipelist?t=不含糖&id=不含糖",
            "t" : "不含糖"
          }
        ]
      },
      "ss" : [

      ],
      "ipoi" : "",
      "recent_comments" : [

      ],
      "ipci" : "",
      "tips" : "1、一定不要放太多水哦！少了可以后期加一点点，太多水的话饭会软，没有嚼劲的；\n2、生抽一点要淋中间哦，要不然锅巴会变黑。",
      "share_info" : {
        "mini_program" : [

        ],
        "s_u" : "http:\/\/m.douguo.com\/cookbook\/1710076.html",
        "name" : "蚝饭煲仔饭瓦煲饭-会做饭很酷!",
        "qr_image" : "",
        "object_id" : "1710076",
        "image" : "https:\/\/cp1.douguo.com\/upload\/caiku\/2\/7\/d\/275123b396a4ac98e19e8f023d32d6ed.jpeg",
        "s_d" : "蚝饭煲仔饭瓦煲饭-会做饭很酷!",
        "infos" : [
          {
            "mini_program" : [

            ],
            "s_u" : "",
            "image" : "https:\/\/cp1.douguo.com\/upload\/caiku\/2\/7\/d\/275123b396a4ac98e19e8f023d32d6ed.jpeg",
            "name" : "蚝饭煲仔饭瓦煲饭-会做饭很酷!",
            "qr_image" : "",
            "object_id" : "1710076",
            "s_d" : "#学做饭用豆果美食# 会做饭真是太酷了！我在@豆果美食 分享了【蚝饭煲仔饭瓦煲饭-会做饭很酷!】OMG！这是什么神仙美味啊~真的强烈推荐你们试一试～查看图片了解菜谱（每天限量免费课程，想跟大师学厨艺就来这https:\/\/m.weibo.cn\/p\/100404i33631）",
            "channel" : "1"
          },
          {
            "object_id" : "1710076",
            "channel" : "7",
            "mini_program" : [

            ],
            "image" : "https:\/\/cp1.douguo.com\/upload\/caiku\/2\/7\/d\/275123b396a4ac98e19e8f023d32d6ed.jpeg",
            "s_d" : "蚝饭煲仔饭瓦煲饭-会做饭很酷!",
            "name" : "蚝饭煲仔饭瓦煲饭-会做饭很酷!",
            "qr_image" : "",
            "s_u" : "http:\/\/m.douguo.com\/cookbook\/1710076.html"
          },
          {
            "mini_program" : [

            ],
            "qr_image" : "",
            "image" : "https:\/\/cp1.douguo.com\/upload\/caiku\/2\/7\/d\/275123b396a4ac98e19e8f023d32d6ed.jpeg",
            "s_u" : "http:\/\/m.douguo.com\/cookbook\/1710076.html",
            "s_d" : "蚝饭煲仔饭瓦煲饭-会做饭很酷!",
            "object_id" : "1710076",
            "channel" : "8",
            "name" : "蚝饭煲仔饭瓦煲饭-会做饭很酷!"
          }
        ]
      },
      "levelid" : 3,
      "cook_time_image" : "https:\/\/i1.douguo.com\/upload\/banner\/1551424318.png",
      "recipe_list_tags" : [
        {
          "jump_url" : "",
          "text_color" : "#141515",
          "background_start_color" : "#F4F5F5",
          "right_image" : "",
          "text" : "关注的人",
          "background_border_color" : "",
          "background_end_color" : "#F4F5F5"
        },
        {
          "right_image" : "",
          "jump_url" : "",
          "text" : "内容详细",
          "background_end_color" : "#F4F5F5",
          "background_start_color" : "#F4F5F5",
          "text_color" : "#141515",
          "background_border_color" : ""
        }
      ],
      "major" : [
        {
          "tu" : "https:\/\/m.douguo.com\/ingredients\/香米\/detailmaterial",
          "title" : "香米",
          "note" : "适量"
        },
        {
          "note" : "400g",
          "title" : "鲜蚝"
        },
        {
          "title" : "五花肉",
          "note" : "400g",
          "tu" : "https:\/\/m.douguo.com\/ingredients\/五花肉\/detailmaterial"
        },
        {
          "title" : "香菜",
          "note" : "少许",
          "tu" : "https:\/\/m.douguo.com\/ingredients\/香菜\/detailmaterial"
        },
        {
          "note" : "少许",
          "tu" : "https:\/\/m.douguo.com\/ingredients\/葱\/detailmaterial",
          "title" : "葱"
        },
        {
          "tu" : "https:\/\/m.douguo.com\/ingredients\/盐\/detailmaterial",
          "note" : "少许",
          "title" : "盐"
        },
        {
          "tu" : "https:\/\/m.douguo.com\/ingredients\/生抽\/detailmaterial",
          "title" : "生抽",
          "note" : "少许"
        },
        {
          "title" : "胡椒粉",
          "note" : "少许",
          "tu" : "https:\/\/m.douguo.com\/ingredients\/胡椒粉\/detailmaterial"
        },
        {
          "tu" : "https:\/\/m.douguo.com\/ingredients\/黑胡椒粉\/detailmaterial",
          "note" : "少许",
          "title" : "黑胡椒粉"
        }
      ],
      "rrpt" : "",
      "rdsps" : [

      ],
      "vc" : "57259",
      "rate_count" : 0,
      "rips" : 0,
      "sr" : "",
      "hq" : 0,
      "ecs" : 1,
      "first_level_comment_count" : 8,
      "purl" : "",
      "recommendation_tag" : "",
      "comments" : [
        "{\n    ac = \"#999999\";\n    at = \"\";\n    ccc = 1;\n    \"child_comments\" =     (\n                {\n            ac = \"#999999\";\n            at = \"\\U9633\\U6c5f\\U5e02\";\n            ccc = 0;\n            city = \"\\U9633\\U6c5f\\U5e02\";\n            cmc = 2;\n            content =             (\n                                {\n                    c = \" \\U5927\\U5bb6\\U4e00\\U8d77\\U7814\\U7a76\\U7814\\U7a76\";\n                }\n            );\n            ia = 1;\n            id = 6205615;\n            \"ip_address_location\" = \"\";\n            like = 0;\n            \"like_count\" = 0;\n            \"reply_id\" = 6200981;\n            \"reply_user\" =             {\n                \"followers_count_text\" = \"\";\n                id = 18461559;\n                \"is_prime\" = 0;\n                lv = 0;\n                lvl = 3;\n                n = \"\\U9655\\U5317\\U59b9\\U5b50\";\n                p = \"http:\/\/tx1.douguo.net\/upload\/photo\/8\/b\/2\/70_u11939535670690408131252.jpg\";\n                \"progress_image\" = \"\";\n                \"recipes_count_text\" = \"\";\n                relationship = \"-1\";\n                title = \"\";\n                v = 0;\n                \"verified_image\" = \"\";\n            };\n            \"sticker_icon\" =             (\n            );\n            time = \"2018-11-15 15:00:09\";\n            u =             {\n                \"followers_count_text\" = \"\";\n                id = 9541811;\n                \"is_prime\" = 0;\n                lv = 0;\n                lvl = 2;\n                n = \"\\U4f1a\\U5403\\U7684\\U4f1a\\U5403\\U7684\\U9cc4\\U9c7c\";\n                p = \"http:\/\/tx1.douguo.net\/upload\/photo\/6\/e\/c\/70_u32365552810198122835.jpeg\";\n                \"progress_image\" = \"\";\n                \"recipes_count_text\" = \"\";\n                relationship = \"-1\";\n                title = \"\";\n                v = 0;\n                \"verified_image\" = \"\";\n            };\n        }\n    );\n    city = \"\";\n    cmc = 2;\n    content =     (\n                {\n            c = \"\\U54ce\\U3002\\U3002\\U3002\\U611f\\U89c9\\U6211\\U513f\\U5b50\\U597d\\U60e8\\Uff0c\\U644a\\U4e0a\\U4e86\\U4e00\\U4e2a\\U4e0d\\U4f1a\\U505a\\U83dc\\U7684\\U5988\\U3002\\U3002\\U3002\\U770b\\U60a8\\U7684\\U53a8\\U827a\\U6211\\U597d\\U7fa1\\U6155\";\n        }\n    );\n    ia = 0;\n    id = 6200981;\n    \"ip_address_location\" = \"\";\n    like = 0;\n    \"like_count\" = 1;\n    \"reply_id\" = 0;\n    \"sticker_icon\" =     (\n    );\n    time = \"2018-11-13 17:02:23\";\n    u =     {\n        \"followers_count_text\" = \"\";\n        id = 18461559;\n        \"is_prime\" = 0;\n        lv = 0;\n        lvl = 3;\n        n = \"\\U9655\\U5317\\U59b9\\U5b50\";\n        p = \"http:\/\/tx1.douguo.net\/upload\/photo\/8\/b\/2\/70_u11939535670690408131252.jpg\";\n        \"progress_image\" = \"\";\n        \"recipes_count_text\" = \"\";\n        relationship = \"-1\";\n        title = \"\";\n        v = 0;\n        \"verified_image\" = \"\";\n    };\n}",
        "{\n    ac = \"#999999\";\n    at = \"\";\n    ccc = 1;\n    \"child_comments\" =     (\n                {\n            ac = \"#999999\";\n            at = \"\\U9633\\U6c5f\\U5e02\";\n            ccc = 0;\n            city = \"\\U9633\\U6c5f\\U5e02\";\n            cmc = 2;\n            content =             (\n                                {\n                    c = \" \\U7b2c\\U4e00\\U6b21\\U716e\\U996d\\U7684\\U65f6\\U5019\\U996d\\U6ca1\\U719f\\U5c31\\U5192\\U70df\\U4e86\\U5475\\U5475\\Ud83d\\Ude04\";\n                }\n            );\n            ia = 1;\n            id = 6205611;\n            \"ip_address_location\" = \"\";\n            like = 0;\n            \"like_count\" = 0;\n            \"reply_id\" = 6200982;\n            \"reply_user\" =             {\n                \"followers_count_text\" = \"\";\n                id = 18446047;\n                \"is_prime\" = 0;\n                lv = 0;\n                lvl = 4;\n                n = \"\\U653e\\U8086\\U7f8e\";\n                p = \"http:\/\/tx1.douguo.net\/upload\/photo\/9\/0\/e\/70_u62845583718338121638.jpg\";\n                \"progress_image\" = \"\";\n                \"recipes_count_text\" = \"\";\n                relationship = \"-1\";\n                title = \"\";\n                v = 0;\n                \"verified_image\" = \"\";\n            };\n            \"sticker_icon\" =             (\n            );\n            time = \"2018-11-15 14:59:41\";\n            u =             {\n                \"followers_count_text\" = \"\";\n                id = 9541811;\n                \"is_prime\" = 0;\n                lv = 0;\n                lvl = 2;\n                n = \"\\U4f1a\\U5403\\U7684\\U4f1a\\U5403\\U7684\\U9cc4\\U9c7c\";\n                p = \"http:\/\/tx1.douguo.net\/upload\/photo\/6\/e\/c\/70_u32365552810198122835.jpeg\";\n                \"progress_image\" = \"\";\n                \"recipes_count_text\" = \"\";\n                relationship = \"-1\";\n                title = \"\";\n                v = 0;\n                \"verified_image\" = \"\";\n            };\n        }\n    );\n    city = \"\";\n    cmc = 2;\n    content =     (\n                {\n            c = \"\\U597d\\U5389\\U5bb3\\U5440\\Uff01\\U597d\\U597d\\U5947\\U60a8\\U7b2c\\U4e00\\U6b21\\U4e0b\\U53a8\\U7684\\U65f6\\U5019\\U5c31\\U505a\\U7684\\U975e\\U5e38\\U68d2\\U5417\\Uff1f\";\n        }\n    );\n    ia = 0;\n    id = 6200982;\n    \"ip_address_location\" = \"\";\n    like = 0;\n    \"like_count\" = 0;\n    \"reply_id\" = 0;\n    \"sticker_icon\" =     (\n    );\n    time = \"2018-11-13 17:02:23\";\n    u =     {\n        \"followers_count_text\" = \"\";\n        id = 18446047;\n        \"is_prime\" = 0;\n        lv = 0;\n        lvl = 4;\n        n = \"\\U653e\\U8086\\U7f8e\";\n        p = \"http:\/\/tx1.douguo.net\/upload\/photo\/9\/0\/e\/70_u62845583718338121638.jpg\";\n        \"progress_image\" = \"\";\n        \"recipes_count_text\" = \"\";\n        relationship = \"-1\";\n        title = \"\";\n        v = 0;\n        \"verified_image\" = \"\";\n    };\n}",
        "{\n    ac = \"#999999\";\n    at = \"\";\n    ccc = 1;\n    \"child_comments\" =     (\n                {\n            ac = \"#999999\";\n            at = \"\\U9633\\U6c5f\\U5e02\";\n            ccc = 0;\n            city = \"\\U9633\\U6c5f\\U5e02\";\n            cmc = 2;\n            content =             (\n                                {\n                    c = \" \\U55ef\\U55ef\\Uff01\\U5f88\\U597d\\U5403\\U5462\";\n                }\n            );\n            ia = 1;\n            id = 6160371;\n            \"ip_address_location\" = \"\";\n            like = 0;\n            \"like_count\" = 0;\n            \"reply_id\" = 6160067;\n            \"reply_user\" =             {\n                \"followers_count_text\" = \"\";\n                id = 18486900;\n                \"is_prime\" = 0;\n                lv = 0;\n                lvl = 3;\n                n = \"\\U7b71\\U5c0f\\U5c0f69\";\n                p = \"http:\/\/tx1.douguo.net\/upload\/photo\/0\/0\/6\/70_u14466252437200408155513.jpg\";\n                \"progress_image\" = \"\";\n                \"recipes_count_text\" = \"\";\n                relationship = \"-1\";\n                title = \"\";\n                v = 0;\n                \"verified_image\" = \"\";\n            };\n            \"sticker_icon\" =             (\n            );\n            time = \"2018-10-26 07:38:54\";\n            u =             {\n                \"followers_count_text\" = \"\";\n                id = 9541811;\n                \"is_prime\" = 0;\n                lv = 0;\n                lvl = 2;\n                n = \"\\U4f1a\\U5403\\U7684\\U4f1a\\U5403\\U7684\\U9cc4\\U9c7c\";\n                p = \"http:\/\/tx1.douguo.net\/upload\/photo\/6\/e\/c\/70_u32365552810198122835.jpeg\";\n                \"progress_image\" = \"\";\n                \"recipes_count_text\" = \"\";\n                relationship = \"-1\";\n                title = \"\";\n                v = 0;\n                \"verified_image\" = \"\";\n            };\n        }\n    );\n    city = \"\";\n    cmc = 2;\n    content =     (\n                {\n            c = \"\\U8fd9\\U4e2a\\U662f\\U4e0d\\U662f\\U8d85\\U597d\\U5403~\";\n        }\n    );\n    ia = 0;\n    id = 6160067;\n    \"ip_address_location\" = \"\";\n    like = 0;\n    \"like_count\" = 0;\n    \"reply_id\" = 0;\n    \"sticker_icon\" =     (\n    );\n    time = \"2018-10-26 02:51:45\";\n    u =     {\n        \"followers_count_text\" = \"\";\n        id = 18486900;\n        \"is_prime\" = 0;\n        lv = 0;\n        lvl = 3;\n        n = \"\\U7b71\\U5c0f\\U5c0f69\";\n        p = \"http:\/\/tx1.douguo.net\/upload\/photo\/0\/0\/6\/70_u14466252437200408155513.jpg\";\n        \"progress_image\" = \"\";\n        \"recipes_count_text\" = \"\";\n        relationship = \"-1\";\n        title = \"\";\n        v = 0;\n        \"verified_image\" = \"\";\n    };\n}"
      ],
      "hqu" : "recipes:\/\/www.douguo.com\/notedetail?id=21162253",
      "collect_status" : 0,
      "cook_id" : "1710076",
      "ipt" : ""
    }
  },
  "state" : "success"
}