{
  "result" : {
    "recipe" : {
      "notes" : [

      ],
      "favo_counts_text" : "198",
      "cook_time" : "10~30分钟",
      "title" : "脑花豆腐",
      "purl" : "",
      "photo_path" : "https:\/\/i1.douguo.com\/upload\/caiku\/8\/b\/c\/600_8bd77a3f723cb7e534e8ed4fe72a085c.jpg",
      "advice" : {
        "has" : [
          {
            "t" : "低糖",
            "url" : "recipes:\/\/www.douguo.com\/simplerecipelist?t=低糖&id=低糖"
          }
        ],
        "da" : {
          "iu" : "https:\/\/i1.douguo.com\/upload\/banner\/f\/4\/d\/f48877e53c37759bc12ac494be82ec8d.png",
          "url" : "https:\/\/m.douguo.com\/recipe\/nutrient_self\/1156527",
          "t" : "查看详细分析"
        },
        "at" : "能帮助你减脂、控血糖～"
      },
      "clicks" : "34305",
      "comments" : [
        "{\n    ac = \"#999999\";\n    at = \"\";\n    ccc = 0;\n    \"child_comments\" =     (\n    );\n    city = \"\";\n    cmc = 2;\n    content =     (\n                {\n            c = \"\\U8c46\\U74e3\\U6d77\\U6912\\U662f\\U4ec0\\U4e48\\Uff1f\\U548c\\U8c46\\U74e3\\U9171\\U4e00\\U6837\\U4e0d\\Uff1f\";\n        }\n    );\n    ia = 0;\n    id = 2708609;\n    \"ip_address_location\" = \"\";\n    like = 0;\n    \"like_count\" = 0;\n    \"reply_id\" = 0;\n    \"sticker_icon\" =     (\n    );\n    time = \"2015-10-08 18:59:32\";\n    u =     {\n        \"followers_count_text\" = \"\";\n        id = 10501756;\n        \"is_prime\" = 0;\n        lv = 0;\n        lvl = 2;\n        n = \"\\U7075\\U513f\\U5c0f\\U9614\\U7231\";\n        p = \"http:\/\/tx1.douguo.net\/upload\/photo\/9\/c\/7\/70_9c110cedfb36200733aecb6d8e6cf527.jpeg\";\n        \"progress_image\" = \"\";\n        \"recipes_count_text\" = \"\";\n        relationship = \"-1\";\n        title = \"\";\n        v = 0;\n        \"verified_image\" = \"\";\n    };\n}"
      ],
      "sc" : 0,
      "cook_id" : "1156527",
      "rrpt" : "",
      "guide_image" : "",
      "dish_count" : 0,
      "rdsps" : [

      ],
      "bs" : [

      ],
      "cookstory" : "",
      "ssu" : "",
      "levelid" : 3,
      "cook_difficulty" : "配菜(中级)",
      "recipe_list_tags" : [
        {
          "background_end_color" : "#F4F5F5",
          "text_color" : "#141515",
          "right_image" : "",
          "text" : "关注的人",
          "jump_url" : "",
          "background_start_color" : "#F4F5F5",
          "background_border_color" : ""
        }
      ],
      "create_time" : "2015-04-14 12:09:31",
      "ipci" : "",
      "author" : "胶水布丁",
      "rcs" : [

      ],
      "related_ads" : [

      ],
      "original_photo_path" : "http:\/\/i1.douguo.net\/upload\/caiku\/8\/b\/c\/yuan_8bd77a3f723cb7e534e8ed4fe72a085c.jpg",
      "vc" : "42006",
      "rrps" : [

      ],
      "recommended" : 0,
      "tips" : "煮好后不用加盐！因为豆瓣海椒已经有很大的盐味了。",
      "vfurl" : "",
      "share_info" : {
        "name" : "脑花豆腐-会做饭很酷!",
        "qr_image" : "",
        "mini_program" : [

        ],
        "s_d" : "脑花豆腐-会做饭很酷!",
        "object_id" : "1156527",
        "image" : "https:\/\/cp1.douguo.com\/upload\/caiku\/8\/b\/c\/8bd77a3f723cb7e534e8ed4fe72a085c.jpg",
        "infos" : [
          {
            "channel" : "1",
            "image" : "https:\/\/cp1.douguo.com\/upload\/caiku\/8\/b\/c\/8bd77a3f723cb7e534e8ed4fe72a085c.jpg",
            "qr_image" : "",
            "s_d" : "#学做饭用豆果美食# 会做饭真是太酷了！我在@豆果美食 分享了【脑花豆腐-会做饭很酷!】，看着是不是馋到不行呢～快来跟我学学吧！查看图片了解菜谱，（想要获取更多美食就看这https:\/\/m.weibo.cn\/p\/100404i33631）",
            "s_u" : "",
            "mini_program" : [

            ],
            "object_id" : "1156527",
            "name" : "脑花豆腐-会做饭很酷!"
          },
          {
            "image" : "https:\/\/cp1.douguo.com\/upload\/caiku\/8\/b\/c\/8bd77a3f723cb7e534e8ed4fe72a085c.jpg",
            "name" : "脑花豆腐-会做饭很酷!",
            "mini_program" : [

            ],
            "s_d" : "脑花豆腐-会做饭很酷!",
            "qr_image" : "",
            "object_id" : "1156527",
            "s_u" : "http:\/\/m.douguo.com\/cookbook\/1156527.html",
            "channel" : "7"
          },
          {
            "object_id" : "1156527",
            "image" : "https:\/\/cp1.douguo.com\/upload\/caiku\/8\/b\/c\/8bd77a3f723cb7e534e8ed4fe72a085c.jpg",
            "channel" : "8",
            "s_u" : "http:\/\/m.douguo.com\/cookbook\/1156527.html",
            "qr_image" : "",
            "s_d" : "脑花豆腐-会做饭很酷!",
            "name" : "脑花豆腐-会做饭很酷!",
            "mini_program" : [

            ]
          }
        ],
        "s_u" : "http:\/\/m.douguo.com\/cookbook\/1156527.html"
      },
      "title_ad" : [

      ],
      "top_mdsp" : [

      ],
      "ipt" : "",
      "story_dsp" : [

      ],
      "cookstorys" : [

      ],
      "recipe_tags" : [

      ],
      "ph" : 1000,
      "rpt" : "",
      "recommendation_tag" : "",
      "ecs" : 0,
      "old_comments" : [

      ],
      "hqu" : "recipes:\/\/www.douguo.com\/notedetail?id=21162253",
      "comments_count_text" : "1",
      "sr" : "",
      "rpst" : "",
      "ipia" : [

      ],
      "v_u" : "",
      "first_level_comment_count" : 1,
      "views_count_text" : "4.2万",
      "rips" : 0,
      "collect_status" : 0,
      "user" : {
        "qq_weibo_nick" : "",
        "user_photo" : "http:\/\/tx1.douguo.net\/upload\/photo\/b\/1\/2\/70_b1b1368acfe637f2f36216aeb8d7d4d2.jpg",
        "lvl" : 1,
        "fc" : 0,
        "setted_email" : 0,
        "regist_time" : "",
        "verified" : 0,
        "following_count" : 0,
        "favor_diaries_count" : 0,
        "user_large_photo" : "http:\/\/tx1.douguo.net\/upload\/photo\/b\/1\/2\/yuan_b1b1368acfe637f2f36216aeb8d7d4d2.jpg",
        "is_prime" : 0,
        "sign" : "",
        "introduction" : "",
        "diaries_count" : 0,
        "user_id" : "7900963",
        "user_cover" : "",
        "mobile" : "",
        "userid" : "7900963",
        "pc" : 0,
        "email" : "",
        "progress_image" : "",
        "recipes_count" : 0,
        "lv" : 0,
        "followers_count" : 0,
        "nick" : "胶水布丁",
        "verified_image" : "",
        "avatar_medium" : "http:\/\/tx1.douguo.net\/upload\/photo\/b\/1\/2\/140_b1b1368acfe637f2f36216aeb8d7d4d2.jpg",
        "weibo_nick" : "",
        "favorites_count" : 0,
        "verified_url" : "https:\/\/m.douguo.com\/user\/prodesc",
        "dishes_count" : 0,
        "subscription" : 0,
        "qzone_nick" : "",
        "location" : 0,
        "birthday" : "",
        "gender" : 2,
        "coursecount" : 0,
        "subscription_article_count" : 0,
        "age" : "",
        "point" : 0
      },
      "major" : [
        {
          "note" : "两块",
          "title" : "水豆腐"
        },
        {
          "note" : "两幅",
          "title" : "脑花"
        },
        {
          "title" : "大葱",
          "tu" : "https:\/\/m.douguo.com\/ingredients\/大葱\/detailmaterial",
          "note" : "一根"
        },
        {
          "note" : "5片",
          "title" : "生姜",
          "tu" : "https:\/\/m.douguo.com\/ingredients\/生姜\/detailmaterial"
        },
        {
          "title" : "豆瓣海椒",
          "note" : "一勺"
        },
        {
          "note" : "一把",
          "title" : "花椒",
          "tu" : "https:\/\/m.douguo.com\/ingredients\/花椒\/detailmaterial"
        }
      ],
      "cookstep" : [
        {
          "image_height" : 750,
          "position" : 1,
          "content" : "豆腐切成块状。",
          "image" : "https:\/\/i1.douguo.com\/upload\/caiku\/1\/2\/4\/121ca8453b051b3ab25a6e5b9e4931d4.jpg",
          "image_width" : 750,
          "thumb" : "https:\/\/i1.douguo.com\/upload\/caiku\/1\/2\/4\/140_121ca8453b051b3ab25a6e5b9e4931d4.jpg",
          "frame" : "-1"
        },
        {
          "thumb" : "https:\/\/i1.douguo.com\/upload\/caiku\/7\/8\/d\/140_78b791fccf2f6e6f4c20418f97ee5f9d.jpg",
          "image_width" : 750,
          "content" : "到下锅煮2-3分钟，收水",
          "frame" : "-1",
          "position" : 2,
          "image_height" : 750,
          "image" : "https:\/\/i1.douguo.com\/upload\/caiku\/7\/8\/d\/78b791fccf2f6e6f4c20418f97ee5f9d.jpg"
        },
        {
          "content" : "材料备好",
          "image" : "https:\/\/i1.douguo.com\/upload\/caiku\/2\/a\/d\/2ad3111a6a6281279e0990920af7bcdd.jpg",
          "thumb" : "https:\/\/i1.douguo.com\/upload\/caiku\/2\/a\/d\/140_2ad3111a6a6281279e0990920af7bcdd.jpg",
          "position" : 3,
          "image_height" : 750,
          "image_width" : 750,
          "frame" : "-1"
        },
        {
          "position" : 4,
          "frame" : "-1",
          "image" : "https:\/\/i1.douguo.com\/upload\/caiku\/4\/3\/e\/438661c6d811efb8acf9a3d67d15deae.jpg",
          "image_width" : 750,
          "thumb" : "https:\/\/i1.douguo.com\/upload\/caiku\/4\/3\/e\/140_438661c6d811efb8acf9a3d67d15deae.jpg",
          "content" : "多倒一些油，然后加一小勺盐来煎",
          "image_height" : 750
        },
        {
          "content" : "把大葱、花椒、豆瓣海椒加进去煎，煎好后捞出来丢掉，只剩油",
          "image_height" : 750,
          "image_width" : 750,
          "position" : 5,
          "image" : "https:\/\/i1.douguo.com\/upload\/caiku\/0\/7\/f\/07515c5f58f3b7ee9ebc14a57d1a85af.jpg",
          "frame" : "-1",
          "thumb" : "https:\/\/i1.douguo.com\/upload\/caiku\/0\/7\/f\/140_07515c5f58f3b7ee9ebc14a57d1a85af.jpg"
        },
        {
          "content" : "丢入豆腐和脑花煮6-8分钟，脑花煮好即可",
          "thumb" : "https:\/\/i1.douguo.com\/upload\/caiku\/c\/b\/0\/140_cb99f0f780847da64d5df210853fa700.jpg",
          "image_height" : 1000,
          "frame" : "-1",
          "image" : "https:\/\/i1.douguo.com\/upload\/caiku\/c\/b\/0\/cb99f0f780847da64d5df210853fa700.jpg",
          "image_width" : 750,
          "position" : 6
        },
        {
          "position" : 7,
          "frame" : "-1",
          "thumb" : "https:\/\/i1.douguo.com\/upload\/caiku\/1\/8\/d\/140_18113e9acc600a6f00da1ce8c386a95d.jpg",
          "image_width" : 750,
          "content" : "最后撒一层花椒面就好了～超好吃",
          "image_height" : 1000,
          "image" : "https:\/\/i1.douguo.com\/upload\/caiku\/1\/8\/d\/18113e9acc600a6f00da1ce8c386a95d.jpg"
        }
      ],
      "tags" : [
        "{\n    text = \"\\U5bb6\\U5e38\\U83dc\";\n}",
        "{\n    text = \"\\U8c46\\U5236\\U54c1\";\n}",
        "{\n    text = \"\\U716e\";\n}",
        "{\n    text = \"\\U9999\";\n}",
        "{\n    text = \"\\U5348\\U9910\";\n}"
      ],
      "packages_id" : [

      ],
      "ss" : [

      ],
      "recommend_label" : "4.2万人看过",
      "rpid" : 0,
      "minor" : [

      ],
      "rate" : 0,
      "favo_counts" : 198,
      "image" : "http:\/\/i1.douguo.net\/upload\/caiku\/8\/b\/c\/300_8bd77a3f723cb7e534e8ed4fe72a085c.jpg",
      "thumb_path" : "https:\/\/i1.douguo.com\/upload\/caiku\/8\/b\/c\/300_8bd77a3f723cb7e534e8ed4fe72a085c.jpg",
      "mid_mdsp" : [

      ],
      "cook_time_image" : "https:\/\/i1.douguo.com\/upload\/banner\/1551424341.png",
      "btm_dsp" : [

      ],
      "su" : "",
      "author_photo" : "http:\/\/tx1.douguo.net\/upload\/photo\/b\/1\/2\/70_b1b1368acfe637f2f36216aeb8d7d4d2.jpg",
      "brand_day_dsp" : [

      ],
      "dishes" : [

      ],
      "author_id" : 7900963,
      "rate_show" : 0,
      "act_des" : "",
      "eu" : "recipes:\/\/www.douguo.com\/postdetail?id=242016",
      "display_ingredient" : 1,
      "thumb_height" : 0,
      "pw" : 750,
      "dish_count_text" : "",
      "comments_count" : 1,
      "rsm" : "该功能暂停使用",
      "release_time" : "",
      "rewarded_video_dsp" : [

      ],
      "cook_difficulty_image" : "https:\/\/i1.douguo.com\/upload\/banner\/1551424413.png",
      "hq" : 0,
      "cookwares" : [

      ],
      "rate_count" : 0,
      "vu" : "",
      "ipurl" : "",
      "recent_comments" : [

      ],
      "author_verified" : 0,
      "ipoi" : "",
      "ipit" : 0
    }
  },
  "status" : 0,
  "state" : "success"
}