{
  "result" : {
    "recipe" : {
      "recent_comments" : [

      ],
      "cook_time" : "10~30分钟",
      "user" : {
        "introduction" : "",
        "mobile" : "",
        "qq_weibo_nick" : "",
        "dishes_count" : 0,
        "progress_image" : "",
        "subscription_article_count" : 0,
        "location" : 0,
        "lvl" : 6,
        "birthday" : "",
        "user_photo" : "http:\/\/tx1.douguo.net\/upload\/photo\/2\/6\/d\/70_u87478412602152143018.jpg",
        "coursecount" : 0,
        "lv" : 0,
        "point" : 0,
        "userid" : "19684893",
        "weibo_nick" : "",
        "verified_url" : "https:\/\/m.douguo.com\/user\/prodesc",
        "fc" : 0,
        "is_prime" : 0,
        "user_cover" : "",
        "followers_count" : 0,
        "favorites_count" : 0,
        "favor_diaries_count" : 0,
        "verified" : 1,
        "verified_image" : "https:\/\/i1.douguo.com\/upload\/note\/d\/a\/a\/da84247847aebe48d9dd0fcdac88862a.png",
        "sign" : "",
        "email" : "",
        "user_large_photo" : "http:\/\/tx1.douguo.net\/upload\/photo\/2\/6\/d\/yuan_u87478412602152143018.jpg",
        "recipes_count" : 0,
        "subscription" : 0,
        "user_id" : "19684893",
        "regist_time" : "",
        "nick" : "JoJoFan",
        "diaries_count" : 0,
        "following_count" : 0,
        "qzone_nick" : "",
        "age" : "",
        "avatar_medium" : "http:\/\/tx1.douguo.net\/upload\/photo\/2\/6\/d\/140_u87478412602152143018.jpg",
        "pc" : 0,
        "gender" : 2,
        "setted_email" : 0
      },
      "favo_counts_text" : "3.5万",
      "sc" : 0,
      "ipia" : [

      ],
      "advice" : {
        "has" : [
          {
            "t" : "富含蛋白质",
            "url" : "recipes:\/\/www.douguo.com\/simplerecipelist?t=富含蛋白质&id=富含蛋白质"
          },
          {
            "url" : "recipes:\/\/www.douguo.com\/simplerecipelist?t=富含烟酸&id=富含烟酸",
            "t" : "富含烟酸"
          }
        ],
        "da" : {
          "iu" : "https:\/\/i1.douguo.com\/upload\/banner\/f\/4\/d\/f48877e53c37759bc12ac494be82ec8d.png",
          "url" : "https:\/\/m.douguo.com\/recipe\/nutrient_self\/2434088",
          "t" : "查看详细分析"
        },
        "at" : "是组织形成和生长的主要营养素～"
      },
      "sr" : "",
      "thumb_path" : "https:\/\/i1.douguo.com\/upload\/caiku\/e\/2\/6\/300_e2f32c890387889eddfe4e7ff6394dc6.jpg",
      "rdsps" : [

      ],
      "ipurl" : "",
      "ipit" : 0,
      "act_des" : "",
      "rrps" : [

      ],
      "views_count_text" : "777.7万",
      "title_ad" : [

      ],
      "rips" : 0,
      "levelid" : 2,
      "vc" : "7776902",
      "vu" : "",
      "ss" : [

      ],
      "rate" : 5,
      "cook_difficulty_image" : "",
      "packages_id" : [

      ],
      "old_comments" : [

      ],
      "recommendation_tag" : "",
      "comments_count" : 28,
      "favo_counts" : 35463,
      "btm_dsp" : [

      ],
      "author_photo" : "http:\/\/tx1.douguo.net\/upload\/photo\/2\/6\/d\/70_u87478412602152143018.jpg",
      "ssu" : "",
      "cookstory" : "西冷牛排，位于牛的腰脊外侧，肉质细腻同时均匀分布细筋，口感嫩中带有嚼劲，分布均匀的油脂雪花使煎好的牛排脂香四溢，个人认为是牛排部位里性价比最高的。牛排煎制非常简单，掌握几个小窍门就够了。好的牛排吃原味都很棒，连酱汁都不用做。只要几分钟，就可以假装在西餐厅用餐啦！",
      "hq" : 1,
      "comments_count_text" : "28",
      "rrpt" : "",
      "notes" : [

      ],
      "ph" : 990,
      "top_mdsp" : [

      ],
      "dish_count_text" : "35",
      "guide_image" : "",
      "create_time" : "2020-03-16 18:11:29",
      "rate_show" : 1,
      "recipe_tags" : [

      ],
      "author" : "JoJoFan",
      "thumb_height" : 0,
      "eu" : "recipes:\/\/www.douguo.com\/postdetail?id=242016",
      "rsm" : "该功能暂停使用",
      "share_info" : {
        "qr_image" : "",
        "infos" : [
          {
            "qr_image" : "",
            "s_d" : "#学做饭用豆果美食# 会做饭真是太酷了！我在@豆果美食 分享了【香煎牛排-掌握几个小窍门，分分钟媲美西餐厅-会做饭很酷!】，看着是不是馋到不行呢～快来跟我学学吧！查看图片了解菜谱，（想要获取更多美食就看这https:\/\/m.weibo.cn\/p\/100404i33631）",
            "object_id" : "2434088",
            "mini_program" : [

            ],
            "name" : "香煎牛排-掌握几个小窍门，分分钟媲美西餐厅-会做饭很酷!",
            "s_u" : "",
            "channel" : "1",
            "image" : "https:\/\/cp1.douguo.com\/upload\/caiku\/e\/2\/6\/e2f32c890387889eddfe4e7ff6394dc6.jpg"
          },
          {
            "image" : "https:\/\/cp1.douguo.com\/upload\/caiku\/e\/2\/6\/e2f32c890387889eddfe4e7ff6394dc6.jpg",
            "s_u" : "http:\/\/m.douguo.com\/cookbook\/2434088.html",
            "object_id" : "2434088",
            "channel" : "7",
            "s_d" : "香煎牛排-掌握几个小窍门，分分钟媲美西餐厅-会做饭很酷!",
            "mini_program" : [

            ],
            "name" : "香煎牛排-掌握几个小窍门，分分钟媲美西餐厅-会做饭很酷!",
            "qr_image" : ""
          },
          {
            "image" : "https:\/\/cp1.douguo.com\/upload\/caiku\/e\/2\/6\/e2f32c890387889eddfe4e7ff6394dc6.jpg",
            "name" : "香煎牛排-掌握几个小窍门，分分钟媲美西餐厅-会做饭很酷!",
            "s_u" : "http:\/\/m.douguo.com\/cookbook\/2434088.html",
            "object_id" : "2434088",
            "channel" : "8",
            "s_d" : "香煎牛排-掌握几个小窍门，分分钟媲美西餐厅-会做饭很酷!",
            "qr_image" : "",
            "mini_program" : [

            ]
          }
        ],
        "name" : "香煎牛排-掌握几个小窍门，分分钟媲美西餐厅-会做饭很酷!",
        "s_d" : "香煎牛排-掌握几个小窍门，分分钟媲美西餐厅-会做饭很酷!",
        "s_u" : "http:\/\/m.douguo.com\/cookbook\/2434088.html",
        "mini_program" : [

        ],
        "image" : "https:\/\/cp1.douguo.com\/upload\/caiku\/e\/2\/6\/e2f32c890387889eddfe4e7ff6394dc6.jpg",
        "object_id" : "2434088"
      },
      "v_u" : "",
      "comments" : [
        "{\n    ac = \"#999999\";\n    at = \"\\U676d\\U5dde\\U5e02\";\n    ccc = 2;\n    \"child_comments\" =     (\n                {\n            ac = \"#999999\";\n            at = \"\\U676d\\U5dde\\U5e02\";\n            ccc = 0;\n            city = \"\\U676d\\U5dde\\U5e02\";\n            cmc = 2;\n            content =             (\n                                {\n                    c = \" \\U4e0d\\U8fc7\\U6211\\U7528\\U7684\\U662f \\U773c\\U8089\\U725b\\U6392\";\n                }\n            );\n            ia = 0;\n            id = 7997958;\n            \"ip_address_location\" = \"\";\n            like = 0;\n            \"like_count\" = 0;\n            \"reply_id\" = 7997952;\n            \"reply_user\" =             {\n                \"followers_count_text\" = \"\";\n                id = 23877970;\n                \"is_prime\" = 0;\n                lv = 0;\n                lvl = 2;\n                n = \"\\U725b\\U6392\\U5c0f\\U5c06\";\n                p = \"http:\/\/tx1.douguo.net\/upload\/photo\/a\/9\/a\/70_a95532e217330bdba4cda6780ab7ea4a.jpeg\";\n                \"progress_image\" = \"\";\n                \"recipes_count_text\" = \"\";\n                relationship = \"-1\";\n                title = \"\";\n                v = 0;\n                \"verified_image\" = \"\";\n            };\n            \"sticker_icon\" =             (\n            );\n            time = \"2020-05-20 21:01:21\";\n            u =             {\n                \"followers_count_text\" = \"\";\n                id = 23877970;\n                \"is_prime\" = 0;\n                lv = 0;\n                lvl = 2;\n                n = \"\\U725b\\U6392\\U5c0f\\U5c06\";\n                p = \"http:\/\/tx1.douguo.net\/upload\/photo\/a\/9\/a\/70_a95532e217330bdba4cda6780ab7ea4a.jpeg\";\n                \"progress_image\" = \"\";\n                \"recipes_count_text\" = \"\";\n                relationship = \"-1\";\n                title = \"\";\n                v = 0;\n                \"verified_image\" = \"\";\n            };\n        },\n                {\n            ac = \"#999999\";\n            at = \"\";\n            ccc = 0;\n            city = \"\";\n            cmc = 2;\n            content =             (\n                                {\n                    c = \" \\U9996\\U5148\\U89e3\\U51bb\\U8981\\U5728\\U51b7\\U85cf\\U5ba4\\U81ea\\U7136\\U89e3\\U51bb\\Uff0c\\U53e6\\U5916\\U714e\\U5236\\U7684\\U65f6\\U5019\\U9505\\U5b50\\U7684\\U6e29\\U5ea6\\U8981\\U8db3\\U591f\\U9ad8\\Uff0c\\U624d\\U80fd\\U4fdd\\U8bc1\\U5728\\U51e0\\U5341\\U79d2\\U7684\\U65f6\\U95f4\\U91cc\\U9501\\U4f4f\\U6c41\\U6c34\\U5e76\\U6210\\U719f\\Uff0c\\U65f6\\U95f4\\U957f\\U77ed\\U8981\\U6839\\U636e\\U725b\\U6392\\U7684\\U539a\\U5ea6\\U9002\\U5f53\\U8c03\\U6574\\U54e6\";\n                }\n            );\n            ia = 1;\n            id = 7998884;\n            \"ip_address_location\" = \"\";\n            like = 0;\n            \"like_count\" = 0;\n            \"reply_id\" = 7997952;\n            \"reply_user\" =             {\n                \"followers_count_text\" = \"\";\n                id = 23877970;\n                \"is_prime\" = 0;\n                lv = 0;\n                lvl = 2;\n                n = \"\\U725b\\U6392\\U5c0f\\U5c06\";\n                p = \"http:\/\/tx1.douguo.net\/upload\/photo\/a\/9\/a\/70_a95532e217330bdba4cda6780ab7ea4a.jpeg\";\n                \"progress_image\" = \"\";\n                \"recipes_count_text\" = \"\";\n                relationship = \"-1\";\n                title = \"\";\n                v = 0;\n                \"verified_image\" = \"\";\n            };\n            \"sticker_icon\" =             (\n            );\n            time = \"2020-05-21 07:55:41\";\n            u =             {\n                \"followers_count_text\" = \"\";\n                id = 19684893;\n                \"is_prime\" = 0;\n                lv = 0;\n                lvl = 6;\n                n = JoJoFan;\n                p = \"http:\/\/tx1.douguo.net\/upload\/photo\/2\/6\/d\/70_u87478412602152143018.jpg\";\n                \"progress_image\" = \"\";\n                \"recipes_count_text\" = \"\";\n                relationship = \"-1\";\n                title = \"\";\n                v = 1;\n                \"verified_image\" = \"\";\n            };\n        }\n    );\n    city = \"\\U676d\\U5dde\\U5e02\";\n    cmc = 2;\n    content =     (\n                {\n            c = \"\\U4f5c\\U8005\\U5728\\U5417\\Uff0c\\U60f3\\U8bf7\\U6559\\U4f60\\U4e00\\U4e0b\\Uff0c\\U4e3a\\U5565\\U6211\\U8fd9\\U725b\\U6392\\U53c9\\U5b50\\U4e0d\\U592a\\U597d\\U53c9\\U8fdb\\U53bb\\Uff0c\\U4e0d\\U50cf\\U5e97\\U91cc\\Uff0c\\U8089\\U6bd4\\U8f83\\U5ae9\\Uff0c\\U4e5f\\U662f7\\U5206\\U719f\\U2026\";\n        }\n    );\n    ia = 0;\n    id = 7997952;\n    \"ip_address_location\" = \"\";\n    like = 0;\n    \"like_count\" = 2;\n    \"reply_id\" = 0;\n    \"sticker_icon\" =     (\n    );\n    time = \"2020-05-20 21:00:47\";\n    u =     {\n        \"followers_count_text\" = \"\";\n        id = 23877970;\n        \"is_prime\" = 0;\n        lv = 0;\n        lvl = 2;\n        n = \"\\U725b\\U6392\\U5c0f\\U5c06\";\n        p = \"http:\/\/tx1.douguo.net\/upload\/photo\/a\/9\/a\/70_a95532e217330bdba4cda6780ab7ea4a.jpeg\";\n        \"progress_image\" = \"\";\n        \"recipes_count_text\" = \"\";\n        relationship = \"-1\";\n        title = \"\";\n        v = 0;\n        \"verified_image\" = \"\";\n    };\n}",
        "{\n    ac = \"#999999\";\n    at = \"\\U5927\\U8fde\\U5e02\";\n    ccc = 1;\n    \"child_comments\" =     (\n                {\n            ac = \"#999999\";\n            at = \"\\U5317\\U4eac\\U5e02\";\n            ccc = 0;\n            city = \"\\U5317\\U4eac\\U5e02\";\n            cmc = 2;\n            content =             (\n                                {\n                    c = \" \\U592a\\U597d\\U5566\\Ud83d\\Udc4d\\Ud83d\\Udc4d\\Ud83d\\Ude0b\";\n                }\n            );\n            ia = 1;\n            id = 7890919;\n            \"ip_address_location\" = \"\";\n            like = 0;\n            \"like_count\" = 0;\n            \"reply_id\" = 7890796;\n            \"reply_user\" =             {\n                \"followers_count_text\" = \"\";\n                id = 17055862;\n                \"is_prime\" = 0;\n                lv = 0;\n                lvl = 1;\n                n = \"\\U8001\\U987d\\U7ae5\\U513f*\";\n                p = \"http:\/\/tx1.douguo.net\/upload\/photo\/8\/d\/a\/70_u59759725149316102539.jpg\";\n                \"progress_image\" = \"\";\n                \"recipes_count_text\" = \"\";\n                relationship = \"-1\";\n                title = \"\";\n                v = 0;\n                \"verified_image\" = \"\";\n            };\n            \"sticker_icon\" =             (\n            );\n            time = \"2020-04-17 19:15:28\";\n            u =             {\n                \"followers_count_text\" = \"\";\n                id = 19684893;\n                \"is_prime\" = 0;\n                lv = 0;\n                lvl = 6;\n                n = JoJoFan;\n                p = \"http:\/\/tx1.douguo.net\/upload\/photo\/2\/6\/d\/70_u87478412602152143018.jpg\";\n                \"progress_image\" = \"\";\n                \"recipes_count_text\" = \"\";\n                relationship = \"-1\";\n                title = \"\";\n                v = 1;\n                \"verified_image\" = \"\";\n            };\n        }\n    );\n    city = \"\\U5927\\U8fde\\U5e02\";\n    cmc = 2;\n    content =     (\n                {\n            c = \"\\U5b66\\U4e60\\U4e86\\Uff0c\\U505a\\U5b8c\\U7279\\U6210\\U529f\\Ud83d\\Udc4d\\Ud83c\\Udf39\\Ud83c\\Udf39\\Ud83c\\Udf39\";\n        }\n    );\n    ia = 0;\n    id = 7890796;\n    \"ip_address_location\" = \"\";\n    like = 0;\n    \"like_count\" = 6;\n    \"reply_id\" = 0;\n    \"sticker_icon\" =     (\n    );\n    time = \"2020-04-17 18:07:51\";\n    u =     {\n        \"followers_count_text\" = \"\";\n        id = 17055862;\n        \"is_prime\" = 0;\n        lv = 0;\n        lvl = 1;\n        n = \"\\U8001\\U987d\\U7ae5\\U513f*\";\n        p = \"http:\/\/tx1.douguo.net\/upload\/photo\/8\/d\/a\/70_u59759725149316102539.jpg\";\n        \"progress_image\" = \"\";\n        \"recipes_count_text\" = \"\";\n        relationship = \"-1\";\n        title = \"\";\n        v = 0;\n        \"verified_image\" = \"\";\n    };\n}",
        "{\n    ac = \"#999999\";\n    at = \"\\U957f\\U6c99\\U5e02\";\n    ccc = 1;\n    \"child_comments\" =     (\n                {\n            ac = \"#999999\";\n            at = \"\\U5fb7\\U5dde\\U5e02\";\n            ccc = 0;\n            city = \"\\U5fb7\\U5dde\\U5e02\";\n            cmc = 2;\n            content =             (\n                                {\n                    c = \" \\U9009\\U5757\\U597d\\U725b\\U6392\\U5c31\\U6210\\U529f\\U4e86\\U4e00\\U5927\\U534a\\Ud83d\\Ude0b\";\n                }\n            );\n            ia = 1;\n            id = 8182111;\n            \"ip_address_location\" = \"\";\n            like = 0;\n            \"like_count\" = 0;\n            \"reply_id\" = 8181844;\n            \"reply_user\" =             {\n                \"followers_count_text\" = \"\";\n                id = 16538690;\n                \"is_prime\" = 0;\n                lv = 0;\n                lvl = 1;\n                n = \"\\U5170\\U513fsuper\";\n                p = \"\";\n                \"progress_image\" = \"\";\n                \"recipes_count_text\" = \"\";\n                relationship = \"-1\";\n                title = \"\";\n                v = 0;\n                \"verified_image\" = \"\";\n            };\n            \"sticker_icon\" =             (\n            );\n            time = \"2020-08-04 08:29:12\";\n            u =             {\n                \"followers_count_text\" = \"\";\n                id = 19684893;\n                \"is_prime\" = 0;\n                lv = 0;\n                lvl = 6;\n                n = JoJoFan;\n                p = \"http:\/\/tx1.douguo.net\/upload\/photo\/2\/6\/d\/70_u87478412602152143018.jpg\";\n                \"progress_image\" = \"\";\n                \"recipes_count_text\" = \"\";\n                relationship = \"-1\";\n                title = \"\";\n                v = 1;\n                \"verified_image\" = \"\";\n            };\n        }\n    );\n    city = \"\\U957f\\U6c99\\U5e02\";\n    cmc = 2;\n    content =     (\n                {\n            c = \"\\U914d\\U6599\\U4e70\\U8d77\\U6765\\U4e00\\U5b9a\\U8981\\U5b66\\U4f1a\";\n        }\n    );\n    ia = 0;\n    id = 8181844;\n    \"ip_address_location\" = \"\";\n    like = 0;\n    \"like_count\" = 2;\n    \"reply_id\" = 0;\n    \"sticker_icon\" =     (\n    );\n    time = \"2020-08-03 21:35:26\";\n    u =     {\n        \"followers_count_text\" = \"\";\n        id = 16538690;\n        \"is_prime\" = 0;\n        lv = 0;\n        lvl = 1;\n        n = \"\\U5170\\U513fsuper\";\n        p = \"\";\n        \"progress_image\" = \"\";\n        \"recipes_count_text\" = \"\";\n        relationship = \"-1\";\n        title = \"\";\n        v = 0;\n        \"verified_image\" = \"\";\n    };\n}"
      ],
      "ecs" : 1,
      "cookwares" : [

      ],
      "author_id" : 19684893,
      "bs" : [

      ],
      "dishes" : [

      ],
      "recommended" : 0,
      "vfurl" : "",
      "display_ingredient" : 1,
      "recommend_label" : "35人学做",
      "major" : [
        {
          "note" : "200g",
          "title" : "西冷牛排"
        },
        {
          "note" : "四根",
          "tu" : "https:\/\/m.douguo.com\/ingredients\/芦笋\/detailmaterial",
          "title" : "芦笋"
        },
        {
          "tu" : "https:\/\/m.douguo.com\/ingredients\/口蘑\/detailmaterial",
          "title" : "口蘑",
          "note" : "四五个"
        },
        {
          "note" : "适量",
          "tu" : "https:\/\/m.douguo.com\/ingredients\/橄榄油\/detailmaterial",
          "title" : "橄榄油"
        },
        {
          "tu" : "https:\/\/m.douguo.com\/ingredients\/黑胡椒\/detailmaterial",
          "note" : "适量",
          "title" : "黑胡椒"
        },
        {
          "title" : "海盐",
          "note" : "适量"
        },
        {
          "tu" : "https:\/\/m.douguo.com\/ingredients\/黄油\/detailmaterial",
          "title" : "黄油",
          "note" : "20g"
        }
      ],
      "clicks" : "7559787",
      "mid_mdsp" : [

      ],
      "cook_difficulty" : "",
      "tags" : [

      ],
      "rate_count" : 28,
      "pw" : 1280,
      "collect_status" : 0,
      "minor" : [

      ],
      "rpt" : "",
      "original_photo_path" : "http:\/\/i1.douguo.net\/upload\/caiku\/e\/2\/6\/yuan_e2f32c890387889eddfe4e7ff6394dc6.jpg",
      "rcs" : [

      ],
      "title" : "香煎牛排-掌握几个小窍门，分分钟媲美西餐厅",
      "ipci" : "",
      "release_time" : "",
      "cook_id" : "2434088",
      "ipt" : "",
      "hqu" : "recipes:\/\/www.douguo.com\/notedetail?id=21162253",
      "su" : "",
      "rpid" : 0,
      "first_level_comment_count" : 16,
      "related_ads" : [

      ],
      "cookstorys" : [
        {
          "id" : 0,
          "c" : "西冷牛排，位于牛的腰脊外侧，肉质细腻同时均匀分布细筋，口感嫩中带有嚼劲，分布均匀的油脂雪花使煎好的牛排脂香四溢，个人认为是牛排部位里性价比最高的。牛排煎制非常简单，掌握几个小窍门就够了。好的牛排吃原味都很棒，连酱汁都不用做。只要几分钟，就可以假装在西餐厅用餐啦！",
          "type" : 0,
          "icon" : "",
          "u" : "",
          "color" : ""
        }
      ],
      "cookstep" : [
        {
          "content" : "选一块漂亮的原切西冷牛排，尽量不要腌制过的；如果是冷冻的需要提前取出放在冰箱冷藏室化冻，完全解冻后用厨房用纸吸去血水即可，不能用水冲洗，会损失风味。",
          "image" : "https:\/\/i1.douguo.com\/upload\/caiku\/a\/2\/7\/a22764ae14a0f86d7457338cd0008027.jpg",
          "image_width" : 1280,
          "thumb" : "https:\/\/i1.douguo.com\/upload\/caiku\/a\/2\/7\/140_a22764ae14a0f86d7457338cd0008027.jpg",
          "frame" : "-1",
          "position" : 1,
          "image_height" : 1707
        },
        {
          "thumb" : "https:\/\/i1.douguo.com\/upload\/caiku\/d\/6\/2\/140_d634c1854aad5269cccd61c1e4f86772.jpg",
          "image_height" : 1536,
          "frame" : "-1",
          "image_width" : 1152,
          "position" : 2,
          "content" : "牛排表面撒一层研磨黑胡椒，一层海盐，我用的是那种研磨的喜马拉雅粉盐，味道还不错。另一面也是一样操作。",
          "image" : "https:\/\/i1.douguo.com\/upload\/caiku\/d\/6\/2\/d634c1854aad5269cccd61c1e4f86772.jpg"
        },
        {
          "image_width" : 1280,
          "image" : "https:\/\/i1.douguo.com\/upload\/caiku\/1\/c\/7\/1c3e41c26f5c338c4ba6db9380465587.jpg",
          "image_height" : 1707,
          "thumb" : "https:\/\/i1.douguo.com\/upload\/caiku\/1\/c\/7\/140_1c3e41c26f5c338c4ba6db9380465587.jpg",
          "content" : "给牛排淋上橄榄油开始按摩按摩，翻面再做一遍，让它放松，很好的吸收。",
          "position" : 3,
          "frame" : "-1"
        },
        {
          "content" : "按摩完毕大概腌制二十分钟。",
          "thumb" : "https:\/\/i1.douguo.com\/upload\/caiku\/f\/9\/e\/140_f96cfd5e6947da762f5dcc221b3764be.jpg",
          "position" : 4,
          "image_height" : 960,
          "image" : "https:\/\/i1.douguo.com\/upload\/caiku\/f\/9\/e\/f96cfd5e6947da762f5dcc221b3764be.jpg",
          "frame" : "-1",
          "image_width" : 1280
        },
        {
          "frame" : "-1",
          "content" : "腌牛肉期间处理配菜，芦笋事先削去根部老皮，开水里焯烫一分钟，摆盘里即可",
          "image" : "https:\/\/i1.douguo.com\/upload\/caiku\/6\/e\/6\/6e3c8818a77b729b3e74469de97435d6.jpg",
          "image_width" : 1280,
          "position" : 5,
          "image_height" : 960,
          "thumb" : "https:\/\/i1.douguo.com\/upload\/caiku\/6\/e\/6\/140_6e3c8818a77b729b3e74469de97435d6.jpg"
        },
        {
          "image_width" : 800,
          "content" : "口蘑洗净一切四块，撒点黑胡椒粉、海盐，用少许橄榄油拌匀备用",
          "position" : 6,
          "image_height" : 1067,
          "image" : "https:\/\/i1.douguo.com\/upload\/caiku\/6\/e\/3\/6e2d95f150cae6399e2e56600b32bc43.jpg",
          "frame" : "-1",
          "thumb" : "https:\/\/i1.douguo.com\/upload\/caiku\/6\/e\/3\/140_6e2d95f150cae6399e2e56600b32bc43.jpg"
        },
        {
          "image_height" : 1067,
          "content" : "将平底锅烧热，可以洒几滴水上去，水滴成为一个滚动的小圆球立马蒸发的时候温度就够了",
          "image_width" : 800,
          "position" : 7,
          "frame" : "-1",
          "image" : "https:\/\/i1.douguo.com\/upload\/caiku\/d\/3\/6\/d329de979a8394fa56a04e94b45e1b46.jpg",
          "thumb" : "https:\/\/i1.douguo.com\/upload\/caiku\/d\/3\/6\/140_d329de979a8394fa56a04e94b45e1b46.jpg"
        },
        {
          "image_width" : 1280,
          "frame" : "-1",
          "content" : "诀窍一，不要另外倒油到锅里，用腌制牛排的油最好了，倒进锅里稍微热一下，调到中火下牛排煎大概四十五秒翻面",
          "image" : "https:\/\/i1.douguo.com\/upload\/caiku\/e\/9\/b\/e9e0305f97c74033bc609ff9f95ba58b.jpg",
          "thumb" : "https:\/\/i1.douguo.com\/upload\/caiku\/e\/9\/b\/140_e9e0305f97c74033bc609ff9f95ba58b.jpg",
          "position" : 8,
          "image_height" : 1707
        },
        {
          "content" : "翻面后是微焦的状态，另一面也是煎45秒。这块牛排厚度在1.5厘米左右，不是太厚，再厚的牛排一面可以煎一分钟，这样出锅差不多是七分熟",
          "image" : "https:\/\/i1.douguo.com\/upload\/caiku\/9\/6\/8\/96f3e474a2475c613024df7c299f9c48.jpg",
          "position" : 9,
          "thumb" : "https:\/\/i1.douguo.com\/upload\/caiku\/9\/6\/8\/140_96f3e474a2475c613024df7c299f9c48.jpg",
          "image_width" : 1280,
          "image_height" : 1707,
          "frame" : "-1"
        },
        {
          "frame" : "-1",
          "image_width" : 1280,
          "image" : "https:\/\/i1.douguo.com\/upload\/caiku\/1\/1\/1\/1179d82f4e9627932896e7a32c971021.jpg",
          "image_height" : 1707,
          "content" : "诀窍二，把牛排立起来煎一下锁边，变色即可，四个面都要煎到，这是锁住汁水的关键",
          "position" : 10,
          "thumb" : "https:\/\/i1.douguo.com\/upload\/caiku\/1\/1\/1\/140_1179d82f4e9627932896e7a32c971021.jpg"
        },
        {
          "position" : 11,
          "frame" : "-1",
          "thumb" : "https:\/\/i1.douguo.com\/upload\/caiku\/6\/9\/7\/140_691a1963d85df2843047ee05a47a4b27.jpg",
          "image_height" : 1067,
          "image_width" : 800,
          "image" : "https:\/\/i1.douguo.com\/upload\/caiku\/6\/9\/7\/691a1963d85df2843047ee05a47a4b27.jpg",
          "content" : "诀窍三，临出锅前把火调到最最小，丢一块黄油进去融化，左右倾斜锅子用融化的黄油来回冲刷牛排"
        },
        {
          "image" : "https:\/\/i1.douguo.com\/upload\/caiku\/3\/8\/0\/383eebb9455369c68e5d7cc812c4f340.jpg",
          "image_height" : 1707,
          "frame" : "-1",
          "position" : 12,
          "content" : "大概十几秒，就能看到黄油渐渐的由金色变成了棕色，这是就可以关火出锅啦",
          "image_width" : 1280,
          "thumb" : "https:\/\/i1.douguo.com\/upload\/caiku\/3\/8\/0\/140_383eebb9455369c68e5d7cc812c4f340.jpg"
        },
        {
          "frame" : "-1",
          "thumb" : "https:\/\/i1.douguo.com\/upload\/caiku\/f\/2\/a\/140_f26c7b51019b69986a5232ffed1c788a.jpg",
          "image_width" : 1280,
          "image" : "https:\/\/i1.douguo.com\/upload\/caiku\/f\/2\/a\/f26c7b51019b69986a5232ffed1c788a.jpg",
          "position" : 13,
          "image_height" : 1707,
          "content" : "盘里铺一块锡纸，把喝饱了黄油奶香四溢的牛排，放进去包好静置三五分钟，让它把汁水再度吸收"
        },
        {
          "frame" : "-1",
          "thumb" : "https:\/\/i1.douguo.com\/upload\/caiku\/4\/c\/4\/140_4c1ee01bb22fa24a67ad96aad967b8e4.jpg",
          "position" : 14,
          "image" : "https:\/\/i1.douguo.com\/upload\/caiku\/4\/c\/4\/4c1ee01bb22fa24a67ad96aad967b8e4.jpg",
          "content" : "锅里的余油正好煎口蘑，进锅后翻炒一下",
          "image_height" : 1536,
          "image_width" : 1152
        },
        {
          "frame" : "-1",
          "image_height" : 1707,
          "position" : 15,
          "content" : "口蘑煎至金黄色即可出锅摆盘",
          "image_width" : 1280,
          "image" : "https:\/\/i1.douguo.com\/upload\/caiku\/7\/1\/8\/714b0ef10162c57d7af585106bfc96f8.jpg",
          "thumb" : "https:\/\/i1.douguo.com\/upload\/caiku\/7\/1\/8\/140_714b0ef10162c57d7af585106bfc96f8.jpg"
        },
        {
          "thumb" : "https:\/\/i1.douguo.com\/upload\/caiku\/b\/9\/5\/140_b90e3c59dad825b819ab7e10e2a7c245.jpg",
          "image" : "https:\/\/i1.douguo.com\/upload\/caiku\/b\/9\/5\/b90e3c59dad825b819ab7e10e2a7c245.jpg",
          "image_width" : 1280,
          "position" : 16,
          "content" : "牛排取出来，可以用吸油纸吸掉表面过多的油份，不介意的就直接按自己的喜好摆好，可以开吃啦！",
          "image_height" : 960,
          "frame" : "-1"
        },
        {
          "frame" : "-1",
          "thumb" : "https:\/\/i1.douguo.com\/upload\/caiku\/d\/c\/3\/140_dc39803031b679f2bd67ed1e9ed52a33.jpg",
          "image" : "https:\/\/i1.douguo.com\/upload\/caiku\/d\/c\/3\/dc39803031b679f2bd67ed1e9ed52a33.jpg",
          "image_width" : 1280,
          "position" : 17,
          "content" : "我额外做了红酒洋葱汁，酸甜口感也不错",
          "image_height" : 960
        }
      ],
      "recipe_list_tags" : [
        {
          "text_color" : "#141515",
          "background_border_color" : "",
          "background_start_color" : "#F4F5F5",
          "jump_url" : "",
          "text" : "关注的人",
          "background_end_color" : "#F4F5F5",
          "right_image" : ""
        },
        {
          "text_color" : "#141515",
          "jump_url" : "",
          "background_start_color" : "#F4F5F5",
          "text" : "内容详细",
          "right_image" : "",
          "background_border_color" : "",
          "background_end_color" : "#F4F5F5"
        }
      ],
      "purl" : "",
      "image" : "http:\/\/i1.douguo.net\/upload\/caiku\/e\/2\/6\/300_e2f32c890387889eddfe4e7ff6394dc6.jpg",
      "brand_day_dsp" : [

      ],
      "author_verified" : 1,
      "story_dsp" : [

      ],
      "dish_count" : 35,
      "rpst" : "",
      "photo_path" : "https:\/\/i1.douguo.com\/upload\/caiku\/e\/2\/6\/600_e2f32c890387889eddfe4e7ff6394dc6.jpg",
      "tips" : "小诀窍都写在过程描述里了哦(´-ω-`)\n另外牛排建议选择进口谷饲牛排，不是崇洋媚外，一方水土养一方牛，口感和那种奶香味真的有差距，可以自行对比٩(๑^o^๑)۶\n有朋友跟我交流说最后黄油浴的时候忘记了开小火，结果肉老了，是的，再嘱咐大家一句，一定要用最小最小的火苗将黄油块融化，冲刷牛排过程中甚至是可以离火进行的，尤其是前面煎制时间已经较长了就更需要注意哦。",
      "rewarded_video_dsp" : [

      ],
      "ipoi" : "",
      "cook_time_image" : "https:\/\/i1.douguo.com\/upload\/banner\/1551424341.png"
    }
  },
  "state" : "success",
  "status" : 0
}