{
  "state" : "success",
  "status" : 0,
  "result" : {
    "recipe" : {
      "rewarded_video_dsp" : [

      ],
      "ph" : 600,
      "rrpt" : "",
      "tips" : "太太乐，自从认识了太太乐，我不是太太我也乐啊，太太乐真不错(*๓´╰╯`๓)♡",
      "ecs" : 1,
      "mid_mdsp" : [

      ],
      "notes" : [

      ],
      "recipe_tags" : [

      ],
      "rpst" : "",
      "guide_image" : "",
      "cook_difficulty" : "切墩(初级)",
      "brand_day_dsp" : [

      ],
      "first_level_comment_count" : 2,
      "user" : {
        "dishes_count" : 0,
        "favor_diaries_count" : 0,
        "is_prime" : 0,
        "lvl" : 6,
        "fc" : 0,
        "setted_email" : 0,
        "verified_image" : "https:\/\/i1.douguo.com\/upload\/note\/d\/a\/a\/da84247847aebe48d9dd0fcdac88862a.png",
        "email" : "",
        "recipes_count" : 0,
        "followers_count" : 0,
        "qq_weibo_nick" : "",
        "progress_image" : "",
        "pc" : 0,
        "regist_time" : "",
        "introduction" : "",
        "avatar_medium" : "http:\/\/tx1.douguo.net\/upload\/photo\/5\/f\/e\/140_u50409977552991202840.jpg",
        "verified_url" : "https:\/\/m.douguo.com\/user\/prodesc",
        "birthday" : "",
        "mobile" : "",
        "gender" : 1,
        "following_count" : 0,
        "point" : 0,
        "verified" : 1,
        "userid" : "15892766",
        "nick" : "请叫我闪电侠",
        "qzone_nick" : "",
        "coursecount" : 0,
        "user_photo" : "http:\/\/tx1.douguo.net\/upload\/photo\/5\/f\/e\/70_u50409977552991202840.jpg",
        "user_cover" : "",
        "location" : 0,
        "sign" : "",
        "age" : "",
        "subscription_article_count" : 0,
        "user_large_photo" : "http:\/\/tx1.douguo.net\/upload\/photo\/5\/f\/e\/yuan_u50409977552991202840.jpg",
        "weibo_nick" : "",
        "lv" : 0,
        "user_id" : "15892766",
        "diaries_count" : 0,
        "subscription" : 0,
        "favorites_count" : 0
      },
      "create_time" : "2021-01-20 14:43:07",
      "su" : "",
      "favo_counts_text" : "3088",
      "ipia" : [

      ],
      "related_ads" : [

      ],
      "act_des" : "",
      "cookstory" : "最近被抓去打零工，每天回家已经要累死了，第二天还不愿意吃外卖，快手菜真是救星。",
      "thumb_height" : 0,
      "recommendation_tag" : "",
      "share_info" : {
        "s_u" : "http:\/\/m.douguo.com\/cookbook\/3054625.html",
        "s_d" : "#百变鲜锋料理#葱香蚝汁肉片-会做饭很酷!",
        "name" : "#百变鲜锋料理#葱香蚝汁肉片-会做饭很酷!",
        "mini_program" : [

        ],
        "image" : "https:\/\/cp1.douguo.com\/upload\/caiku\/c\/7\/d\/c710cdaf8392662511cae665d25b07ad.jpg",
        "infos" : [
          {
            "image" : "https:\/\/cp1.douguo.com\/upload\/caiku\/c\/7\/d\/c710cdaf8392662511cae665d25b07ad.jpg",
            "mini_program" : [

            ],
            "qr_image" : "",
            "name" : "#百变鲜锋料理#葱香蚝汁肉片-会做饭很酷!",
            "s_d" : "#学做饭用豆果美食#  我在@豆果美食 分享了【#百变鲜锋料理#葱香蚝汁肉片-会做饭很酷!】，制作美食的过程承载了我生活中的热情，和我一起感受这份小确幸吧！查看图片了解菜谱（你喜欢的美食都在这里！https:\/\/m.weibo.cn\/p\/100404i33631）#会做饭很酷# ",
            "object_id" : "3054625",
            "channel" : "1",
            "s_u" : ""
          },
          {
            "image" : "https:\/\/cp1.douguo.com\/upload\/caiku\/c\/7\/d\/c710cdaf8392662511cae665d25b07ad.jpg",
            "object_id" : "3054625",
            "qr_image" : "",
            "channel" : "7",
            "s_d" : "#百变鲜锋料理#葱香蚝汁肉片-会做饭很酷!",
            "mini_program" : [

            ],
            "name" : "#百变鲜锋料理#葱香蚝汁肉片-会做饭很酷!",
            "s_u" : "http:\/\/m.douguo.com\/cookbook\/3054625.html"
          },
          {
            "s_u" : "http:\/\/m.douguo.com\/cookbook\/3054625.html",
            "object_id" : "3054625",
            "mini_program" : [

            ],
            "qr_image" : "",
            "s_d" : "#百变鲜锋料理#葱香蚝汁肉片-会做饭很酷!",
            "channel" : "8",
            "name" : "#百变鲜锋料理#葱香蚝汁肉片-会做饭很酷!",
            "image" : "https:\/\/cp1.douguo.com\/upload\/caiku\/c\/7\/d\/c710cdaf8392662511cae665d25b07ad.jpg"
          }
        ],
        "qr_image" : "",
        "object_id" : "3054625"
      },
      "rips" : 0,
      "display_ingredient" : 1,
      "ipoi" : "",
      "cookstep" : [
        {
          "position" : 1,
          "frame" : "-1",
          "image" : "https:\/\/i1.douguo.com\/upload\/caiku\/a\/4\/4\/a4c5dd3c415f5fdfb789b452737ef904.jpg",
          "content" : "猪瘦肉切薄片加入一勺耗油，一勺生抽，适量胡椒粉，一勺料酒",
          "image_height" : 600,
          "image_width" : 800,
          "thumb" : "https:\/\/i1.douguo.com\/upload\/caiku\/a\/4\/4\/140_a4c5dd3c415f5fdfb789b452737ef904.jpg"
        },
        {
          "image_height" : 960,
          "image_width" : 1280,
          "position" : 2,
          "frame" : "-1",
          "image" : "https:\/\/i1.douguo.com\/upload\/caiku\/c\/4\/e\/c49d0604fac811088396c0b48020d20e.jpg",
          "content" : "再加入一勺香油，半个鸡蛋清，一勺淀粉抓匀上浆",
          "thumb" : "https:\/\/i1.douguo.com\/upload\/caiku\/c\/4\/e\/140_c49d0604fac811088396c0b48020d20e.jpg"
        },
        {
          "image_width" : 1280,
          "content" : "加一点玉米油锁住水份",
          "frame" : "-1",
          "image" : "https:\/\/i1.douguo.com\/upload\/caiku\/3\/6\/d\/36bf4bbe158c406c0ae1bacc3cf0b91d.jpg",
          "position" : 3,
          "image_height" : 960,
          "thumb" : "https:\/\/i1.douguo.com\/upload\/caiku\/3\/6\/d\/140_36bf4bbe158c406c0ae1bacc3cf0b91d.jpg"
        },
        {
          "image" : "https:\/\/i1.douguo.com\/upload\/caiku\/3\/5\/5\/3521bae92f2883f37741549a8ddf7c25.jpg",
          "image_height" : 960,
          "image_width" : 1280,
          "position" : 4,
          "frame" : "-1",
          "content" : "如图备料",
          "thumb" : "https:\/\/i1.douguo.com\/upload\/caiku\/3\/5\/5\/140_3521bae92f2883f37741549a8ddf7c25.jpg"
        },
        {
          "image_height" : 600,
          "content" : "起锅烧油下入干辣椒和花椒，再加入姜蒜爆香",
          "image_width" : 800,
          "image" : "https:\/\/i1.douguo.com\/upload\/caiku\/c\/f\/7\/cf00119f66cf7aa77dae29a326e01377.jpg",
          "frame" : "-1",
          "thumb" : "https:\/\/i1.douguo.com\/upload\/caiku\/c\/f\/7\/140_cf00119f66cf7aa77dae29a326e01377.jpg",
          "position" : 5
        },
        {
          "image_width" : 800,
          "frame" : "-1",
          "image_height" : 600,
          "position" : 6,
          "image" : "https:\/\/i1.douguo.com\/upload\/caiku\/9\/8\/6\/98722e741f18a17b9f0975157ab915f6.jpg",
          "content" : "把肉片滑散炒至变色",
          "thumb" : "https:\/\/i1.douguo.com\/upload\/caiku\/9\/8\/6\/140_98722e741f18a17b9f0975157ab915f6.jpg"
        },
        {
          "image_height" : 960,
          "frame" : "-1",
          "content" : "倒入备好的料快速翻炒",
          "position" : 7,
          "image" : "https:\/\/i1.douguo.com\/upload\/caiku\/4\/3\/f\/43c98d37042607e6808afaf438542dbf.jpg",
          "image_width" : 1280,
          "thumb" : "https:\/\/i1.douguo.com\/upload\/caiku\/4\/3\/f\/140_43c98d37042607e6808afaf438542dbf.jpg"
        },
        {
          "position" : 8,
          "content" : "尝下咸淡，可再加一点蚝油和盐调味，也可以加一点糖提味。",
          "image_height" : 960,
          "frame" : "-1",
          "thumb" : "https:\/\/i1.douguo.com\/upload\/caiku\/6\/4\/a\/140_647748774575df3e3560fb8fa0d1897a.jpg",
          "image_width" : 1280,
          "image" : "https:\/\/i1.douguo.com\/upload\/caiku\/6\/4\/a\/647748774575df3e3560fb8fa0d1897a.jpg"
        },
        {
          "image_height" : 600,
          "image_width" : 800,
          "thumb" : "https:\/\/i1.douguo.com\/upload\/caiku\/d\/2\/5\/140_d2d42902ca78d64c71a8e45195465ba5.jpg",
          "content" : "盛出开吃，完美～",
          "frame" : "-1",
          "image" : "https:\/\/i1.douguo.com\/upload\/caiku\/d\/2\/5\/d2d42902ca78d64c71a8e45195465ba5.jpg",
          "position" : 9
        }
      ],
      "author_verified" : 1,
      "rrps" : [

      ],
      "rate_show" : 0,
      "old_comments" : [

      ],
      "pw" : 800,
      "ipit" : 0,
      "comments" : [
        "{\n    ac = \"#999999\";\n    at = \"\\U6210\\U90fd\\U5e02\";\n    ccc = 1;\n    \"child_comments\" =     (\n                {\n            ac = \"#999999\";\n            at = \"\\U6210\\U90fd\\U5e02\";\n            ccc = 0;\n            city = \"\\U6210\\U90fd\\U5e02\";\n            cmc = 2;\n            content =             (\n                                {\n                    c = \" \\U54c8\\U54c8\\U54c8\\U5e72\\U996d\\U4eba\";\n                }\n            );\n            ia = 1;\n            id = 8481024;\n            \"ip_address_location\" = \"\";\n            like = 0;\n            \"like_count\" = 0;\n            \"reply_id\" = 8480033;\n            \"reply_user\" =             {\n                \"followers_count_text\" = \"\";\n                id = 25969330;\n                \"is_prime\" = 0;\n                lv = 0;\n                lvl = 6;\n                n = \"\\U5343\\U5343\\U5343\\U7ed3\";\n                p = \"http:\/\/tx1.douguo.net\/upload\/photo\/1\/5\/d\/70_u00929496906880144701.jpeg\";\n                \"progress_image\" = \"\";\n                \"recipes_count_text\" = \"\";\n                relationship = \"-1\";\n                title = \"\";\n                v = 1;\n                \"verified_image\" = \"\";\n            };\n            \"sticker_icon\" =             (\n            );\n            time = \"2021-01-28 00:16:43\";\n            u =             {\n                \"followers_count_text\" = \"\";\n                id = 15892766;\n                \"is_prime\" = 0;\n                lv = 0;\n                lvl = 6;\n                n = \"\\U8bf7\\U53eb\\U6211\\U95ea\\U7535\\U4fa0\";\n                p = \"http:\/\/tx1.douguo.net\/upload\/photo\/5\/f\/e\/70_u50409977552991202840.jpg\";\n                \"progress_image\" = \"\";\n                \"recipes_count_text\" = \"\";\n                relationship = \"-1\";\n                title = \"\";\n                v = 1;\n                \"verified_image\" = \"\";\n            };\n        }\n    );\n    city = \"\\U6210\\U90fd\\U5e02\";\n    cmc = 2;\n    content =     (\n                {\n            c = \"\\U6253\\U5de5\\U4eba\\U9700\\U8981\\U5feb\\U624b\\U83dc\\Uff0c\\U597d\\U5403\\U53c8\\U901f\\U5ea6\\Ud83d\\Udcaf\\Ud83d\\Udcaf\";\n        }\n    );\n    ia = 0;\n    id = 8480033;\n    \"ip_address_location\" = \"\";\n    like = 0;\n    \"like_count\" = 0;\n    \"reply_id\" = 0;\n    \"sticker_icon\" =     (\n    );\n    time = \"2021-01-27 18:15:14\";\n    u =     {\n        \"followers_count_text\" = \"\";\n        id = 25969330;\n        \"is_prime\" = 0;\n        lv = 0;\n        lvl = 6;\n        n = \"\\U5343\\U5343\\U5343\\U7ed3\";\n        p = \"http:\/\/tx1.douguo.net\/upload\/photo\/1\/5\/d\/70_u00929496906880144701.jpeg\";\n        \"progress_image\" = \"\";\n        \"recipes_count_text\" = \"\";\n        relationship = \"-1\";\n        title = \"\";\n        v = 1;\n        \"verified_image\" = \"\";\n    };\n}",
        "{\n    ac = \"#999999\";\n    at = \"\\U4f73\\U6728\\U65af\\U5e02\";\n    ccc = 1;\n    \"child_comments\" =     (\n                {\n            ac = \"#999999\";\n            at = \"\\U6210\\U90fd\\U5e02\";\n            ccc = 0;\n            city = \"\\U6210\\U90fd\\U5e02\";\n            cmc = 2;\n            content =             (\n                                {\n                    c = \" \\U7c91\\U7c91\";\n                }\n            );\n            ia = 1;\n            id = 8481025;\n            \"ip_address_location\" = \"\";\n            like = 0;\n            \"like_count\" = 0;\n            \"reply_id\" = 8478843;\n            \"reply_user\" =             {\n                \"followers_count_text\" = \"\";\n                id = 53528;\n                \"is_prime\" = 0;\n                lv = 0;\n                lvl = 6;\n                n = \"\\U80cc\\U5bf9\\U56de\\U5fc6\";\n                p = \"http:\/\/tx1.douguo.net\/upload\/photo\/5\/9\/1\/70_u14627320001955.jpg\";\n                \"progress_image\" = \"\";\n                \"recipes_count_text\" = \"\";\n                relationship = \"-1\";\n                title = \"\";\n                v = 1;\n                \"verified_image\" = \"\";\n            };\n            \"sticker_icon\" =             (\n            );\n            time = \"2021-01-28 00:16:49\";\n            u =             {\n                \"followers_count_text\" = \"\";\n                id = 15892766;\n                \"is_prime\" = 0;\n                lv = 0;\n                lvl = 6;\n                n = \"\\U8bf7\\U53eb\\U6211\\U95ea\\U7535\\U4fa0\";\n                p = \"http:\/\/tx1.douguo.net\/upload\/photo\/5\/f\/e\/70_u50409977552991202840.jpg\";\n                \"progress_image\" = \"\";\n                \"recipes_count_text\" = \"\";\n                relationship = \"-1\";\n                title = \"\";\n                v = 1;\n                \"verified_image\" = \"\";\n            };\n        }\n    );\n    city = \"\\U4f73\\U6728\\U65af\\U5e02\";\n    cmc = 2;\n    content =     (\n                {\n            c = \"\\U6211\\U6765\\U4e86\\Uff0c\\U6211\\U6765\\U4e86\\U5c0f\\U5b9d\\U5b9d\\Uff0c\\U54c8\\U54c8\\U54c8\\Ud83d\\Udcaf\\Ud83d\\Udcaf\";\n        }\n    );\n    ia = 0;\n    id = 8478843;\n    \"ip_address_location\" = \"\";\n    like = 0;\n    \"like_count\" = 0;\n    \"reply_id\" = 0;\n    \"sticker_icon\" =     (\n    );\n    time = \"2021-01-27 10:45:33\";\n    u =     {\n        \"followers_count_text\" = \"\";\n        id = 53528;\n        \"is_prime\" = 0;\n        lv = 0;\n        lvl = 6;\n        n = \"\\U80cc\\U5bf9\\U56de\\U5fc6\";\n        p = \"http:\/\/tx1.douguo.net\/upload\/photo\/5\/9\/1\/70_u14627320001955.jpg\";\n        \"progress_image\" = \"\";\n        \"recipes_count_text\" = \"\";\n        relationship = \"-1\";\n        title = \"\";\n        v = 1;\n        \"verified_image\" = \"\";\n    };\n}"
      ],
      "comments_count" : 4,
      "title_ad" : [

      ],
      "image" : "http:\/\/i1.douguo.net\/upload\/caiku\/c\/7\/d\/300_c710cdaf8392662511cae665d25b07ad.jpg",
      "purl" : "",
      "tags" : [

      ],
      "story_dsp" : [

      ],
      "views_count_text" : "10.7万",
      "advice" : {
        "has" : [
          {
            "url" : "recipes:\/\/www.douguo.com\/simplerecipelist?t=富含铁&id=富含铁",
            "t" : "富含铁"
          }
        ],
        "at" : "补血养颜，女生更要多吃～",
        "da" : {
          "url" : "https:\/\/m.douguo.com\/recipe\/nutrient_self\/3054625",
          "iu" : "https:\/\/i1.douguo.com\/upload\/banner\/f\/4\/d\/f48877e53c37759bc12ac494be82ec8d.png",
          "t" : "查看详细分析"
        }
      },
      "hq" : 1,
      "comments_count_text" : "4",
      "cook_time" : "10分钟左右",
      "ipci" : "",
      "cook_difficulty_image" : "https:\/\/i1.douguo.com\/upload\/banner\/1551424390.png",
      "event" : {
        "name" : "0元试用| 不再甩的太太乐鲍汁蚝油驾到",
        "id" : 2923,
        "url" : "https:\/\/m.douguo.com\/activity\/ncpzj\/detail\/2923?isapp=1&open=0&_vs=1000300&&dg_refreshkey=publishnote"
      },
      "rate" : 0,
      "sc" : 0,
      "release_time" : "",
      "recommended" : 0,
      "rpt" : "",
      "btm_dsp" : [

      ],
      "vfurl" : "",
      "recommend_label" : "3088人刚刚收藏过",
      "cook_id" : "3054625",
      "rsm" : "该功能暂停使用",
      "hqu" : "recipes:\/\/www.douguo.com\/notedetail?id=21162253",
      "original_photo_path" : "http:\/\/i1.douguo.net\/upload\/caiku\/c\/7\/d\/yuan_c710cdaf8392662511cae665d25b07ad.jpg",
      "photo_path" : "https:\/\/i1.douguo.com\/upload\/caiku\/c\/7\/d\/600_c710cdaf8392662511cae665d25b07ad.jpg",
      "favo_counts" : 3088,
      "cook_time_image" : "https:\/\/i1.douguo.com\/upload\/banner\/1551424358.png",
      "vc" : "106716",
      "dish_count_text" : "",
      "title" : "葱香蚝汁肉片",
      "packages_id" : [

      ],
      "rate_count" : 0,
      "top_mdsp" : [

      ],
      "thumb_path" : "https:\/\/i1.douguo.com\/upload\/caiku\/c\/7\/d\/300_c710cdaf8392662511cae665d25b07ad.jpg",
      "cookstorys" : [
        {
          "u" : "",
          "id" : 0,
          "type" : 0,
          "c" : "最近被抓去打零工，每天回家已经要累死了，第二天还不愿意吃外卖，快手菜真是救星。",
          "color" : "",
          "icon" : ""
        },
        {
          "type" : 0,
          "icon" : "",
          "u" : "",
          "id" : 0,
          "c" : "\n参与活动:",
          "color" : ""
        },
        {
          "id" : 0,
          "type" : 0,
          "c" : "#0元试用| 不再甩的太太乐鲍汁蚝油驾到#",
          "icon" : "",
          "u" : "https:\/\/m.douguo.com\/activity\/ncpzj\/detail\/2923?isapp=1&open=0&_vs=1000300&&dg_refreshkey=publishnote"
        }
      ],
      "ss" : [

      ],
      "ipt" : "",
      "recent_comments" : [

      ],
      "author_photo" : "http:\/\/tx1.douguo.net\/upload\/photo\/5\/f\/e\/70_u50409977552991202840.jpg",
      "vu" : "",
      "eu" : "recipes:\/\/www.douguo.com\/postdetail?id=242016",
      "cookwares" : [

      ],
      "minor" : [

      ],
      "clicks" : "106185",
      "v_u" : "",
      "recipe_list_tags" : [
        {
          "text" : "关注的人",
          "background_start_color" : "#F4F5F5",
          "right_image" : "",
          "background_end_color" : "#F4F5F5",
          "text_color" : "#141515",
          "background_border_color" : "",
          "jump_url" : ""
        },
        {
          "background_end_color" : "#F4F5F5",
          "jump_url" : "",
          "text_color" : "#141515",
          "background_start_color" : "#F4F5F5",
          "background_border_color" : "",
          "right_image" : "",
          "text" : "内容详细"
        }
      ],
      "levelid" : 2,
      "sr" : "",
      "collect_status" : 0,
      "ipurl" : "",
      "author" : "请叫我闪电侠",
      "rpid" : 0,
      "bs" : [

      ],
      "dish_count" : 0,
      "ssu" : "",
      "author_id" : 15892766,
      "dishes" : [

      ],
      "rcs" : [

      ],
      "rdsps" : [

      ],
      "major" : [
        {
          "note" : "二两",
          "title" : "猪瘦肉"
        },
        {
          "title" : "蒜",
          "note" : "三瓣",
          "tu" : "https:\/\/m.douguo.com\/ingredients\/蒜\/detailmaterial"
        },
        {
          "title" : "姜",
          "tu" : "https:\/\/m.douguo.com\/ingredients\/姜\/detailmaterial",
          "note" : "3片"
        },
        {
          "tu" : "https:\/\/m.douguo.com\/ingredients\/大葱\/detailmaterial",
          "title" : "大葱",
          "note" : "1根"
        },
        {
          "tu" : "https:\/\/m.douguo.com\/ingredients\/蚝油\/detailmaterial",
          "title" : "蚝油",
          "note" : "2勺"
        },
        {
          "note" : "1勺",
          "tu" : "https:\/\/m.douguo.com\/ingredients\/料酒\/detailmaterial",
          "title" : "料酒"
        },
        {
          "note" : "1勺",
          "title" : "淀粉"
        },
        {
          "tu" : "https:\/\/m.douguo.com\/ingredients\/香油\/detailmaterial",
          "title" : "香油",
          "note" : "1勺"
        },
        {
          "title" : "二荆条",
          "note" : "2根"
        },
        {
          "title" : "小米辣",
          "note" : "3个"
        },
        {
          "note" : "5克",
          "title" : "木耳",
          "tu" : "https:\/\/m.douguo.com\/ingredients\/木耳\/detailmaterial"
        }
      ]
    }
  }
}