{
  "result" : {
    "recipe" : {
      "notes" : [

      ],
      "rdsps" : [

      ],
      "purl" : "",
      "title" : "烤脑花",
      "photo_path" : "https:\/\/i1.douguo.com\/upload\/caiku\/3\/f\/c\/600_3fca7bacd7ba48fd7385395454fce76c.jpg",
      "comments" : [
        "{\n    ac = \"#999999\";\n    at = \"\\U90d1\\U5dde\\U5e02\";\n    ccc = 1;\n    \"child_comments\" =     (\n                {\n            ac = \"#999999\";\n            at = \"\";\n            ccc = 0;\n            city = \"\";\n            cmc = 2;\n            content =             (\n                                {\n                    c = \" \\U914d\\U83dc\\U6709\\U6d0b\\U8471\\U91d1\\U9488\\U83c7\";\n                }\n            );\n            ia = 0;\n            id = 8972811;\n            \"ip_address_location\" = \"\\U8d35\\U5dde\\U7701\";\n            like = 0;\n            \"like_count\" = 0;\n            \"reply_id\" = 6918887;\n            \"reply_user\" =             {\n                \"followers_count_text\" = \"\";\n                id = 17058201;\n                \"is_prime\" = 0;\n                lv = 0;\n                lvl = 1;\n                n = \"\\U840d\\U840drukb\";\n                p = \"http:\/\/tx1.douguo.net\/upload\/photo\/1\/0\/d\/70_u59772986708947202930.jpg\";\n                \"progress_image\" = \"\";\n                \"recipes_count_text\" = \"\";\n                relationship = \"-1\";\n                title = \"\";\n                v = 0;\n                \"verified_image\" = \"\";\n            };\n            \"sticker_icon\" =             (\n            );\n            time = \"2022-10-01 20:06:38\";\n            u =             {\n                \"followers_count_text\" = \"\";\n                id = 27353478;\n                \"is_prime\" = 0;\n                lv = 0;\n                lvl = 1;\n                n = \"\\U4e0d\\U7761\\U89c9\\U7684\\U6392\\U9aa8quzk\";\n                p = \"\";\n                \"progress_image\" = \"\";\n                \"recipes_count_text\" = \"\";\n                relationship = \"-1\";\n                title = \"\";\n                v = 0;\n                \"verified_image\" = \"\";\n            };\n        }\n    );\n    city = \"\\U90d1\\U5dde\\U5e02\";\n    cmc = 2;\n    content =     (\n                {\n            c = \"\\U6c99\\U96d5\\Uff0c\\U914d\\U83dc\\U4e86\\Uff1f\\Uff1f\\U914d\\U83dc\\U662f\\U4ec0\\U4e48\\Uff0c\\U4ec0\\U4e48\\U6599\\Uff1f\\Uff1f\\Uff1f\";\n        }\n    );\n    ia = 0;\n    id = 6918887;\n    \"ip_address_location\" = \"\";\n    like = 0;\n    \"like_count\" = 1;\n    \"reply_id\" = 0;\n    \"sticker_icon\" =     (\n    );\n    time = \"2019-08-18 08:55:58\";\n    u =     {\n        \"followers_count_text\" = \"\";\n        id = 17058201;\n        \"is_prime\" = 0;\n        lv = 0;\n        lvl = 1;\n        n = \"\\U840d\\U840drukb\";\n        p = \"http:\/\/tx1.douguo.net\/upload\/photo\/1\/0\/d\/70_u59772986708947202930.jpg\";\n        \"progress_image\" = \"\";\n        \"recipes_count_text\" = \"\";\n        relationship = \"-1\";\n        title = \"\";\n        v = 0;\n        \"verified_image\" = \"\";\n    };\n}",
        "{\n    ac = \"#999999\";\n    at = \"\\U4e50\\U5c71\\U5e02\";\n    ccc = 0;\n    \"child_comments\" =     (\n    );\n    city = \"\\U4e50\\U5c71\\U5e02\";\n    cmc = 2;\n    content =     (\n                {\n            c = \"\\U5728\\U54ea\\U91cc\\U8d2d\\U4e70\\U7684\\U9521\\U7b94\\U70e4\\U7897\\Uff1f\";\n        }\n    );\n    ia = 0;\n    id = 8982490;\n    \"ip_address_location\" = \"\\U56db\\U5ddd\";\n    like = 0;\n    \"like_count\" = 0;\n    \"reply_id\" = 0;\n    \"sticker_icon\" =     (\n    );\n    time = \"2022-11-15 19:06:19\";\n    u =     {\n        \"followers_count_text\" = \"\";\n        id = 3993866;\n        \"is_prime\" = 0;\n        lv = 0;\n        lvl = 2;\n        n = \"\\U96f7\\U52515124867\";\n        p = \"http:\/\/tx1.douguo.net\/upload\/photo\/1\/6\/5\/70_u91518918265007095738.jpg\";\n        \"progress_image\" = \"\";\n        \"recipes_count_text\" = \"\";\n        relationship = \"-1\";\n        title = \"\";\n        v = 0;\n        \"verified_image\" = \"\";\n    };\n}",
        "{\n    ac = \"#999999\";\n    at = \"\\U76d0\\U57ce\\U5e02\";\n    ccc = 0;\n    \"child_comments\" =     (\n    );\n    city = \"\\U76d0\\U57ce\\U5e02\";\n    cmc = 2;\n    content =     (\n                {\n            c = \"\\U914d\\U83dc\\U90fd\\U6709\\U5565\\U554a\";\n        }\n    );\n    ia = 0;\n    id = 6948358;\n    \"ip_address_location\" = \"\";\n    like = 0;\n    \"like_count\" = 0;\n    \"reply_id\" = 0;\n    \"sticker_icon\" =     (\n    );\n    time = \"2019-08-23 12:55:26\";\n    u =     {\n        \"followers_count_text\" = \"\";\n        id = 24193491;\n        \"is_prime\" = 0;\n        lv = 0;\n        lvl = 1;\n        n = \"\\U8c46\\U7c899714508380\";\n        p = \"\";\n        \"progress_image\" = \"\";\n        \"recipes_count_text\" = \"\";\n        relationship = \"-1\";\n        title = \"\";\n        v = 0;\n        \"verified_image\" = \"\";\n    };\n}"
      ],
      "favo_counts_text" : "485",
      "clicks" : "74632",
      "cook_time" : "",
      "sc" : 0,
      "cook_id" : "1677935",
      "rrpt" : "",
      "guide_image" : "",
      "cookstory" : "",
      "dish_count" : 0,
      "bs" : [

      ],
      "ssu" : "",
      "ipci" : "",
      "levelid" : 2,
      "create_time" : "2018-05-25 13:25:13",
      "related_ads" : [

      ],
      "cook_difficulty" : "",
      "rcs" : [

      ],
      "top_mdsp" : [

      ],
      "author" : "今天看明天",
      "original_photo_path" : "http:\/\/i1.douguo.net\/upload\/caiku\/3\/f\/c\/yuan_3fca7bacd7ba48fd7385395454fce76c.jpg",
      "vc" : "93699",
      "rrps" : [

      ],
      "recommended" : 0,
      "recipe_list_tags" : [
        {
          "text" : "关注的人",
          "jump_url" : "",
          "right_image" : "",
          "text_color" : "#141515",
          "background_border_color" : "",
          "background_end_color" : "#F4F5F5",
          "background_start_color" : "#F4F5F5"
        }
      ],
      "vfurl" : "",
      "old_comments" : [

      ],
      "title_ad" : [

      ],
      "major" : [
        {
          "note" : "",
          "title" : "脑花"
        }
      ],
      "cookstorys" : [

      ],
      "ipt" : "",
      "rpst" : "",
      "sr" : "",
      "ph" : 750,
      "rpt" : "",
      "recommendation_tag" : "",
      "v_u" : "",
      "ipia" : [

      ],
      "hqu" : "recipes:\/\/www.douguo.com\/notedetail?id=21162253",
      "comments_count_text" : "9",
      "ecs" : 0,
      "story_dsp" : [

      ],
      "recipe_tags" : [

      ],
      "user" : {
        "lv" : 0,
        "diaries_count" : 0,
        "introduction" : "",
        "verified" : 0,
        "favor_diaries_count" : 0,
        "user_large_photo" : "",
        "setted_email" : 0,
        "pc" : 0,
        "user_cover" : "",
        "user_id" : "22087062",
        "point" : 0,
        "coursecount" : 0,
        "favorites_count" : 0,
        "subscription" : 0,
        "location" : 0,
        "qzone_nick" : "",
        "mobile" : "",
        "user_photo" : "",
        "dishes_count" : 0,
        "recipes_count" : 0,
        "followers_count" : 0,
        "age" : "",
        "verified_image" : "",
        "is_prime" : 0,
        "nick" : "今天看明天",
        "email" : "",
        "avatar_medium" : "",
        "progress_image" : "",
        "subscription_article_count" : 0,
        "fc" : 0,
        "lvl" : 1,
        "gender" : 1,
        "regist_time" : "",
        "sign" : "",
        "verified_url" : "https:\/\/m.douguo.com\/user\/prodesc",
        "weibo_nick" : "",
        "userid" : "22087062",
        "following_count" : 0,
        "qq_weibo_nick" : "",
        "birthday" : ""
      },
      "rips" : 0,
      "views_count_text" : "9.4万",
      "first_level_comment_count" : 8,
      "collect_status" : 0,
      "tips" : "",
      "share_info" : {
        "qr_image" : "",
        "s_d" : "烤脑花-会做饭很酷!",
        "name" : "烤脑花-会做饭很酷!",
        "object_id" : "1677935",
        "image" : "https:\/\/cp1.douguo.com\/upload\/caiku\/3\/f\/c\/3fca7bacd7ba48fd7385395454fce76c.jpg",
        "s_u" : "http:\/\/m.douguo.com\/cookbook\/1677935.html",
        "mini_program" : [

        ],
        "infos" : [
          {
            "s_u" : "",
            "image" : "https:\/\/cp1.douguo.com\/upload\/caiku\/3\/f\/c\/3fca7bacd7ba48fd7385395454fce76c.jpg",
            "s_d" : "#学做饭用豆果美食# 我在@豆果美食 分享了【烤脑花-会做饭很酷!】，这菜真的很好吃，而且做法简单不难学，还不快来跟我学～查看图片了解菜谱（每天限量免费课程，想跟大师学厨艺就来这https:\/\/m.weibo.cn\/p\/100404i33631）#会做饭很酷# ",
            "qr_image" : "",
            "mini_program" : [

            ],
            "channel" : "1",
            "object_id" : "1677935",
            "name" : "烤脑花-会做饭很酷!"
          },
          {
            "mini_program" : [

            ],
            "object_id" : "1677935",
            "channel" : "7",
            "image" : "https:\/\/cp1.douguo.com\/upload\/caiku\/3\/f\/c\/3fca7bacd7ba48fd7385395454fce76c.jpg",
            "s_u" : "http:\/\/m.douguo.com\/cookbook\/1677935.html",
            "s_d" : "烤脑花-会做饭很酷!",
            "qr_image" : "",
            "name" : "烤脑花-会做饭很酷!"
          },
          {
            "channel" : "8",
            "s_u" : "http:\/\/m.douguo.com\/cookbook\/1677935.html",
            "qr_image" : "",
            "s_d" : "烤脑花-会做饭很酷!",
            "image" : "https:\/\/cp1.douguo.com\/upload\/caiku\/3\/f\/c\/3fca7bacd7ba48fd7385395454fce76c.jpg",
            "mini_program" : [

            ],
            "object_id" : "1677935",
            "name" : "烤脑花-会做饭很酷!"
          }
        ]
      },
      "cookstep" : [
        {
          "position" : 1,
          "frame" : "-1",
          "thumb" : "https:\/\/i1.douguo.com\/upload\/caiku\/a\/3\/0\/140_a3730f79b6c9ea4c5c0946d7739cb680.jpg",
          "image_width" : 1000,
          "image" : "https:\/\/i1.douguo.com\/upload\/caiku\/a\/3\/0\/a3730f79b6c9ea4c5c0946d7739cb680.jpg",
          "image_height" : 665,
          "content" : "将新鲜脑花用温水浸泡15分钟\n在浸泡的时候将所有的配料切成末\n用牙签挑去脑花上带血的筋膜（可以撕下一层膜），得到一个白净的脑花"
        },
        {
          "image_width" : 1000,
          "content" : "4\n将水烧开后关最小火，放入脑花和料酒微煮，大概3-5分钟\n5\n煮脑花的时候热锅，倒菜油（稍多一点），小火下豆瓣炒出红油之后再将所有切末的佐料倒入炒香，得到红油丰富的酱料",
          "frame" : "-1",
          "position" : 2,
          "image_height" : 750,
          "image" : "https:\/\/i1.douguo.com\/upload\/caiku\/a\/3\/2\/a31ae1bac8cfbf6616e49313fda4eb32.jpg",
          "thumb" : "https:\/\/i1.douguo.com\/upload\/caiku\/a\/3\/2\/140_a31ae1bac8cfbf6616e49313fda4eb32.jpg"
        },
        {
          "content" : "捞出脑花，在烤盘（焗碗）底部铺上生菜，倒入一半的酱料，然后将脑花摊开平铺在盘内，再将剩余的酱料淋在脑花上\n7\n炭火烤15分钟，或烤箱250度20分钟左右",
          "image_width" : 1000,
          "thumb" : "https:\/\/i1.douguo.com\/upload\/caiku\/6\/9\/e\/140_69ffaa530d04471a26a2aa0dbccb157e.jpg",
          "frame" : "-1",
          "image_height" : 750,
          "image" : "https:\/\/i1.douguo.com\/upload\/caiku\/6\/9\/e\/69ffaa530d04471a26a2aa0dbccb157e.jpg",
          "position" : 3
        }
      ],
      "tags" : [

      ],
      "packages_id" : [

      ],
      "ss" : [

      ],
      "recommend_label" : "9.4万人看过",
      "rpid" : 0,
      "minor" : [

      ],
      "rate" : 0,
      "favo_counts" : 485,
      "image" : "http:\/\/i1.douguo.net\/upload\/caiku\/3\/f\/c\/300_3fca7bacd7ba48fd7385395454fce76c.jpg",
      "thumb_path" : "https:\/\/i1.douguo.com\/upload\/caiku\/3\/f\/c\/300_3fca7bacd7ba48fd7385395454fce76c.jpg",
      "mid_mdsp" : [

      ],
      "cook_time_image" : "",
      "btm_dsp" : [

      ],
      "brand_day_dsp" : [

      ],
      "su" : "",
      "author_photo" : "",
      "dishes" : [

      ],
      "author_id" : 22087062,
      "rate_show" : 0,
      "act_des" : "",
      "display_ingredient" : 1,
      "eu" : "recipes:\/\/www.douguo.com\/postdetail?id=242016",
      "thumb_height" : 0,
      "pw" : 1000,
      "comments_count" : 9,
      "dish_count_text" : "",
      "release_time" : "",
      "rewarded_video_dsp" : [

      ],
      "rsm" : "该功能暂停使用",
      "cook_difficulty_image" : "",
      "ipoi" : "",
      "hq" : 1,
      "cookwares" : [

      ],
      "vu" : "",
      "ipurl" : "",
      "recent_comments" : [

      ],
      "author_verified" : 0,
      "rate_count" : 0,
      "ipit" : 0
    }
  },
  "status" : 0,
  "state" : "success"
}