{
  "result" : {
    "recipe" : {
      "sr" : "",
      "cook_difficulty_image" : "https:\/\/i1.douguo.com\/upload\/banner\/1551424390.png",
      "display_ingredient" : 1,
      "advice" : {
        "at" : "健身人群可以吃～",
        "has" : [
          {
            "t" : "低脂",
            "url" : "recipes:\/\/www.douguo.com\/simplerecipelist?t=低脂&id=低脂"
          },
          {
            "url" : "recipes:\/\/www.douguo.com\/simplerecipelist?t=低饱和脂肪&id=低饱和脂肪",
            "t" : "低饱和脂肪"
          }
        ],
        "da" : {
          "url" : "https:\/\/m.douguo.com\/recipe\/nutrient_self\/1659217",
          "t" : "查看详细分析",
          "iu" : "https:\/\/i1.douguo.com\/upload\/banner\/f\/4\/d\/f48877e53c37759bc12ac494be82ec8d.png"
        }
      },
      "collect_status" : 0,
      "cook_time_image" : "https:\/\/i1.douguo.com\/upload\/banner\/1551423815.png",
      "eu" : "recipes:\/\/www.douguo.com\/postdetail?id=242016",
      "minor" : [

      ],
      "mid_mdsp" : [

      ],
      "old_comments" : [

      ],
      "cookstory" : "      到了二月二的晚上8：00，老大突然说：“棋子呢？二月二不是要吃棋子的吗？”好吧，原谅永远没有仪式感的妈妈吧。没过12点，一切来得及，哈哈。\n        其实棋子在我们家一直是作为零食存在的，做棋子，姥姥的水平绝对一流。记忆中，鸡蛋糖面粉拌在一起，面和得硬硬的，切成菱形块，柴火点起，大大的锅里放入麦麸，麦麸炒热，把棋子裹进麦麸里，麦麸要炒糊的时候，棋子也就熟了。用笊篱捞出来，麦麸自然漏下，抓一把棋子吃几个，烫烫的，甜甜的，还有点软软的，待稍稍晾一下，就变成脆脆的了。炒好的棋子可以放好多天。\n         这次只好勉为其难，亲自上阵，并且还要改良一下，各位亲就将就看吧。",
      "sc" : 0,
      "comments" : [
        "{\n    ac = \"#999999\";\n    at = \"\";\n    ccc = 0;\n    \"child_comments\" =     (\n    );\n    city = \"\";\n    cmc = 2;\n    content =     (\n                {\n            c = \"\\U770b\\U997f\\U4e86\\U770b\\U997f\\U4e86\";\n        }\n    );\n    ia = 0;\n    id = 6105244;\n    \"ip_address_location\" = \"\";\n    like = 0;\n    \"like_count\" = 0;\n    \"reply_id\" = 0;\n    \"sticker_icon\" =     (\n    );\n    time = \"2018-10-11 14:55:42\";\n    u =     {\n        \"followers_count_text\" = \"\";\n        id = 18554134;\n        \"is_prime\" = 0;\n        lv = 0;\n        lvl = 4;\n        n = \"\\U8fc7\\U53bb\\U7684\\U6a59\\U5b50\\U5f88\\U95ea\\U95ea\";\n        p = \"http:\/\/tx1.douguo.net\/upload\/photo\/1\/1\/1\/70_07220b4b85fcb8ef15a2785fc98258f3.png\";\n        \"progress_image\" = \"\";\n        \"recipes_count_text\" = \"\";\n        relationship = \"-1\";\n        title = \"\";\n        v = 0;\n        \"verified_image\" = \"\";\n    };\n}",
        "{\n    ac = \"#999999\";\n    at = \"\";\n    ccc = 0;\n    \"child_comments\" =     (\n    );\n    city = \"\";\n    cmc = 2;\n    content =     (\n                {\n            c = \"\\U770b\\U8d77\\U6765\\U597d\\U597d\\U5403\\Uff08\\U2267\\U2207\\U2266\\Uff09\";\n        }\n    );\n    ia = 0;\n    id = 6105243;\n    \"ip_address_location\" = \"\";\n    like = 0;\n    \"like_count\" = 0;\n    \"reply_id\" = 0;\n    \"sticker_icon\" =     (\n    );\n    time = \"2018-10-11 14:54:39\";\n    u =     {\n        \"followers_count_text\" = \"\";\n        id = 18468724;\n        \"is_prime\" = 0;\n        lv = 0;\n        lvl = 4;\n        n = \"\\U5fae\\U7b11\\U7b11\\U7b11\";\n        p = \"http:\/\/tx1.douguo.net\/upload\/photo\/9\/2\/b\/70_u12654840605850408142744.jpg\";\n        \"progress_image\" = \"\";\n        \"recipes_count_text\" = \"\";\n        relationship = \"-1\";\n        title = \"\";\n        v = 0;\n        \"verified_image\" = \"\";\n    };\n}",
        "{\n    ac = \"#999999\";\n    at = \"\";\n    ccc = 0;\n    \"child_comments\" =     (\n    );\n    city = \"\";\n    cmc = 2;\n    content =     (\n                {\n            c = \"\\U523a\\U6fc0\\U4e86\\U6211\\U505a\\U996d\\U7684\\U6b32\\U671b\";\n        }\n    );\n    ia = 0;\n    id = 5765781;\n    \"ip_address_location\" = \"\";\n    like = 0;\n    \"like_count\" = 0;\n    \"reply_id\" = 0;\n    \"sticker_icon\" =     (\n    );\n    time = \"2018-06-13 01:32:29\";\n    u =     {\n        \"followers_count_text\" = \"\";\n        id = 18503669;\n        \"is_prime\" = 0;\n        lv = 0;\n        lvl = 4;\n        n = \"\\U5386\\U53866\";\n        p = \"http:\/\/tx1.douguo.net\/upload\/photo\/f\/0\/0\/70_u18901388850022191629.jpg\";\n        \"progress_image\" = \"\";\n        \"recipes_count_text\" = \"\";\n        relationship = \"-1\";\n        title = \"\";\n        v = 0;\n        \"verified_image\" = \"\";\n    };\n}"
      ],
      "hqu" : "recipes:\/\/www.douguo.com\/notedetail?id=21162253",
      "rpt" : "",
      "related_ads" : [

      ],
      "rpst" : "",
      "rcs" : [

      ],
      "vc" : "20620",
      "ipci" : "",
      "favo_counts" : 94,
      "notes" : [

      ],
      "title_ad" : [

      ],
      "ipt" : "",
      "levelid" : 2,
      "ipit" : 0,
      "dishes" : [

      ],
      "cookstep" : [
        {
          "image_height" : 1069,
          "image" : "https:\/\/i1.douguo.com\/upload\/caiku\/8\/7\/6\/87a8ccef7b39a744c744ebe022991236.jpg",
          "content" : "两个鸡蛋，糖100g左右吧",
          "position" : 1,
          "image_width" : 800,
          "frame" : "-1",
          "thumb" : "https:\/\/i1.douguo.com\/upload\/caiku\/8\/7\/6\/140_87a8ccef7b39a744c744ebe022991236.jpg"
        },
        {
          "content" : "搅匀，图省事我用了打蛋器，用筷子也很容易做到。",
          "frame" : "-1",
          "image_height" : 1069,
          "image" : "https:\/\/i1.douguo.com\/upload\/caiku\/0\/6\/e\/06230419ad8cd4291a5dbd95e53a928e.jpg",
          "position" : 2,
          "thumb" : "https:\/\/i1.douguo.com\/upload\/caiku\/0\/6\/e\/140_06230419ad8cd4291a5dbd95e53a928e.jpg",
          "image_width" : 800
        },
        {
          "position" : 3,
          "frame" : "-1",
          "content" : "就蛋液加面，要一点点加哈，千万别一下加多，此步骤最好用手，一边揉一边加，略硬即可。",
          "image" : "https:\/\/i1.douguo.com\/upload\/caiku\/7\/f\/e\/7f73ea423234016edcc50c965d29626e.jpg",
          "image_width" : 800,
          "image_height" : 1069,
          "thumb" : "https:\/\/i1.douguo.com\/upload\/caiku\/7\/f\/e\/140_7f73ea423234016edcc50c965d29626e.jpg"
        },
        {
          "image" : "https:\/\/i1.douguo.com\/upload\/caiku\/4\/b\/2\/4b51a73a8c05bc314ed5aa86141b7642.jpg",
          "thumb" : "https:\/\/i1.douguo.com\/upload\/caiku\/4\/b\/2\/140_4b51a73a8c05bc314ed5aa86141b7642.jpg",
          "frame" : "-1",
          "content" : "继续揉，然后分成四个剂子。",
          "position" : 4,
          "image_width" : 800,
          "image_height" : 1069
        },
        {
          "frame" : "-1",
          "thumb" : "https:\/\/i1.douguo.com\/upload\/caiku\/9\/7\/2\/140_97f57e90746a24d6a5c6f93cf79be1c2.jpg",
          "image" : "https:\/\/i1.douguo.com\/upload\/caiku\/9\/7\/2\/97f57e90746a24d6a5c6f93cf79be1c2.jpg",
          "image_width" : 800,
          "content" : "擀成面饼，略厚一点，大约半公分厚吧。",
          "position" : 5,
          "image_height" : 1069
        },
        {
          "content" : "这一步很重要。把面饼放入电饼铛，两面煎，这个要灵活掌握，能切开即可。",
          "frame" : "-1",
          "image" : "https:\/\/i1.douguo.com\/upload\/caiku\/6\/a\/3\/6a487169ae51b499d6af3891353a1f43.jpg",
          "thumb" : "https:\/\/i1.douguo.com\/upload\/caiku\/6\/a\/3\/140_6a487169ae51b499d6af3891353a1f43.jpg",
          "position" : 6,
          "image_width" : 1508,
          "image_height" : 2016
        },
        {
          "image_width" : 800,
          "image" : "https:\/\/i1.douguo.com\/upload\/caiku\/b\/b\/f\/bb940be46c95ab60c926749aeb6aaaef.jpg",
          "content" : "煎成这个样子，参考一下。",
          "frame" : "-1",
          "position" : 7,
          "thumb" : "https:\/\/i1.douguo.com\/upload\/caiku\/b\/b\/f\/140_bb940be46c95ab60c926749aeb6aaaef.jpg",
          "image_height" : 598
        },
        {
          "thumb" : "https:\/\/i1.douguo.com\/upload\/caiku\/2\/9\/1\/140_29743d69f3c6fbde472e26320aa3fd91.jpg",
          "frame" : "-1",
          "position" : 8,
          "content" : "先切成条。",
          "image" : "https:\/\/i1.douguo.com\/upload\/caiku\/2\/9\/1\/29743d69f3c6fbde472e26320aa3fd91.jpg",
          "image_height" : 2016,
          "image_width" : 1508
        },
        {
          "content" : "再切成块。",
          "image" : "https:\/\/i1.douguo.com\/upload\/caiku\/3\/7\/6\/37ababafc9723f1aa07f4f684ef2d6b6.jpg",
          "thumb" : "https:\/\/i1.douguo.com\/upload\/caiku\/3\/7\/6\/140_37ababafc9723f1aa07f4f684ef2d6b6.jpg",
          "frame" : "-1",
          "position" : 9,
          "image_height" : 2016,
          "image_width" : 1508
        },
        {
          "content" : "放电饼铛将棋子煎熟。",
          "thumb" : "https:\/\/i1.douguo.com\/upload\/caiku\/6\/4\/3\/140_645502bc79cc00eb61c772d5159f7aa3.jpg",
          "position" : 10,
          "frame" : "-1",
          "image" : "https:\/\/i1.douguo.com\/upload\/caiku\/6\/4\/3\/645502bc79cc00eb61c772d5159f7aa3.jpg",
          "image_height" : 1069,
          "image_width" : 800
        },
        {
          "frame" : "-1",
          "thumb" : "https:\/\/i1.douguo.com\/upload\/caiku\/c\/b\/c\/140_cb982600f3975c1a4175baded006696c.jpg",
          "image_width" : 800,
          "image_height" : 1069,
          "position" : 11,
          "content" : "出锅晾透即可。",
          "image" : "https:\/\/i1.douguo.com\/upload\/caiku\/c\/b\/c\/cb982600f3975c1a4175baded006696c.jpg"
        }
      ],
      "favo_counts_text" : "94",
      "recipe_list_tags" : [
        {
          "background_end_color" : "#F4F5F5",
          "jump_url" : "",
          "right_image" : "",
          "text_color" : "#141515",
          "background_border_color" : "",
          "text" : "关注的人",
          "background_start_color" : "#F4F5F5"
        },
        {
          "right_image" : "",
          "jump_url" : "",
          "text_color" : "#141515",
          "text" : "内容详细",
          "background_end_color" : "#F4F5F5",
          "background_start_color" : "#F4F5F5",
          "background_border_color" : ""
        }
      ],
      "ecs" : 0,
      "image" : "http:\/\/i1.douguo.net\/upload\/caiku\/d\/b\/4\/300_dbaf6576eba0af43dc2c374fde2b66b4.jpg",
      "tips" : "切记：全程无油无水。\n爱吃红糖的亲可以将白糖换成红糖。",
      "btm_dsp" : [

      ],
      "author" : "宝宝的私家厨房",
      "dish_count" : 1,
      "thumb_path" : "https:\/\/i1.douguo.com\/upload\/caiku\/d\/b\/4\/300_dbaf6576eba0af43dc2c374fde2b66b4.jpg",
      "rrpt" : "",
      "create_time" : "2018-03-19 18:28:13",
      "cookwares" : [

      ],
      "user" : {
        "weibo_nick" : "",
        "is_prime" : 0,
        "avatar_medium" : "http:\/\/tx1.douguo.net\/upload\/photo\/5\/9\/0\/140_598c2b4e26bb31b27991c68ea2593770.jpg",
        "sign" : "",
        "mobile" : "",
        "fc" : 0,
        "qq_weibo_nick" : "",
        "setted_email" : 0,
        "qzone_nick" : "",
        "email" : "",
        "diaries_count" : 0,
        "dishes_count" : 0,
        "nick" : "宝宝的私家厨房",
        "favorites_count" : 0,
        "coursecount" : 0,
        "age" : "",
        "subscription_article_count" : 0,
        "lvl" : 4,
        "subscription" : 0,
        "lv" : 0,
        "verified_url" : "https:\/\/m.douguo.com\/user\/prodesc",
        "point" : 0,
        "followers_count" : 0,
        "user_id" : "9684510",
        "recipes_count" : 0,
        "pc" : 0,
        "userid" : "9684510",
        "verified_image" : "",
        "verified" : 0,
        "user_large_photo" : "http:\/\/tx1.douguo.net\/upload\/photo\/5\/9\/0\/yuan_598c2b4e26bb31b27991c68ea2593770.jpg",
        "regist_time" : "",
        "progress_image" : "",
        "following_count" : 0,
        "location" : 0,
        "birthday" : "",
        "user_cover" : "",
        "gender" : 2,
        "user_photo" : "http:\/\/tx1.douguo.net\/upload\/photo\/5\/9\/0\/70_598c2b4e26bb31b27991c68ea2593770.jpg",
        "favor_diaries_count" : 0,
        "introduction" : ""
      },
      "author_id" : 9684510,
      "hq" : 1,
      "recommend_label" : "1人学做",
      "rips" : 0,
      "recipe_tags" : [

      ],
      "vfurl" : "",
      "views_count_text" : "2.1万",
      "ipoi" : "",
      "rdsps" : [

      ],
      "ipurl" : "",
      "packages_id" : [

      ],
      "rrps" : [

      ],
      "recommendation_tag" : "",
      "ssu" : "",
      "photo_path" : "https:\/\/i1.douguo.com\/upload\/caiku\/d\/b\/4\/600_dbaf6576eba0af43dc2c374fde2b66b4.jpg",
      "su" : "",
      "tags" : [

      ],
      "ph" : 2016,
      "recommended" : 0,
      "vu" : "",
      "guide_image" : "",
      "release_time" : "",
      "title" : "宝宝的零食之二月二的棋子     无油无水无奶",
      "rpid" : 0,
      "purl" : "",
      "ipia" : [

      ],
      "bs" : [

      ],
      "share_info" : {
        "object_id" : "1659217",
        "image" : "https:\/\/cp1.douguo.com\/upload\/caiku\/d\/b\/4\/dbaf6576eba0af43dc2c374fde2b66b4.jpg",
        "mini_program" : [

        ],
        "name" : "宝宝的零食之二月二的棋子     无油无水无奶-会做饭很酷!",
        "s_d" : "宝宝的零食之二月二的棋子     无油无水无奶-会做饭很酷!",
        "infos" : [
          {
            "channel" : "1",
            "qr_image" : "",
            "s_d" : "#学做饭用豆果美食# 我在@豆果美食 分享了【宝宝的零食之二月二的棋子     无油无水无奶-会做饭很酷!】，哟，集美们～你看这是神仙美味～快跟着我做一份，做一份！查看图片了解菜谱（更多美食秘籍点击https:\/\/m.weibo.cn\/p\/100404i33631获取）#会做饭很酷# ",
            "object_id" : "1659217",
            "name" : "宝宝的零食之二月二的棋子     无油无水无奶-会做饭很酷!",
            "mini_program" : [

            ],
            "image" : "https:\/\/cp1.douguo.com\/upload\/caiku\/d\/b\/4\/dbaf6576eba0af43dc2c374fde2b66b4.jpg",
            "s_u" : ""
          },
          {
            "image" : "https:\/\/cp1.douguo.com\/upload\/caiku\/d\/b\/4\/dbaf6576eba0af43dc2c374fde2b66b4.jpg",
            "qr_image" : "",
            "channel" : "7",
            "s_u" : "http:\/\/m.douguo.com\/cookbook\/1659217.html",
            "object_id" : "1659217",
            "name" : "宝宝的零食之二月二的棋子     无油无水无奶-会做饭很酷!",
            "s_d" : "宝宝的零食之二月二的棋子     无油无水无奶-会做饭很酷!",
            "mini_program" : [

            ]
          },
          {
            "s_u" : "http:\/\/m.douguo.com\/cookbook\/1659217.html",
            "qr_image" : "",
            "object_id" : "1659217",
            "mini_program" : [

            ],
            "name" : "宝宝的零食之二月二的棋子     无油无水无奶-会做饭很酷!",
            "s_d" : "宝宝的零食之二月二的棋子     无油无水无奶-会做饭很酷!",
            "channel" : "8",
            "image" : "https:\/\/cp1.douguo.com\/upload\/caiku\/d\/b\/4\/dbaf6576eba0af43dc2c374fde2b66b4.jpg"
          }
        ],
        "s_u" : "http:\/\/m.douguo.com\/cookbook\/1659217.html",
        "qr_image" : ""
      },
      "act_des" : "",
      "recent_comments" : [

      ],
      "cook_difficulty" : "切墩(初级)",
      "original_photo_path" : "http:\/\/i1.douguo.net\/upload\/caiku\/d\/b\/4\/yuan_dbaf6576eba0af43dc2c374fde2b66b4.jpg",
      "rsm" : "该功能暂停使用",
      "rate" : 5,
      "cook_id" : "1659217",
      "rewarded_video_dsp" : [

      ],
      "cookstorys" : [
        {
          "id" : 0,
          "u" : "",
          "c" : "      到了二月二的晚上8：00，老大突然说：“棋子呢？二月二不是要吃棋子的吗？”好吧，原谅永远没有仪式感的妈妈吧。没过12点，一切来得及，哈哈。\n        其实棋子在我们家一直是作为零食存在的，做棋子，姥姥的水平绝对一流。记忆中，鸡蛋糖面粉拌在一起，面和得硬硬的，切成菱形块，柴火点起，大大的锅里放入麦麸，麦麸炒热，把棋子裹进麦麸里，麦麸要炒糊的时候，棋子也就熟了。用笊篱捞出来，麦麸自然漏下，抓一把棋子吃几个，烫烫的，甜甜的，还有点软软的，待稍稍晾一下，就变成脆脆的了。炒好的棋子可以放好多天。\n         这次只好勉为其难，亲自上阵，并且还要改良一下，各位亲就将就看吧。",
          "color" : "",
          "icon" : "",
          "type" : 0
        }
      ],
      "comments_count_text" : "8",
      "author_photo" : "http:\/\/tx1.douguo.net\/upload\/photo\/5\/9\/0\/70_598c2b4e26bb31b27991c68ea2593770.jpg",
      "clicks" : "17564",
      "story_dsp" : [

      ],
      "thumb_height" : 0,
      "major" : [
        {
          "title" : "普通面粉",
          "note" : "250g"
        },
        {
          "note" : "120g",
          "tu" : "https:\/\/m.douguo.com\/ingredients\/鸡蛋\/detailmaterial",
          "title" : "鸡蛋"
        },
        {
          "tu" : "https:\/\/m.douguo.com\/ingredients\/糖\/detailmaterial",
          "title" : "糖",
          "note" : "150g"
        }
      ],
      "top_mdsp" : [

      ],
      "dish_count_text" : "1",
      "author_verified" : 0,
      "ss" : [

      ],
      "cook_time" : "1小时以上",
      "rate_show" : 0,
      "brand_day_dsp" : [

      ],
      "comments_count" : 8,
      "first_level_comment_count" : 8,
      "rate_count" : 1,
      "v_u" : "",
      "pw" : 1508
    }
  },
  "status" : 0,
  "state" : "success"
}