{
  "status" : 0,
  "result" : {
    "recipe" : {
      "ipoi" : "",
      "tags" : [

      ],
      "recommended" : 0,
      "cook_difficulty" : "",
      "cookstep" : [
        {
          "image_width" : 1280,
          "position" : 1,
          "image" : "https:\/\/i1.douguo.com\/upload\/caiku\/5\/4\/5\/54d13d5936662c10795961467c5eb7e5.jpeg",
          "thumb" : "https:\/\/i1.douguo.com\/upload\/caiku\/5\/4\/5\/140_54d13d5936662c10795961467c5eb7e5.jpeg",
          "image_height" : 720,
          "frame" : "-1",
          "content" : "月饼糖浆加入枧水搅拌均匀，加入花生油\/玉米油搅拌均匀"
        },
        {
          "position" : 2,
          "content" : "筛入中粉切拌至无干粉",
          "frame" : "-1",
          "image_height" : 718,
          "image_width" : 1280,
          "thumb" : "https:\/\/i1.douguo.com\/upload\/caiku\/5\/8\/d\/140_589f0e01d1937e71840b4f0c55a3f79d.jpeg",
          "image" : "https:\/\/i1.douguo.com\/upload\/caiku\/5\/8\/d\/589f0e01d1937e71840b4f0c55a3f79d.jpeg"
        },
        {
          "image_width" : 1280,
          "frame" : "-1",
          "thumb" : "https:\/\/i1.douguo.com\/upload\/caiku\/6\/0\/1\/140_607f1ccb4ba2eb599cf9e89c7220ec41.jpeg",
          "image_height" : 719,
          "position" : 3,
          "image" : "https:\/\/i1.douguo.com\/upload\/caiku\/6\/0\/1\/607f1ccb4ba2eb599cf9e89c7220ec41.jpeg",
          "content" : "揉成面团包裹保鲜膜室温醒发2小时以上"
        },
        {
          "frame" : "-1",
          "image_width" : 1280,
          "content" : "咸蛋黄在玉米油中滚一圈放入烤盘",
          "image" : "https:\/\/i1.douguo.com\/upload\/caiku\/e\/e\/3\/ee0e0f181e02d3b3ddffb6feee41a403.jpeg",
          "image_height" : 718,
          "thumb" : "https:\/\/i1.douguo.com\/upload\/caiku\/e\/e\/3\/140_ee0e0f181e02d3b3ddffb6feee41a403.jpeg",
          "position" : 4
        },
        {
          "frame" : "-1",
          "image_height" : 719,
          "thumb" : "https:\/\/i1.douguo.com\/upload\/caiku\/f\/a\/5\/140_fae43fe343735e7cb93f016e54c34505.jpeg",
          "image" : "https:\/\/i1.douguo.com\/upload\/caiku\/f\/a\/5\/fae43fe343735e7cb93f016e54c34505.jpeg",
          "image_width" : 1280,
          "position" : 5,
          "content" : "喷上少许白酒"
        },
        {
          "image" : "https:\/\/i1.douguo.com\/upload\/caiku\/a\/1\/6\/a1c5fccfa4d422b7f5eb82b13f4b1ff6.jpeg",
          "content" : "放入预热好的烤箱180度烤6分钟，略冒油即可",
          "image_height" : 714,
          "thumb" : "https:\/\/i1.douguo.com\/upload\/caiku\/a\/1\/6\/140_a1c5fccfa4d422b7f5eb82b13f4b1ff6.jpeg",
          "position" : 6,
          "image_width" : 1280,
          "frame" : "-1"
        },
        {
          "image_height" : 718,
          "thumb" : "https:\/\/i1.douguo.com\/upload\/caiku\/5\/0\/a\/140_5026f08f41675e7e4155a70ea8bcb48a.jpeg",
          "position" : 7,
          "image_width" : 1280,
          "content" : "蛋黄+豆沙重量35g，豆沙包裹蛋黄搓圆备用",
          "image" : "https:\/\/i1.douguo.com\/upload\/caiku\/5\/0\/a\/5026f08f41675e7e4155a70ea8bcb48a.jpeg",
          "frame" : "-1"
        },
        {
          "image_width" : 1280,
          "image_height" : 720,
          "image" : "https:\/\/i1.douguo.com\/upload\/caiku\/7\/d\/f\/7d005d612be7b7d0f93492b15590c10f.jpeg",
          "content" : "像这样",
          "thumb" : "https:\/\/i1.douguo.com\/upload\/caiku\/7\/d\/f\/140_7d005d612be7b7d0f93492b15590c10f.jpeg",
          "frame" : "-1",
          "position" : 8
        },
        {
          "image_width" : 1280,
          "image" : "https:\/\/i1.douguo.com\/upload\/caiku\/2\/3\/2\/233eddc143ca715194a35956b75dba42.jpeg",
          "content" : "松弛好的月饼皮分15g一个，略按扁",
          "position" : 9,
          "frame" : "-1",
          "thumb" : "https:\/\/i1.douguo.com\/upload\/caiku\/2\/3\/2\/140_233eddc143ca715194a35956b75dba42.jpeg",
          "image_height" : 716
        },
        {
          "image" : "https:\/\/i1.douguo.com\/upload\/caiku\/6\/f\/5\/6f78e4303e2b1b7e65bcbd64b703a315.jpeg",
          "frame" : "-1",
          "image_width" : 1280,
          "content" : "包裹蛋黄豆沙，用虎口推动饼皮包裹搓圆",
          "position" : 10,
          "thumb" : "https:\/\/i1.douguo.com\/upload\/caiku\/6\/f\/5\/140_6f78e4303e2b1b7e65bcbd64b703a315.jpeg",
          "image_height" : 719
        },
        {
          "image" : "https:\/\/i1.douguo.com\/upload\/caiku\/b\/9\/0\/b9d7b06c0113a187c52645933210ec90.jpeg",
          "thumb" : "https:\/\/i1.douguo.com\/upload\/caiku\/b\/9\/0\/140_b9d7b06c0113a187c52645933210ec90.jpeg",
          "content" : "逐个包成这样，一家人要整整齐齐的~",
          "image_width" : 1280,
          "frame" : "-1",
          "image_height" : 716,
          "position" : 11
        },
        {
          "thumb" : "https:\/\/i1.douguo.com\/upload\/caiku\/4\/f\/d\/140_4f789d390c66437ef37e44eea037460d.jpeg",
          "image_height" : 719,
          "frame" : "-1",
          "image_width" : 1280,
          "position" : 12,
          "content" : "在中粉中滚一圈，搓动去除多余干粉",
          "image" : "https:\/\/i1.douguo.com\/upload\/caiku\/4\/f\/d\/4f789d390c66437ef37e44eea037460d.jpeg"
        },
        {
          "position" : 13,
          "image_height" : 720,
          "image" : "https:\/\/i1.douguo.com\/upload\/caiku\/c\/4\/1\/c452181a8d93962f9e6765e9ea225741.jpeg",
          "thumb" : "https:\/\/i1.douguo.com\/upload\/caiku\/c\/4\/1\/140_c452181a8d93962f9e6765e9ea225741.jpeg",
          "content" : "放入50g月饼模具按压成型，表面喷少许水（wow，已经有雏形了不是吗！加油）",
          "image_width" : 1280,
          "frame" : "-1"
        },
        {
          "image_width" : 1280,
          "image" : "https:\/\/i1.douguo.com\/upload\/caiku\/6\/c\/9\/6c25a2685aee3ea3d2650cf06ed890d9.jpeg",
          "content" : "放入烤箱预热180烤5分钟",
          "frame" : "-1",
          "image_height" : 681,
          "thumb" : "https:\/\/i1.douguo.com\/upload\/caiku\/6\/c\/9\/140_6c25a2685aee3ea3d2650cf06ed890d9.jpeg",
          "position" : 14
        },
        {
          "position" : 15,
          "content" : "蛋黄加1\/4蛋清和适量水搅拌均匀过滤",
          "thumb" : "https:\/\/i1.douguo.com\/upload\/caiku\/5\/b\/9\/140_5b8bd21234697ccec7025e95a0fe4ab9.jpeg",
          "frame" : "-1",
          "image_height" : 720,
          "image" : "https:\/\/i1.douguo.com\/upload\/caiku\/5\/b\/9\/5b8bd21234697ccec7025e95a0fe4ab9.jpeg",
          "image_width" : 1280
        },
        {
          "frame" : "-1",
          "thumb" : "https:\/\/i1.douguo.com\/upload\/caiku\/b\/5\/f\/140_b5cc564d555645242b3365af4cbe4aaf.jpeg",
          "image" : "https:\/\/i1.douguo.com\/upload\/caiku\/b\/5\/f\/b5cc564d555645242b3365af4cbe4aaf.jpeg",
          "image_width" : 1280,
          "position" : 16,
          "image_height" : 716,
          "content" : "取出月饼，表面用细毛刷刷薄薄一层蛋黄水"
        },
        {
          "thumb" : "https:\/\/i1.douguo.com\/upload\/caiku\/3\/c\/7\/140_3c8aa1f79e47be9c6686fb455855eed7.jpeg",
          "content" : "继续烤箱180度烤18分钟，彻底放凉密封冷藏2-3天回油",
          "image_height" : 714,
          "position" : 17,
          "image" : "https:\/\/i1.douguo.com\/upload\/caiku\/3\/c\/7\/3c8aa1f79e47be9c6686fb455855eed7.jpeg",
          "image_width" : 1280,
          "frame" : "-1"
        },
        {
          "content" : "尽情享用吧!",
          "position" : 18,
          "image_width" : 1280,
          "thumb" : "https:\/\/i1.douguo.com\/upload\/caiku\/f\/c\/a\/140_fc68c9c9a2ab1c124df981474da158fa.jpeg",
          "frame" : "-1",
          "image_height" : 714,
          "image" : "https:\/\/i1.douguo.com\/upload\/caiku\/f\/c\/a\/fc68c9c9a2ab1c124df981474da158fa.jpeg"
        }
      ],
      "original_photo_path" : "http:\/\/i1.douguo.net\/upload\/caiku\/3\/4\/1\/yuan_34308c793bfb7ba118b5f1078bfdf631.jpeg",
      "vfurl" : "",
      "vc" : "156137",
      "notes" : [

      ],
      "packages_id" : [

      ],
      "recipe_tags" : [

      ],
      "mid_mdsp" : [

      ],
      "ssu" : "",
      "ipurl" : "",
      "dish_count" : 0,
      "ipit" : 0,
      "ipt" : "",
      "author_verified" : 0,
      "image" : "http:\/\/i1.douguo.net\/upload\/caiku\/3\/4\/1\/300_34308c793bfb7ba118b5f1078bfdf631.jpeg",
      "old_comments" : [

      ],
      "author_photo" : "http:\/\/tx1.douguo.net\/upload\/photo\/3\/0\/8\/70_u67749192704440135417.jpeg",
      "create_time" : "2019-09-10 13:07:20",
      "thumb_path" : "https:\/\/i1.douguo.com\/upload\/caiku\/3\/4\/1\/300_34308c793bfb7ba118b5f1078bfdf631.jpeg",
      "ecs" : 1,
      "author_id" : 24238229,
      "favo_counts" : 2630,
      "recommendation_tag" : "",
      "sc" : 0,
      "rsm" : "该功能暂停使用",
      "dish_count_text" : "",
      "rpst" : "",
      "title" : "经典中式咸蛋黄豆沙月饼，味浓料足，一家人都爱吃。",
      "ph" : 1080,
      "bs" : [

      ],
      "cookwares" : [

      ],
      "act_des" : "",
      "rewarded_video_dsp" : [

      ],
      "share_info" : {
        "object_id" : "2340677",
        "qr_image" : "",
        "s_d" : "经典中式咸蛋黄豆沙月饼，味浓料足，一家人都爱吃。-会做饭很酷!",
        "infos" : [
          {
            "mini_program" : [

            ],
            "object_id" : "2340677",
            "s_u" : "",
            "image" : "https:\/\/cp1.douguo.com\/upload\/caiku\/3\/4\/1\/34308c793bfb7ba118b5f1078bfdf631.jpeg",
            "channel" : "1",
            "name" : "经典中式咸蛋黄豆沙月饼，味浓料足，一家人都爱吃。-会做饭很酷!",
            "s_d" : "#学做饭用豆果美食#  我在@豆果美食 分享了【经典中式咸蛋黄豆沙月饼，味浓料足，一家人都爱吃。-会做饭很酷!】，制作美食的过程承载了我生活中的热情，和我一起感受这份小确幸吧！查看图片了解菜谱（你喜欢的美食都在这里！https:\/\/m.weibo.cn\/p\/100404i33631）#会做饭很酷# ",
            "qr_image" : ""
          },
          {
            "object_id" : "2340677",
            "channel" : "7",
            "name" : "经典中式咸蛋黄豆沙月饼，味浓料足，一家人都爱吃。-会做饭很酷!",
            "mini_program" : [

            ],
            "s_u" : "http:\/\/m.douguo.com\/cookbook\/2340677.html",
            "qr_image" : "",
            "image" : "https:\/\/cp1.douguo.com\/upload\/caiku\/3\/4\/1\/34308c793bfb7ba118b5f1078bfdf631.jpeg",
            "s_d" : "经典中式咸蛋黄豆沙月饼，味浓料足，一家人都爱吃。-会做饭很酷!"
          },
          {
            "s_d" : "经典中式咸蛋黄豆沙月饼，味浓料足，一家人都爱吃。-会做饭很酷!",
            "mini_program" : [

            ],
            "s_u" : "http:\/\/m.douguo.com\/cookbook\/2340677.html",
            "name" : "经典中式咸蛋黄豆沙月饼，味浓料足，一家人都爱吃。-会做饭很酷!",
            "object_id" : "2340677",
            "channel" : "8",
            "qr_image" : "",
            "image" : "https:\/\/cp1.douguo.com\/upload\/caiku\/3\/4\/1\/34308c793bfb7ba118b5f1078bfdf631.jpeg"
          }
        ],
        "image" : "https:\/\/cp1.douguo.com\/upload\/caiku\/3\/4\/1\/34308c793bfb7ba118b5f1078bfdf631.jpeg",
        "s_u" : "http:\/\/m.douguo.com\/cookbook\/2340677.html",
        "name" : "经典中式咸蛋黄豆沙月饼，味浓料足，一家人都爱吃。-会做饭很酷!",
        "mini_program" : [

        ]
      },
      "cook_difficulty_image" : "",
      "rrpt" : "",
      "thumb_height" : 0,
      "hq" : 1,
      "author" : "软味厨房",
      "recipe_list_tags" : [
        {
          "right_image" : "",
          "text" : "关注的人",
          "text_color" : "#141515",
          "background_end_color" : "#F4F5F5",
          "jump_url" : "",
          "background_start_color" : "#F4F5F5",
          "background_border_color" : ""
        },
        {
          "text" : "值得pick",
          "background_start_color" : "#F4F5F5",
          "right_image" : "",
          "text_color" : "#141515",
          "background_end_color" : "#F4F5F5",
          "jump_url" : "",
          "background_border_color" : ""
        }
      ],
      "sr" : "",
      "collect_status" : 0,
      "related_ads" : [

      ],
      "purl" : "",
      "brand_day_dsp" : [

      ],
      "su" : "",
      "advice" : {
        "at" : "对血管有保护作用～",
        "da" : {
          "iu" : "https:\/\/i1.douguo.com\/upload\/banner\/f\/4\/d\/f48877e53c37759bc12ac494be82ec8d.png",
          "t" : "查看详细分析",
          "url" : "https:\/\/m.douguo.com\/recipe\/nutrient_self\/2340677"
        },
        "has" : [
          {
            "t" : "低饱和脂肪",
            "url" : "recipes:\/\/www.douguo.com\/simplerecipelist?t=低饱和脂肪&id=低饱和脂肪"
          }
        ]
      },
      "rrps" : [

      ],
      "ipia" : [

      ],
      "favo_counts_text" : "2630",
      "story_dsp" : [

      ],
      "major" : [
        {
          "note" : "",
          "title" : "【饼皮】："
        },
        {
          "note" : "110g",
          "title" : "月饼糖浆"
        },
        {
          "title" : "中粉",
          "note" : "160g"
        },
        {
          "note" : "4g",
          "title" : "枧水"
        },
        {
          "note" : "30g",
          "tu" : "https:\/\/m.douguo.com\/ingredients\/玉米油\/detailmaterial",
          "title" : "玉米油"
        },
        {
          "title" : "【馅料】：",
          "note" : ""
        },
        {
          "title" : "咸蛋黄",
          "note" : "20g"
        },
        {
          "note" : "适量",
          "title" : "玉米油",
          "tu" : "https:\/\/m.douguo.com\/ingredients\/玉米油\/detailmaterial"
        },
        {
          "title" : "白酒",
          "note" : "适量"
        },
        {
          "title" : "豆沙馅",
          "note" : "500g"
        },
        {
          "note" : "",
          "title" : "【表面】："
        },
        {
          "note" : "1个",
          "tu" : "https:\/\/m.douguo.com\/ingredients\/蛋黄\/detailmaterial",
          "title" : "蛋黄"
        },
        {
          "title" : "蛋清",
          "tu" : "https:\/\/m.douguo.com\/ingredients\/蛋清\/detailmaterial",
          "note" : "0.25个"
        },
        {
          "note" : "10g",
          "tu" : "https:\/\/m.douguo.com\/ingredients\/水\/detailmaterial",
          "title" : "水"
        }
      ],
      "comments" : [
        "{\n    ac = \"#999999\";\n    at = \"\";\n    ccc = 0;\n    \"child_comments\" =     (\n    );\n    city = \"\";\n    cmc = 2;\n    content =     (\n                {\n            c = \"\\U505a\\U540e\\U6765\\U8bc4\\Uff0c\\U8d85\\U68d2\\Uff01\";\n        }\n    );\n    ia = 0;\n    id = 7038403;\n    \"ip_address_location\" = \"\";\n    like = 0;\n    \"like_count\" = 1;\n    \"reply_id\" = 0;\n    \"sticker_icon\" =     (\n    );\n    time = \"2019-09-10 14:02:08\";\n    u =     {\n        \"followers_count_text\" = \"\";\n        id = 18469914;\n        \"is_prime\" = 0;\n        lv = 0;\n        lvl = 6;\n        n = \"hyy\\U5b89\\U4e4b\\U82e5\\U7d20\";\n        p = \"http:\/\/tx1.douguo.net\/upload\/photo\/d\/4\/f\/70_u94794602917654193834.jpg\";\n        \"progress_image\" = \"\";\n        \"recipes_count_text\" = \"\";\n        relationship = \"-1\";\n        title = \"\";\n        v = 0;\n        \"verified_image\" = \"\";\n    };\n}",
        "{\n    ac = \"#999999\";\n    at = \"\\U9633\\U6c5f\\U5e02\";\n    ccc = 0;\n    \"child_comments\" =     (\n    );\n    city = \"\\U9633\\U6c5f\\U5e02\";\n    cmc = 2;\n    content =     (\n                {\n            c = \"\\U697c\\U4e3b\\U7528\\U7684\\U662f\\U4ec0\\U4e48\\U9762\\U7c89\\Uff1f\";\n        }\n    );\n    ia = 0;\n    id = 7864891;\n    \"ip_address_location\" = \"\";\n    like = 0;\n    \"like_count\" = 0;\n    \"reply_id\" = 0;\n    \"sticker_icon\" =     (\n    );\n    time = \"2020-04-09 16:12:05\";\n    u =     {\n        \"followers_count_text\" = \"\";\n        id = 8433925;\n        \"is_prime\" = 0;\n        lv = 0;\n        lvl = 1;\n        n = \"\\U5c0f\\U5c0f\\U5c0f\\U5c0f\\U5c0f\\U6021\";\n        p = \"\";\n        \"progress_image\" = \"\";\n        \"recipes_count_text\" = \"\";\n        relationship = \"-1\";\n        title = \"\";\n        v = 0;\n        \"verified_image\" = \"\";\n    };\n}",
        "{\n    ac = \"#999999\";\n    at = \"\";\n    ccc = 0;\n    \"child_comments\" =     (\n    );\n    city = \"\";\n    cmc = 2;\n    content =     (\n                {\n            c = \"\\U4e0d\\U4f1a\\U505a\\U996d\\U7684\\U6211\\U597d\\U96be\\U8fc7\";\n        }\n    );\n    ia = 0;\n    id = 7039441;\n    \"ip_address_location\" = \"\";\n    like = 0;\n    \"like_count\" = 0;\n    \"reply_id\" = 0;\n    \"sticker_icon\" =     (\n    );\n    time = \"2019-09-10 17:03:42\";\n    u =     {\n        \"followers_count_text\" = \"\";\n        id = 18575526;\n        \"is_prime\" = 0;\n        lv = 0;\n        lvl = 2;\n        n = \"\\U79e6\\U679c\\U513f\";\n        p = \"http:\/\/tx1.douguo.net\/upload\/photo\/b\/d\/7\/70_u22398741352350409002454.jpg\";\n        \"progress_image\" = \"\";\n        \"recipes_count_text\" = \"\";\n        relationship = \"-1\";\n        title = \"\";\n        v = 0;\n        \"verified_image\" = \"\";\n    };\n}"
      ],
      "views_count_text" : "15.6万",
      "top_mdsp" : [

      ],
      "comments_count_text" : "7",
      "rate_show" : 0,
      "ss" : [

      ],
      "cook_time_image" : "https:\/\/i1.douguo.com\/upload\/banner\/1551423815.png",
      "rcs" : [

      ],
      "title_ad" : [

      ],
      "comments_count" : 7,
      "release_time" : "",
      "rpid" : 0,
      "rips" : 0,
      "ipci" : "",
      "clicks" : "153333",
      "rpt" : "",
      "recommend_label" : "2630人刚刚收藏过",
      "user" : {
        "introduction" : "",
        "location" : 0,
        "progress_image" : "",
        "lv" : 0,
        "user_photo" : "http:\/\/tx1.douguo.net\/upload\/photo\/3\/0\/8\/70_u67749192704440135417.jpeg",
        "diaries_count" : 0,
        "regist_time" : "",
        "followers_count" : 0,
        "email" : "",
        "is_prime" : 0,
        "subscription_article_count" : 0,
        "nick" : "软味厨房",
        "mobile" : "",
        "birthday" : "",
        "user_id" : "24238229",
        "favorites_count" : 0,
        "subscription" : 0,
        "verified_image" : "",
        "sign" : "",
        "weibo_nick" : "",
        "qq_weibo_nick" : "",
        "verified_url" : "https:\/\/m.douguo.com\/user\/prodesc",
        "coursecount" : 0,
        "qzone_nick" : "",
        "userid" : "24238229",
        "setted_email" : 0,
        "pc" : 0,
        "dishes_count" : 0,
        "avatar_medium" : "http:\/\/tx1.douguo.net\/upload\/photo\/3\/0\/8\/140_u67749192704440135417.jpeg",
        "following_count" : 0,
        "user_large_photo" : "http:\/\/tx1.douguo.net\/upload\/photo\/3\/0\/8\/yuan_u67749192704440135417.jpeg",
        "user_cover" : "",
        "lvl" : 5,
        "age" : "",
        "point" : 0,
        "verified" : 0,
        "recipes_count" : 0,
        "favor_diaries_count" : 0,
        "gender" : 2,
        "fc" : 0
      },
      "vu" : "",
      "minor" : [

      ],
      "v_u" : "",
      "rate_count" : 0,
      "hqu" : "recipes:\/\/www.douguo.com\/notedetail?id=21162253",
      "cook_time" : "1小时以上",
      "dishes" : [

      ],
      "btm_dsp" : [

      ],
      "levelid" : 2,
      "tips" : "",
      "pw" : 1920,
      "cook_id" : "2340677",
      "cookstorys" : [

      ],
      "display_ingredient" : 1,
      "cookstory" : "",
      "rate" : 0,
      "first_level_comment_count" : 7,
      "rdsps" : [

      ],
      "recent_comments" : [

      ],
      "guide_image" : "",
      "photo_path" : "https:\/\/i1.douguo.com\/upload\/caiku\/3\/4\/1\/600_34308c793bfb7ba118b5f1078bfdf631.jpeg",
      "eu" : "recipes:\/\/www.douguo.com\/postdetail?id=242016"
    }
  },
  "state" : "success"
}