{
  "result" : {
    "recipe" : {
      "comments_count" : 0,
      "story_dsp" : [

      ],
      "rate_count" : 4,
      "recipe_list_tags" : [
        {
          "text_color" : "#141515",
          "jump_url" : "",
          "background_end_color" : "#F4F5F5",
          "text" : "关注的人",
          "background_border_color" : "",
          "background_start_color" : "#F4F5F5",
          "right_image" : ""
        },
        {
          "text" : "内容详细",
          "text_color" : "#141515",
          "background_end_color" : "#F4F5F5",
          "background_border_color" : "",
          "background_start_color" : "#F4F5F5",
          "jump_url" : "",
          "right_image" : ""
        }
      ],
      "author" : "皮皮ka",
      "cook_time_image" : "https:\/\/i1.douguo.com\/upload\/banner\/1551424358.png",
      "levelid" : 2,
      "comments" : [

      ],
      "hqu" : "recipes:\/\/www.douguo.com\/notedetail?id=21162253",
      "rpid" : 0,
      "display_ingredient" : 1,
      "vc" : "457736",
      "minor" : [

      ],
      "rewarded_video_dsp" : [

      ],
      "clicks" : "447570",
      "author_verified" : 0,
      "notes" : [

      ],
      "dishes" : [

      ],
      "title_ad" : [

      ],
      "release_time" : "",
      "cook_difficulty_image" : "https:\/\/i1.douguo.com\/upload\/banner\/1551424390.png",
      "cookstep" : [
        {
          "position" : 1,
          "image" : "https:\/\/i1.douguo.com\/upload\/caiku\/8\/3\/a\/83812d10d1712635e0475f1f88c2317a.jpg",
          "frame" : "-1",
          "thumb" : "https:\/\/i1.douguo.com\/upload\/caiku\/8\/3\/a\/140_83812d10d1712635e0475f1f88c2317a.jpg",
          "image_width" : 1280,
          "image_height" : 960,
          "content" : "蒜薹切丁，五花肉切成小块。葱姜蒜备好。五花肉可以用淀粉和生抽腌制一下，如果时间紧张，也可以不用。"
        },
        {
          "image_width" : 800,
          "position" : 2,
          "image" : "https:\/\/i1.douguo.com\/upload\/caiku\/a\/d\/1\/ad3bee8dbcab7c52cd244de2578d3551.jpg",
          "thumb" : "https:\/\/i1.douguo.com\/upload\/caiku\/a\/d\/1\/140_ad3bee8dbcab7c52cd244de2578d3551.jpg",
          "image_height" : 600,
          "frame" : "-1",
          "content" : "放入食用油，可以多放些，葱姜蒜下锅煸出香味。"
        },
        {
          "position" : 3,
          "content" : "放入五花肉断生后，放入少许料酒去除肉腥，放入生抽，继续煸炒。如果喜欢颜色深的感觉，可以放入一勺老抽。",
          "image_height" : 600,
          "frame" : "-1",
          "image_width" : 800,
          "thumb" : "https:\/\/i1.douguo.com\/upload\/caiku\/7\/6\/2\/140_76ea5a4949d9a101eb4c396a7afa24d2.jpg",
          "image" : "https:\/\/i1.douguo.com\/upload\/caiku\/7\/6\/2\/76ea5a4949d9a101eb4c396a7afa24d2.jpg"
        },
        {
          "image_width" : 1280,
          "frame" : "-1",
          "thumb" : "https:\/\/i1.douguo.com\/upload\/caiku\/c\/c\/2\/140_cca9a7c6260d0166b818d87012cb0042.jpg",
          "image_height" : 960,
          "position" : 4,
          "image" : "https:\/\/i1.douguo.com\/upload\/caiku\/c\/c\/2\/cca9a7c6260d0166b818d87012cb0042.jpg",
          "content" : "放入蒜薹丁，继续煸炒，把蒜薹炒软入味，出锅前放入适量盐调味。\n有的小朋友喜欢生脆的感觉就少炒一会。"
        },
        {
          "image_width" : 1280,
          "frame" : "-1",
          "content" : "油亮亮的成品。咸鲜美味，拌饭拌面都可以。小朋友爱吃，也适合当大朋友的便当饭。",
          "image" : "https:\/\/i1.douguo.com\/upload\/caiku\/5\/2\/a\/52c94b22bbbcc1c3fd892d652d9f707a.jpg",
          "image_height" : 960,
          "thumb" : "https:\/\/i1.douguo.com\/upload\/caiku\/5\/2\/a\/140_52c94b22bbbcc1c3fd892d652d9f707a.jpg",
          "position" : 5
        }
      ],
      "rdsps" : [

      ],
      "related_ads" : [

      ],
      "share_info" : {
        "infos" : [
          {
            "mini_program" : [

            ],
            "channel" : "1",
            "qr_image" : "",
            "name" : "蒜薹炒肉~咸鲜美味，下饭神器-会做饭很酷!",
            "s_u" : "",
            "image" : "https:\/\/cp1.douguo.com\/upload\/caiku\/6\/0\/3\/6055b92585f0962212b4405c82727873.jpg",
            "object_id" : "2443708",
            "s_d" : "#学做饭用豆果美食#  我在@豆果美食 分享了【蒜薹炒肉~咸鲜美味，下饭神器-会做饭很酷!】，制作美食的过程承载了我生活中的热情，和我一起感受这份小确幸吧！查看图片了解菜谱（你喜欢的美食都在这里！https:\/\/m.weibo.cn\/p\/100404i33631）#会做饭很酷# "
          },
          {
            "name" : "蒜薹炒肉~咸鲜美味，下饭神器-会做饭很酷!",
            "s_d" : "蒜薹炒肉~咸鲜美味，下饭神器-会做饭很酷!",
            "qr_image" : "",
            "s_u" : "http:\/\/m.douguo.com\/cookbook\/2443708.html",
            "mini_program" : [

            ],
            "object_id" : "2443708",
            "image" : "https:\/\/cp1.douguo.com\/upload\/caiku\/6\/0\/3\/6055b92585f0962212b4405c82727873.jpg",
            "channel" : "7"
          },
          {
            "object_id" : "2443708",
            "channel" : "8",
            "name" : "蒜薹炒肉~咸鲜美味，下饭神器-会做饭很酷!",
            "mini_program" : [

            ],
            "image" : "https:\/\/cp1.douguo.com\/upload\/caiku\/6\/0\/3\/6055b92585f0962212b4405c82727873.jpg",
            "qr_image" : "",
            "s_u" : "http:\/\/m.douguo.com\/cookbook\/2443708.html",
            "s_d" : "蒜薹炒肉~咸鲜美味，下饭神器-会做饭很酷!"
          }
        ],
        "s_d" : "蒜薹炒肉~咸鲜美味，下饭神器-会做饭很酷!",
        "qr_image" : "",
        "image" : "https:\/\/cp1.douguo.com\/upload\/caiku\/6\/0\/3\/6055b92585f0962212b4405c82727873.jpg",
        "name" : "蒜薹炒肉~咸鲜美味，下饭神器-会做饭很酷!",
        "mini_program" : [

        ],
        "s_u" : "http:\/\/m.douguo.com\/cookbook\/2443708.html",
        "object_id" : "2443708"
      },
      "brand_day_dsp" : [

      ],
      "user" : {
        "sign" : "",
        "lvl" : 6,
        "gender" : 2,
        "point" : 0,
        "subscription_article_count" : 0,
        "dishes_count" : 0,
        "email" : "",
        "is_prime" : 0,
        "user_id" : "4692779",
        "birthday" : "",
        "userid" : "4692779",
        "favorites_count" : 0,
        "verified_image" : "",
        "introduction" : "",
        "user_photo" : "http:\/\/tx1.douguo.net\/upload\/photo\/a\/f\/a\/70_u03910044594585160321.jpg",
        "setted_email" : 0,
        "nick" : "皮皮ka",
        "qzone_nick" : "",
        "recipes_count" : 0,
        "avatar_medium" : "http:\/\/tx1.douguo.net\/upload\/photo\/a\/f\/a\/140_u03910044594585160321.jpg",
        "diaries_count" : 0,
        "regist_time" : "",
        "progress_image" : "",
        "coursecount" : 0,
        "subscription" : 0,
        "location" : 0,
        "user_cover" : "",
        "favor_diaries_count" : 0,
        "following_count" : 0,
        "user_large_photo" : "http:\/\/tx1.douguo.net\/upload\/photo\/a\/f\/a\/yuan_u03910044594585160321.jpg",
        "weibo_nick" : "",
        "age" : "",
        "fc" : 0,
        "verified_url" : "https:\/\/m.douguo.com\/user\/prodesc",
        "qq_weibo_nick" : "",
        "verified" : 0,
        "lv" : 0,
        "followers_count" : 0,
        "mobile" : "",
        "pc" : 0
      },
      "cookstorys" : [
        {
          "c" : "给孩子吃，所以把蒜薹切成了丁。时间紧张的时候十分钟之内就能给孩子吃上。\n用最少的调味料做出美味的食物",
          "icon" : "",
          "id" : 0,
          "u" : "",
          "color" : "",
          "type" : 0
        }
      ],
      "rrpt" : "",
      "comments_count_text" : "",
      "collect_status" : 0,
      "rrps" : [

      ],
      "cook_difficulty" : "切墩(初级)",
      "rcs" : [

      ],
      "author_photo" : "http:\/\/tx1.douguo.net\/upload\/photo\/a\/f\/a\/70_u03910044594585160321.jpg",
      "vfurl" : "",
      "rate" : 4,
      "photo_path" : "https:\/\/i1.douguo.com\/upload\/caiku\/6\/0\/3\/600_6055b92585f0962212b4405c82727873.jpg",
      "dish_count_text" : "4",
      "packages_id" : [

      ],
      "tips" : "给小朋友吃没放小辣椒，如果大朋友吃可以放入一颗小米辣️，也好吃哦",
      "views_count_text" : "45.8万",
      "recipe_tags" : [

      ],
      "recommendation_tag" : "",
      "sr" : "",
      "ph" : 450,
      "cook_time" : "10分钟左右",
      "cookstory" : "给孩子吃，所以把蒜薹切成了丁。时间紧张的时候十分钟之内就能给孩子吃上。\n用最少的调味料做出美味的食物",
      "rsm" : "该功能暂停使用",
      "rips" : 0,
      "rate_show" : 0,
      "v_u" : "",
      "author_id" : 4692779,
      "eu" : "recipes:\/\/www.douguo.com\/postdetail?id=242016",
      "ipoi" : "",
      "top_mdsp" : [

      ],
      "favo_counts" : 1960,
      "hq" : 1,
      "dish_count" : 4,
      "sc" : 0,
      "ipci" : "",
      "ssu" : "",
      "recent_comments" : [

      ],
      "ipt" : "",
      "cookwares" : [

      ],
      "su" : "",
      "title" : "蒜薹炒肉~咸鲜美味，下饭神器",
      "tags" : [

      ],
      "first_level_comment_count" : 0,
      "ipia" : [

      ],
      "rpst" : "",
      "thumb_height" : 0,
      "cook_id" : "2443708",
      "recommend_label" : "4人学做",
      "mid_mdsp" : [

      ],
      "advice" : {
        "at" : "减肥的美女注意喽～",
        "da" : {
          "url" : "https:\/\/m.douguo.com\/recipe\/nutrient_self\/2443708",
          "iu" : "https:\/\/i1.douguo.com\/upload\/banner\/f\/4\/d\/f48877e53c37759bc12ac494be82ec8d.png",
          "t" : "查看详细分析"
        },
        "has" : [
          {
            "t" : "高脂肪",
            "url" : "recipes:\/\/www.douguo.com\/simplerecipelist?t=高脂肪&id=高脂肪"
          }
        ]
      },
      "create_time" : "2020-03-26 09:46:12",
      "ss" : [

      ],
      "major" : [
        {
          "title" : "五花肉",
          "tu" : "https:\/\/m.douguo.com\/ingredients\/五花肉\/detailmaterial",
          "note" : "100g"
        },
        {
          "tu" : "https:\/\/m.douguo.com\/ingredients\/蒜薹\/detailmaterial",
          "title" : "蒜薹",
          "note" : "适量"
        },
        {
          "note" : "2大勺",
          "tu" : "https:\/\/m.douguo.com\/ingredients\/生抽\/detailmaterial",
          "title" : "生抽"
        },
        {
          "note" : "可放可不放",
          "tu" : "https:\/\/m.douguo.com\/ingredients\/老抽\/detailmaterial",
          "title" : "老抽"
        },
        {
          "title" : "料酒",
          "tu" : "https:\/\/m.douguo.com\/ingredients\/料酒\/detailmaterial",
          "note" : "少许"
        },
        {
          "note" : "2瓣",
          "tu" : "https:\/\/m.douguo.com\/ingredients\/蒜\/detailmaterial",
          "title" : "蒜"
        },
        {
          "title" : "姜",
          "note" : "2片",
          "tu" : "https:\/\/m.douguo.com\/ingredients\/姜\/detailmaterial"
        },
        {
          "note" : "适量",
          "title" : "葱",
          "tu" : "https:\/\/m.douguo.com\/ingredients\/葱\/detailmaterial"
        },
        {
          "title" : "食用油",
          "note" : "适量",
          "tu" : "https:\/\/m.douguo.com\/ingredients\/食用油\/detailmaterial"
        }
      ],
      "favo_counts_text" : "1960",
      "original_photo_path" : "http:\/\/i1.douguo.net\/upload\/caiku\/6\/0\/3\/yuan_6055b92585f0962212b4405c82727873.jpg",
      "ipurl" : "",
      "vu" : "",
      "guide_image" : "",
      "pw" : 600,
      "thumb_path" : "https:\/\/i1.douguo.com\/upload\/caiku\/6\/0\/3\/300_6055b92585f0962212b4405c82727873.jpg",
      "old_comments" : [

      ],
      "purl" : "",
      "act_des" : "",
      "ecs" : 1,
      "image" : "http:\/\/i1.douguo.net\/upload\/caiku\/6\/0\/3\/300_6055b92585f0962212b4405c82727873.jpg",
      "bs" : [

      ],
      "btm_dsp" : [

      ],
      "ipit" : 0,
      "rpt" : "",
      "recommended" : 0
    }
  },
  "status" : 0,
  "state" : "success"
}