{
  "state" : "success",
  "result" : {
    "recipe" : {
      "cookstory" : " 食材（2人份）\n剩饭1碗、肥牛200克、番茄4个、洋葱100克\n调酱汁\n2勺生抽、1勺蚝油、1勺老抽、1勺玉米淀粉、1勺白糖、半碗清水\n做法：番茄划十字刀，用开水烫一下去皮切小粒，洋葱切成小粒，肥牛焯水备用，锅中热油，洋葱下锅炒熟，倒入番茄炒出汤汁，淋上酱汁，放肥牛和剩饭炒均匀后，焖两分钟，起锅撒葱花就可以吃了. ",
      "share_info" : {
        "infos" : [
          {
            "object_id" : "3263541",
            "mini_program" : [

            ],
            "s_u" : "",
            "image" : "https:\/\/cp1.douguo.com\/upload\/caiku\/e\/9\/f\/e9f80db2dde5d74e75b05c3b42ee404f.jpeg",
            "s_d" : "#学做饭用豆果美食# 我在@豆果美食 分享了【番茄肥牛烩饭-会做饭很酷!】，帅哥美眉们～你们喜欢的美食来咯！快来跟我一起做吧～查看图片了解菜谱（想要获取更多美食就看这https:\/\/m.weibo.cn\/p\/100404i33631）#会做饭很酷#",
            "channel" : "1",
            "qr_image" : "",
            "name" : "番茄肥牛烩饭-会做饭很酷!"
          },
          {
            "object_id" : "3263541",
            "qr_image" : "",
            "image" : "https:\/\/cp1.douguo.com\/upload\/caiku\/e\/9\/f\/e9f80db2dde5d74e75b05c3b42ee404f.jpeg",
            "s_u" : "http:\/\/m.douguo.com\/cookbook\/3263541.html",
            "channel" : "7",
            "name" : "番茄肥牛烩饭-会做饭很酷!",
            "mini_program" : [

            ],
            "s_d" : "番茄肥牛烩饭-会做饭很酷!"
          },
          {
            "object_id" : "3263541",
            "qr_image" : "",
            "s_d" : "番茄肥牛烩饭-会做饭很酷!",
            "mini_program" : [

            ],
            "name" : "番茄肥牛烩饭-会做饭很酷!",
            "s_u" : "http:\/\/m.douguo.com\/cookbook\/3263541.html",
            "channel" : "8",
            "image" : "https:\/\/cp1.douguo.com\/upload\/caiku\/e\/9\/f\/e9f80db2dde5d74e75b05c3b42ee404f.jpeg"
          }
        ],
        "object_id" : "3263541",
        "image" : "https:\/\/cp1.douguo.com\/upload\/caiku\/e\/9\/f\/e9f80db2dde5d74e75b05c3b42ee404f.jpeg",
        "name" : "番茄肥牛烩饭-会做饭很酷!",
        "s_d" : "番茄肥牛烩饭-会做饭很酷!",
        "s_u" : "http:\/\/m.douguo.com\/cookbook\/3263541.html",
        "mini_program" : [

        ],
        "qr_image" : ""
      },
      "sc" : 0,
      "ipurl" : "",
      "vfurl" : "https:\/\/vplay.douguo.com\/li4kDe9UteIYq-xatvCFmJBeZLzC__362x640.mp4",
      "v_u" : "",
      "recipe_tags" : [

      ],
      "pw" : 887,
      "cook_time" : "",
      "levelid" : 2,
      "comments" : [

      ],
      "thumb_height" : 0,
      "ss" : [

      ],
      "bs" : [

      ],
      "original_photo_path" : "http:\/\/i1.douguo.net\/upload\/caiku\/e\/9\/f\/yuan_e9f80db2dde5d74e75b05c3b42ee404f.jpeg",
      "photo_path" : "https:\/\/i1.douguo.com\/upload\/caiku\/e\/9\/f\/600_e9f80db2dde5d74e75b05c3b42ee404f.jpeg",
      "views_count_text" : "4.0万",
      "user" : {
        "email" : "",
        "dishes_count" : 0,
        "subscription_article_count" : 0,
        "mobile" : "",
        "sign" : "",
        "diaries_count" : 0,
        "user_cover" : "",
        "setted_email" : 0,
        "pc" : 0,
        "verified_url" : "https:\/\/m.douguo.com\/user\/prodesc",
        "avatar_medium" : "http:\/\/tx1.douguo.net\/upload\/photo\/f\/b\/7\/140_fb6a6cc2842a42f8bee6537de1f7de77.jpeg",
        "fc" : 0,
        "nick" : "阿末的美食日记m",
        "lv" : 0,
        "progress_image" : "",
        "lvl" : 6,
        "point" : 0,
        "weibo_nick" : "",
        "coursecount" : 0,
        "age" : "",
        "user_large_photo" : "http:\/\/tx1.douguo.net\/upload\/photo\/f\/b\/7\/yuan_fb6a6cc2842a42f8bee6537de1f7de77.jpeg",
        "followers_count" : 0,
        "regist_time" : "",
        "favor_diaries_count" : 0,
        "location" : 0,
        "userid" : "17936643",
        "favorites_count" : 0,
        "following_count" : 0,
        "birthday" : "",
        "verified_image" : "https:\/\/i1.douguo.com\/upload\/note\/d\/a\/a\/da84247847aebe48d9dd0fcdac88862a.png",
        "gender" : 2,
        "user_photo" : "http:\/\/tx1.douguo.net\/upload\/photo\/f\/b\/7\/70_fb6a6cc2842a42f8bee6537de1f7de77.jpeg",
        "verified" : 1,
        "qzone_nick" : "",
        "recipes_count" : 0,
        "user_id" : "17936643",
        "is_prime" : 0,
        "subscription" : 0,
        "qq_weibo_nick" : "",
        "introduction" : ""
      },
      "display_ingredient" : 1,
      "author_id" : 17936643,
      "favo_counts_text" : "1560",
      "ipia" : [

      ],
      "btm_dsp" : [

      ],
      "purl" : "",
      "rpt" : "",
      "su" : "",
      "old_comments" : [

      ],
      "comments_count_text" : "",
      "story_dsp" : [

      ],
      "eu" : "recipes:\/\/www.douguo.com\/postdetail?id=242016",
      "brand_day_dsp" : [

      ],
      "dish_count_text" : "",
      "first_level_comment_count" : 0,
      "clicks" : "1",
      "vu" : "https:\/\/vplay.douguo.com\/li4kDe9UteIYq-xatvCFmJBeZLzC",
      "vc" : "39546",
      "release_time" : "",
      "minor" : [

      ],
      "cook_difficulty_image" : "",
      "recommend_label" : "1560人刚刚收藏过",
      "rrpt" : "",
      "dishes" : [

      ],
      "packages_id" : [

      ],
      "ipt" : "",
      "hqu" : "recipes:\/\/www.douguo.com\/notedetail?id=21162253",
      "dish_count" : 0,
      "rate_show" : 0,
      "rsm" : "该功能暂停使用",
      "recommended" : 0,
      "recommendation_tag" : "",
      "guide_image" : "",
      "favo_counts" : 1560,
      "ph" : 1920,
      "related_ads" : [

      ],
      "thumb_path" : "https:\/\/i1.douguo.com\/upload\/caiku\/e\/9\/f\/300_e9f80db2dde5d74e75b05c3b42ee404f.jpeg",
      "rate_count" : 0,
      "cookstep" : [
        {
          "thumb" : "https:\/\/i1.douguo.com\/upload\/caiku\/5\/a\/9\/140_5a0b2a85a4b86ceb06e3012183a269b9.jpeg",
          "content" : "番茄划十字刀，用开水烫一下去皮切小粒",
          "position" : 1,
          "image_height" : 1920,
          "image" : "https:\/\/i1.douguo.com\/upload\/caiku\/5\/a\/9\/5a0b2a85a4b86ceb06e3012183a269b9.jpeg",
          "image_width" : 1080,
          "frame" : "9515"
        },
        {
          "content" : "肥牛焯水备用",
          "image_height" : 1920,
          "image_width" : 1080,
          "position" : 2,
          "frame" : "18298",
          "thumb" : "https:\/\/i1.douguo.com\/upload\/caiku\/a\/1\/3\/140_a111d2428f6ee629c9ce507ddbe95a93.jpeg",
          "image" : "https:\/\/i1.douguo.com\/upload\/caiku\/a\/1\/3\/a111d2428f6ee629c9ce507ddbe95a93.jpeg"
        },
        {
          "image" : "https:\/\/i1.douguo.com\/upload\/caiku\/7\/7\/0\/77468a55f0d5e4e32e34270e85aa21f0.jpeg",
          "frame" : "24592",
          "position" : 3,
          "image_width" : 1080,
          "thumb" : "https:\/\/i1.douguo.com\/upload\/caiku\/7\/7\/0\/140_77468a55f0d5e4e32e34270e85aa21f0.jpeg",
          "image_height" : 1920,
          "content" : "锅中热油，洋葱下锅炒熟，倒入番茄炒出汤汁，淋上酱汁"
        },
        {
          "frame" : "37840",
          "image" : "https:\/\/i1.douguo.com\/upload\/caiku\/e\/0\/e\/e0f91fa011e8e0962610fd862d320fbe.jpeg",
          "content" : "放肥牛和剩饭炒均匀后，焖两分钟，",
          "image_width" : 1080,
          "thumb" : "https:\/\/i1.douguo.com\/upload\/caiku\/e\/0\/e\/140_e0f91fa011e8e0962610fd862d320fbe.jpeg",
          "image_height" : 1920,
          "position" : 4
        },
        {
          "position" : 5,
          "thumb" : "https:\/\/i1.douguo.com\/upload\/caiku\/1\/7\/6\/140_1727f7c788f49bdb19c2794f7bc10536.jpeg",
          "content" : "起锅撒葱花就可以吃了.",
          "image_width" : 1080,
          "image_height" : 1920,
          "frame" : "41427",
          "image" : "https:\/\/i1.douguo.com\/upload\/caiku\/1\/7\/6\/1727f7c788f49bdb19c2794f7bc10536.jpeg"
        }
      ],
      "cook_time_image" : "",
      "recipe_list_tags" : [
        {
          "text_color" : "#141515",
          "text" : "关注的人",
          "background_start_color" : "#F4F5F5",
          "jump_url" : "",
          "right_image" : "",
          "background_end_color" : "#F4F5F5",
          "background_border_color" : ""
        }
      ],
      "cook_difficulty" : "",
      "rdsps" : [

      ],
      "top_mdsp" : [

      ],
      "sr" : "",
      "cookstorys" : [
        {
          "c" : " 食材（2人份）\n剩饭1碗、肥牛200克、番茄4个、洋葱100克\n调酱汁\n2勺生抽、1勺蚝油、1勺老抽、1勺玉米淀粉、1勺白糖、半碗清水\n做法：番茄划十字刀，用开水烫一下去皮切小粒，洋葱切成小粒，肥牛焯水备用，锅中热油，洋葱下锅炒熟，倒入番茄炒出汤汁，淋上酱汁，放肥牛和剩饭炒均匀后，焖两分钟，起锅撒葱花就可以吃了. ",
          "type" : 0,
          "icon" : "",
          "u" : "",
          "id" : 0,
          "color" : ""
        }
      ],
      "tips" : "",
      "ipit" : 0,
      "create_time" : "2023-07-20 10:35:21",
      "ecs" : 1,
      "mid_mdsp" : [

      ],
      "rpst" : "",
      "cookwares" : [

      ],
      "rcs" : [

      ],
      "comments_count" : 0,
      "author_verified" : 1,
      "ipci" : "",
      "title_ad" : [

      ],
      "major" : [
        {
          "tu" : "https:\/\/m.douguo.com\/ingredients\/西红柿\/detailmaterial",
          "note" : "一个",
          "title" : "西红柿"
        },
        {
          "note" : "一个",
          "title" : "土豆",
          "tu" : "https:\/\/m.douguo.com\/ingredients\/土豆\/detailmaterial"
        },
        {
          "tu" : "https:\/\/m.douguo.com\/ingredients\/肥牛\/detailmaterial",
          "title" : "肥牛",
          "note" : "几片"
        },
        {
          "title" : "洋葱",
          "note" : "少许",
          "tu" : "https:\/\/m.douguo.com\/ingredients\/洋葱\/detailmaterial"
        },
        {
          "note" : "适量",
          "title" : "鸡精",
          "tu" : "https:\/\/m.douguo.com\/ingredients\/鸡精\/detailmaterial"
        },
        {
          "note" : "适量",
          "title" : "盐",
          "tu" : "https:\/\/m.douguo.com\/ingredients\/盐\/detailmaterial"
        },
        {
          "title" : "生抽",
          "note" : "适量",
          "tu" : "https:\/\/m.douguo.com\/ingredients\/生抽\/detailmaterial"
        },
        {
          "title" : "蚝油",
          "tu" : "https:\/\/m.douguo.com\/ingredients\/蚝油\/detailmaterial",
          "note" : "适量"
        },
        {
          "note" : "适量",
          "title" : "糖",
          "tu" : "https:\/\/m.douguo.com\/ingredients\/糖\/detailmaterial"
        },
        {
          "title" : "蕃茄酱",
          "note" : "适量"
        }
      ],
      "advice" : {
        "at" : "对血管有保护作用～",
        "da" : {
          "url" : "https:\/\/m.douguo.com\/recipe\/nutrient_self\/3263541",
          "iu" : "https:\/\/i1.douguo.com\/upload\/banner\/f\/4\/d\/f48877e53c37759bc12ac494be82ec8d.png",
          "t" : "查看详细分析"
        },
        "has" : [
          {
            "url" : "recipes:\/\/www.douguo.com\/simplerecipelist?t=不含饱和脂肪&id=不含饱和脂肪",
            "t" : "不含饱和脂肪"
          },
          {
            "url" : "recipes:\/\/www.douguo.com\/simplerecipelist?t=0胆固醇&id=0胆固醇",
            "t" : "0胆固醇"
          }
        ]
      },
      "hq" : 1,
      "rrps" : [

      ],
      "tags" : [

      ],
      "title" : "番茄肥牛烩饭",
      "notes" : [

      ],
      "rips" : 0,
      "author_photo" : "http:\/\/tx1.douguo.net\/upload\/photo\/f\/b\/7\/70_fb6a6cc2842a42f8bee6537de1f7de77.jpeg",
      "act_des" : "",
      "collect_status" : 0,
      "rate" : 0,
      "author" : "阿末的美食日记m",
      "cook_id" : "3263541",
      "ssu" : "",
      "image" : "http:\/\/i1.douguo.net\/upload\/caiku\/e\/9\/f\/300_e9f80db2dde5d74e75b05c3b42ee404f.jpeg",
      "ipoi" : "",
      "rewarded_video_dsp" : [

      ],
      "rpid" : 0,
      "recent_comments" : [

      ]
    }
  },
  "status" : 0
}