{
  "status" : 0,
  "result" : {
    "recipe" : {
      "rsm" : "该功能暂停使用",
      "rips" : 0,
      "story_dsp" : [

      ],
      "thumb_height" : 0,
      "title_ad" : [

      ],
      "purl" : "",
      "ssu" : "",
      "recipe_list_tags" : [

      ],
      "ipoi" : "",
      "cook_difficulty_image" : "",
      "tips" : "",
      "rate" : 0,
      "vc" : "2600",
      "v_u" : "",
      "rcs" : [

      ],
      "cook_difficulty" : "",
      "share_info" : {
        "object_id" : "3142423",
        "mini_program" : [

        ],
        "image" : "https:\/\/cp1.douguo.com\/upload\/caiku\/1\/5\/3\/15994845448d6c6debb37bf7334ba843.jpg",
        "infos" : [
          {
            "s_u" : "",
            "name" : "美食吃不饱呢-会做饭很酷!",
            "image" : "https:\/\/cp1.douguo.com\/upload\/caiku\/1\/5\/3\/15994845448d6c6debb37bf7334ba843.jpg",
            "channel" : "1",
            "object_id" : "3142423",
            "mini_program" : [

            ],
            "qr_image" : "",
            "s_d" : "#学做饭用豆果美食# 会做饭真是好酷啊！我在@豆果美食 分享了【美食吃不饱呢-会做饭很酷!】，快来康康我这道菜做的怎么样～美味停不下来！查看图片了解菜谱（你喜欢的美食都在这里！https:\/\/m.weibo.cn\/p\/100404i33631）"
          },
          {
            "mini_program" : [

            ],
            "qr_image" : "",
            "object_id" : "3142423",
            "channel" : "7",
            "s_u" : "http:\/\/m.douguo.com\/cookbook\/3142423.html",
            "image" : "https:\/\/cp1.douguo.com\/upload\/caiku\/1\/5\/3\/15994845448d6c6debb37bf7334ba843.jpg",
            "s_d" : "美食吃不饱呢-会做饭很酷!",
            "name" : "美食吃不饱呢-会做饭很酷!"
          },
          {
            "name" : "美食吃不饱呢-会做饭很酷!",
            "object_id" : "3142423",
            "mini_program" : [

            ],
            "s_u" : "http:\/\/m.douguo.com\/cookbook\/3142423.html",
            "channel" : "8",
            "qr_image" : "",
            "image" : "https:\/\/cp1.douguo.com\/upload\/caiku\/1\/5\/3\/15994845448d6c6debb37bf7334ba843.jpg",
            "s_d" : "美食吃不饱呢-会做饭很酷!"
          }
        ],
        "s_d" : "美食吃不饱呢-会做饭很酷!",
        "name" : "美食吃不饱呢-会做饭很酷!",
        "qr_image" : "",
        "s_u" : "http:\/\/m.douguo.com\/cookbook\/3142423.html"
      },
      "user" : {
        "mobile" : "",
        "userid" : "26965569",
        "user_photo" : "",
        "lv" : 0,
        "dishes_count" : 0,
        "following_count" : 0,
        "subscription" : 0,
        "favor_diaries_count" : 0,
        "nick" : "用户已注销",
        "is_prime" : 0,
        "gender" : 1,
        "pc" : 0,
        "qzone_nick" : "",
        "subscription_article_count" : 0,
        "recipes_count" : 0,
        "lvl" : 1,
        "regist_time" : "",
        "coursecount" : 0,
        "progress_image" : "",
        "verified" : 0,
        "location" : 0,
        "verified_image" : "",
        "fc" : 0,
        "age" : "",
        "birthday" : "",
        "followers_count" : 0,
        "setted_email" : 0,
        "user_cover" : "",
        "introduction" : "",
        "sign" : "",
        "verified_url" : "https:\/\/m.douguo.com\/user\/prodesc",
        "diaries_count" : 0,
        "point" : 0,
        "user_large_photo" : "",
        "favorites_count" : 0,
        "email" : "",
        "qq_weibo_nick" : "",
        "user_id" : "26965569",
        "avatar_medium" : "",
        "weibo_nick" : ""
      },
      "btm_dsp" : [

      ],
      "rrpt" : "",
      "favo_counts" : 21,
      "su" : "",
      "vu" : "",
      "rpst" : "",
      "eu" : "recipes:\/\/www.douguo.com\/postdetail?id=242016",
      "cook_id" : "3142423",
      "brand_day_dsp" : [

      ],
      "ipt" : "",
      "cookstory" : "",
      "rrps" : [

      ],
      "thumb_path" : "https:\/\/i1.douguo.com\/upload\/caiku\/1\/5\/3\/300_15994845448d6c6debb37bf7334ba843.jpg",
      "cook_time" : "",
      "pw" : 1280,
      "rpid" : 0,
      "cookstep" : [
        {
          "content" : "鱼",
          "image_width" : 1280,
          "image" : "https:\/\/i1.douguo.com\/upload\/caiku\/e\/0\/5\/e0443887847f4b4032d27ed90ba2f305.jpg",
          "image_height" : 575,
          "thumb" : "https:\/\/i1.douguo.com\/upload\/caiku\/e\/0\/5\/140_e0443887847f4b4032d27ed90ba2f305.jpg",
          "position" : 1,
          "frame" : "-1"
        }
      ],
      "release_time" : "",
      "author_verified" : 0,
      "sc" : 0,
      "advice" : {
        "has" : [
          {
            "t" : "富含蛋白质",
            "url" : "recipes:\/\/www.douguo.com\/simplerecipelist?t=富含蛋白质&id=富含蛋白质"
          }
        ],
        "at" : "是组织形成和生长的主要营养素～",
        "da" : {
          "iu" : "https:\/\/i1.douguo.com\/upload\/banner\/f\/4\/d\/f48877e53c37759bc12ac494be82ec8d.png",
          "url" : "https:\/\/m.douguo.com\/recipe\/nutrient_self\/3142423",
          "t" : "查看详细分析"
        }
      },
      "rpt" : "",
      "mid_mdsp" : [

      ],
      "recent_comments" : [

      ],
      "cook_time_image" : "",
      "collect_status" : 0,
      "ecs" : 1,
      "clicks" : "898",
      "ipit" : 0,
      "photo_path" : "https:\/\/i1.douguo.com\/upload\/caiku\/1\/5\/3\/600_15994845448d6c6debb37bf7334ba843.jpg",
      "cookwares" : [

      ],
      "sr" : "",
      "author_photo" : "",
      "notes" : [

      ],
      "rate_count" : 0,
      "author_id" : 26965569,
      "recommended" : 0,
      "ipurl" : "",
      "guide_image" : "",
      "vfurl" : "",
      "original_photo_path" : "http:\/\/i1.douguo.net\/upload\/caiku\/1\/5\/3\/yuan_15994845448d6c6debb37bf7334ba843.jpg",
      "tags" : [

      ],
      "rewarded_video_dsp" : [

      ],
      "comments_count_text" : "2",
      "rdsps" : [

      ],
      "dish_count" : 0,
      "favo_counts_text" : "21",
      "first_level_comment_count" : 2,
      "title" : "美食吃不饱呢",
      "bs" : [

      ],
      "dishes" : [

      ],
      "create_time" : "2021-10-28 10:08:58",
      "ss" : [

      ],
      "levelid" : 3,
      "major" : [
        {
          "title" : "鸡翅",
          "note" : "8个",
          "tu" : "https:\/\/m.douguo.com\/ingredients\/鸡翅\/detailmaterial"
        },
        {
          "tu" : "https:\/\/m.douguo.com\/ingredients\/生抽\/detailmaterial",
          "note" : "3勺",
          "title" : "生抽"
        },
        {
          "tu" : "https:\/\/m.douguo.com\/ingredients\/蚝油\/detailmaterial",
          "note" : "2勺",
          "title" : "蚝油"
        },
        {
          "title" : "蜂蜜",
          "tu" : "https:\/\/m.douguo.com\/ingredients\/蜂蜜\/detailmaterial",
          "note" : "2勺（喜欢甜的可以多放）油1勺"
        },
        {
          "tu" : "https:\/\/m.douguo.com\/ingredients\/黑胡椒粉\/detailmaterial",
          "note" : "适量",
          "title" : "黑胡椒粉"
        }
      ],
      "act_des" : "",
      "dish_count_text" : "",
      "recommendation_tag" : "",
      "image" : "http:\/\/i1.douguo.net\/upload\/caiku\/1\/5\/3\/300_15994845448d6c6debb37bf7334ba843.jpg",
      "ipia" : [

      ],
      "recipe_tags" : [

      ],
      "comments" : [
        "{\n    ac = \"#999999\";\n    at = \"\";\n    ccc = 0;\n    \"child_comments\" =     (\n    );\n    city = \"\";\n    cmc = 2;\n    content =     (\n                {\n            c = \"\\U5f88\\U597d\\U5f88\\U597d\\Uff0c\\U770b\\U8d77\\U6765\\U5f88\\U96be\\U7684\\U6837\\U5b50\\U5462\\Uff0c\\U8bd5\\U4e00\\U8bd5~\";\n        }\n    );\n    ia = 0;\n    id = 8844507;\n    \"ip_address_location\" = \"\";\n    like = 0;\n    \"like_count\" = 0;\n    \"reply_id\" = 0;\n    \"sticker_icon\" =     (\n    );\n    time = \"2021-10-28 11:18:07\";\n    u =     {\n        \"followers_count_text\" = \"\";\n        id = 24612497;\n        \"is_prime\" = 0;\n        lv = 0;\n        lvl = 1;\n        n = \"ycy\\U6768ar\";\n        p = \"http:\/\/tx1.douguo.net\/upload\/photo\/d\/0\/9\/70_u54228542983694162245.jpg\";\n        \"progress_image\" = \"\";\n        \"recipes_count_text\" = \"\";\n        relationship = \"-1\";\n        title = \"\";\n        v = 0;\n        \"verified_image\" = \"\";\n    };\n}",
        "{\n    ac = \"#999999\";\n    at = \"\";\n    ccc = 0;\n    \"child_comments\" =     (\n    );\n    city = \"\";\n    cmc = 2;\n    content =     (\n                {\n            c = \"\\U771f\\U7684\\U6ca1\\U6709\\U7406\\U7531\\U4e0d\\U505a\\U5b83\";\n        }\n    );\n    ia = 0;\n    id = 8844478;\n    \"ip_address_location\" = \"\";\n    like = 0;\n    \"like_count\" = 0;\n    \"reply_id\" = 0;\n    \"sticker_icon\" =     (\n    );\n    time = \"2021-10-28 10:44:08\";\n    u =     {\n        \"followers_count_text\" = \"\";\n        id = 23600984;\n        \"is_prime\" = 0;\n        lv = 0;\n        lvl = 4;\n        n = \"\\U8c46\\U7c89743648vzwn\";\n        p = \"http:\/\/tx1.douguo.net\/upload\/photo\/9\/d\/2\/70_u6328027024730329223235.jpg\";\n        \"progress_image\" = \"\";\n        \"recipes_count_text\" = \"\";\n        relationship = \"-1\";\n        title = \"\";\n        v = 0;\n        \"verified_image\" = \"\";\n    };\n}"
      ],
      "top_mdsp" : [

      ],
      "ipci" : "",
      "author" : "用户已注销",
      "hq" : 0,
      "display_ingredient" : 1,
      "recommend_label" : "2600人看过",
      "hqu" : "recipes:\/\/www.douguo.com\/notedetail?id=21162253",
      "comments_count" : 2,
      "rate_show" : 0,
      "old_comments" : [

      ],
      "minor" : [

      ],
      "cookstorys" : [

      ],
      "packages_id" : [

      ],
      "ph" : 575,
      "views_count_text" : "2600",
      "related_ads" : [

      ]
    }
  },
  "state" : "success"
}