{
  "result" : {
    "recipe" : {
      "cook_id" : "1538081",
      "author_id" : 7032368,
      "rewarded_video_dsp" : [

      ],
      "rate_count" : 51,
      "btm_dsp" : [

      ],
      "ipurl" : "",
      "author" : "honey啊清清",
      "vc" : "6068812",
      "cookwares" : [

      ],
      "tags" : [

      ],
      "eu" : "recipes:\/\/www.douguo.com\/postdetail?id=242016",
      "vu" : "",
      "story_dsp" : [

      ],
      "create_time" : "2017-04-15 14:51:01",
      "release_time" : "",
      "levelid" : 2,
      "ipt" : "",
      "dish_count_text" : "55",
      "recommend_label" : "55人学做",
      "su" : "",
      "rcs" : [

      ],
      "thumb_path" : "https:\/\/i1.douguo.com\/upload\/caiku\/9\/f\/e\/300_9f8b2cf8c1dafcde6f9fe2ca7aac47be.jpeg",
      "cook_time" : "",
      "ipit" : 0,
      "original_photo_path" : "http:\/\/i1.douguo.net\/upload\/caiku\/9\/f\/e\/yuan_9f8b2cf8c1dafcde6f9fe2ca7aac47be.jpeg",
      "author_photo" : "http:\/\/tx1.douguo.net\/upload\/photo\/f\/d\/3\/70_u16463981608917234211.jpeg",
      "rrps" : [

      ],
      "comments_count" : 35,
      "dishes" : [

      ],
      "rate" : 4,
      "title" : "冬阴功海鲜汤",
      "act_des" : "",
      "v_u" : "",
      "vfurl" : "",
      "notes" : [

      ],
      "cookstory" : "减肥可以不必那么痛苦，酸辣的冬阴功汤，暖心暖胃减脂肪。酸，可以促进人体消化。辣，可以加快脂肪燃烧。\n    冬阴功汤， 也叫东炎汤，英文为Tom yum ，是泰国和老挝的一道富有特色的酸辣口味汤品。主要食材有柠檬叶、香茅、虾等。冬阴功汤在泰国非常普遍。不少去到泰国吃过这个汤的都会爱上这个酸辣的汤。",
      "old_comments" : [

      ],
      "favo_counts_text" : "2.6万",
      "ipia" : [

      ],
      "rpt" : "",
      "minor" : [

      ],
      "cookstorys" : [
        {
          "id" : 0,
          "icon" : "",
          "c" : "减肥可以不必那么痛苦，酸辣的冬阴功汤，暖心暖胃减脂肪。酸，可以促进人体消化。辣，可以加快脂肪燃烧。\n    冬阴功汤， 也叫东炎汤，英文为Tom yum ，是泰国和老挝的一道富有特色的酸辣口味汤品。主要食材有柠檬叶、香茅、虾等。冬阴功汤在泰国非常普遍。不少去到泰国吃过这个汤的都会爱上这个酸辣的汤。",
          "color" : "",
          "type" : 0,
          "u" : ""
        }
      ],
      "rate_show" : 1,
      "pw" : 800,
      "rpid" : 0,
      "author_verified" : 1,
      "display_ingredient" : 1,
      "bs" : [

      ],
      "comments_count_text" : "35",
      "related_ads" : [

      ],
      "rsm" : "该功能暂停使用",
      "clicks" : "5983607",
      "views_count_text" : "606.9万",
      "favo_counts" : 25731,
      "image" : "http:\/\/i1.douguo.net\/upload\/caiku\/9\/f\/e\/300_9f8b2cf8c1dafcde6f9fe2ca7aac47be.jpeg",
      "guide_image" : "",
      "user" : {
        "weibo_nick" : "",
        "recipes_count" : 0,
        "lv" : 0,
        "favorites_count" : 0,
        "subscription_article_count" : 0,
        "coursecount" : 0,
        "mobile" : "",
        "following_count" : 0,
        "qq_weibo_nick" : "",
        "fc" : 0,
        "verified" : 1,
        "pc" : 0,
        "progress_image" : "",
        "age" : "",
        "introduction" : "",
        "birthday" : "",
        "user_photo" : "http:\/\/tx1.douguo.net\/upload\/photo\/f\/d\/3\/70_u16463981608917234211.jpeg",
        "verified_url" : "https:\/\/m.douguo.com\/user\/prodesc",
        "email" : "",
        "user_id" : "7032368",
        "dishes_count" : 0,
        "sign" : "",
        "qzone_nick" : "",
        "nick" : "honey啊清清",
        "location" : 0,
        "is_prime" : 0,
        "user_large_photo" : "http:\/\/tx1.douguo.net\/upload\/photo\/f\/d\/3\/yuan_u16463981608917234211.jpeg",
        "point" : 0,
        "gender" : 2,
        "avatar_medium" : "http:\/\/tx1.douguo.net\/upload\/photo\/f\/d\/3\/140_u16463981608917234211.jpeg",
        "favor_diaries_count" : 0,
        "verified_image" : "https:\/\/i1.douguo.com\/upload\/note\/d\/a\/a\/da84247847aebe48d9dd0fcdac88862a.png",
        "regist_time" : "",
        "user_cover" : "",
        "lvl" : 6,
        "subscription" : 0,
        "followers_count" : 0,
        "diaries_count" : 0,
        "setted_email" : 0,
        "userid" : "7032368"
      },
      "title_ad" : [

      ],
      "thumb_height" : 0,
      "cook_difficulty" : "",
      "ssu" : "",
      "sc" : 0,
      "dish_count" : 55,
      "mid_mdsp" : [

      ],
      "recommended" : 0,
      "photo_path" : "https:\/\/i1.douguo.com\/upload\/caiku\/9\/f\/e\/600_9f8b2cf8c1dafcde6f9fe2ca7aac47be.jpeg",
      "top_mdsp" : [

      ],
      "rpst" : "",
      "brand_day_dsp" : [

      ],
      "ph" : 600,
      "ss" : [

      ],
      "ipoi" : "",
      "recent_comments" : [

      ],
      "ipci" : "",
      "share_info" : {
        "s_u" : "http:\/\/m.douguo.com\/cookbook\/1538081.html",
        "qr_image" : "",
        "infos" : [
          {
            "qr_image" : "",
            "s_u" : "",
            "name" : "冬阴功海鲜汤#春天不减肥，夏天肉堆堆#-会做饭很酷!",
            "image" : "https:\/\/cp1.douguo.com\/upload\/caiku\/9\/f\/e\/9f8b2cf8c1dafcde6f9fe2ca7aac47be.jpeg",
            "object_id" : "1538081",
            "s_d" : "#学做饭用豆果美食# 会做饭真是太酷了！我在@豆果美食 分享了【冬阴功海鲜汤#春天不减肥，夏天肉堆堆#-会做饭很酷!】，看着是不是馋到不行呢～快来跟我学学吧！查看图片了解菜谱，（想要获取更多美食就看这https:\/\/m.weibo.cn\/p\/100404i33631）",
            "mini_program" : [

            ],
            "channel" : "1"
          },
          {
            "s_d" : "冬阴功海鲜汤#春天不减肥，夏天肉堆堆#-会做饭很酷!",
            "image" : "https:\/\/cp1.douguo.com\/upload\/caiku\/9\/f\/e\/9f8b2cf8c1dafcde6f9fe2ca7aac47be.jpeg",
            "name" : "冬阴功海鲜汤#春天不减肥，夏天肉堆堆#-会做饭很酷!",
            "qr_image" : "",
            "channel" : "7",
            "object_id" : "1538081",
            "s_u" : "http:\/\/m.douguo.com\/cookbook\/1538081.html",
            "mini_program" : [

            ]
          },
          {
            "name" : "冬阴功海鲜汤#春天不减肥，夏天肉堆堆#-会做饭很酷!",
            "mini_program" : [

            ],
            "s_d" : "冬阴功海鲜汤#春天不减肥，夏天肉堆堆#-会做饭很酷!",
            "qr_image" : "",
            "image" : "https:\/\/cp1.douguo.com\/upload\/caiku\/9\/f\/e\/9f8b2cf8c1dafcde6f9fe2ca7aac47be.jpeg",
            "channel" : "8",
            "s_u" : "http:\/\/m.douguo.com\/cookbook\/1538081.html",
            "object_id" : "1538081"
          }
        ],
        "image" : "https:\/\/cp1.douguo.com\/upload\/caiku\/9\/f\/e\/9f8b2cf8c1dafcde6f9fe2ca7aac47be.jpeg",
        "name" : "冬阴功海鲜汤#春天不减肥，夏天肉堆堆#-会做饭很酷!",
        "object_id" : "1538081",
        "s_d" : "冬阴功海鲜汤#春天不减肥，夏天肉堆堆#-会做饭很酷!",
        "mini_program" : [

        ]
      },
      "tips" : "1、虾要用新鲜的汤味道才鲜美，新鲜的虾煮出来吃着甘甜，肉质嫩。\n2、海鲜菇没有也可以用杏鲍菇，但是不要用味道大的香菇茶树菇之类的，会破坏汤的味道。3、整个过程不需要再加其他调料，盐也不需要，盐在汤料里已经有了的。\n4、鱼露不要省去，因为提鲜靠它。",
      "cook_time_image" : "",
      "packages_id" : [

      ],
      "recipe_list_tags" : [
        {
          "background_end_color" : "#F4F5F5",
          "background_start_color" : "#F4F5F5",
          "jump_url" : "",
          "text" : "关注的人",
          "right_image" : "",
          "text_color" : "#141515",
          "background_border_color" : ""
        },
        {
          "background_start_color" : "#F4F5F5",
          "right_image" : "",
          "background_border_color" : "",
          "text" : "内容详细",
          "background_end_color" : "#F4F5F5",
          "text_color" : "#141515",
          "jump_url" : ""
        }
      ],
      "major" : [
        {
          "note" : "10只",
          "title" : "新鲜大虾"
        },
        {
          "title" : "蛤蜊",
          "tu" : "https:\/\/m.douguo.com\/ingredients\/蛤蜊\/detailmaterial",
          "note" : "20只"
        },
        {
          "title" : "海鲜菇",
          "note" : "100g"
        },
        {
          "note" : "4片",
          "title" : "干南姜"
        },
        {
          "title" : "香茅草",
          "note" : "1把"
        },
        {
          "title" : "柠檬叶",
          "note" : "10片"
        },
        {
          "title" : "青柠檬",
          "note" : "1个"
        },
        {
          "note" : "30g",
          "title" : "浓椰浆"
        },
        {
          "tu" : "https:\/\/m.douguo.com\/ingredients\/鱼露\/detailmaterial",
          "title" : "鱼露",
          "note" : "适量"
        },
        {
          "title" : "冬阴功汤块",
          "note" : "2小块"
        },
        {
          "title" : "干朝天椒",
          "note" : "4个"
        }
      ],
      "rrpt" : "",
      "hq" : 1,
      "rdsps" : [

      ],
      "rips" : 0,
      "event" : {
        "id" : 0
      },
      "sr" : "",
      "recipe_tags" : [

      ],
      "comments" : [
        "{\n    ac = \"#999999\";\n    at = \"\\U6df1\\U5733\\U5e02\";\n    ccc = 1;\n    \"child_comments\" =     (\n                {\n            ac = \"#999999\";\n            at = \"\\U6606\\U660e\\U5e02\";\n            ccc = 0;\n            city = \"\\U6606\\U660e\\U5e02\";\n            cmc = 2;\n            content =             (\n                                {\n                    c = \" \\U7f51\\U4e0a\";\n                }\n            );\n            ia = 1;\n            id = 6642246;\n            \"ip_address_location\" = \"\";\n            like = 0;\n            \"like_count\" = 0;\n            \"reply_id\" = 6631568;\n            \"reply_user\" =             {\n                \"followers_count_text\" = \"\";\n                id = 19186933;\n                \"is_prime\" = 0;\n                lv = 0;\n                lvl = 1;\n                n = hgmin;\n                p = \"\";\n                \"progress_image\" = \"\";\n                \"recipes_count_text\" = \"\";\n                relationship = \"-1\";\n                title = \"\";\n                v = 0;\n                \"verified_image\" = \"\";\n            };\n            \"sticker_icon\" =             (\n            );\n            time = \"2019-06-05 13:05:49\";\n            u =             {\n                \"followers_count_text\" = \"\";\n                id = 7032368;\n                \"is_prime\" = 0;\n                lv = 0;\n                lvl = 6;\n                n = \"honey\\U554a\\U6e05\\U6e05\";\n                p = \"http:\/\/tx1.douguo.net\/upload\/photo\/f\/d\/3\/70_u16463981608917234211.jpeg\";\n                \"progress_image\" = \"\";\n                \"recipes_count_text\" = \"\";\n                relationship = \"-1\";\n                title = \"\";\n                v = 1;\n                \"verified_image\" = \"\";\n            };\n        }\n    );\n    city = \"\\U6df1\\U5733\\U5e02\";\n    cmc = 2;\n    content =     (\n                {\n            c = \"\\U8fd9\\U4e9b\\U6750\\U6599\\U5728\\U54ea\\U91cc\\U4e70\\Uff1f\";\n        }\n    );\n    ia = 0;\n    id = 6631568;\n    \"ip_address_location\" = \"\";\n    like = 0;\n    \"like_count\" = 0;\n    \"reply_id\" = 0;\n    \"sticker_icon\" =     (\n    );\n    time = \"2019-06-01 05:13:23\";\n    u =     {\n        \"followers_count_text\" = \"\";\n        id = 19186933;\n        \"is_prime\" = 0;\n        lv = 0;\n        lvl = 1;\n        n = hgmin;\n        p = \"\";\n        \"progress_image\" = \"\";\n        \"recipes_count_text\" = \"\";\n        relationship = \"-1\";\n        title = \"\";\n        v = 0;\n        \"verified_image\" = \"\";\n    };\n}",
        "{\n    ac = \"#999999\";\n    at = \"\";\n    ccc = 1;\n    \"child_comments\" =     (\n                {\n            ac = \"#999999\";\n            at = \"\\U6606\\U660e\\U5e02\";\n            ccc = 0;\n            city = \"\\U6606\\U660e\\U5e02\";\n            cmc = 2;\n            content =             (\n                                {\n                    c = \" \\U7f51\\U4e0a\";\n                }\n            );\n            ia = 1;\n            id = 6642252;\n            \"ip_address_location\" = \"\";\n            like = 0;\n            \"like_count\" = 0;\n            \"reply_id\" = 6615094;\n            \"reply_user\" =             {\n                \"followers_count_text\" = \"\";\n                id = 17782530;\n                \"is_prime\" = 0;\n                lv = 0;\n                lvl = 2;\n                n = \"**a760316\";\n                p = \"http:\/\/tx1.douguo.net\/upload\/photo\/f\/c\/3\/70_u66511209920976221225.jpeg\";\n                \"progress_image\" = \"\";\n                \"recipes_count_text\" = \"\";\n                relationship = \"-1\";\n                title = \"\";\n                v = 0;\n                \"verified_image\" = \"\";\n            };\n            \"sticker_icon\" =             (\n            );\n            time = \"2019-06-05 13:06:25\";\n            u =             {\n                \"followers_count_text\" = \"\";\n                id = 7032368;\n                \"is_prime\" = 0;\n                lv = 0;\n                lvl = 6;\n                n = \"honey\\U554a\\U6e05\\U6e05\";\n                p = \"http:\/\/tx1.douguo.net\/upload\/photo\/f\/d\/3\/70_u16463981608917234211.jpeg\";\n                \"progress_image\" = \"\";\n                \"recipes_count_text\" = \"\";\n                relationship = \"-1\";\n                title = \"\";\n                v = 1;\n                \"verified_image\" = \"\";\n            };\n        }\n    );\n    city = \"\";\n    cmc = 2;\n    content =     (\n                {\n            c = \"\\U6750\\U6599\\U54ea\\U91cc\\U4e70\\Uff1f\";\n        }\n    );\n    ia = 0;\n    id = 6615094;\n    \"ip_address_location\" = \"\";\n    like = 0;\n    \"like_count\" = 0;\n    \"reply_id\" = 0;\n    \"sticker_icon\" =     (\n    );\n    time = \"2019-05-25 12:44:16\";\n    u =     {\n        \"followers_count_text\" = \"\";\n        id = 17782530;\n        \"is_prime\" = 0;\n        lv = 0;\n        lvl = 2;\n        n = \"**a760316\";\n        p = \"http:\/\/tx1.douguo.net\/upload\/photo\/f\/c\/3\/70_u66511209920976221225.jpeg\";\n        \"progress_image\" = \"\";\n        \"recipes_count_text\" = \"\";\n        relationship = \"-1\";\n        title = \"\";\n        v = 0;\n        \"verified_image\" = \"\";\n    };\n}",
        "{\n    ac = \"#999999\";\n    at = \"\\U6cc9\\U5dde\\U5e02\";\n    ccc = 1;\n    \"child_comments\" =     (\n                {\n            ac = \"#999999\";\n            at = \"\\U6606\\U660e\\U5e02\";\n            ccc = 0;\n            city = \"\\U6606\\U660e\\U5e02\";\n            cmc = 2;\n            content =             (\n                                {\n                    c = \" \\U4e0d\\U53bb\\U7c7d\\U4f1a\\U6709\\U70b9\\U82e6\\Uff0c\\U6240\\U4ee5\\U6700\\U597d\\U8fd8\\U662f\\U53bb\\U7c7d\";\n                }\n            );\n            ia = 1;\n            id = 5923742;\n            \"ip_address_location\" = \"\";\n            like = 0;\n            \"like_count\" = 0;\n            \"reply_id\" = 5923139;\n            \"reply_user\" =             {\n                \"followers_count_text\" = \"\";\n                id = 11981921;\n                \"is_prime\" = 0;\n                lv = 0;\n                lvl = 1;\n                n = \"\\U7b80.hznm\";\n                p = \"http:\/\/tx1.douguo.net\/upload\/photo\/0\/f\/2\/70_u46879152404838225024.jpeg\";\n                \"progress_image\" = \"\";\n                \"recipes_count_text\" = \"\";\n                relationship = \"-1\";\n                title = \"\";\n                v = 0;\n                \"verified_image\" = \"\";\n            };\n            \"sticker_icon\" =             (\n            );\n            time = \"2018-08-09 08:55:11\";\n            u =             {\n                \"followers_count_text\" = \"\";\n                id = 7032368;\n                \"is_prime\" = 0;\n                lv = 0;\n                lvl = 6;\n                n = \"honey\\U554a\\U6e05\\U6e05\";\n                p = \"http:\/\/tx1.douguo.net\/upload\/photo\/f\/d\/3\/70_u16463981608917234211.jpeg\";\n                \"progress_image\" = \"\";\n                \"recipes_count_text\" = \"\";\n                relationship = \"-1\";\n                title = \"\";\n                v = 1;\n                \"verified_image\" = \"\";\n            };\n        }\n    );\n    city = \"\\U6cc9\\U5dde\\U5e02\";\n    cmc = 2;\n    content =     (\n                {\n            c = \"\\U67e0\\U6aac\\U4e0d\\U53bb\\U7c7d\\U4f1a\\U82e6\\U5417\";\n        }\n    );\n    ia = 0;\n    id = 5923139;\n    \"ip_address_location\" = \"\";\n    like = 0;\n    \"like_count\" = 0;\n    \"reply_id\" = 0;\n    \"sticker_icon\" =     (\n    );\n    time = \"2018-08-09 00:20:15\";\n    u =     {\n        \"followers_count_text\" = \"\";\n        id = 11981921;\n        \"is_prime\" = 0;\n        lv = 0;\n        lvl = 1;\n        n = \"\\U7b80.hznm\";\n        p = \"http:\/\/tx1.douguo.net\/upload\/photo\/0\/f\/2\/70_u46879152404838225024.jpeg\";\n        \"progress_image\" = \"\";\n        \"recipes_count_text\" = \"\";\n        relationship = \"-1\";\n        title = \"\";\n        v = 0;\n        \"verified_image\" = \"\";\n    };\n}"
      ],
      "ecs" : 0,
      "purl" : "",
      "first_level_comment_count" : 27,
      "recommendation_tag" : "",
      "collect_status" : 0,
      "hqu" : "recipes:\/\/www.douguo.com\/notedetail?id=21162253",
      "cook_difficulty_image" : "",
      "cookstep" : [
        {
          "image_width" : 800,
          "image" : "https:\/\/i1.douguo.com\/upload\/caiku\/f\/a\/c\/fa97ed0a99eb1861c97210def56454ec.jpeg",
          "frame" : "-1",
          "position" : 1,
          "content" : "虾和蛤蜊先用清水加适量盐泡着，20分钟后倒掉盐水，洗干净虾和蛤蜊",
          "image_height" : 1067,
          "thumb" : "https:\/\/i1.douguo.com\/upload\/caiku\/f\/a\/c\/140_fa97ed0a99eb1861c97210def56454ec.jpeg"
        },
        {
          "image_height" : 800,
          "thumb" : "https:\/\/i1.douguo.com\/upload\/caiku\/6\/2\/1\/140_62103b26e1ac898a7175dc728ae23501.jpeg",
          "position" : 2,
          "content" : "虾处理一下，用剪子在虾背上剪开，用牙签挑出虾线",
          "frame" : "-1",
          "image_width" : 800,
          "image" : "https:\/\/i1.douguo.com\/upload\/caiku\/6\/2\/1\/62103b26e1ac898a7175dc728ae23501.jpeg"
        },
        {
          "frame" : "-1",
          "image" : "https:\/\/i1.douguo.com\/upload\/caiku\/a\/d\/f\/adc6cf8b5e6bc152d768638087b0295f.jpeg",
          "content" : "烧一锅热水，加入柠檬叶、干南姜、朝天椒、香茅草，开火煮开调到中小火，盖上盖子煮20分钟，煮香料的过程整个厨房都弥漫着很清香的味道，闻着很舒服",
          "thumb" : "https:\/\/i1.douguo.com\/upload\/caiku\/a\/d\/f\/140_adc6cf8b5e6bc152d768638087b0295f.jpeg",
          "image_width" : 800,
          "position" : 3,
          "image_height" : 800
        },
        {
          "image" : "https:\/\/i1.douguo.com\/upload\/caiku\/d\/0\/8\/d018a8977f89d1f487ab303025d214b8.jpeg",
          "thumb" : "https:\/\/i1.douguo.com\/upload\/caiku\/d\/0\/8\/140_d018a8977f89d1f487ab303025d214b8.jpeg",
          "image_width" : 800,
          "position" : 4,
          "frame" : "-1",
          "image_height" : 800,
          "content" : "20分钟后关火，捞出香料"
        },
        {
          "thumb" : "https:\/\/i1.douguo.com\/upload\/caiku\/f\/a\/9\/140_fa98d27786fdfc6d89d5c2696fd3d1f9.jpeg",
          "frame" : "-1",
          "image_width" : 800,
          "image" : "https:\/\/i1.douguo.com\/upload\/caiku\/f\/a\/9\/fa98d27786fdfc6d89d5c2696fd3d1f9.jpeg",
          "position" : 5,
          "content" : "辣椒留着在汤中",
          "image_height" : 800
        },
        {
          "image_width" : 800,
          "content" : "放入一块冬阴功汤料块，这一小盒里面有两块，两块我都用了，继续煮",
          "thumb" : "https:\/\/i1.douguo.com\/upload\/caiku\/4\/f\/d\/140_4f924d1fa0c918a8e7b9a774625fda6d.jpeg",
          "image" : "https:\/\/i1.douguo.com\/upload\/caiku\/4\/f\/d\/4f924d1fa0c918a8e7b9a774625fda6d.jpeg",
          "position" : 6,
          "image_height" : 800,
          "frame" : "-1"
        },
        {
          "frame" : "-1",
          "position" : 7,
          "image" : "https:\/\/i1.douguo.com\/upload\/caiku\/a\/c\/1\/acbc46f95d35b30310be33b113668e11.jpeg",
          "image_width" : 800,
          "thumb" : "https:\/\/i1.douguo.com\/upload\/caiku\/a\/c\/1\/140_acbc46f95d35b30310be33b113668e11.jpeg",
          "content" : "汤料煮化开以后加入浓椰浆",
          "image_height" : 800
        },
        {
          "frame" : "-1",
          "content" : "接着加入鱼露，继续小火煮",
          "thumb" : "https:\/\/i1.douguo.com\/upload\/caiku\/a\/d\/4\/140_ad6c8051c503aec1567066a2e57cc5a4.jpeg",
          "position" : 8,
          "image_width" : 800,
          "image_height" : 800,
          "image" : "https:\/\/i1.douguo.com\/upload\/caiku\/a\/d\/4\/ad6c8051c503aec1567066a2e57cc5a4.jpeg"
        },
        {
          "image" : "https:\/\/i1.douguo.com\/upload\/caiku\/a\/9\/b\/a938609b4ac705158c40a5a291b0908b.jpeg",
          "thumb" : "https:\/\/i1.douguo.com\/upload\/caiku\/a\/9\/b\/140_a938609b4ac705158c40a5a291b0908b.jpeg",
          "content" : "青柠檬切开，一半把汁水挤入汤中",
          "image_height" : 800,
          "position" : 9,
          "image_width" : 800,
          "frame" : "-1"
        },
        {
          "thumb" : "https:\/\/i1.douguo.com\/upload\/caiku\/d\/c\/4\/140_dc531dccd88b985715122f590f1db284.jpeg",
          "frame" : "-1",
          "image" : "https:\/\/i1.douguo.com\/upload\/caiku\/d\/c\/4\/dc531dccd88b985715122f590f1db284.jpeg",
          "position" : 10,
          "image_height" : 800,
          "content" : "另一半切片放入汤内",
          "image_width" : 800
        },
        {
          "image_width" : 800,
          "frame" : "-1",
          "image_height" : 800,
          "thumb" : "https:\/\/i1.douguo.com\/upload\/caiku\/c\/f\/8\/140_cf820c1522a78d514bbfb9763c252738.jpeg",
          "image" : "https:\/\/i1.douguo.com\/upload\/caiku\/c\/f\/8\/cf820c1522a78d514bbfb9763c252738.jpeg",
          "content" : "先下不易煮熟的海鲜菇，煮熟后",
          "position" : 11
        },
        {
          "content" : "接着倒入蛤蜊",
          "image" : "https:\/\/i1.douguo.com\/upload\/caiku\/0\/7\/4\/0750187122c8e213e442b574168ce3b4.jpeg",
          "position" : 12,
          "frame" : "-1",
          "image_width" : 800,
          "thumb" : "https:\/\/i1.douguo.com\/upload\/caiku\/0\/7\/4\/140_0750187122c8e213e442b574168ce3b4.jpeg",
          "image_height" : 800
        },
        {
          "frame" : "-1",
          "image" : "https:\/\/i1.douguo.com\/upload\/caiku\/4\/6\/1\/46db1d3282e79454e3bafe266199f011.jpeg",
          "thumb" : "https:\/\/i1.douguo.com\/upload\/caiku\/4\/6\/1\/140_46db1d3282e79454e3bafe266199f011.jpeg",
          "image_width" : 800,
          "image_height" : 800,
          "content" : "蛤蜊煮开口就可以了",
          "position" : 13
        },
        {
          "image" : "https:\/\/i1.douguo.com\/upload\/caiku\/0\/1\/6\/012634bd15bee8d352e1cc49d8730a06.jpeg",
          "image_width" : 800,
          "frame" : "-1",
          "position" : 14,
          "image_height" : 800,
          "thumb" : "https:\/\/i1.douguo.com\/upload\/caiku\/0\/1\/6\/140_012634bd15bee8d352e1cc49d8730a06.jpeg",
          "content" : "然后倒入虾"
        },
        {
          "frame" : "-1",
          "content" : "继续煮3分钟，关火",
          "image" : "https:\/\/i1.douguo.com\/upload\/caiku\/8\/7\/2\/874b30e2364eb877795d6edde80b1032.jpeg",
          "thumb" : "https:\/\/i1.douguo.com\/upload\/caiku\/8\/7\/2\/140_874b30e2364eb877795d6edde80b1032.jpeg",
          "image_width" : 800,
          "position" : 15,
          "image_height" : 800
        },
        {
          "position" : 16,
          "image_height" : 600,
          "content" : "起锅",
          "image" : "https:\/\/i1.douguo.com\/upload\/caiku\/0\/9\/4\/09845dad9499c747e2bf092207e88e94.jpeg",
          "thumb" : "https:\/\/i1.douguo.com\/upload\/caiku\/0\/9\/4\/140_09845dad9499c747e2bf092207e88e94.jpeg",
          "image_width" : 800,
          "frame" : "-1"
        },
        {
          "image_height" : 1067,
          "position" : 17,
          "image_width" : 800,
          "content" : "开吃吧，配上一碗泰国香米饭更是棒，但是如果是在减肥，担心碳水化合物摄入过多，可以适量减少米饭量或者不吃米饭",
          "frame" : "-1",
          "image" : "https:\/\/i1.douguo.com\/upload\/caiku\/c\/0\/b\/c01e831b99ce7cc7749c851f15cd3f6b.jpeg",
          "thumb" : "https:\/\/i1.douguo.com\/upload\/caiku\/c\/0\/b\/140_c01e831b99ce7cc7749c851f15cd3f6b.jpeg"
        }
      ]
    }
  },
  "state" : "success",
  "status" : 0
}