{
  "state" : "success",
  "status" : 0,
  "result" : {
    "recipe" : {
      "minor" : [

      ],
      "sc" : 0,
      "eu" : "recipes:\/\/www.douguo.com\/postdetail?id=242016",
      "photo_path" : "https:\/\/i1.douguo.com\/upload\/caiku\/0\/9\/7\/600_09549d09166b8f6314fae5d14e6b1ef7.png",
      "old_comments" : [

      ],
      "favo_counts_text" : "2974",
      "author_verified" : 1,
      "cook_difficulty_image" : "https:\/\/i1.douguo.com\/upload\/banner\/1551424390.png",
      "comments_count" : 2,
      "cook_time" : "10-30分钟",
      "title" : "经典湘菜擂辣椒茄子皮蛋，开胃解腻",
      "su" : "",
      "hqu" : "recipes:\/\/www.douguo.com\/notedetail?id=21162253",
      "recommend_label" : "2人学做",
      "cook_difficulty" : "切墩(初级)",
      "bs" : [

      ],
      "ipurl" : "",
      "top_mdsp" : [

      ],
      "ss" : [

      ],
      "share_info" : {
        "qr_image" : "",
        "infos" : [
          {
            "name" : "经典湘菜擂辣椒茄子皮蛋，开胃解腻-会做饭很酷!",
            "s_u" : "",
            "object_id" : "3065385",
            "channel" : "1",
            "s_d" : "#学做饭用豆果美食#  我在@豆果美食 分享了【经典湘菜擂辣椒茄子皮蛋，开胃解腻-会做饭很酷!】，制作美食的过程承载了我生活中的热情，和我一起感受这份小确幸吧！查看图片了解菜谱（你喜欢的美食都在这里！https:\/\/m.weibo.cn\/p\/100404i33631）#会做饭很酷# ",
            "mini_program" : [

            ],
            "image" : "https:\/\/cp1.douguo.com\/upload\/caiku\/0\/9\/7\/09549d09166b8f6314fae5d14e6b1ef7.png",
            "qr_image" : ""
          },
          {
            "s_u" : "http:\/\/m.douguo.com\/cookbook\/3065385.html",
            "mini_program" : [

            ],
            "channel" : "7",
            "object_id" : "3065385",
            "image" : "https:\/\/cp1.douguo.com\/upload\/caiku\/0\/9\/7\/09549d09166b8f6314fae5d14e6b1ef7.png",
            "qr_image" : "",
            "s_d" : "经典湘菜擂辣椒茄子皮蛋，开胃解腻-会做饭很酷!",
            "name" : "经典湘菜擂辣椒茄子皮蛋，开胃解腻-会做饭很酷!"
          },
          {
            "image" : "https:\/\/cp1.douguo.com\/upload\/caiku\/0\/9\/7\/09549d09166b8f6314fae5d14e6b1ef7.png",
            "s_d" : "经典湘菜擂辣椒茄子皮蛋，开胃解腻-会做饭很酷!",
            "channel" : "8",
            "s_u" : "http:\/\/m.douguo.com\/cookbook\/3065385.html",
            "name" : "经典湘菜擂辣椒茄子皮蛋，开胃解腻-会做饭很酷!",
            "mini_program" : [

            ],
            "object_id" : "3065385",
            "qr_image" : ""
          }
        ],
        "image" : "https:\/\/cp1.douguo.com\/upload\/caiku\/0\/9\/7\/09549d09166b8f6314fae5d14e6b1ef7.png",
        "s_d" : "经典湘菜擂辣椒茄子皮蛋，开胃解腻-会做饭很酷!",
        "mini_program" : [

        ],
        "s_u" : "http:\/\/m.douguo.com\/cookbook\/3065385.html",
        "name" : "经典湘菜擂辣椒茄子皮蛋，开胃解腻-会做饭很酷!",
        "object_id" : "3065385"
      },
      "rate_count" : 2,
      "rewarded_video_dsp" : [

      ],
      "tags" : [

      ],
      "mid_mdsp" : [

      ],
      "first_level_comment_count" : 2,
      "recommendation_tag" : "",
      "collect_status" : 0,
      "related_ads" : [

      ],
      "favo_counts" : 2974,
      "thumb_path" : "https:\/\/i1.douguo.com\/upload\/caiku\/0\/9\/7\/300_09549d09166b8f6314fae5d14e6b1ef7.png",
      "author" : "湘野红姐",
      "image" : "http:\/\/i1.douguo.net\/upload\/caiku\/0\/9\/7\/300_09549d09166b8f6314fae5d14e6b1ef7.png",
      "rate_show" : 0,
      "rpst" : "",
      "recent_comments" : [

      ],
      "ipci" : "",
      "sr" : "",
      "rpid" : 0,
      "vu" : "https:\/\/vplay.douguo.com\/ltebagJPDcJLlDNJvUUq3LvGPcZ5",
      "guide_image" : "",
      "user" : {
        "userid" : "26335645",
        "user_photo" : "http:\/\/tx1.douguo.net\/upload\/photo\/0\/3\/1\/70_0301c8d5ca3b9c667c90263c25cf5cb1.png",
        "following_count" : 0,
        "subscription_article_count" : 0,
        "recipes_count" : 0,
        "weibo_nick" : "",
        "mobile" : "",
        "favorites_count" : 0,
        "verified_image" : "https:\/\/i1.douguo.com\/upload\/note\/d\/a\/a\/da84247847aebe48d9dd0fcdac88862a.png",
        "birthday" : "",
        "lv" : 0,
        "setted_email" : 0,
        "subscription" : 0,
        "qq_weibo_nick" : "",
        "email" : "",
        "verified" : 1,
        "fc" : 0,
        "point" : 0,
        "regist_time" : "",
        "user_cover" : "",
        "gender" : 2,
        "qzone_nick" : "",
        "diaries_count" : 0,
        "user_id" : "26335645",
        "introduction" : "",
        "coursecount" : 0,
        "age" : "",
        "pc" : 0,
        "favor_diaries_count" : 0,
        "progress_image" : "",
        "dishes_count" : 0,
        "verified_url" : "https:\/\/m.douguo.com\/user\/prodesc",
        "lvl" : 6,
        "location" : 0,
        "user_large_photo" : "http:\/\/tx1.douguo.net\/upload\/photo\/0\/3\/1\/yuan_0301c8d5ca3b9c667c90263c25cf5cb1.png",
        "sign" : "",
        "followers_count" : 0,
        "is_prime" : 0,
        "nick" : "湘野红姐",
        "avatar_medium" : "http:\/\/tx1.douguo.net\/upload\/photo\/0\/3\/1\/140_0301c8d5ca3b9c667c90263c25cf5cb1.png"
      },
      "levelid" : 2,
      "hq" : 1,
      "clicks" : "219641",
      "recommended" : 0,
      "cook_id" : "3065385",
      "tips" : "",
      "ssu" : "",
      "ipit" : 0,
      "vfurl" : "https:\/\/vplay.douguo.com\/ltebagJPDcJLlDNJvUUq3LvGPcZ5__640x356.mp4",
      "ph" : 1080,
      "packages_id" : [

      ],
      "rips" : 0,
      "ecs" : 0,
      "author_photo" : "http:\/\/tx1.douguo.net\/upload\/photo\/0\/3\/1\/70_0301c8d5ca3b9c667c90263c25cf5cb1.png",
      "comments_count_text" : "2",
      "brand_day_dsp" : [

      ],
      "ipoi" : "",
      "cookstep" : [
        {
          "frame" : "-1",
          "image_height" : 1080,
          "content" : "茄子上锅蒸20分钟，等蒸到戳下去软绵绵的，即可",
          "thumb" : "https:\/\/i1.douguo.com\/upload\/caiku\/d\/d\/d\/140_dda4c114101bfedb11eb740ee83c02ed.png",
          "position" : 1,
          "image_width" : 1920,
          "image" : "https:\/\/i1.douguo.com\/upload\/caiku\/d\/d\/d\/dda4c114101bfedb11eb740ee83c02ed.png"
        },
        {
          "frame" : "-1",
          "image" : "https:\/\/i1.douguo.com\/upload\/caiku\/9\/8\/f\/98e4a1504110f55039080de93116cbdf.png",
          "content" : "烤辣椒，品种要选线椒，等烤到呈现焦糊的虎皮状，会比较好脱皮",
          "thumb" : "https:\/\/i1.douguo.com\/upload\/caiku\/9\/8\/f\/140_98e4a1504110f55039080de93116cbdf.png",
          "position" : 2,
          "image_width" : 1920,
          "image_height" : 1080
        },
        {
          "thumb" : "https:\/\/i1.douguo.com\/upload\/caiku\/e\/3\/2\/140_e383cc21e6576bbb35b10cd65bbd3b12.png",
          "image" : "https:\/\/i1.douguo.com\/upload\/caiku\/e\/3\/2\/e383cc21e6576bbb35b10cd65bbd3b12.png",
          "image_width" : 1920,
          "position" : 3,
          "image_height" : 1080,
          "frame" : "-1",
          "content" : "将辣椒趁热去皮"
        },
        {
          "content" : "茄子蒸好了，趁热撕皮",
          "thumb" : "https:\/\/i1.douguo.com\/upload\/caiku\/2\/7\/c\/140_272984c11512cca792225b25a3607c5c.png",
          "image" : "https:\/\/i1.douguo.com\/upload\/caiku\/2\/7\/c\/272984c11512cca792225b25a3607c5c.png",
          "image_height" : 1080,
          "position" : 4,
          "image_width" : 1920,
          "frame" : "-1"
        },
        {
          "thumb" : "https:\/\/i1.douguo.com\/upload\/caiku\/2\/6\/6\/140_267087f085731cded037ba3f02f926b6.png",
          "position" : 5,
          "frame" : "-1",
          "image_width" : 1920,
          "content" : "将大蒜捣成泥状",
          "image" : "https:\/\/i1.douguo.com\/upload\/caiku\/2\/6\/6\/267087f085731cded037ba3f02f926b6.png",
          "image_height" : 1080
        },
        {
          "image_height" : 1080,
          "content" : "把辣椒和皮蛋放进来",
          "image_width" : 1920,
          "frame" : "-1",
          "position" : 6,
          "image" : "https:\/\/i1.douguo.com\/upload\/caiku\/5\/6\/f\/56974eec5cf7e8c752d43c39f7d60aff.png",
          "thumb" : "https:\/\/i1.douguo.com\/upload\/caiku\/5\/6\/f\/140_56974eec5cf7e8c752d43c39f7d60aff.png"
        },
        {
          "frame" : "-1",
          "content" : "茄子撕成条状放进来",
          "position" : 7,
          "thumb" : "https:\/\/i1.douguo.com\/upload\/caiku\/c\/f\/b\/140_cf855bab0b432a3782802a293165fd2b.png",
          "image" : "https:\/\/i1.douguo.com\/upload\/caiku\/c\/f\/b\/cf855bab0b432a3782802a293165fd2b.png",
          "image_width" : 1920,
          "image_height" : 1080
        },
        {
          "image_height" : 1080,
          "thumb" : "https:\/\/i1.douguo.com\/upload\/caiku\/d\/9\/6\/140_d9b0ecad132cb9675b7d40fc33b7eb36.png",
          "position" : 8,
          "frame" : "-1",
          "image_width" : 1920,
          "content" : "放调料，生抽放两勺，老抽小半勺，陈醋两勺，耗油两勺，香油1勺",
          "image" : "https:\/\/i1.douguo.com\/upload\/caiku\/d\/9\/6\/d9b0ecad132cb9675b7d40fc33b7eb36.png"
        },
        {
          "thumb" : "https:\/\/i1.douguo.com\/upload\/caiku\/9\/9\/3\/140_9941bf9415b564e1dbfabc0b604527c3.png",
          "content" : "加一点点盐，因为生抽本来就有点咸",
          "position" : 9,
          "image_width" : 1920,
          "frame" : "-1",
          "image_height" : 1080,
          "image" : "https:\/\/i1.douguo.com\/upload\/caiku\/9\/9\/3\/9941bf9415b564e1dbfabc0b604527c3.png"
        },
        {
          "position" : 10,
          "thumb" : "https:\/\/i1.douguo.com\/upload\/caiku\/9\/a\/0\/140_9a309286b87926156385c810e1162f90.png",
          "frame" : "-1",
          "image_height" : 1080,
          "content" : "拌匀以后，就可装盘吃了",
          "image_width" : 1920,
          "image" : "https:\/\/i1.douguo.com\/upload\/caiku\/9\/a\/0\/9a309286b87926156385c810e1162f90.png"
        },
        {
          "frame" : "-1",
          "image_width" : 1920,
          "image" : "https:\/\/i1.douguo.com\/upload\/caiku\/5\/0\/a\/507ccfc332f46e87e63791357e89877a.png",
          "content" : "别看这个菜长得不咋地，但味道特别好，开胃解腻，很下饭",
          "image_height" : 1080,
          "thumb" : "https:\/\/i1.douguo.com\/upload\/caiku\/5\/0\/a\/140_507ccfc332f46e87e63791357e89877a.png",
          "position" : 11
        }
      ],
      "dish_count" : 2,
      "cookstorys" : [
        {
          "type" : 0,
          "c" : "冰箱肉都吃完了，只剩了点辣椒和茄子，去邻居家借了点皮蛋，做个擂辣椒茄子皮蛋吃\n\n湘菜馆里的经典菜-擂辣椒茄子皮蛋，外表虽然不好看，但吃一口绝对下饭，茄子用蒸的，辣椒用炭火烤的，加入皮蛋一起擂，开胃解腻，香辣下饭",
          "u" : "",
          "icon" : "",
          "color" : "",
          "id" : 0
        }
      ],
      "recipe_list_tags" : [
        {
          "background_end_color" : "#F4F5F5",
          "jump_url" : "",
          "text_color" : "#141515",
          "background_border_color" : "",
          "text" : "关注的人",
          "right_image" : "",
          "background_start_color" : "#F4F5F5"
        }
      ],
      "act_des" : "",
      "rdsps" : [

      ],
      "recipe_tags" : [

      ],
      "rrpt" : "",
      "title_ad" : [

      ],
      "views_count_text" : "27.1万",
      "original_photo_path" : "http:\/\/i1.douguo.net\/upload\/caiku\/0\/9\/7\/yuan_09549d09166b8f6314fae5d14e6b1ef7.png",
      "v_u" : "",
      "notes" : [

      ],
      "comments" : [
        "{\n    ac = \"#999999\";\n    at = \"\\U8861\\U9633\\U5e02\";\n    ccc = 0;\n    \"child_comments\" =     (\n    );\n    city = \"\\U8861\\U9633\\U5e02\";\n    cmc = 2;\n    content =     (\n                {\n            c = \"\\U5e94\\U8be5\\U5f88\\U54b8\";\n        }\n    );\n    ia = 0;\n    id = 8979788;\n    \"ip_address_location\" = \"\\U6e56\\U5357\";\n    like = 0;\n    \"like_count\" = 0;\n    \"reply_id\" = 0;\n    \"sticker_icon\" =     (\n    );\n    time = \"2022-11-03 13:23:50\";\n    u =     {\n        \"followers_count_text\" = \"\";\n        id = 4970767;\n        \"is_prime\" = 0;\n        lv = 0;\n        lvl = 2;\n        n = \"\\U5bff\\U76ca\\U826f\\U591a\";\n        p = \"http:\/\/tx1.douguo.net\/upload\/photo\/4\/9\/6\/70_u06540188616820145932.jpg\";\n        \"progress_image\" = \"\";\n        \"recipes_count_text\" = \"\";\n        relationship = \"-1\";\n        title = \"\";\n        v = 0;\n        \"verified_image\" = \"\";\n    };\n}",
        "{\n    ac = \"#999999\";\n    at = \"\";\n    ccc = 0;\n    \"child_comments\" =     (\n    );\n    city = \"\";\n    cmc = 2;\n    content =     (\n                {\n            c = \"\\U5473\\U9053\\U5e94\\U8be5\\U76f8\\U5f53\\U4e0d\\U9519~\";\n        }\n    );\n    ia = 0;\n    id = 8538898;\n    \"ip_address_location\" = \"\";\n    like = 0;\n    \"like_count\" = 0;\n    \"reply_id\" = 0;\n    \"sticker_icon\" =     (\n    );\n    time = \"2021-02-23 14:42:20\";\n    u =     {\n        \"followers_count_text\" = \"\";\n        id = 23593488;\n        \"is_prime\" = 0;\n        lv = 0;\n        lvl = 1;\n        n = \"\\U516b\\U5366\\U9ec4\\U5927\\U4ed9\";\n        p = \"http:\/\/tx1.douguo.net\/upload\/photo\/7\/5\/8\/70_u5582325811440329212149.jpg\";\n        \"progress_image\" = \"\";\n        \"recipes_count_text\" = \"\";\n        relationship = \"-1\";\n        title = \"\";\n        v = 0;\n        \"verified_image\" = \"\";\n    };\n}"
      ],
      "cookwares" : [

      ],
      "thumb_height" : 0,
      "display_ingredient" : 1,
      "release_time" : "",
      "rcs" : [

      ],
      "btm_dsp" : [

      ],
      "major" : [
        {
          "tu" : "https:\/\/m.douguo.com\/ingredients\/茄子\/detailmaterial",
          "title" : "茄子",
          "note" : "2个"
        },
        {
          "tu" : "https:\/\/m.douguo.com\/ingredients\/皮蛋\/detailmaterial",
          "title" : "皮蛋",
          "note" : "4个"
        },
        {
          "title" : "线椒",
          "note" : "6个"
        },
        {
          "tu" : "https:\/\/m.douguo.com\/ingredients\/大蒜\/detailmaterial",
          "title" : "大蒜",
          "note" : "5个"
        },
        {
          "title" : "生抽放两勺，老抽小半勺，陈醋两勺，耗油两勺，香油1勺",
          "note" : "量在左边"
        }
      ],
      "purl" : "",
      "rsm" : "该功能暂停使用",
      "rrps" : [

      ],
      "cookstory" : "冰箱肉都吃完了，只剩了点辣椒和茄子，去邻居家借了点皮蛋，做个擂辣椒茄子皮蛋吃\n\n湘菜馆里的经典菜-擂辣椒茄子皮蛋，外表虽然不好看，但吃一口绝对下饭，茄子用蒸的，辣椒用炭火烤的，加入皮蛋一起擂，开胃解腻，香辣下饭",
      "cook_time_image" : "https:\/\/i1.douguo.com\/upload\/banner\/1551424341.png",
      "create_time" : "2021-02-23 14:39:15",
      "author_id" : 26335645,
      "story_dsp" : [

      ],
      "ipia" : [

      ],
      "dish_count_text" : "2",
      "ipt" : "",
      "dishes" : [

      ],
      "pw" : 1920,
      "rpt" : "",
      "vc" : "271292",
      "rate" : 5
    }
  }
}