{
  "status" : 0,
  "result" : {
    "recipe" : {
      "ipt" : "",
      "recipe_tags" : [

      ],
      "recipe_list_tags" : [
        {
          "text_color" : "#141515",
          "background_border_color" : "",
          "right_image" : "",
          "text" : "关注的人",
          "background_end_color" : "#F4F5F5",
          "background_start_color" : "#F4F5F5",
          "jump_url" : ""
        }
      ],
      "bs" : [

      ],
      "ipoi" : "",
      "v_u" : "",
      "cook_id" : "1514149",
      "author_id" : 18603773,
      "image" : "http:\/\/i1.douguo.net\/upload\/caiku\/2\/b\/a\/300_2b0bf2e091c4de3389cf122e37a3acaa.jpg",
      "rate" : 5,
      "old_comments" : [

      ],
      "cookwares" : [

      ],
      "author_photo" : "http:\/\/tx1.douguo.net\/upload\/photo\/5\/1\/c\/70_5130af8e378cca906ddf77eb006ec7ac.jpg",
      "tags" : [

      ],
      "ipia" : [

      ],
      "dish_count_text" : "6",
      "photo_path" : "https:\/\/i1.douguo.com\/upload\/caiku\/2\/b\/a\/600_2b0bf2e091c4de3389cf122e37a3acaa.jpg",
      "ipurl" : "",
      "dishes" : [

      ],
      "btm_dsp" : [

      ],
      "cookstorys" : [
        {
          "u" : "",
          "id" : 0,
          "color" : "",
          "type" : 0,
          "icon" : "",
          "c" : "提起果酱，估计没有不喜欢的。不仅孩子们喜欢吃，大人也爱吃。一片小小的不起眼的白土司，抹上一勺果酱，立马变得甜美诱人。果酱也保留了水果中最主要的营养价值，果酱里的果胶、矿物质和纤维，能够弥补碳水化合物和蛋白质为主的早餐的不足，让孩子们的第一餐更加营养全面。\n\n可能有人会跳出来说，吃果酱不如直接吃水果，高温一煮维C就没了。拜托，如果能品尝到美味的果酱，牺牲一点点维C也无可厚非。维C可以通过许多途径补充，但如果吃面包片时，你要我生啃一块水果，那我还是宁可选择果酱来搭配。\n\n喵姐和喵小弟从小就是果酱控，草莓酱、蓝莓酱等都非常爱吃。相比市售果酱的各种添加剂，自制的果酱显然要健康得多。正值草莓季，特送上一款减糖配方的自制草莓方子，清甜纯正的口感一定可以瞬间俘获孩子们的芳心～"
        }
      ],
      "views_count_text" : "22.8万",
      "favo_counts" : 2275,
      "notes" : [

      ],
      "ipit" : 0,
      "mid_mdsp" : [

      ],
      "thumb_path" : "https:\/\/i1.douguo.com\/upload\/caiku\/2\/b\/a\/300_2b0bf2e091c4de3389cf122e37a3acaa.jpg",
      "share_info" : {
        "qr_image" : "",
        "s_d" : "自制草莓果酱-会做饭很酷!",
        "image" : "https:\/\/cp1.douguo.com\/upload\/caiku\/2\/b\/a\/2b0bf2e091c4de3389cf122e37a3acaa.jpg",
        "mini_program" : [

        ],
        "s_u" : "http:\/\/m.douguo.com\/cookbook\/1514149.html",
        "infos" : [
          {
            "mini_program" : [

            ],
            "name" : "自制草莓果酱-会做饭很酷!",
            "qr_image" : "",
            "s_d" : "#学做饭用豆果美食# 会做饭真是太酷了！我在@豆果美食 分享了【自制草莓果酱-会做饭很酷!】，这道菜真的神仙美味！喜欢的一定要试试绝对不会错的！～查看图片了解菜谱（快来点击https:\/\/m.weibo.cn\/p\/100404i33631和我一起修炼厨艺吧）",
            "channel" : "1",
            "s_u" : "",
            "object_id" : "1514149",
            "image" : "https:\/\/cp1.douguo.com\/upload\/caiku\/2\/b\/a\/2b0bf2e091c4de3389cf122e37a3acaa.jpg"
          },
          {
            "object_id" : "1514149",
            "qr_image" : "",
            "mini_program" : [

            ],
            "name" : "自制草莓果酱-会做饭很酷!",
            "s_d" : "自制草莓果酱-会做饭很酷!",
            "s_u" : "http:\/\/m.douguo.com\/cookbook\/1514149.html",
            "image" : "https:\/\/cp1.douguo.com\/upload\/caiku\/2\/b\/a\/2b0bf2e091c4de3389cf122e37a3acaa.jpg",
            "channel" : "7"
          },
          {
            "mini_program" : [

            ],
            "s_d" : "自制草莓果酱-会做饭很酷!",
            "qr_image" : "",
            "image" : "https:\/\/cp1.douguo.com\/upload\/caiku\/2\/b\/a\/2b0bf2e091c4de3389cf122e37a3acaa.jpg",
            "s_u" : "http:\/\/m.douguo.com\/cookbook\/1514149.html",
            "object_id" : "1514149",
            "channel" : "8",
            "name" : "自制草莓果酱-会做饭很酷!"
          }
        ],
        "name" : "自制草莓果酱-会做饭很酷!",
        "object_id" : "1514149"
      },
      "ecs" : 0,
      "favo_counts_text" : "2275",
      "ssu" : "",
      "top_mdsp" : [

      ],
      "act_des" : "",
      "minor" : [

      ],
      "pw" : 600,
      "eu" : "recipes:\/\/www.douguo.com\/postdetail?id=242016",
      "rips" : 0,
      "dish_count" : 6,
      "cook_time" : "",
      "ph" : 400,
      "rsm" : "该功能暂停使用",
      "title_ad" : [

      ],
      "cook_time_image" : "",
      "first_level_comment_count" : 14,
      "rrpt" : "",
      "levelid" : 2,
      "rpid" : 0,
      "cook_difficulty_image" : "",
      "comments_count_text" : "17",
      "rcs" : [

      ],
      "purl" : "",
      "cookstory" : "提起果酱，估计没有不喜欢的。不仅孩子们喜欢吃，大人也爱吃。一片小小的不起眼的白土司，抹上一勺果酱，立马变得甜美诱人。果酱也保留了水果中最主要的营养价值，果酱里的果胶、矿物质和纤维，能够弥补碳水化合物和蛋白质为主的早餐的不足，让孩子们的第一餐更加营养全面。\n\n可能有人会跳出来说，吃果酱不如直接吃水果，高温一煮维C就没了。拜托，如果能品尝到美味的果酱，牺牲一点点维C也无可厚非。维C可以通过许多途径补充，但如果吃面包片时，你要我生啃一块水果，那我还是宁可选择果酱来搭配。\n\n喵姐和喵小弟从小就是果酱控，草莓酱、蓝莓酱等都非常爱吃。相比市售果酱的各种添加剂，自制的果酱显然要健康得多。正值草莓季，特送上一款减糖配方的自制草莓方子，清甜纯正的口感一定可以瞬间俘获孩子们的芳心～",
      "hq" : 1,
      "rrps" : [

      ],
      "recent_comments" : [

      ],
      "title" : "自制草莓果酱",
      "rate_count" : 6,
      "author" : "拾味爸爸",
      "rpst" : "",
      "original_photo_path" : "http:\/\/i1.douguo.net\/upload\/caiku\/2\/b\/a\/yuan_2b0bf2e091c4de3389cf122e37a3acaa.jpg",
      "thumb_height" : 0,
      "recommend_label" : "6人学做",
      "recommended" : 0,
      "sr" : "",
      "recommendation_tag" : "",
      "release_time" : "",
      "collect_status" : 0,
      "su" : "",
      "related_ads" : [

      ],
      "display_ingredient" : 1,
      "cookstep" : [
        {
          "frame" : "-1",
          "image_width" : 5760,
          "content" : "新鲜草莓先用淡盐水浸泡15分钟。建议购买草莓前先尝一尝，确定甜才买。做好草莓果酱的关键还是草莓要够甜，这样才能做出清甜可口的草莓酱。另外太熟或已经开始腐烂的草莓不要买。",
          "image" : "https:\/\/i1.douguo.com\/upload\/caiku\/6\/3\/f\/634cebbb53571af80ee660d12f4db48f.jpg",
          "thumb" : "https:\/\/i1.douguo.com\/upload\/caiku\/6\/3\/f\/140_634cebbb53571af80ee660d12f4db48f.jpg",
          "image_height" : 3240,
          "position" : 1
        },
        {
          "position" : 2,
          "content" : "把一会儿要装草莓酱的玻璃器皿入锅消毒。因为草莓酱的保存时间较长，为了防止细菌滋生，高温消毒器皿这一步很重要。另外，最好选择有盖子，并且盖子可以拧紧的玻璃器皿。拍视频时我刚好手头只剩下这个玻璃罐了，所以只能将就着用。",
          "image_height" : 3240,
          "image_width" : 5760,
          "thumb" : "https:\/\/i1.douguo.com\/upload\/caiku\/c\/9\/c\/140_c95ceed041880782ec540b8b68b3a11c.jpg",
          "image" : "https:\/\/i1.douguo.com\/upload\/caiku\/c\/9\/c\/c95ceed041880782ec540b8b68b3a11c.jpg",
          "frame" : "-1"
        },
        {
          "frame" : "-1",
          "image_width" : 5760,
          "content" : "将草莓在流水下反复搓洗干净。市售草莓很多都打了农药，这一步可以去除大部分的农残。",
          "image" : "https:\/\/i1.douguo.com\/upload\/caiku\/2\/5\/c\/251023ef6a043cb172526eed48f7dc4c.jpg",
          "image_height" : 3240,
          "thumb" : "https:\/\/i1.douguo.com\/upload\/caiku\/2\/5\/c\/140_251023ef6a043cb172526eed48f7dc4c.jpg",
          "position" : 3
        },
        {
          "position" : 4,
          "frame" : "-1",
          "image_width" : 5760,
          "thumb" : "https:\/\/i1.douguo.com\/upload\/caiku\/e\/8\/6\/140_e8193978e798d09aaa026b0a9435ba56.jpg",
          "content" : "去蒂，切小块。",
          "image" : "https:\/\/i1.douguo.com\/upload\/caiku\/e\/8\/6\/e8193978e798d09aaa026b0a9435ba56.jpg",
          "image_height" : 3240
        },
        {
          "thumb" : "https:\/\/i1.douguo.com\/upload\/caiku\/f\/3\/a\/140_f36b56b1befd15dc1e2ba5c72801c3ca.jpg",
          "frame" : "-1",
          "position" : 5,
          "image" : "https:\/\/i1.douguo.com\/upload\/caiku\/f\/3\/a\/f36b56b1befd15dc1e2ba5c72801c3ca.jpg",
          "image_height" : 3240,
          "image_width" : 5760,
          "content" : "加入80g细砂糖，用筷子拌匀。有人可能会惊讶，做果酱怎么能用这么少糖？按照500g的草莓少说也要加300g以上的糖才对啊？其实，加糖有几个目的，最主要的是为了让果胶析出起到凝胶作用，以及延长果酱保存时间，不过后面我会加柠檬来增强凝胶作用。果酱我也不建议放个一年半载的，所以主要还是从孩子健康角度考虑，只加了80g细砂糖。"
        },
        {
          "image_width" : 5760,
          "frame" : "-1",
          "image_height" : 3240,
          "thumb" : "https:\/\/i1.douguo.com\/upload\/caiku\/3\/0\/5\/140_308ec39ef017ecb093a5cacbb85ec7d5.jpg",
          "image" : "https:\/\/i1.douguo.com\/upload\/caiku\/3\/0\/5\/308ec39ef017ecb093a5cacbb85ec7d5.jpg",
          "content" : "用保鲜膜密封好，放到冰箱冷藏3小时以上进行腌渍。如果冷藏过夜，效果会更好。",
          "position" : 6
        },
        {
          "image_height" : 3240,
          "frame" : "-1",
          "image" : "https:\/\/i1.douguo.com\/upload\/caiku\/9\/7\/2\/97459167bae6021f802690433a929672.jpg",
          "image_width" : 5760,
          "content" : "柠檬切半，用研磨器将柠檬汁挤出来。",
          "thumb" : "https:\/\/i1.douguo.com\/upload\/caiku\/9\/7\/2\/140_97459167bae6021f802690433a929672.jpg",
          "position" : 7
        },
        {
          "position" : 8,
          "thumb" : "https:\/\/i1.douguo.com\/upload\/caiku\/a\/6\/4\/140_a6c50bc9b46df865b66bcb89aadf2704.jpg",
          "image" : "https:\/\/i1.douguo.com\/upload\/caiku\/a\/6\/4\/a6c50bc9b46df865b66bcb89aadf2704.jpg",
          "image_height" : 3240,
          "image_width" : 5760,
          "frame" : "-1",
          "content" : "将草莓从冰箱取出后，连同渗出的水分一起倒入汤锅中，大火煮沸，转中小火拌匀。期间要不断用勺子搅动，避免糊锅。不需要另外加水，草莓在煮的过程中会释出大量水分。"
        },
        {
          "frame" : "-1",
          "content" : "煮到草莓酱呈浓稠的像粥一样的状态后，就可以关火，加入柠檬汁，拌匀。草莓本身是果胶含量少的水果，加上这个方子糖的量也很少，因此必须加入柠檬汁来调节粘稠度，同时还能改善果酱的酸度和风味。柠檬汁要在最后一步加，如果提前加了容易变酸。",
          "image_height" : 281,
          "image_width" : 500,
          "thumb" : "https:\/\/i1.douguo.com\/upload\/caiku\/b\/6\/8\/b62030e10b79c0e642ea422f1ae98988.gif",
          "position" : 9,
          "image" : "https:\/\/i1.douguo.com\/upload\/caiku\/b\/6\/8\/b62030e10b79c0e642ea422f1ae98988.gif"
        },
        {
          "frame" : "-1",
          "image_height" : 270,
          "thumb" : "https:\/\/i1.douguo.com\/upload\/caiku\/0\/f\/b\/0f9def2f82ac4ffcacd5ea2c77de1cfb.gif",
          "position" : 10,
          "image_width" : 480,
          "content" : "趁热装入消毒好的容器里，密封起来。装瓶过程中要避免手接触到瓶口造成污染。有些果酱做法会建议将果酱瓶再去煮沸，或者是倒扣，延长保存时间，大家可以试试，但对我这个方子来说意义不大，密封放凉后冰箱冷藏即可，一个月内吃完。（常温的状态下就要在3～5天内吃完，夏天的话就不要常温放置了）\n\n少糖做出来的果酱虽然不那么粘稠，保质期也较短，但胜在口感清甜，也不必担心糖分太高影响健康。",
          "image" : "https:\/\/i1.douguo.com\/upload\/caiku\/0\/f\/b\/0f9def2f82ac4ffcacd5ea2c77de1cfb.gif"
        },
        {
          "frame" : "-1",
          "image" : "https:\/\/i1.douguo.com\/upload\/caiku\/0\/1\/a\/0192892b6813f656a631f3f2d97d0a8a.gif",
          "content" : "我用了500g草莓，做出来的果酱大概是300g左右。最常用的场景就是抹面包。喵姐已经上幼儿园了，有时候早餐没来得及做，就土司抹果酱，配上牛奶，营养与美味都兼备了。",
          "thumb" : "https:\/\/i1.douguo.com\/upload\/caiku\/0\/1\/a\/0192892b6813f656a631f3f2d97d0a8a.gif",
          "position" : 11,
          "image_width" : 430,
          "image_height" : 242
        },
        {
          "thumb" : "https:\/\/i1.douguo.com\/upload\/caiku\/3\/f\/3\/3f645240da7895e5e2b3903f1cf00c63.gif",
          "image" : "https:\/\/i1.douguo.com\/upload\/caiku\/3\/f\/3\/3f645240da7895e5e2b3903f1cf00c63.gif",
          "image_width" : 450,
          "position" : 12,
          "frame" : "-1",
          "image_height" : 253,
          "content" : "天气热的时候，还可以调成草莓饮料，或者在做烘焙甜点时加点，都是极好的～ "
        },
        {
          "thumb" : "https:\/\/i1.douguo.com\/upload\/caiku\/2\/a\/f\/140_2a8b21f04fbab2bc0650f2c6e753e1ef.jpg",
          "content" : "自制的草莓果酱，比外面买的不知道要好吃多少倍，那种清甜纯正的口感，是那些添加了各种添加剂，而且甜得发腻的市售果酱无法比拟的。看完了，你还不赶紧试试？",
          "image" : "https:\/\/i1.douguo.com\/upload\/caiku\/2\/a\/f\/2a8b21f04fbab2bc0650f2c6e753e1ef.jpg",
          "image_height" : 400,
          "position" : 13,
          "image_width" : 600,
          "frame" : "-1"
        }
      ],
      "user" : {
        "avatar_medium" : "http:\/\/tx1.douguo.net\/upload\/photo\/5\/1\/c\/140_5130af8e378cca906ddf77eb006ec7ac.jpg",
        "verified_image" : "https:\/\/i1.douguo.com\/upload\/note\/d\/a\/a\/da84247847aebe48d9dd0fcdac88862a.png",
        "sign" : "",
        "setted_email" : 0,
        "fc" : 0,
        "regist_time" : "",
        "introduction" : "",
        "location" : 0,
        "pc" : 0,
        "point" : 0,
        "is_prime" : 0,
        "dishes_count" : 0,
        "progress_image" : "",
        "gender" : 1,
        "qq_weibo_nick" : "",
        "mobile" : "",
        "lvl" : 7,
        "user_large_photo" : "http:\/\/tx1.douguo.net\/upload\/photo\/5\/1\/c\/yuan_5130af8e378cca906ddf77eb006ec7ac.jpg",
        "birthday" : "",
        "verified" : 1,
        "user_cover" : "",
        "user_id" : "18603773",
        "nick" : "拾味爸爸",
        "favorites_count" : 0,
        "lv" : 0,
        "subscription_article_count" : 0,
        "age" : "",
        "email" : "",
        "verified_url" : "https:\/\/m.douguo.com\/user\/prodesc",
        "diaries_count" : 0,
        "userid" : "18603773",
        "followers_count" : 0,
        "recipes_count" : 0,
        "favor_diaries_count" : 0,
        "following_count" : 0,
        "coursecount" : 0,
        "qzone_nick" : "",
        "subscription" : 0,
        "weibo_nick" : "",
        "user_photo" : "http:\/\/tx1.douguo.net\/upload\/photo\/5\/1\/c\/70_5130af8e378cca906ddf77eb006ec7ac.jpg"
      },
      "vc" : "227606",
      "major" : [
        {
          "title" : "草莓",
          "note" : "500g",
          "tu" : "https:\/\/m.douguo.com\/ingredients\/草莓\/detailmaterial"
        },
        {
          "note" : "80g",
          "title" : "细砂糖",
          "tu" : "https:\/\/m.douguo.com\/ingredients\/细砂糖\/detailmaterial"
        },
        {
          "title" : "柠檬",
          "tu" : "https:\/\/m.douguo.com\/ingredients\/柠檬\/detailmaterial",
          "note" : "1个"
        }
      ],
      "rate_show" : 0,
      "clicks" : "224475",
      "brand_day_dsp" : [

      ],
      "comments" : [
        "{\n    ac = \"#999999\";\n    at = \"\";\n    ccc = 3;\n    \"child_comments\" =     (\n                {\n            ac = \"#999999\";\n            at = \"\";\n            ccc = 0;\n            city = \"\";\n            cmc = 2;\n            content =             (\n                                {\n                    c = \" \\U5173\\U706b\\U8d81\\U70ed\\U653e\\U8fdb\\U53bb\";\n                }\n            );\n            ia = 1;\n            id = 4485861;\n            \"ip_address_location\" = \"\";\n            like = 0;\n            \"like_count\" = 0;\n            \"reply_id\" = 4485379;\n            \"reply_user\" =             {\n                \"followers_count_text\" = \"\";\n                id = 15885254;\n                \"is_prime\" = 0;\n                lv = 0;\n                lvl = 2;\n                n = \"\\U6db5\\U7237\\U5988\";\n                p = \"\";\n                \"progress_image\" = \"\";\n                \"recipes_count_text\" = \"\";\n                relationship = \"-1\";\n                title = \"\";\n                v = 0;\n                \"verified_image\" = \"\";\n            };\n            \"sticker_icon\" =             (\n            );\n            time = \"2017-02-23 02:07:37\";\n            u =             {\n                \"followers_count_text\" = \"\";\n                id = 18603773;\n                \"is_prime\" = 0;\n                lv = 0;\n                lvl = 7;\n                n = \"\\U62fe\\U5473\\U7238\\U7238\";\n                p = \"http:\/\/tx1.douguo.net\/upload\/photo\/5\/1\/c\/70_5130af8e378cca906ddf77eb006ec7ac.jpg\";\n                \"progress_image\" = \"\";\n                \"recipes_count_text\" = \"\";\n                relationship = \"-1\";\n                title = \"\";\n                v = 1;\n                \"verified_image\" = \"\";\n            };\n        },\n                {\n            ac = \"#999999\";\n            at = \"\";\n            ccc = 0;\n            city = \"\";\n            cmc = 2;\n            content =             (\n                                {\n                    c = \" \\U597d\\U7684\\Uff0c\\U8c22\\U8c22\\U54e9\";\n                }\n            );\n            ia = 0;\n            id = 4486166;\n            \"ip_address_location\" = \"\";\n            like = 0;\n            \"like_count\" = 0;\n            \"reply_id\" = 4485861;\n            \"reply_user\" =             {\n                \"followers_count_text\" = \"\";\n                id = 18603773;\n                \"is_prime\" = 0;\n                lv = 0;\n                lvl = 7;\n                n = \"\\U62fe\\U5473\\U7238\\U7238\";\n                p = \"http:\/\/tx1.douguo.net\/upload\/photo\/5\/1\/c\/70_5130af8e378cca906ddf77eb006ec7ac.jpg\";\n                \"progress_image\" = \"\";\n                \"recipes_count_text\" = \"\";\n                relationship = \"-1\";\n                title = \"\";\n                v = 1;\n                \"verified_image\" = \"\";\n            };\n            \"sticker_icon\" =             (\n            );\n            time = \"2017-02-23 05:35:52\";\n            u =             {\n                \"followers_count_text\" = \"\";\n                id = 15885254;\n                \"is_prime\" = 0;\n                lv = 0;\n                lvl = 2;\n                n = \"\\U6db5\\U7237\\U5988\";\n                p = \"\";\n                \"progress_image\" = \"\";\n                \"recipes_count_text\" = \"\";\n                relationship = \"-1\";\n                title = \"\";\n                v = 0;\n                \"verified_image\" = \"\";\n            };\n        }\n    );\n    city = \"\";\n    cmc = 2;\n    content =     (\n                {\n            c = \"\\U4f60\\U597d\\Uff0c\\U8bf7\\U95ee\\U67e0\\U6aac\\U6c41\\U4ec0\\U4e48\\U65f6\\U5019\\U52a0\\U5462\\Uff0c\\U662f\\U5173\\U706b\\U540e\\U9a6c\\U4e0a\\U62cc\\U8fdb\\U53bb\\U8fd8\\U662f\\U7b49\\U51c9\\U4e86\\U518d\\U5012\\Uff0c\\U8c22\\U8c22\\U4e86\\U54e9\";\n        }\n    );\n    ia = 0;\n    id = 4485379;\n    \"ip_address_location\" = \"\";\n    like = 0;\n    \"like_count\" = 0;\n    \"reply_id\" = 0;\n    \"sticker_icon\" =     (\n    );\n    time = \"2017-02-22 17:02:59\";\n    u =     {\n        \"followers_count_text\" = \"\";\n        id = 15885254;\n        \"is_prime\" = 0;\n        lv = 0;\n        lvl = 2;\n        n = \"\\U6db5\\U7237\\U5988\";\n        p = \"\";\n        \"progress_image\" = \"\";\n        \"recipes_count_text\" = \"\";\n        relationship = \"-1\";\n        title = \"\";\n        v = 0;\n        \"verified_image\" = \"\";\n    };\n}",
        "{\n    ac = \"#999999\";\n    at = \"\";\n    ccc = 0;\n    \"child_comments\" =     (\n    );\n    city = \"\";\n    cmc = 2;\n    content =     (\n                {\n            c = \"\\U53ef\\U4ee5\\U5403\\U591a\\U4e45\";\n        }\n    );\n    ia = 0;\n    id = 7810859;\n    \"ip_address_location\" = \"\";\n    like = 0;\n    \"like_count\" = 0;\n    \"reply_id\" = 0;\n    \"sticker_icon\" =     (\n    );\n    time = \"2020-03-24 10:57:07\";\n    u =     {\n        \"followers_count_text\" = \"\";\n        id = 24957741;\n        \"is_prime\" = 0;\n        lv = 0;\n        lvl = 2;\n        n = yu7901134;\n        p = \"http:\/\/tx1.douguo.net\/upload\/photo\/3\/7\/c\/70_u81386016650760185928.jpeg\";\n        \"progress_image\" = \"\";\n        \"recipes_count_text\" = \"\";\n        relationship = \"-1\";\n        title = \"\";\n        v = 0;\n        \"verified_image\" = \"\";\n    };\n}",
        "{\n    ac = \"#999999\";\n    at = \"\\U4fdd\\U5b9a\\U5e02\";\n    ccc = 0;\n    \"child_comments\" =     (\n    );\n    city = \"\\U4fdd\\U5b9a\\U5e02\";\n    cmc = 2;\n    content =     (\n                {\n            c = \"\\U771f\\U68d2\\U505a\\U7684\";\n        }\n    );\n    ia = 0;\n    id = 7762496;\n    \"ip_address_location\" = \"\";\n    like = 0;\n    \"like_count\" = 0;\n    \"reply_id\" = 0;\n    \"sticker_icon\" =     (\n    );\n    time = \"2020-03-09 20:49:30\";\n    u =     {\n        \"followers_count_text\" = \"\";\n        id = 16128721;\n        \"is_prime\" = 0;\n        lv = 0;\n        lvl = 6;\n        n = \"\\U9633\\U5149Angel\";\n        p = \"http:\/\/tx1.douguo.net\/upload\/photo\/1\/4\/6\/70_u51917983521904205028.jpeg\";\n        \"progress_image\" = \"\";\n        \"recipes_count_text\" = \"\";\n        relationship = \"-1\";\n        title = \"\";\n        v = 0;\n        \"verified_image\" = \"\";\n    };\n}"
      ],
      "tips" : "",
      "comments_count" : 17,
      "guide_image" : "",
      "rewarded_video_dsp" : [

      ],
      "vfurl" : "https:\/\/vplay.douguo.com\/l0377zqwjtm__640x360.mp4",
      "story_dsp" : [

      ],
      "sc" : 0,
      "rdsps" : [

      ],
      "vu" : "",
      "packages_id" : [

      ],
      "create_time" : "2017-02-22 20:50:56",
      "hqu" : "recipes:\/\/www.douguo.com\/notedetail?id=21162253",
      "ss" : [

      ],
      "cook_difficulty" : "",
      "author_verified" : 1,
      "advice" : {
        "da" : {
          "t" : "查看详细分析",
          "url" : "https:\/\/m.douguo.com\/recipe\/nutrient_self\/1514149",
          "iu" : "https:\/\/i1.douguo.com\/upload\/banner\/f\/4\/d\/f48877e53c37759bc12ac494be82ec8d.png"
        },
        "at" : "能有效控制体重～",
        "has" : [
          {
            "t" : "低热量",
            "url" : "recipes:\/\/www.douguo.com\/simplerecipelist?t=低热量&id=低热量"
          },
          {
            "url" : "recipes:\/\/www.douguo.com\/simplerecipelist?t=富含维生素C&id=富含维生素C",
            "t" : "富含维生素C"
          }
        ]
      },
      "rpt" : "",
      "ipci" : ""
    }
  },
  "state" : "success"
}