{
  "result" : {
    "recipe" : {
      "tags" : [

      ],
      "recommend_label" : "5.3万人看过",
      "original_photo_path" : "http:\/\/i1.douguo.net\/upload\/caiku\/e\/8\/0\/yuan_e87537928c393f3614ab9e4965ea61a0.jpg",
      "ipoi" : "",
      "favo_counts_text" : "334",
      "vc" : "52971",
      "first_level_comment_count" : 3,
      "ss" : [

      ],
      "tips" : "",
      "eu" : "recipes:\/\/www.douguo.com\/postdetail?id=242016",
      "rpt" : "",
      "guide_image" : "",
      "notes" : [

      ],
      "cook_time" : "",
      "cookstorys" : [
        {
          "icon" : "",
          "id" : 0,
          "c" : "淘宝上看到的视频，很喜欢这个菜谱。版权属于原作者",
          "type" : 0,
          "u" : "",
          "color" : ""
        }
      ],
      "purl" : "",
      "release_time" : "",
      "rate_show" : 0,
      "vfurl" : "",
      "ssu" : "",
      "thumb_height" : 0,
      "ipit" : 0,
      "collect_status" : 0,
      "rpid" : 0,
      "ecs" : 0,
      "vu" : "",
      "cookwares" : [

      ],
      "rrps" : [

      ],
      "image" : "http:\/\/i1.douguo.net\/upload\/caiku\/e\/8\/0\/300_e87537928c393f3614ab9e4965ea61a0.jpg",
      "rate_count" : 0,
      "author" : "夏小晴就是夏小晴",
      "recent_comments" : [

      ],
      "comments" : [
        "{\n    ac = \"#999999\";\n    at = \"\";\n    ccc = 1;\n    \"child_comments\" =     (\n                {\n            ac = \"#999999\";\n            at = \"\\U54c8\\U5c14\\U6ee8\\U5e02\";\n            ccc = 0;\n            city = \"\\U54c8\\U5c14\\U6ee8\\U5e02\";\n            cmc = 2;\n            content =             (\n                                {\n                    c = \" \\U4e5f\\U5c31\\U5341\\U51e0\\U5206\\U949f\\U5427\\Uff1f\\U716e\\U5f00\\U6c34\\Uff0c\\U716e\\U5f00\\U725b\\U5976\";\n                }\n            );\n            ia = 1;\n            id = 6321867;\n            \"ip_address_location\" = \"\";\n            like = 0;\n            \"like_count\" = 0;\n            \"reply_id\" = 6321812;\n            \"reply_user\" =             {\n                \"followers_count_text\" = \"\";\n                id = 18488373;\n                \"is_prime\" = 0;\n                lv = 0;\n                lvl = 4;\n                n = \"\\U5b85\\U82e5\\U4e45\\U65f6\\U81ea\\U7136\\U840c\";\n                p = \"http:\/\/tx1.douguo.net\/upload\/photo\/1\/3\/2\/70_u08592287740508113923.jpg\";\n                \"progress_image\" = \"\";\n                \"recipes_count_text\" = \"\";\n                relationship = \"-1\";\n                title = \"\";\n                v = 0;\n                \"verified_image\" = \"\";\n            };\n            \"sticker_icon\" =             (\n            );\n            time = \"2018-12-31 10:08:46\";\n            u =             {\n                \"followers_count_text\" = \"\";\n                id = 2795866;\n                \"is_prime\" = 0;\n                lv = 0;\n                lvl = 3;\n                n = \"\\U590f\\U5c0f\\U6674\\U5c31\\U662f\\U590f\\U5c0f\\U6674\";\n                p = \"http:\/\/tx1.douguo.net\/upload\/photo\/7\/f\/f\/70_u69387311993072055546.jpg\";\n                \"progress_image\" = \"\";\n                \"recipes_count_text\" = \"\";\n                relationship = \"-1\";\n                title = \"\";\n                v = 0;\n                \"verified_image\" = \"\";\n            };\n        }\n    );\n    city = \"\";\n    cmc = 2;\n    content =     (\n                {\n            c = \"\\U5236\\U4f5c\\U8fc7\\U7a0b\\U8981\\U591a\\U4e45\\Uff1f\";\n        }\n    );\n    ia = 0;\n    id = 6321812;\n    \"ip_address_location\" = \"\";\n    like = 0;\n    \"like_count\" = 0;\n    \"reply_id\" = 0;\n    \"sticker_icon\" =     (\n    );\n    time = \"2018-12-31 09:09:23\";\n    u =     {\n        \"followers_count_text\" = \"\";\n        id = 18488373;\n        \"is_prime\" = 0;\n        lv = 0;\n        lvl = 4;\n        n = \"\\U5b85\\U82e5\\U4e45\\U65f6\\U81ea\\U7136\\U840c\";\n        p = \"http:\/\/tx1.douguo.net\/upload\/photo\/1\/3\/2\/70_u08592287740508113923.jpg\";\n        \"progress_image\" = \"\";\n        \"recipes_count_text\" = \"\";\n        relationship = \"-1\";\n        title = \"\";\n        v = 0;\n        \"verified_image\" = \"\";\n    };\n}",
        "{\n    ac = \"#999999\";\n    at = \"\";\n    ccc = 1;\n    \"child_comments\" =     (\n                {\n            ac = \"#999999\";\n            at = \"\\U54c8\\U5c14\\U6ee8\\U5e02\";\n            ccc = 0;\n            city = \"\\U54c8\\U5c14\\U6ee8\\U5e02\";\n            cmc = 2;\n            content =             (\n                                {\n                    c = \" \\U592a\\U597d\\U4e86\\Uff0c\\U6211\\U8fd8\\U6ca1\\U8bd5\\U8fc7\\Uff0c\\U4f46\\U662f\\U770b\\U83dc\\U8c31\\U5c31\\U89c9\\U5f97\\U9519\\U4e0d\\U4e86\\Uff0c\\U60f3\\U8981\\U548c\\U5927\\U5bb6\\U5206\\U4eab\";\n                }\n            );\n            ia = 1;\n            id = 6203602;\n            \"ip_address_location\" = \"\";\n            like = 0;\n            \"like_count\" = 0;\n            \"reply_id\" = 6200678;\n            \"reply_user\" =             {\n                \"followers_count_text\" = \"\";\n                id = 18502227;\n                \"is_prime\" = 0;\n                lv = 0;\n                lvl = 3;\n                n = \"\\U261e\\U5bb8\\U5988\\U5988\\U2640\";\n                p = \"http:\/\/tx1.douguo.net\/upload\/photo\/4\/6\/7\/70_u17821280170770181639.jpg\";\n                \"progress_image\" = \"\";\n                \"recipes_count_text\" = \"\";\n                relationship = \"-1\";\n                title = \"\";\n                v = 0;\n                \"verified_image\" = \"\";\n            };\n            \"sticker_icon\" =             (\n            );\n            time = \"2018-11-14 15:20:34\";\n            u =             {\n                \"followers_count_text\" = \"\";\n                id = 2795866;\n                \"is_prime\" = 0;\n                lv = 0;\n                lvl = 3;\n                n = \"\\U590f\\U5c0f\\U6674\\U5c31\\U662f\\U590f\\U5c0f\\U6674\";\n                p = \"http:\/\/tx1.douguo.net\/upload\/photo\/7\/f\/f\/70_u69387311993072055546.jpg\";\n                \"progress_image\" = \"\";\n                \"recipes_count_text\" = \"\";\n                relationship = \"-1\";\n                title = \"\";\n                v = 0;\n                \"verified_image\" = \"\";\n            };\n        }\n    );\n    city = \"\";\n    cmc = 2;\n    content =     (\n                {\n            c = \"\\U771f\\U7684\\U597d\\U5403\\U5594\\Uff5e\";\n        }\n    );\n    ia = 0;\n    id = 6200678;\n    \"ip_address_location\" = \"\";\n    like = 0;\n    \"like_count\" = 0;\n    \"reply_id\" = 0;\n    \"sticker_icon\" =     (\n    );\n    time = \"2018-11-13 17:02:14\";\n    u =     {\n        \"followers_count_text\" = \"\";\n        id = 18502227;\n        \"is_prime\" = 0;\n        lv = 0;\n        lvl = 3;\n        n = \"\\U261e\\U5bb8\\U5988\\U5988\\U2640\";\n        p = \"http:\/\/tx1.douguo.net\/upload\/photo\/4\/6\/7\/70_u17821280170770181639.jpg\";\n        \"progress_image\" = \"\";\n        \"recipes_count_text\" = \"\";\n        relationship = \"-1\";\n        title = \"\";\n        v = 0;\n        \"verified_image\" = \"\";\n    };\n}",
        "{\n    ac = \"#999999\";\n    at = \"\";\n    ccc = 0;\n    \"child_comments\" =     (\n    );\n    city = \"\";\n    cmc = 2;\n    content =     (\n                {\n            c = \"\\U5475\\U5475\";\n        }\n    );\n    ia = 0;\n    id = 6321813;\n    \"ip_address_location\" = \"\";\n    like = 0;\n    \"like_count\" = 0;\n    \"reply_id\" = 0;\n    \"sticker_icon\" =     (\n    );\n    time = \"2018-12-31 09:10:26\";\n    u =     {\n        \"followers_count_text\" = \"\";\n        id = 18445114;\n        \"is_prime\" = 0;\n        lv = 0;\n        lvl = 4;\n        n = \"\\U8d64\\U6676\\U7075\\U9b54\";\n        p = \"http:\/\/tx1.douguo.net\/upload\/photo\/0\/8\/c\/70_u57992412594822111613.jpg\";\n        \"progress_image\" = \"\";\n        \"recipes_count_text\" = \"\";\n        relationship = \"-1\";\n        title = \"\";\n        v = 0;\n        \"verified_image\" = \"\";\n    };\n}"
      ],
      "mid_mdsp" : [

      ],
      "major" : [
        {
          "title" : "丁香",
          "tu" : "https:\/\/m.douguo.com\/ingredients\/丁香\/detailmaterial",
          "note" : "6粒"
        },
        {
          "title" : "八角",
          "tu" : "https:\/\/m.douguo.com\/ingredients\/八角\/detailmaterial",
          "note" : "2粒"
        },
        {
          "tu" : "https:\/\/m.douguo.com\/ingredients\/肉豆蔻\/detailmaterial",
          "title" : "肉豆蔻",
          "note" : "3粒"
        },
        {
          "tu" : "https:\/\/m.douguo.com\/ingredients\/生姜\/detailmaterial",
          "title" : "生姜",
          "note" : "5片"
        },
        {
          "note" : "300 ml",
          "title" : "牛奶",
          "tu" : "https:\/\/m.douguo.com\/ingredients\/牛奶\/detailmaterial"
        },
        {
          "title" : "红茶",
          "tu" : "https:\/\/m.douguo.com\/ingredients\/红茶\/detailmaterial",
          "note" : "1茶包"
        },
        {
          "title" : "肉桂棒",
          "note" : "1根"
        }
      ],
      "rate" : 0,
      "rdsps" : [

      ],
      "bs" : [

      ],
      "rsm" : "该功能暂停使用",
      "hq" : 1,
      "ipurl" : "",
      "rewarded_video_dsp" : [

      ],
      "create_time" : "2018-10-31 10:41:41",
      "display_ingredient" : 1,
      "dishes" : [

      ],
      "favo_counts" : 334,
      "old_comments" : [

      ],
      "author_id" : 2795866,
      "cook_id" : "1713215",
      "rcs" : [

      ],
      "brand_day_dsp" : [

      ],
      "sr" : "",
      "user" : {
        "dishes_count" : 0,
        "is_prime" : 0,
        "point" : 0,
        "subscription" : 0,
        "location" : 0,
        "lv" : 0,
        "followers_count" : 0,
        "verified_image" : "",
        "lvl" : 3,
        "pc" : 0,
        "weibo_nick" : "",
        "gender" : 2,
        "userid" : "2795866",
        "avatar_medium" : "http:\/\/tx1.douguo.net\/upload\/photo\/7\/f\/f\/140_u69387311993072055546.jpg",
        "favor_diaries_count" : 0,
        "user_large_photo" : "http:\/\/tx1.douguo.net\/upload\/photo\/7\/f\/f\/yuan_u69387311993072055546.jpg",
        "fc" : 0,
        "verified" : 0,
        "nick" : "夏小晴就是夏小晴",
        "favorites_count" : 0,
        "following_count" : 0,
        "introduction" : "",
        "user_id" : "2795866",
        "regist_time" : "",
        "user_cover" : "",
        "user_photo" : "http:\/\/tx1.douguo.net\/upload\/photo\/7\/f\/f\/70_u69387311993072055546.jpg",
        "subscription_article_count" : 0,
        "mobile" : "",
        "setted_email" : 0,
        "qzone_nick" : "",
        "progress_image" : "",
        "email" : "",
        "diaries_count" : 0,
        "recipes_count" : 0,
        "sign" : "",
        "birthday" : "",
        "age" : "",
        "verified_url" : "https:\/\/m.douguo.com\/user\/prodesc",
        "qq_weibo_nick" : "",
        "coursecount" : 0
      },
      "cookstep" : [
        {
          "frame" : "-1",
          "image" : "https:\/\/i1.douguo.com\/upload\/caiku\/5\/9\/b\/599665fec2c394718614d50a70dc3c6b.jpg",
          "position" : 1,
          "content" : "将丁香、肉豆蔻、八角用研钵研成碎片",
          "image_height" : 618,
          "thumb" : "https:\/\/i1.douguo.com\/upload\/caiku\/5\/9\/b\/140_599665fec2c394718614d50a70dc3c6b.jpg",
          "image_width" : 1080
        },
        {
          "image_height" : 465,
          "frame" : "-1",
          "content" : "香料碎片连同红茶和姜片入平底锅中火焙烧",
          "position" : 2,
          "thumb" : "https:\/\/i1.douguo.com\/upload\/caiku\/3\/4\/4\/140_34392fc371a7ccfaaa8a110b387be324.jpg",
          "image" : "https:\/\/i1.douguo.com\/upload\/caiku\/3\/4\/4\/34392fc371a7ccfaaa8a110b387be324.jpg",
          "image_width" : 800
        },
        {
          "image_height" : 461,
          "frame" : "-1",
          "position" : 3,
          "image" : "https:\/\/i1.douguo.com\/upload\/caiku\/a\/9\/6\/a990cca394faa2af47eef130fadcc7e6.jpg",
          "content" : "肉桂置于水中煮沸，加入焙炒后的香料，煮至水减至1\/3",
          "thumb" : "https:\/\/i1.douguo.com\/upload\/caiku\/a\/9\/6\/140_a990cca394faa2af47eef130fadcc7e6.jpg",
          "image_width" : 800
        },
        {
          "image" : "https:\/\/i1.douguo.com\/upload\/caiku\/d\/9\/d\/d9056ecda843e9c2b8ee62c8724e244d.jpg",
          "thumb" : "https:\/\/i1.douguo.com\/upload\/caiku\/d\/9\/d\/140_d9056ecda843e9c2b8ee62c8724e244d.jpg",
          "image_width" : 799,
          "content" : "将香料过滤出去，剩下茶汤在杯杯里",
          "position" : 4,
          "frame" : "-1",
          "image_height" : 467
        },
        {
          "frame" : "-1",
          "image" : "https:\/\/i1.douguo.com\/upload\/caiku\/8\/0\/0\/803e646d6130648c5c4529c248d94c80.jpg",
          "content" : "煮沸牛奶",
          "thumb" : "https:\/\/i1.douguo.com\/upload\/caiku\/8\/0\/0\/140_803e646d6130648c5c4529c248d94c80.jpg",
          "image_width" : 1080,
          "position" : 5,
          "image_height" : 613
        },
        {
          "position" : 6,
          "content" : "热奶入茶汤",
          "frame" : "-1",
          "thumb" : "https:\/\/i1.douguo.com\/upload\/caiku\/a\/9\/d\/140_a94bc9a0fac1ddb2b7af7cdaf7ce063d.jpg",
          "image" : "https:\/\/i1.douguo.com\/upload\/caiku\/a\/9\/d\/a94bc9a0fac1ddb2b7af7cdaf7ce063d.jpg",
          "image_height" : 467,
          "image_width" : 800
        },
        {
          "image_height" : 461,
          "image_width" : 800,
          "thumb" : "https:\/\/i1.douguo.com\/upload\/caiku\/7\/6\/2\/140_761146acd0f91703c0461b445ba6d212.jpg",
          "frame" : "-1",
          "image" : "https:\/\/i1.douguo.com\/upload\/caiku\/7\/6\/2\/761146acd0f91703c0461b445ba6d212.jpg",
          "position" : 7,
          "content" : "嗒哒~最后加入肉桂糖一勺，淋入蜂蜜，摆上一根肉桂棒"
        }
      ],
      "share_info" : {
        "s_d" : "印度拉茶-会做饭很酷!",
        "infos" : [
          {
            "name" : "印度拉茶-会做饭很酷!",
            "object_id" : "1713215",
            "image" : "https:\/\/cp1.douguo.com\/upload\/caiku\/e\/8\/0\/e87537928c393f3614ab9e4965ea61a0.jpg",
            "mini_program" : [

            ],
            "qr_image" : "",
            "s_d" : "#学做饭用豆果美食# 会做饭真是太酷了！我在@豆果美食 分享了【印度拉茶-会做饭很酷!】OMG！这是什么神仙美味啊~真的强烈推荐你们试一试～查看图片了解菜谱（每天限量免费课程，想跟大师学厨艺就来这https:\/\/m.weibo.cn\/p\/100404i33631）",
            "s_u" : "",
            "channel" : "1"
          },
          {
            "s_d" : "印度拉茶-会做饭很酷!",
            "name" : "印度拉茶-会做饭很酷!",
            "qr_image" : "",
            "image" : "https:\/\/cp1.douguo.com\/upload\/caiku\/e\/8\/0\/e87537928c393f3614ab9e4965ea61a0.jpg",
            "mini_program" : [

            ],
            "channel" : "7",
            "object_id" : "1713215",
            "s_u" : "http:\/\/m.douguo.com\/cookbook\/1713215.html"
          },
          {
            "image" : "https:\/\/cp1.douguo.com\/upload\/caiku\/e\/8\/0\/e87537928c393f3614ab9e4965ea61a0.jpg",
            "s_u" : "http:\/\/m.douguo.com\/cookbook\/1713215.html",
            "qr_image" : "",
            "object_id" : "1713215",
            "name" : "印度拉茶-会做饭很酷!",
            "mini_program" : [

            ],
            "channel" : "8",
            "s_d" : "印度拉茶-会做饭很酷!"
          }
        ],
        "name" : "印度拉茶-会做饭很酷!",
        "image" : "https:\/\/cp1.douguo.com\/upload\/caiku\/e\/8\/0\/e87537928c393f3614ab9e4965ea61a0.jpg",
        "s_u" : "http:\/\/m.douguo.com\/cookbook\/1713215.html",
        "mini_program" : [

        ],
        "qr_image" : "",
        "object_id" : "1713215"
      },
      "recipe_tags" : [

      ],
      "rrpt" : "",
      "recommended" : 0,
      "hqu" : "recipes:\/\/www.douguo.com\/notedetail?id=21162253",
      "clicks" : "46357",
      "cook_difficulty" : "",
      "su" : "",
      "btm_dsp" : [

      ],
      "rips" : 0,
      "author_verified" : 0,
      "cook_time_image" : "",
      "recipe_list_tags" : [
        {
          "right_image" : "",
          "background_end_color" : "#F4F5F5",
          "text" : "关注的人",
          "background_border_color" : "",
          "background_start_color" : "#F4F5F5",
          "text_color" : "#141515",
          "jump_url" : ""
        }
      ],
      "pw" : 800,
      "dish_count_text" : "",
      "recommendation_tag" : "",
      "photo_path" : "https:\/\/i1.douguo.com\/upload\/caiku\/e\/8\/0\/600_e87537928c393f3614ab9e4965ea61a0.jpg",
      "views_count_text" : "5.3万",
      "packages_id" : [

      ],
      "dish_count" : 0,
      "comments_count" : 5,
      "top_mdsp" : [

      ],
      "cook_difficulty_image" : "",
      "cookstory" : "淘宝上看到的视频，很喜欢这个菜谱。版权属于原作者",
      "sc" : 0,
      "comments_count_text" : "5",
      "ipt" : "",
      "author_photo" : "http:\/\/tx1.douguo.net\/upload\/photo\/7\/f\/f\/70_u69387311993072055546.jpg",
      "ipia" : [

      ],
      "related_ads" : [

      ],
      "act_des" : "",
      "thumb_path" : "https:\/\/i1.douguo.com\/upload\/caiku\/e\/8\/0\/300_e87537928c393f3614ab9e4965ea61a0.jpg",
      "title" : "印度拉茶",
      "levelid" : 2,
      "ph" : 460,
      "title_ad" : [

      ],
      "advice" : {
        "da" : {
          "url" : "https:\/\/m.douguo.com\/recipe\/nutrient_self\/1713215",
          "t" : "查看详细分析",
          "iu" : "https:\/\/i1.douguo.com\/upload\/banner\/f\/4\/d\/f48877e53c37759bc12ac494be82ec8d.png"
        },
        "has" : [
          {
            "url" : "recipes:\/\/www.douguo.com\/simplerecipelist?t=低胆固醇&id=低胆固醇",
            "t" : "低胆固醇"
          },
          {
            "t" : "低盐",
            "url" : "recipes:\/\/www.douguo.com\/simplerecipelist?t=低盐&id=低盐"
          }
        ],
        "at" : "一道菜对心血管健康～"
      },
      "minor" : [

      ],
      "rpst" : "",
      "v_u" : "",
      "ipci" : "",
      "story_dsp" : [

      ]
    }
  },
  "status" : 0,
  "state" : "success"
}