{
  "status" : 0,
  "result" : {
    "recipe" : {
      "author_verified" : 1,
      "recommendation_tag" : "",
      "ipurl" : "",
      "release_time" : "",
      "clicks" : "77641",
      "rsm" : "该功能暂停使用",
      "rpst" : "",
      "photo_path" : "https:\/\/i1.douguo.com\/upload\/caiku\/4\/6\/2\/600_4695561dd20dd160069becfc7f89d1d2.jpg",
      "old_comments" : [

      ],
      "notes" : [

      ],
      "rcs" : [

      ],
      "rpt" : "",
      "collect_status" : 0,
      "levelid" : 2,
      "author_id" : 10749409,
      "views_count_text" : "8.0万",
      "rrpt" : "",
      "cook_difficulty_image" : "https:\/\/i1.douguo.com\/upload\/banner\/1551424413.png",
      "purl" : "",
      "user" : {
        "fc" : 0,
        "user_photo" : "http:\/\/tx1.douguo.net\/upload\/photo\/5\/0\/a\/70_508ffe4e4e6125f6a5e86eed470383ba.JPG",
        "diaries_count" : 0,
        "introduction" : "",
        "coursecount" : 0,
        "setted_email" : 0,
        "dishes_count" : 0,
        "user_id" : "10749409",
        "subscription_article_count" : 0,
        "nick" : "盈盈小筑2010",
        "avatar_medium" : "http:\/\/tx1.douguo.net\/upload\/photo\/5\/0\/a\/140_508ffe4e4e6125f6a5e86eed470383ba.JPG",
        "is_prime" : 0,
        "recipes_count" : 0,
        "email" : "",
        "verified_image" : "https:\/\/i1.douguo.com\/upload\/note\/d\/a\/a\/da84247847aebe48d9dd0fcdac88862a.png",
        "lv" : 0,
        "subscription" : 0,
        "qzone_nick" : "",
        "age" : "",
        "progress_image" : "",
        "regist_time" : "",
        "lvl" : 6,
        "point" : 0,
        "verified" : 1,
        "user_cover" : "",
        "userid" : "10749409",
        "weibo_nick" : "",
        "following_count" : 0,
        "verified_url" : "https:\/\/m.douguo.com\/user\/prodesc",
        "location" : 0,
        "followers_count" : 0,
        "birthday" : "",
        "sign" : "",
        "favorites_count" : 0,
        "gender" : 2,
        "pc" : 0,
        "mobile" : "",
        "user_large_photo" : "http:\/\/tx1.douguo.net\/upload\/photo\/5\/0\/a\/yuan_508ffe4e4e6125f6a5e86eed470383ba.JPG",
        "favor_diaries_count" : 0,
        "qq_weibo_nick" : ""
      },
      "cookstorys" : [
        {
          "id" : 0,
          "color" : "",
          "type" : 0,
          "u" : "",
          "icon" : "",
          "c" : "这道茄汁小丸子我做好拍了照片就去学校接宝宝，给他系安全带的时候我给他看手机里的照片，问他要不要吃，他马上大力点头。\n\n结果晚餐是我本来只给准备了五只小丸子，他又让我给加了两次，一共吃了十一只！就连配菜胡萝卜，青豆和油菜心也吃得干干净净的。只有米饭吃了两口就不肯吃了，但是妈妈已经够高兴的啦！"
        }
      ],
      "author_photo" : "http:\/\/tx1.douguo.net\/upload\/photo\/5\/0\/a\/70_508ffe4e4e6125f6a5e86eed470383ba.JPG",
      "minor" : [
        "{\n    note = \"1\/4 cup\";\n    title = \"\\U756a\\U8304\\U9171 tomato ketchup\";\n}",
        "{\n    note = \"1\/2 cup\";\n    title = \"\\U6c34\";\n    tu = \"https:\/\/https:\/\/m.douguo.com\/ingredients\/\\U6c34\/detailmaterial\";\n}",
        "{\n    note = \"1 tbsp\";\n    title = \"\\U98df\\U6cb9\";\n}",
        "{\n    note = \"1\/2 tsp\";\n    title = \"\\U849c\\U672b\";\n}",
        "{\n    note = \"1\/2 tsp\";\n    title = \"\\U59dc\\U672b\";\n}",
        "{\n    note = \"1 tbsp\";\n    title = \"\\U51b7\\U51bb\\U9752\\U8c46\";\n}",
        "{\n    note = \"\\U51e0\\U5757\";\n    title = \"\\U80e1\\U841d\\U535c\";\n    tu = \"https:\/\/https:\/\/m.douguo.com\/ingredients\/\\U80e1\\U841d\\U535c\/detailmaterial\";\n}",
        "{\n    note = \"2-3 \\U53ea\";\n    title = \"\\U5c0f\\U756a\\U8304 \\Uff08\\U5207\\U534a\\Uff09\";\n}"
      ],
      "comments_count_text" : "11",
      "sr" : "",
      "rips" : 0,
      "top_mdsp" : [

      ],
      "ipit" : 0,
      "tags" : [
        "{\n    text = \"\\U5bb6\\U5e38\\U83dc\";\n}",
        "{\n    text = \"\\U8089\\U7c7b\";\n}",
        "{\n    text = \"\\U5348\\U9910\";\n}",
        "{\n    text = \"\\U665a\\U9910\";\n}",
        "{\n    text = \"\\U513f\\U7ae5\";\n}"
      ],
      "cookwares" : [

      ],
      "favo_counts" : 3859,
      "recent_comments" : [

      ],
      "dish_count_text" : "10",
      "bs" : [

      ],
      "title" : "宝宝食谱 -- 茄汁小丸子 ",
      "vu" : "",
      "ssu" : "",
      "brand_day_dsp" : [

      ],
      "ipoi" : "",
      "ipci" : "",
      "recommended" : 0,
      "dish_count" : 10,
      "hqu" : "recipes:\/\/www.douguo.com\/notedetail?id=21162253",
      "cook_difficulty" : "配菜(中级)",
      "ph" : 1079,
      "su" : "",
      "rate_show" : 0,
      "image" : "http:\/\/i1.douguo.net\/upload\/caiku\/4\/6\/2\/300_4695561dd20dd160069becfc7f89d1d2.jpg",
      "ss" : [

      ],
      "original_photo_path" : "http:\/\/i1.douguo.net\/upload\/caiku\/4\/6\/2\/yuan_4695561dd20dd160069becfc7f89d1d2.jpg",
      "first_level_comment_count" : 7,
      "related_ads" : [

      ],
      "rate" : 5,
      "vc" : "80434",
      "guide_image" : "",
      "major" : [
        {
          "note" : "300 gm",
          "title" : "肉末"
        },
        {
          "note" : "2 tbsp",
          "title" : "切碎的青葱"
        },
        {
          "title" : "料酒\/绍兴酒",
          "note" : "1 tbsp"
        },
        {
          "note" : "1 tbsp",
          "title" : "姜末+姜末"
        },
        {
          "title" : "麻油\/香油",
          "note" : "1 tsp"
        },
        {
          "note" : "1\/2 tsp",
          "title" : "甜酱油或蚝油"
        },
        {
          "note" : "1\/2 tsp",
          "tu" : "https:\/\/m.douguo.com\/ingredients\/盐\/detailmaterial",
          "title" : "盐"
        },
        {
          "note" : "一点点",
          "tu" : "https:\/\/m.douguo.com\/ingredients\/胡椒粉\/detailmaterial",
          "title" : "胡椒粉"
        },
        {
          "title" : "粟米粉或粘米粉",
          "note" : "1\/4 cup"
        },
        {
          "note" : "1 cup",
          "title" : "食油 炸丸子用"
        }
      ],
      "ipia" : [

      ],
      "cook_time_image" : "https:\/\/i1.douguo.com\/upload\/banner\/1551424341.png",
      "act_des" : "",
      "recipe_tags" : [

      ],
      "eu" : "recipes:\/\/www.douguo.com\/postdetail?id=242016",
      "rdsps" : [

      ],
      "title_ad" : [

      ],
      "pw" : 800,
      "author" : "盈盈小筑2010",
      "rewarded_video_dsp" : [

      ],
      "ipt" : "",
      "ecs" : 0,
      "comments_count" : 11,
      "cook_id" : "1247789",
      "sc" : 0,
      "btm_dsp" : [

      ],
      "comments" : [
        "{\n    ac = \"#999999\";\n    at = \"\";\n    ccc = 1;\n    \"child_comments\" =     (\n                {\n            ac = \"#999999\";\n            at = \"\";\n            ccc = 0;\n            city = \"\";\n            cmc = 2;\n            content =             (\n                                {\n                    c = \" \\U8c22\\U8c22\\U54e6\\Uff01\";\n                }\n            );\n            ia = 1;\n            id = 3370454;\n            \"ip_address_location\" = \"\";\n            like = 0;\n            \"like_count\" = 0;\n            \"reply_id\" = 3368253;\n            \"reply_user\" =             {\n                \"followers_count_text\" = \"\";\n                id = 16786402;\n                \"is_prime\" = 0;\n                lv = 0;\n                lvl = 1;\n                n = \"*plsg\";\n                p = \"http:\/\/tx1.douguo.net\/upload\/photo\/6\/a\/9\/70_u5735317617674212839.jpg\";\n                \"progress_image\" = \"\";\n                \"recipes_count_text\" = \"\";\n                relationship = \"-1\";\n                title = \"\";\n                v = 0;\n                \"verified_image\" = \"\";\n            };\n            \"sticker_icon\" =             (\n            );\n            time = \"2016-04-27 18:14:44\";\n            u =             {\n                \"followers_count_text\" = \"\";\n                id = 10749409;\n                \"is_prime\" = 0;\n                lv = 0;\n                lvl = 6;\n                n = \"\\U76c8\\U76c8\\U5c0f\\U7b512010\";\n                p = \"http:\/\/tx1.douguo.net\/upload\/photo\/5\/0\/a\/70_508ffe4e4e6125f6a5e86eed470383ba.JPG\";\n                \"progress_image\" = \"\";\n                \"recipes_count_text\" = \"\";\n                relationship = \"-1\";\n                title = \"\";\n                v = 1;\n                \"verified_image\" = \"\";\n            };\n        }\n    );\n    city = \"\";\n    cmc = 2;\n    content =     (\n                {\n            c = \"\\U5b9d\\U5988\\U771f\\U662f\\U592a\\U68d2\\U4e86\\Uff0c\\U5b9d\\U8d1d\\U592a\\U5e78\\U798f\\U4e86\\Uff01\\U679c\\U65ad\\U6536\\U4e86\\Uff0c\\U8c22\\U8c22\\U4eb2\\U7684\\U5206\\U4eab\\U3002\";\n        }\n    );\n    ia = 0;\n    id = 3368253;\n    \"ip_address_location\" = \"\";\n    like = 0;\n    \"like_count\" = 0;\n    \"reply_id\" = 0;\n    \"sticker_icon\" =     (\n    );\n    time = \"2016-04-27 00:41:57\";\n    u =     {\n        \"followers_count_text\" = \"\";\n        id = 16786402;\n        \"is_prime\" = 0;\n        lv = 0;\n        lvl = 1;\n        n = \"*plsg\";\n        p = \"http:\/\/tx1.douguo.net\/upload\/photo\/6\/a\/9\/70_u5735317617674212839.jpg\";\n        \"progress_image\" = \"\";\n        \"recipes_count_text\" = \"\";\n        relationship = \"-1\";\n        title = \"\";\n        v = 0;\n        \"verified_image\" = \"\";\n    };\n}",
        "{\n    ac = \"#999999\";\n    at = \"\";\n    ccc = 1;\n    \"child_comments\" =     (\n                {\n            ac = \"#999999\";\n            at = \"\";\n            ccc = 0;\n            city = \"\";\n            cmc = 2;\n            content =             (\n                                {\n                    c = \" \\U6211\\U90fd\\U4e70\\U7ede\\U8089\\Uff0c\\U8d85\\U5e02\\U91cc\\U7684\\U90a3\\U79cd\\U3002\\U4e0d\\U7136\\U81ea\\U5df1\\U6709\\U7ede\\U8089\\U673a\\U81ea\\U5df1\\U7ede\\U8089\\U4e5f\\U53ef\\U4ee5\\U3002\";\n                }\n            );\n            ia = 1;\n            id = 2699300;\n            \"ip_address_location\" = \"\";\n            like = 0;\n            \"like_count\" = 0;\n            \"reply_id\" = 2698614;\n            \"reply_user\" =             {\n                \"followers_count_text\" = \"\";\n                id = 9428413;\n                \"is_prime\" = 0;\n                lv = 0;\n                lvl = 1;\n                n = \"\\U5317\\U7eac22\\U00b048\\U2032\";\n                p = \"http:\/\/tx1.douguo.net\/upload\/photo\/0\/3\/3\/70_u31637502157142121604.jpg\";\n                \"progress_image\" = \"\";\n                \"recipes_count_text\" = \"\";\n                relationship = \"-1\";\n                title = \"\";\n                v = 0;\n                \"verified_image\" = \"\";\n            };\n            \"sticker_icon\" =             (\n            );\n            time = \"2015-10-05 13:43:26\";\n            u =             {\n                \"followers_count_text\" = \"\";\n                id = 10749409;\n                \"is_prime\" = 0;\n                lv = 0;\n                lvl = 6;\n                n = \"\\U76c8\\U76c8\\U5c0f\\U7b512010\";\n                p = \"http:\/\/tx1.douguo.net\/upload\/photo\/5\/0\/a\/70_508ffe4e4e6125f6a5e86eed470383ba.JPG\";\n                \"progress_image\" = \"\";\n                \"recipes_count_text\" = \"\";\n                relationship = \"-1\";\n                title = \"\";\n                v = 1;\n                \"verified_image\" = \"\";\n            };\n        }\n    );\n    city = \"\";\n    cmc = 2;\n    content =     (\n                {\n            c = \"\\U4f60\\U7684\\U8089\\U6ce5\\U600e\\U4e48\\U5f04\\U7684\\U5440\\Uff1f\\U7528\\U5241\\U7684\\Uff0c\\U505a\\U51fa\\U6765\\U7684\\U8089\\U53e3\\U611f\\U4e0d\\U597d\\Uff0c\\U786c\\U786c\\U7684\\Uff0c\\U600e\\U4e48\\U5f04\\U624d\\U5ae9\\U5462\\Uff1f\";\n        }\n    );\n    ia = 0;\n    id = 2698614;\n    \"ip_address_location\" = \"\";\n    like = 0;\n    \"like_count\" = 0;\n    \"reply_id\" = 0;\n    \"sticker_icon\" =     (\n    );\n    time = \"2015-10-05 09:44:05\";\n    u =     {\n        \"followers_count_text\" = \"\";\n        id = 9428413;\n        \"is_prime\" = 0;\n        lv = 0;\n        lvl = 1;\n        n = \"\\U5317\\U7eac22\\U00b048\\U2032\";\n        p = \"http:\/\/tx1.douguo.net\/upload\/photo\/0\/3\/3\/70_u31637502157142121604.jpg\";\n        \"progress_image\" = \"\";\n        \"recipes_count_text\" = \"\";\n        relationship = \"-1\";\n        title = \"\";\n        v = 0;\n        \"verified_image\" = \"\";\n    };\n}",
        "{\n    ac = \"#999999\";\n    at = \"\";\n    ccc = 1;\n    \"child_comments\" =     (\n                {\n            ac = \"#999999\";\n            at = \"\";\n            ccc = 0;\n            city = \"\";\n            cmc = 2;\n            content =             (\n                                {\n                    c = \" \\U4e5f\\U53ef\\U4ee5\\Uff0c\\U7528\\U70e4\\U7684\\U4e5f\\U884c\\Uff0c\\U53e3\\U611f\\U4e0d\\U4e00\\U6837\\U800c\\U5df2\\U3002\";\n                }\n            );\n            ia = 1;\n            id = 2659338;\n            \"ip_address_location\" = \"\";\n            like = 0;\n            \"like_count\" = 0;\n            \"reply_id\" = 2658682;\n            \"reply_user\" =             {\n                \"followers_count_text\" = \"\";\n                id = 11361770;\n                \"is_prime\" = 0;\n                lv = 0;\n                lvl = 1;\n                n = \"\\U8c46\\U7c894756444\";\n                p = \"http:\/\/tx1.douguo.net\/upload\/photo\/9\/7\/3\/70_u42475644171529213428.jpg\";\n                \"progress_image\" = \"\";\n                \"recipes_count_text\" = \"\";\n                relationship = \"-1\";\n                title = \"\";\n                v = 0;\n                \"verified_image\" = \"\";\n            };\n            \"sticker_icon\" =             (\n            );\n            time = \"2015-09-21 03:01:17\";\n            u =             {\n                \"followers_count_text\" = \"\";\n                id = 10749409;\n                \"is_prime\" = 0;\n                lv = 0;\n                lvl = 6;\n                n = \"\\U76c8\\U76c8\\U5c0f\\U7b512010\";\n                p = \"http:\/\/tx1.douguo.net\/upload\/photo\/5\/0\/a\/70_508ffe4e4e6125f6a5e86eed470383ba.JPG\";\n                \"progress_image\" = \"\";\n                \"recipes_count_text\" = \"\";\n                relationship = \"-1\";\n                title = \"\";\n                v = 1;\n                \"verified_image\" = \"\";\n            };\n        }\n    );\n    city = \"\";\n    cmc = 2;\n    content =     (\n                {\n            c = \"\\U4e38\\U5b50\\U4e00\\U5b9a\\U8981\\U70b8\\U4e00\\U4e0b\\U5417\\Uff0c\\U4e0d\\U70b8\\U4e0d\\U884c\\U5417\\Uff1f\\U7528\\U6c34\\U716e\\U719f\\U4e86\";\n        }\n    );\n    ia = 0;\n    id = 2658682;\n    \"ip_address_location\" = \"\";\n    like = 0;\n    \"like_count\" = 0;\n    \"reply_id\" = 0;\n    \"sticker_icon\" =     (\n    );\n    time = \"2015-09-20 15:51:07\";\n    u =     {\n        \"followers_count_text\" = \"\";\n        id = 11361770;\n        \"is_prime\" = 0;\n        lv = 0;\n        lvl = 1;\n        n = \"\\U8c46\\U7c894756444\";\n        p = \"http:\/\/tx1.douguo.net\/upload\/photo\/9\/7\/3\/70_u42475644171529213428.jpg\";\n        \"progress_image\" = \"\";\n        \"recipes_count_text\" = \"\";\n        relationship = \"-1\";\n        title = \"\";\n        v = 0;\n        \"verified_image\" = \"\";\n    };\n}"
      ],
      "cookstep" : [
        {
          "thumb" : "https:\/\/i1.douguo.com\/upload\/caiku\/e\/0\/8\/140_e0d9753d24f78a822f284abf1e8949c8.jpg",
          "content" : "把肉末，料酒，姜葱蒜末和麻油，甜酱油\/蚝油，盐和胡椒粉混匀，大力搅拌上劲，放置20分钟。",
          "image" : "https:\/\/i1.douguo.com\/upload\/caiku\/e\/0\/8\/e0d9753d24f78a822f284abf1e8949c8.jpg",
          "image_width" : 4000,
          "frame" : "-1",
          "image_height" : 3000,
          "position" : 1
        },
        {
          "image_width" : 3000,
          "image" : "https:\/\/i1.douguo.com\/upload\/caiku\/c\/e\/d\/ce46bedc2611f0945e5013e05428ef5d.jpg",
          "image_height" : 4000,
          "thumb" : "https:\/\/i1.douguo.com\/upload\/caiku\/c\/e\/d\/140_ce46bedc2611f0945e5013e05428ef5d.jpg",
          "position" : 2,
          "frame" : "-1",
          "content" : "把手沾湿，然后把肉末搓成汤圆大的小丸子，可以在手上稍微丢一丢，会更结实。我一共做了30只肉丸子。"
        },
        {
          "content" : "锅里热上1杯的油，把丸子沾上粟米粉或粘米粉.",
          "thumb" : "https:\/\/i1.douguo.com\/upload\/caiku\/7\/8\/f\/140_78f609d06d58b8319976bdb9f433cd9f.jpg",
          "image_width" : 3000,
          "frame" : "-1",
          "image" : "https:\/\/i1.douguo.com\/upload\/caiku\/7\/8\/f\/78f609d06d58b8319976bdb9f433cd9f.jpg",
          "position" : 3,
          "image_height" : 4000
        },
        {
          "thumb" : "https:\/\/i1.douguo.com\/upload\/caiku\/4\/3\/8\/140_433673ce26a08816c43b2879fa465628.jpg",
          "position" : 4,
          "content" : "分批入锅里炸成金黄色即可。",
          "frame" : "-1",
          "image_width" : 3000,
          "image_height" : 4000,
          "image" : "https:\/\/i1.douguo.com\/upload\/caiku\/4\/3\/8\/433673ce26a08816c43b2879fa465628.jpg"
        },
        {
          "image" : "https:\/\/i1.douguo.com\/upload\/caiku\/d\/d\/b\/dd20de38f9e5a3044b95046eb9708cab.jpg",
          "frame" : "-1",
          "position" : 5,
          "content" : "在一口锅里热上1 大勺油，加入姜蒜末煸香。",
          "thumb" : "https:\/\/i1.douguo.com\/upload\/caiku\/d\/d\/b\/140_dd20de38f9e5a3044b95046eb9708cab.jpg",
          "image_width" : 3000,
          "image_height" : 4000
        },
        {
          "image_width" : 3000,
          "content" : "倒入半杯水和1\/4杯的番茄酱，混匀煮滚，加入番茄，胡萝卜和青豆，煮1-2分钟。",
          "position" : 6,
          "image_height" : 4000,
          "image" : "https:\/\/i1.douguo.com\/upload\/caiku\/1\/2\/9\/12e995bf439f77da5afd61912a0b5359.jpg",
          "frame" : "-1",
          "thumb" : "https:\/\/i1.douguo.com\/upload\/caiku\/1\/2\/9\/140_12e995bf439f77da5afd61912a0b5359.jpg"
        },
        {
          "image_width" : 3000,
          "image" : "https:\/\/i1.douguo.com\/upload\/caiku\/3\/a\/f\/3ac791e23e457089a4057d5e1316cdff.jpg",
          "frame" : "-1",
          "image_height" : 4000,
          "content" : "酱汁开始变浓稠的时候加入肉丸子翻匀。试试味道，如有需要，可以适量加糖或盐。",
          "position" : 7,
          "thumb" : "https:\/\/i1.douguo.com\/upload\/caiku\/3\/a\/f\/140_3ac791e23e457089a4057d5e1316cdff.jpg"
        },
        {
          "image_height" : 4000,
          "thumb" : "https:\/\/i1.douguo.com\/upload\/caiku\/b\/f\/e\/140_bfd7c2275e525bff2846293f9d3164fe.jpg",
          "position" : 8,
          "frame" : "-1",
          "content" : "把蔬菜和米饭摆盘，丸子和汤汁淋上即可。",
          "image" : "https:\/\/i1.douguo.com\/upload\/caiku\/b\/f\/e\/bfd7c2275e525bff2846293f9d3164fe.jpg",
          "image_width" : 3000
        }
      ],
      "event" : {
        "id" : 0
      },
      "thumb_height" : 0,
      "story_dsp" : [

      ],
      "share_info" : {
        "s_d" : "宝宝食谱 -- 茄汁小丸子 -会做饭很酷!",
        "s_u" : "http:\/\/m.douguo.com\/cookbook\/1247789.html",
        "object_id" : "1247789",
        "qr_image" : "",
        "mini_program" : [

        ],
        "image" : "https:\/\/cp1.douguo.com\/upload\/caiku\/4\/6\/2\/4695561dd20dd160069becfc7f89d1d2.jpg",
        "name" : "宝宝食谱 -- 茄汁小丸子 -会做饭很酷!",
        "infos" : [
          {
            "channel" : "1",
            "object_id" : "1247789",
            "s_d" : "#学做饭用豆果美食# 我在@豆果美食 分享了【宝宝食谱 -- 茄汁小丸子 -会做饭很酷!】，帅哥美眉们～你们喜欢的美食来咯！快来跟我一起做吧～查看图片了解菜谱（想要获取更多美食就看这https:\/\/m.weibo.cn\/p\/100404i33631）#会做饭很酷#",
            "qr_image" : "",
            "image" : "https:\/\/cp1.douguo.com\/upload\/caiku\/4\/6\/2\/4695561dd20dd160069becfc7f89d1d2.jpg",
            "name" : "宝宝食谱 -- 茄汁小丸子 -会做饭很酷!",
            "s_u" : "",
            "mini_program" : [

            ]
          },
          {
            "name" : "宝宝食谱 -- 茄汁小丸子 -会做饭很酷!",
            "qr_image" : "",
            "s_u" : "http:\/\/m.douguo.com\/cookbook\/1247789.html",
            "mini_program" : [

            ],
            "channel" : "7",
            "s_d" : "宝宝食谱 -- 茄汁小丸子 -会做饭很酷!",
            "object_id" : "1247789",
            "image" : "https:\/\/cp1.douguo.com\/upload\/caiku\/4\/6\/2\/4695561dd20dd160069becfc7f89d1d2.jpg"
          },
          {
            "name" : "宝宝食谱 -- 茄汁小丸子 -会做饭很酷!",
            "s_d" : "宝宝食谱 -- 茄汁小丸子 -会做饭很酷!",
            "s_u" : "http:\/\/m.douguo.com\/cookbook\/1247789.html",
            "image" : "https:\/\/cp1.douguo.com\/upload\/caiku\/4\/6\/2\/4695561dd20dd160069becfc7f89d1d2.jpg",
            "qr_image" : "",
            "object_id" : "1247789",
            "channel" : "8",
            "mini_program" : [

            ]
          }
        ]
      },
      "tips" : "炸好的丸子可以冻起来，然后可以做成其他不同的宝宝料理哦！",
      "cook_time" : "10-30分钟",
      "cookstory" : "这道茄汁小丸子我做好拍了照片就去学校接宝宝，给他系安全带的时候我给他看手机里的照片，问他要不要吃，他马上大力点头。\n\n结果晚餐是我本来只给准备了五只小丸子，他又让我给加了两次，一共吃了十一只！就连配菜胡萝卜，青豆和油菜心也吃得干干净净的。只有米饭吃了两口就不肯吃了，但是妈妈已经够高兴的啦！",
      "create_time" : "2015-08-28 22:38:50",
      "mid_mdsp" : [

      ],
      "recommend_label" : "10人学做",
      "v_u" : "",
      "rrps" : [

      ],
      "display_ingredient" : 1,
      "hq" : 1,
      "vfurl" : "",
      "favo_counts_text" : "3859",
      "thumb_path" : "https:\/\/i1.douguo.com\/upload\/caiku\/4\/6\/2\/300_4695561dd20dd160069becfc7f89d1d2.jpg",
      "rpid" : 0,
      "dishes" : [

      ],
      "packages_id" : [

      ],
      "rate_count" : 1,
      "recipe_list_tags" : [
        {
          "text" : "关注的人",
          "right_image" : "",
          "background_border_color" : "",
          "text_color" : "#141515",
          "jump_url" : "",
          "background_start_color" : "#F4F5F5",
          "background_end_color" : "#F4F5F5"
        },
        {
          "text" : "内容详细",
          "jump_url" : "",
          "right_image" : "",
          "background_start_color" : "#F4F5F5",
          "background_end_color" : "#F4F5F5",
          "background_border_color" : "",
          "text_color" : "#141515"
        }
      ]
    }
  },
  "state" : "success"
}