{
  "result" : {
    "recipe" : {
      "hq" : 1,
      "ssu" : "",
      "old_comments" : [

      ],
      "ipoi" : "",
      "tags" : [
        "{\n    text = \"\\U86cb\\U7c7b\";\n}",
        "{\n    text = \"\\U521b\\U610f\\U83dc\";\n}",
        "{\n    text = \"\\U5348\\U9910\";\n}",
        "{\n    text = \"\\U665a\\U9910\";\n}",
        "{\n    text = \"\\U9c81\\U83dc\";\n}",
        "{\n    text = \"\\U714e\";\n}",
        "{\n    text = \"\\U712f\";\n}",
        "{\n    text = \"\\U54b8\";\n}",
        "{\n    text = \"\\U5bb6\\U5e38\\U5473\";\n}"
      ],
      "comments_count" : 120,
      "photo_path" : "https:\/\/i1.douguo.com\/upload\/caiku\/1\/6\/a\/600_16346c6e23194edc8f56c7e86b0ce74a.jpeg",
      "release_time" : "",
      "rrps" : [

      ],
      "dishes" : [

      ],
      "original_photo_path" : "http:\/\/i1.douguo.net\/upload\/caiku\/1\/6\/a\/yuan_16346c6e23194edc8f56c7e86b0ce74a.jpeg",
      "rrpt" : "",
      "rpid" : 0,
      "author_verified" : 1,
      "comments_count_text" : "120",
      "btm_dsp" : [

      ],
      "recommendation_tag" : "",
      "ipit" : 0,
      "author" : "海燕的窝",
      "rips" : 0,
      "v_u" : "",
      "vu" : "",
      "create_time" : "2016-03-05 13:23:22",
      "hqu" : "recipes:\/\/www.douguo.com\/notedetail?id=21162253",
      "recommend_label" : "19人学做",
      "ipurl" : "",
      "packages_id" : [

      ],
      "user" : {
        "coursecount" : 0,
        "verified_image" : "https:\/\/i1.douguo.com\/upload\/note\/d\/a\/a\/da84247847aebe48d9dd0fcdac88862a.png",
        "recipes_count" : 0,
        "qq_weibo_nick" : "",
        "age" : "",
        "favor_diaries_count" : 0,
        "user_large_photo" : "http:\/\/tx1.douguo.net\/upload\/photo\/3\/5\/0\/yuan_u29183226733669203517.jpeg",
        "pc" : 0,
        "verified" : 1,
        "following_count" : 0,
        "diaries_count" : 0,
        "introduction" : "",
        "nick" : "海燕的窝",
        "regist_time" : "",
        "point" : 0,
        "progress_image" : "",
        "location" : 0,
        "lv" : 0,
        "mobile" : "",
        "birthday" : "",
        "user_id" : "8986961",
        "weibo_nick" : "",
        "fc" : 0,
        "subscription" : 0,
        "sign" : "",
        "favorites_count" : 0,
        "lvl" : 6,
        "email" : "",
        "avatar_medium" : "http:\/\/tx1.douguo.net\/upload\/photo\/3\/5\/0\/140_u29183226733669203517.jpeg",
        "user_cover" : "",
        "is_prime" : 0,
        "followers_count" : 0,
        "gender" : 2,
        "subscription_article_count" : 0,
        "userid" : "8986961",
        "verified_url" : "https:\/\/m.douguo.com\/user\/prodesc",
        "user_photo" : "http:\/\/tx1.douguo.net\/upload\/photo\/3\/5\/0\/70_u29183226733669203517.jpeg",
        "setted_email" : 0,
        "dishes_count" : 0,
        "qzone_nick" : ""
      },
      "ecs" : 0,
      "cookstorys" : [
        {
          "icon" : "",
          "color" : "",
          "id" : 0,
          "c" : "做一个有腔调的煎蛋......竹叶青青，枝条楚楚......",
          "type" : 0,
          "u" : ""
        }
      ],
      "cook_time" : "10~30分钟",
      "recent_comments" : [

      ],
      "mid_mdsp" : [

      ],
      "bs" : [

      ],
      "notes" : [

      ],
      "author_photo" : "http:\/\/tx1.douguo.net\/upload\/photo\/3\/5\/0\/70_u29183226733669203517.jpeg",
      "favo_counts" : 1946,
      "cook_time_image" : "https:\/\/i1.douguo.com\/upload\/banner\/1551424341.png",
      "share_info" : {
        "name" : "春竹-会做饭很酷!",
        "image" : "https:\/\/cp1.douguo.com\/upload\/caiku\/1\/6\/a\/16346c6e23194edc8f56c7e86b0ce74a.jpeg",
        "mini_program" : [

        ],
        "s_u" : "http:\/\/m.douguo.com\/cookbook\/1341124.html",
        "object_id" : "1341124",
        "s_d" : "春竹-会做饭很酷!",
        "infos" : [
          {
            "qr_image" : "",
            "image" : "https:\/\/cp1.douguo.com\/upload\/caiku\/1\/6\/a\/16346c6e23194edc8f56c7e86b0ce74a.jpeg",
            "channel" : "1",
            "object_id" : "1341124",
            "name" : "春竹-会做饭很酷!",
            "s_u" : "",
            "mini_program" : [

            ],
            "s_d" : "#学做饭用豆果美食# 会做饭真是好酷啊！我在@豆果美食 分享了【春竹-会做饭很酷!】，快来康康我这道菜做的怎么样～美味停不下来！查看图片了解菜谱（你喜欢的美食都在这里！https:\/\/m.weibo.cn\/p\/100404i33631）"
          },
          {
            "channel" : "7",
            "mini_program" : [

            ],
            "qr_image" : "",
            "object_id" : "1341124",
            "s_u" : "http:\/\/m.douguo.com\/cookbook\/1341124.html",
            "image" : "https:\/\/cp1.douguo.com\/upload\/caiku\/1\/6\/a\/16346c6e23194edc8f56c7e86b0ce74a.jpeg",
            "s_d" : "春竹-会做饭很酷!",
            "name" : "春竹-会做饭很酷!"
          },
          {
            "qr_image" : "",
            "s_u" : "http:\/\/m.douguo.com\/cookbook\/1341124.html",
            "name" : "春竹-会做饭很酷!",
            "mini_program" : [

            ],
            "object_id" : "1341124",
            "image" : "https:\/\/cp1.douguo.com\/upload\/caiku\/1\/6\/a\/16346c6e23194edc8f56c7e86b0ce74a.jpeg",
            "channel" : "8",
            "s_d" : "春竹-会做饭很酷!"
          }
        ],
        "qr_image" : ""
      },
      "pw" : 800,
      "minor" : [

      ],
      "rate" : 4,
      "rate_count" : 3,
      "cookstep" : [
        {
          "content" : "我用的鸡蛋是绿壳蛋，比较小，所以用了三颗，大一些的鸡蛋用2颗就可以了，鸡蛋加盐和少许清水打散，加入面粉混合均匀",
          "frame" : "-1",
          "position" : 1,
          "image_height" : 1067,
          "image_width" : 800,
          "thumb" : "https:\/\/i1.douguo.com\/upload\/caiku\/1\/4\/4\/140_14e5fd146c6b66b471b6482fa7d4a904.jpeg",
          "image" : "https:\/\/i1.douguo.com\/upload\/caiku\/1\/4\/4\/14e5fd146c6b66b471b6482fa7d4a904.jpeg"
        },
        {
          "thumb" : "https:\/\/i1.douguo.com\/upload\/caiku\/a\/e\/5\/140_ae840540fe05c4ba63e8835d9ddb4645.jpeg",
          "image_height" : 800,
          "position" : 2,
          "image_width" : 800,
          "frame" : "-1",
          "image" : "https:\/\/i1.douguo.com\/upload\/caiku\/a\/e\/5\/ae840540fe05c4ba63e8835d9ddb4645.jpeg",
          "content" : "芦笋焯水，捞出马上泡凉水中，保持翠绿的颜色"
        },
        {
          "content" : "锅中刷一层植物油，芦笋摆入锅中，摆出竹子的形状，竹叶是用芦笋杆切出来的，表面撒匀黑胡椒粉少许，",
          "image_height" : 800,
          "image_width" : 800,
          "position" : 3,
          "image" : "https:\/\/i1.douguo.com\/upload\/caiku\/8\/b\/c\/8b85674b4c0bab661cc2e457915f081c.jpeg",
          "frame" : "-1",
          "thumb" : "https:\/\/i1.douguo.com\/upload\/caiku\/8\/b\/c\/140_8b85674b4c0bab661cc2e457915f081c.jpeg"
        },
        {
          "frame" : "-1",
          "position" : 4,
          "image" : "https:\/\/i1.douguo.com\/upload\/caiku\/2\/4\/a\/246c811da05b879271287a6ceab79d4a.jpeg",
          "thumb" : "https:\/\/i1.douguo.com\/upload\/caiku\/2\/4\/a\/140_246c811da05b879271287a6ceab79d4a.jpeg",
          "image_height" : 800,
          "content" : "锅放火上中火煎一会儿芦笋后缓缓倒入蛋液，小火加热，在蛋液还没凝固的时候可以略调整芦笋位置，图形满意即可盖锅盖焖3分钟，全程最小火",
          "image_width" : 800
        },
        {
          "thumb" : "https:\/\/i1.douguo.com\/upload\/caiku\/8\/5\/0\/140_85659937c3d6ecd3fd2e1b0cea296490.jpeg",
          "image" : "https:\/\/i1.douguo.com\/upload\/caiku\/8\/5\/0\/85659937c3d6ecd3fd2e1b0cea296490.jpeg",
          "image_height" : 600,
          "image_width" : 800,
          "frame" : "-1",
          "position" : 5,
          "content" : "做好啦"
        },
        {
          "position" : 6,
          "frame" : "-1",
          "image_width" : 800,
          "thumb" : "https:\/\/i1.douguo.com\/upload\/caiku\/2\/9\/d\/140_298abc70c283ff3e8f17f5a0afd358cd.jpeg",
          "image" : "https:\/\/i1.douguo.com\/upload\/caiku\/2\/9\/d\/298abc70c283ff3e8f17f5a0afd358cd.jpeg",
          "content" : "很诗意的煎蛋哟",
          "image_height" : 600
        },
        {
          "image" : "https:\/\/i1.douguo.com\/upload\/caiku\/c\/c\/f\/ccfe5b9566b3a1f5306f1bc1f5d2e91f.jpeg",
          "content" : "给煎蛋饼一个全新的面貌吧",
          "image_width" : 800,
          "image_height" : 600,
          "position" : 7,
          "frame" : "-1",
          "thumb" : "https:\/\/i1.douguo.com\/upload\/caiku\/c\/c\/f\/140_ccfe5b9566b3a1f5306f1bc1f5d2e91f.jpeg"
        }
      ],
      "related_ads" : [

      ],
      "ss" : [

      ],
      "eu" : "recipes:\/\/www.douguo.com\/postdetail?id=242016",
      "cookstory" : "做一个有腔调的煎蛋......竹叶青青，枝条楚楚......",
      "views_count_text" : "11.2万",
      "advice" : {
        "at" : "能帮助你减脂、控血糖～",
        "da" : {
          "t" : "查看详细分析",
          "iu" : "https:\/\/i1.douguo.com\/upload\/banner\/f\/4\/d\/f48877e53c37759bc12ac494be82ec8d.png",
          "url" : "https:\/\/m.douguo.com\/recipe\/nutrient_self\/1341124"
        },
        "has" : [
          {
            "t" : "低糖",
            "url" : "recipes:\/\/www.douguo.com\/simplerecipelist?t=低糖&id=低糖"
          }
        ]
      },
      "image" : "http:\/\/i1.douguo.net\/upload\/caiku\/1\/6\/a\/300_16346c6e23194edc8f56c7e86b0ce74a.jpeg",
      "recipe_list_tags" : [
        {
          "background_border_color" : "",
          "right_image" : "",
          "text_color" : "#141515",
          "text" : "关注的人",
          "background_end_color" : "#F4F5F5",
          "background_start_color" : "#F4F5F5",
          "jump_url" : ""
        },
        {
          "background_end_color" : "#F4F5F5",
          "background_border_color" : "",
          "text" : "值得pick",
          "background_start_color" : "#F4F5F5",
          "jump_url" : "",
          "right_image" : "",
          "text_color" : "#141515"
        }
      ],
      "recommended" : 0,
      "su" : "",
      "ph" : 600,
      "rpst" : "",
      "first_level_comment_count" : 66,
      "ipt" : "",
      "tips" : "",
      "rewarded_video_dsp" : [

      ],
      "ipci" : "",
      "favo_counts_text" : "1946",
      "act_des" : "",
      "major" : [
        {
          "tu" : "https:\/\/m.douguo.com\/ingredients\/芦笋\/detailmaterial",
          "note" : "若干",
          "title" : "芦笋"
        },
        {
          "title" : "鸡蛋",
          "note" : "3个",
          "tu" : "https:\/\/m.douguo.com\/ingredients\/鸡蛋\/detailmaterial"
        },
        {
          "title" : "面粉",
          "note" : "8g",
          "tu" : "https:\/\/m.douguo.com\/ingredients\/面粉\/detailmaterial"
        },
        {
          "title" : "清水",
          "note" : "少许",
          "tu" : "https:\/\/m.douguo.com\/ingredients\/清水\/detailmaterial"
        },
        {
          "title" : "盐",
          "note" : "2克",
          "tu" : "https:\/\/m.douguo.com\/ingredients\/盐\/detailmaterial"
        },
        {
          "tu" : "https:\/\/m.douguo.com\/ingredients\/黑胡椒粉\/detailmaterial",
          "title" : "黑胡椒粉",
          "note" : "少许"
        },
        {
          "note" : "少许",
          "tu" : "https:\/\/m.douguo.com\/ingredients\/植物油\/detailmaterial",
          "title" : "植物油"
        }
      ],
      "display_ingredient" : 1,
      "rate_show" : 0,
      "dish_count_text" : "19",
      "thumb_path" : "https:\/\/i1.douguo.com\/upload\/caiku\/1\/6\/a\/300_16346c6e23194edc8f56c7e86b0ce74a.jpeg",
      "purl" : "",
      "title_ad" : [

      ],
      "title" : "春竹",
      "recipe_tags" : [

      ],
      "brand_day_dsp" : [

      ],
      "cook_id" : "1341124",
      "rcs" : [

      ],
      "story_dsp" : [

      ],
      "sr" : "",
      "sc" : 0,
      "rsm" : "该功能暂停使用",
      "rpt" : "",
      "cook_difficulty_image" : "https:\/\/i1.douguo.com\/upload\/banner\/1551424390.png",
      "dish_count" : 19,
      "ipia" : [

      ],
      "comments" : [
        "{\n    ac = \"#999999\";\n    at = \"\";\n    ccc = 6;\n    \"child_comments\" =     (\n                {\n            ac = \"#999999\";\n            at = \"\";\n            ccc = 0;\n            city = \"\";\n            cmc = 2;\n            content =             (\n                                {\n                    c = \" \";\n                }\n            );\n            ia = 1;\n            id = 3172704;\n            \"ip_address_location\" = \"\";\n            like = 0;\n            \"like_count\" = 0;\n            \"reply_id\" = 3172700;\n            \"reply_user\" =             {\n                \"followers_count_text\" = \"\";\n                id = 10253526;\n                \"is_prime\" = 0;\n                lv = 0;\n                lvl = 4;\n                n = \"\\U6211\\U7684\\U5403\\U8d27\\U8001\\U5a46\";\n                p = \"http:\/\/tx1.douguo.net\/upload\/photo\/b\/6\/9\/70_u3626247819412107081355.jpeg\";\n                \"progress_image\" = \"\";\n                \"recipes_count_text\" = \"\";\n                relationship = \"-1\";\n                title = \"\";\n                v = 0;\n                \"verified_image\" = \"\";\n            };\n            \"sticker_icon\" =             (\n            );\n            time = \"2016-03-05 06:31:12\";\n            u =             {\n                \"followers_count_text\" = \"\";\n                id = 8986961;\n                \"is_prime\" = 0;\n                lv = 0;\n                lvl = 6;\n                n = \"\\U6d77\\U71d5\\U7684\\U7a9d\";\n                p = \"http:\/\/tx1.douguo.net\/upload\/photo\/3\/5\/0\/70_u29183226733669203517.jpeg\";\n                \"progress_image\" = \"\";\n                \"recipes_count_text\" = \"\";\n                relationship = \"-1\";\n                title = \"\";\n                v = 1;\n                \"verified_image\" = \"\";\n            };\n        },\n                {\n            ac = \"#999999\";\n            at = \"\";\n            ccc = 0;\n            city = \"\";\n            cmc = 2;\n            content =             (\n                                {\n                    c = \"  \\U529e\\U4e2a\\U57f9\\U8bad\\U73ed\\U5427\\Uff1f\\U884c\\U5417\\Uff1f\";\n                }\n            );\n            ia = 0;\n            id = 3172754;\n            \"ip_address_location\" = \"\";\n            like = 0;\n            \"like_count\" = 0;\n            \"reply_id\" = 3172704;\n            \"reply_user\" =             {\n                \"followers_count_text\" = \"\";\n                id = 8986961;\n                \"is_prime\" = 0;\n                lv = 0;\n                lvl = 6;\n                n = \"\\U6d77\\U71d5\\U7684\\U7a9d\";\n                p = \"http:\/\/tx1.douguo.net\/upload\/photo\/3\/5\/0\/70_u29183226733669203517.jpeg\";\n                \"progress_image\" = \"\";\n                \"recipes_count_text\" = \"\";\n                relationship = \"-1\";\n                title = \"\";\n                v = 1;\n                \"verified_image\" = \"\";\n            };\n            \"sticker_icon\" =             (\n            );\n            time = \"2016-03-05 06:34:50\";\n            u =             {\n                \"followers_count_text\" = \"\";\n                id = 10253526;\n                \"is_prime\" = 0;\n                lv = 0;\n                lvl = 4;\n                n = \"\\U6211\\U7684\\U5403\\U8d27\\U8001\\U5a46\";\n                p = \"http:\/\/tx1.douguo.net\/upload\/photo\/b\/6\/9\/70_u3626247819412107081355.jpeg\";\n                \"progress_image\" = \"\";\n                \"recipes_count_text\" = \"\";\n                relationship = \"-1\";\n                title = \"\";\n                v = 0;\n                \"verified_image\" = \"\";\n            };\n        }\n    );\n    city = \"\";\n    cmc = 2;\n    content =     (\n                {\n            c = \"\\U6d77\\U71d5\\U5450\\Uff01\\U7fa1\\U6155\\U6b7b\\U6211\\U4eec\\U4e86\\Uff01\";\n        }\n    );\n    ia = 0;\n    id = 3172700;\n    \"ip_address_location\" = \"\";\n    like = 0;\n    \"like_count\" = 0;\n    \"reply_id\" = 0;\n    \"sticker_icon\" =     (\n    );\n    time = \"2016-03-05 06:30:59\";\n    u =     {\n        \"followers_count_text\" = \"\";\n        id = 10253526;\n        \"is_prime\" = 0;\n        lv = 0;\n        lvl = 4;\n        n = \"\\U6211\\U7684\\U5403\\U8d27\\U8001\\U5a46\";\n        p = \"http:\/\/tx1.douguo.net\/upload\/photo\/b\/6\/9\/70_u3626247819412107081355.jpeg\";\n        \"progress_image\" = \"\";\n        \"recipes_count_text\" = \"\";\n        relationship = \"-1\";\n        title = \"\";\n        v = 0;\n        \"verified_image\" = \"\";\n    };\n}",
        "{\n    ac = \"#999999\";\n    at = \"\";\n    ccc = 4;\n    \"child_comments\" =     (\n                {\n            ac = \"#999999\";\n            at = \"\";\n            ccc = 0;\n            city = \"\";\n            cmc = 2;\n            content =             (\n                                {\n                    c = \" \\U505a\\U7684\\U5f88\\U68d2\\Uff0c\\U7528\\U94f2\\U5b50\\U4e00\\U70b9\\U70b9\\U7fd8\\U8d77\\U6765\\U8bd5\\U8bd5\\U5427\";\n                }\n            );\n            ia = 1;\n            id = 3173728;\n            \"ip_address_location\" = \"\";\n            like = 0;\n            \"like_count\" = 0;\n            \"reply_id\" = 3173713;\n            \"reply_user\" =             {\n                \"followers_count_text\" = \"\";\n                id = 9420127;\n                \"is_prime\" = 1;\n                lv = 0;\n                lvl = 3;\n                n = \"\\U53cc\\U98de\\U6708\\U4eae\\U7684\\U9e1f\";\n                p = \"http:\/\/tx1.douguo.net\/upload\/photo\/a\/2\/7\/70_u31588573747913164616.jpg\";\n                \"progress_image\" = \"\";\n                \"recipes_count_text\" = \"\";\n                relationship = \"-1\";\n                title = \"\";\n                v = 0;\n                \"verified_image\" = \"\";\n            };\n            \"sticker_icon\" =             (\n            );\n            time = \"2016-03-05 10:54:06\";\n            u =             {\n                \"followers_count_text\" = \"\";\n                id = 8986961;\n                \"is_prime\" = 0;\n                lv = 0;\n                lvl = 6;\n                n = \"\\U6d77\\U71d5\\U7684\\U7a9d\";\n                p = \"http:\/\/tx1.douguo.net\/upload\/photo\/3\/5\/0\/70_u29183226733669203517.jpeg\";\n                \"progress_image\" = \"\";\n                \"recipes_count_text\" = \"\";\n                relationship = \"-1\";\n                title = \"\";\n                v = 1;\n                \"verified_image\" = \"\";\n            };\n        },\n                {\n            ac = \"#999999\";\n            at = \"\";\n            ccc = 0;\n            city = \"\";\n            cmc = 2;\n            content =             (\n                                {\n                    c = \" \\U6211\\U6ca1\\U653e\\U6cb9\\Uff0c\\U662f\\U4e0d\\U662f\\U8981\\U5728\\U9505\\U5e95\\U6765\\U4e00\\U5c42\\U6cb9\\U554a\\Uff1f\";\n                }\n            );\n            ia = 0;\n            id = 3173786;\n            \"ip_address_location\" = \"\";\n            like = 0;\n            \"like_count\" = 0;\n            \"reply_id\" = 3173728;\n            \"reply_user\" =             {\n                \"followers_count_text\" = \"\";\n                id = 8986961;\n                \"is_prime\" = 0;\n                lv = 0;\n                lvl = 6;\n                n = \"\\U6d77\\U71d5\\U7684\\U7a9d\";\n                p = \"http:\/\/tx1.douguo.net\/upload\/photo\/3\/5\/0\/70_u29183226733669203517.jpeg\";\n                \"progress_image\" = \"\";\n                \"recipes_count_text\" = \"\";\n                relationship = \"-1\";\n                title = \"\";\n                v = 1;\n                \"verified_image\" = \"\";\n            };\n            \"sticker_icon\" =             (\n            );\n            time = \"2016-03-05 11:17:20\";\n            u =             {\n                \"followers_count_text\" = \"\";\n                id = 9420127;\n                \"is_prime\" = 1;\n                lv = 0;\n                lvl = 3;\n                n = \"\\U53cc\\U98de\\U6708\\U4eae\\U7684\\U9e1f\";\n                p = \"http:\/\/tx1.douguo.net\/upload\/photo\/a\/2\/7\/70_u31588573747913164616.jpg\";\n                \"progress_image\" = \"\";\n                \"recipes_count_text\" = \"\";\n                relationship = \"-1\";\n                title = \"\";\n                v = 0;\n                \"verified_image\" = \"\";\n            };\n        }\n    );\n    city = \"\";\n    cmc = 2;\n    content =     (\n                {\n            c = \"\\U6211\\U5fd8\\U4e86\\U653e\\U6cb9\\Uff0c\\U6ca1\\U6cd5\\U53d6\\U51fa\\Uff01\";\n        }\n    );\n    ia = 0;\n    id = 3173713;\n    \"ip_address_location\" = \"\";\n    like = 0;\n    \"like_count\" = 0;\n    \"reply_id\" = 0;\n    \"sticker_icon\" =     (\n    );\n    time = \"2016-03-05 10:52:32\";\n    u =     {\n        \"followers_count_text\" = \"\";\n        id = 9420127;\n        \"is_prime\" = 1;\n        lv = 0;\n        lvl = 3;\n        n = \"\\U53cc\\U98de\\U6708\\U4eae\\U7684\\U9e1f\";\n        p = \"http:\/\/tx1.douguo.net\/upload\/photo\/a\/2\/7\/70_u31588573747913164616.jpg\";\n        \"progress_image\" = \"\";\n        \"recipes_count_text\" = \"\";\n        relationship = \"-1\";\n        title = \"\";\n        v = 0;\n        \"verified_image\" = \"\";\n    };\n}",
        "{\n    ac = \"#999999\";\n    at = \"\";\n    ccc = 4;\n    \"child_comments\" =     (\n                {\n            ac = \"#999999\";\n            at = \"\";\n            ccc = 0;\n            city = \"\";\n            cmc = 2;\n            content =             (\n                                {\n                    c = \" \\U5475\\U5475\\Uff0c\\U591a\\U770b\\U6f02\\U4eae\\U56fe\\U7247\\Uff0c\\U591a\\U62cd\\Uff0c\\U65e0\\U6377\\U5f84\\Uff0c\\U52e4\\U5b66\\U82e6\\U7ec3\\U56db\\U5b57\\U771f\\U8a00\\U9001\\U7ed9\\U4eb2\\Uff0c\\U4e00\\U8d77\\U5171\\U52c9\";\n                }\n            );\n            ia = 1;\n            id = 3173718;\n            \"ip_address_location\" = \"\";\n            like = 0;\n            \"like_count\" = 0;\n            \"reply_id\" = 3173652;\n            \"reply_user\" =             {\n                \"followers_count_text\" = \"\";\n                id = 7594627;\n                \"is_prime\" = 0;\n                lv = 0;\n                lvl = 8;\n                n = \"\\U8bb8\\U591a\\U5fc3\\U613f\";\n                p = \"http:\/\/tx1.douguo.net\/upload\/photo\/0\/f\/3\/70_u19634512124114090415.jpg\";\n                \"progress_image\" = \"\";\n                \"recipes_count_text\" = \"\";\n                relationship = \"-1\";\n                title = \"\";\n                v = 1;\n                \"verified_image\" = \"\";\n            };\n            \"sticker_icon\" =             (\n            );\n            time = \"2016-03-05 10:52:52\";\n            u =             {\n                \"followers_count_text\" = \"\";\n                id = 8986961;\n                \"is_prime\" = 0;\n                lv = 0;\n                lvl = 6;\n                n = \"\\U6d77\\U71d5\\U7684\\U7a9d\";\n                p = \"http:\/\/tx1.douguo.net\/upload\/photo\/3\/5\/0\/70_u29183226733669203517.jpeg\";\n                \"progress_image\" = \"\";\n                \"recipes_count_text\" = \"\";\n                relationship = \"-1\";\n                title = \"\";\n                v = 1;\n                \"verified_image\" = \"\";\n            };\n        },\n                {\n            ac = \"#999999\";\n            at = \"\";\n            ccc = 0;\n            city = \"\";\n            cmc = 2;\n            content =             (\n                                {\n                    c = \" \\U611f\\U8c22\\U6307\\U5bfc\\Uff0c\\U53d7\\U6559\\U4e86\\Uff0c\\U52aa\\U529b\\U5b66\\U4e60\";\n                }\n            );\n            ia = 0;\n            id = 3173729;\n            \"ip_address_location\" = \"\";\n            like = 0;\n            \"like_count\" = 0;\n            \"reply_id\" = 3173718;\n            \"reply_user\" =             {\n                \"followers_count_text\" = \"\";\n                id = 8986961;\n                \"is_prime\" = 0;\n                lv = 0;\n                lvl = 6;\n                n = \"\\U6d77\\U71d5\\U7684\\U7a9d\";\n                p = \"http:\/\/tx1.douguo.net\/upload\/photo\/3\/5\/0\/70_u29183226733669203517.jpeg\";\n                \"progress_image\" = \"\";\n                \"recipes_count_text\" = \"\";\n                relationship = \"-1\";\n                title = \"\";\n                v = 1;\n                \"verified_image\" = \"\";\n            };\n            \"sticker_icon\" =             (\n            );\n            time = \"2016-03-05 10:54:32\";\n            u =             {\n                \"followers_count_text\" = \"\";\n                id = 7594627;\n                \"is_prime\" = 0;\n                lv = 0;\n                lvl = 8;\n                n = \"\\U8bb8\\U591a\\U5fc3\\U613f\";\n                p = \"http:\/\/tx1.douguo.net\/upload\/photo\/0\/f\/3\/70_u19634512124114090415.jpg\";\n                \"progress_image\" = \"\";\n                \"recipes_count_text\" = \"\";\n                relationship = \"-1\";\n                title = \"\";\n                v = 1;\n                \"verified_image\" = \"\";\n            };\n        }\n    );\n    city = \"\";\n    cmc = 2;\n    content =     (\n                {\n            c = \"\\U6c42\\U6559\\U600e\\U6837\\U628a\\U753b\\U9762\\U62cd\\U7684\\U5982\\U6b64\\U7f8e\\Uff0c\\U592a\\U5fc3\\U52a8\\U4e86\";\n        }\n    );\n    ia = 0;\n    id = 3173652;\n    \"ip_address_location\" = \"\";\n    like = 0;\n    \"like_count\" = 0;\n    \"reply_id\" = 0;\n    \"sticker_icon\" =     (\n    );\n    time = \"2016-03-05 10:45:39\";\n    u =     {\n        \"followers_count_text\" = \"\";\n        id = 7594627;\n        \"is_prime\" = 0;\n        lv = 0;\n        lvl = 8;\n        n = \"\\U8bb8\\U591a\\U5fc3\\U613f\";\n        p = \"http:\/\/tx1.douguo.net\/upload\/photo\/0\/f\/3\/70_u19634512124114090415.jpg\";\n        \"progress_image\" = \"\";\n        \"recipes_count_text\" = \"\";\n        relationship = \"-1\";\n        title = \"\";\n        v = 1;\n        \"verified_image\" = \"\";\n    };\n}"
      ],
      "levelid" : 2,
      "vfurl" : "",
      "clicks" : "106620",
      "rdsps" : [

      ],
      "top_mdsp" : [

      ],
      "cook_difficulty" : "切墩(初级)",
      "cookwares" : [

      ],
      "vc" : "112271",
      "guide_image" : "",
      "thumb_height" : 0,
      "author_id" : 8986961,
      "collect_status" : 0
    }
  },
  "state" : "success",
  "status" : 0
}