{
  "state" : "success",
  "status" : 0,
  "result" : {
    "recipe" : {
      "rewarded_video_dsp" : [

      ],
      "related_ads" : [

      ],
      "ipt" : "",
      "brand_day_dsp" : [

      ],
      "display_ingredient" : 1,
      "cook_time_image" : "https:\/\/i1.douguo.com\/upload\/banner\/1551424341.png",
      "story_dsp" : [

      ],
      "levelid" : 2,
      "cook_difficulty_image" : "https:\/\/i1.douguo.com\/upload\/banner\/1551424390.png",
      "recommendation_tag" : "",
      "recommend_label" : "1人学做",
      "cookstep" : [
        {
          "image_width" : 800,
          "position" : 1,
          "frame" : "-1",
          "image_height" : 600,
          "image" : "https:\/\/i1.douguo.com\/upload\/caiku\/4\/9\/4\/492b6fc044785efec850a285658ebc04.jpg",
          "thumb" : "https:\/\/i1.douguo.com\/upload\/caiku\/4\/9\/4\/140_492b6fc044785efec850a285658ebc04.jpg",
          "content" : "买买买:在无锡好几个菜场都没买到，在淘宝一搜，还真有，八块一斤，邮费另算，也是挺贵的~"
        },
        {
          "thumb" : "https:\/\/i1.douguo.com\/upload\/caiku\/a\/6\/3\/140_a6c2eb1266d1b38c4cef724b4e8ab5d3.jpg",
          "content" : "开水烫:将芥菜叶洗净，开水浇上去，直到漫过所有叶子。",
          "image_width" : 1920,
          "position" : 2,
          "image" : "https:\/\/i1.douguo.com\/upload\/caiku\/a\/6\/3\/a6c2eb1266d1b38c4cef724b4e8ab5d3.jpg",
          "image_height" : 1440,
          "frame" : "-1"
        },
        {
          "image_height" : 600,
          "image" : "https:\/\/i1.douguo.com\/upload\/caiku\/5\/c\/b\/5c8d8a322beb85f8e38c37c16b76780b.jpg",
          "content" : "静静等待:刚烫完青气比较重，一天以后口感是最好的，颜色也变黄了。这个时候怕发酸，就要把所有的叶子捞出来，拧干水，放冰箱冷藏了。",
          "position" : 3,
          "image_width" : 800,
          "frame" : "-1",
          "thumb" : "https:\/\/i1.douguo.com\/upload\/caiku\/5\/c\/b\/140_5c8d8a322beb85f8e38c37c16b76780b.jpg"
        },
        {
          "image" : "https:\/\/i1.douguo.com\/upload\/caiku\/a\/3\/6\/a3c2eb093985960aa4c1b7dfa1bf5366.jpg",
          "frame" : "-1",
          "image_height" : 1440,
          "content" : "开吃:切碎，拧掉多余的水，放猪油炒熟就可以吃了！拌饭吃的味道简直是享受~",
          "position" : 4,
          "thumb" : "https:\/\/i1.douguo.com\/upload\/caiku\/a\/3\/6\/140_a3c2eb093985960aa4c1b7dfa1bf5366.jpg",
          "image_width" : 1920
        }
      ],
      "cookstorys" : [
        {
          "id" : 0,
          "type" : 0,
          "icon" : "",
          "color" : "",
          "u" : "",
          "c" : " 芥菜这个东西，长在土里的球和地面上的叶子各有一番风味，我都很喜欢吃。年底回家，刚下过一场大雪，妈妈穿着长靴，我跟在后面，踩在嘎吱嘎吱的雪上，到了菜地，看着她从雪里拔出一棵来，抖点上面的残雪，拎回家。\n地里的球用来炒腊肉，地上的叶做成黄菜子，过年不喜欢吃大鱼大肉，这道菜便成了我的命根子。\n"
        }
      ],
      "cook_difficulty" : "切墩(初级)",
      "user" : {
        "qq_weibo_nick" : "",
        "qzone_nick" : "",
        "sign" : "",
        "location" : 0,
        "birthday" : "",
        "verified_url" : "https:\/\/m.douguo.com\/user\/prodesc",
        "introduction" : "",
        "pc" : 0,
        "verified_image" : "",
        "avatar_medium" : "http:\/\/tx1.douguo.net\/upload\/photo\/c\/d\/8\/140_u08848911667839215038.jpg",
        "recipes_count" : 0,
        "user_id" : "21225291",
        "dishes_count" : 0,
        "user_photo" : "http:\/\/tx1.douguo.net\/upload\/photo\/c\/d\/8\/70_u08848911667839215038.jpg",
        "mobile" : "",
        "weibo_nick" : "",
        "fc" : 0,
        "email" : "",
        "verified" : 0,
        "subscription" : 0,
        "lvl" : 1,
        "regist_time" : "",
        "favorites_count" : 0,
        "coursecount" : 0,
        "is_prime" : 0,
        "gender" : 2,
        "progress_image" : "",
        "user_cover" : "",
        "lv" : 0,
        "userid" : "21225291",
        "age" : "",
        "favor_diaries_count" : 0,
        "followers_count" : 0,
        "point" : 0,
        "following_count" : 0,
        "diaries_count" : 0,
        "setted_email" : 0,
        "subscription_article_count" : 0,
        "nick" : "苏小奶奶",
        "user_large_photo" : "http:\/\/tx1.douguo.net\/upload\/photo\/c\/d\/8\/yuan_u08848911667839215038.jpg"
      },
      "pw" : 800,
      "comments_count_text" : "8",
      "rrpt" : "",
      "rate_show" : 0,
      "favo_counts" : 128,
      "collect_status" : 0,
      "vc" : "38372",
      "purl" : "",
      "packages_id" : [

      ],
      "ipoi" : "",
      "thumb_height" : 0,
      "favo_counts_text" : "128",
      "views_count_text" : "3.8万",
      "recipe_list_tags" : [

      ],
      "eu" : "recipes:\/\/www.douguo.com\/postdetail?id=242016",
      "mid_mdsp" : [

      ],
      "cookwares" : [

      ],
      "hq" : 1,
      "v_u" : "",
      "recent_comments" : [

      ],
      "sr" : "",
      "rpst" : "",
      "recommended" : 0,
      "btm_dsp" : [

      ],
      "rips" : 0,
      "ss" : [

      ],
      "dish_count_text" : "1",
      "rrps" : [

      ],
      "minor" : [

      ],
      "vfurl" : "",
      "major" : [
        {
          "title" : "新鲜芥菜叶",
          "note" : "250g"
        },
        {
          "title" : "开水",
          "note" : "500ml"
        },
        {
          "title" : "猪油",
          "note" : "少许",
          "tu" : "https:\/\/m.douguo.com\/ingredients\/猪油\/detailmaterial"
        },
        {
          "tu" : "https:\/\/m.douguo.com\/ingredients\/盐\/detailmaterial",
          "title" : "盐",
          "note" : "适量"
        },
        {
          "title" : "心情很好的自己",
          "note" : "一个"
        }
      ],
      "author_photo" : "http:\/\/tx1.douguo.net\/upload\/photo\/c\/d\/8\/70_u08848911667839215038.jpg",
      "guide_image" : "",
      "photo_path" : "https:\/\/i1.douguo.com\/upload\/caiku\/e\/4\/c\/600_e45dc0c689d0b1843468343a4b90c4cc.jpg",
      "share_info" : {
        "s_u" : "http:\/\/m.douguo.com\/cookbook\/1621059.html",
        "object_id" : "1621059",
        "mini_program" : [

        ],
        "image" : "https:\/\/cp1.douguo.com\/upload\/caiku\/e\/4\/c\/e45dc0c689d0b1843468343a4b90c4cc.jpg",
        "qr_image" : "",
        "s_d" : "黄菜子-会做饭很酷!",
        "name" : "黄菜子-会做饭很酷!",
        "infos" : [
          {
            "s_d" : "#学做饭用豆果美食# 会做饭真是好酷啊！我在@豆果美食 分享了【黄菜子-会做饭很酷!】，快来康康我这道菜做的怎么样～美味停不下来！查看图片了解菜谱（你喜欢的美食都在这里！https:\/\/m.weibo.cn\/p\/100404i33631）",
            "channel" : "1",
            "object_id" : "1621059",
            "image" : "https:\/\/cp1.douguo.com\/upload\/caiku\/e\/4\/c\/e45dc0c689d0b1843468343a4b90c4cc.jpg",
            "s_u" : "",
            "mini_program" : [

            ],
            "name" : "黄菜子-会做饭很酷!",
            "qr_image" : ""
          },
          {
            "object_id" : "1621059",
            "channel" : "7",
            "s_u" : "http:\/\/m.douguo.com\/cookbook\/1621059.html",
            "mini_program" : [

            ],
            "name" : "黄菜子-会做饭很酷!",
            "qr_image" : "",
            "image" : "https:\/\/cp1.douguo.com\/upload\/caiku\/e\/4\/c\/e45dc0c689d0b1843468343a4b90c4cc.jpg",
            "s_d" : "黄菜子-会做饭很酷!"
          },
          {
            "s_d" : "黄菜子-会做饭很酷!",
            "channel" : "8",
            "qr_image" : "",
            "object_id" : "1621059",
            "image" : "https:\/\/cp1.douguo.com\/upload\/caiku\/e\/4\/c\/e45dc0c689d0b1843468343a4b90c4cc.jpg",
            "mini_program" : [

            ],
            "s_u" : "http:\/\/m.douguo.com\/cookbook\/1621059.html",
            "name" : "黄菜子-会做饭很酷!"
          }
        ]
      },
      "comments_count" : 8,
      "first_level_comment_count" : 5,
      "cook_time" : "10-30分钟",
      "author_verified" : 0,
      "tips" : "啰里啰嗦都讲全了，好像没啥要补充的哈哈哈",
      "dishes" : [

      ],
      "rate_count" : 1,
      "author" : "苏小奶奶",
      "rdsps" : [

      ],
      "tags" : [

      ],
      "ph" : 800,
      "image" : "http:\/\/i1.douguo.net\/upload\/caiku\/e\/4\/c\/300_e45dc0c689d0b1843468343a4b90c4cc.jpg",
      "ipurl" : "",
      "original_photo_path" : "http:\/\/i1.douguo.net\/upload\/caiku\/e\/4\/c\/yuan_e45dc0c689d0b1843468343a4b90c4cc.jpg",
      "sc" : 0,
      "clicks" : "31740",
      "act_des" : "",
      "rpid" : 0,
      "title_ad" : [

      ],
      "rate" : 5,
      "thumb_path" : "https:\/\/i1.douguo.com\/upload\/caiku\/e\/4\/c\/300_e45dc0c689d0b1843468343a4b90c4cc.jpg",
      "notes" : [

      ],
      "top_mdsp" : [

      ],
      "cookstory" : " 芥菜这个东西，长在土里的球和地面上的叶子各有一番风味，我都很喜欢吃。年底回家，刚下过一场大雪，妈妈穿着长靴，我跟在后面，踩在嘎吱嘎吱的雪上，到了菜地，看着她从雪里拔出一棵来，抖点上面的残雪，拎回家。\n地里的球用来炒腊肉，地上的叶做成黄菜子，过年不喜欢吃大鱼大肉，这道菜便成了我的命根子。\n",
      "hqu" : "recipes:\/\/www.douguo.com\/notedetail?id=21162253",
      "su" : "",
      "ipci" : "",
      "vu" : "",
      "recipe_tags" : [

      ],
      "comments" : [
        "{\n    ac = \"#999999\";\n    at = \"\";\n    ccc = 2;\n    \"child_comments\" =     (\n                {\n            ac = \"#999999\";\n            at = \"\\U65e0\\U9521\\U5e02\";\n            ccc = 0;\n            city = \"\\U65e0\\U9521\\U5e02\";\n            cmc = 2;\n            content =             (\n                                {\n                    c = \"  \";\n                }\n            );\n            ia = 1;\n            id = 5149634;\n            \"ip_address_location\" = \"\";\n            like = 0;\n            \"like_count\" = 0;\n            \"reply_id\" = 5149225;\n            \"reply_user\" =             {\n                \"followers_count_text\" = \"\";\n                id = 18481306;\n                \"is_prime\" = 0;\n                lv = 0;\n                lvl = 6;\n                n = \"\\U674e\\U5416\\U5416\";\n                p = \"http:\/\/tx1.douguo.net\/upload\/photo\/c\/c\/2\/70_u05931911534267161820.jpg\";\n                \"progress_image\" = \"\";\n                \"recipes_count_text\" = \"\";\n                relationship = \"-1\";\n                title = \"\";\n                v = 0;\n                \"verified_image\" = \"\";\n            };\n            \"sticker_icon\" =             (\n            );\n            time = \"2017-11-01 01:41:54\";\n            u =             {\n                \"followers_count_text\" = \"\";\n                id = 21225291;\n                \"is_prime\" = 0;\n                lv = 0;\n                lvl = 1;\n                n = \"\\U82cf\\U5c0f\\U5976\\U5976\";\n                p = \"http:\/\/tx1.douguo.net\/upload\/photo\/c\/d\/8\/70_u08848911667839215038.jpg\";\n                \"progress_image\" = \"\";\n                \"recipes_count_text\" = \"\";\n                relationship = \"-1\";\n                title = \"\";\n                v = 0;\n                \"verified_image\" = \"\";\n            };\n        },\n                {\n            ac = \"#999999\";\n            at = \"\\U65e0\\U9521\\U5e02\";\n            ccc = 0;\n            city = \"\\U65e0\\U9521\\U5e02\";\n            cmc = 2;\n            content =             (\n                                {\n                    c = \"  \\U563f\\U563f\";\n                }\n            );\n            ia = 1;\n            id = 5149639;\n            \"ip_address_location\" = \"\";\n            like = 0;\n            \"like_count\" = 0;\n            \"reply_id\" = 5149225;\n            \"reply_user\" =             {\n                \"followers_count_text\" = \"\";\n                id = 18481306;\n                \"is_prime\" = 0;\n                lv = 0;\n                lvl = 6;\n                n = \"\\U674e\\U5416\\U5416\";\n                p = \"http:\/\/tx1.douguo.net\/upload\/photo\/c\/c\/2\/70_u05931911534267161820.jpg\";\n                \"progress_image\" = \"\";\n                \"recipes_count_text\" = \"\";\n                relationship = \"-1\";\n                title = \"\";\n                v = 0;\n                \"verified_image\" = \"\";\n            };\n            \"sticker_icon\" =             (\n            );\n            time = \"2017-11-01 01:45:42\";\n            u =             {\n                \"followers_count_text\" = \"\";\n                id = 21225291;\n                \"is_prime\" = 0;\n                lv = 0;\n                lvl = 1;\n                n = \"\\U82cf\\U5c0f\\U5976\\U5976\";\n                p = \"http:\/\/tx1.douguo.net\/upload\/photo\/c\/d\/8\/70_u08848911667839215038.jpg\";\n                \"progress_image\" = \"\";\n                \"recipes_count_text\" = \"\";\n                relationship = \"-1\";\n                title = \"\";\n                v = 0;\n                \"verified_image\" = \"\";\n            };\n        }\n    );\n    city = \"\";\n    cmc = 2;\n    content =     (\n                {\n            c = \"wow\\Uff0c\\U65b0\\U6280\\U80fdget\\U221a\";\n        }\n    );\n    ia = 0;\n    id = 5149225;\n    \"ip_address_location\" = \"\";\n    like = 0;\n    \"like_count\" = 0;\n    \"reply_id\" = 0;\n    \"sticker_icon\" =     (\n    );\n    time = \"2017-10-31 15:07:06\";\n    u =     {\n        \"followers_count_text\" = \"\";\n        id = 18481306;\n        \"is_prime\" = 0;\n        lv = 0;\n        lvl = 6;\n        n = \"\\U674e\\U5416\\U5416\";\n        p = \"http:\/\/tx1.douguo.net\/upload\/photo\/c\/c\/2\/70_u05931911534267161820.jpg\";\n        \"progress_image\" = \"\";\n        \"recipes_count_text\" = \"\";\n        relationship = \"-1\";\n        title = \"\";\n        v = 0;\n        \"verified_image\" = \"\";\n    };\n}",
        "{\n    ac = \"#999999\";\n    at = \"\";\n    ccc = 1;\n    \"child_comments\" =     (\n                {\n            ac = \"#999999\";\n            at = \"\\U65e0\\U9521\\U5e02\";\n            ccc = 0;\n            city = \"\\U65e0\\U9521\\U5e02\";\n            cmc = 2;\n            content =             (\n                                {\n                    c = \"  \\U263a\";\n                }\n            );\n            ia = 1;\n            id = 5149633;\n            \"ip_address_location\" = \"\";\n            like = 0;\n            \"like_count\" = 0;\n            \"reply_id\" = 5149357;\n            \"reply_user\" =             {\n                \"followers_count_text\" = \"\";\n                id = 18516174;\n                \"is_prime\" = 0;\n                lv = 0;\n                lvl = 6;\n                n = \"\\U743c\\U65877\";\n                p = \"http:\/\/tx1.douguo.net\/upload\/photo\/d\/f\/d\/70_u17382591310080408191840.jpg\";\n                \"progress_image\" = \"\";\n                \"recipes_count_text\" = \"\";\n                relationship = \"-1\";\n                title = \"\";\n                v = 0;\n                \"verified_image\" = \"\";\n            };\n            \"sticker_icon\" =             (\n            );\n            time = \"2017-11-01 01:41:41\";\n            u =             {\n                \"followers_count_text\" = \"\";\n                id = 21225291;\n                \"is_prime\" = 0;\n                lv = 0;\n                lvl = 1;\n                n = \"\\U82cf\\U5c0f\\U5976\\U5976\";\n                p = \"http:\/\/tx1.douguo.net\/upload\/photo\/c\/d\/8\/70_u08848911667839215038.jpg\";\n                \"progress_image\" = \"\";\n                \"recipes_count_text\" = \"\";\n                relationship = \"-1\";\n                title = \"\";\n                v = 0;\n                \"verified_image\" = \"\";\n            };\n        }\n    );\n    city = \"\";\n    cmc = 2;\n    content =     (\n                {\n            c = \"\\U54c8\\U54c8\\U54c8\\Uff0c\\U6700\\U8fd1\\U4e5f\\U6253\\U7b97\\U505a\\U4e2a\\U5403\\U5462\\Uff0c\\U4f60\\U505a\\U5f97\\U771f\\U597d~ \";\n        }\n    );\n    ia = 0;\n    id = 5149357;\n    \"ip_address_location\" = \"\";\n    like = 0;\n    \"like_count\" = 0;\n    \"reply_id\" = 0;\n    \"sticker_icon\" =     (\n    );\n    time = \"2017-10-31 16:07:06\";\n    u =     {\n        \"followers_count_text\" = \"\";\n        id = 18516174;\n        \"is_prime\" = 0;\n        lv = 0;\n        lvl = 6;\n        n = \"\\U743c\\U65877\";\n        p = \"http:\/\/tx1.douguo.net\/upload\/photo\/d\/f\/d\/70_u17382591310080408191840.jpg\";\n        \"progress_image\" = \"\";\n        \"recipes_count_text\" = \"\";\n        relationship = \"-1\";\n        title = \"\";\n        v = 0;\n        \"verified_image\" = \"\";\n    };\n}",
        "{\n    ac = \"#999999\";\n    at = \"\";\n    ccc = 0;\n    \"child_comments\" =     (\n    );\n    city = \"\";\n    cmc = 2;\n    content =     (\n                {\n            c = \"\\U8fd9\\U4e2a\\U5b9e\\U7528\\U6027\\U5f88\\U4e0d\\U9519\\Uff0c\\U597d\\U50cf\\U597d\\U60f3\\U8bd5\\U8bd5\\U770b\";\n        }\n    );\n    ia = 0;\n    id = 6226285;\n    \"ip_address_location\" = \"\";\n    like = 0;\n    \"like_count\" = 0;\n    \"reply_id\" = 0;\n    \"sticker_icon\" =     (\n    );\n    time = \"2018-11-23 14:35:12\";\n    u =     {\n        \"followers_count_text\" = \"\";\n        id = 18523950;\n        \"is_prime\" = 0;\n        lv = 0;\n        lvl = 4;\n        n = \"\\U7a33\\U5b9a\\U7684\\U9762\\U5305\\U7c89\\U5f88\\U5f62\\U5f62\\U8272\\U8272\";\n        p = \"http:\/\/tx1.douguo.net\/upload\/photo\/1\/1\/1\/70_40b1eb28dcea0dba44876ad767b61a81.png\";\n        \"progress_image\" = \"\";\n        \"recipes_count_text\" = \"\";\n        relationship = \"-1\";\n        title = \"\";\n        v = 0;\n        \"verified_image\" = \"\";\n    };\n}"
      ],
      "title" : "黄菜子",
      "ipit" : 0,
      "release_time" : "",
      "cook_id" : "1621059",
      "advice" : {
        "has" : [
          {
            "url" : "recipes:\/\/www.douguo.com\/simplerecipelist?t=低热量&id=低热量",
            "t" : "低热量"
          },
          {
            "t" : "0胆固醇",
            "url" : "recipes:\/\/www.douguo.com\/simplerecipelist?t=0胆固醇&id=0胆固醇"
          }
        ],
        "at" : "能有效控制体重～",
        "da" : {
          "iu" : "https:\/\/i1.douguo.com\/upload\/banner\/f\/4\/d\/f48877e53c37759bc12ac494be82ec8d.png",
          "t" : "查看详细分析",
          "url" : "https:\/\/m.douguo.com\/recipe\/nutrient_self\/1621059"
        }
      },
      "dish_count" : 1,
      "rcs" : [

      ],
      "bs" : [

      ],
      "ipia" : [

      ],
      "rsm" : "该功能暂停使用",
      "old_comments" : [

      ],
      "author_id" : 21225291,
      "create_time" : "2017-10-31 19:08:41",
      "rpt" : "",
      "ecs" : 1,
      "ssu" : ""
    }
  }
}