{
  "status" : 0,
  "result" : {
    "murl" : "https:\/\/i1.douguo.com\/\/static\/mapi\/mall_641.html?version=2018050718",
    "flt" : "有8条更新",
    "header" : {
      "q" : [
        9,
        11,
        8,
        12
      ],
      "fs" : [
        {
          "i" : "https:\/\/i1.douguo.com\/upload\/banner\/e\/1\/f\/e1da07c2b7ec527b784aec23badeaa3f.png",
          "t" : "菜谱分类",
          "content" : "1",
          "id" : "1",
          "u" : "recipes:\/\/www.douguo.com\/foodclassification"
        },
        {
          "t" : "排行榜",
          "id" : "13",
          "i" : "https:\/\/i1.douguo.com\/upload\/banner\/5\/1\/a\/5148924a580cbecc10da4bbbe685aaaa.png",
          "content" : "13",
          "u" : "https:\/\/m.douguo.com\/ranking\/lists?open=0"
        },
        {
          "i" : "https:\/\/i1.douguo.com\/upload\/banner\/c\/d\/f\/cdada2a87e4d97048fa9e68588d8c81f.png",
          "u" : "https:\/\/m.douguo.com\/video\/showlist",
          "id" : "3",
          "content" : "3",
          "t" : "视频菜谱"
        },
        {
          "t" : "精品菜单",
          "i" : "https:\/\/i1.douguo.com\/upload\/banner\/3\/9\/c\/3928fd23e110fa621b38677f3dc97d4c.png",
          "id" : "5",
          "content" : "5",
          "u" : "recipes:\/\/www.douguo.com\/menulist?type=256&t=本周流行精品菜单"
        },
        {
          "content" : "12",
          "id" : "12",
          "u" : "https:\/\/m.douguo.com\/activity\/huodong\/lists",
          "i" : "https:\/\/i1.douguo.com\/upload\/banner\/9\/f\/0\/9f08655615daf2983c1aeb28fb95fad0.png",
          "t" : "热门活动"
        }
      ],
      "channels" : [
        {
          "icon" : "https:\/\/i1.douguo.com\/upload\/banner\/1595828073.png",
          "show_red_point" : false,
          "action_url" : "recipes:\/\/www.douguo.com\/foodclassification?_vs=2305",
          "title" : "菜谱分类",
          "id" : 14
        },
        {
          "action_url" : "recipes:\/\/www.douguo.com\/home?tab=mall",
          "id" : 35,
          "icon" : "https:\/\/i1.douguo.com\/upload\/banner\/1595828095.png",
          "title" : "精品特卖",
          "show_red_point" : false
        },
        {
          "action_url" : "https:\/\/m.douguo.com\/daren\/home?isapp=达人专区",
          "title" : "活跃达人",
          "show_red_point" : false,
          "icon" : "https:\/\/i1.douguo.com\/upload\/banner\/1595815010.png",
          "id" : 40
        },
        {
          "icon" : "https:\/\/i1.douguo.com\/upload\/banner\/1595815061.png",
          "id" : 31,
          "show_red_point" : false,
          "action_url" : "http:\/\/i0.douguo.net\/static\/babyad\/index.html",
          "title" : "母婴专区"
        },
        {
          "title" : "关注动态",
          "show_red_point" : false,
          "id" : 16,
          "icon" : "https:\/\/i1.douguo.com\/upload\/banner\/1595815149.png",
          "action_url" : "recipes:\/\/www.douguo.com\/feeds"
        },
        {
          "title" : "签到领钱",
          "icon" : "https:\/\/i1.douguo.com\/upload\/banner\/1595828147.png",
          "show_red_point" : false,
          "id" : 20,
          "action_url" : "https:\/\/m.douguo.com\/activity\/task\/index?isapp=1"
        },
        {
          "title" : "视频菜谱",
          "action_url" : "recipes:\/\/www.douguo.com\/videolist?refer=featured",
          "icon" : "https:\/\/i1.douguo.com\/upload\/banner\/1595828155.png",
          "show_red_point" : false,
          "id" : 23
        },
        {
          "title" : "安佳美食社",
          "action_url" : "https:\/\/m.douguo.com\/activity\/ncpzj\/detail\/2968?isapp=1&open=0&_vs=1000300&&dg_refreshkey=publishnote",
          "id" : 15,
          "icon" : "https:\/\/i1.douguo.com\/upload\/banner\/1595815275.png",
          "show_red_point" : false
        }
      ],
      "dsps" : [
        {
          "accessibility_text" : "",
          "d" : {
            "t" : "",
            "url" : "https:\/\/m.douguo.com\/show\/normaldown",
            "i" : "https:\/\/i1.douguo.com\/upload\/note\/5\/6\/b\/561d17c9c9ce93958a01f77ab95068db.jpg",
            "d" : "",
            "id" : "topRecommend_2023081701_0",
            "ch" : 0
          },
          "h" : 1
        },
        {
          "accessibility_text" : "",
          "d" : {
            "i" : "https:\/\/i1.douguo.com\/upload\/caiku\/a\/9\/0\/750x498_a9b8cce582023226b3b6e98bb5adc400.jpg",
            "id" : "topRecommend_2023081701_1",
            "ch" : 0,
            "url" : "recipes:\/\/www.douguo.com\/details?id=3260012",
            "t" : "",
            "d" : ""
          },
          "h" : 1
        },
        {
          "accessibility_text" : "",
          "d" : {
            "ch" : 0,
            "d" : "",
            "t" : "",
            "url" : "recipes:\/\/www.douguo.com\/details?id=3260032",
            "id" : "topRecommend_2023081701_2",
            "i" : "https:\/\/i1.douguo.com\/upload\/caiku\/8\/2\/e\/750x498_8247d98b6656c07df4adc9fc0ff7131e.jpg"
          },
          "h" : 1
        },
        {
          "accessibility_text" : "",
          "h" : 1,
          "d" : {
            "d" : "",
            "ch" : 0,
            "i" : "https:\/\/i1.douguo.com\/upload\/caiku\/5\/c\/0\/750x498_1686298507559.jpg",
            "t" : "",
            "id" : "topRecommend_2023081701_3",
            "url" : "recipes:\/\/www.douguo.com\/details?id=3260060"
          }
        }
      ]
    },
    "list" : [
      {
        "type" : 2,
        "r" : {
          "cook_time" : "30~60分钟",
          "vc" : 191836,
          "an" : "花好月圆128",
          "a" : {
            "lvl" : 8,
            "id" : "516793",
            "n" : "花好月圆128",
            "lv" : 8,
            "v" : 1,
            "verified_image" : "https:\/\/i1.douguo.com\/upload\/note\/d\/a\/a\/da84247847aebe48d9dd0fcdac88862a.png",
            "p" : "http:\/\/tx1.douguo.net\/upload\/photo\/7\/b\/f\/70_u26163545194441.jpg",
            "is_prime" : false
          },
          "dc" : 0,
          "p" : "https:\/\/i1.douguo.com\/upload\/caiku\/b\/e\/f\/960_be6b9bec25c65f6a5683ff337b5dc73f.jpg",
          "id" : 2987247,
          "ph" : 960,
          "n" : "卤鸡腿饭，让孩子爱上吃饭就是这么简单。合理膳食，守护家人健康！",
          "pw" : 1280,
          "au" : "recipes:\/\/www.douguo.com\/details?id=2987247",
          "recall" : "C_RANDOM",
          "fc" : 2864,
          "hq" : 0,
          "recommend_label" : "2864人刚刚收藏过",
          "img" : "https:\/\/i1.douguo.com\/upload\/caiku\/b\/e\/f\/960_be6b9bec25c65f6a5683ff337b5dc73f.jpg"
        },
        "ju" : ""
      },
      {
        "ju" : "",
        "type" : 2,
        "r" : {
          "an" : "飘浮de云",
          "p" : "https:\/\/i1.douguo.com\/upload\/caiku\/a\/5\/3\/960_a52d5d6e0961a5ace717570094737883.jpg",
          "n" : "烤馒头 丨有空气炸锅的都去试一试！",
          "a" : {
            "id" : "9686733",
            "lv" : 6,
            "p" : "http:\/\/tx1.douguo.net\/upload\/photo\/2\/8\/6\/70_u33300388982754082117.jpeg",
            "lvl" : 6,
            "n" : "飘浮de云",
            "v" : 1,
            "is_prime" : false,
            "verified_image" : "https:\/\/i1.douguo.com\/upload\/note\/d\/a\/a\/da84247847aebe48d9dd0fcdac88862a.png"
          },
          "pw" : 1080,
          "hq" : 0,
          "recall" : "C_RANDOM",
          "fc" : 1978,
          "id" : 3168456,
          "img" : "https:\/\/i1.douguo.com\/upload\/caiku\/a\/5\/3\/960_a52d5d6e0961a5ace717570094737883.jpg",
          "recommend_label" : "5人最近做过",
          "vc" : 247271,
          "ph" : 739,
          "cook_time" : "",
          "dc" : 5,
          "au" : "recipes:\/\/www.douguo.com\/details?id=3168456"
        }
      },
      {
        "r" : {
          "dc" : 0,
          "au" : "recipes:\/\/www.douguo.com\/details?id=2982465",
          "recall" : "C_RANDOM",
          "recommend_label" : "2443人刚刚收藏过",
          "an" : "Tinaの小厨房🍓",
          "pw" : 1920,
          "ph" : 1442,
          "a" : {
            "v" : 0,
            "lvl" : 5,
            "id" : "20575462",
            "p" : "http:\/\/tx1.douguo.net\/upload\/photo\/7\/f\/f\/70_7f825c824045adae45a6f810707e272f.jpeg",
            "lv" : 5,
            "n" : "Tinaの小厨房🍓",
            "is_prime" : false,
            "verified_image" : ""
          },
          "img" : "https:\/\/i1.douguo.com\/upload\/caiku\/1\/1\/b\/960_11b03209a06bbcf71665d83ee2cdb9ab.jpeg",
          "vc" : 105474,
          "n" : "鸡汁抄手",
          "id" : 2982465,
          "p" : "https:\/\/i1.douguo.com\/upload\/caiku\/1\/1\/b\/960_11b03209a06bbcf71665d83ee2cdb9ab.jpeg",
          "cook_time" : "10~30分钟",
          "hq" : 0,
          "fc" : 2443
        },
        "type" : 2,
        "ju" : ""
      },
      {
        "type" : 2,
        "r" : {
          "pw" : 1152,
          "recommend_label" : "3878人刚刚收藏过",
          "img" : "https:\/\/i1.douguo.com\/upload\/caiku\/c\/4\/4\/960_c47aeac4d2a69b18310db0b91869b424.jpg",
          "dc" : 0,
          "au" : "recipes:\/\/www.douguo.com\/details?id=3247811",
          "ph" : 1536,
          "p" : "https:\/\/i1.douguo.com\/upload\/caiku\/c\/4\/4\/960_c47aeac4d2a69b18310db0b91869b424.jpg",
          "id" : 3247811,
          "recall" : "C_RANDOM",
          "vc" : 147523,
          "a" : {
            "p" : "http:\/\/tx1.douguo.net\/upload\/photo\/6\/8\/2\/70_u60677266257402130718.jpg",
            "n" : "LiLi有食间",
            "verified_image" : "",
            "is_prime" : false,
            "lv" : 5,
            "v" : 0,
            "id" : "23941426",
            "lvl" : 5
          },
          "an" : "LiLi有食间",
          "cook_time" : "10~30分钟",
          "n" : "浇汁五香豆腐。",
          "hq" : 0,
          "fc" : 3878
        },
        "ju" : ""
      },
      {
        "type" : 2,
        "ju" : "",
        "r" : {
          "pw" : 1278,
          "cook_time" : "10~30分钟",
          "an" : "沉香三盏",
          "hq" : 0,
          "p" : "https:\/\/i1.douguo.com\/upload\/caiku\/6\/a\/9\/960_6aa1f8a3a4e3655c9f063af627975fa9.jpeg",
          "recall" : "C_RANDOM",
          "id" : 3090967,
          "ph" : 1920,
          "recommend_label" : "3.2万人看过",
          "a" : {
            "is_prime" : false,
            "n" : "沉香三盏",
            "v" : 0,
            "id" : "22668420",
            "lv" : 6,
            "p" : "http:\/\/tx1.douguo.net\/upload\/photo\/a\/4\/9\/70_u3662946790149072927.jpeg",
            "verified_image" : "",
            "lvl" : 6
          },
          "dc" : 0,
          "n" : "融合版三汁焖锅，此道菜参考了众多美食达人分享的方法根据自己的口味进行了一个融合。",
          "vc" : 32062,
          "img" : "https:\/\/i1.douguo.com\/upload\/caiku\/6\/a\/9\/960_6aa1f8a3a4e3655c9f063af627975fa9.jpeg",
          "fc" : 304,
          "au" : "recipes:\/\/www.douguo.com\/details?id=3090967"
        }
      },
      {
        "type" : 2,
        "ju" : "",
        "r" : {
          "fc" : 2268,
          "pw" : 1152,
          "recommend_label" : "2268人刚刚收藏过",
          "au" : "recipes:\/\/www.douguo.com\/details?id=3201959",
          "ph" : 1536,
          "vc" : 117159,
          "p" : "https:\/\/i1.douguo.com\/upload\/caiku\/5\/c\/d\/960_5cc5b82367bea2765b836723dbda4dcd.jpg",
          "img" : "https:\/\/i1.douguo.com\/upload\/caiku\/5\/c\/d\/960_5cc5b82367bea2765b836723dbda4dcd.jpg",
          "id" : 3201959,
          "dc" : 0,
          "recall" : "C_RANDOM",
          "an" : "秋宁的美食厨房",
          "hq" : 0,
          "cook_time" : "10~30分钟",
          "n" : "零失败油炸花生米，酥香嘎嘣脆，做法巨简单",
          "a" : {
            "id" : "27183391",
            "lv" : 6,
            "p" : "http:\/\/tx1.douguo.net\/upload\/photo\/c\/4\/3\/70_c441169809ae003bdfe8da82322076b3.jpg",
            "verified_image" : "",
            "v" : 0,
            "lvl" : 6,
            "is_prime" : false,
            "n" : "秋宁的美食厨房"
          }
        }
      },
      {
        "type" : 2,
        "r" : {
          "recommend_label" : "7823人刚刚收藏过",
          "img" : "https:\/\/i1.douguo.com\/upload\/caiku\/d\/b\/4\/960_dbe1e6a7dfeefae4cfde068fd5a90fa4.jpeg",
          "vc" : 804031,
          "hq" : 0,
          "au" : "recipes:\/\/www.douguo.com\/details?id=2983413",
          "an" : "家和万事兴顺顺顺",
          "fc" : 7823,
          "cook_time" : "10~30分钟",
          "a" : {
            "lvl" : 8,
            "lv" : 8,
            "n" : "家和万事兴顺顺顺",
            "p" : "http:\/\/tx1.douguo.net\/upload\/photo\/7\/3\/6\/70_73674ac5d8bcd9b491c39070caf03636.jpg",
            "verified_image" : "https:\/\/i1.douguo.com\/upload\/note\/d\/a\/a\/da84247847aebe48d9dd0fcdac88862a.png",
            "v" : 1,
            "is_prime" : false,
            "id" : "5070050"
          },
          "pw" : 1279,
          "p" : "https:\/\/i1.douguo.com\/upload\/caiku\/d\/b\/4\/960_dbe1e6a7dfeefae4cfde068fd5a90fa4.jpeg",
          "id" : 2983413,
          "ph" : 1080,
          "recall" : "C_RANDOM",
          "n" : "鲍鱼海鲜粥，不同的海鲜食材会带来不同的功效，有虾仁的可以预防高血压。",
          "dc" : 0
        },
        "ju" : ""
      },
      {
        "type" : 2,
        "r" : {
          "img" : "https:\/\/i1.douguo.com\/upload\/caiku\/8\/3\/9\/960_8389b0bda2f678d5829a4b7e18668759.jpg",
          "a" : {
            "v" : 1,
            "n" : "兔子爱暖食",
            "p" : "http:\/\/tx1.douguo.net\/upload\/photo\/4\/9\/1\/70_49318cc44fa0dc248798e464cd22bfe1.jpg",
            "verified_image" : "https:\/\/i1.douguo.com\/upload\/note\/d\/a\/a\/da84247847aebe48d9dd0fcdac88862a.png",
            "lvl" : 6,
            "lv" : 6,
            "is_prime" : false,
            "id" : "3976629"
          },
          "hq" : 0,
          "pw" : 1280,
          "n" : "咸香玉米饼，玉米面做成馒头啥的口感我很难接受，但是做成小圆饼，我觉得很好吃，甜味的就加砂糖，牛奶，咸味的，就加一点盐，胡椒，今天做的就是咸味的！",
          "vc" : 108925,
          "fc" : 2650,
          "an" : "兔子爱暖食",
          "au" : "recipes:\/\/www.douguo.com\/details?id=2069397",
          "ph" : 960,
          "recommend_label" : "2650人刚刚收藏过",
          "recall" : "C_RANDOM",
          "id" : 2069397,
          "p" : "https:\/\/i1.douguo.com\/upload\/caiku\/8\/3\/9\/960_8389b0bda2f678d5829a4b7e18668759.jpg",
          "dc" : 1,
          "cook_time" : "10分钟左右"
        },
        "ju" : ""
      }
    ],
    "slt" : "上次看到这里 点击刷新"
  },
  "state" : "success"
}